<?xml version="1.0" encoding="UTF-8" standalone="no"?>
<!DOCTYPE svg PUBLIC "-//W3C//DTD SVG 1.1//EN"
 "http://www.w3.org/Graphics/SVG/1.1/DTD/svg11.dtd">
<!-- Generated by graphviz version 2.36.0 (20140111.2315)
 -->
<!-- Title: ac_create Pages: 1 -->
<svg width="332pt" height="164pt"
 viewBox="0.00 0.00 332.00 164.20" xmlns="http://www.w3.org/2000/svg" xmlns:xlink="http://www.w3.org/1999/xlink">
<g id="graph0" class="graph" transform="scale(1 1) rotate(0) translate(4 160.203)">
<title>ac_create</title>
<polygon fill="white" stroke="none" points="-4,4 -4,-160.203 328,-160.203 328,4 -4,4"/>
<!-- Node1 -->
<g id="node1" class="node"><title>Node1</title>
<polygon fill="#bfbfbf" stroke="black" points="0.5,-76.5 0.5,-95.5 59.5,-95.5 59.5,-76.5 0.5,-76.5"/>
<text text-anchor="middle" x="30" y="-83.5" font-family="Helvetica,sans-Serif" font-size="10.00">ac_create</text>
</g>
<!-- Node2 -->
<g id="node2" class="node"><title>Node2</title>
<g id="a_node2"><a xlink:href="memory_8c.html#a4c1612d209c7825d55e6a014df352f03" target="_top" xlink:title="Allocate zeroed memory on the heap. ">
<polygon fill="white" stroke="red" points="230,-38.5 230,-57.5 324,-57.5 324,-38.5 230,-38.5"/>
<text text-anchor="middle" x="277" y="-45.5" font-family="Helvetica,sans-Serif" font-size="10.00">mutt_mem_calloc</text>
</a>
</g>
</g>
<!-- Node1&#45;&gt;Node2 -->
<g id="edge1" class="edge"><title>Node1&#45;&gt;Node2</title>
<path fill="none" stroke="midnightblue" d="M59.5243,-76.4608C70.7775,-73.0149 83.8886,-69.3893 96,-67 136.967,-58.9182 183.903,-54.1072 219.573,-51.3489"/>
<polygon fill="midnightblue" stroke="midnightblue" points="220.077,-54.8213 229.791,-50.5909 219.559,-47.8404 220.077,-54.8213"/>
</g>
<!-- Node3 -->
<g id="node3" class="node"><title>Node3</title>
<g id="a_node3"><a xlink:href="mutt_2string_8c.html#ae48085384a6545e0fac589a88243ea31" target="_top" xlink:title="Copy a string, safely. ">
<polygon fill="white" stroke="red" points="234.5,-133.5 234.5,-152.5 319.5,-152.5 319.5,-133.5 234.5,-133.5"/>
<text text-anchor="middle" x="277" y="-140.5" font-family="Helvetica,sans-Serif" font-size="10.00">mutt_str_strdup</text>
</a>
</g>
</g>
<!-- Node1&#45;&gt;Node3 -->
<g id="edge2" class="edge"><title>Node1&#45;&gt;Node3</title>
<path fill="none" stroke="midnightblue" d="M38.0994,-95.5721C48.8521,-109.17 70.7151,-133.484 96,-143 137.17,-158.495 187.488,-156.949 224.445,-152.419"/>
<polygon fill="midnightblue" stroke="midnightblue" points="225.049,-155.869 234.496,-151.073 224.12,-148.931 225.049,-155.869"/>
</g>
<!-- Node4 -->
<g id="node4" class="node"><title>Node4</title>
<g id="a_node4"><a xlink:href="config_2set_8c.html#a6a48e8c12db6f64a6da6b219c3d987d9" target="_top" xlink:title="Get the HashElem representing a config item. ">
<polygon fill="white" stroke="red" points="109,-76.5 109,-95.5 181,-95.5 181,-76.5 109,-76.5"/>
<text text-anchor="middle" x="145" y="-83.5" font-family="Helvetica,sans-Serif" font-size="10.00">cs_get_elem</text>
</a>
</g>
</g>
<!-- Node1&#45;&gt;Node4 -->
<g id="edge3" class="edge"><title>Node1&#45;&gt;Node4</title>
<path fill="none" stroke="midnightblue" d="M59.5147,-86C71.2772,-86 85.2047,-86 98.3234,-86"/>
<polygon fill="midnightblue" stroke="midnightblue" points="98.6142,-89.5001 108.614,-86 98.6142,-82.5001 98.6142,-89.5001"/>
</g>
<!-- Node5 -->
<g id="node5" class="node"><title>Node5</title>
<g id="a_node5"><a xlink:href="config_2set_8c.html#a02909ed6e22b4c2c4cb5e588bec0941e" target="_top" xlink:title="Create in inherited config item. ">
<polygon fill="white" stroke="red" points="96,-114.5 96,-133.5 194,-133.5 194,-114.5 96,-114.5"/>
<text text-anchor="middle" x="145" y="-121.5" font-family="Helvetica,sans-Serif" font-size="10.00">cs_inherit_variable</text>
</a>
</g>
</g>
<!-- Node1&#45;&gt;Node5 -->
<g id="edge4" class="edge"><title>Node1&#45;&gt;Node5</title>
<path fill="none" stroke="midnightblue" d="M59.5147,-95.589C73.5666,-100.314 90.7082,-106.079 105.87,-111.177"/>
<polygon fill="midnightblue" stroke="midnightblue" points="104.9,-114.544 115.494,-114.414 107.132,-107.909 104.9,-114.544"/>
</g>
<!-- Node6 -->
<g id="node6" class="node"><title>Node6</title>
<g id="a_node6"><a xlink:href="account_8c.html#a94798fed713f5db487ba6e54e29b0b1c" target="_top" xlink:title="Free an Account object. ">
<polygon fill="white" stroke="red" points="120.5,-0.5 120.5,-19.5 169.5,-19.5 169.5,-0.5 120.5,-0.5"/>
<text text-anchor="middle" x="145" y="-7.5" font-family="Helvetica,sans-Serif" font-size="10.00">ac_free</text>
</a>
</g>
</g>
<!-- Node1&#45;&gt;Node6 -->
<g id="edge7" class="edge"><title>Node1&#45;&gt;Node6</title>
<path fill="none" stroke="midnightblue" d="M41.5119,-76.4293C53.947,-65.3905 75.5493,-47.085 96,-34 101.459,-30.507 107.496,-27.1402 113.393,-24.089"/>
<polygon fill="midnightblue" stroke="midnightblue" points="115.051,-27.173 122.442,-19.5811 111.93,-20.9074 115.051,-27.173"/>
</g>
<!-- Node5&#45;&gt;Node2 -->
<g id="edge5" class="edge"><title>Node5&#45;&gt;Node2</title>
<path fill="none" stroke="midnightblue" d="M173.404,-114.412C180.271,-111.67 187.523,-108.473 194,-105 216.304,-93.041 239.832,-76.1882 255.938,-63.9104"/>
<polygon fill="midnightblue" stroke="midnightblue" points="258.3,-66.5081 264.066,-57.6202 254.016,-60.9721 258.3,-66.5081"/>
</g>
<!-- Node5&#45;&gt;Node3 -->
<g id="edge6" class="edge"><title>Node5&#45;&gt;Node3</title>
<path fill="none" stroke="midnightblue" d="M194.038,-131.021C203.808,-132.449 214.128,-133.957 224.027,-135.404"/>
<polygon fill="midnightblue" stroke="midnightblue" points="223.749,-138.9 234.15,-136.883 224.762,-131.974 223.749,-138.9"/>
</g>
<!-- Node6&#45;&gt;Node2 -->
<g id="edge8" class="edge"><title>Node6&#45;&gt;Node2</title>
<path fill="none" stroke="midnightblue" d="M169.542,-16.8815C187.355,-22.0883 212.296,-29.3789 233.56,-35.5946"/>
<polygon fill="midnightblue" stroke="midnightblue" points="232.763,-39.008 243.344,-38.4543 234.727,-32.2891 232.763,-39.008"/>
</g>
</g>
</svg>
