<?xml version="1.0" encoding="UTF-8" standalone="no"?>
<!DOCTYPE svg PUBLIC "-//W3C//DTD SVG 1.1//EN"
 "http://www.w3.org/Graphics/SVG/1.1/DTD/svg11.dtd">
<!-- Generated by graphviz version 2.36.0 (20140111.2315)
 -->
<!-- Title: ac_free Pages: 1 -->
<svg width="188pt" height="180pt"
 viewBox="0.00 0.00 188.00 180.00" xmlns="http://www.w3.org/2000/svg" xmlns:xlink="http://www.w3.org/1999/xlink">
<g id="graph0" class="graph" transform="scale(1 1) rotate(0) translate(4 176)">
<title>ac_free</title>
<polygon fill="white" stroke="none" points="-4,4 -4,-176 184,-176 184,4 -4,4"/>
<!-- Node1 -->
<g id="node1" class="node"><title>Node1</title>
<polygon fill="#bfbfbf" stroke="black" points="0.5,-76.5 0.5,-95.5 49.5,-95.5 49.5,-76.5 0.5,-76.5"/>
<text text-anchor="middle" x="25" y="-83.5" font-family="Helvetica,sans-Serif" font-size="10.00">ac_free</text>
</g>
<!-- Node2 -->
<g id="node2" class="node"><title>Node2</title>
<g id="a_node2"><a xlink:href="buffer_8c.html#ab31dc6030636f826c60c65d143cb249d" target="_top" xlink:title="Initialise a new Buffer. ">
<polygon fill="white" stroke="black" points="91,-152.5 91,-171.5 175,-171.5 175,-152.5 91,-152.5"/>
<text text-anchor="middle" x="133" y="-159.5" font-family="Helvetica,sans-Serif" font-size="10.00">mutt_buffer_init</text>
</a>
</g>
</g>
<!-- Node1&#45;&gt;Node2 -->
<g id="edge1" class="edge"><title>Node1&#45;&gt;Node2</title>
<path fill="none" stroke="midnightblue" d="M34.0698,-95.6086C44.8477,-107.948 65.0301,-129.389 86,-143 88.7541,-144.788 91.7041,-146.463 94.7312,-148.021"/>
<polygon fill="midnightblue" stroke="midnightblue" points="93.385,-151.255 103.925,-152.332 96.3572,-144.917 93.385,-151.255"/>
</g>
<!-- Node3 -->
<g id="node3" class="node"><title>Node3</title>
<g id="a_node3"><a xlink:href="memory_8c.html#a4c1612d209c7825d55e6a014df352f03" target="_top" xlink:title="Allocate zeroed memory on the heap. ">
<polygon fill="white" stroke="red" points="86,-114.5 86,-133.5 180,-133.5 180,-114.5 86,-114.5"/>
<text text-anchor="middle" x="133" y="-121.5" font-family="Helvetica,sans-Serif" font-size="10.00">mutt_mem_calloc</text>
</a>
</g>
</g>
<!-- Node1&#45;&gt;Node3 -->
<g id="edge2" class="edge"><title>Node1&#45;&gt;Node3</title>
<path fill="none" stroke="midnightblue" d="M49.5248,-94.4334C63.0339,-99.2763 80.2889,-105.462 95.5211,-110.923"/>
<polygon fill="midnightblue" stroke="midnightblue" points="94.5844,-114.305 105.179,-114.385 96.9467,-107.716 94.5844,-114.305"/>
</g>
<!-- Node4 -->
<g id="node4" class="node"><title>Node4</title>
<g id="a_node4"><a xlink:href="buffer_8c.html#a8da54c4ec8e1a4e21158f134441bdf2d" target="_top" xlink:title="Reset an existing Buffer. ">
<polygon fill="white" stroke="black" points="86.5,-76.5 86.5,-95.5 179.5,-95.5 179.5,-76.5 86.5,-76.5"/>
<text text-anchor="middle" x="133" y="-83.5" font-family="Helvetica,sans-Serif" font-size="10.00">mutt_buffer_reset</text>
</a>
</g>
</g>
<!-- Node1&#45;&gt;Node4 -->
<g id="edge3" class="edge"><title>Node1&#45;&gt;Node4</title>
<path fill="none" stroke="midnightblue" d="M49.5248,-86C57.4978,-86 66.7756,-86 76.1722,-86"/>
<polygon fill="midnightblue" stroke="midnightblue" points="76.3592,-89.5001 86.3591,-86 76.3591,-82.5001 76.3592,-89.5001"/>
</g>
<!-- Node5 -->
<g id="node5" class="node"><title>Node5</title>
<g id="a_node5"><a xlink:href="config_2set_8c.html#a2c2cb475e50df247e8c88dab8c123534" target="_top" xlink:title="Reset a config item to its initial value. ">
<polygon fill="white" stroke="red" points="97.5,-38.5 97.5,-57.5 168.5,-57.5 168.5,-38.5 97.5,-38.5"/>
<text text-anchor="middle" x="133" y="-45.5" font-family="Helvetica,sans-Serif" font-size="10.00">cs_str_reset</text>
</a>
</g>
</g>
<!-- Node1&#45;&gt;Node5 -->
<g id="edge4" class="edge"><title>Node1&#45;&gt;Node5</title>
<path fill="none" stroke="midnightblue" d="M49.5248,-77.5666C63.0339,-72.7237 80.2889,-66.5379 95.5211,-61.0774"/>
<polygon fill="midnightblue" stroke="midnightblue" points="96.9467,-64.2845 105.179,-57.6151 94.5844,-57.6951 96.9467,-64.2845"/>
</g>
<!-- Node6 -->
<g id="node6" class="node"><title>Node6</title>
<g id="a_node6"><a xlink:href="hash_8c.html#a7f96b39770975621a4b07a4d1b1300b8" target="_top" xlink:title="Remove an element from a Hash table. ">
<polygon fill="white" stroke="red" points="86,-0.5 86,-19.5 180,-19.5 180,-0.5 86,-0.5"/>
<text text-anchor="middle" x="133" y="-7.5" font-family="Helvetica,sans-Serif" font-size="10.00">mutt_hash_delete</text>
</a>
</g>
</g>
<!-- Node1&#45;&gt;Node6 -->
<g id="edge5" class="edge"><title>Node1&#45;&gt;Node6</title>
<path fill="none" stroke="midnightblue" d="M34.0698,-76.3914C44.8477,-64.0523 65.0301,-42.6112 86,-29 88.7541,-27.2124 91.7041,-25.5368 94.7312,-23.9794"/>
<polygon fill="midnightblue" stroke="midnightblue" points="96.3572,-27.0827 103.925,-19.6679 93.385,-20.745 96.3572,-27.0827"/>
</g>
</g>
</svg>
