<?xml version="1.0" encoding="UTF-8" standalone="no"?>
<!DOCTYPE svg PUBLIC "-//W3C//DTD SVG 1.1//EN"
 "http://www.w3.org/Graphics/SVG/1.1/DTD/svg11.dtd">
<!-- Generated by graphviz version 2.36.0 (20140111.2315)
 -->
<!-- Title: test_check__ Pages: 1 -->
<svg width="198pt" height="28pt"
 viewBox="0.00 0.00 198.00 28.00" xmlns="http://www.w3.org/2000/svg" xmlns:xlink="http://www.w3.org/1999/xlink">
<g id="graph0" class="graph" transform="scale(1 1) rotate(0) translate(4 24)">
<title>test_check__</title>
<polygon fill="white" stroke="none" points="-4,4 -4,-24 194,-24 194,4 -4,4"/>
<!-- Node1 -->
<g id="node1" class="node"><title>Node1</title>
<polygon fill="#bfbfbf" stroke="black" points="0.5,-0.5 0.5,-19.5 75.5,-19.5 75.5,-0.5 0.5,-0.5"/>
<text text-anchor="middle" x="38" y="-7.5" font-family="Helvetica,sans-Serif" font-size="10.00">test_check__</text>
</g>
<!-- Node2 -->
<g id="node2" class="node"><title>Node2</title>
<g id="a_node2"><a xlink:href="acutest_8h.html#a5be9ff3876e92ec77a1070034ddebfc4" target="_top" xlink:title="test_do_run__">
<polygon fill="white" stroke="red" points="112,-0.5 112,-19.5 190,-19.5 190,-0.5 112,-0.5"/>
<text text-anchor="middle" x="151" y="-7.5" font-family="Helvetica,sans-Serif" font-size="10.00">test_do_run__</text>
</a>
</g>
</g>
<!-- Node1&#45;&gt;Node2 -->
<g id="edge1" class="edge"><title>Node1&#45;&gt;Node2</title>
<path fill="none" stroke="midnightblue" d="M85.7003,-10C94.4208,-10 103.439,-10 111.863,-10"/>
<polygon fill="midnightblue" stroke="midnightblue" points="85.6532,-6.5001 75.6532,-10 85.6531,-13.5001 85.6532,-6.5001"/>
</g>
</g>
</svg>
