<?xml version="1.0" encoding="UTF-8" standalone="no"?>
<!DOCTYPE svg PUBLIC "-//W3C//DTD SVG 1.1//EN"
 "http://www.w3.org/Graphics/SVG/1.1/DTD/svg11.dtd">
<!-- Generated by graphviz version 2.36.0 (20140111.2315)
 -->
<!-- Title: test/acutest.h Pages: 1 -->
<svg width="2741pt" height="84pt"
 viewBox="0.00 0.00 2741.00 84.00" xmlns="http://www.w3.org/2000/svg" xmlns:xlink="http://www.w3.org/1999/xlink">
<g id="graph0" class="graph" transform="scale(1 1) rotate(0) translate(4 80)">
<title>test/acutest.h</title>
<polygon fill="white" stroke="none" points="-4,4 -4,-80 2737,-80 2737,4 -4,4"/>
<!-- Node1 -->
<g id="node1" class="node"><title>Node1</title>
<polygon fill="#bfbfbf" stroke="black" points="1413.5,-56.5 1413.5,-75.5 1490.5,-75.5 1490.5,-56.5 1413.5,-56.5"/>
<text text-anchor="middle" x="1452" y="-63.5" font-family="Helvetica,sans-Serif" font-size="10.00">test/acutest.h</text>
</g>
<!-- Node2 -->
<g id="node2" class="node"><title>Node2</title>
<g id="a_node2"><a xlink:href="test_2address_8c.html" target="_top" xlink:title="test/address.c">
<polygon fill="white" stroke="black" points="-0.5,-0.5 -0.5,-19.5 78.5,-19.5 78.5,-0.5 -0.5,-0.5"/>
<text text-anchor="middle" x="39" y="-7.5" font-family="Helvetica,sans-Serif" font-size="10.00">test/address.c</text>
</a>
</g>
</g>
<!-- Node1&#45;&gt;Node2 -->
<g id="edge1" class="edge"><title>Node1&#45;&gt;Node2</title>
<path fill="none" stroke="midnightblue" d="M1403.25,-64.3643C1191.54,-61.4541 350.79,-48.3098 88,-20 84.9042,-19.6665 81.7101,-19.2488 78.5065,-18.7772"/>
<polygon fill="midnightblue" stroke="midnightblue" points="1403.38,-67.8664 1413.43,-64.503 1403.48,-60.867 1403.38,-67.8664"/>
</g>
<!-- Node3 -->
<g id="node3" class="node"><title>Node3</title>
<g id="a_node3"><a xlink:href="test_2base64_8c.html" target="_top" xlink:title="test/base64.c">
<polygon fill="white" stroke="black" points="97,-0.5 97,-19.5 173,-19.5 173,-0.5 97,-0.5"/>
<text text-anchor="middle" x="135" y="-7.5" font-family="Helvetica,sans-Serif" font-size="10.00">test/base64.c</text>
</a>
</g>
</g>
<!-- Node1&#45;&gt;Node3 -->
<g id="edge2" class="edge"><title>Node1&#45;&gt;Node3</title>
<path fill="none" stroke="midnightblue" d="M1403.33,-64.2773C1200.94,-61.1176 425.232,-47.4325 182,-20 179.111,-19.6741 176.133,-19.2691 173.144,-18.8127"/>
<polygon fill="midnightblue" stroke="midnightblue" points="1403.31,-67.7773 1413.36,-64.4326 1403.41,-60.7781 1403.31,-67.7773"/>
</g>
<!-- Node4 -->
<g id="node4" class="node"><title>Node4</title>
<g id="a_node4"><a xlink:href="account_8c.html" target="_top" xlink:title="Test code for the Account object. ">
<polygon fill="white" stroke="black" points="191,-0.5 191,-19.5 299,-19.5 299,-0.5 191,-0.5"/>
<text text-anchor="middle" x="245" y="-7.5" font-family="Helvetica,sans-Serif" font-size="10.00">test/config/account.c</text>
</a>
</g>
</g>
<!-- Node1&#45;&gt;Node4 -->
<g id="edge3" class="edge"><title>Node1&#45;&gt;Node4</title>
<path fill="none" stroke="midnightblue" d="M1403.03,-64.8669C1244.45,-64.0528 730.805,-58.4139 308,-20 305.139,-19.7401 302.21,-19.4401 299.255,-19.1109"/>
<polygon fill="midnightblue" stroke="midnightblue" points="1403.38,-68.3685 1413.39,-64.9157 1403.41,-61.3686 1403.38,-68.3685"/>
</g>
<!-- Node5 -->
<g id="node5" class="node"><title>Node5</title>
<g id="a_node5"><a xlink:href="test_2config_2address_8c.html" target="_top" xlink:title="Test code for the Address object. ">
<polygon fill="white" stroke="black" points="317,-0.5 317,-19.5 425,-19.5 425,-0.5 317,-0.5"/>
<text text-anchor="middle" x="371" y="-7.5" font-family="Helvetica,sans-Serif" font-size="10.00">test/config/address.c</text>
</a>
</g>
</g>
<!-- Node1&#45;&gt;Node5 -->
<g id="edge4" class="edge"><title>Node1&#45;&gt;Node5</title>
<path fill="none" stroke="midnightblue" d="M1403.01,-64.5305C1255.96,-62.7569 805.553,-54.668 434,-20 431.14,-19.7331 428.211,-19.4276 425.256,-19.0941"/>
<polygon fill="midnightblue" stroke="midnightblue" points="1403.03,-68.0308 1413.07,-64.6475 1403.11,-61.0313 1403.03,-68.0308"/>
</g>
<!-- Node6 -->
<g id="node6" class="node"><title>Node6</title>
<g id="a_node6"><a xlink:href="test_2config_2bool_8c.html" target="_top" xlink:title="Test code for the Bool object. ">
<polygon fill="white" stroke="black" points="443,-0.5 443,-19.5 535,-19.5 535,-0.5 443,-0.5"/>
<text text-anchor="middle" x="489" y="-7.5" font-family="Helvetica,sans-Serif" font-size="10.00">test/config/bool.c</text>
</a>
</g>
</g>
<!-- Node1&#45;&gt;Node6 -->
<g id="edge5" class="edge"><title>Node1&#45;&gt;Node6</title>
<path fill="none" stroke="midnightblue" d="M1403.27,-64.5139C1267.07,-62.7398 870.96,-54.7415 544,-20 541.114,-19.6933 538.148,-19.3349 535.162,-18.9411"/>
<polygon fill="midnightblue" stroke="midnightblue" points="1403.34,-68.0149 1413.38,-64.6403 1403.43,-61.0155 1403.34,-68.0149"/>
</g>
<!-- Node7 -->
<g id="node7" class="node"><title>Node7</title>
<g id="a_node7"><a xlink:href="test_2config_2command_8c.html" target="_top" xlink:title="Test code for the Command object. ">
<polygon fill="white" stroke="black" points="553,-0.5 553,-19.5 669,-19.5 669,-0.5 553,-0.5"/>
<text text-anchor="middle" x="611" y="-7.5" font-family="Helvetica,sans-Serif" font-size="10.00">test/config/command.c</text>
</a>
</g>
</g>
<!-- Node1&#45;&gt;Node7 -->
<g id="edge6" class="edge"><title>Node1&#45;&gt;Node7</title>
<path fill="none" stroke="midnightblue" d="M1403.1,-63.4386C1280.71,-59.2526 951.399,-46.2725 678,-20 675.079,-19.7193 672.09,-19.4077 669.074,-19.0737"/>
<polygon fill="midnightblue" stroke="midnightblue" points="1403.15,-66.9424 1413.26,-63.7823 1403.39,-59.9464 1403.15,-66.9424"/>
</g>
<!-- Node8 -->
<g id="node8" class="node"><title>Node8</title>
<g id="a_node8"><a xlink:href="common_8c.html" target="_top" xlink:title="Shared Testing Code. ">
<polygon fill="white" stroke="black" points="687.5,-0.5 687.5,-19.5 798.5,-19.5 798.5,-0.5 687.5,-0.5"/>
<text text-anchor="middle" x="743" y="-7.5" font-family="Helvetica,sans-Serif" font-size="10.00">test/config/common.c</text>
</a>
</g>
</g>
<!-- Node1&#45;&gt;Node8 -->
<g id="edge7" class="edge"><title>Node1&#45;&gt;Node8</title>
<path fill="none" stroke="midnightblue" d="M1403.23,-62.7239C1295.61,-57.4527 1029.7,-43.0675 808,-20 804.941,-19.6817 801.803,-19.3304 798.639,-18.9566"/>
<polygon fill="midnightblue" stroke="midnightblue" points="1403.29,-66.2308 1413.45,-63.2201 1403.63,-59.239 1403.29,-66.2308"/>
</g>
<!-- Node9 -->
<g id="node9" class="node"><title>Node9</title>
<g id="a_node9"><a xlink:href="initial_8c.html" target="_top" xlink:title="Test code for pre&#45;setting initial values. ">
<polygon fill="white" stroke="black" points="817,-0.5 817,-19.5 913,-19.5 913,-0.5 817,-0.5"/>
<text text-anchor="middle" x="865" y="-7.5" font-family="Helvetica,sans-Serif" font-size="10.00">test/config/initial.c</text>
</a>
</g>
</g>
<!-- Node1&#45;&gt;Node9 -->
<g id="edge8" class="edge"><title>Node1&#45;&gt;Node9</title>
<path fill="none" stroke="midnightblue" d="M1403.32,-62.0419C1309.83,-56.1004 1098.72,-41.426 922,-20 919.116,-19.6503 916.154,-19.2644 913.168,-18.8548"/>
<polygon fill="midnightblue" stroke="midnightblue" points="1403.13,-65.5369 1413.33,-62.6732 1403.57,-58.5507 1403.13,-65.5369"/>
</g>
<!-- Node10 -->
<g id="node10" class="node"><title>Node10</title>
<g id="a_node10"><a xlink:href="test_2config_2long_8c.html" target="_top" xlink:title="Test code for the Long object. ">
<polygon fill="white" stroke="black" points="931,-0.5 931,-19.5 1023,-19.5 1023,-0.5 931,-0.5"/>
<text text-anchor="middle" x="977" y="-7.5" font-family="Helvetica,sans-Serif" font-size="10.00">test/config/long.c</text>
</a>
</g>
</g>
<!-- Node1&#45;&gt;Node10 -->
<g id="edge9" class="edge"><title>Node1&#45;&gt;Node10</title>
<path fill="none" stroke="midnightblue" d="M1403.35,-60.671C1324.99,-53.5004 1166.06,-38.1356 1032,-20 1029.12,-19.6109 1026.17,-19.1893 1023.19,-18.7483"/>
<polygon fill="midnightblue" stroke="midnightblue" points="1403.13,-64.1654 1413.41,-61.5868 1403.76,-57.1943 1403.13,-64.1654"/>
</g>
<!-- Node11 -->
<g id="node11" class="node"><title>Node11</title>
<g id="a_node11"><a xlink:href="test_2config_2magic_8c.html" target="_top" xlink:title="Test code for the Magic object. ">
<polygon fill="white" stroke="black" points="1041,-0.5 1041,-19.5 1141,-19.5 1141,-0.5 1041,-0.5"/>
<text text-anchor="middle" x="1091" y="-7.5" font-family="Helvetica,sans-Serif" font-size="10.00">test/config/magic.c</text>
</a>
</g>
</g>
<!-- Node1&#45;&gt;Node11 -->
<g id="edge10" class="edge"><title>Node1&#45;&gt;Node11</title>
<path fill="none" stroke="midnightblue" d="M1403.48,-57.8235C1343.81,-48.9851 1239.44,-33.485 1150,-20 1147.13,-19.5675 1144.18,-19.1219 1141.21,-18.6713"/>
<polygon fill="midnightblue" stroke="midnightblue" points="1402.97,-61.2861 1413.38,-59.2888 1404,-54.3616 1402.97,-61.2861"/>
</g>
<!-- Node12 -->
<g id="node12" class="node"><title>Node12</title>
<g id="a_node12"><a xlink:href="test_2config_2main_8c.html" target="_top" xlink:title="Tests for the config code. ">
<polygon fill="white" stroke="black" points="1159.5,-0.5 1159.5,-19.5 1254.5,-19.5 1254.5,-0.5 1159.5,-0.5"/>
<text text-anchor="middle" x="1207" y="-7.5" font-family="Helvetica,sans-Serif" font-size="10.00">test/config/main.c</text>
</a>
</g>
</g>
<!-- Node1&#45;&gt;Node12 -->
<g id="edge11" class="edge"><title>Node1&#45;&gt;Node12</title>
<path fill="none" stroke="midnightblue" d="M1403.65,-54.3431C1357.38,-44.1453 1288.49,-28.9607 1245.73,-19.5364"/>
<polygon fill="midnightblue" stroke="midnightblue" points="1402.93,-57.7686 1413.45,-56.5031 1404.44,-50.9326 1402.93,-57.7686"/>
</g>
<!-- Node13 -->
<g id="node13" class="node"><title>Node13</title>
<g id="a_node13"><a xlink:href="test_2config_2mbtable_8c.html" target="_top" xlink:title="Test code for the Mbtable object. ">
<polygon fill="white" stroke="black" points="1273,-0.5 1273,-19.5 1381,-19.5 1381,-0.5 1273,-0.5"/>
<text text-anchor="middle" x="1327" y="-7.5" font-family="Helvetica,sans-Serif" font-size="10.00">test/config/mbtable.c</text>
</a>
</g>
</g>
<!-- Node1&#45;&gt;Node13 -->
<g id="edge12" class="edge"><title>Node1&#45;&gt;Node13</title>
<path fill="none" stroke="midnightblue" d="M1422.76,-52.3678C1399.35,-42.2553 1367.16,-28.3486 1346.71,-19.5164"/>
<polygon fill="midnightblue" stroke="midnightblue" points="1421.63,-55.6907 1432.19,-56.4435 1424.4,-49.2647 1421.63,-55.6907"/>
</g>
<!-- Node14 -->
<g id="node14" class="node"><title>Node14</title>
<g id="a_node14"><a xlink:href="test_2config_2number_8c.html" target="_top" xlink:title="Test code for the Number object. ">
<polygon fill="white" stroke="black" points="1399,-0.5 1399,-19.5 1505,-19.5 1505,-0.5 1399,-0.5"/>
<text text-anchor="middle" x="1452" y="-7.5" font-family="Helvetica,sans-Serif" font-size="10.00">test/config/number.c</text>
</a>
</g>
</g>
<!-- Node1&#45;&gt;Node14 -->
<g id="edge13" class="edge"><title>Node1&#45;&gt;Node14</title>
<path fill="none" stroke="midnightblue" d="M1452,-45.8045C1452,-36.9102 1452,-26.7798 1452,-19.7511"/>
<polygon fill="midnightblue" stroke="midnightblue" points="1448.5,-46.083 1452,-56.083 1455.5,-46.083 1448.5,-46.083"/>
</g>
<!-- Node15 -->
<g id="node15" class="node"><title>Node15</title>
<g id="a_node15"><a xlink:href="test_2config_2path_8c.html" target="_top" xlink:title="Test code for the Path object. ">
<polygon fill="white" stroke="black" points="1523,-0.5 1523,-19.5 1615,-19.5 1615,-0.5 1523,-0.5"/>
<text text-anchor="middle" x="1569" y="-7.5" font-family="Helvetica,sans-Serif" font-size="10.00">test/config/path.c</text>
</a>
</g>
</g>
<!-- Node1&#45;&gt;Node15 -->
<g id="edge14" class="edge"><title>Node1&#45;&gt;Node15</title>
<path fill="none" stroke="midnightblue" d="M1479.66,-52.2321C1501.55,-42.1312 1531.5,-28.3091 1550.55,-19.5164"/>
<polygon fill="midnightblue" stroke="midnightblue" points="1478.15,-49.075 1470.54,-56.4435 1481.09,-55.4308 1478.15,-49.075"/>
</g>
<!-- Node16 -->
<g id="node16" class="node"><title>Node16</title>
<g id="a_node16"><a xlink:href="test_2config_2quad_8c.html" target="_top" xlink:title="Test code for the Quad object. ">
<polygon fill="white" stroke="black" points="1633.5,-0.5 1633.5,-19.5 1728.5,-19.5 1728.5,-0.5 1633.5,-0.5"/>
<text text-anchor="middle" x="1681" y="-7.5" font-family="Helvetica,sans-Serif" font-size="10.00">test/config/quad.c</text>
</a>
</g>
</g>
<!-- Node1&#45;&gt;Node16 -->
<g id="edge15" class="edge"><title>Node1&#45;&gt;Node16</title>
<path fill="none" stroke="midnightblue" d="M1498.27,-54.0884C1541.54,-43.8865 1605.26,-28.8612 1644.88,-19.5164"/>
<polygon fill="midnightblue" stroke="midnightblue" points="1497.22,-50.7418 1488.29,-56.4435 1498.82,-57.5549 1497.22,-50.7418"/>
</g>
<!-- Node17 -->
<g id="node17" class="node"><title>Node17</title>
<g id="a_node17"><a xlink:href="test_2config_2regex_8c.html" target="_top" xlink:title="Test code for the Regex object. ">
<polygon fill="white" stroke="black" points="1747,-0.5 1747,-19.5 1845,-19.5 1845,-0.5 1747,-0.5"/>
<text text-anchor="middle" x="1796" y="-7.5" font-family="Helvetica,sans-Serif" font-size="10.00">test/config/regex.c</text>
</a>
</g>
</g>
<!-- Node1&#45;&gt;Node17 -->
<g id="edge16" class="edge"><title>Node1&#45;&gt;Node17</title>
<path fill="none" stroke="midnightblue" d="M1500.83,-57.3342C1566.16,-47.0788 1681.36,-28.9965 1746.85,-18.7158"/>
<polygon fill="midnightblue" stroke="midnightblue" points="1500.13,-53.902 1490.79,-58.9105 1501.21,-60.8173 1500.13,-53.902"/>
</g>
<!-- Node18 -->
<g id="node18" class="node"><title>Node18</title>
<g id="a_node18"><a xlink:href="test_2config_2set_8c.html" target="_top" xlink:title="Test code for the ConfigSet object. ">
<polygon fill="white" stroke="black" points="1863.5,-0.5 1863.5,-19.5 1950.5,-19.5 1950.5,-0.5 1863.5,-0.5"/>
<text text-anchor="middle" x="1907" y="-7.5" font-family="Helvetica,sans-Serif" font-size="10.00">test/config/set.c</text>
</a>
</g>
</g>
<!-- Node1&#45;&gt;Node18 -->
<g id="edge17" class="edge"><title>Node1&#45;&gt;Node18</title>
<path fill="none" stroke="midnightblue" d="M1500.67,-60.3843C1576.23,-53.0281 1726.26,-37.6598 1853,-20 1856.39,-19.5278 1859.89,-19.0104 1863.41,-18.4699"/>
<polygon fill="midnightblue" stroke="midnightblue" points="1500.13,-56.9203 1490.52,-61.3685 1500.81,-63.8877 1500.13,-56.9203"/>
</g>
<!-- Node19 -->
<g id="node19" class="node"><title>Node19</title>
<g id="a_node19"><a xlink:href="test_2config_2sort_8c.html" target="_top" xlink:title="Test code for the Sort object. ">
<polygon fill="white" stroke="black" points="1969,-0.5 1969,-19.5 2059,-19.5 2059,-0.5 1969,-0.5"/>
<text text-anchor="middle" x="2014" y="-7.5" font-family="Helvetica,sans-Serif" font-size="10.00">test/config/sort.c</text>
</a>
</g>
</g>
<!-- Node1&#45;&gt;Node19 -->
<g id="edge18" class="edge"><title>Node1&#45;&gt;Node19</title>
<path fill="none" stroke="midnightblue" d="M1500.81,-61.8687C1591.36,-55.7937 1791.39,-41.1233 1959,-20 1962.17,-19.6008 1965.43,-19.1549 1968.72,-18.6811"/>
<polygon fill="midnightblue" stroke="midnightblue" points="1500.33,-58.3932 1490.58,-62.5497 1500.79,-65.3778 1500.33,-58.3932"/>
</g>
<!-- Node20 -->
<g id="node20" class="node"><title>Node20</title>
<g id="a_node20"><a xlink:href="test_2config_2string_8c.html" target="_top" xlink:title="Test code for the String object. ">
<polygon fill="white" stroke="black" points="2077,-0.5 2077,-19.5 2175,-19.5 2175,-0.5 2077,-0.5"/>
<text text-anchor="middle" x="2126" y="-7.5" font-family="Helvetica,sans-Serif" font-size="10.00">test/config/string.c</text>
</a>
</g>
</g>
<!-- Node1&#45;&gt;Node20 -->
<g id="edge19" class="edge"><title>Node1&#45;&gt;Node20</title>
<path fill="none" stroke="midnightblue" d="M1500.89,-62.7772C1605.28,-57.7347 1857.62,-43.9674 2068,-20 2070.94,-19.6655 2073.95,-19.2913 2076.99,-18.8907"/>
<polygon fill="midnightblue" stroke="midnightblue" points="1500.48,-59.2924 1490.66,-63.2659 1500.82,-66.2844 1500.48,-59.2924"/>
</g>
<!-- Node21 -->
<g id="node21" class="node"><title>Node21</title>
<g id="a_node21"><a xlink:href="synonym_8c.html" target="_top" xlink:title="Test code for Config Synonyms. ">
<polygon fill="white" stroke="black" points="2193.5,-0.5 2193.5,-19.5 2306.5,-19.5 2306.5,-0.5 2193.5,-0.5"/>
<text text-anchor="middle" x="2250" y="-7.5" font-family="Helvetica,sans-Serif" font-size="10.00">test/config/synonym.c</text>
</a>
</g>
</g>
<!-- Node1&#45;&gt;Node21 -->
<g id="edge20" class="edge"><title>Node1&#45;&gt;Node21</title>
<path fill="none" stroke="midnightblue" d="M1500.62,-63.2187C1618.09,-58.6515 1926.57,-45.0824 2183,-20 2186.39,-19.6687 2189.87,-19.2969 2193.37,-18.8981"/>
<polygon fill="midnightblue" stroke="midnightblue" points="1500.38,-59.7256 1490.52,-63.6077 1500.64,-66.7204 1500.38,-59.7256"/>
</g>
<!-- Node22 -->
<g id="node22" class="node"><title>Node22</title>
<g id="a_node22"><a xlink:href="test_2main_8c.html" target="_top" xlink:title="test/main.c">
<polygon fill="white" stroke="black" points="2324.5,-0.5 2324.5,-19.5 2389.5,-19.5 2389.5,-0.5 2324.5,-0.5"/>
<text text-anchor="middle" x="2357" y="-7.5" font-family="Helvetica,sans-Serif" font-size="10.00">test/main.c</text>
</a>
</g>
</g>
<!-- Node1&#45;&gt;Node22 -->
<g id="edge21" class="edge"><title>Node1&#45;&gt;Node22</title>
<path fill="none" stroke="midnightblue" d="M1501.11,-65.1638C1633.26,-65.0176 2007.28,-60.7302 2315,-20 2317.96,-19.6086 2321.02,-19.1198 2324.07,-18.5736"/>
<polygon fill="midnightblue" stroke="midnightblue" points="1500.91,-61.6638 1490.91,-65.1673 1500.91,-68.6638 1500.91,-61.6638"/>
</g>
<!-- Node23 -->
<g id="node23" class="node"><title>Node23</title>
<g id="a_node23"><a xlink:href="test_2md5_8c.html" target="_top" xlink:title="test/md5.c">
<polygon fill="white" stroke="black" points="2407.5,-0.5 2407.5,-19.5 2470.5,-19.5 2470.5,-0.5 2407.5,-0.5"/>
<text text-anchor="middle" x="2439" y="-7.5" font-family="Helvetica,sans-Serif" font-size="10.00">test/md5.c</text>
</a>
</g>
</g>
<!-- Node1&#45;&gt;Node23 -->
<g id="edge22" class="edge"><title>Node1&#45;&gt;Node23</title>
<path fill="none" stroke="midnightblue" d="M1500.9,-65.5692C1641.21,-66.5809 2056.85,-65.2282 2398,-20 2401.03,-19.5977 2404.18,-19.0852 2407.31,-18.5094"/>
<polygon fill="midnightblue" stroke="midnightblue" points="1500.53,-62.0663 1490.51,-65.4861 1500.48,-69.066 1500.53,-62.0663"/>
</g>
<!-- Node24 -->
<g id="node24" class="node"><title>Node24</title>
<g id="a_node24"><a xlink:href="test_2path_8c.html" target="_top" xlink:title="test/path.c">
<polygon fill="white" stroke="black" points="2488.5,-0.5 2488.5,-19.5 2551.5,-19.5 2551.5,-0.5 2488.5,-0.5"/>
<text text-anchor="middle" x="2520" y="-7.5" font-family="Helvetica,sans-Serif" font-size="10.00">test/path.c</text>
</a>
</g>
</g>
<!-- Node1&#45;&gt;Node24 -->
<g id="edge23" class="edge"><title>Node1&#45;&gt;Node24</title>
<path fill="none" stroke="midnightblue" d="M1500.64,-63.9811C1677.5,-60.1027 2286.19,-45.1953 2479,-20 2482.03,-19.6034 2485.18,-19.0947 2488.31,-18.5213"/>
<polygon fill="midnightblue" stroke="midnightblue" points="1500.51,-60.4829 1490.59,-64.1997 1500.66,-67.4813 1500.51,-60.4829"/>
</g>
<!-- Node25 -->
<g id="node25" class="node"><title>Node25</title>
<g id="a_node25"><a xlink:href="test_2rfc2047_8c.html" target="_top" xlink:title="test/rfc2047.c">
<polygon fill="white" stroke="black" points="2569.5,-0.5 2569.5,-19.5 2646.5,-19.5 2646.5,-0.5 2569.5,-0.5"/>
<text text-anchor="middle" x="2608" y="-7.5" font-family="Helvetica,sans-Serif" font-size="10.00">test/rfc2047.c</text>
</a>
</g>
</g>
<!-- Node1&#45;&gt;Node25 -->
<g id="edge24" class="edge"><title>Node1&#45;&gt;Node25</title>
<path fill="none" stroke="midnightblue" d="M1501.1,-65.5326C1656.74,-66.6811 2152.82,-66.1961 2560,-20 2563.03,-19.6559 2566.16,-19.2306 2569.3,-18.7538"/>
<polygon fill="midnightblue" stroke="midnightblue" points="1500.95,-62.0314 1490.92,-65.4514 1500.89,-69.0311 1500.95,-62.0314"/>
</g>
<!-- Node26 -->
<g id="node26" class="node"><title>Node26</title>
<g id="a_node26"><a xlink:href="test_2string_8c.html" target="_top" xlink:title="test/string.c">
<polygon fill="white" stroke="black" points="2665,-0.5 2665,-19.5 2733,-19.5 2733,-0.5 2665,-0.5"/>
<text text-anchor="middle" x="2699" y="-7.5" font-family="Helvetica,sans-Serif" font-size="10.00">test/string.c</text>
</a>
</g>
</g>
<!-- Node1&#45;&gt;Node26 -->
<g id="edge25" class="edge"><title>Node1&#45;&gt;Node26</title>
<path fill="none" stroke="midnightblue" d="M1500.95,-64.2433C1697,-61.0466 2425.9,-47.5263 2655,-20 2658.25,-19.6094 2661.62,-19.1046 2664.98,-18.5338"/>
<polygon fill="midnightblue" stroke="midnightblue" points="1500.62,-60.7481 1490.68,-64.4093 1500.73,-67.7472 1500.62,-60.7481"/>
</g>
</g>
</svg>
