<?xml version="1.0" encoding="UTF-8" standalone="no"?>
<!DOCTYPE svg PUBLIC "-//W3C//DTD SVG 1.1//EN"
 "http://www.w3.org/Graphics/SVG/1.1/DTD/svg11.dtd">
<!-- Generated by graphviz version 2.36.0 (20140111.2315)
 -->
<!-- Title: alias_tag Pages: 1 -->
<svg width="192pt" height="28pt"
 viewBox="0.00 0.00 192.00 28.00" xmlns="http://www.w3.org/2000/svg" xmlns:xlink="http://www.w3.org/1999/xlink">
<g id="graph0" class="graph" transform="scale(1 1) rotate(0) translate(4 24)">
<title>alias_tag</title>
<polygon fill="white" stroke="none" points="-4,4 -4,-24 188,-24 188,4 -4,4"/>
<!-- Node1 -->
<g id="node1" class="node"><title>Node1</title>
<polygon fill="#bfbfbf" stroke="black" points="0,-0.5 0,-19.5 56,-19.5 56,-0.5 0,-0.5"/>
<text text-anchor="middle" x="28" y="-7.5" font-family="Helvetica,sans-Serif" font-size="10.00">alias_tag</text>
</g>
<!-- Node2 -->
<g id="node2" class="node"><title>Node2</title>
<g id="a_node2"><a xlink:href="addrbook_8h.html#a59acdb82d3702665725f276de01d7e80" target="_top" xlink:title="Display a menu of Aliases. ">
<polygon fill="white" stroke="red" points="92.5,-0.5 92.5,-19.5 183.5,-19.5 183.5,-0.5 92.5,-0.5"/>
<text text-anchor="middle" x="138" y="-7.5" font-family="Helvetica,sans-Serif" font-size="10.00">mutt_alias_menu</text>
</a>
</g>
</g>
<!-- Node1&#45;&gt;Node2 -->
<g id="edge1" class="edge"><title>Node1&#45;&gt;Node2</title>
<path fill="none" stroke="midnightblue" d="M66.3812,-10C74.675,-10 83.5483,-10 92.1072,-10"/>
<polygon fill="midnightblue" stroke="midnightblue" points="66.253,-6.5001 56.253,-10 66.2529,-13.5001 66.253,-6.5001"/>
</g>
</g>
</svg>
