<?xml version="1.0" encoding="UTF-8" standalone="no"?>
<!DOCTYPE svg PUBLIC "-//W3C//DTD SVG 1.1//EN"
 "http://www.w3.org/Graphics/SVG/1.1/DTD/svg11.dtd">
<!-- Generated by graphviz version 2.36.0 (20140111.2315)
 -->
<!-- Title: mutt_get_address Pages: 1 -->
<svg width="238pt" height="66pt"
 viewBox="0.00 0.00 238.00 66.00" xmlns="http://www.w3.org/2000/svg" xmlns:xlink="http://www.w3.org/1999/xlink">
<g id="graph0" class="graph" transform="scale(1 1) rotate(0) translate(4 62)">
<title>mutt_get_address</title>
<polygon fill="white" stroke="none" points="-4,4 -4,-62 234,-62 234,4 -4,4"/>
<!-- Node1 -->
<g id="node1" class="node"><title>Node1</title>
<polygon fill="#bfbfbf" stroke="black" points="0.5,-19.5 0.5,-38.5 95.5,-38.5 95.5,-19.5 0.5,-19.5"/>
<text text-anchor="middle" x="48" y="-26.5" font-family="Helvetica,sans-Serif" font-size="10.00">mutt_get_address</text>
</g>
<!-- Node2 -->
<g id="node2" class="node"><title>Node2</title>
<g id="a_node2"><a xlink:href="alias_8c.html#a1a7905f34ac21a48a34e14e2c1becbef" target="_top" xlink:title="Does the address belong to the user. ">
<polygon fill="white" stroke="red" points="132.5,-38.5 132.5,-57.5 229.5,-57.5 229.5,-38.5 132.5,-38.5"/>
<text text-anchor="middle" x="181" y="-45.5" font-family="Helvetica,sans-Serif" font-size="10.00">mutt_addr_is_user</text>
</a>
</g>
</g>
<!-- Node1&#45;&gt;Node2 -->
<g id="edge1" class="edge"><title>Node1&#45;&gt;Node2</title>
<path fill="none" stroke="midnightblue" d="M95.5546,-35.7522C104.211,-37.0076 113.35,-38.3332 122.292,-39.6302"/>
<polygon fill="midnightblue" stroke="midnightblue" points="121.87,-43.1055 132.269,-41.0772 122.875,-36.1779 121.87,-43.1055"/>
</g>
<!-- Node3 -->
<g id="node3" class="node"><title>Node3</title>
<g id="a_node3"><a xlink:href="hdrline_8c.html#a791acc95459b326738b870ac0b5d607d" target="_top" xlink:title="Is this the email address of a mailing list? ">
<polygon fill="white" stroke="red" points="136,-0.5 136,-19.5 226,-19.5 226,-0.5 136,-0.5"/>
<text text-anchor="middle" x="181" y="-7.5" font-family="Helvetica,sans-Serif" font-size="10.00">mutt_is_mail_list</text>
</a>
</g>
</g>
<!-- Node1&#45;&gt;Node3 -->
<g id="edge2" class="edge"><title>Node1&#45;&gt;Node3</title>
<path fill="none" stroke="midnightblue" d="M95.5546,-22.2478C105.372,-20.8239 115.811,-19.3098 125.88,-17.8494"/>
<polygon fill="midnightblue" stroke="midnightblue" points="126.395,-21.3115 135.789,-16.4123 125.39,-14.3839 126.395,-21.3115"/>
</g>
</g>
</svg>
