<?xml version="1.0" encoding="UTF-8" standalone="no"?>
<!DOCTYPE svg PUBLIC "-//W3C//DTD SVG 1.1//EN"
 "http://www.w3.org/Graphics/SVG/1.1/DTD/svg11.dtd">
<!-- Generated by graphviz version 2.36.0 (20140111.2315)
 -->
<!-- Title: mutt_addr_is_user Pages: 1 -->
<svg width="398pt" height="123pt"
 viewBox="0.00 0.00 398.00 123.00" xmlns="http://www.w3.org/2000/svg" xmlns:xlink="http://www.w3.org/1999/xlink">
<g id="graph0" class="graph" transform="scale(1 1) rotate(0) translate(4 119)">
<title>mutt_addr_is_user</title>
<polygon fill="white" stroke="none" points="-4,4 -4,-119 394,-119 394,4 -4,4"/>
<!-- Node1 -->
<g id="node1" class="node"><title>Node1</title>
<polygon fill="#bfbfbf" stroke="black" points="0.5,-57.5 0.5,-76.5 97.5,-76.5 97.5,-57.5 0.5,-57.5"/>
<text text-anchor="middle" x="49" y="-64.5" font-family="Helvetica,sans-Serif" font-size="10.00">mutt_addr_is_user</text>
</g>
<!-- Node2 -->
<g id="node2" class="node"><title>Node2</title>
<g id="a_node2"><a xlink:href="mutt_2string_8c.html#a011e5b6fad43bc608584d585987cf9c1" target="_top" xlink:title="Compare two strings ignoring case, safely. ">
<polygon fill="white" stroke="black" points="280.5,-95.5 280.5,-114.5 389.5,-114.5 389.5,-95.5 280.5,-95.5"/>
<text text-anchor="middle" x="335" y="-102.5" font-family="Helvetica,sans-Serif" font-size="10.00">mutt_str_strcasecmp</text>
</a>
</g>
</g>
<!-- Node1&#45;&gt;Node2 -->
<g id="edge1" class="edge"><title>Node1&#45;&gt;Node2</title>
<path fill="none" stroke="midnightblue" d="M65.7106,-76.5706C82.0798,-85.9379 108.809,-99.5671 134,-105 178.806,-114.663 230.584,-114.361 270.229,-111.801"/>
<polygon fill="midnightblue" stroke="midnightblue" points="270.567,-115.286 280.294,-111.086 270.071,-108.303 270.567,-115.286"/>
</g>
<!-- Node3 -->
<g id="node3" class="node"><title>Node3</title>
<g id="a_node3"><a xlink:href="alias_8c.html#ae28aaf99e89a9d005273dc1da13d64dc" target="_top" xlink:title="Does an email address match a user and domain? ">
<polygon fill="white" stroke="black" points="142.5,-76.5 142.5,-95.5 235.5,-95.5 235.5,-76.5 142.5,-76.5"/>
<text text-anchor="middle" x="189" y="-83.5" font-family="Helvetica,sans-Serif" font-size="10.00">string_is_address</text>
</a>
</g>
</g>
<!-- Node1&#45;&gt;Node3 -->
<g id="edge2" class="edge"><title>Node1&#45;&gt;Node3</title>
<path fill="none" stroke="midnightblue" d="M97.8784,-73.592C108.845,-75.1019 120.6,-76.7202 131.878,-78.2731"/>
<polygon fill="midnightblue" stroke="midnightblue" points="131.682,-81.779 142.066,-79.6758 132.637,-74.8444 131.682,-81.779"/>
</g>
<!-- Node4 -->
<g id="node4" class="node"><title>Node4</title>
<g id="a_node4"><a xlink:href="sendlib_8c.html#a2b5c4f6a3ed63bac7f4d59bbeca72d2c" target="_top" xlink:title="Get the Fully&#45;Qualified Domain Name. ">
<polygon fill="white" stroke="black" points="159,-38.5 159,-57.5 219,-57.5 219,-38.5 159,-38.5"/>
<text text-anchor="middle" x="189" y="-45.5" font-family="Helvetica,sans-Serif" font-size="10.00">mutt_fqdn</text>
</a>
</g>
</g>
<!-- Node1&#45;&gt;Node4 -->
<g id="edge4" class="edge"><title>Node1&#45;&gt;Node4</title>
<path fill="none" stroke="midnightblue" d="M97.8784,-60.408C114.482,-58.1221 132.891,-55.5875 148.72,-53.4081"/>
<polygon fill="midnightblue" stroke="midnightblue" points="149.276,-56.8647 158.705,-52.0334 148.321,-49.9301 149.276,-56.8647"/>
</g>
<!-- Node5 -->
<g id="node5" class="node"><title>Node5</title>
<g id="a_node5"><a xlink:href="mutt_2regex_8c.html#ab0efb83f9190881306c558339efb250a" target="_top" xlink:title="Does a string match any Regex in the list? ">
<polygon fill="white" stroke="black" points="134,-0.5 134,-19.5 244,-19.5 244,-0.5 134,-0.5"/>
<text text-anchor="middle" x="189" y="-7.5" font-family="Helvetica,sans-Serif" font-size="10.00">mutt_regexlist_match</text>
</a>
</g>
</g>
<!-- Node1&#45;&gt;Node5 -->
<g id="edge5" class="edge"><title>Node1&#45;&gt;Node5</title>
<path fill="none" stroke="midnightblue" d="M69.8177,-57.4488C86.7082,-49.4503 111.718,-37.9407 134,-29 139.131,-26.9414 144.581,-24.8803 149.97,-22.9151"/>
<polygon fill="midnightblue" stroke="midnightblue" points="151.283,-26.1629 159.522,-19.5024 148.927,-19.571 151.283,-26.1629"/>
</g>
<!-- Node3&#45;&gt;Node2 -->
<g id="edge3" class="edge"><title>Node3&#45;&gt;Node2</title>
<path fill="none" stroke="midnightblue" d="M235.562,-92.0117C246.588,-93.4664 258.573,-95.0479 270.264,-96.5904"/>
<polygon fill="midnightblue" stroke="midnightblue" points="270.059,-100.094 280.431,-97.9319 270.975,-93.1537 270.059,-100.094"/>
</g>
</g>
</svg>
