<?xml version="1.0" encoding="UTF-8" standalone="no"?>
<!DOCTYPE svg PUBLIC "-//W3C//DTD SVG 1.1//EN"
 "http://www.w3.org/Graphics/SVG/1.1/DTD/svg11.dtd">
<!-- Generated by graphviz version 2.36.0 (20140111.2315)
 -->
<!-- Title: mutt_aliaslist_free Pages: 1 -->
<svg width="222pt" height="66pt"
 viewBox="0.00 0.00 222.00 66.00" xmlns="http://www.w3.org/2000/svg" xmlns:xlink="http://www.w3.org/1999/xlink">
<g id="graph0" class="graph" transform="scale(1 1) rotate(0) translate(4 62)">
<title>mutt_aliaslist_free</title>
<polygon fill="white" stroke="none" points="-4,4 -4,-62 218,-62 218,4 -4,4"/>
<!-- Node1 -->
<g id="node1" class="node"><title>Node1</title>
<polygon fill="#bfbfbf" stroke="black" points="0,-19.5 0,-38.5 96,-38.5 96,-19.5 0,-19.5"/>
<text text-anchor="middle" x="48" y="-26.5" font-family="Helvetica,sans-Serif" font-size="10.00">mutt_aliaslist_free</text>
</g>
<!-- Node2 -->
<g id="node2" class="node"><title>Node2</title>
<g id="a_node2"><a xlink:href="init_8c.html#a08cd0521c5372bc33d02ed8f1ed2ba35" target="_top" xlink:title="Parse the &#39;unalias&#39; command &#45; Implements command_t. ">
<polygon fill="white" stroke="black" points="134.5,-38.5 134.5,-57.5 211.5,-57.5 211.5,-38.5 134.5,-38.5"/>
<text text-anchor="middle" x="173" y="-45.5" font-family="Helvetica,sans-Serif" font-size="10.00">parse_unalias</text>
</a>
</g>
</g>
<!-- Node1&#45;&gt;Node2 -->
<g id="edge1" class="edge"><title>Node1&#45;&gt;Node2</title>
<path fill="none" stroke="midnightblue" d="M106.381,-37.8638C115.848,-39.3261 125.445,-40.8086 134.271,-42.1719"/>
<polygon fill="midnightblue" stroke="midnightblue" points="106.62,-34.3593 96.2032,-36.2916 105.552,-41.2772 106.62,-34.3593"/>
</g>
<!-- Node3 -->
<g id="node3" class="node"><title>Node3</title>
<g id="a_node3"><a xlink:href="mutt_8h.html#a266a35135fe5e41df8fc4d042d545e38" target="_top" xlink:title="clean up before quitting ">
<polygon fill="white" stroke="red" points="132,-0.5 132,-19.5 214,-19.5 214,-0.5 132,-0.5"/>
<text text-anchor="middle" x="173" y="-7.5" font-family="Helvetica,sans-Serif" font-size="10.00">mutt_free_opts</text>
</a>
</g>
</g>
<!-- Node1&#45;&gt;Node3 -->
<g id="edge2" class="edge"><title>Node1&#45;&gt;Node3</title>
<path fill="none" stroke="midnightblue" d="M106.284,-20.1513C114.95,-18.8125 123.729,-17.4565 131.927,-16.1901"/>
<polygon fill="midnightblue" stroke="midnightblue" points="105.552,-16.7228 96.2032,-21.7084 106.62,-23.6407 105.552,-16.7228"/>
</g>
</g>
</svg>
