<?xml version="1.0" encoding="UTF-8" standalone="no"?>
<!DOCTYPE svg PUBLIC "-//W3C//DTD SVG 1.1//EN"
 "http://www.w3.org/Graphics/SVG/1.1/DTD/svg11.dtd">
<!-- Generated by graphviz version 2.36.0 (20140111.2315)
 -->
<!-- Title: mutt_expand_aliases Pages: 1 -->
<svg width="264pt" height="104pt"
 viewBox="0.00 0.00 264.00 104.00" xmlns="http://www.w3.org/2000/svg" xmlns:xlink="http://www.w3.org/1999/xlink">
<g id="graph0" class="graph" transform="scale(1 1) rotate(0) translate(4 100)">
<title>mutt_expand_aliases</title>
<polygon fill="white" stroke="none" points="-4,4 -4,-100 260,-100 260,4 -4,4"/>
<!-- Node1 -->
<g id="node1" class="node"><title>Node1</title>
<polygon fill="#bfbfbf" stroke="black" points="0.5,-38.5 0.5,-57.5 109.5,-57.5 109.5,-38.5 0.5,-38.5"/>
<text text-anchor="middle" x="55" y="-45.5" font-family="Helvetica,sans-Serif" font-size="10.00">mutt_expand_aliases</text>
</g>
<!-- Node2 -->
<g id="node2" class="node"><title>Node2</title>
<g id="a_node2"><a xlink:href="alias_8c.html#a0b62a555f6b7a1816e890257958eb3c5" target="_top" xlink:title="Expand aliases, recursively. ">
<polygon fill="white" stroke="red" points="155,-76.5 155,-95.5 247,-95.5 247,-76.5 155,-76.5"/>
<text text-anchor="middle" x="201" y="-83.5" font-family="Helvetica,sans-Serif" font-size="10.00">expand_aliases_r</text>
</a>
</g>
</g>
<!-- Node1&#45;&gt;Node2 -->
<g id="edge1" class="edge"><title>Node1&#45;&gt;Node2</title>
<path fill="none" stroke="midnightblue" d="M92.3373,-57.589C111.083,-62.5358 134.143,-68.6211 154.107,-73.8892"/>
<polygon fill="midnightblue" stroke="midnightblue" points="153.362,-77.3125 163.924,-76.4799 155.148,-70.5442 153.362,-77.3125"/>
</g>
<!-- Node3 -->
<g id="node3" class="node"><title>Node3</title>
<g id="a_node3"><a xlink:href="list_8c.html#ab5c53ce94cc2aafa4299dbc81a37f4a4" target="_top" xlink:title="Free a List AND its strings. ">
<polygon fill="white" stroke="black" points="163,-38.5 163,-57.5 239,-57.5 239,-38.5 163,-38.5"/>
<text text-anchor="middle" x="201" y="-45.5" font-family="Helvetica,sans-Serif" font-size="10.00">mutt_list_free</text>
</a>
</g>
</g>
<!-- Node1&#45;&gt;Node3 -->
<g id="edge2" class="edge"><title>Node1&#45;&gt;Node3</title>
<path fill="none" stroke="midnightblue" d="M109.62,-48C123.766,-48 138.927,-48 152.712,-48"/>
<polygon fill="midnightblue" stroke="midnightblue" points="152.946,-51.5001 162.946,-48 152.946,-44.5001 152.946,-51.5001"/>
</g>
<!-- Node4 -->
<g id="node4" class="node"><title>Node4</title>
<g id="a_node4"><a xlink:href="email_2address_8c.html#a4ba49d19e127aeecd6b3374e8acef101" target="_top" xlink:title="Remove duplicate addresses. ">
<polygon fill="white" stroke="red" points="146,-0.5 146,-19.5 256,-19.5 256,-0.5 146,-0.5"/>
<text text-anchor="middle" x="201" y="-7.5" font-family="Helvetica,sans-Serif" font-size="10.00">mutt_addrlist_dedupe</text>
</a>
</g>
</g>
<!-- Node1&#45;&gt;Node4 -->
<g id="edge3" class="edge"><title>Node1&#45;&gt;Node4</title>
<path fill="none" stroke="midnightblue" d="M92.3373,-38.411C111.083,-33.4642 134.143,-27.3789 154.107,-22.1108"/>
<polygon fill="midnightblue" stroke="midnightblue" points="155.148,-25.4558 163.924,-19.5201 153.362,-18.6875 155.148,-25.4558"/>
</g>
</g>
</svg>
