<?xml version="1.0" encoding="UTF-8" standalone="no"?>
<!DOCTYPE svg PUBLIC "-//W3C//DTD SVG 1.1//EN"
 "http://www.w3.org/Graphics/SVG/1.1/DTD/svg11.dtd">
<!-- Generated by graphviz version 2.36.0 (20140111.2315)
 -->
<!-- Title: mutt_alias_complete Pages: 1 -->
<svg width="246pt" height="218pt"
 viewBox="0.00 0.00 246.00 218.00" xmlns="http://www.w3.org/2000/svg" xmlns:xlink="http://www.w3.org/1999/xlink">
<g id="graph0" class="graph" transform="scale(1 1) rotate(0) translate(4 214)">
<title>mutt_alias_complete</title>
<polygon fill="white" stroke="none" points="-4,4 -4,-214 242,-214 242,4 -4,4"/>
<!-- Node1 -->
<g id="node1" class="node"><title>Node1</title>
<polygon fill="#bfbfbf" stroke="black" points="0.5,-95.5 0.5,-114.5 107.5,-114.5 107.5,-95.5 0.5,-95.5"/>
<text text-anchor="middle" x="54" y="-102.5" font-family="Helvetica,sans-Serif" font-size="10.00">mutt_alias_complete</text>
</g>
<!-- Node2 -->
<g id="node2" class="node"><title>Node2</title>
<g id="a_node2"><a xlink:href="mutt_2string_8c.html#a3b8965b21d6e21536750f8883cd4333a" target="_top" xlink:title="Copy a string into a buffer (guaranteeing NUL&#45;termination) ">
<polygon fill="white" stroke="black" points="147,-190.5 147,-209.5 235,-209.5 235,-190.5 147,-190.5"/>
<text text-anchor="middle" x="191" y="-197.5" font-family="Helvetica,sans-Serif" font-size="10.00">mutt_str_strfcpy</text>
</a>
</g>
</g>
<!-- Node1&#45;&gt;Node2 -->
<g id="edge1" class="edge"><title>Node1&#45;&gt;Node2</title>
<path fill="none" stroke="midnightblue" d="M64.0938,-114.514C79.3896,-130.091 111.766,-161.271 144,-181 146.964,-182.814 150.132,-184.527 153.367,-186.126"/>
<polygon fill="midnightblue" stroke="midnightblue" points="151.996,-189.348 162.546,-190.32 154.905,-182.981 151.996,-189.348"/>
</g>
<!-- Node3 -->
<g id="node3" class="node"><title>Node3</title>
<g id="a_node3"><a xlink:href="mutt_2string_8c.html#aca11f88d08a860c07419df3efb18f35a" target="_top" xlink:title="Calculate the length of a string, safely. ">
<polygon fill="white" stroke="black" points="150,-152.5 150,-171.5 232,-171.5 232,-152.5 150,-152.5"/>
<text text-anchor="middle" x="191" y="-159.5" font-family="Helvetica,sans-Serif" font-size="10.00">mutt_str_strlen</text>
</a>
</g>
</g>
<!-- Node1&#45;&gt;Node3 -->
<g id="edge2" class="edge"><title>Node1&#45;&gt;Node3</title>
<path fill="none" stroke="midnightblue" d="M77.2804,-114.599C95.2638,-122.327 121.229,-133.437 144,-143 148.237,-144.78 152.699,-146.64 157.11,-148.47"/>
<polygon fill="midnightblue" stroke="midnightblue" points="155.998,-151.798 166.576,-152.388 158.675,-145.33 155.998,-151.798"/>
</g>
<!-- Node4 -->
<g id="node4" class="node"><title>Node4</title>
<g id="a_node4"><a xlink:href="mutt_2string_8c.html#ab4aaf8bd2ce3982651f0f949d6c665e2" target="_top" xlink:title="Compare two strings, safely. ">
<polygon fill="white" stroke="black" points="147,-114.5 147,-133.5 235,-133.5 235,-114.5 147,-114.5"/>
<text text-anchor="middle" x="191" y="-121.5" font-family="Helvetica,sans-Serif" font-size="10.00">mutt_str_strcmp</text>
</a>
</g>
</g>
<!-- Node1&#45;&gt;Node4 -->
<g id="edge3" class="edge"><title>Node1&#45;&gt;Node4</title>
<path fill="none" stroke="midnightblue" d="M107.581,-112.4C117.252,-113.761 127.353,-115.183 137.035,-116.546"/>
<polygon fill="midnightblue" stroke="midnightblue" points="136.547,-120.011 146.937,-117.939 137.523,-113.08 136.547,-120.011"/>
</g>
<!-- Node5 -->
<g id="node5" class="node"><title>Node5</title>
<g id="a_node5"><a xlink:href="memory_8c.html#a4c1612d209c7825d55e6a014df352f03" target="_top" xlink:title="Allocate zeroed memory on the heap. ">
<polygon fill="white" stroke="red" points="144,-76.5 144,-95.5 238,-95.5 238,-76.5 144,-76.5"/>
<text text-anchor="middle" x="191" y="-83.5" font-family="Helvetica,sans-Serif" font-size="10.00">mutt_mem_calloc</text>
</a>
</g>
</g>
<!-- Node1&#45;&gt;Node5 -->
<g id="edge4" class="edge"><title>Node1&#45;&gt;Node5</title>
<path fill="none" stroke="midnightblue" d="M107.581,-97.5997C116.201,-96.3865 125.164,-95.1251 133.866,-93.9003"/>
<polygon fill="midnightblue" stroke="midnightblue" points="134.512,-97.3439 143.927,-92.4843 133.537,-90.4123 134.512,-97.3439"/>
</g>
<!-- Node6 -->
<g id="node6" class="node"><title>Node6</title>
<g id="a_node6"><a xlink:href="addrbook_8c.html#a59acdb82d3702665725f276de01d7e80" target="_top" xlink:title="Display a menu of Aliases. ">
<polygon fill="white" stroke="red" points="145.5,-38.5 145.5,-57.5 236.5,-57.5 236.5,-38.5 145.5,-38.5"/>
<text text-anchor="middle" x="191" y="-45.5" font-family="Helvetica,sans-Serif" font-size="10.00">mutt_alias_menu</text>
</a>
</g>
</g>
<!-- Node1&#45;&gt;Node6 -->
<g id="edge5" class="edge"><title>Node1&#45;&gt;Node6</title>
<path fill="none" stroke="midnightblue" d="M77.2804,-95.4006C95.2638,-87.6734 121.229,-76.5633 144,-67 148.237,-65.2204 152.699,-63.3602 157.11,-61.5296"/>
<polygon fill="midnightblue" stroke="midnightblue" points="158.675,-64.6701 166.576,-57.6123 155.998,-58.202 158.675,-64.6701"/>
</g>
<!-- Node7 -->
<g id="node7" class="node"><title>Node7</title>
<g id="a_node7"><a xlink:href="alias_8c.html#a367a44e27dff0ed9545beec6de4e1dcb" target="_top" xlink:title="Free an Alias. ">
<polygon fill="white" stroke="red" points="149.5,-0.5 149.5,-19.5 232.5,-19.5 232.5,-0.5 149.5,-0.5"/>
<text text-anchor="middle" x="191" y="-7.5" font-family="Helvetica,sans-Serif" font-size="10.00">mutt_alias_free</text>
</a>
</g>
</g>
<!-- Node1&#45;&gt;Node7 -->
<g id="edge6" class="edge"><title>Node1&#45;&gt;Node7</title>
<path fill="none" stroke="midnightblue" d="M64.0938,-95.4857C79.3896,-79.9091 111.766,-48.7289 144,-29 146.964,-27.1859 150.132,-25.4728 153.367,-23.8738"/>
<polygon fill="midnightblue" stroke="midnightblue" points="154.905,-27.0192 162.546,-19.6804 151.996,-20.6522 154.905,-27.0192"/>
</g>
</g>
</svg>
