<?xml version="1.0" encoding="UTF-8" standalone="no"?>
<!DOCTYPE svg PUBLIC "-//W3C//DTD SVG 1.1//EN"
 "http://www.w3.org/Graphics/SVG/1.1/DTD/svg11.dtd">
<!-- Generated by graphviz version 2.36.0 (20140111.2315)
 -->
<!-- Title: mutt_expand_aliases Pages: 1 -->
<svg width="416pt" height="394pt"
 viewBox="0.00 0.00 416.00 394.00" xmlns="http://www.w3.org/2000/svg" xmlns:xlink="http://www.w3.org/1999/xlink">
<g id="graph0" class="graph" transform="scale(1 1) rotate(0) translate(4 390)">
<title>mutt_expand_aliases</title>
<polygon fill="white" stroke="none" points="-4,4 -4,-390 412,-390 412,4 -4,4"/>
<!-- Node1 -->
<g id="node1" class="node"><title>Node1</title>
<polygon fill="#bfbfbf" stroke="black" points="0.5,-192.5 0.5,-211.5 109.5,-211.5 109.5,-192.5 0.5,-192.5"/>
<text text-anchor="middle" x="55" y="-199.5" font-family="Helvetica,sans-Serif" font-size="10.00">mutt_expand_aliases</text>
</g>
<!-- Node2 -->
<g id="node2" class="node"><title>Node2</title>
<g id="a_node2"><a xlink:href="alias_8h.html#aa90fd4b086aebbf4fed5245ecaca1ac1" target="_top" xlink:title="Expand aliases in all the fields of an Envelope. ">
<polygon fill="white" stroke="red" points="146,-366.5 146,-385.5 276,-385.5 276,-366.5 146,-366.5"/>
<text text-anchor="middle" x="211" y="-373.5" font-family="Helvetica,sans-Serif" font-size="10.00">mutt_expand_aliases_env</text>
</a>
</g>
</g>
<!-- Node1&#45;&gt;Node2 -->
<g id="edge1" class="edge"><title>Node1&#45;&gt;Node2</title>
<path fill="none" stroke="midnightblue" d="M61.9855,-221.461C73.1034,-254.35 100.081,-320.869 146,-357 150.919,-360.87 156.61,-363.953 162.529,-366.409"/>
<polygon fill="midnightblue" stroke="midnightblue" points="65.2311,-220.123 58.8186,-211.689 58.572,-222.281 65.2311,-220.123"/>
</g>
<!-- Node3 -->
<g id="node3" class="node"><title>Node3</title>
<g id="a_node3"><a xlink:href="commands_8h.html#a2815f046da32dd09b3c3f4f93a1537b4" target="_top" xlink:title="Bounce an email. ">
<polygon fill="white" stroke="red" points="158,-328.5 158,-347.5 264,-347.5 264,-328.5 158,-328.5"/>
<text text-anchor="middle" x="211" y="-335.5" font-family="Helvetica,sans-Serif" font-size="10.00">ci_bounce_message</text>
</a>
</g>
</g>
<!-- Node1&#45;&gt;Node3 -->
<g id="edge2" class="edge"><title>Node1&#45;&gt;Node3</title>
<path fill="none" stroke="midnightblue" d="M65.4243,-220.63C79.4694,-246.526 108.33,-293.126 146,-319 151.637,-322.872 158.075,-325.968 164.645,-328.44"/>
<polygon fill="midnightblue" stroke="midnightblue" points="68.3802,-218.731 60.6283,-211.509 62.1845,-221.989 68.3802,-218.731"/>
</g>
<!-- Node4 -->
<g id="node4" class="node"><title>Node4</title>
<g id="a_node4"><a xlink:href="compose_8c.html#a554b0789b26a5e33a8b93e929bd1a144" target="_top" xlink:title="Let the user edit the address list. ">
<polygon fill="white" stroke="red" points="166,-290.5 166,-309.5 256,-309.5 256,-290.5 166,-290.5"/>
<text text-anchor="middle" x="211" y="-297.5" font-family="Helvetica,sans-Serif" font-size="10.00">edit_address_list</text>
</a>
</g>
</g>
<!-- Node1&#45;&gt;Node4 -->
<g id="edge3" class="edge"><title>Node1&#45;&gt;Node4</title>
<path fill="none" stroke="midnightblue" d="M71.2477,-219.207C87.9474,-237.06 116.328,-264.616 146,-281 152.9,-284.81 160.649,-287.936 168.311,-290.473"/>
<polygon fill="midnightblue" stroke="midnightblue" points="73.7673,-216.776 64.4341,-211.762 68.6033,-221.502 73.7673,-216.776"/>
</g>
<!-- Node5 -->
<g id="node5" class="node"><title>Node5</title>
<g id="a_node5"><a xlink:href="edit_8c.html#abf0e1a487bb4816d96e14ffe8e969833" target="_top" xlink:title="Edit the message headers. ">
<polygon fill="white" stroke="black" points="169.5,-252.5 169.5,-271.5 252.5,-271.5 252.5,-252.5 169.5,-252.5"/>
<text text-anchor="middle" x="211" y="-259.5" font-family="Helvetica,sans-Serif" font-size="10.00">be_edit_header</text>
</a>
</g>
</g>
<!-- Node1&#45;&gt;Node5 -->
<g id="edge4" class="edge"><title>Node1&#45;&gt;Node5</title>
<path fill="none" stroke="midnightblue" d="M89.1112,-215.444C106.086,-222.286 127.111,-230.681 146,-238 158.504,-242.845 172.439,-248.088 184.105,-252.435"/>
<polygon fill="midnightblue" stroke="midnightblue" points="90.2142,-212.115 79.6311,-211.615 87.5927,-218.606 90.2142,-212.115"/>
</g>
<!-- Node6 -->
<g id="node6" class="node"><title>Node6</title>
<g id="a_node6"><a xlink:href="edit_8h.html#aeb4e60554eec83493fcc39e7d5e10f85" target="_top" xlink:title="Show the user the built&#45;in editor. ">
<polygon fill="white" stroke="red" points="312,-233.5 312,-252.5 408,-252.5 408,-233.5 312,-233.5"/>
<text text-anchor="middle" x="360" y="-240.5" font-family="Helvetica,sans-Serif" font-size="10.00">mutt_builtin_editor</text>
</a>
</g>
</g>
<!-- Node1&#45;&gt;Node6 -->
<g id="edge6" class="edge"><title>Node1&#45;&gt;Node6</title>
<path fill="none" stroke="midnightblue" d="M119.86,-210.641C177.193,-218.399 260.048,-229.611 311.654,-236.593"/>
<polygon fill="midnightblue" stroke="midnightblue" points="120.2,-207.155 109.821,-209.283 119.262,-214.092 120.2,-207.155"/>
</g>
<!-- Node7 -->
<g id="node7" class="node"><title>Node7</title>
<g id="a_node7"><a xlink:href="ncrypt_8h.html#aa96887a29a649799ae32f3d248af2e2f" target="_top" xlink:title="Extract keys from a message. ">
<polygon fill="white" stroke="red" points="161,-165 161,-195 261,-195 261,-165 161,-165"/>
<text text-anchor="start" x="169" y="-183" font-family="Helvetica,sans-Serif" font-size="10.00">crypt_extract_keys</text>
<text text-anchor="middle" x="211" y="-172" font-family="Helvetica,sans-Serif" font-size="10.00">_from_messages</text>
</a>
</g>
</g>
<!-- Node1&#45;&gt;Node7 -->
<g id="edge7" class="edge"><title>Node1&#45;&gt;Node7</title>
<path fill="none" stroke="midnightblue" d="M120.123,-192.84C133.72,-190.897 147.868,-188.876 160.807,-187.028"/>
<polygon fill="midnightblue" stroke="midnightblue" points="119.266,-189.426 109.862,-194.305 120.256,-196.356 119.266,-189.426"/>
</g>
<!-- Node8 -->
<g id="node8" class="node"><title>Node8</title>
<g id="a_node8"><a xlink:href="crypt__gpgme_8c.html#a6dbc903ec828a16285bdd303b8214983" target="_top" xlink:title="Verify the sender of a message. ">
<polygon fill="white" stroke="red" points="173.5,-126.5 173.5,-145.5 248.5,-145.5 248.5,-126.5 173.5,-126.5"/>
<text text-anchor="middle" x="211" y="-133.5" font-family="Helvetica,sans-Serif" font-size="10.00">verify_sender</text>
</a>
</g>
</g>
<!-- Node1&#45;&gt;Node8 -->
<g id="edge8" class="edge"><title>Node1&#45;&gt;Node8</title>
<path fill="none" stroke="midnightblue" d="M81.6289,-187.426C99.3457,-177.721 123.658,-165.124 146,-156 155.484,-152.127 166.01,-148.554 175.741,-145.531"/>
<polygon fill="midnightblue" stroke="midnightblue" points="79.5657,-184.568 72.5191,-192.48 82.9615,-190.689 79.5657,-184.568"/>
</g>
<!-- Node9 -->
<g id="node9" class="node"><title>Node9</title>
<g id="a_node9"><a xlink:href="smime_8h.html#a568e7581f2275ac58b2d3a2ce05ce37c" target="_top" xlink:title="Implements CryptModuleSpecs::smime_verify_sender() ">
<polygon fill="white" stroke="black" points="159,-77 159,-107 263,-107 263,-77 159,-77"/>
<text text-anchor="start" x="167" y="-95" font-family="Helvetica,sans-Serif" font-size="10.00">smime_class_verify</text>
<text text-anchor="middle" x="211" y="-84" font-family="Helvetica,sans-Serif" font-size="10.00">_sender</text>
</a>
</g>
</g>
<!-- Node1&#45;&gt;Node9 -->
<g id="edge9" class="edge"><title>Node1&#45;&gt;Node9</title>
<path fill="none" stroke="midnightblue" d="M70.7464,-184.527C87.3955,-165.716 116.085,-135.948 146,-117 151.845,-113.298 158.326,-109.99 164.856,-107.088"/>
<polygon fill="midnightblue" stroke="midnightblue" points="67.8938,-182.474 63.9829,-192.321 73.1806,-187.062 67.8938,-182.474"/>
</g>
<!-- Node10 -->
<g id="node10" class="node"><title>Node10</title>
<g id="a_node10"><a xlink:href="recvcmd_8h.html#a4894c4b5eb8d84ca5007940b13e5087e" target="_top" xlink:title="Bounce function, from the attachment menu. ">
<polygon fill="white" stroke="red" points="158.5,-38.5 158.5,-57.5 263.5,-57.5 263.5,-38.5 158.5,-38.5"/>
<text text-anchor="middle" x="211" y="-45.5" font-family="Helvetica,sans-Serif" font-size="10.00">mutt_attach_bounce</text>
</a>
</g>
</g>
<!-- Node1&#45;&gt;Node10 -->
<g id="edge10" class="edge"><title>Node1&#45;&gt;Node10</title>
<path fill="none" stroke="midnightblue" d="M63.8439,-182.807C76.7005,-153.712 104.994,-98.602 146,-68 151.784,-63.6833 158.521,-60.2844 165.409,-57.6119"/>
<polygon fill="midnightblue" stroke="midnightblue" points="60.5177,-181.684 59.8107,-192.255 66.9557,-184.432 60.5177,-181.684"/>
</g>
<!-- Node11 -->
<g id="node11" class="node"><title>Node11</title>
<g id="a_node11"><a xlink:href="send_8c.html#aaab226dd1e48ef2ae0e5e7c49ed893d9" target="_top" xlink:title="Edit an email address. ">
<polygon fill="white" stroke="red" points="175,-0.5 175,-19.5 247,-19.5 247,-0.5 175,-0.5"/>
<text text-anchor="middle" x="211" y="-7.5" font-family="Helvetica,sans-Serif" font-size="10.00">edit_address</text>
</a>
</g>
</g>
<!-- Node1&#45;&gt;Node11 -->
<g id="edge11" class="edge"><title>Node1&#45;&gt;Node11</title>
<path fill="none" stroke="midnightblue" d="M60.7678,-182.331C70.4924,-146.436 96.0434,-70.2176 146,-29 154.225,-22.2138 164.804,-17.8513 174.983,-15.047"/>
<polygon fill="midnightblue" stroke="midnightblue" points="57.2606,-181.916 58.1557,-192.473 64.0393,-183.662 57.2606,-181.916"/>
</g>
<!-- Node5&#45;&gt;Node6 -->
<g id="edge5" class="edge"><title>Node5&#45;&gt;Node6</title>
<path fill="none" stroke="midnightblue" d="M262.752,-255.44C278.665,-253.383 296.156,-251.123 311.812,-249.099"/>
<polygon fill="midnightblue" stroke="midnightblue" points="262.026,-252.005 252.558,-256.758 262.924,-258.947 262.026,-252.005"/>
</g>
</g>
</svg>
