<?xml version="1.0" encoding="UTF-8" standalone="no"?>
<!DOCTYPE svg PUBLIC "-//W3C//DTD SVG 1.1//EN"
 "http://www.w3.org/Graphics/SVG/1.1/DTD/svg11.dtd">
<!-- Generated by graphviz version 2.36.0 (20140111.2315)
 -->
<!-- Title: mutt_alias_free Pages: 1 -->
<svg width="350pt" height="123pt"
 viewBox="0.00 0.00 350.00 123.00" xmlns="http://www.w3.org/2000/svg" xmlns:xlink="http://www.w3.org/1999/xlink">
<g id="graph0" class="graph" transform="scale(1 1) rotate(0) translate(4 119)">
<title>mutt_alias_free</title>
<polygon fill="white" stroke="none" points="-4,4 -4,-119 346,-119 346,4 -4,4"/>
<!-- Node1 -->
<g id="node1" class="node"><title>Node1</title>
<polygon fill="#bfbfbf" stroke="black" points="0.5,-38.5 0.5,-57.5 83.5,-57.5 83.5,-38.5 0.5,-38.5"/>
<text text-anchor="middle" x="42" y="-45.5" font-family="Helvetica,sans-Serif" font-size="10.00">mutt_alias_free</text>
</g>
<!-- Node2 -->
<g id="node2" class="node"><title>Node2</title>
<g id="a_node2"><a xlink:href="alias_8h.html#a95a1f5c567eca51458f60800bef47c84" target="_top" xlink:title="Create a new Alias from an Envelope or an Address. ">
<polygon fill="white" stroke="red" points="127,-95.5 127,-114.5 221,-114.5 221,-95.5 127,-95.5"/>
<text text-anchor="middle" x="174" y="-102.5" font-family="Helvetica,sans-Serif" font-size="10.00">mutt_alias_create</text>
</a>
</g>
</g>
<!-- Node1&#45;&gt;Node2 -->
<g id="edge1" class="edge"><title>Node1&#45;&gt;Node2</title>
<path fill="none" stroke="midnightblue" d="M70.0704,-62.3042C84.6721,-69.7782 103.114,-78.8345 120,-86 127.828,-89.322 136.457,-92.5805 144.438,-95.435"/>
<polygon fill="midnightblue" stroke="midnightblue" points="71.5749,-59.1419 61.0846,-57.6569 68.3592,-65.3596 71.5749,-59.1419"/>
</g>
<!-- Node3 -->
<g id="node3" class="node"><title>Node3</title>
<g id="a_node3"><a xlink:href="alias_8h.html#a300d6d4b88787e97d446a714501a992f" target="_top" xlink:title="alias completion routine ">
<polygon fill="white" stroke="red" points="120.5,-57.5 120.5,-76.5 227.5,-76.5 227.5,-57.5 120.5,-57.5"/>
<text text-anchor="middle" x="174" y="-64.5" font-family="Helvetica,sans-Serif" font-size="10.00">mutt_alias_complete</text>
</a>
</g>
</g>
<!-- Node1&#45;&gt;Node3 -->
<g id="edge2" class="edge"><title>Node1&#45;&gt;Node3</title>
<path fill="none" stroke="midnightblue" d="M93.8227,-55.4279C102.556,-56.7043 111.648,-58.0331 120.426,-59.316"/>
<polygon fill="midnightblue" stroke="midnightblue" points="94.1772,-51.9426 83.7761,-53.9596 93.1648,-58.8691 94.1772,-51.9426"/>
</g>
<!-- Node4 -->
<g id="node4" class="node"><title>Node4</title>
<g id="a_node4"><a xlink:href="alias_8h.html#aab5ced5fa11da534b01c4a1cbedbdfad" target="_top" xlink:title="Free a List of Aliases. ">
<polygon fill="white" stroke="red" points="126,-19.5 126,-38.5 222,-38.5 222,-19.5 126,-19.5"/>
<text text-anchor="middle" x="174" y="-26.5" font-family="Helvetica,sans-Serif" font-size="10.00">mutt_aliaslist_free</text>
</a>
</g>
</g>
<!-- Node1&#45;&gt;Node4 -->
<g id="edge3" class="edge"><title>Node1&#45;&gt;Node4</title>
<path fill="none" stroke="midnightblue" d="M93.9688,-40.5507C104.371,-39.0303 115.277,-37.4364 125.551,-35.9348"/>
<polygon fill="midnightblue" stroke="midnightblue" points="93.1648,-37.1309 83.7761,-42.0404 94.1772,-44.0574 93.1648,-37.1309"/>
</g>
<!-- Node5 -->
<g id="node5" class="node"><title>Node5</title>
<g id="a_node5"><a xlink:href="init_8c.html#a08cd0521c5372bc33d02ed8f1ed2ba35" target="_top" xlink:title="Parse the &#39;unalias&#39; command &#45; Implements command_t. ">
<polygon fill="white" stroke="black" points="264.5,-0.5 264.5,-19.5 341.5,-19.5 341.5,-0.5 264.5,-0.5"/>
<text text-anchor="middle" x="303" y="-7.5" font-family="Helvetica,sans-Serif" font-size="10.00">parse_unalias</text>
</a>
</g>
</g>
<!-- Node1&#45;&gt;Node5 -->
<g id="edge5" class="edge"><title>Node1&#45;&gt;Node5</title>
<path fill="none" stroke="midnightblue" d="M66.1843,-33.0511C80.9428,-24.445 100.827,-14.4735 120,-10 168.926,1.41532 227.284,-1.34933 264.485,-5.08331"/>
<polygon fill="midnightblue" stroke="midnightblue" points="64.0275,-30.2653 57.2851,-38.4378 67.6523,-36.2537 64.0275,-30.2653"/>
</g>
<!-- Node4&#45;&gt;Node5 -->
<g id="edge4" class="edge"><title>Node4&#45;&gt;Node5</title>
<path fill="none" stroke="midnightblue" d="M232.486,-20.3998C243.236,-18.7914 254.219,-17.1484 264.186,-15.6572"/>
<polygon fill="midnightblue" stroke="midnightblue" points="231.662,-16.9839 222.29,-21.9251 232.698,-23.9069 231.662,-16.9839"/>
</g>
</g>
</svg>
