<?xml version="1.0" encoding="UTF-8" standalone="no"?>
<!DOCTYPE svg PUBLIC "-//W3C//DTD SVG 1.1//EN"
 "http://www.w3.org/Graphics/SVG/1.1/DTD/svg11.dtd">
<!-- Generated by graphviz version 2.36.0 (20140111.2315)
 -->
<!-- Title: mutt_alias_reverse_lookup Pages: 1 -->
<svg width="228pt" height="38pt"
 viewBox="0.00 0.00 228.00 38.00" xmlns="http://www.w3.org/2000/svg" xmlns:xlink="http://www.w3.org/1999/xlink">
<g id="graph0" class="graph" transform="scale(1 1) rotate(0) translate(4 34)">
<title>mutt_alias_reverse_lookup</title>
<polygon fill="white" stroke="none" points="-4,4 -4,-34 224,-34 224,4 -4,4"/>
<!-- Node1 -->
<g id="node1" class="node"><title>Node1</title>
<polygon fill="#bfbfbf" stroke="black" points="0.5,-0 0.5,-30 99.5,-30 99.5,-0 0.5,-0"/>
<text text-anchor="start" x="8.5" y="-18" font-family="Helvetica,sans-Serif" font-size="10.00">mutt_alias_reverse</text>
<text text-anchor="middle" x="50" y="-7" font-family="Helvetica,sans-Serif" font-size="10.00">_lookup</text>
</g>
<!-- Node2 -->
<g id="node2" class="node"><title>Node2</title>
<g id="a_node2"><a xlink:href="hash_8c.html#a0f549503a9e1c3cdeae6b67cb7967e5c" target="_top" xlink:title="Find the HashElem data in a Hash table element using a key. ">
<polygon fill="white" stroke="red" points="136.5,-5.5 136.5,-24.5 219.5,-24.5 219.5,-5.5 136.5,-5.5"/>
<text text-anchor="middle" x="178" y="-12.5" font-family="Helvetica,sans-Serif" font-size="10.00">mutt_hash_find</text>
</a>
</g>
</g>
<!-- Node1&#45;&gt;Node2 -->
<g id="edge1" class="edge"><title>Node1&#45;&gt;Node2</title>
<path fill="none" stroke="midnightblue" d="M99.7149,-15C108.376,-15 117.416,-15 126.135,-15"/>
<polygon fill="midnightblue" stroke="midnightblue" points="126.18,-18.5001 136.18,-15 126.18,-11.5001 126.18,-18.5001"/>
</g>
</g>
</svg>
