<?xml version="1.0" encoding="UTF-8" standalone="no"?>
<!DOCTYPE svg PUBLIC "-//W3C//DTD SVG 1.1//EN"
 "http://www.w3.org/Graphics/SVG/1.1/DTD/svg11.dtd">
<!-- Generated by graphviz version 2.36.0 (20140111.2315)
 -->
<!-- Title: mutt_addr_is_user Pages: 1 -->
<svg width="508pt" height="446pt"
 viewBox="0.00 0.00 508.00 446.00" xmlns="http://www.w3.org/2000/svg" xmlns:xlink="http://www.w3.org/1999/xlink">
<g id="graph0" class="graph" transform="scale(1 1) rotate(0) translate(4 442)">
<title>mutt_addr_is_user</title>
<polygon fill="white" stroke="none" points="-4,4 -4,-442 504,-442 504,4 -4,4"/>
<!-- Node1 -->
<g id="node1" class="node"><title>Node1</title>
<polygon fill="#bfbfbf" stroke="black" points="0.5,-209.5 0.5,-228.5 97.5,-228.5 97.5,-209.5 0.5,-209.5"/>
<text text-anchor="middle" x="49" y="-216.5" font-family="Helvetica,sans-Serif" font-size="10.00">mutt_addr_is_user</text>
</g>
<!-- Node2 -->
<g id="node2" class="node"><title>Node2</title>
<g id="a_node2"><a xlink:href="alias_8h.html#a0d2597deb568afc71c8328d3b324eea4" target="_top" xlink:title="Get an Address from an Envelope. ">
<polygon fill="white" stroke="red" points="143.5,-418.5 143.5,-437.5 238.5,-437.5 238.5,-418.5 143.5,-418.5"/>
<text text-anchor="middle" x="191" y="-425.5" font-family="Helvetica,sans-Serif" font-size="10.00">mutt_get_address</text>
</a>
</g>
</g>
<!-- Node1&#45;&gt;Node2 -->
<g id="edge1" class="edge"><title>Node1&#45;&gt;Node2</title>
<path fill="none" stroke="midnightblue" d="M54.0339,-238.951C62.5213,-276.145 85.5712,-356.593 134,-404 140.349,-410.215 148.561,-414.936 156.73,-418.473"/>
<polygon fill="midnightblue" stroke="midnightblue" points="57.3908,-237.915 51.8554,-228.881 50.5491,-239.395 57.3908,-237.915"/>
</g>
<!-- Node3 -->
<g id="node3" class="node"><title>Node3</title>
<g id="a_node3"><a xlink:href="hdrline_8c.html#a4df982424a1a487d00ff8179528e5151" target="_top" xlink:title="Generate a From: field (with optional prefix) ">
<polygon fill="white" stroke="black" points="296.5,-380.5 296.5,-399.5 361.5,-399.5 361.5,-380.5 296.5,-380.5"/>
<text text-anchor="middle" x="329" y="-387.5" font-family="Helvetica,sans-Serif" font-size="10.00">make_from</text>
</a>
</g>
</g>
<!-- Node1&#45;&gt;Node3 -->
<g id="edge2" class="edge"><title>Node1&#45;&gt;Node3</title>
<path fill="none" stroke="midnightblue" d="M55.0524,-238.664C64.5256,-271.172 88.2566,-335.546 134,-366 183.154,-398.724 255.113,-398.051 296.168,-394.263"/>
<polygon fill="midnightblue" stroke="midnightblue" points="58.3114,-237.316 52.2835,-228.603 51.5623,-239.173 58.3114,-237.316"/>
</g>
<!-- Node4 -->
<g id="node4" class="node"><title>Node4</title>
<g id="a_node4"><a xlink:href="hdrline_8c.html#afa4aeab4df484044d13f6fb7d7f08901" target="_top" xlink:title="Format a string for the index list &#45; Implements format_t. ">
<polygon fill="white" stroke="red" points="410.5,-323.5 410.5,-342.5 499.5,-342.5 499.5,-323.5 410.5,-323.5"/>
<text text-anchor="middle" x="455" y="-330.5" font-family="Helvetica,sans-Serif" font-size="10.00">index_format_str</text>
</a>
</g>
</g>
<!-- Node1&#45;&gt;Node4 -->
<g id="edge10" class="edge"><title>Node1&#45;&gt;Node4</title>
<path fill="none" stroke="midnightblue" d="M59.4813,-237.739C72.6276,-261.504 98.8077,-301.601 134,-320 223.062,-366.564 345.883,-353.855 410.393,-342.36"/>
<polygon fill="midnightblue" stroke="midnightblue" points="62.4416,-235.851 54.6569,-228.664 56.2608,-239.137 62.4416,-235.851"/>
</g>
<!-- Node5 -->
<g id="node5" class="node"><title>Node5</title>
<g id="a_node5"><a xlink:href="hdrline_8c.html#a1c2c4b3344af9f033ba46a248272c7e8" target="_top" xlink:title="Create a &#39;from&#39; address for a reply email. ">
<polygon fill="white" stroke="black" points="284.5,-304.5 284.5,-323.5 373.5,-323.5 373.5,-304.5 284.5,-304.5"/>
<text text-anchor="middle" x="329" y="-311.5" font-family="Helvetica,sans-Serif" font-size="10.00">make_from_addr</text>
</a>
</g>
</g>
<!-- Node1&#45;&gt;Node5 -->
<g id="edge4" class="edge"><title>Node1&#45;&gt;Node5</title>
<path fill="none" stroke="midnightblue" d="M63.5184,-236.574C78.5562,-254.671 104.634,-282.008 134,-295 182.279,-316.36 243.758,-318.743 284.421,-317.345"/>
<polygon fill="midnightblue" stroke="midnightblue" points="66.0501,-234.137 57.0571,-228.535 60.594,-238.522 66.0501,-234.137"/>
</g>
<!-- Node6 -->
<g id="node6" class="node"><title>Node6</title>
<g id="a_node6"><a xlink:href="hdrline_8c.html#a52b00e5a7372fcae323bbeec3247b574" target="_top" xlink:title="Do any of the addresses refer to the user? ">
<polygon fill="white" stroke="black" points="155,-266.5 155,-285.5 227,-285.5 227,-266.5 155,-266.5"/>
<text text-anchor="middle" x="191" y="-273.5" font-family="Helvetica,sans-Serif" font-size="10.00">user_in_addr</text>
</a>
</g>
</g>
<!-- Node1&#45;&gt;Node6 -->
<g id="edge6" class="edge"><title>Node1&#45;&gt;Node6</title>
<path fill="none" stroke="midnightblue" d="M82.7671,-232.341C108.444,-242.795 143.548,-257.087 166.491,-266.428"/>
<polygon fill="midnightblue" stroke="midnightblue" points="84.0145,-229.07 73.4329,-228.541 81.3748,-235.553 84.0145,-229.07"/>
</g>
<!-- Node7 -->
<g id="node7" class="node"><title>Node7</title>
<g id="a_node7"><a xlink:href="hdrline_8c.html#acc7bbf28d0b54c0f1b2289f4dad99083" target="_top" xlink:title="Is the user a recipient of the message. ">
<polygon fill="white" stroke="black" points="284,-266.5 284,-285.5 374,-285.5 374,-266.5 284,-266.5"/>
<text text-anchor="middle" x="329" y="-273.5" font-family="Helvetica,sans-Serif" font-size="10.00">user_is_recipient</text>
</a>
</g>
</g>
<!-- Node1&#45;&gt;Node7 -->
<g id="edge9" class="edge"><title>Node1&#45;&gt;Node7</title>
<path fill="none" stroke="midnightblue" d="M107.726,-229.393C147.293,-236.684 200.933,-246.899 248,-257 261.539,-259.905 276.303,-263.337 289.421,-266.479"/>
<polygon fill="midnightblue" stroke="midnightblue" points="108.194,-225.92 97.7267,-227.557 106.93,-232.805 108.194,-225.92"/>
</g>
<!-- Node8 -->
<g id="node8" class="node"><title>Node8</title>
<g id="a_node8"><a xlink:href="hook_8h.html#afe1cd5dad9961d84e9195403fcdcba0a" target="_top" xlink:title="Find the default save path for an email. ">
<polygon fill="white" stroke="red" points="142.5,-190.5 142.5,-209.5 239.5,-209.5 239.5,-190.5 142.5,-190.5"/>
<text text-anchor="middle" x="191" y="-197.5" font-family="Helvetica,sans-Serif" font-size="10.00">mutt_default_save</text>
</a>
</g>
</g>
<!-- Node1&#45;&gt;Node8 -->
<g id="edge11" class="edge"><title>Node1&#45;&gt;Node8</title>
<path fill="none" stroke="midnightblue" d="M107.771,-211.16C119.3,-209.595 131.287,-207.968 142.427,-206.456"/>
<polygon fill="midnightblue" stroke="midnightblue" points="107.227,-207.701 97.7885,-212.514 108.168,-214.638 107.227,-207.701"/>
</g>
<!-- Node9 -->
<g id="node9" class="node"><title>Node9</title>
<g id="a_node9"><a xlink:href="smime_8h.html#ac0708b7bcdbde024790ae10b6a2abeda" target="_top" xlink:title="Implements CryptModuleSpecs::smime_getkeys() ">
<polygon fill="white" stroke="black" points="134,-152.5 134,-171.5 248,-171.5 248,-152.5 134,-152.5"/>
<text text-anchor="middle" x="191" y="-159.5" font-family="Helvetica,sans-Serif" font-size="10.00">smime_class_getkeys</text>
</a>
</g>
</g>
<!-- Node1&#45;&gt;Node9 -->
<g id="edge12" class="edge"><title>Node1&#45;&gt;Node9</title>
<path fill="none" stroke="midnightblue" d="M79.1585,-204.962C95.1822,-197.463 115.506,-188.3 134,-181 142.404,-177.683 151.647,-174.401 160.16,-171.522"/>
<polygon fill="midnightblue" stroke="midnightblue" points="77.3403,-201.95 69.792,-209.384 80.3291,-208.28 77.3403,-201.95"/>
</g>
<!-- Node10 -->
<g id="node10" class="node"><title>Node10</title>
<g id="a_node10"><a xlink:href="pattern_8c.html#ad0039e6f10cbe244766e7963b5315d84" target="_top" xlink:title="Matches the user&#39;s email Address. ">
<polygon fill="white" stroke="red" points="157,-114.5 157,-133.5 225,-133.5 225,-114.5 157,-114.5"/>
<text text-anchor="middle" x="191" y="-121.5" font-family="Helvetica,sans-Serif" font-size="10.00">match_user</text>
</a>
</g>
</g>
<!-- Node1&#45;&gt;Node10 -->
<g id="edge13" class="edge"><title>Node1&#45;&gt;Node10</title>
<path fill="none" stroke="midnightblue" d="M64.9266,-201.903C80.6119,-184.87 106.752,-159.012 134,-143 140.993,-138.891 149.002,-135.509 156.736,-132.796"/>
<polygon fill="midnightblue" stroke="midnightblue" points="62.1994,-199.701 58.1072,-209.473 67.4005,-204.386 62.1994,-199.701"/>
</g>
<!-- Node11 -->
<g id="node11" class="node"><title>Node11</title>
<g id="a_node11"><a xlink:href="send_8c.html#a8dbe8fe3aaa8670c489f20ddd3429b19" target="_top" xlink:title="Remove any address which matches the current user. ">
<polygon fill="white" stroke="red" points="154.5,-76.5 154.5,-95.5 227.5,-95.5 227.5,-76.5 154.5,-76.5"/>
<text text-anchor="middle" x="191" y="-83.5" font-family="Helvetica,sans-Serif" font-size="10.00">remove_user</text>
</a>
</g>
</g>
<!-- Node1&#45;&gt;Node11 -->
<g id="edge14" class="edge"><title>Node1&#45;&gt;Node11</title>
<path fill="none" stroke="midnightblue" d="M59.2997,-199.948C72.5347,-174.736 99.1181,-130.51 134,-105 140.05,-100.576 147.202,-97.13 154.338,-94.4641"/>
<polygon fill="midnightblue" stroke="midnightblue" points="56.0144,-198.688 54.6027,-209.188 62.2544,-201.86 56.0144,-198.688"/>
</g>
<!-- Node12 -->
<g id="node12" class="node"><title>Node12</title>
<g id="a_node12"><a xlink:href="send_8c.html#aaec5fb925baf7e91165e27f6677977ee" target="_top" xlink:title="Generate default email addresses. ">
<polygon fill="white" stroke="red" points="161.5,-38.5 161.5,-57.5 220.5,-57.5 220.5,-38.5 161.5,-38.5"/>
<text text-anchor="middle" x="191" y="-45.5" font-family="Helvetica,sans-Serif" font-size="10.00">default_to</text>
</a>
</g>
</g>
<!-- Node1&#45;&gt;Node12 -->
<g id="edge15" class="edge"><title>Node1&#45;&gt;Node12</title>
<path fill="none" stroke="midnightblue" d="M55.6124,-199.644C65.8982,-167.517 90.7799,-103.147 134,-67 141.797,-60.4794 151.938,-56.1605 161.444,-53.3158"/>
<polygon fill="midnightblue" stroke="midnightblue" points="52.2628,-198.629 52.6783,-209.216 58.9554,-200.681 52.2628,-198.629"/>
</g>
<!-- Node13 -->
<g id="node13" class="node"><title>Node13</title>
<g id="a_node13"><a xlink:href="send_8c.html#aceaf8e10fec5b4b11d95495d68114067" target="_top" xlink:title="Try to set the &#39;from&#39; field from the recipients. ">
<polygon fill="white" stroke="red" points="142.5,-0.5 142.5,-19.5 239.5,-19.5 239.5,-0.5 142.5,-0.5"/>
<text text-anchor="middle" x="191" y="-7.5" font-family="Helvetica,sans-Serif" font-size="10.00">set_reverse_name</text>
</a>
</g>
</g>
<!-- Node1&#45;&gt;Node13 -->
<g id="edge16" class="edge"><title>Node1&#45;&gt;Node13</title>
<path fill="none" stroke="midnightblue" d="M53.3251,-199.193C60.7823,-160.866 82.4055,-76.1873 134,-29 138.243,-25.1199 143.309,-22.0281 148.635,-19.5655"/>
<polygon fill="midnightblue" stroke="midnightblue" points="49.868,-198.641 51.5156,-209.107 56.7542,-199.898 49.868,-198.641"/>
</g>
<!-- Node3&#45;&gt;Node4 -->
<g id="edge3" class="edge"><title>Node3&#45;&gt;Node4</title>
<path fill="none" stroke="midnightblue" d="M359.928,-376.243C382.585,-365.828 413.125,-351.789 433.177,-342.572"/>
<polygon fill="midnightblue" stroke="midnightblue" points="358.379,-373.103 350.755,-380.459 361.303,-379.463 358.379,-373.103"/>
</g>
<!-- Node5&#45;&gt;Node4 -->
<g id="edge5" class="edge"><title>Node5&#45;&gt;Node4</title>
<path fill="none" stroke="midnightblue" d="M383.621,-322.216C392.516,-323.579 401.646,-324.978 410.259,-326.298"/>
<polygon fill="midnightblue" stroke="midnightblue" points="384.133,-318.754 373.718,-320.699 383.072,-325.673 384.133,-318.754"/>
</g>
<!-- Node6&#45;&gt;Node7 -->
<g id="edge7" class="edge"><title>Node6&#45;&gt;Node7</title>
<path fill="none" stroke="midnightblue" d="M237.117,-276C252.149,-276 268.868,-276 283.827,-276"/>
<polygon fill="midnightblue" stroke="midnightblue" points="237.023,-272.5 227.023,-276 237.023,-279.5 237.023,-272.5"/>
</g>
<!-- Node7&#45;&gt;Node4 -->
<g id="edge8" class="edge"><title>Node7&#45;&gt;Node4</title>
<path fill="none" stroke="midnightblue" d="M361.843,-289.59C365.944,-291.387 370.078,-293.222 374,-295 394.727,-304.394 418.227,-315.627 434.366,-323.433"/>
<polygon fill="midnightblue" stroke="midnightblue" points="363.019,-286.285 352.452,-285.511 360.23,-292.705 363.019,-286.285"/>
</g>
</g>
</svg>
