<?xml version="1.0" encoding="UTF-8" standalone="no"?>
<!DOCTYPE svg PUBLIC "-//W3C//DTD SVG 1.1//EN"
 "http://www.w3.org/Graphics/SVG/1.1/DTD/svg11.dtd">
<!-- Generated by graphviz version 2.36.0 (20140111.2315)
 -->
<!-- Title: mutt_actx_free Pages: 1 -->
<svg width="248pt" height="66pt"
 viewBox="0.00 0.00 248.00 66.00" xmlns="http://www.w3.org/2000/svg" xmlns:xlink="http://www.w3.org/1999/xlink">
<g id="graph0" class="graph" transform="scale(1 1) rotate(0) translate(4 62)">
<title>mutt_actx_free</title>
<polygon fill="white" stroke="none" points="-4,4 -4,-62 244,-62 244,4 -4,4"/>
<!-- Node1 -->
<g id="node1" class="node"><title>Node1</title>
<polygon fill="#bfbfbf" stroke="black" points="0,-19.5 0,-38.5 82,-38.5 82,-19.5 0,-19.5"/>
<text text-anchor="middle" x="41" y="-26.5" font-family="Helvetica,sans-Serif" font-size="10.00">mutt_actx_free</text>
</g>
<!-- Node2 -->
<g id="node2" class="node"><title>Node2</title>
<g id="a_node2"><a xlink:href="compose_8h.html#ad69c04d8ece089edb91f7b1178c2262c" target="_top" xlink:title="Allow the user to edit the message envelope. ">
<polygon fill="white" stroke="red" points="124,-38.5 124,-57.5 234,-57.5 234,-38.5 124,-38.5"/>
<text text-anchor="middle" x="179" y="-45.5" font-family="Helvetica,sans-Serif" font-size="10.00">mutt_compose_menu</text>
</a>
</g>
</g>
<!-- Node1&#45;&gt;Node2 -->
<g id="edge1" class="edge"><title>Node1&#45;&gt;Node2</title>
<path fill="none" stroke="midnightblue" d="M92.157,-36.0072C102.481,-37.4495 113.395,-38.9743 123.852,-40.4352"/>
<polygon fill="midnightblue" stroke="midnightblue" points="92.457,-32.5152 82.0689,-34.5979 91.4884,-39.4479 92.457,-32.5152"/>
</g>
<!-- Node3 -->
<g id="node3" class="node"><title>Node3</title>
<g id="a_node3"><a xlink:href="recvattach_8h.html#a513215b1fd88e123dc01f6fa2b264594" target="_top" xlink:title="Show the attachments in a Menu. ">
<polygon fill="white" stroke="red" points="118.5,-0.5 118.5,-19.5 239.5,-19.5 239.5,-0.5 118.5,-0.5"/>
<text text-anchor="middle" x="179" y="-7.5" font-family="Helvetica,sans-Serif" font-size="10.00">mutt_view_attachments</text>
</a>
</g>
</g>
<!-- Node1&#45;&gt;Node3 -->
<g id="edge2" class="edge"><title>Node1&#45;&gt;Node3</title>
<path fill="none" stroke="midnightblue" d="M92.1975,-21.9871C100.696,-20.7999 109.593,-19.5569 118.305,-18.3397"/>
<polygon fill="midnightblue" stroke="midnightblue" points="91.4884,-18.5521 82.0689,-23.4021 92.457,-25.4848 91.4884,-18.5521"/>
</g>
</g>
</svg>
