<?xml version="1.0" encoding="UTF-8" standalone="no"?>
<!DOCTYPE svg PUBLIC "-//W3C//DTD SVG 1.1//EN"
 "http://www.w3.org/Graphics/SVG/1.1/DTD/svg11.dtd">
<!-- Generated by graphviz version 2.36.0 (20140111.2315)
 -->
<!-- Title: mutt_actx_add_attach Pages: 1 -->
<svg width="310pt" height="104pt"
 viewBox="0.00 0.00 310.00 104.00" xmlns="http://www.w3.org/2000/svg" xmlns:xlink="http://www.w3.org/1999/xlink">
<g id="graph0" class="graph" transform="scale(1 1) rotate(0) translate(4 100)">
<title>mutt_actx_add_attach</title>
<polygon fill="white" stroke="none" points="-4,4 -4,-100 306,-100 306,4 -4,4"/>
<!-- Node1 -->
<g id="node1" class="node"><title>Node1</title>
<polygon fill="#bfbfbf" stroke="black" points="0.5,-38.5 0.5,-57.5 113.5,-57.5 113.5,-38.5 0.5,-38.5"/>
<text text-anchor="middle" x="57" y="-45.5" font-family="Helvetica,sans-Serif" font-size="10.00">mutt_actx_add_attach</text>
</g>
<!-- Node2 -->
<g id="node2" class="node"><title>Node2</title>
<g id="a_node2"><a xlink:href="compose_8c.html#ac4f967e1fde0b8096af8be64a5ecbb95" target="_top" xlink:title="Generate the attachment list for the compose screen. ">
<polygon fill="white" stroke="red" points="150,-76.5 150,-95.5 302,-95.5 302,-76.5 150,-76.5"/>
<text text-anchor="middle" x="226" y="-83.5" font-family="Helvetica,sans-Serif" font-size="10.00">mutt_gen_compose_attach_list</text>
</a>
</g>
</g>
<!-- Node1&#45;&gt;Node2 -->
<g id="edge1" class="edge"><title>Node1&#45;&gt;Node2</title>
<path fill="none" stroke="midnightblue" d="M109.965,-59.8243C133.509,-65.1816 160.974,-71.4311 183.162,-76.4799"/>
<polygon fill="midnightblue" stroke="midnightblue" points="110.668,-56.3951 100.141,-57.589 109.115,-63.2206 110.668,-56.3951"/>
</g>
<!-- Node3 -->
<g id="node3" class="node"><title>Node3</title>
<g id="a_node3"><a xlink:href="compose_8c.html#a9edaca7c894f8170a7bc7cd372253d92" target="_top" xlink:title="Add a new attchment to the message. ">
<polygon fill="white" stroke="red" points="194,-38.5 194,-57.5 258,-57.5 258,-38.5 194,-38.5"/>
<text text-anchor="middle" x="226" y="-45.5" font-family="Helvetica,sans-Serif" font-size="10.00">update_idx</text>
</a>
</g>
</g>
<!-- Node1&#45;&gt;Node3 -->
<g id="edge2" class="edge"><title>Node1&#45;&gt;Node3</title>
<path fill="none" stroke="midnightblue" d="M123.82,-48C148.001,-48 174.255,-48 193.959,-48"/>
<polygon fill="midnightblue" stroke="midnightblue" points="123.609,-44.5001 113.609,-48 123.609,-51.5001 123.609,-44.5001"/>
</g>
<!-- Node4 -->
<g id="node4" class="node"><title>Node4</title>
<g id="a_node4"><a xlink:href="recvattach_8c.html#ae34f75d78cba83011d7c15f2d1c44198" target="_top" xlink:title="Create a list of attachments. ">
<polygon fill="white" stroke="red" points="152,-0.5 152,-19.5 300,-19.5 300,-0.5 152,-0.5"/>
<text text-anchor="middle" x="226" y="-7.5" font-family="Helvetica,sans-Serif" font-size="10.00">mutt_generate_recvattach_list</text>
</a>
</g>
</g>
<!-- Node1&#45;&gt;Node4 -->
<g id="edge3" class="edge"><title>Node1&#45;&gt;Node4</title>
<path fill="none" stroke="midnightblue" d="M109.965,-36.1757C133.509,-30.8184 160.974,-24.5689 183.162,-19.5201"/>
<polygon fill="midnightblue" stroke="midnightblue" points="109.115,-32.7794 100.141,-38.411 110.668,-39.6049 109.115,-32.7794"/>
</g>
</g>
</svg>
