<?xml version="1.0" encoding="UTF-8" standalone="no"?>
<!DOCTYPE svg PUBLIC "-//W3C//DTD SVG 1.1//EN"
 "http://www.w3.org/Graphics/SVG/1.1/DTD/svg11.dtd">
<!-- Generated by graphviz version 2.36.0 (20140111.2315)
 -->
<!-- Title: imap/auth_cram.c Pages: 1 -->
<svg width="649pt" height="140pt"
 viewBox="0.00 0.00 649.00 140.00" xmlns="http://www.w3.org/2000/svg" xmlns:xlink="http://www.w3.org/1999/xlink">
<g id="graph0" class="graph" transform="scale(1 1) rotate(0) translate(4 136)">
<title>imap/auth_cram.c</title>
<polygon fill="white" stroke="none" points="-4,4 -4,-136 645,-136 645,4 -4,4"/>
<!-- Node1 -->
<g id="node1" class="node"><title>Node1</title>
<polygon fill="#bfbfbf" stroke="black" points="255.5,-112.5 255.5,-131.5 350.5,-131.5 350.5,-112.5 255.5,-112.5"/>
<text text-anchor="middle" x="303" y="-119.5" font-family="Helvetica,sans-Serif" font-size="10.00">imap/auth_cram.c</text>
</g>
<!-- Node2 -->
<g id="node2" class="node"><title>Node2</title>
<polygon fill="white" stroke="#bfbfbf" points="-0.5,-56.5 -0.5,-75.5 50.5,-75.5 50.5,-56.5 -0.5,-56.5"/>
<text text-anchor="middle" x="25" y="-63.5" font-family="Helvetica,sans-Serif" font-size="10.00">config.h</text>
</g>
<!-- Node1&#45;&gt;Node2 -->
<g id="edge1" class="edge"><title>Node1&#45;&gt;Node2</title>
<path fill="none" stroke="midnightblue" d="M255.491,-112.515C207.383,-103.806 130.886,-89.6367 65,-76 63.5624,-75.7024 62.0968,-75.3944 60.617,-75.0795"/>
<polygon fill="midnightblue" stroke="midnightblue" points="61.3082,-71.6481 50.7925,-72.9404 59.8189,-78.4879 61.3082,-71.6481"/>
</g>
<!-- Node3 -->
<g id="node3" class="node"><title>Node3</title>
<polygon fill="white" stroke="#bfbfbf" points="187,-0.5 187,-19.5 233,-19.5 233,-0.5 187,-0.5"/>
<text text-anchor="middle" x="210" y="-7.5" font-family="Helvetica,sans-Serif" font-size="10.00">stdio.h</text>
</g>
<!-- Node1&#45;&gt;Node3 -->
<g id="edge2" class="edge"><title>Node1&#45;&gt;Node3</title>
<path fill="none" stroke="midnightblue" d="M255.231,-117.301C200.949,-111.989 117.354,-100.063 98,-76 73.1904,-45.1537 135.494,-25.9899 176.813,-17.0307"/>
<polygon fill="midnightblue" stroke="midnightblue" points="177.713,-20.419 186.8,-14.972 176.3,-13.5631 177.713,-20.419"/>
</g>
<!-- Node4 -->
<g id="node4" class="node"><title>Node4</title>
<polygon fill="white" stroke="#bfbfbf" points="107.5,-56.5 107.5,-75.5 156.5,-75.5 156.5,-56.5 107.5,-56.5"/>
<text text-anchor="middle" x="132" y="-63.5" font-family="Helvetica,sans-Serif" font-size="10.00">string.h</text>
</g>
<!-- Node1&#45;&gt;Node4 -->
<g id="edge3" class="edge"><title>Node1&#45;&gt;Node4</title>
<path fill="none" stroke="midnightblue" d="M275.905,-112.444C246.332,-103.105 198.904,-88.1276 166.646,-77.9409"/>
<polygon fill="midnightblue" stroke="midnightblue" points="167.338,-74.4889 156.748,-74.8151 165.23,-81.164 167.338,-74.4889"/>
</g>
<!-- Node5 -->
<g id="node5" class="node"><title>Node5</title>
<g id="a_node5"><a xlink:href="imap__private_8h.html" target="_top" xlink:title="Shared constants/structs that are private to IMAP. ">
<polygon fill="white" stroke="red" points="263,-56.5 263,-75.5 343,-75.5 343,-56.5 263,-56.5"/>
<text text-anchor="middle" x="303" y="-63.5" font-family="Helvetica,sans-Serif" font-size="10.00">imap_private.h</text>
</a>
</g>
</g>
<!-- Node1&#45;&gt;Node5 -->
<g id="edge4" class="edge"><title>Node1&#45;&gt;Node5</title>
<path fill="none" stroke="midnightblue" d="M303,-112.083C303,-105.006 303,-94.8611 303,-85.9865"/>
<polygon fill="midnightblue" stroke="midnightblue" points="306.5,-85.751 303,-75.7511 299.5,-85.7511 306.5,-85.751"/>
</g>
<!-- Node6 -->
<g id="node6" class="node"><title>Node6</title>
<polygon fill="white" stroke="#bfbfbf" points="303.5,-0.5 303.5,-19.5 370.5,-19.5 370.5,-0.5 303.5,-0.5"/>
<text text-anchor="middle" x="337" y="-7.5" font-family="Helvetica,sans-Serif" font-size="10.00">mutt/mutt.h</text>
</g>
<!-- Node1&#45;&gt;Node6 -->
<g id="edge7" class="edge"><title>Node1&#45;&gt;Node6</title>
<path fill="none" stroke="midnightblue" d="M317.661,-112.402C329.406,-104.585 345.031,-91.8617 352,-76 358.682,-60.7912 353.167,-42.2194 347.025,-28.8279"/>
<polygon fill="midnightblue" stroke="midnightblue" points="350.054,-27.0624 342.398,-19.7385 343.816,-30.2381 350.054,-27.0624"/>
</g>
<!-- Node7 -->
<g id="node7" class="node"><title>Node7</title>
<g id="a_node7"><a xlink:href="conn_8h.html" target="_top" xlink:title="Connection Library. ">
<polygon fill="white" stroke="red" points="175,-56.5 175,-75.5 245,-75.5 245,-56.5 175,-56.5"/>
<text text-anchor="middle" x="210" y="-63.5" font-family="Helvetica,sans-Serif" font-size="10.00">conn/conn.h</text>
</a>
</g>
</g>
<!-- Node1&#45;&gt;Node7 -->
<g id="edge8" class="edge"><title>Node1&#45;&gt;Node7</title>
<path fill="none" stroke="midnightblue" d="M288.058,-112.324C273.415,-103.822 250.866,-90.7288 233.762,-80.7975"/>
<polygon fill="midnightblue" stroke="midnightblue" points="235.31,-77.6491 224.905,-75.6545 231.795,-83.7027 235.31,-77.6491"/>
</g>
<!-- Node8 -->
<g id="node8" class="node"><title>Node8</title>
<g id="a_node8"><a xlink:href="auth_8h.html" target="_top" xlink:title="IMAP authenticator multiplexor. ">
<polygon fill="white" stroke="black" points="399,-56.5 399,-75.5 443,-75.5 443,-56.5 399,-56.5"/>
<text text-anchor="middle" x="421" y="-63.5" font-family="Helvetica,sans-Serif" font-size="10.00">auth.h</text>
</a>
</g>
</g>
<!-- Node1&#45;&gt;Node8 -->
<g id="edge10" class="edge"><title>Node1&#45;&gt;Node8</title>
<path fill="none" stroke="midnightblue" d="M321.697,-112.444C340.944,-103.636 371.152,-89.8116 393.2,-79.722"/>
<polygon fill="midnightblue" stroke="midnightblue" points="394.753,-82.8603 402.39,-75.5164 391.84,-76.4951 394.753,-82.8603"/>
</g>
<!-- Node9 -->
<g id="node9" class="node"><title>Node9</title>
<g id="a_node9"><a xlink:href="mutt__account_8h.html" target="_top" xlink:title="Account object used by POP and IMAP. ">
<polygon fill="white" stroke="black" points="461,-56.5 461,-75.5 545,-75.5 545,-56.5 461,-56.5"/>
<text text-anchor="middle" x="503" y="-63.5" font-family="Helvetica,sans-Serif" font-size="10.00">mutt_account.h</text>
</a>
</g>
</g>
<!-- Node1&#45;&gt;Node9 -->
<g id="edge11" class="edge"><title>Node1&#45;&gt;Node9</title>
<path fill="none" stroke="midnightblue" d="M334.691,-112.444C369.068,-103.162 424.077,-88.3093 461.789,-78.127"/>
<polygon fill="midnightblue" stroke="midnightblue" points="462.716,-81.5022 471.458,-75.5164 460.891,-74.7442 462.716,-81.5022"/>
</g>
<!-- Node10 -->
<g id="node10" class="node"><title>Node10</title>
<g id="a_node10"><a xlink:href="mutt__socket_8h.html" target="_top" xlink:title="NeoMutt connections. ">
<polygon fill="white" stroke="black" points="562.5,-56.5 562.5,-75.5 641.5,-75.5 641.5,-56.5 562.5,-56.5"/>
<text text-anchor="middle" x="602" y="-63.5" font-family="Helvetica,sans-Serif" font-size="10.00">mutt_socket.h</text>
</a>
</g>
</g>
<!-- Node1&#45;&gt;Node10 -->
<g id="edge12" class="edge"><title>Node1&#45;&gt;Node10</title>
<path fill="none" stroke="midnightblue" d="M350.936,-112.424C399.105,-103.794 475.769,-90.0277 552.14,-76.1512"/>
<polygon fill="midnightblue" stroke="midnightblue" points="553.209,-79.5142 562.422,-74.2819 551.957,-72.6271 553.209,-79.5142"/>
</g>
<!-- Node5&#45;&gt;Node3 -->
<g id="edge5" class="edge"><title>Node5&#45;&gt;Node3</title>
<path fill="none" stroke="midnightblue" d="M288.058,-56.324C273.415,-47.8215 250.866,-34.7288 233.762,-24.7975"/>
<polygon fill="midnightblue" stroke="midnightblue" points="235.31,-21.6491 224.905,-19.6545 231.795,-27.7027 235.31,-21.6491"/>
</g>
<!-- Node5&#45;&gt;Node6 -->
<g id="edge6" class="edge"><title>Node5&#45;&gt;Node6</title>
<path fill="none" stroke="midnightblue" d="M308.614,-56.083C313.367,-48.5341 320.318,-37.4948 326.152,-28.2298"/>
<polygon fill="midnightblue" stroke="midnightblue" points="329.124,-30.0783 331.49,-19.7511 323.2,-26.3486 329.124,-30.0783"/>
</g>
<!-- Node7&#45;&gt;Node3 -->
<g id="edge9" class="edge"><title>Node7&#45;&gt;Node3</title>
<path fill="none" stroke="midnightblue" d="M210,-56.083C210,-49.0059 210,-38.8611 210,-29.9865"/>
<polygon fill="midnightblue" stroke="midnightblue" points="213.5,-29.751 210,-19.7511 206.5,-29.7511 213.5,-29.751"/>
</g>
</g>
</svg>
