<?xml version="1.0" encoding="UTF-8" standalone="no"?>
<!DOCTYPE svg PUBLIC "-//W3C//DTD SVG 1.1//EN"
 "http://www.w3.org/Graphics/SVG/1.1/DTD/svg11.dtd">
<!-- Generated by graphviz version 2.36.0 (20140111.2315)
 -->
<!-- Title: imap_auth_login Pages: 1 -->
<svg width="248pt" height="180pt"
 viewBox="0.00 0.00 248.00 180.00" xmlns="http://www.w3.org/2000/svg" xmlns:xlink="http://www.w3.org/1999/xlink">
<g id="graph0" class="graph" transform="scale(1 1) rotate(0) translate(4 176)">
<title>imap_auth_login</title>
<polygon fill="white" stroke="none" points="-4,4 -4,-176 244,-176 244,4 -4,4"/>
<!-- Node1 -->
<g id="node1" class="node"><title>Node1</title>
<polygon fill="#bfbfbf" stroke="black" points="0.5,-76.5 0.5,-95.5 87.5,-95.5 87.5,-76.5 0.5,-76.5"/>
<text text-anchor="middle" x="44" y="-83.5" font-family="Helvetica,sans-Serif" font-size="10.00">imap_auth_login</text>
</g>
<!-- Node2 -->
<g id="node2" class="node"><title>Node2</title>
<g id="a_node2"><a xlink:href="mutt__account_8c.html#a81c27f98b6c49d96964eced1db64d117" target="_top" xlink:title="Retrieve username into Account, if necessary. ">
<polygon fill="white" stroke="red" points="125.5,-152.5 125.5,-171.5 238.5,-171.5 238.5,-152.5 125.5,-152.5"/>
<text text-anchor="middle" x="182" y="-159.5" font-family="Helvetica,sans-Serif" font-size="10.00">mutt_account_getuser</text>
</a>
</g>
</g>
<!-- Node1&#45;&gt;Node2 -->
<g id="edge1" class="edge"><title>Node1&#45;&gt;Node2</title>
<path fill="none" stroke="midnightblue" d="M56.0619,-95.6686C70.7249,-108.073 97.8083,-129.584 124,-143 128.245,-145.174 132.791,-147.178 137.396,-149.002"/>
<polygon fill="midnightblue" stroke="midnightblue" points="136.26,-152.314 146.853,-152.494 138.684,-145.747 136.26,-152.314"/>
</g>
<!-- Node3 -->
<g id="node3" class="node"><title>Node3</title>
<g id="a_node3"><a xlink:href="mutt__account_8c.html#a92ae7eef51af6ecc3d29376450fa5594" target="_top" xlink:title="Fetch password into Account, if necessary. ">
<polygon fill="white" stroke="red" points="124,-114.5 124,-133.5 240,-133.5 240,-114.5 124,-114.5"/>
<text text-anchor="middle" x="182" y="-121.5" font-family="Helvetica,sans-Serif" font-size="10.00">mutt_account_getpass</text>
</a>
</g>
</g>
<!-- Node1&#45;&gt;Node3 -->
<g id="edge2" class="edge"><title>Node1&#45;&gt;Node3</title>
<path fill="none" stroke="midnightblue" d="M79.3185,-95.589C96.7943,-100.472 118.241,-106.464 136.925,-111.685"/>
<polygon fill="midnightblue" stroke="midnightblue" points="136.119,-115.094 146.692,-114.414 138.003,-108.352 136.119,-115.094"/>
</g>
<!-- Node4 -->
<g id="node4" class="node"><title>Node4</title>
<g id="a_node4"><a xlink:href="imap__private_8h.html#a6a0f18e27558517a063dcf464f2ffd4e" target="_top" xlink:title="quote string according to IMAP rules ">
<polygon fill="white" stroke="black" points="134,-76.5 134,-95.5 230,-95.5 230,-76.5 134,-76.5"/>
<text text-anchor="middle" x="182" y="-83.5" font-family="Helvetica,sans-Serif" font-size="10.00">imap_quote_string</text>
</a>
</g>
</g>
<!-- Node1&#45;&gt;Node4 -->
<g id="edge3" class="edge"><title>Node1&#45;&gt;Node4</title>
<path fill="none" stroke="midnightblue" d="M87.6581,-86C99.0995,-86 111.658,-86 123.751,-86"/>
<polygon fill="midnightblue" stroke="midnightblue" points="123.765,-89.5001 133.765,-86 123.765,-82.5001 123.765,-89.5001"/>
</g>
<!-- Node5 -->
<g id="node5" class="node"><title>Node5</title>
<g id="a_node5"><a xlink:href="imap_2command_8c.html#a97ce60ff4a8b54b3e2bc178e2969d3fc" target="_top" xlink:title="Execute a command and wait for the response from the server. ">
<polygon fill="white" stroke="red" points="150,-38.5 150,-57.5 214,-57.5 214,-38.5 150,-38.5"/>
<text text-anchor="middle" x="182" y="-45.5" font-family="Helvetica,sans-Serif" font-size="10.00">imap_exec</text>
</a>
</g>
</g>
<!-- Node1&#45;&gt;Node5 -->
<g id="edge4" class="edge"><title>Node1&#45;&gt;Node5</title>
<path fill="none" stroke="midnightblue" d="M79.3185,-76.411C97.813,-71.2434 120.754,-64.8333 140.163,-59.4104"/>
<polygon fill="midnightblue" stroke="midnightblue" points="141.259,-62.7383 149.948,-56.6763 139.375,-55.9965 141.259,-62.7383"/>
</g>
<!-- Node6 -->
<g id="node6" class="node"><title>Node6</title>
<g id="a_node6"><a xlink:href="mutt__logging_8c.html#af068b3f524a31fad293b2fb61dfc4534" target="_top" xlink:title="Clear the message line (bottom line of screen) ">
<polygon fill="white" stroke="red" points="138.5,-0.5 138.5,-19.5 225.5,-19.5 225.5,-0.5 138.5,-0.5"/>
<text text-anchor="middle" x="182" y="-7.5" font-family="Helvetica,sans-Serif" font-size="10.00">mutt_clear_error</text>
</a>
</g>
</g>
<!-- Node1&#45;&gt;Node6 -->
<g id="edge5" class="edge"><title>Node1&#45;&gt;Node6</title>
<path fill="none" stroke="midnightblue" d="M56.0619,-76.3314C70.7249,-63.9274 97.8083,-42.4163 124,-29 128.245,-26.8258 132.791,-24.8222 137.396,-22.9976"/>
<polygon fill="midnightblue" stroke="midnightblue" points="138.684,-26.253 146.853,-19.5064 136.26,-19.6862 138.684,-26.253"/>
</g>
</g>
</svg>
