<?xml version="1.0" encoding="UTF-8" standalone="no"?>
<!DOCTYPE svg PUBLIC "-//W3C//DTD SVG 1.1//EN"
 "http://www.w3.org/Graphics/SVG/1.1/DTD/svg11.dtd">
<!-- Generated by graphviz version 2.36.0 (20140111.2315)
 -->
<!-- Title: imap_auth_gss Pages: 1 -->
<svg width="242pt" height="294pt"
 viewBox="0.00 0.00 242.00 294.00" xmlns="http://www.w3.org/2000/svg" xmlns:xlink="http://www.w3.org/1999/xlink">
<g id="graph0" class="graph" transform="scale(1 1) rotate(0) translate(4 290)">
<title>imap_auth_gss</title>
<polygon fill="white" stroke="none" points="-4,4 -4,-290 238,-290 238,4 -4,4"/>
<!-- Node1 -->
<g id="node1" class="node"><title>Node1</title>
<polygon fill="#bfbfbf" stroke="black" points="0.5,-133.5 0.5,-152.5 83.5,-152.5 83.5,-133.5 0.5,-133.5"/>
<text text-anchor="middle" x="42" y="-140.5" font-family="Helvetica,sans-Serif" font-size="10.00">imap_auth_gss</text>
</g>
<!-- Node2 -->
<g id="node2" class="node"><title>Node2</title>
<g id="a_node2"><a xlink:href="mutt__account_8c.html#a81c27f98b6c49d96964eced1db64d117" target="_top" xlink:title="Retrieve username into Account, if necessary. ">
<polygon fill="white" stroke="red" points="120.5,-266.5 120.5,-285.5 233.5,-285.5 233.5,-266.5 120.5,-266.5"/>
<text text-anchor="middle" x="177" y="-273.5" font-family="Helvetica,sans-Serif" font-size="10.00">mutt_account_getuser</text>
</a>
</g>
</g>
<!-- Node1&#45;&gt;Node2 -->
<g id="edge1" class="edge"><title>Node1&#45;&gt;Node2</title>
<path fill="none" stroke="midnightblue" d="M46.9908,-152.818C56.3908,-174.741 82.0293,-228.019 120,-257 122.451,-258.871 125.097,-260.564 127.86,-262.095"/>
<polygon fill="midnightblue" stroke="midnightblue" points="126.449,-265.3 136.98,-266.457 129.469,-258.985 126.449,-265.3"/>
</g>
<!-- Node3 -->
<g id="node3" class="node"><title>Node3</title>
<g id="a_node3"><a xlink:href="auth__gss_8c.html#a690d69a2cbc379fe0eb5392017d54b82" target="_top" xlink:title="Print detailed error message to the debug log. ">
<polygon fill="white" stroke="black" points="136.5,-228.5 136.5,-247.5 217.5,-247.5 217.5,-228.5 136.5,-228.5"/>
<text text-anchor="middle" x="177" y="-235.5" font-family="Helvetica,sans-Serif" font-size="10.00">print_gss_error</text>
</a>
</g>
</g>
<!-- Node1&#45;&gt;Node3 -->
<g id="edge2" class="edge"><title>Node1&#45;&gt;Node3</title>
<path fill="none" stroke="midnightblue" d="M50.2519,-152.567C62.8018,-168.503 90.1107,-200.552 120,-219 123.344,-221.064 126.941,-222.936 130.639,-224.627"/>
<polygon fill="midnightblue" stroke="midnightblue" points="129.377,-227.892 139.956,-228.463 132.042,-221.419 129.377,-227.892"/>
</g>
<!-- Node4 -->
<g id="node4" class="node"><title>Node4</title>
<g id="a_node4"><a xlink:href="imap_2command_8c.html#a344a4084935a9df8fcf443e83422fcf7" target="_top" xlink:title="Given an IMAP command, send it to the server. ">
<polygon fill="white" stroke="red" points="134,-190.5 134,-209.5 220,-209.5 220,-190.5 134,-190.5"/>
<text text-anchor="middle" x="177" y="-197.5" font-family="Helvetica,sans-Serif" font-size="10.00">imap_cmd_start</text>
</a>
</g>
</g>
<!-- Node1&#45;&gt;Node4 -->
<g id="edge3" class="edge"><title>Node1&#45;&gt;Node4</title>
<path fill="none" stroke="midnightblue" d="M60.7393,-152.586C76.1513,-160.712 99.204,-172.384 120,-181 125.098,-183.112 130.524,-185.175 135.915,-187.116"/>
<polygon fill="midnightblue" stroke="midnightblue" points="134.91,-190.472 145.504,-190.463 137.216,-183.863 134.91,-190.472"/>
</g>
<!-- Node5 -->
<g id="node5" class="node"><title>Node5</title>
<g id="a_node5"><a xlink:href="imap_2command_8c.html#a4acab39c86f77ee378015e5013af0a0f" target="_top" xlink:title="Reads server responses from an IMAP command. ">
<polygon fill="white" stroke="red" points="134,-152.5 134,-171.5 220,-171.5 220,-152.5 134,-152.5"/>
<text text-anchor="middle" x="177" y="-159.5" font-family="Helvetica,sans-Serif" font-size="10.00">imap_cmd_step</text>
</a>
</g>
</g>
<!-- Node1&#45;&gt;Node5 -->
<g id="edge4" class="edge"><title>Node1&#45;&gt;Node5</title>
<path fill="none" stroke="midnightblue" d="M83.6271,-148.804C96.2891,-150.613 110.434,-152.633 123.774,-154.539"/>
<polygon fill="midnightblue" stroke="midnightblue" points="123.386,-158.019 133.781,-155.969 124.376,-151.09 123.386,-158.019"/>
</g>
<!-- Node6 -->
<g id="node6" class="node"><title>Node6</title>
<g id="a_node6"><a xlink:href="mutt_2base64_8c.html#a144339ab821c37faec55dee215525005" target="_top" xlink:title="Convert raw bytes to null&#45;terminated base64 string. ">
<polygon fill="white" stroke="black" points="130,-114.5 130,-133.5 224,-133.5 224,-114.5 130,-114.5"/>
<text text-anchor="middle" x="177" y="-121.5" font-family="Helvetica,sans-Serif" font-size="10.00">mutt_b64_encode</text>
</a>
</g>
</g>
<!-- Node1&#45;&gt;Node6 -->
<g id="edge5" class="edge"><title>Node1&#45;&gt;Node6</title>
<path fill="none" stroke="midnightblue" d="M83.6271,-137.196C94.9665,-135.576 107.495,-133.786 119.57,-132.061"/>
<polygon fill="midnightblue" stroke="midnightblue" points="120.166,-135.512 129.571,-130.633 119.176,-128.582 120.166,-135.512"/>
</g>
<!-- Node7 -->
<g id="node7" class="node"><title>Node7</title>
<g id="a_node7"><a xlink:href="mutt_2string_8c.html#a9ea8568afcd2f6b67f4be5254ffb6f8e" target="_top" xlink:title="Concatenate two strings. ">
<polygon fill="white" stroke="black" points="135.5,-76.5 135.5,-95.5 218.5,-95.5 218.5,-76.5 135.5,-76.5"/>
<text text-anchor="middle" x="177" y="-83.5" font-family="Helvetica,sans-Serif" font-size="10.00">mutt_str_strcat</text>
</a>
</g>
</g>
<!-- Node1&#45;&gt;Node7 -->
<g id="edge6" class="edge"><title>Node1&#45;&gt;Node7</title>
<path fill="none" stroke="midnightblue" d="M60.7393,-133.414C76.1513,-125.288 99.204,-113.616 120,-105 125.098,-102.888 130.524,-100.825 135.915,-98.8841"/>
<polygon fill="midnightblue" stroke="midnightblue" points="137.216,-102.137 145.504,-95.5373 134.91,-95.5281 137.216,-102.137"/>
</g>
<!-- Node8 -->
<g id="node8" class="node"><title>Node8</title>
<g id="a_node8"><a xlink:href="mutt_2base64_8c.html#a2facf7ce798b7ba4b113eaa62a127454" target="_top" xlink:title="Convert null&#45;terminated base64 string to raw bytes. ">
<polygon fill="white" stroke="black" points="130,-38.5 130,-57.5 224,-57.5 224,-38.5 130,-38.5"/>
<text text-anchor="middle" x="177" y="-45.5" font-family="Helvetica,sans-Serif" font-size="10.00">mutt_b64_decode</text>
</a>
</g>
</g>
<!-- Node1&#45;&gt;Node8 -->
<g id="edge7" class="edge"><title>Node1&#45;&gt;Node8</title>
<path fill="none" stroke="midnightblue" d="M50.2519,-133.433C62.8018,-117.497 90.1107,-85.4481 120,-67 123.344,-64.9358 126.941,-63.064 130.639,-61.3734"/>
<polygon fill="midnightblue" stroke="midnightblue" points="132.042,-64.581 139.956,-57.5374 129.377,-58.1081 132.042,-64.581"/>
</g>
<!-- Node9 -->
<g id="node9" class="node"><title>Node9</title>
<g id="a_node9"><a xlink:href="imap_2command_8c.html#abf593435042f4db0db8d4594443b0c96" target="_top" xlink:title="Was the command successful. ">
<polygon fill="white" stroke="red" points="145,-0.5 145,-19.5 209,-19.5 209,-0.5 145,-0.5"/>
<text text-anchor="middle" x="177" y="-7.5" font-family="Helvetica,sans-Serif" font-size="10.00">imap_code</text>
</a>
</g>
</g>
<!-- Node1&#45;&gt;Node9 -->
<g id="edge8" class="edge"><title>Node1&#45;&gt;Node9</title>
<path fill="none" stroke="midnightblue" d="M46.9908,-133.182C56.3908,-111.259 82.0293,-57.9808 120,-29 124.54,-25.5352 129.75,-22.679 135.126,-20.3306"/>
<polygon fill="midnightblue" stroke="midnightblue" points="136.766,-23.452 144.872,-16.63 134.281,-16.9079 136.766,-23.452"/>
</g>
</g>
</svg>
