<?xml version="1.0" encoding="UTF-8" standalone="no"?>
<!DOCTYPE svg PUBLIC "-//W3C//DTD SVG 1.1//EN"
 "http://www.w3.org/Graphics/SVG/1.1/DTD/svg11.dtd">
<!-- Generated by graphviz version 2.36.0 (20140111.2315)
 -->
<!-- Title: mutt_bcache_close Pages: 1 -->
<svg width="274pt" height="180pt"
 viewBox="0.00 0.00 274.00 180.00" xmlns="http://www.w3.org/2000/svg" xmlns:xlink="http://www.w3.org/1999/xlink">
<g id="graph0" class="graph" transform="scale(1 1) rotate(0) translate(4 176)">
<title>mutt_bcache_close</title>
<polygon fill="white" stroke="none" points="-4,4 -4,-176 270,-176 270,4 -4,4"/>
<!-- Node1 -->
<g id="node1" class="node"><title>Node1</title>
<polygon fill="#bfbfbf" stroke="black" points="0.5,-76.5 0.5,-95.5 101.5,-95.5 101.5,-76.5 0.5,-76.5"/>
<text text-anchor="middle" x="51" y="-83.5" font-family="Helvetica,sans-Serif" font-size="10.00">mutt_bcache_close</text>
</g>
<!-- Node2 -->
<g id="node2" class="node"><title>Node2</title>
<g id="a_node2"><a xlink:href="imap_8c.html#abd3cf0fe6d88652e04347cf565e40ff9" target="_top" xlink:title="Implements MxOps::mbox_close() ">
<polygon fill="white" stroke="black" points="154.5,-152.5 154.5,-171.5 249.5,-171.5 249.5,-152.5 154.5,-152.5"/>
<text text-anchor="middle" x="202" y="-159.5" font-family="Helvetica,sans-Serif" font-size="10.00">imap_mbox_close</text>
</a>
</g>
</g>
<!-- Node1&#45;&gt;Node2 -->
<g id="edge1" class="edge"><title>Node1&#45;&gt;Node2</title>
<path fill="none" stroke="midnightblue" d="M71.8443,-101.597C88.6648,-114.2 113.839,-131.652 138,-143 145.755,-146.643 154.374,-149.782 162.684,-152.4"/>
<polygon fill="midnightblue" stroke="midnightblue" points="73.9331,-98.7879 63.8594,-95.5057 69.6876,-104.354 73.9331,-98.7879"/>
</g>
<!-- Node3 -->
<g id="node3" class="node"><title>Node3</title>
<g id="a_node3"><a xlink:href="util_8c.html#a67163b8e7a79c3748abeac62bf39c57c" target="_top" xlink:title="Release and clear storage in an ImapData structure. ">
<polygon fill="white" stroke="red" points="159,-114.5 159,-133.5 245,-133.5 245,-114.5 159,-114.5"/>
<text text-anchor="middle" x="202" y="-121.5" font-family="Helvetica,sans-Serif" font-size="10.00">imap_free_idata</text>
</a>
</g>
</g>
<!-- Node1&#45;&gt;Node3 -->
<g id="edge2" class="edge"><title>Node1&#45;&gt;Node3</title>
<path fill="none" stroke="midnightblue" d="M99.4922,-98.1121C120.244,-103.404 144.228,-109.521 163.671,-114.48"/>
<polygon fill="midnightblue" stroke="midnightblue" points="100.154,-94.6689 89.599,-95.589 98.4239,-101.452 100.154,-94.6689"/>
</g>
<!-- Node4 -->
<g id="node4" class="node"><title>Node4</title>
<g id="a_node4"><a xlink:href="nntp__private_8h.html#ac6f4ccee68fe9c806a1cef452a580e1f" target="_top" xlink:title="Free NntpData, used to destroy hash elements. ">
<polygon fill="white" stroke="red" points="161.5,-76.5 161.5,-95.5 242.5,-95.5 242.5,-76.5 161.5,-76.5"/>
<text text-anchor="middle" x="202" y="-83.5" font-family="Helvetica,sans-Serif" font-size="10.00">nntp_data_free</text>
</a>
</g>
</g>
<!-- Node1&#45;&gt;Node4 -->
<g id="edge3" class="edge"><title>Node1&#45;&gt;Node4</title>
<path fill="none" stroke="midnightblue" d="M111.85,-86C128.551,-86 146.275,-86 161.483,-86"/>
<polygon fill="midnightblue" stroke="midnightblue" points="111.615,-82.5001 101.615,-86 111.615,-89.5001 111.615,-82.5001"/>
</g>
<!-- Node5 -->
<g id="node5" class="node"><title>Node5</title>
<g id="a_node5"><a xlink:href="nntp__private_8h.html#a82191bedc739c0685de995b1914a4e7c" target="_top" xlink:title="Remove hcache and bcache of newsgroup. ">
<polygon fill="white" stroke="red" points="138,-38.5 138,-57.5 266,-57.5 266,-38.5 138,-38.5"/>
<text text-anchor="middle" x="202" y="-45.5" font-family="Helvetica,sans-Serif" font-size="10.00">nntp_delete_group_cache</text>
</a>
</g>
</g>
<!-- Node1&#45;&gt;Node5 -->
<g id="edge4" class="edge"><title>Node1&#45;&gt;Node5</title>
<path fill="none" stroke="midnightblue" d="M99.4922,-73.8879C120.244,-68.5956 144.228,-62.4787 163.671,-57.5201"/>
<polygon fill="midnightblue" stroke="midnightblue" points="98.4239,-70.5482 89.599,-76.411 100.154,-77.3311 98.4239,-70.5482"/>
</g>
<!-- Node6 -->
<g id="node6" class="node"><title>Node6</title>
<g id="a_node6"><a xlink:href="pop_8c.html#a4bf00ce096aa9d235408e7e79be71732" target="_top" xlink:title="close POP mailbox ">
<polygon fill="white" stroke="black" points="157,-0.5 157,-19.5 247,-19.5 247,-0.5 157,-0.5"/>
<text text-anchor="middle" x="202" y="-7.5" font-family="Helvetica,sans-Serif" font-size="10.00">pop_mbox_close</text>
</a>
</g>
</g>
<!-- Node1&#45;&gt;Node6 -->
<g id="edge5" class="edge"><title>Node1&#45;&gt;Node6</title>
<path fill="none" stroke="midnightblue" d="M71.8443,-70.4034C88.6648,-57.7999 113.839,-40.3484 138,-29 145.755,-25.3574 154.374,-22.2183 162.684,-19.6005"/>
<polygon fill="midnightblue" stroke="midnightblue" points="69.6876,-67.6465 63.8594,-76.4943 73.9331,-73.2121 69.6876,-67.6465"/>
</g>
</g>
</svg>
