<?xml version="1.0" encoding="UTF-8" standalone="no"?>
<!DOCTYPE svg PUBLIC "-//W3C//DTD SVG 1.1//EN"
 "http://www.w3.org/Graphics/SVG/1.1/DTD/svg11.dtd">
<!-- Generated by graphviz version 2.36.0 (20140111.2315)
 -->
<!-- Title: mutt_bcache_put Pages: 1 -->
<svg width="222pt" height="104pt"
 viewBox="0.00 0.00 222.00 104.00" xmlns="http://www.w3.org/2000/svg" xmlns:xlink="http://www.w3.org/1999/xlink">
<g id="graph0" class="graph" transform="scale(1 1) rotate(0) translate(4 100)">
<title>mutt_bcache_put</title>
<polygon fill="white" stroke="none" points="-4,4 -4,-100 218,-100 218,4 -4,4"/>
<!-- Node1 -->
<g id="node1" class="node"><title>Node1</title>
<polygon fill="#bfbfbf" stroke="black" points="0,-38.5 0,-57.5 92,-57.5 92,-38.5 0,-38.5"/>
<text text-anchor="middle" x="46" y="-45.5" font-family="Helvetica,sans-Serif" font-size="10.00">mutt_bcache_put</text>
</g>
<!-- Node2 -->
<g id="node2" class="node"><title>Node2</title>
<g id="a_node2"><a xlink:href="message_8c.html#a81c9e1196503c1c8909abb3bf174db29" target="_top" xlink:title="Put an email into the message cache. ">
<polygon fill="white" stroke="red" points="128,-76.5 128,-95.5 214,-95.5 214,-76.5 128,-76.5"/>
<text text-anchor="middle" x="171" y="-83.5" font-family="Helvetica,sans-Serif" font-size="10.00">msg_cache_put</text>
</a>
</g>
</g>
<!-- Node1&#45;&gt;Node2 -->
<g id="edge1" class="edge"><title>Node1&#45;&gt;Node2</title>
<path fill="none" stroke="midnightblue" d="M88.0445,-60.6804C104.664,-65.8148 123.532,-71.6441 138.972,-76.4141"/>
<polygon fill="midnightblue" stroke="midnightblue" points="88.6257,-57.1968 78.0381,-57.589 86.5594,-63.8849 88.6257,-57.1968"/>
</g>
<!-- Node3 -->
<g id="node3" class="node"><title>Node3</title>
<g id="a_node3"><a xlink:href="nntp_8c.html#ab08fc9d0aa868d9cfaf739c04d6d4369" target="_top" xlink:title="Implements MxOps::msg_open() ">
<polygon fill="white" stroke="black" points="128,-38.5 128,-57.5 214,-57.5 214,-38.5 128,-38.5"/>
<text text-anchor="middle" x="171" y="-45.5" font-family="Helvetica,sans-Serif" font-size="10.00">nntp_msg_open</text>
</a>
</g>
</g>
<!-- Node1&#45;&gt;Node3 -->
<g id="edge2" class="edge"><title>Node1&#45;&gt;Node3</title>
<path fill="none" stroke="midnightblue" d="M102.378,-48C110.903,-48 119.586,-48 127.765,-48"/>
<polygon fill="midnightblue" stroke="midnightblue" points="102.102,-44.5001 92.1022,-48 102.102,-51.5001 102.102,-44.5001"/>
</g>
<!-- Node4 -->
<g id="node4" class="node"><title>Node4</title>
<g id="a_node4"><a xlink:href="pop_8c.html#acdcd617038ac12a95b869352680d587b" target="_top" xlink:title="fetch message from POP server ">
<polygon fill="white" stroke="black" points="129.5,-0.5 129.5,-19.5 212.5,-19.5 212.5,-0.5 129.5,-0.5"/>
<text text-anchor="middle" x="171" y="-7.5" font-family="Helvetica,sans-Serif" font-size="10.00">pop_msg_open</text>
</a>
</g>
</g>
<!-- Node1&#45;&gt;Node4 -->
<g id="edge3" class="edge"><title>Node1&#45;&gt;Node4</title>
<path fill="none" stroke="midnightblue" d="M88.0445,-35.3196C104.664,-30.1852 123.532,-24.3559 138.972,-19.5859"/>
<polygon fill="midnightblue" stroke="midnightblue" points="86.5594,-32.1151 78.0381,-38.411 88.6257,-38.8032 86.5594,-32.1151"/>
</g>
</g>
</svg>
