<?xml version="1.0" encoding="UTF-8" standalone="no"?>
<!DOCTYPE svg PUBLIC "-//W3C//DTD SVG 1.1//EN"
 "http://www.w3.org/Graphics/SVG/1.1/DTD/svg11.dtd">
<!-- Generated by graphviz version 2.36.0 (20140111.2315)
 -->
<!-- Title: bcache_path Pages: 1 -->
<svg width="216pt" height="142pt"
 viewBox="0.00 0.00 216.00 142.00" xmlns="http://www.w3.org/2000/svg" xmlns:xlink="http://www.w3.org/1999/xlink">
<g id="graph0" class="graph" transform="scale(1 1) rotate(0) translate(4 138)">
<title>bcache_path</title>
<polygon fill="white" stroke="none" points="-4,4 -4,-138 212,-138 212,4 -4,4"/>
<!-- Node1 -->
<g id="node1" class="node"><title>Node1</title>
<polygon fill="#bfbfbf" stroke="black" points="0,-57.5 0,-76.5 72,-76.5 72,-57.5 0,-57.5"/>
<text text-anchor="middle" x="36" y="-64.5" font-family="Helvetica,sans-Serif" font-size="10.00">bcache_path</text>
</g>
<!-- Node2 -->
<g id="node2" class="node"><title>Node2</title>
<g id="a_node2"><a xlink:href="mutt__account_8c.html#a7853b8b5072b04320ad7a356a54c4e8e" target="_top" xlink:title="Fill URL with info from account. ">
<polygon fill="white" stroke="black" points="108,-114.5 108,-133.5 208,-133.5 208,-114.5 108,-114.5"/>
<text text-anchor="middle" x="158" y="-121.5" font-family="Helvetica,sans-Serif" font-size="10.00">mutt_account_tourl</text>
</a>
</g>
</g>
<!-- Node1&#45;&gt;Node2 -->
<g id="edge1" class="edge"><title>Node1&#45;&gt;Node2</title>
<path fill="none" stroke="midnightblue" d="M53.6363,-76.6468C67.8431,-84.7036 88.9437,-96.2451 108,-105 112.17,-106.916 116.593,-108.812 121.009,-110.623"/>
<polygon fill="midnightblue" stroke="midnightblue" points="119.976,-113.979 130.562,-114.424 122.564,-107.475 119.976,-113.979"/>
</g>
<!-- Node3 -->
<g id="node3" class="node"><title>Node3</title>
<g id="a_node3"><a xlink:href="url_8c.html#a9a25aab1cc9763713277d2282c31af79" target="_top" xlink:title="Output the URL string for a given Url object. ">
<polygon fill="white" stroke="red" points="125.5,-76.5 125.5,-95.5 190.5,-95.5 190.5,-76.5 125.5,-76.5"/>
<text text-anchor="middle" x="158" y="-83.5" font-family="Helvetica,sans-Serif" font-size="10.00">url_tostring</text>
</a>
</g>
</g>
<!-- Node1&#45;&gt;Node3 -->
<g id="edge2" class="edge"><title>Node1&#45;&gt;Node3</title>
<path fill="none" stroke="midnightblue" d="M72.0316,-72.5467C85.6144,-74.6973 101.275,-77.1769 115.423,-79.4169"/>
<polygon fill="midnightblue" stroke="midnightblue" points="114.981,-82.8905 125.405,-80.9975 116.076,-75.9766 114.981,-82.8905"/>
</g>
<!-- Node4 -->
<g id="node4" class="node"><title>Node4</title>
<g id="a_node4"><a xlink:href="mutt_2string_8c.html#aca11f88d08a860c07419df3efb18f35a" target="_top" xlink:title="Calculate the length of a string, safely. ">
<polygon fill="white" stroke="black" points="117,-38.5 117,-57.5 199,-57.5 199,-38.5 117,-38.5"/>
<text text-anchor="middle" x="158" y="-45.5" font-family="Helvetica,sans-Serif" font-size="10.00">mutt_str_strlen</text>
</a>
</g>
</g>
<!-- Node1&#45;&gt;Node4 -->
<g id="edge3" class="edge"><title>Node1&#45;&gt;Node4</title>
<path fill="none" stroke="midnightblue" d="M72.0316,-61.4533C82.8397,-59.742 94.9634,-57.8225 106.594,-55.981"/>
<polygon fill="midnightblue" stroke="midnightblue" points="107.312,-59.411 116.641,-54.3901 106.217,-52.4971 107.312,-59.411"/>
</g>
<!-- Node5 -->
<g id="node5" class="node"><title>Node5</title>
<g id="a_node5"><a xlink:href="muttlib_8c.html#a6d6b8369baad5aaa03c4be5c4f2fefa3" target="_top" xlink:title="Convert a path into the user&#39;s preferred character set. ">
<polygon fill="white" stroke="red" points="109.5,-0.5 109.5,-19.5 206.5,-19.5 206.5,-0.5 109.5,-0.5"/>
<text text-anchor="middle" x="158" y="-7.5" font-family="Helvetica,sans-Serif" font-size="10.00">mutt_encode_path</text>
</a>
</g>
</g>
<!-- Node1&#45;&gt;Node5 -->
<g id="edge4" class="edge"><title>Node1&#45;&gt;Node5</title>
<path fill="none" stroke="midnightblue" d="M53.6363,-57.3532C67.8431,-49.2964 88.9437,-37.7549 108,-29 112.17,-27.0842 116.593,-25.1877 121.009,-23.377"/>
<polygon fill="midnightblue" stroke="midnightblue" points="122.564,-26.5249 130.562,-19.5757 119.976,-20.0209 122.564,-26.5249"/>
</g>
</g>
</svg>
