<?xml version="1.0" encoding="UTF-8" standalone="no"?>
<!DOCTYPE svg PUBLIC "-//W3C//DTD SVG 1.1//EN"
 "http://www.w3.org/Graphics/SVG/1.1/DTD/svg11.dtd">
<!-- Generated by graphviz version 2.36.0 (20140111.2315)
 -->
<!-- Title: mutt_body_cmp_strict Pages: 1 -->
<svg width="402pt" height="47pt"
 viewBox="0.00 0.00 402.00 47.00" xmlns="http://www.w3.org/2000/svg" xmlns:xlink="http://www.w3.org/1999/xlink">
<g id="graph0" class="graph" transform="scale(1 1) rotate(0) translate(4 43)">
<title>mutt_body_cmp_strict</title>
<polygon fill="white" stroke="none" points="-4,4 -4,-43 398,-43 398,4 -4,4"/>
<!-- Node1 -->
<g id="node1" class="node"><title>Node1</title>
<polygon fill="#bfbfbf" stroke="black" points="0.5,-19.5 0.5,-38.5 113.5,-38.5 113.5,-19.5 0.5,-19.5"/>
<text text-anchor="middle" x="57" y="-26.5" font-family="Helvetica,sans-Serif" font-size="10.00">mutt_body_cmp_strict</text>
</g>
<!-- Node2 -->
<g id="node2" class="node"><title>Node2</title>
<g id="a_node2"><a xlink:href="mutt_2string_8c.html#ab4aaf8bd2ce3982651f0f949d6c665e2" target="_top" xlink:title="Compare two strings, safely. ">
<polygon fill="white" stroke="black" points="306,-19.5 306,-38.5 394,-38.5 394,-19.5 306,-19.5"/>
<text text-anchor="middle" x="350" y="-26.5" font-family="Helvetica,sans-Serif" font-size="10.00">mutt_str_strcmp</text>
</a>
</g>
</g>
<!-- Node1&#45;&gt;Node2 -->
<g id="edge1" class="edge"><title>Node1&#45;&gt;Node2</title>
<path fill="none" stroke="midnightblue" d="M113.763,-29C166.104,-29 243.861,-29 295.464,-29"/>
<polygon fill="midnightblue" stroke="midnightblue" points="295.741,-32.5001 305.741,-29 295.741,-25.5001 295.741,-32.5001"/>
</g>
<!-- Node3 -->
<g id="node3" class="node"><title>Node3</title>
<g id="a_node3"><a xlink:href="parameter_8c.html#a61286626b2cd1fdefdea7d97106cc28a" target="_top" xlink:title="Strictly compare two ParameterLists. ">
<polygon fill="white" stroke="black" points="150.5,-0.5 150.5,-19.5 269.5,-19.5 269.5,-0.5 150.5,-0.5"/>
<text text-anchor="middle" x="210" y="-7.5" font-family="Helvetica,sans-Serif" font-size="10.00">mutt_param_cmp_strict</text>
</a>
</g>
</g>
<!-- Node1&#45;&gt;Node3 -->
<g id="edge2" class="edge"><title>Node1&#45;&gt;Node3</title>
<path fill="none" stroke="midnightblue" d="M113.798,-21.9791C122.466,-20.8884 131.506,-19.7509 140.416,-18.6297"/>
<polygon fill="midnightblue" stroke="midnightblue" points="140.91,-22.0953 150.395,-17.3742 140.036,-15.1501 140.91,-22.0953"/>
</g>
<!-- Node3&#45;&gt;Node2 -->
<g id="edge3" class="edge"><title>Node3&#45;&gt;Node2</title>
<path fill="none" stroke="midnightblue" d="M269.524,-18.0577C278.289,-19.2645 287.285,-20.503 295.928,-21.693"/>
<polygon fill="midnightblue" stroke="midnightblue" points="295.493,-25.166 305.877,-23.0628 296.448,-18.2315 295.493,-25.166"/>
</g>
</g>
</svg>
