<?xml version="1.0" encoding="UTF-8" standalone="no"?>
<!DOCTYPE svg PUBLIC "-//W3C//DTD SVG 1.1//EN"
 "http://www.w3.org/Graphics/SVG/1.1/DTD/svg11.dtd">
<!-- Generated by graphviz version 2.36.0 (20140111.2315)
 -->
<!-- Title: mutt_body_new Pages: 1 -->
<svg width="812pt" height="956pt"
 viewBox="0.00 0.00 812.00 956.13" xmlns="http://www.w3.org/2000/svg" xmlns:xlink="http://www.w3.org/1999/xlink">
<g id="graph0" class="graph" transform="scale(1 1) rotate(0) translate(4 952.135)">
<title>mutt_body_new</title>
<polygon fill="white" stroke="none" points="-4,4 -4,-952.135 808,-952.135 808,4 -4,4"/>
<!-- Node1 -->
<g id="node1" class="node"><title>Node1</title>
<polygon fill="#bfbfbf" stroke="black" points="0,-492.867 0,-511.867 86,-511.867 86,-492.867 0,-492.867"/>
<text text-anchor="middle" x="43" y="-499.867" font-family="Helvetica,sans-Serif" font-size="10.00">mutt_body_new</text>
</g>
<!-- Node2 -->
<g id="node2" class="node"><title>Node2</title>
<g id="a_node2"><a xlink:href="compose_8h.html#ad69c04d8ece089edb91f7b1178c2262c" target="_top" xlink:title="Allow the user to edit the message envelope. ">
<polygon fill="white" stroke="black" points="488,-777.867 488,-796.867 598,-796.867 598,-777.867 488,-777.867"/>
<text text-anchor="middle" x="543" y="-784.867" font-family="Helvetica,sans-Serif" font-size="10.00">mutt_compose_menu</text>
</a>
</g>
</g>
<!-- Node1&#45;&gt;Node2 -->
<g id="edge1" class="edge"><title>Node1&#45;&gt;Node2</title>
<path fill="none" stroke="midnightblue" d="M46.7961,-522.001C55.2192,-578.116 82.2423,-737.167 122,-768.367 177.339,-811.796 387.445,-800.598 487.888,-792.414"/>
<polygon fill="midnightblue" stroke="midnightblue" points="50.2354,-521.33 45.322,-511.944 43.3094,-522.346 50.2354,-521.33"/>
</g>
<!-- Node3 -->
<g id="node3" class="node"><title>Node3</title>
<g id="a_node3"><a xlink:href="send_8h.html#a09c909ab2bb41101590ed2b13f65fc2d" target="_top" xlink:title="Send an email. ">
<polygon fill="white" stroke="red" points="634.5,-796.867 634.5,-815.867 729.5,-815.867 729.5,-796.867 634.5,-796.867"/>
<text text-anchor="middle" x="682" y="-803.867" font-family="Helvetica,sans-Serif" font-size="10.00">ci_send_message</text>
</a>
</g>
</g>
<!-- Node1&#45;&gt;Node3 -->
<g id="edge25" class="edge"><title>Node1&#45;&gt;Node3</title>
<path fill="none" stroke="midnightblue" d="M44.038,-482.274C44.6578,-399.829 51.6883,-89.0341 122,-29.3675 172.831,13.7678 214.927,5.08719 272,-29.3675 580.646,-215.696 668.085,-720.891 679.615,-796.773"/>
<polygon fill="midnightblue" stroke="midnightblue" points="40.5359,-482.707 43.9863,-492.724 47.5358,-482.742 40.5359,-482.707"/>
</g>
<!-- Node4 -->
<g id="node4" class="node"><title>Node4</title>
<g id="a_node4"><a xlink:href="main_8c.html#adedb285b02c41bde2158ded9cc9fd7ac" target="_top" xlink:title="Start NeoMutt. ">
<polygon fill="white" stroke="black" points="766,-834.867 766,-853.867 804,-853.867 804,-834.867 766,-834.867"/>
<text text-anchor="middle" x="785" y="-841.867" font-family="Helvetica,sans-Serif" font-size="10.00">main</text>
</a>
</g>
</g>
<!-- Node1&#45;&gt;Node4 -->
<g id="edge13" class="edge"><title>Node1&#45;&gt;Node4</title>
<path fill="none" stroke="midnightblue" d="M45.0629,-522.406C49.3345,-594.968 67.7169,-842.497 122,-895.367 205.016,-976.223 263.116,-939.367 379,-939.367 379,-939.367 379,-939.367 544,-939.367 636.089,-939.367 734.984,-878.151 770.417,-853.999"/>
<polygon fill="midnightblue" stroke="midnightblue" points="48.5326,-521.766 44.477,-511.978 41.5436,-522.159 48.5326,-521.766"/>
</g>
<!-- Node5 -->
<g id="node5" class="node"><title>Node5</title>
<g id="a_node5"><a xlink:href="parse_8h.html#ae50079838fa2a151db9ecfb0a149aaea" target="_top" xlink:title="parses an RFC822 header ">
<polygon fill="white" stroke="red" points="133.5,-815.867 133.5,-834.867 260.5,-834.867 260.5,-815.867 133.5,-815.867"/>
<text text-anchor="middle" x="197" y="-822.867" font-family="Helvetica,sans-Serif" font-size="10.00">mutt_rfc822_read_header</text>
</a>
</g>
</g>
<!-- Node1&#45;&gt;Node5 -->
<g id="edge4" class="edge"><title>Node1&#45;&gt;Node5</title>
<path fill="none" stroke="midnightblue" d="M46.625,-521.896C55.0126,-581.564 82.9235,-759.938 122,-801.367 127.931,-807.656 135.521,-812.3 143.571,-815.729"/>
<polygon fill="midnightblue" stroke="midnightblue" points="50.0809,-521.335 45.2488,-511.907 43.1464,-522.291 50.0809,-521.335"/>
</g>
<!-- Node6 -->
<g id="node6" class="node"><title>Node6</title>
<g id="a_node6"><a xlink:href="sendlib_8h.html#a008bb984b452b640a543a70b0ff2599d" target="_top" xlink:title="Create a message attachment. ">
<polygon fill="white" stroke="red" points="308.5,-815.867 308.5,-834.867 451.5,-834.867 451.5,-815.867 308.5,-815.867"/>
<text text-anchor="middle" x="380" y="-822.867" font-family="Helvetica,sans-Serif" font-size="10.00">mutt_make_message_attach</text>
</a>
</g>
</g>
<!-- Node1&#45;&gt;Node6 -->
<g id="edge26" class="edge"><title>Node1&#45;&gt;Node6</title>
<path fill="none" stroke="midnightblue" d="M45.3849,-522.237C50.49,-589.01 70.6926,-803.444 122,-844.367 154.353,-870.173 274.16,-848.759 338.126,-834.896"/>
<polygon fill="midnightblue" stroke="midnightblue" points="48.8703,-521.91 44.6473,-512.193 41.8891,-522.422 48.8703,-521.91"/>
</g>
<!-- Node7 -->
<g id="node7" class="node"><title>Node7</title>
<g id="a_node7"><a xlink:href="parse_8h.html#ad373211d5d49e235c1aa9b818f0f10a1" target="_top" xlink:title="Parse a MIME header. ">
<polygon fill="white" stroke="red" points="135,-739.867 135,-758.867 259,-758.867 259,-739.867 135,-739.867"/>
<text text-anchor="middle" x="197" y="-746.867" font-family="Helvetica,sans-Serif" font-size="10.00">mutt_read_mime_header</text>
</a>
</g>
</g>
<!-- Node1&#45;&gt;Node7 -->
<g id="edge7" class="edge"><title>Node1&#45;&gt;Node7</title>
<path fill="none" stroke="midnightblue" d="M44.7609,-522.421C47.5642,-566.76 60.6811,-673.671 122,-730.367 126.188,-734.24 131.056,-737.347 136.259,-739.837"/>
<polygon fill="midnightblue" stroke="midnightblue" points="48.2513,-522.144 44.2382,-512.339 41.2607,-522.507 48.2513,-522.144"/>
</g>
<!-- Node8 -->
<g id="node8" class="node"><title>Node8</title>
<g id="a_node8"><a xlink:href="handler_8c.html#a0ab5b59c22636dd3d02267af588d4ace" target="_top" xlink:title="Handler for message/rfc822 body parts &#45; Implements handler_t. ">
<polygon fill="white" stroke="red" points="150.5,-701.867 150.5,-720.867 243.5,-720.867 243.5,-701.867 150.5,-701.867"/>
<text text-anchor="middle" x="197" y="-708.867" font-family="Helvetica,sans-Serif" font-size="10.00">message_handler</text>
</a>
</g>
</g>
<!-- Node1&#45;&gt;Node8 -->
<g id="edge8" class="edge"><title>Node1&#45;&gt;Node8</title>
<path fill="none" stroke="midnightblue" d="M46.2617,-521.948C51.7915,-560.57 69.6164,-646.766 122,-692.367 129.903,-699.248 139.976,-703.691 150.126,-706.546"/>
<polygon fill="midnightblue" stroke="midnightblue" points="49.7264,-521.449 44.9621,-511.986 42.7852,-522.355 49.7264,-521.449"/>
</g>
<!-- Node9 -->
<g id="node9" class="node"><title>Node9</title>
<g id="a_node9"><a xlink:href="handler_8c.html#aab3262f62a3d18119e23b733fa09164c" target="_top" xlink:title="Handler for multipart alternative emails &#45; Implements handler_t. ">
<polygon fill="white" stroke="red" points="148,-663.867 148,-682.867 246,-682.867 246,-663.867 148,-663.867"/>
<text text-anchor="middle" x="197" y="-670.867" font-family="Helvetica,sans-Serif" font-size="10.00">alternative_handler</text>
</a>
</g>
</g>
<!-- Node1&#45;&gt;Node9 -->
<g id="edge9" class="edge"><title>Node1&#45;&gt;Node9</title>
<path fill="none" stroke="midnightblue" d="M48.5059,-522.02C57.0292,-554.632 78.6733,-619.759 122,-654.367 129.462,-660.328 138.58,-664.438 147.832,-667.268"/>
<polygon fill="midnightblue" stroke="midnightblue" points="51.8142,-520.817 46.0242,-511.944 45.0173,-522.491 51.8142,-520.817"/>
</g>
<!-- Node10 -->
<g id="node10" class="node"><title>Node10</title>
<g id="a_node10"><a xlink:href="handler_8c.html#aa5d200d8ce365cf1ece6cc11da5a9de2" target="_top" xlink:title="Handler for multi&#45;lingual emails &#45; Implements handler_t. ">
<polygon fill="white" stroke="red" points="146,-625.867 146,-644.867 248,-644.867 248,-625.867 146,-625.867"/>
<text text-anchor="middle" x="197" y="-632.867" font-family="Helvetica,sans-Serif" font-size="10.00">multilingual_handler</text>
</a>
</g>
</g>
<!-- Node1&#45;&gt;Node10 -->
<g id="edge10" class="edge"><title>Node1&#45;&gt;Node10</title>
<path fill="none" stroke="midnightblue" d="M51.8335,-521.426C63.3478,-547.014 87.3009,-592.062 122,-616.367 129.062,-621.314 137.308,-624.973 145.682,-627.68"/>
<polygon fill="midnightblue" stroke="midnightblue" points="54.967,-519.854 47.787,-512.063 48.5414,-522.631 54.967,-519.854"/>
</g>
<!-- Node11 -->
<g id="node11" class="node"><title>Node11</title>
<g id="a_node11"><a xlink:href="handler_8c.html#a057547777eaf6251138ef699cd0796dc" target="_top" xlink:title="Handler for multipart emails &#45; Implements handler_t. ">
<polygon fill="white" stroke="red" points="151.5,-587.867 151.5,-606.867 242.5,-606.867 242.5,-587.867 151.5,-587.867"/>
<text text-anchor="middle" x="197" y="-594.867" font-family="Helvetica,sans-Serif" font-size="10.00">multipart_handler</text>
</a>
</g>
</g>
<!-- Node1&#45;&gt;Node11 -->
<g id="edge11" class="edge"><title>Node1&#45;&gt;Node11</title>
<path fill="none" stroke="midnightblue" d="M57.5283,-520.133C71.723,-537.537 95.6108,-563.542 122,-578.367 130.904,-583.37 141.147,-587.082 151.117,-589.828"/>
<polygon fill="midnightblue" stroke="midnightblue" points="59.9782,-517.589 51.0271,-511.92 54.4898,-521.933 59.9782,-517.589"/>
</g>
<!-- Node12 -->
<g id="node12" class="node"><title>Node12</title>
<g id="a_node12"><a xlink:href="serialize_8h.html#a556940057108b6e02ff298c2aabe4e6a" target="_top" xlink:title="Deserialise a Header object. ">
<polygon fill="white" stroke="black" points="143,-549.867 143,-568.867 251,-568.867 251,-549.867 143,-549.867"/>
<text text-anchor="middle" x="197" y="-556.867" font-family="Helvetica,sans-Serif" font-size="10.00">mutt_hcache_restore</text>
</a>
</g>
</g>
<!-- Node1&#45;&gt;Node12 -->
<g id="edge12" class="edge"><title>Node1&#45;&gt;Node12</title>
<path fill="none" stroke="midnightblue" d="M70.3075,-516.837C85.1623,-524.583 104.256,-533.843 122,-540.367 131.835,-543.984 142.647,-547.177 152.896,-549.865"/>
<polygon fill="midnightblue" stroke="midnightblue" points="71.6883,-513.607 61.2146,-512.009 68.4059,-519.79 71.6883,-513.607"/>
</g>
<!-- Node13 -->
<g id="node13" class="node"><title>Node13</title>
<g id="a_node13"><a xlink:href="mutt__body_8h.html#a34765b4c275e55006a2203472caa0294" target="_top" xlink:title="Create a send&#45;mode duplicate from a receive&#45;mode body. ">
<polygon fill="white" stroke="red" points="152.5,-511.867 152.5,-530.867 241.5,-530.867 241.5,-511.867 152.5,-511.867"/>
<text text-anchor="middle" x="197" y="-518.867" font-family="Helvetica,sans-Serif" font-size="10.00">mutt_body_copy</text>
</a>
</g>
</g>
<!-- Node1&#45;&gt;Node13 -->
<g id="edge14" class="edge"><title>Node1&#45;&gt;Node13</title>
<path fill="none" stroke="midnightblue" d="M96.5003,-508.93C114.697,-511.205 134.888,-513.728 152.3,-515.905"/>
<polygon fill="midnightblue" stroke="midnightblue" points="96.6974,-505.428 86.3405,-507.66 95.8291,-512.373 96.6974,-505.428"/>
</g>
<!-- Node14 -->
<g id="node14" class="node"><title>Node14</title>
<g id="a_node14"><a xlink:href="crypt__gpgme_8c.html#a4d07485b28aaf3e4ee49f3faf1fe9c1c" target="_top" xlink:title="Sign a message. ">
<polygon fill="white" stroke="red" points="157,-473.867 157,-492.867 237,-492.867 237,-473.867 157,-473.867"/>
<text text-anchor="middle" x="197" y="-480.867" font-family="Helvetica,sans-Serif" font-size="10.00">sign_message</text>
</a>
</g>
</g>
<!-- Node1&#45;&gt;Node14 -->
<g id="edge15" class="edge"><title>Node1&#45;&gt;Node14</title>
<path fill="none" stroke="midnightblue" d="M96.4395,-495.813C116.226,-493.339 138.377,-490.57 156.753,-488.273"/>
<polygon fill="midnightblue" stroke="midnightblue" points="95.8291,-492.362 86.3405,-497.075 96.6974,-499.307 95.8291,-492.362"/>
</g>
<!-- Node15 -->
<g id="node15" class="node"><title>Node15</title>
<g id="a_node15"><a xlink:href="crypt__gpgme_8h.html#a2fb40c1e85c9d1f1c1a352ef687365ce" target="_top" xlink:title="Implements CryptModuleSpecs::pgp_encrypt_message() ">
<polygon fill="white" stroke="black" points="122.5,-435.867 122.5,-454.867 271.5,-454.867 271.5,-435.867 122.5,-435.867"/>
<text text-anchor="middle" x="197" y="-442.867" font-family="Helvetica,sans-Serif" font-size="10.00">pgp_gpgme_encrypt_message</text>
</a>
</g>
</g>
<!-- Node1&#45;&gt;Node15 -->
<g id="edge16" class="edge"><title>Node1&#45;&gt;Node15</title>
<path fill="none" stroke="midnightblue" d="M70.3075,-487.898C85.1623,-480.152 104.256,-470.892 122,-464.367 131.835,-460.751 142.647,-457.558 152.896,-454.87"/>
<polygon fill="midnightblue" stroke="midnightblue" points="68.4059,-484.945 61.2146,-492.726 71.6883,-491.128 68.4059,-484.945"/>
</g>
<!-- Node16 -->
<g id="node16" class="node"><title>Node16</title>
<g id="a_node16"><a xlink:href="crypt__gpgme_8h.html#a818613e3494585ba4b974d8d7e7befb3" target="_top" xlink:title="Implements CryptModuleSpecs::smime_build_smime_entity() ">
<polygon fill="white" stroke="black" points="127,-386.367 127,-416.367 267,-416.367 267,-386.367 127,-386.367"/>
<text text-anchor="start" x="135" y="-404.367" font-family="Helvetica,sans-Serif" font-size="10.00">smime_gpgme_build_smime</text>
<text text-anchor="middle" x="197" y="-393.367" font-family="Helvetica,sans-Serif" font-size="10.00">_entity</text>
</a>
</g>
</g>
<!-- Node1&#45;&gt;Node16 -->
<g id="edge17" class="edge"><title>Node1&#45;&gt;Node16</title>
<path fill="none" stroke="midnightblue" d="M57.9987,-484.738C72.4059,-467.653 96.3184,-442.081 122,-426.367 128.131,-422.616 134.894,-419.347 141.767,-416.52"/>
<polygon fill="midnightblue" stroke="midnightblue" points="55.0171,-482.854 51.3721,-492.802 60.4252,-487.298 55.0171,-482.854"/>
</g>
<!-- Node17 -->
<g id="node17" class="node"><title>Node17</title>
<g id="a_node17"><a xlink:href="crypt__gpgme_8h.html#ab3031c1c6cd431efc8fc3b90607c042d" target="_top" xlink:title="Implements CryptModuleSpecs::pgp_make_key_attachment() ">
<polygon fill="white" stroke="black" points="138.5,-337.367 138.5,-367.367 255.5,-367.367 255.5,-337.367 138.5,-337.367"/>
<text text-anchor="start" x="146.5" y="-355.367" font-family="Helvetica,sans-Serif" font-size="10.00">pgp_gpgme_make_key</text>
<text text-anchor="middle" x="197" y="-344.367" font-family="Helvetica,sans-Serif" font-size="10.00">_attachment</text>
</a>
</g>
</g>
<!-- Node1&#45;&gt;Node17 -->
<g id="edge18" class="edge"><title>Node1&#45;&gt;Node17</title>
<path fill="none" stroke="midnightblue" d="M51.051,-482.838C62.0104,-455.184 85.7199,-404.82 122,-376.367 126.889,-372.534 132.41,-369.303 138.178,-366.582"/>
<polygon fill="midnightblue" stroke="midnightblue" points="47.6424,-481.955 47.361,-492.546 54.1857,-484.442 47.6424,-481.955"/>
</g>
<!-- Node18 -->
<g id="node18" class="node"><title>Node18</title>
<g id="a_node18"><a xlink:href="pgp_8h.html#a12c1b61b61e1456fb4f358d563dcf64a" target="_top" xlink:title="Implements CryptModuleSpecs::sign_message() ">
<polygon fill="white" stroke="black" points="132.5,-298.867 132.5,-317.867 261.5,-317.867 261.5,-298.867 132.5,-298.867"/>
<text text-anchor="middle" x="197" y="-305.867" font-family="Helvetica,sans-Serif" font-size="10.00">pgp_class_sign_message</text>
</a>
</g>
</g>
<!-- Node1&#45;&gt;Node18 -->
<g id="edge19" class="edge"><title>Node1&#45;&gt;Node18</title>
<path fill="none" stroke="midnightblue" d="M47.1137,-482.35C53.8739,-445.842 73.3903,-368.429 122,-327.367 126.56,-323.516 131.803,-320.431 137.348,-317.963"/>
<polygon fill="midnightblue" stroke="midnightblue" points="43.5849,-482.221 45.3464,-492.668 50.4845,-483.403 43.5849,-482.221"/>
</g>
<!-- Node19 -->
<g id="node19" class="node"><title>Node19</title>
<g id="a_node19"><a xlink:href="pgp_8h.html#a2402514e625cf2d0a44e3826056f17d9" target="_top" xlink:title="Implements CryptModuleSpecs::pgp_encrypt_message() ">
<polygon fill="white" stroke="black" points="125.5,-260.867 125.5,-279.867 268.5,-279.867 268.5,-260.867 125.5,-260.867"/>
<text text-anchor="middle" x="197" y="-267.867" font-family="Helvetica,sans-Serif" font-size="10.00">pgp_class_encrypt_message</text>
</a>
</g>
</g>
<!-- Node1&#45;&gt;Node19 -->
<g id="edge20" class="edge"><title>Node1&#45;&gt;Node19</title>
<path fill="none" stroke="midnightblue" d="M45.3024,-482.489C49.1641,-440.352 64.2264,-341.65 122,-289.367 126.229,-285.54 131.125,-282.463 136.345,-279.991"/>
<polygon fill="midnightblue" stroke="midnightblue" points="41.8043,-482.326 44.4984,-492.572 48.7822,-482.882 41.8043,-482.326"/>
</g>
<!-- Node20 -->
<g id="node20" class="node"><title>Node20</title>
<g id="a_node20"><a xlink:href="pgp_8h.html#ac9cc11180d20f595eeffa36d236d5e23" target="_top" xlink:title="Implements CryptModuleSpecs::pgp_traditional_encryptsign() ">
<polygon fill="white" stroke="black" points="143,-211.367 143,-241.367 251,-241.367 251,-211.367 143,-211.367"/>
<text text-anchor="start" x="151" y="-229.367" font-family="Helvetica,sans-Serif" font-size="10.00">pgp_class_traditional</text>
<text text-anchor="middle" x="197" y="-218.367" font-family="Helvetica,sans-Serif" font-size="10.00">_encryptsign</text>
</a>
</g>
</g>
<!-- Node1&#45;&gt;Node20 -->
<g id="edge21" class="edge"><title>Node1&#45;&gt;Node20</title>
<path fill="none" stroke="midnightblue" d="M44.3455,-482.602C46.2417,-435.85 57.5232,-317.444 122,-251.367 127.777,-245.447 135.003,-240.929 142.658,-237.48"/>
<polygon fill="midnightblue" stroke="midnightblue" points="40.846,-482.535 44.0433,-492.636 47.8429,-482.746 40.846,-482.535"/>
</g>
<!-- Node21 -->
<g id="node21" class="node"><title>Node21</title>
<g id="a_node21"><a xlink:href="pgpkey_8h.html#a2bdd0471e577ef56ced7214b5ab6c328" target="_top" xlink:title="Implements CryptModuleSpecs::pgp_make_key_attachment() ">
<polygon fill="white" stroke="black" points="141.5,-162.367 141.5,-192.367 252.5,-192.367 252.5,-162.367 141.5,-162.367"/>
<text text-anchor="start" x="149.5" y="-180.367" font-family="Helvetica,sans-Serif" font-size="10.00">pgp_class_make_key</text>
<text text-anchor="middle" x="197" y="-169.367" font-family="Helvetica,sans-Serif" font-size="10.00">_attachment</text>
</a>
</g>
</g>
<!-- Node1&#45;&gt;Node21 -->
<g id="edge22" class="edge"><title>Node1&#45;&gt;Node21</title>
<path fill="none" stroke="midnightblue" d="M46.6066,-482.71C54.9406,-422.646 82.7126,-243.088 122,-201.367 127.37,-195.665 134.106,-191.314 141.312,-187.995"/>
<polygon fill="midnightblue" stroke="midnightblue" points="43.1186,-482.385 45.2395,-492.765 50.0548,-483.328 43.1186,-482.385"/>
</g>
<!-- Node22 -->
<g id="node22" class="node"><title>Node22</title>
<g id="a_node22"><a xlink:href="smime_8h.html#a7c447834a2bcda8aecc09a295778bbae" target="_top" xlink:title="Implements CryptModuleSpecs::smime_build_smime_entity() ">
<polygon fill="white" stroke="black" points="130,-113.367 130,-143.367 264,-143.367 264,-113.367 130,-113.367"/>
<text text-anchor="start" x="138" y="-131.367" font-family="Helvetica,sans-Serif" font-size="10.00">smime_class_build_smime</text>
<text text-anchor="middle" x="197" y="-120.367" font-family="Helvetica,sans-Serif" font-size="10.00">_entity</text>
</a>
</g>
</g>
<!-- Node1&#45;&gt;Node22 -->
<g id="edge23" class="edge"><title>Node1&#45;&gt;Node22</title>
<path fill="none" stroke="midnightblue" d="M45.8465,-482.614C52.437,-416.146 76.8507,-201.991 122,-152.367 125.09,-148.971 128.665,-146.053 132.541,-143.547"/>
<polygon fill="midnightblue" stroke="midnightblue" points="42.3591,-482.316 44.8811,-492.606 49.3266,-482.989 42.3591,-482.316"/>
</g>
<!-- Node23 -->
<g id="node23" class="node"><title>Node23</title>
<g id="a_node23"><a xlink:href="smime_8h.html#aab6734ab49c71e47278862ae0714cb96" target="_top" xlink:title="Implements CryptModuleSpecs::sign_message() ">
<polygon fill="white" stroke="black" points="125.5,-74.8675 125.5,-93.8675 268.5,-93.8675 268.5,-74.8675 125.5,-74.8675"/>
<text text-anchor="middle" x="197" y="-81.8675" font-family="Helvetica,sans-Serif" font-size="10.00">smime_class_sign_message</text>
</a>
</g>
</g>
<!-- Node1&#45;&gt;Node23 -->
<g id="edge24" class="edge"><title>Node1&#45;&gt;Node23</title>
<path fill="none" stroke="midnightblue" d="M45.1358,-482.623C49.7077,-410.055 69.1295,-159.412 122,-103.367 125.641,-99.5082 129.95,-96.391 134.631,-93.8784"/>
<polygon fill="midnightblue" stroke="midnightblue" points="41.6375,-482.49 44.5267,-492.684 48.6247,-482.913 41.6375,-482.49"/>
</g>
<!-- Node24 -->
<g id="node24" class="node"><title>Node24</title>
<g id="a_node24"><a xlink:href="sendlib_8h.html#ac3c97bd11a16a252a685410e35a39dda" target="_top" xlink:title="Create a file attachment. ">
<polygon fill="white" stroke="red" points="322,-739.867 322,-758.867 438,-758.867 438,-739.867 322,-739.867"/>
<text text-anchor="middle" x="380" y="-746.867" font-family="Helvetica,sans-Serif" font-size="10.00">mutt_make_file_attach</text>
</a>
</g>
</g>
<!-- Node1&#45;&gt;Node24 -->
<g id="edge27" class="edge"><title>Node1&#45;&gt;Node24</title>
<path fill="none" stroke="midnightblue" d="M44.3328,-482.311C46.0951,-403.916 56.9444,-119.84 122,-65.3675 173.115,-22.5686 221.348,-22.0227 272,-65.3675 379.988,-157.776 379.771,-663.211 379.112,-739.675"/>
<polygon fill="midnightblue" stroke="midnightblue" points="40.8259,-482.632 44.1272,-492.7 47.8245,-482.771 40.8259,-482.632"/>
</g>
<!-- Node25 -->
<g id="node25" class="node"><title>Node25</title>
<g id="a_node25"><a xlink:href="sendlib_8h.html#a336393521f79b3158f5da26385f20103" target="_top" xlink:title="Create a multipart email. ">
<polygon fill="white" stroke="black" points="326,-853.867 326,-872.867 434,-872.867 434,-853.867 326,-853.867"/>
<text text-anchor="middle" x="380" y="-860.867" font-family="Helvetica,sans-Serif" font-size="10.00">mutt_make_multipart</text>
</a>
</g>
</g>
<!-- Node1&#45;&gt;Node25 -->
<g id="edge30" class="edge"><title>Node1&#45;&gt;Node25</title>
<path fill="none" stroke="midnightblue" d="M45.096,-522.087C49.3928,-591.314 67.618,-821.43 122,-865.367 189.678,-920.048 303.368,-890.266 353.706,-872.968"/>
<polygon fill="midnightblue" stroke="midnightblue" points="48.5887,-521.857 44.5041,-512.082 41.6009,-522.271 48.5887,-521.857"/>
</g>
<!-- Node2&#45;&gt;Node3 -->
<g id="edge2" class="edge"><title>Node2&#45;&gt;Node3</title>
<path fill="none" stroke="midnightblue" d="M608.068,-796.253C616.922,-797.481 625.874,-798.722 634.331,-799.895"/>
<polygon fill="midnightblue" stroke="midnightblue" points="608.532,-792.784 598.146,-794.877 607.57,-799.717 608.532,-792.784"/>
</g>
<!-- Node3&#45;&gt;Node4 -->
<g id="edge3" class="edge"><title>Node3&#45;&gt;Node4</title>
<path fill="none" stroke="midnightblue" d="M718.137,-819.587C734.219,-825.638 752.599,-832.553 765.848,-837.538"/>
<polygon fill="midnightblue" stroke="midnightblue" points="719.079,-816.202 708.487,-815.957 716.614,-822.754 719.079,-816.202"/>
</g>
<!-- Node5&#45;&gt;Node6 -->
<g id="edge5" class="edge"><title>Node5&#45;&gt;Node6</title>
<path fill="none" stroke="midnightblue" d="M270.82,-825.367C283.209,-825.367 296.057,-825.367 308.387,-825.367"/>
<polygon fill="midnightblue" stroke="midnightblue" points="270.543,-821.868 260.543,-825.367 270.543,-828.868 270.543,-821.868"/>
</g>
<!-- Node6&#45;&gt;Node2 -->
<g id="edge6" class="edge"><title>Node6&#45;&gt;Node2</title>
<path fill="none" stroke="midnightblue" d="M431.402,-813.471C454.032,-808.13 480.37,-801.914 501.665,-796.888"/>
<polygon fill="midnightblue" stroke="midnightblue" points="430.556,-810.075 421.627,-815.778 432.164,-816.888 430.556,-810.075"/>
</g>
<!-- Node24&#45;&gt;Node2 -->
<g id="edge28" class="edge"><title>Node24&#45;&gt;Node2</title>
<path fill="none" stroke="midnightblue" d="M431.402,-761.264C454.032,-766.605 480.37,-772.821 501.665,-777.847"/>
<polygon fill="midnightblue" stroke="midnightblue" points="432.164,-757.847 421.627,-758.957 430.556,-764.66 432.164,-757.847"/>
</g>
<!-- Node24&#45;&gt;Node4 -->
<g id="edge29" class="edge"><title>Node24&#45;&gt;Node4</title>
<path fill="none" stroke="midnightblue" d="M448.105,-742.832C521.541,-738.713 640.698,-741.138 730,-787.367 751.548,-798.522 769.238,-821.722 778.017,-834.824"/>
<polygon fill="midnightblue" stroke="midnightblue" points="447.819,-739.343 438.054,-743.453 448.251,-746.33 447.819,-739.343"/>
</g>
<!-- Node25&#45;&gt;Node2 -->
<g id="edge31" class="edge"><title>Node25&#45;&gt;Node2</title>
<path fill="none" stroke="midnightblue" d="M438.742,-850.487C443.337,-848.693 447.815,-846.663 452,-844.367 471.03,-833.929 469.846,-823.264 488,-811.367 496.581,-805.744 506.698,-800.852 515.841,-796.978"/>
<polygon fill="midnightblue" stroke="midnightblue" points="437.47,-847.224 429.199,-853.845 439.793,-853.827 437.47,-847.224"/>
</g>
<!-- Node25&#45;&gt;Node3 -->
<g id="edge33" class="edge"><title>Node25&#45;&gt;Node3</title>
<path fill="none" stroke="midnightblue" d="M441.142,-851.941C497.972,-841.143 582.054,-825.167 634.085,-815.281"/>
<polygon fill="midnightblue" stroke="midnightblue" points="440.384,-848.522 431.213,-853.827 441.691,-855.399 440.384,-848.522"/>
</g>
<!-- Node25&#45;&gt;Node4 -->
<g id="edge32" class="edge"><title>Node25&#45;&gt;Node4</title>
<path fill="none" stroke="midnightblue" d="M444.339,-860.381C538.383,-855.947 709.866,-847.863 765.817,-845.225"/>
<polygon fill="midnightblue" stroke="midnightblue" points="443.924,-856.897 434.1,-860.864 444.253,-863.889 443.924,-856.897"/>
</g>
</g>
</svg>
