<?xml version="1.0" encoding="UTF-8" standalone="no"?>
<!DOCTYPE svg PUBLIC "-//W3C//DTD SVG 1.1//EN"
 "http://www.w3.org/Graphics/SVG/1.1/DTD/svg11.dtd">
<!-- Generated by graphviz version 2.36.0 (20140111.2315)
 -->
<!-- Title: mutt_body_free Pages: 1 -->
<svg width="466pt" height="62pt"
 viewBox="0.00 0.00 466.00 61.88" xmlns="http://www.w3.org/2000/svg" xmlns:xlink="http://www.w3.org/1999/xlink">
<g id="graph0" class="graph" transform="scale(1 1) rotate(0) translate(4 57.8847)">
<title>mutt_body_free</title>
<polygon fill="white" stroke="none" points="-4,4 -4,-57.8847 462,-57.8847 462,4 -4,4"/>
<!-- Node1 -->
<g id="node1" class="node"><title>Node1</title>
<polygon fill="#bfbfbf" stroke="black" points="0,-12.3304 0,-31.3304 84,-31.3304 84,-12.3304 0,-12.3304"/>
<text text-anchor="middle" x="42" y="-19.3304" font-family="Helvetica,sans-Serif" font-size="10.00">mutt_body_free</text>
</g>
<!-- Node2 -->
<g id="node2" class="node"><title>Node2</title>
<g id="a_node2"><a xlink:href="parameter_8c.html#a5f743f0c22ceda400f6192ec71ef55d5" target="_top" xlink:title="Free a ParameterList. ">
<polygon fill="white" stroke="red" points="368,-31.3304 368,-50.3304 458,-50.3304 458,-31.3304 368,-31.3304"/>
<text text-anchor="middle" x="413" y="-38.3304" font-family="Helvetica,sans-Serif" font-size="10.00">mutt_param_free</text>
</a>
</g>
</g>
<!-- Node1&#45;&gt;Node2 -->
<g id="edge1" class="edge"><title>Node1&#45;&gt;Node2</title>
<path fill="none" stroke="midnightblue" d="M76.4782,-31.4191C89.9027,-34.9145 105.582,-38.5619 120,-40.8304 213.161,-55.4882 237.841,-55.1102 332,-49.8304 340.234,-49.3687 348.923,-48.6416 357.419,-47.7961"/>
<polygon fill="midnightblue" stroke="midnightblue" points="358.067,-51.2473 367.644,-46.7159 357.331,-44.286 358.067,-51.2473"/>
</g>
<!-- Node3 -->
<g id="node3" class="node"><title>Node3</title>
<g id="a_node3"><a xlink:href="header_8c.html#a417d090ecf2e78b1cd86daeea31c9822" target="_top" xlink:title="Free an email Header. ">
<polygon fill="white" stroke="red" points="120,-12.3304 120,-31.3304 212,-31.3304 212,-12.3304 120,-12.3304"/>
<text text-anchor="middle" x="166" y="-19.3304" font-family="Helvetica,sans-Serif" font-size="10.00">mutt_header_free</text>
</a>
</g>
</g>
<!-- Node1&#45;&gt;Node3 -->
<g id="edge2" class="edge"><title>Node1&#45;&gt;Node3</title>
<path fill="none" stroke="midnightblue" d="M84.3036,-21.8304C92.5514,-21.8304 101.337,-21.8304 109.963,-21.8304"/>
<polygon fill="midnightblue" stroke="midnightblue" points="109.972,-25.3305 119.972,-21.8304 109.972,-18.3305 109.972,-25.3305"/>
</g>
<!-- Node4 -->
<g id="node4" class="node"><title>Node4</title>
<g id="a_node4"><a xlink:href="body_8c.html#a43826190bac1662a61f5b08d915ee000" target="_top" xlink:title="Free a Body. ">
<polygon fill="white" stroke="black" points="248,-3.3304 248,-22.3304 332,-22.3304 332,-3.3304 248,-3.3304"/>
<text text-anchor="middle" x="290" y="-10.3304" font-family="Helvetica,sans-Serif" font-size="10.00">mutt_body_free</text>
</a>
</g>
</g>
<!-- Node1&#45;&gt;Node4 -->
<g id="edge7" class="edge"><title>Node1&#45;&gt;Node4</title>
<path fill="none" stroke="midnightblue" d="M74.1499,-12.3248C88.0395,-8.56054 104.691,-4.69122 120,-2.8304 159.398,1.95856 204.253,-1.08671 237.847,-5.03402"/>
<polygon fill="midnightblue" stroke="midnightblue" points="237.538,-8.52241 247.893,-6.28033 238.4,-1.57566 237.538,-8.52241"/>
</g>
<!-- Node3&#45;&gt;Node4 -->
<g id="edge3" class="edge"><title>Node3&#45;&gt;Node4</title>
<path fill="none" stroke="midnightblue" d="M208.644,-12.3198C218.071,-11.3112 228.186,-10.488 237.951,-9.9268"/>
<polygon fill="midnightblue" stroke="midnightblue" points="238.139,-13.4219 247.957,-9.44007 237.798,-6.43016 238.139,-13.4219"/>
</g>
<!-- Node4&#45;&gt;Node2 -->
<g id="edge4" class="edge"><title>Node4&#45;&gt;Node2</title>
<path fill="none" stroke="midnightblue" d="M332.303,-22.3881C341.551,-24.5281 351.466,-26.8225 361.053,-29.041"/>
<polygon fill="midnightblue" stroke="midnightblue" points="360.352,-32.4711 370.883,-31.3158 361.93,-25.6513 360.352,-32.4711"/>
</g>
<!-- Node4&#45;&gt;Node3 -->
<g id="edge5" class="edge"><title>Node4&#45;&gt;Node3</title>
<path fill="none" stroke="midnightblue" d="M247.736,-22.3001C239.493,-23.1882 230.712,-23.9348 222.089,-24.4882"/>
<polygon fill="midnightblue" stroke="midnightblue" points="221.871,-20.9948 212.082,-25.0461 222.261,-27.984 221.871,-20.9948"/>
</g>
<!-- Node4&#45;&gt;Node4 -->
<g id="edge6" class="edge"><title>Node4&#45;&gt;Node4</title>
<path fill="none" stroke="midnightblue" d="M271.196,-22.5875C262.048,-31.3957 268.316,-40.8304 290,-40.8304 303.891,-40.8304 311.456,-36.9584 312.693,-31.8596"/>
<polygon fill="midnightblue" stroke="midnightblue" points="315.9,-30.455 308.804,-22.5875 309.445,-33.1629 315.9,-30.455"/>
</g>
</g>
</svg>
