<?xml version="1.0" encoding="UTF-8" standalone="no"?>
<!DOCTYPE svg PUBLIC "-//W3C//DTD SVG 1.1//EN"
 "http://www.w3.org/Graphics/SVG/1.1/DTD/svg11.dtd">
<!-- Generated by graphviz version 2.36.0 (20140111.2315)
 -->
<!-- Title: mutt_browser_select_dir Pages: 1 -->
<svg width="404pt" height="47pt"
 viewBox="0.00 0.00 404.00 47.00" xmlns="http://www.w3.org/2000/svg" xmlns:xlink="http://www.w3.org/1999/xlink">
<g id="graph0" class="graph" transform="scale(1 1) rotate(0) translate(4 43)">
<title>mutt_browser_select_dir</title>
<polygon fill="white" stroke="none" points="-4,4 -4,-43 400,-43 400,4 -4,4"/>
<!-- Node1 -->
<g id="node1" class="node"><title>Node1</title>
<polygon fill="#bfbfbf" stroke="black" points="0.5,-19.5 0.5,-38.5 123.5,-38.5 123.5,-19.5 0.5,-19.5"/>
<text text-anchor="middle" x="62" y="-26.5" font-family="Helvetica,sans-Serif" font-size="10.00">mutt_browser_select_dir</text>
</g>
<!-- Node2 -->
<g id="node2" class="node"><title>Node2</title>
<g id="a_node2"><a xlink:href="mutt_2string_8c.html#a3b8965b21d6e21536750f8883cd4333a" target="_top" xlink:title="Copy a string into a buffer (guaranteeing NUL&#45;termination) ">
<polygon fill="white" stroke="black" points="308,-19.5 308,-38.5 396,-38.5 396,-19.5 308,-19.5"/>
<text text-anchor="middle" x="352" y="-26.5" font-family="Helvetica,sans-Serif" font-size="10.00">mutt_str_strfcpy</text>
</a>
</g>
</g>
<!-- Node1&#45;&gt;Node2 -->
<g id="edge1" class="edge"><title>Node1&#45;&gt;Node2</title>
<path fill="none" stroke="midnightblue" d="M123.725,-29C175.186,-29 248.263,-29 297.54,-29"/>
<polygon fill="midnightblue" stroke="midnightblue" points="297.678,-32.5001 307.678,-29 297.678,-25.5001 297.678,-32.5001"/>
</g>
<!-- Node3 -->
<g id="node3" class="node"><title>Node3</title>
<g id="a_node3"><a xlink:href="muttlib_8c.html#a938f01fdb21d4f36497159bb03f505ba" target="_top" xlink:title="Find the parent of a path (or mailbox) ">
<polygon fill="white" stroke="red" points="160.5,-0.5 160.5,-19.5 271.5,-19.5 271.5,-0.5 160.5,-0.5"/>
<text text-anchor="middle" x="216" y="-7.5" font-family="Helvetica,sans-Serif" font-size="10.00">mutt_get_parent_path</text>
</a>
</g>
</g>
<!-- Node1&#45;&gt;Node3 -->
<g id="edge2" class="edge"><title>Node1&#45;&gt;Node3</title>
<path fill="none" stroke="midnightblue" d="M123.511,-21.4361C132.199,-20.3501 141.168,-19.2289 149.94,-18.1326"/>
<polygon fill="midnightblue" stroke="midnightblue" points="150.627,-21.5739 160.116,-16.8605 149.759,-14.6279 150.627,-21.5739"/>
</g>
<!-- Node3&#45;&gt;Node2 -->
<g id="edge3" class="edge"><title>Node3&#45;&gt;Node2</title>
<path fill="none" stroke="midnightblue" d="M271.503,-17.728C280.148,-18.9538 289.081,-20.2205 297.698,-21.4423"/>
<polygon fill="midnightblue" stroke="midnightblue" points="297.24,-24.9123 307.633,-22.8509 298.223,-17.9816 297.24,-24.9123"/>
</g>
</g>
</svg>
