<?xml version="1.0" encoding="UTF-8" standalone="no"?>
<!DOCTYPE svg PUBLIC "-//W3C//DTD SVG 1.1//EN"
 "http://www.w3.org/Graphics/SVG/1.1/DTD/svg11.dtd">
<!-- Generated by graphviz version 2.36.0 (20140111.2315)
 -->
<!-- Title: browser_highlight_default Pages: 1 -->
<svg width="354pt" height="47pt"
 viewBox="0.00 0.00 354.00 47.00" xmlns="http://www.w3.org/2000/svg" xmlns:xlink="http://www.w3.org/1999/xlink">
<g id="graph0" class="graph" transform="scale(1 1) rotate(0) translate(4 43)">
<title>browser_highlight_default</title>
<polygon fill="white" stroke="none" points="-4,4 -4,-43 350,-43 350,4 -4,4"/>
<!-- Node1 -->
<g id="node1" class="node"><title>Node1</title>
<polygon fill="#bfbfbf" stroke="black" points="0.5,-0.5 0.5,-19.5 127.5,-19.5 127.5,-0.5 0.5,-0.5"/>
<text text-anchor="middle" x="64" y="-7.5" font-family="Helvetica,sans-Serif" font-size="10.00">browser_highlight_default</text>
</g>
<!-- Node2 -->
<g id="node2" class="node"><title>Node2</title>
<g id="a_node2"><a xlink:href="browser_8c.html#a9c2f420fab462b5dc0f7cf74824b802b" target="_top" xlink:title="Set up a new menu. ">
<polygon fill="white" stroke="black" points="164.5,-19.5 164.5,-38.5 223.5,-38.5 223.5,-19.5 164.5,-19.5"/>
<text text-anchor="middle" x="194" y="-26.5" font-family="Helvetica,sans-Serif" font-size="10.00">init_menu</text>
</a>
</g>
</g>
<!-- Node1&#45;&gt;Node2 -->
<g id="edge1" class="edge"><title>Node1&#45;&gt;Node2</title>
<path fill="none" stroke="midnightblue" d="M137.493,-20.7607C147.028,-22.1761 156.307,-23.5534 164.463,-24.7641"/>
<polygon fill="midnightblue" stroke="midnightblue" points="137.906,-17.2837 127.5,-19.2774 136.878,-24.2078 137.906,-17.2837"/>
</g>
<!-- Node3 -->
<g id="node3" class="node"><title>Node3</title>
<g id="a_node3"><a xlink:href="browser_8h.html#ab036990112b8014c0b84c401e77f96d3" target="_top" xlink:title="Let the user select a file. ">
<polygon fill="white" stroke="red" points="260,-0.5 260,-19.5 346,-19.5 346,-0.5 260,-0.5"/>
<text text-anchor="middle" x="303" y="-7.5" font-family="Helvetica,sans-Serif" font-size="10.00">mutt_select_file</text>
</a>
</g>
</g>
<!-- Node1&#45;&gt;Node3 -->
<g id="edge3" class="edge"><title>Node1&#45;&gt;Node3</title>
<path fill="none" stroke="midnightblue" d="M137.81,-10C177.757,-10 225.884,-10 259.672,-10"/>
<polygon fill="midnightblue" stroke="midnightblue" points="137.579,-6.5001 127.579,-10 137.579,-13.5001 137.579,-6.5001"/>
</g>
<!-- Node2&#45;&gt;Node3 -->
<g id="edge2" class="edge"><title>Node2&#45;&gt;Node3</title>
<path fill="none" stroke="midnightblue" d="M233.735,-22.1218C242.257,-20.6086 251.32,-18.9992 259.965,-17.4641"/>
<polygon fill="midnightblue" stroke="midnightblue" points="232.908,-18.7138 223.674,-23.9083 234.132,-25.606 232.908,-18.7138"/>
</g>
</g>
</svg>
