<?xml version="1.0" encoding="UTF-8" standalone="no"?>
<!DOCTYPE svg PUBLIC "-//W3C//DTD SVG 1.1//EN"
 "http://www.w3.org/Graphics/SVG/1.1/DTD/svg11.dtd">
<!-- Generated by graphviz version 2.36.0 (20140111.2315)
 -->
<!-- Title: browse_add_list_result Pages: 1 -->
<svg width="504pt" height="138pt"
 viewBox="0.00 0.00 504.00 137.75" xmlns="http://www.w3.org/2000/svg" xmlns:xlink="http://www.w3.org/1999/xlink">
<g id="graph0" class="graph" transform="scale(1 1) rotate(0) translate(4 133.747)">
<title>browse_add_list_result</title>
<polygon fill="white" stroke="none" points="-4,4 -4,-133.747 500,-133.747 500,4 -4,4"/>
<!-- Node1 -->
<g id="node1" class="node"><title>Node1</title>
<polygon fill="#bfbfbf" stroke="black" points="0,-76.5 0,-95.5 116,-95.5 116,-76.5 0,-76.5"/>
<text text-anchor="middle" x="58" y="-83.5" font-family="Helvetica,sans-Serif" font-size="10.00">browse_add_list_result</text>
</g>
<!-- Node2 -->
<g id="node2" class="node"><title>Node2</title>
<g id="a_node2"><a xlink:href="imap_8h.html#aebbdfebd6d7aff8e41739a4a8f7f74b4" target="_top" xlink:title="Parse an IMAP mailbox name into name,host,port. ">
<polygon fill="white" stroke="red" points="274.5,-76.5 274.5,-95.5 365.5,-95.5 365.5,-76.5 274.5,-76.5"/>
<text text-anchor="middle" x="320" y="-83.5" font-family="Helvetica,sans-Serif" font-size="10.00">imap_parse_path</text>
</a>
</g>
</g>
<!-- Node1&#45;&gt;Node2 -->
<g id="edge1" class="edge"><title>Node1&#45;&gt;Node2</title>
<path fill="none" stroke="midnightblue" d="M96.7426,-95.5096C113.541,-99.2746 133.637,-103.143 152,-105 190.028,-108.845 200.031,-109.394 238,-105 250.555,-103.547 263.99,-100.868 276.237,-97.9702"/>
<polygon fill="midnightblue" stroke="midnightblue" points="277.332,-101.305 286.2,-95.5069 275.652,-94.5095 277.332,-101.305"/>
</g>
<!-- Node3 -->
<g id="node3" class="node"><title>Node3</title>
<g id="a_node3"><a xlink:href="mutt_2string_8c.html#a0f37dc8085c127cb48df9b47a21236a6" target="_top" xlink:title="Compare two strings (to a maximum), safely. ">
<polygon fill="white" stroke="black" points="402.5,-57.5 402.5,-76.5 495.5,-76.5 495.5,-57.5 402.5,-57.5"/>
<text text-anchor="middle" x="449" y="-64.5" font-family="Helvetica,sans-Serif" font-size="10.00">mutt_str_strncmp</text>
</a>
</g>
</g>
<!-- Node1&#45;&gt;Node3 -->
<g id="edge6" class="edge"><title>Node1&#45;&gt;Node3</title>
<path fill="none" stroke="midnightblue" d="M78.7531,-95.5314C97.2035,-103.87 125.762,-115.354 152,-120 245.884,-136.624 274.246,-130.918 366,-105 385.632,-99.4545 406.473,-89.7402 422.232,-81.522"/>
<polygon fill="midnightblue" stroke="midnightblue" points="424.168,-84.4556 431.331,-76.649 420.863,-78.2848 424.168,-84.4556"/>
</g>
<!-- Node4 -->
<g id="node4" class="node"><title>Node4</title>
<g id="a_node4"><a xlink:href="imap_2command_8c.html#a344a4084935a9df8fcf443e83422fcf7" target="_top" xlink:title="Given an IMAP command, send it to the server. ">
<polygon fill="white" stroke="red" points="152,-76.5 152,-95.5 238,-95.5 238,-76.5 152,-76.5"/>
<text text-anchor="middle" x="195" y="-83.5" font-family="Helvetica,sans-Serif" font-size="10.00">imap_cmd_start</text>
</a>
</g>
</g>
<!-- Node1&#45;&gt;Node4 -->
<g id="edge3" class="edge"><title>Node1&#45;&gt;Node4</title>
<path fill="none" stroke="midnightblue" d="M116.252,-86C124.733,-86 133.435,-86 141.806,-86"/>
<polygon fill="midnightblue" stroke="midnightblue" points="141.815,-89.5001 151.814,-86 141.814,-82.5001 141.815,-89.5001"/>
</g>
<!-- Node5 -->
<g id="node5" class="node"><title>Node5</title>
<g id="a_node5"><a xlink:href="imap_2command_8c.html#a4acab39c86f77ee378015e5013af0a0f" target="_top" xlink:title="Reads server responses from an IMAP command. ">
<polygon fill="white" stroke="red" points="277,-0.5 277,-19.5 363,-19.5 363,-0.5 277,-0.5"/>
<text text-anchor="middle" x="320" y="-7.5" font-family="Helvetica,sans-Serif" font-size="10.00">imap_cmd_step</text>
</a>
</g>
</g>
<!-- Node1&#45;&gt;Node5 -->
<g id="edge4" class="edge"><title>Node1&#45;&gt;Node5</title>
<path fill="none" stroke="midnightblue" d="M70.7632,-76.4058C87.6162,-63.2438 120.128,-39.9729 152,-29 189.006,-16.2596 233.076,-11.6538 266.651,-10.1559"/>
<polygon fill="midnightblue" stroke="midnightblue" points="266.85,-13.6511 276.714,-9.78528 266.592,-6.6558 266.85,-13.6511"/>
</g>
<!-- Node6 -->
<g id="node6" class="node"><title>Node6</title>
<g id="a_node6"><a xlink:href="browse_8c.html#aa8f4671fc317a9d9c49a6c0fae13321e" target="_top" xlink:title="Format and add an IMAP folder to the browser. ">
<polygon fill="white" stroke="red" points="164,-38.5 164,-57.5 226,-57.5 226,-38.5 164,-38.5"/>
<text text-anchor="middle" x="195" y="-45.5" font-family="Helvetica,sans-Serif" font-size="10.00">add_folder</text>
</a>
</g>
</g>
<!-- Node1&#45;&gt;Node6 -->
<g id="edge7" class="edge"><title>Node1&#45;&gt;Node6</title>
<path fill="none" stroke="midnightblue" d="M93.0662,-76.411C111.558,-71.206 134.528,-64.7404 153.881,-59.2926"/>
<polygon fill="midnightblue" stroke="midnightblue" points="154.952,-62.6273 163.63,-56.5487 153.055,-55.8892 154.952,-62.6273"/>
</g>
<!-- Node2&#45;&gt;Node3 -->
<g id="edge2" class="edge"><title>Node2&#45;&gt;Node3</title>
<path fill="none" stroke="midnightblue" d="M365.775,-79.3013C374.389,-78.0127 383.507,-76.6486 392.414,-75.3161"/>
<polygon fill="midnightblue" stroke="midnightblue" points="392.97,-78.7719 402.342,-73.8307 391.934,-71.8489 392.97,-78.7719"/>
</g>
<!-- Node5&#45;&gt;Node3 -->
<g id="edge5" class="edge"><title>Node5&#45;&gt;Node3</title>
<path fill="none" stroke="midnightblue" d="M342.257,-19.5405C362.77,-28.7472 394.047,-42.7847 417.269,-53.2074"/>
<polygon fill="midnightblue" stroke="midnightblue" points="416.117,-56.5268 426.674,-57.4284 418.984,-50.1405 416.117,-56.5268"/>
</g>
<!-- Node6&#45;&gt;Node2 -->
<g id="edge8" class="edge"><title>Node6&#45;&gt;Node2</title>
<path fill="none" stroke="midnightblue" d="M226.089,-57.2958C241.785,-62.1449 261.211,-68.1466 278.237,-73.4065"/>
<polygon fill="midnightblue" stroke="midnightblue" points="277.35,-76.7955 287.937,-76.4033 279.416,-70.1074 277.35,-76.7955"/>
</g>
<!-- Node6&#45;&gt;Node3 -->
<g id="edge9" class="edge"><title>Node6&#45;&gt;Node3</title>
<path fill="none" stroke="midnightblue" d="M226.397,-50.2918C267.302,-53.3759 340.818,-58.9188 391.904,-62.7705"/>
<polygon fill="midnightblue" stroke="midnightblue" points="391.89,-66.2793 402.125,-63.5412 392.416,-59.2991 391.89,-66.2793"/>
</g>
</g>
</svg>
