<?xml version="1.0" encoding="UTF-8" standalone="no"?>
<!DOCTYPE svg PUBLIC "-//W3C//DTD SVG 1.1//EN"
 "http://www.w3.org/Graphics/SVG/1.1/DTD/svg11.dtd">
<!-- Generated by graphviz version 2.36.0 (20140111.2315)
 -->
<!-- Title: examine_mailboxes Pages: 1 -->
<svg width="256pt" height="408pt"
 viewBox="0.00 0.00 256.00 408.00" xmlns="http://www.w3.org/2000/svg" xmlns:xlink="http://www.w3.org/1999/xlink">
<g id="graph0" class="graph" transform="scale(1 1) rotate(0) translate(4 404)">
<title>examine_mailboxes</title>
<polygon fill="white" stroke="none" points="-4,4 -4,-404 252,-404 252,4 -4,4"/>
<!-- Node1 -->
<g id="node1" class="node"><title>Node1</title>
<polygon fill="#bfbfbf" stroke="black" points="0.5,-190.5 0.5,-209.5 103.5,-209.5 103.5,-190.5 0.5,-190.5"/>
<text text-anchor="middle" x="52" y="-197.5" font-family="Helvetica,sans-Serif" font-size="10.00">examine_mailboxes</text>
</g>
<!-- Node2 -->
<g id="node2" class="node"><title>Node2</title>
<g id="a_node2"><a xlink:href="browser_8c.html#a40a157ecde1135a2ddde0a85c0e07150" target="_top" xlink:title="Initilise a browser state. ">
<polygon fill="white" stroke="red" points="166,-380.5 166,-399.5 222,-399.5 222,-380.5 166,-380.5"/>
<text text-anchor="middle" x="194" y="-387.5" font-family="Helvetica,sans-Serif" font-size="10.00">init_state</text>
</a>
</g>
</g>
<!-- Node1&#45;&gt;Node2 -->
<g id="edge1" class="edge"><title>Node1&#45;&gt;Node2</title>
<path fill="none" stroke="midnightblue" d="M55.231,-209.687C62.3574,-238.5 87.2632,-324.542 140,-371 144.652,-375.098 150.252,-378.332 156.044,-380.878"/>
<polygon fill="midnightblue" stroke="midnightblue" points="155.249,-384.317 165.841,-384.544 157.703,-377.761 155.249,-384.317"/>
</g>
<!-- Node3 -->
<g id="node3" class="node"><title>Node3</title>
<g id="a_node3"><a xlink:href="browser_8c.html#a38da41993f50fa8470f354fe5544bfb5" target="_top" xlink:title="Add a folder to the browser list. ">
<polygon fill="white" stroke="red" points="163,-342.5 163,-361.5 225,-361.5 225,-342.5 163,-342.5"/>
<text text-anchor="middle" x="194" y="-349.5" font-family="Helvetica,sans-Serif" font-size="10.00">add_folder</text>
</a>
</g>
</g>
<!-- Node1&#45;&gt;Node3 -->
<g id="edge2" class="edge"><title>Node1&#45;&gt;Node3</title>
<path fill="none" stroke="midnightblue" d="M56.6952,-209.562C66.5166,-233.756 95.5901,-297.97 140,-333 144.069,-336.209 148.725,-338.904 153.552,-341.16"/>
<polygon fill="midnightblue" stroke="midnightblue" points="152.351,-344.45 162.933,-344.977 154.989,-337.966 152.351,-344.45"/>
</g>
<!-- Node4 -->
<g id="node4" class="node"><title>Node4</title>
<g id="a_node4"><a xlink:href="mailbox_8c.html#af6594b402b62d55a063bee915d458738" target="_top" xlink:title="Check all AllMailboxes for new mail. ">
<polygon fill="white" stroke="red" points="140.5,-304.5 140.5,-323.5 247.5,-323.5 247.5,-304.5 140.5,-304.5"/>
<text text-anchor="middle" x="194" y="-311.5" font-family="Helvetica,sans-Serif" font-size="10.00">mutt_mailbox_check</text>
</a>
</g>
</g>
<!-- Node1&#45;&gt;Node4 -->
<g id="edge3" class="edge"><title>Node1&#45;&gt;Node4</title>
<path fill="none" stroke="midnightblue" d="M59.4797,-209.791C72.5375,-228.808 103.871,-270.978 140,-295 142.938,-296.953 146.101,-298.734 149.367,-300.351"/>
<polygon fill="midnightblue" stroke="midnightblue" points="148.182,-303.653 158.745,-304.485 151.006,-297.248 148.182,-303.653"/>
</g>
<!-- Node5 -->
<g id="node5" class="node"><title>Node5</title>
<g id="a_node5"><a xlink:href="mutt_2string_8c.html#ab4aaf8bd2ce3982651f0f949d6c665e2" target="_top" xlink:title="Compare two strings, safely. ">
<polygon fill="white" stroke="black" points="150,-266.5 150,-285.5 238,-285.5 238,-266.5 150,-266.5"/>
<text text-anchor="middle" x="194" y="-273.5" font-family="Helvetica,sans-Serif" font-size="10.00">mutt_str_strcmp</text>
</a>
</g>
</g>
<!-- Node1&#45;&gt;Node5 -->
<g id="edge4" class="edge"><title>Node1&#45;&gt;Node5</title>
<path fill="none" stroke="midnightblue" d="M65.6876,-209.698C82.1369,-221.938 112.038,-243.072 140,-257 144.097,-259.041 148.469,-260.971 152.878,-262.762"/>
<polygon fill="midnightblue" stroke="midnightblue" points="151.906,-266.138 162.496,-266.451 154.413,-259.602 151.906,-266.138"/>
</g>
<!-- Node6 -->
<g id="node6" class="node"><title>Node6</title>
<g id="a_node6"><a xlink:href="mutt_2string_8c.html#a3b8965b21d6e21536750f8883cd4333a" target="_top" xlink:title="Copy a string into a buffer (guaranteeing NUL&#45;termination) ">
<polygon fill="white" stroke="black" points="150,-228.5 150,-247.5 238,-247.5 238,-228.5 150,-228.5"/>
<text text-anchor="middle" x="194" y="-235.5" font-family="Helvetica,sans-Serif" font-size="10.00">mutt_str_strfcpy</text>
</a>
</g>
</g>
<!-- Node1&#45;&gt;Node6 -->
<g id="edge5" class="edge"><title>Node1&#45;&gt;Node6</title>
<path fill="none" stroke="midnightblue" d="M88.3279,-209.589C106.401,-214.494 128.598,-220.52 147.895,-225.757"/>
<polygon fill="midnightblue" stroke="midnightblue" points="147.116,-229.172 157.683,-228.414 148.949,-222.417 147.116,-229.172"/>
</g>
<!-- Node7 -->
<g id="node7" class="node"><title>Node7</title>
<g id="a_node7"><a xlink:href="dump_8c.html#abfd32209fdb0af78b7c00c3917440d1b" target="_top" xlink:title="Shorten a mailbox path using &#39;~&#39; or &#39;=&#39;. ">
<polygon fill="white" stroke="black" points="141.5,-190.5 141.5,-209.5 246.5,-209.5 246.5,-190.5 141.5,-190.5"/>
<text text-anchor="middle" x="194" y="-197.5" font-family="Helvetica,sans-Serif" font-size="10.00">mutt_pretty_mailbox</text>
</a>
</g>
</g>
<!-- Node1&#45;&gt;Node7 -->
<g id="edge6" class="edge"><title>Node1&#45;&gt;Node7</title>
<path fill="none" stroke="midnightblue" d="M103.543,-200C112.421,-200 121.752,-200 130.9,-200"/>
<polygon fill="midnightblue" stroke="midnightblue" points="131.118,-203.5 141.118,-200 131.118,-196.5 131.118,-203.5"/>
</g>
<!-- Node8 -->
<g id="node8" class="node"><title>Node8</title>
<g id="a_node8"><a xlink:href="mx_8c.html#a7cee0fd7066e1a6d816fa9bd6e3a7978" target="_top" xlink:title="Is this an IMAP mailbox. ">
<polygon fill="white" stroke="red" points="159.5,-152.5 159.5,-171.5 228.5,-171.5 228.5,-152.5 159.5,-152.5"/>
<text text-anchor="middle" x="194" y="-159.5" font-family="Helvetica,sans-Serif" font-size="10.00">mx_is_imap</text>
</a>
</g>
</g>
<!-- Node1&#45;&gt;Node8 -->
<g id="edge7" class="edge"><title>Node1&#45;&gt;Node8</title>
<path fill="none" stroke="midnightblue" d="M88.3279,-190.411C106.814,-185.393 129.617,-179.204 149.216,-173.884"/>
<polygon fill="midnightblue" stroke="midnightblue" points="150.398,-177.19 159.132,-171.193 148.565,-170.434 150.398,-177.19"/>
</g>
<!-- Node9 -->
<g id="node9" class="node"><title>Node9</title>
<g id="a_node9"><a xlink:href="mx_8c.html#aa06a82b8fbf0e8499b26ddfe8e771ba4" target="_top" xlink:title="Is this a POP mailbox. ">
<polygon fill="white" stroke="red" points="162,-114.5 162,-133.5 226,-133.5 226,-114.5 162,-114.5"/>
<text text-anchor="middle" x="194" y="-121.5" font-family="Helvetica,sans-Serif" font-size="10.00">mx_is_pop</text>
</a>
</g>
</g>
<!-- Node1&#45;&gt;Node9 -->
<g id="edge8" class="edge"><title>Node1&#45;&gt;Node9</title>
<path fill="none" stroke="midnightblue" d="M65.6876,-190.302C82.1369,-178.062 112.038,-156.928 140,-143 144.097,-140.959 148.469,-139.029 152.878,-137.238"/>
<polygon fill="midnightblue" stroke="midnightblue" points="154.413,-140.398 162.496,-133.549 151.906,-133.862 154.413,-140.398"/>
</g>
<!-- Node10 -->
<g id="node10" class="node"><title>Node10</title>
<g id="a_node10"><a xlink:href="mx_8c.html#af84c07a51fe6f8b1969b8e513622483c" target="_top" xlink:title="Is this an NNTP mailbox. ">
<polygon fill="white" stroke="red" points="160.5,-76.5 160.5,-95.5 227.5,-95.5 227.5,-76.5 160.5,-76.5"/>
<text text-anchor="middle" x="194" y="-83.5" font-family="Helvetica,sans-Serif" font-size="10.00">mx_is_nntp</text>
</a>
</g>
</g>
<!-- Node1&#45;&gt;Node10 -->
<g id="edge9" class="edge"><title>Node1&#45;&gt;Node10</title>
<path fill="none" stroke="midnightblue" d="M59.4797,-190.209C72.5375,-171.192 103.871,-129.022 140,-105 143.48,-102.686 147.275,-100.616 151.184,-98.7711"/>
<polygon fill="midnightblue" stroke="midnightblue" points="152.566,-101.987 160.415,-94.8701 149.841,-95.5389 152.566,-101.987"/>
</g>
<!-- Node11 -->
<g id="node11" class="node"><title>Node11</title>
<g id="a_node11"><a xlink:href="maildir_8h.html#a16b973b1ddabe2b538bdb109f8f4f880" target="_top" xlink:title="Is this a Maildir folder? ">
<polygon fill="white" stroke="black" points="155.5,-38.5 155.5,-57.5 232.5,-57.5 232.5,-38.5 155.5,-38.5"/>
<text text-anchor="middle" x="194" y="-45.5" font-family="Helvetica,sans-Serif" font-size="10.00">mx_is_maildir</text>
</a>
</g>
</g>
<!-- Node1&#45;&gt;Node11 -->
<g id="edge10" class="edge"><title>Node1&#45;&gt;Node11</title>
<path fill="none" stroke="midnightblue" d="M56.6952,-190.438C66.5166,-166.244 95.5901,-102.03 140,-67 142.266,-65.2123 144.715,-63.5842 147.274,-62.1026"/>
<polygon fill="midnightblue" stroke="midnightblue" points="148.902,-65.2019 156.294,-57.6113 145.782,-58.9357 148.902,-65.2019"/>
</g>
<!-- Node12 -->
<g id="node12" class="node"><title>Node12</title>
<g id="a_node12"><a xlink:href="browser_8c.html#a817b5b600b59e87c2fc7d559077b26ed" target="_top" xlink:title="Sort the entries in the browser. ">
<polygon fill="white" stroke="red" points="157.5,-0.5 157.5,-19.5 230.5,-19.5 230.5,-0.5 157.5,-0.5"/>
<text text-anchor="middle" x="194" y="-7.5" font-family="Helvetica,sans-Serif" font-size="10.00">browser_sort</text>
</a>
</g>
</g>
<!-- Node1&#45;&gt;Node12 -->
<g id="edge11" class="edge"><title>Node1&#45;&gt;Node12</title>
<path fill="none" stroke="midnightblue" d="M55.231,-190.313C62.3574,-161.5 87.2632,-75.4582 140,-29 142.494,-26.8031 145.26,-24.8546 148.182,-23.1273"/>
<polygon fill="midnightblue" stroke="midnightblue" points="149.913,-26.1754 157.301,-18.5817 146.79,-19.9106 149.913,-26.1754"/>
</g>
</g>
</svg>
