<?xml version="1.0" encoding="UTF-8" standalone="no"?>
<!DOCTYPE svg PUBLIC "-//W3C//DTD SVG 1.1//EN"
 "http://www.w3.org/Graphics/SVG/1.1/DTD/svg11.dtd">
<!-- Generated by graphviz version 2.36.0 (20140111.2315)
 -->
<!-- Title: imap_mailbox_rename Pages: 1 -->
<svg width="396pt" height="294pt"
 viewBox="0.00 0.00 396.00 294.00" xmlns="http://www.w3.org/2000/svg" xmlns:xlink="http://www.w3.org/1999/xlink">
<g id="graph0" class="graph" transform="scale(1 1) rotate(0) translate(4 290)">
<title>imap_mailbox_rename</title>
<polygon fill="white" stroke="none" points="-4,4 -4,-290 392,-290 392,4 -4,4"/>
<!-- Node1 -->
<g id="node1" class="node"><title>Node1</title>
<polygon fill="#bfbfbf" stroke="black" points="0,-133.5 0,-152.5 114,-152.5 114,-133.5 0,-133.5"/>
<text text-anchor="middle" x="57" y="-140.5" font-family="Helvetica,sans-Serif" font-size="10.00">imap_mailbox_rename</text>
</g>
<!-- Node2 -->
<g id="node2" class="node"><title>Node2</title>
<g id="a_node2"><a xlink:href="imap_8h.html#aebbdfebd6d7aff8e41739a4a8f7f74b4" target="_top" xlink:title="Parse an IMAP mailbox name into name,host,port. ">
<polygon fill="white" stroke="red" points="161.5,-266.5 161.5,-285.5 252.5,-285.5 252.5,-266.5 161.5,-266.5"/>
<text text-anchor="middle" x="207" y="-273.5" font-family="Helvetica,sans-Serif" font-size="10.00">imap_parse_path</text>
</a>
</g>
</g>
<!-- Node1&#45;&gt;Node2 -->
<g id="edge1" class="edge"><title>Node1&#45;&gt;Node2</title>
<path fill="none" stroke="midnightblue" d="M63.9593,-152.757C77.1094,-173.575 110.594,-222.824 150,-252 155.244,-255.883 161.212,-259.288 167.252,-262.22"/>
<polygon fill="midnightblue" stroke="midnightblue" points="166.148,-265.56 176.706,-266.439 169,-259.168 166.148,-265.56"/>
</g>
<!-- Node3 -->
<g id="node3" class="node"><title>Node3</title>
<g id="a_node3"><a xlink:href="mutt_2string_8c.html#a3b8965b21d6e21536750f8883cd4333a" target="_top" xlink:title="Copy a string into a buffer (guaranteeing NUL&#45;termination) ">
<polygon fill="white" stroke="black" points="300,-247.5 300,-266.5 388,-266.5 388,-247.5 300,-247.5"/>
<text text-anchor="middle" x="344" y="-254.5" font-family="Helvetica,sans-Serif" font-size="10.00">mutt_str_strfcpy</text>
</a>
</g>
</g>
<!-- Node1&#45;&gt;Node3 -->
<g id="edge4" class="edge"><title>Node1&#45;&gt;Node3</title>
<path fill="none" stroke="midnightblue" d="M66.5747,-152.709C81.6847,-169.154 114.802,-202.325 150,-219 194.29,-239.982 249.573,-249.381 289.607,-253.59"/>
<polygon fill="midnightblue" stroke="midnightblue" points="289.405,-257.087 299.698,-254.576 290.086,-250.12 289.405,-257.087"/>
</g>
<!-- Node4 -->
<g id="node4" class="node"><title>Node4</title>
<g id="a_node4"><a xlink:href="imap_8c.html#a6710cdbfe7ff868fb47f3e6164878856" target="_top" xlink:title="Find an open IMAP connection. ">
<polygon fill="white" stroke="red" points="164.5,-190.5 164.5,-209.5 249.5,-209.5 249.5,-190.5 164.5,-190.5"/>
<text text-anchor="middle" x="207" y="-197.5" font-family="Helvetica,sans-Serif" font-size="10.00">imap_conn_find</text>
</a>
</g>
</g>
<!-- Node1&#45;&gt;Node4 -->
<g id="edge3" class="edge"><title>Node1&#45;&gt;Node4</title>
<path fill="none" stroke="midnightblue" d="M80.1487,-152.62C98.6849,-160.557 125.896,-171.944 150,-181 155.541,-183.082 161.427,-185.19 167.221,-187.206"/>
<polygon fill="midnightblue" stroke="midnightblue" points="166.214,-190.561 176.808,-190.493 168.484,-183.939 166.214,-190.561"/>
</g>
<!-- Node5 -->
<g id="node5" class="node"><title>Node5</title>
<g id="a_node5"><a xlink:href="mutt_2string_8c.html#aca11f88d08a860c07419df3efb18f35a" target="_top" xlink:title="Calculate the length of a string, safely. ">
<polygon fill="white" stroke="black" points="166,-152.5 166,-171.5 248,-171.5 248,-152.5 166,-152.5"/>
<text text-anchor="middle" x="207" y="-159.5" font-family="Helvetica,sans-Serif" font-size="10.00">mutt_str_strlen</text>
</a>
</g>
</g>
<!-- Node1&#45;&gt;Node5 -->
<g id="edge5" class="edge"><title>Node1&#45;&gt;Node5</title>
<path fill="none" stroke="midnightblue" d="M114.375,-150.237C128.045,-151.992 142.567,-153.857 155.924,-155.571"/>
<polygon fill="midnightblue" stroke="midnightblue" points="155.513,-159.047 165.877,-156.849 156.405,-152.104 155.513,-159.047"/>
</g>
<!-- Node6 -->
<g id="node6" class="node"><title>Node6</title>
<g id="a_node6"><a xlink:href="imap__private_8h.html#a0ad581214978f22f29cf3f818c7428ac" target="_top" xlink:title="Fix up the imap path. ">
<polygon fill="white" stroke="black" points="168.5,-114.5 168.5,-133.5 245.5,-133.5 245.5,-114.5 168.5,-114.5"/>
<text text-anchor="middle" x="207" y="-121.5" font-family="Helvetica,sans-Serif" font-size="10.00">imap_fix_path</text>
</a>
</g>
</g>
<!-- Node1&#45;&gt;Node6 -->
<g id="edge6" class="edge"><title>Node1&#45;&gt;Node6</title>
<path fill="none" stroke="midnightblue" d="M114.375,-135.763C128.696,-133.924 143.952,-131.966 157.824,-130.185"/>
<polygon fill="midnightblue" stroke="midnightblue" points="158.651,-133.607 168.124,-128.863 157.759,-126.664 158.651,-133.607"/>
</g>
<!-- Node7 -->
<g id="node7" class="node"><title>Node7</title>
<g id="a_node7"><a xlink:href="imap_8c.html#a51f640cbd9d4bb5836219952b9b792ee" target="_top" xlink:title="Rename a mailbox. ">
<polygon fill="white" stroke="red" points="150,-76.5 150,-95.5 264,-95.5 264,-76.5 150,-76.5"/>
<text text-anchor="middle" x="207" y="-83.5" font-family="Helvetica,sans-Serif" font-size="10.00">imap_rename_mailbox</text>
</a>
</g>
</g>
<!-- Node1&#45;&gt;Node7 -->
<g id="edge7" class="edge"><title>Node1&#45;&gt;Node7</title>
<path fill="none" stroke="midnightblue" d="M80.1487,-133.38C98.6849,-125.443 125.896,-114.056 150,-105 155.541,-102.918 161.427,-100.81 167.221,-98.7937"/>
<polygon fill="midnightblue" stroke="midnightblue" points="168.484,-102.061 176.808,-95.5069 166.214,-95.4391 168.484,-102.061"/>
</g>
<!-- Node8 -->
<g id="node8" class="node"><title>Node8</title>
<g id="a_node8"><a xlink:href="imap__private_8h.html#ade12f477bcb371557bb305b920236e16" target="_top" xlink:title="Get the qualifier from a tagged response. ">
<polygon fill="white" stroke="red" points="159.5,-38.5 159.5,-57.5 254.5,-57.5 254.5,-38.5 159.5,-38.5"/>
<text text-anchor="middle" x="207" y="-45.5" font-family="Helvetica,sans-Serif" font-size="10.00">imap_get_qualifier</text>
</a>
</g>
</g>
<!-- Node1&#45;&gt;Node8 -->
<g id="edge8" class="edge"><title>Node1&#45;&gt;Node8</title>
<path fill="none" stroke="midnightblue" d="M67.3256,-133.271C83.0296,-117.385 116.346,-85.7702 150,-67 153.732,-64.9184 157.731,-63.0114 161.812,-61.2772"/>
<polygon fill="midnightblue" stroke="midnightblue" points="163.346,-64.4357 171.393,-57.5438 160.805,-57.9133 163.346,-64.4357"/>
</g>
<!-- Node9 -->
<g id="node9" class="node"><title>Node9</title>
<g id="a_node9"><a xlink:href="muttlib_8c.html#a6fbcbe533be7c4e05d99b0eb9cdb2581" target="_top" xlink:title="Sleep for a while. ">
<polygon fill="white" stroke="black" points="174.5,-0.5 174.5,-19.5 239.5,-19.5 239.5,-0.5 174.5,-0.5"/>
<text text-anchor="middle" x="207" y="-7.5" font-family="Helvetica,sans-Serif" font-size="10.00">mutt_sleep</text>
</a>
</g>
</g>
<!-- Node1&#45;&gt;Node9 -->
<g id="edge9" class="edge"><title>Node1&#45;&gt;Node9</title>
<path fill="none" stroke="midnightblue" d="M63.2936,-133.201C75.6005,-111.318 108.292,-58.116 150,-29 154.525,-25.8413 159.618,-23.1714 164.842,-20.9243"/>
<polygon fill="midnightblue" stroke="midnightblue" points="166.194,-24.1547 174.291,-17.3219 163.7,-17.6139 166.194,-24.1547"/>
</g>
<!-- Node2&#45;&gt;Node3 -->
<g id="edge2" class="edge"><title>Node2&#45;&gt;Node3</title>
<path fill="none" stroke="midnightblue" d="M252.578,-269.726C264.458,-268.054 277.414,-266.231 289.71,-264.5"/>
<polygon fill="midnightblue" stroke="midnightblue" points="290.431,-267.933 299.846,-263.074 289.456,-261.001 290.431,-267.933"/>
</g>
</g>
</svg>
