<?xml version="1.0" encoding="UTF-8" standalone="no"?>
<!DOCTYPE svg PUBLIC "-//W3C//DTD SVG 1.1//EN"
 "http://www.w3.org/Graphics/SVG/1.1/DTD/svg11.dtd">
<!-- Generated by graphviz version 2.36.0 (20140111.2315)
 -->
<!-- Title: init_state Pages: 1 -->
<svg width="326pt" height="142pt"
 viewBox="0.00 0.00 326.00 142.00" xmlns="http://www.w3.org/2000/svg" xmlns:xlink="http://www.w3.org/1999/xlink">
<g id="graph0" class="graph" transform="scale(1 1) rotate(0) translate(4 138)">
<title>init_state</title>
<polygon fill="white" stroke="none" points="-4,4 -4,-138 322,-138 322,4 -4,4"/>
<!-- Node1 -->
<g id="node1" class="node"><title>Node1</title>
<polygon fill="#bfbfbf" stroke="black" points="0,-57.5 0,-76.5 56,-76.5 56,-57.5 0,-57.5"/>
<text text-anchor="middle" x="28" y="-64.5" font-family="Helvetica,sans-Serif" font-size="10.00">init_state</text>
</g>
<!-- Node2 -->
<g id="node2" class="node"><title>Node2</title>
<g id="a_node2"><a xlink:href="browser_8c.html#a5d46f13bc05093abd5f524bbc4bb96d1" target="_top" xlink:title="Get list of all files/newsgroups with mask. ">
<polygon fill="white" stroke="black" points="96,-114.5 96,-133.5 192,-133.5 192,-114.5 96,-114.5"/>
<text text-anchor="middle" x="144" y="-121.5" font-family="Helvetica,sans-Serif" font-size="10.00">examine_directory</text>
</a>
</g>
</g>
<!-- Node1&#45;&gt;Node2 -->
<g id="edge1" class="edge"><title>Node1&#45;&gt;Node2</title>
<path fill="none" stroke="midnightblue" d="M55.6654,-81.2888C66.8358,-87.1906 79.9925,-94.0333 92,-100 101.815,-104.877 112.803,-110.081 122.06,-114.391"/>
<polygon fill="midnightblue" stroke="midnightblue" points="57.2921,-78.1898 46.8184,-76.5924 54.01,-84.3726 57.2921,-78.1898"/>
</g>
<!-- Node3 -->
<g id="node3" class="node"><title>Node3</title>
<g id="a_node3"><a xlink:href="browser_8h.html#ab036990112b8014c0b84c401e77f96d3" target="_top" xlink:title="Let the user select a file. ">
<polygon fill="white" stroke="red" points="232,-57.5 232,-76.5 318,-76.5 318,-57.5 232,-57.5"/>
<text text-anchor="middle" x="275" y="-64.5" font-family="Helvetica,sans-Serif" font-size="10.00">mutt_select_file</text>
</a>
</g>
</g>
<!-- Node1&#45;&gt;Node3 -->
<g id="edge7" class="edge"><title>Node1&#45;&gt;Node3</title>
<path fill="none" stroke="midnightblue" d="M66.2783,-67C110.888,-67 185.385,-67 231.992,-67"/>
<polygon fill="midnightblue" stroke="midnightblue" points="66.1554,-63.5001 56.1554,-67 66.1553,-70.5001 66.1554,-63.5001"/>
</g>
<!-- Node4 -->
<g id="node4" class="node"><title>Node4</title>
<g id="a_node4"><a xlink:href="browser_8c.html#a2438fed322c051c96991cce15e6021c5" target="_top" xlink:title="Get a list of virtual folders. ">
<polygon fill="white" stroke="black" points="97.5,-38.5 97.5,-57.5 190.5,-57.5 190.5,-38.5 97.5,-38.5"/>
<text text-anchor="middle" x="144" y="-45.5" font-family="Helvetica,sans-Serif" font-size="10.00">examine_vfolders</text>
</a>
</g>
</g>
<!-- Node1&#45;&gt;Node4 -->
<g id="edge3" class="edge"><title>Node1&#45;&gt;Node4</title>
<path fill="none" stroke="midnightblue" d="M66.0544,-60.8243C76.0729,-59.1545 87.0321,-57.328 97.4578,-55.5904"/>
<polygon fill="midnightblue" stroke="midnightblue" points="65.3049,-57.4008 56.0164,-62.4973 66.4558,-64.3056 65.3049,-57.4008"/>
</g>
<!-- Node5 -->
<g id="node5" class="node"><title>Node5</title>
<g id="a_node5"><a xlink:href="browser_8c.html#aec34de9f81842bd3ef14d44809304c43" target="_top" xlink:title="Get list of mailboxes/subscribed newsgroups. ">
<polygon fill="white" stroke="black" points="92.5,-0.5 92.5,-19.5 195.5,-19.5 195.5,-0.5 92.5,-0.5"/>
<text text-anchor="middle" x="144" y="-7.5" font-family="Helvetica,sans-Serif" font-size="10.00">examine_mailboxes</text>
</a>
</g>
</g>
<!-- Node1&#45;&gt;Node5 -->
<g id="edge5" class="edge"><title>Node1&#45;&gt;Node5</title>
<path fill="none" stroke="midnightblue" d="M51.7801,-51.8506C63.5059,-44.4196 78.2033,-35.6592 92,-29 99.1478,-25.55 107.096,-22.3184 114.549,-19.5333"/>
<polygon fill="midnightblue" stroke="midnightblue" points="49.5924,-49.0969 43.0873,-57.4596 53.3876,-54.9787 49.5924,-49.0969"/>
</g>
<!-- Node2&#45;&gt;Node3 -->
<g id="edge2" class="edge"><title>Node2&#45;&gt;Node3</title>
<path fill="none" stroke="midnightblue" d="M175.82,-110.382C199.421,-99.9535 231.384,-85.8303 252.338,-76.5716"/>
<polygon fill="midnightblue" stroke="midnightblue" points="174.324,-107.216 166.592,-114.459 177.153,-113.619 174.324,-107.216"/>
</g>
<!-- Node4&#45;&gt;Node3 -->
<g id="edge4" class="edge"><title>Node4&#45;&gt;Node3</title>
<path fill="none" stroke="midnightblue" d="M201.016,-56.2504C211.325,-57.7688 221.929,-59.3307 231.749,-60.777"/>
<polygon fill="midnightblue" stroke="midnightblue" points="201.247,-52.7468 190.844,-54.7522 200.227,-59.6721 201.247,-52.7468"/>
</g>
<!-- Node5&#45;&gt;Node3 -->
<g id="edge6" class="edge"><title>Node5&#45;&gt;Node3</title>
<path fill="none" stroke="midnightblue" d="M181.871,-23.2521C186.653,-25.1122 191.462,-27.0549 196,-29 216.767,-37.9023 239.977,-49.4185 255.637,-57.4291"/>
<polygon fill="midnightblue" stroke="midnightblue" points="182.781,-19.8542 172.19,-19.5756 180.296,-26.3981 182.781,-19.8542"/>
</g>
</g>
</svg>
