<?xml version="1.0" encoding="UTF-8" standalone="no"?>
<!DOCTYPE svg PUBLIC "-//W3C//DTD SVG 1.1//EN"
 "http://www.w3.org/Graphics/SVG/1.1/DTD/svg11.dtd">
<!-- Generated by graphviz version 2.36.0 (20140111.2315)
 -->
<!-- Title: mutt_buffer_new Pages: 1 -->
<svg width="414pt" height="332pt"
 viewBox="0.00 0.00 414.00 332.00" xmlns="http://www.w3.org/2000/svg" xmlns:xlink="http://www.w3.org/1999/xlink">
<g id="graph0" class="graph" transform="scale(1 1) rotate(0) translate(4 328)">
<title>mutt_buffer_new</title>
<polygon fill="white" stroke="none" points="-4,4 -4,-328 410,-328 410,4 -4,4"/>
<!-- Node1 -->
<g id="node1" class="node"><title>Node1</title>
<polygon fill="#bfbfbf" stroke="black" points="0.5,-152.5 0.5,-171.5 89.5,-171.5 89.5,-152.5 0.5,-152.5"/>
<text text-anchor="middle" x="45" y="-159.5" font-family="Helvetica,sans-Serif" font-size="10.00">mutt_buffer_new</text>
</g>
<!-- Node2 -->
<g id="node2" class="node"><title>Node2</title>
<g id="a_node2"><a xlink:href="imap__private_8h.html#a2bae6acd3890e57adee0c83207910f03" target="_top" xlink:title="Prepare commands for all messages matching conditions. ">
<polygon fill="white" stroke="red" points="141.5,-304.5 141.5,-323.5 242.5,-323.5 242.5,-304.5 141.5,-304.5"/>
<text text-anchor="middle" x="192" y="-311.5" font-family="Helvetica,sans-Serif" font-size="10.00">imap_exec_msgset</text>
</a>
</g>
</g>
<!-- Node1&#45;&gt;Node2 -->
<g id="edge1" class="edge"><title>Node1&#45;&gt;Node2</title>
<path fill="none" stroke="midnightblue" d="M53.1226,-180.864C64.4797,-208.537 89.2286,-260.085 126,-290 133.652,-296.225 143.071,-300.925 152.339,-304.437"/>
<polygon fill="midnightblue" stroke="midnightblue" points="56.3605,-179.535 49.4284,-171.522 49.851,-182.109 56.3605,-179.535"/>
</g>
<!-- Node3 -->
<g id="node3" class="node"><title>Node3</title>
<g id="a_node3"><a xlink:href="imap_8h.html#ab8df632acf50bdb33e067b4cdbb2c99d" target="_top" xlink:title="Use server COPY command to copy deleted messages to trash. ">
<polygon fill="white" stroke="red" points="307,-285.5 307,-304.5 393,-304.5 393,-285.5 307,-285.5"/>
<text text-anchor="middle" x="350" y="-292.5" font-family="Helvetica,sans-Serif" font-size="10.00">imap_fast_trash</text>
</a>
</g>
</g>
<!-- Node1&#45;&gt;Node3 -->
<g id="edge3" class="edge"><title>Node1&#45;&gt;Node3</title>
<path fill="none" stroke="midnightblue" d="M56.0792,-180.51C69.1327,-202.563 94.0494,-238.713 126,-257 182.581,-289.385 259.549,-295.748 306.673,-296.22"/>
<polygon fill="midnightblue" stroke="midnightblue" points="59.076,-178.7 51.0792,-171.75 52.9965,-182.17 59.076,-178.7"/>
</g>
<!-- Node4 -->
<g id="node4" class="node"><title>Node4</title>
<g id="a_node4"><a xlink:href="imap_8c.html#ab8ac9c2913b5eb8c1a29f99007cf1c1f" target="_top" xlink:title="Implements MxOps::tags_commit() ">
<polygon fill="white" stroke="black" points="142.5,-228.5 142.5,-247.5 241.5,-247.5 241.5,-228.5 142.5,-228.5"/>
<text text-anchor="middle" x="192" y="-235.5" font-family="Helvetica,sans-Serif" font-size="10.00">imap_tags_commit</text>
</a>
</g>
</g>
<!-- Node1&#45;&gt;Node4 -->
<g id="edge4" class="edge"><title>Node1&#45;&gt;Node4</title>
<path fill="none" stroke="midnightblue" d="M64.6851,-178.08C80.2097,-190.733 103.345,-208.008 126,-219 133.722,-222.746 142.325,-225.901 150.679,-228.497"/>
<polygon fill="midnightblue" stroke="midnightblue" points="66.8196,-175.303 56.8946,-171.596 62.3412,-180.683 66.8196,-175.303"/>
</g>
<!-- Node5 -->
<g id="node5" class="node"><title>Node5</title>
<g id="a_node5"><a xlink:href="message_8c.html#a5dae54814b2746142369bbdef40b1b0f" target="_top" xlink:title="Read headers from the server. ">
<polygon fill="white" stroke="red" points="141.5,-190.5 141.5,-209.5 242.5,-209.5 242.5,-190.5 141.5,-190.5"/>
<text text-anchor="middle" x="192" y="-197.5" font-family="Helvetica,sans-Serif" font-size="10.00">imap_read_headers</text>
</a>
</g>
</g>
<!-- Node1&#45;&gt;Node5 -->
<g id="edge5" class="edge"><title>Node1&#45;&gt;Node5</title>
<path fill="none" stroke="midnightblue" d="M92.4928,-174.184C112.624,-179.46 135.838,-185.544 154.673,-190.48"/>
<polygon fill="midnightblue" stroke="midnightblue" points="93.1503,-170.738 82.5896,-171.589 91.3757,-177.51 93.1503,-170.738"/>
</g>
<!-- Node6 -->
<g id="node6" class="node"><title>Node6</title>
<g id="a_node6"><a xlink:href="util_8c.html#ad6e7c6a1193a6c4c74e52f833f862a04" target="_top" xlink:title="Allocate and initialise a new ImapData structure. ">
<polygon fill="white" stroke="red" points="148.5,-152.5 148.5,-171.5 235.5,-171.5 235.5,-152.5 148.5,-152.5"/>
<text text-anchor="middle" x="192" y="-159.5" font-family="Helvetica,sans-Serif" font-size="10.00">imap_new_idata</text>
</a>
</g>
</g>
<!-- Node1&#45;&gt;Node6 -->
<g id="edge6" class="edge"><title>Node1&#45;&gt;Node6</title>
<path fill="none" stroke="midnightblue" d="M99.745,-162C115.666,-162 132.882,-162 148.026,-162"/>
<polygon fill="midnightblue" stroke="midnightblue" points="99.5048,-158.5 89.5048,-162 99.5047,-165.5 99.5048,-158.5"/>
</g>
<!-- Node7 -->
<g id="node7" class="node"><title>Node7</title>
<g id="a_node7"><a xlink:href="main_8c.html#adedb285b02c41bde2158ded9cc9fd7ac" target="_top" xlink:title="Start NeoMutt. ">
<polygon fill="white" stroke="black" points="173,-114.5 173,-133.5 211,-133.5 211,-114.5 173,-114.5"/>
<text text-anchor="middle" x="192" y="-121.5" font-family="Helvetica,sans-Serif" font-size="10.00">main</text>
</a>
</g>
</g>
<!-- Node1&#45;&gt;Node7 -->
<g id="edge7" class="edge"><title>Node1&#45;&gt;Node7</title>
<path fill="none" stroke="midnightblue" d="M92.3891,-149.843C119.787,-142.663 152.928,-133.977 172.965,-128.726"/>
<polygon fill="midnightblue" stroke="midnightblue" points="91.3757,-146.49 82.5896,-152.411 93.1503,-153.262 91.3757,-146.49"/>
</g>
<!-- Node8 -->
<g id="node8" class="node"><title>Node8</title>
<g id="a_node8"><a xlink:href="buffer_8h.html#a2dbbf64489c1ea71237cfa83bcf50f13" target="_top" xlink:title="Create Buffer from an existing string. ">
<polygon fill="white" stroke="red" points="146.5,-76.5 146.5,-95.5 237.5,-95.5 237.5,-76.5 146.5,-76.5"/>
<text text-anchor="middle" x="192" y="-83.5" font-family="Helvetica,sans-Serif" font-size="10.00">mutt_buffer_from</text>
</a>
</g>
</g>
<!-- Node1&#45;&gt;Node8 -->
<g id="edge8" class="edge"><title>Node1&#45;&gt;Node8</title>
<path fill="none" stroke="midnightblue" d="M64.6851,-145.92C80.2097,-133.267 103.345,-115.992 126,-105 133.722,-101.254 142.325,-98.0988 150.679,-95.5029"/>
<polygon fill="midnightblue" stroke="midnightblue" points="62.3412,-143.317 56.8946,-152.404 66.8196,-148.697 62.3412,-143.317"/>
</g>
<!-- Node9 -->
<g id="node9" class="node"><title>Node9</title>
<g id="a_node9"><a xlink:href="muttlib_8h.html#a5efffe8bf1716c24b902f42e1d2166a0" target="_top" xlink:title="Expand expandos (x) in a string. ">
<polygon fill="white" stroke="red" points="294.5,-57.5 294.5,-76.5 405.5,-76.5 405.5,-57.5 294.5,-57.5"/>
<text text-anchor="middle" x="350" y="-64.5" font-family="Helvetica,sans-Serif" font-size="10.00">mutt_expando_format</text>
</a>
</g>
</g>
<!-- Node1&#45;&gt;Node9 -->
<g id="edge12" class="edge"><title>Node1&#45;&gt;Node9</title>
<path fill="none" stroke="midnightblue" d="M55.2227,-143.271C67.6838,-120.359 92.2811,-82.6873 126,-67 185.323,-39.4008 263.506,-48.2412 309.794,-57.4374"/>
<polygon fill="midnightblue" stroke="midnightblue" points="52.0078,-141.867 50.4978,-152.354 58.2178,-145.097 52.0078,-141.867"/>
</g>
<!-- Node10 -->
<g id="node10" class="node"><title>Node10</title>
<g id="a_node10"><a xlink:href="mbyte_8h.html#a2ff7f0c0693d59c4fbb25cff5198a208" target="_top" xlink:title="Replace unprintable characters. ">
<polygon fill="white" stroke="red" points="126.5,-0.5 126.5,-19.5 257.5,-19.5 257.5,-0.5 126.5,-0.5"/>
<text text-anchor="middle" x="192" y="-7.5" font-family="Helvetica,sans-Serif" font-size="10.00">mutt_mb_filter_unprintable</text>
</a>
</g>
</g>
<!-- Node1&#45;&gt;Node10 -->
<g id="edge11" class="edge"><title>Node1&#45;&gt;Node10</title>
<path fill="none" stroke="midnightblue" d="M53.1226,-143.136C64.4797,-115.463 89.2286,-63.9155 126,-34 133.652,-27.7749 143.071,-23.0754 152.339,-19.5628"/>
<polygon fill="midnightblue" stroke="midnightblue" points="49.851,-141.891 49.4284,-152.478 56.3605,-144.465 49.851,-141.891"/>
</g>
<!-- Node2&#45;&gt;Node3 -->
<g id="edge2" class="edge"><title>Node2&#45;&gt;Node3</title>
<path fill="none" stroke="midnightblue" d="M252.89,-306.706C270.856,-304.518 290.179,-302.164 306.753,-300.145"/>
<polygon fill="midnightblue" stroke="midnightblue" points="252.292,-303.253 242.788,-307.936 253.138,-310.201 252.292,-303.253"/>
</g>
<!-- Node8&#45;&gt;Node9 -->
<g id="edge9" class="edge"><title>Node8&#45;&gt;Node9</title>
<path fill="none" stroke="midnightblue" d="M247.894,-79.3142C262.95,-77.4805 279.268,-75.493 294.312,-73.6607"/>
<polygon fill="midnightblue" stroke="midnightblue" points="247.207,-75.8719 237.703,-80.5554 248.053,-82.8206 247.207,-75.8719"/>
</g>
<!-- Node9&#45;&gt;Node9 -->
<g id="edge10" class="edge"><title>Node9&#45;&gt;Node9</title>
<path fill="none" stroke="midnightblue" d="M320.508,-85.6539C321.74,-90.9368 331.571,-95 350,-95 378.082,-95 386.199,-85.5653 374.352,-76.7571"/>
<polygon fill="midnightblue" stroke="midnightblue" points="323.676,-87.1668 325.648,-76.7571 317.614,-83.665 323.676,-87.1668"/>
</g>
</g>
</svg>
