<?xml version="1.0" encoding="UTF-8" standalone="no"?>
<!DOCTYPE svg PUBLIC "-//W3C//DTD SVG 1.1//EN"
 "http://www.w3.org/Graphics/SVG/1.1/DTD/svg11.dtd">
<!-- Generated by graphviz version 2.36.0 (20140111.2315)
 -->
<!-- Title: mutt/buffer.c Pages: 1 -->
<svg width="466pt" height="140pt"
 viewBox="0.00 0.00 465.68 140.00" xmlns="http://www.w3.org/2000/svg" xmlns:xlink="http://www.w3.org/1999/xlink">
<g id="graph0" class="graph" transform="scale(1 1) rotate(0) translate(4 136)">
<title>mutt/buffer.c</title>
<polygon fill="white" stroke="none" points="-4,4 -4,-136 461.676,-136 461.676,4 -4,4"/>
<!-- Node1 -->
<g id="node1" class="node"><title>Node1</title>
<polygon fill="#bfbfbf" stroke="black" points="207,-112.5 207,-131.5 279,-131.5 279,-112.5 207,-112.5"/>
<text text-anchor="middle" x="243" y="-119.5" font-family="Helvetica,sans-Serif" font-size="10.00">mutt/buffer.c</text>
</g>
<!-- Node2 -->
<g id="node2" class="node"><title>Node2</title>
<polygon fill="white" stroke="#bfbfbf" points="-0.5,-56.5 -0.5,-75.5 50.5,-75.5 50.5,-56.5 -0.5,-56.5"/>
<text text-anchor="middle" x="25" y="-63.5" font-family="Helvetica,sans-Serif" font-size="10.00">config.h</text>
</g>
<!-- Node1&#45;&gt;Node2 -->
<g id="edge1" class="edge"><title>Node1&#45;&gt;Node2</title>
<path fill="none" stroke="midnightblue" d="M207.89,-112.483C173.046,-104.005 117.855,-90.5067 60.5664,-76.1223"/>
<polygon fill="midnightblue" stroke="midnightblue" points="61.1579,-72.6621 50.6063,-73.6177 59.4508,-79.4508 61.1579,-72.6621"/>
</g>
<!-- Node3 -->
<g id="node3" class="node"><title>Node3</title>
<polygon fill="white" stroke="#bfbfbf" points="69,-56.5 69,-75.5 121,-75.5 121,-56.5 69,-56.5"/>
<text text-anchor="middle" x="95" y="-63.5" font-family="Helvetica,sans-Serif" font-size="10.00">stdarg.h</text>
</g>
<!-- Node1&#45;&gt;Node3 -->
<g id="edge2" class="edge"><title>Node1&#45;&gt;Node3</title>
<path fill="none" stroke="midnightblue" d="M219.549,-112.444C194.867,-103.438 155.815,-89.1891 128.023,-79.049"/>
<polygon fill="midnightblue" stroke="midnightblue" points="128.935,-75.6561 118.341,-75.5164 126.536,-82.2321 128.935,-75.6561"/>
</g>
<!-- Node4 -->
<g id="node4" class="node"><title>Node4</title>
<polygon fill="white" stroke="#bfbfbf" points="189,-0.5 189,-19.5 245,-19.5 245,-0.5 189,-0.5"/>
<text text-anchor="middle" x="217" y="-7.5" font-family="Helvetica,sans-Serif" font-size="10.00">stdbool.h</text>
</g>
<!-- Node1&#45;&gt;Node4 -->
<g id="edge3" class="edge"><title>Node1&#45;&gt;Node4</title>
<path fill="none" stroke="midnightblue" d="M240.96,-112.368C236.764,-94.617 227.085,-53.6664 221.396,-29.5974"/>
<polygon fill="midnightblue" stroke="midnightblue" points="224.737,-28.5182 219.031,-19.5914 217.925,-30.1284 224.737,-28.5182"/>
</g>
<!-- Node5 -->
<g id="node5" class="node"><title>Node5</title>
<polygon fill="white" stroke="#bfbfbf" points="383,-0.5 383,-19.5 429,-19.5 429,-0.5 383,-0.5"/>
<text text-anchor="middle" x="406" y="-7.5" font-family="Helvetica,sans-Serif" font-size="10.00">stdio.h</text>
</g>
<!-- Node1&#45;&gt;Node5 -->
<g id="edge4" class="edge"><title>Node1&#45;&gt;Node5</title>
<path fill="none" stroke="midnightblue" d="M279.257,-118.582C333.457,-114.126 431.552,-102.531 453,-76 466.543,-59.248 446.559,-39.0082 428.62,-25.612"/>
<polygon fill="midnightblue" stroke="midnightblue" points="430.324,-22.5312 420.134,-19.6307 426.291,-28.2527 430.324,-22.5312"/>
</g>
<!-- Node6 -->
<g id="node6" class="node"><title>Node6</title>
<polygon fill="white" stroke="#bfbfbf" points="245.5,-56.5 245.5,-75.5 294.5,-75.5 294.5,-56.5 245.5,-56.5"/>
<text text-anchor="middle" x="270" y="-63.5" font-family="Helvetica,sans-Serif" font-size="10.00">string.h</text>
</g>
<!-- Node1&#45;&gt;Node6 -->
<g id="edge5" class="edge"><title>Node1&#45;&gt;Node6</title>
<path fill="none" stroke="midnightblue" d="M247.459,-112.083C251.154,-104.691 256.523,-93.9533 261.094,-84.8111"/>
<polygon fill="midnightblue" stroke="midnightblue" points="264.283,-86.2606 265.624,-75.7511 258.022,-83.1301 264.283,-86.2606"/>
</g>
<!-- Node7 -->
<g id="node7" class="node"><title>Node7</title>
<g id="a_node7"><a xlink:href="buffer_8h.html" target="_top" xlink:title="General purpose object for storing and parsing strings. ">
<polygon fill="white" stroke="red" points="139,-56.5 139,-75.5 189,-75.5 189,-56.5 139,-56.5"/>
<text text-anchor="middle" x="164" y="-63.5" font-family="Helvetica,sans-Serif" font-size="10.00">buffer.h</text>
</a>
</g>
</g>
<!-- Node1&#45;&gt;Node7 -->
<g id="edge6" class="edge"><title>Node1&#45;&gt;Node7</title>
<path fill="none" stroke="midnightblue" d="M230.307,-112.324C218.099,-103.979 199.422,-91.2122 184.997,-81.3524"/>
<polygon fill="midnightblue" stroke="midnightblue" points="186.892,-78.4082 176.661,-75.6545 182.942,-84.1871 186.892,-78.4082"/>
</g>
<!-- Node8 -->
<g id="node8" class="node"><title>Node8</title>
<g id="a_node8"><a xlink:href="memory_8h.html" target="_top" xlink:title="Memory management wrappers. ">
<polygon fill="white" stroke="red" points="385,-56.5 385,-75.5 445,-75.5 445,-56.5 385,-56.5"/>
<text text-anchor="middle" x="415" y="-63.5" font-family="Helvetica,sans-Serif" font-size="10.00">memory.h</text>
</a>
</g>
</g>
<!-- Node1&#45;&gt;Node8 -->
<g id="edge8" class="edge"><title>Node1&#45;&gt;Node8</title>
<path fill="none" stroke="midnightblue" d="M270.254,-112.444C299.441,-103.28 345.921,-88.6876 378.309,-78.5192"/>
<polygon fill="midnightblue" stroke="midnightblue" points="379.381,-81.8512 387.874,-75.5164 377.284,-75.1726 379.381,-81.8512"/>
</g>
<!-- Node9 -->
<g id="node9" class="node"><title>Node9</title>
<g id="a_node9"><a xlink:href="string2_8h.html" target="_top" xlink:title="String manipulation functions. ">
<polygon fill="white" stroke="red" points="313,-56.5 313,-75.5 367,-75.5 367,-56.5 313,-56.5"/>
<text text-anchor="middle" x="340" y="-63.5" font-family="Helvetica,sans-Serif" font-size="10.00">string2.h</text>
</a>
</g>
</g>
<!-- Node1&#45;&gt;Node9 -->
<g id="edge9" class="edge"><title>Node1&#45;&gt;Node9</title>
<path fill="none" stroke="midnightblue" d="M258.585,-112.324C273.999,-103.743 297.812,-90.486 315.71,-80.5224"/>
<polygon fill="midnightblue" stroke="midnightblue" points="317.419,-83.5767 324.454,-75.6545 314.014,-77.4606 317.419,-83.5767"/>
</g>
<!-- Node7&#45;&gt;Node4 -->
<g id="edge7" class="edge"><title>Node7&#45;&gt;Node4</title>
<path fill="none" stroke="midnightblue" d="M172.752,-56.083C180.47,-48.2195 191.905,-36.5688 201.217,-27.0813"/>
<polygon fill="midnightblue" stroke="midnightblue" points="203.904,-29.3396 208.411,-19.7511 198.908,-24.4363 203.904,-29.3396"/>
</g>
<!-- Node9&#45;&gt;Node4 -->
<g id="edge10" class="edge"><title>Node9&#45;&gt;Node4</title>
<path fill="none" stroke="midnightblue" d="M320.51,-56.4435C300.358,-47.5961 268.677,-33.6875 245.669,-23.5865"/>
<polygon fill="midnightblue" stroke="midnightblue" points="246.962,-20.3316 236.399,-19.5164 244.148,-26.7411 246.962,-20.3316"/>
</g>
<!-- Node9&#45;&gt;Node5 -->
<g id="edge11" class="edge"><title>Node9&#45;&gt;Node5</title>
<path fill="none" stroke="midnightblue" d="M350.604,-56.324C360.456,-48.2631 375.351,-36.0765 387.215,-26.3695"/>
<polygon fill="midnightblue" stroke="midnightblue" points="389.68,-28.8752 395.203,-19.8339 385.247,-23.4575 389.68,-28.8752"/>
</g>
</g>
</svg>
