<?xml version="1.0" encoding="UTF-8" standalone="no"?>
<!DOCTYPE svg PUBLIC "-//W3C//DTD SVG 1.1//EN"
 "http://www.w3.org/Graphics/SVG/1.1/DTD/svg11.dtd">
<!-- Generated by graphviz version 2.36.0 (20140111.2315)
 -->
<!-- Title: mutt_ch_fgetconvs Pages: 1 -->
<svg width="258pt" height="66pt"
 viewBox="0.00 0.00 258.00 66.00" xmlns="http://www.w3.org/2000/svg" xmlns:xlink="http://www.w3.org/1999/xlink">
<g id="graph0" class="graph" transform="scale(1 1) rotate(0) translate(4 62)">
<title>mutt_ch_fgetconvs</title>
<polygon fill="white" stroke="none" points="-4,4 -4,-62 254,-62 254,4 -4,4"/>
<!-- Node1 -->
<g id="node1" class="node"><title>Node1</title>
<polygon fill="#bfbfbf" stroke="black" points="0,-19.5 0,-38.5 100,-38.5 100,-19.5 0,-19.5"/>
<text text-anchor="middle" x="50" y="-26.5" font-family="Helvetica,sans-Serif" font-size="10.00">mutt_ch_fgetconvs</text>
</g>
<!-- Node2 -->
<g id="node2" class="node"><title>Node2</title>
<g id="a_node2"><a xlink:href="crypt__gpgme_8c.html#ab66d572be0c35eeb6c5247ecd94b2fcc" target="_top" xlink:title="Copy a clearsigned message. ">
<polygon fill="white" stroke="red" points="147,-38.5 147,-57.5 239,-57.5 239,-38.5 147,-38.5"/>
<text text-anchor="middle" x="193" y="-45.5" font-family="Helvetica,sans-Serif" font-size="10.00">copy_clearsigned</text>
</a>
</g>
</g>
<!-- Node1&#45;&gt;Node2 -->
<g id="edge1" class="edge"><title>Node1&#45;&gt;Node2</title>
<path fill="none" stroke="midnightblue" d="M110.389,-37.0028C122.548,-38.6412 135.159,-40.3405 146.726,-41.8992"/>
<polygon fill="midnightblue" stroke="midnightblue" points="110.693,-33.5122 100.315,-35.6453 109.758,-40.4495 110.693,-33.5122"/>
</g>
<!-- Node3 -->
<g id="node3" class="node"><title>Node3</title>
<g id="a_node3"><a xlink:href="pgp_8c.html#ac24e944daf0a1b1740ce5af55fb6c84b" target="_top" xlink:title="Copy a clearsigned message, stripping the signature. ">
<polygon fill="white" stroke="red" points="136.5,-0.5 136.5,-19.5 249.5,-19.5 249.5,-0.5 136.5,-0.5"/>
<text text-anchor="middle" x="193" y="-7.5" font-family="Helvetica,sans-Serif" font-size="10.00">pgp_copy_clearsigned</text>
</a>
</g>
</g>
<!-- Node1&#45;&gt;Node3 -->
<g id="edge2" class="edge"><title>Node1&#45;&gt;Node3</title>
<path fill="none" stroke="midnightblue" d="M110.266,-21.0138C118.86,-19.8558 127.682,-18.667 136.203,-17.5187"/>
<polygon fill="midnightblue" stroke="midnightblue" points="109.758,-17.5505 100.315,-22.3547 110.693,-24.4878 109.758,-17.5505"/>
</g>
</g>
</svg>
