<?xml version="1.0" encoding="UTF-8" standalone="no"?>
<!DOCTYPE svg PUBLIC "-//W3C//DTD SVG 1.1//EN"
 "http://www.w3.org/Graphics/SVG/1.1/DTD/svg11.dtd">
<!-- Generated by graphviz version 2.36.0 (20140111.2315)
 -->
<!-- Title: mutt_ch_convert_string Pages: 1 -->
<svg width="272pt" height="142pt"
 viewBox="0.00 0.00 272.00 142.00" xmlns="http://www.w3.org/2000/svg" xmlns:xlink="http://www.w3.org/1999/xlink">
<g id="graph0" class="graph" transform="scale(1 1) rotate(0) translate(4 138)">
<title>mutt_ch_convert_string</title>
<polygon fill="white" stroke="none" points="-4,4 -4,-138 268,-138 268,4 -4,4"/>
<!-- Node1 -->
<g id="node1" class="node"><title>Node1</title>
<polygon fill="#bfbfbf" stroke="black" points="0.5,-57.5 0.5,-76.5 119.5,-76.5 119.5,-57.5 0.5,-57.5"/>
<text text-anchor="middle" x="60" y="-64.5" font-family="Helvetica,sans-Serif" font-size="10.00">mutt_ch_convert_string</text>
</g>
<!-- Node2 -->
<g id="node2" class="node"><title>Node2</title>
<g id="a_node2"><a xlink:href="charset_8c.html#aecf9659e09f009e78e428cd172439b7b" target="_top" xlink:title="Set up iconv for conversions. ">
<polygon fill="white" stroke="red" points="156.5,-114.5 156.5,-133.5 263.5,-133.5 263.5,-114.5 156.5,-114.5"/>
<text text-anchor="middle" x="210" y="-121.5" font-family="Helvetica,sans-Serif" font-size="10.00">mutt_ch_iconv_open</text>
</a>
</g>
</g>
<!-- Node1&#45;&gt;Node2 -->
<g id="edge1" class="edge"><title>Node1&#45;&gt;Node2</title>
<path fill="none" stroke="midnightblue" d="M84.3321,-76.6071C103.507,-84.4361 131.417,-95.6806 156,-105 161.198,-106.971 166.703,-109.004 172.121,-110.974"/>
<polygon fill="midnightblue" stroke="midnightblue" points="171.101,-114.326 181.695,-114.425 173.475,-107.741 171.101,-114.326"/>
</g>
<!-- Node3 -->
<g id="node3" class="node"><title>Node3</title>
<g id="a_node3"><a xlink:href="memory_8c.html#a264da4dc58e6dc8983285bd1f538f24d" target="_top" xlink:title="Allocate memory on the heap. ">
<polygon fill="white" stroke="red" points="161.5,-76.5 161.5,-95.5 258.5,-95.5 258.5,-76.5 161.5,-76.5"/>
<text text-anchor="middle" x="210" y="-83.5" font-family="Helvetica,sans-Serif" font-size="10.00">mutt_mem_malloc</text>
</a>
</g>
</g>
<!-- Node1&#45;&gt;Node3 -->
<g id="edge2" class="edge"><title>Node1&#45;&gt;Node3</title>
<path fill="none" stroke="midnightblue" d="M119.919,-74.5639C130.197,-75.8833 140.88,-77.2548 151.129,-78.5706"/>
<polygon fill="midnightblue" stroke="midnightblue" points="150.838,-82.0619 161.202,-79.8638 151.73,-75.1189 150.838,-82.0619"/>
</g>
<!-- Node4 -->
<g id="node4" class="node"><title>Node4</title>
<g id="a_node4"><a xlink:href="charset_8c.html#a161c342ed0b417b1f931b15463fe091b" target="_top" xlink:title="Change the encoding of a string. ">
<polygon fill="white" stroke="black" points="170,-38.5 170,-57.5 250,-57.5 250,-38.5 170,-38.5"/>
<text text-anchor="middle" x="210" y="-45.5" font-family="Helvetica,sans-Serif" font-size="10.00">mutt_ch_iconv</text>
</a>
</g>
</g>
<!-- Node1&#45;&gt;Node4 -->
<g id="edge3" class="edge"><title>Node1&#45;&gt;Node4</title>
<path fill="none" stroke="midnightblue" d="M119.919,-59.4361C133.149,-57.7376 147.051,-55.9529 159.834,-54.3118"/>
<polygon fill="midnightblue" stroke="midnightblue" points="160.339,-57.7758 169.812,-53.0309 159.448,-50.8328 160.339,-57.7758"/>
</g>
<!-- Node5 -->
<g id="node5" class="node"><title>Node5</title>
<g id="a_node5"><a xlink:href="mutt_2string_8c.html#af5259fb04e41947639bafb49a371e12e" target="_top" xlink:title="Shrink&#45;to&#45;fit a string. ">
<polygon fill="white" stroke="red" points="168,-0.5 168,-19.5 252,-19.5 252,-0.5 168,-0.5"/>
<text text-anchor="middle" x="210" y="-7.5" font-family="Helvetica,sans-Serif" font-size="10.00">mutt_str_adjust</text>
</a>
</g>
</g>
<!-- Node1&#45;&gt;Node5 -->
<g id="edge4" class="edge"><title>Node1&#45;&gt;Node5</title>
<path fill="none" stroke="midnightblue" d="M84.3321,-57.3929C103.507,-49.5639 131.417,-38.3194 156,-29 161.198,-27.0293 166.703,-24.9964 172.121,-23.0263"/>
<polygon fill="midnightblue" stroke="midnightblue" points="173.475,-26.2587 181.695,-19.5748 171.101,-19.6735 173.475,-26.2587"/>
</g>
</g>
</svg>
