<?xml version="1.0" encoding="UTF-8" standalone="no"?>
<!DOCTYPE svg PUBLIC "-//W3C//DTD SVG 1.1//EN"
 "http://www.w3.org/Graphics/SVG/1.1/DTD/svg11.dtd">
<!-- Generated by graphviz version 2.36.0 (20140111.2315)
 -->
<!-- Title: mutt_ch_get_default_charset Pages: 1 -->
<svg width="284pt" height="115pt"
 viewBox="0.00 0.00 284.00 115.00" xmlns="http://www.w3.org/2000/svg" xmlns:xlink="http://www.w3.org/1999/xlink">
<g id="graph0" class="graph" transform="scale(1 1) rotate(0) translate(4 111)">
<title>mutt_ch_get_default_charset</title>
<polygon fill="white" stroke="none" points="-4,4 -4,-111 280,-111 280,4 -4,4"/>
<!-- Node1 -->
<g id="node1" class="node"><title>Node1</title>
<polygon fill="#bfbfbf" stroke="black" points="0.5,-44 0.5,-74 105.5,-74 105.5,-44 0.5,-44"/>
<text text-anchor="start" x="8.5" y="-62" font-family="Helvetica,sans-Serif" font-size="10.00">mutt_ch_get_default</text>
<text text-anchor="middle" x="53" y="-51" font-family="Helvetica,sans-Serif" font-size="10.00">_charset</text>
</g>
<!-- Node2 -->
<g id="node2" class="node"><title>Node2</title>
<g id="a_node2"><a xlink:href="parse_8h.html#af56ef02064aceecce24f0145d3a81326" target="_top" xlink:title="Parse a content type. ">
<polygon fill="white" stroke="red" points="145.5,-87.5 145.5,-106.5 272.5,-106.5 272.5,-87.5 145.5,-87.5"/>
<text text-anchor="middle" x="209" y="-94.5" font-family="Helvetica,sans-Serif" font-size="10.00">mutt_parse_content_type</text>
</a>
</g>
</g>
<!-- Node1&#45;&gt;Node2 -->
<g id="edge1" class="edge"><title>Node1&#45;&gt;Node2</title>
<path fill="none" stroke="midnightblue" d="M115.632,-74.208C133.764,-78.682 153.08,-83.4484 169.337,-87.4597"/>
<polygon fill="midnightblue" stroke="midnightblue" points="116.255,-70.7568 105.708,-71.7592 114.578,-77.553 116.255,-70.7568"/>
</g>
<!-- Node3 -->
<g id="node3" class="node"><title>Node3</title>
<g id="a_node3"><a xlink:href="handler_8h.html#a8dc0c14a81bb73f86986adc9745dd192" target="_top" xlink:title="Decode an email&#39;s attachment. ">
<polygon fill="white" stroke="red" points="145.5,-49.5 145.5,-68.5 272.5,-68.5 272.5,-49.5 145.5,-49.5"/>
<text text-anchor="middle" x="209" y="-56.5" font-family="Helvetica,sans-Serif" font-size="10.00">mutt_decode_attachment</text>
</a>
</g>
</g>
<!-- Node1&#45;&gt;Node3 -->
<g id="edge2" class="edge"><title>Node1&#45;&gt;Node3</title>
<path fill="none" stroke="midnightblue" d="M115.755,-59C125.542,-59 135.671,-59 145.475,-59"/>
<polygon fill="midnightblue" stroke="midnightblue" points="115.708,-55.5001 105.708,-59 115.708,-62.5001 115.708,-55.5001"/>
</g>
<!-- Node4 -->
<g id="node4" class="node"><title>Node4</title>
<g id="a_node4"><a xlink:href="charset_8h.html#acc2835b9ab71b4fa4bd1b330b3405ab6" target="_top" xlink:title="Try to convert a string using a list of character sets. ">
<polygon fill="white" stroke="red" points="142,-0 142,-30 276,-30 276,-0 142,-0"/>
<text text-anchor="start" x="150" y="-18" font-family="Helvetica,sans-Serif" font-size="10.00">mutt_ch_convert_nonmime</text>
<text text-anchor="middle" x="209" y="-7" font-family="Helvetica,sans-Serif" font-size="10.00">_string</text>
</a>
</g>
</g>
<!-- Node1&#45;&gt;Node4 -->
<g id="edge3" class="edge"><title>Node1&#45;&gt;Node4</title>
<path fill="none" stroke="midnightblue" d="M115.628,-41.392C128.795,-37.63 142.587,-33.6895 155.378,-30.0349"/>
<polygon fill="midnightblue" stroke="midnightblue" points="114.362,-38.1136 105.708,-44.2262 116.285,-44.8443 114.362,-38.1136"/>
</g>
</g>
</svg>
