<?xml version="1.0" encoding="UTF-8" standalone="no"?>
<!DOCTYPE svg PUBLIC "-//W3C//DTD SVG 1.1//EN"
 "http://www.w3.org/Graphics/SVG/1.1/DTD/svg11.dtd">
<!-- Generated by graphviz version 2.36.0 (20140111.2315)
 -->
<!-- Title: mutt_ch_check_charset Pages: 1 -->
<svg width="280pt" height="77pt"
 viewBox="0.00 0.00 280.00 77.00" xmlns="http://www.w3.org/2000/svg" xmlns:xlink="http://www.w3.org/1999/xlink">
<g id="graph0" class="graph" transform="scale(1 1) rotate(0) translate(4 73)">
<title>mutt_ch_check_charset</title>
<polygon fill="white" stroke="none" points="-4,4 -4,-73 276,-73 276,4 -4,4"/>
<!-- Node1 -->
<g id="node1" class="node"><title>Node1</title>
<polygon fill="#bfbfbf" stroke="black" points="0.5,-27.5 0.5,-46.5 121.5,-46.5 121.5,-27.5 0.5,-27.5"/>
<text text-anchor="middle" x="61" y="-34.5" font-family="Helvetica,sans-Serif" font-size="10.00">mutt_ch_check_charset</text>
</g>
<!-- Node2 -->
<g id="node2" class="node"><title>Node2</title>
<g id="a_node2"><a xlink:href="init_8h.html#a2af01c740da7a35724ab4052aaf6abb8" target="_top" xlink:title="Validate the &quot;charset&quot; config variable &#45; Implements cs_validator. ">
<polygon fill="white" stroke="black" points="169.5,-49.5 169.5,-68.5 260.5,-68.5 260.5,-49.5 169.5,-49.5"/>
<text text-anchor="middle" x="215" y="-56.5" font-family="Helvetica,sans-Serif" font-size="10.00">charset_validator</text>
</a>
</g>
</g>
<!-- Node1&#45;&gt;Node2 -->
<g id="edge1" class="edge"><title>Node1&#45;&gt;Node2</title>
<path fill="none" stroke="midnightblue" d="M131.743,-47.0944C144.44,-48.9321 157.371,-50.8037 169.107,-52.5023"/>
<polygon fill="midnightblue" stroke="midnightblue" points="132.036,-43.6005 121.638,-45.6318 131.034,-50.5283 132.036,-43.6005"/>
</g>
<!-- Node3 -->
<g id="node3" class="node"><title>Node3</title>
<g id="a_node3"><a xlink:href="pgp_8h.html#aa55c76c8d08b0720d97cdb6360440f78" target="_top" xlink:title="Implements CryptModuleSpecs::application_handler() ">
<polygon fill="white" stroke="black" points="158.5,-0 158.5,-30 271.5,-30 271.5,-0 158.5,-0"/>
<text text-anchor="start" x="166.5" y="-18" font-family="Helvetica,sans-Serif" font-size="10.00">pgp_class_application</text>
<text text-anchor="middle" x="215" y="-7" font-family="Helvetica,sans-Serif" font-size="10.00">_handler</text>
</a>
</g>
</g>
<!-- Node1&#45;&gt;Node3 -->
<g id="edge2" class="edge"><title>Node1&#45;&gt;Node3</title>
<path fill="none" stroke="midnightblue" d="M131.565,-26.9315C140.424,-25.6492 149.4,-24.35 158.008,-23.1041"/>
<polygon fill="midnightblue" stroke="midnightblue" points="131.034,-23.4717 121.638,-28.3682 132.036,-30.3995 131.034,-23.4717"/>
</g>
</g>
</svg>
