<?xml version="1.0" encoding="UTF-8" standalone="no"?>
<!DOCTYPE svg PUBLIC "-//W3C//DTD SVG 1.1//EN"
 "http://www.w3.org/Graphics/SVG/1.1/DTD/svg11.dtd">
<!-- Generated by graphviz version 2.36.0 (20140111.2315)
 -->
<!-- Title: mutt_ch_choose Pages: 1 -->
<svg width="404pt" height="242pt"
 viewBox="0.00 0.00 404.00 242.14" xmlns="http://www.w3.org/2000/svg" xmlns:xlink="http://www.w3.org/1999/xlink">
<g id="graph0" class="graph" transform="scale(1 1) rotate(0) translate(4 238.137)">
<title>mutt_ch_choose</title>
<polygon fill="white" stroke="none" points="-4,4 -4,-238.137 400,-238.137 400,4 -4,4"/>
<!-- Node1 -->
<g id="node1" class="node"><title>Node1</title>
<polygon fill="#bfbfbf" stroke="black" points="0.5,-114.5 0.5,-133.5 89.5,-133.5 89.5,-114.5 0.5,-114.5"/>
<text text-anchor="middle" x="45" y="-121.5" font-family="Helvetica,sans-Serif" font-size="10.00">mutt_ch_choose</text>
</g>
<!-- Node2 -->
<g id="node2" class="node"><title>Node2</title>
<g id="a_node2"><a xlink:href="memory_8c.html#a264da4dc58e6dc8983285bd1f538f24d" target="_top" xlink:title="Allocate memory on the heap. ">
<polygon fill="white" stroke="red" points="298.5,-171.5 298.5,-190.5 395.5,-190.5 395.5,-171.5 298.5,-171.5"/>
<text text-anchor="middle" x="347" y="-178.5" font-family="Helvetica,sans-Serif" font-size="10.00">mutt_mem_malloc</text>
</a>
</g>
</g>
<!-- Node1&#45;&gt;Node2 -->
<g id="edge1" class="edge"><title>Node1&#45;&gt;Node2</title>
<path fill="none" stroke="midnightblue" d="M50.4978,-133.646C60.6037,-154.01 87.2913,-200.991 126,-219 180.804,-244.497 202.914,-231.743 262,-219 283.058,-214.458 305.191,-204.189 321.449,-195.47"/>
<polygon fill="midnightblue" stroke="midnightblue" points="323.239,-198.479 330.289,-190.571 319.846,-192.357 323.239,-198.479"/>
</g>
<!-- Node3 -->
<g id="node3" class="node"><title>Node3</title>
<g id="a_node3"><a xlink:href="mutt_2string_8c.html#a97a08d325db953698595ab3097eb14ea" target="_top" xlink:title="Duplicate a sub&#45;string. ">
<polygon fill="white" stroke="black" points="141,-190.5 141,-209.5 247,-209.5 247,-190.5 141,-190.5"/>
<text text-anchor="middle" x="194" y="-197.5" font-family="Helvetica,sans-Serif" font-size="10.00">mutt_str_substr_dup</text>
</a>
</g>
</g>
<!-- Node1&#45;&gt;Node3 -->
<g id="edge2" class="edge"><title>Node1&#45;&gt;Node3</title>
<path fill="none" stroke="midnightblue" d="M56.8789,-133.628C71.5916,-146.188 99.0972,-168.081 126,-181 130.716,-183.264 135.751,-185.306 140.863,-187.136"/>
<polygon fill="midnightblue" stroke="midnightblue" points="140.133,-190.581 150.726,-190.396 142.329,-183.934 140.133,-190.581"/>
</g>
<!-- Node4 -->
<g id="node4" class="node"><title>Node4</title>
<g id="a_node4"><a xlink:href="charset_8c.html#ab7e77d77daee2304cbdabeb54bdb3e97" target="_top" xlink:title="Convert a string between encodings. ">
<polygon fill="white" stroke="red" points="134.5,-152.5 134.5,-171.5 253.5,-171.5 253.5,-152.5 134.5,-152.5"/>
<text text-anchor="middle" x="194" y="-159.5" font-family="Helvetica,sans-Serif" font-size="10.00">mutt_ch_convert_string</text>
</a>
</g>
</g>
<!-- Node1&#45;&gt;Node4 -->
<g id="edge4" class="edge"><title>Node1&#45;&gt;Node4</title>
<path fill="none" stroke="midnightblue" d="M83.0943,-133.589C102.318,-138.558 125.986,-144.677 146.429,-149.961"/>
<polygon fill="midnightblue" stroke="midnightblue" points="145.615,-153.366 156.172,-152.48 147.367,-146.588 145.615,-153.366"/>
</g>
<!-- Node5 -->
<g id="node5" class="node"><title>Node5</title>
<g id="a_node5"><a xlink:href="charset_8c.html#a81959a5c114f585575d5116c50a51638" target="_top" xlink:title="Check whether a string can be converted between encodings. ">
<polygon fill="white" stroke="red" points="152.5,-114.5 152.5,-133.5 235.5,-133.5 235.5,-114.5 152.5,-114.5"/>
<text text-anchor="middle" x="194" y="-121.5" font-family="Helvetica,sans-Serif" font-size="10.00">mutt_ch_check</text>
</a>
</g>
</g>
<!-- Node1&#45;&gt;Node5 -->
<g id="edge6" class="edge"><title>Node1&#45;&gt;Node5</title>
<path fill="none" stroke="midnightblue" d="M89.7068,-124C106.107,-124 124.889,-124 141.901,-124"/>
<polygon fill="midnightblue" stroke="midnightblue" points="142.228,-127.5 152.228,-124 142.228,-120.5 142.228,-127.5"/>
</g>
<!-- Node6 -->
<g id="node6" class="node"><title>Node6</title>
<g id="a_node6"><a xlink:href="mutt_2string_8c.html#aca11f88d08a860c07419df3efb18f35a" target="_top" xlink:title="Calculate the length of a string, safely. ">
<polygon fill="white" stroke="black" points="153,-76.5 153,-95.5 235,-95.5 235,-76.5 153,-76.5"/>
<text text-anchor="middle" x="194" y="-83.5" font-family="Helvetica,sans-Serif" font-size="10.00">mutt_str_strlen</text>
</a>
</g>
</g>
<!-- Node1&#45;&gt;Node6 -->
<g id="edge8" class="edge"><title>Node1&#45;&gt;Node6</title>
<path fill="none" stroke="midnightblue" d="M83.0943,-114.411C102.318,-109.442 125.986,-103.323 146.429,-98.0387"/>
<polygon fill="midnightblue" stroke="midnightblue" points="147.367,-101.412 156.172,-95.5201 145.615,-94.6343 147.367,-101.412"/>
</g>
<!-- Node7 -->
<g id="node7" class="node"><title>Node7</title>
<g id="a_node7"><a xlink:href="charset_8c.html#a4b347dd75af05a18dbe328c354c18fe8" target="_top" xlink:title="Canonicalise the charset of a string. ">
<polygon fill="white" stroke="red" points="126,-38.5 126,-57.5 262,-57.5 262,-38.5 126,-38.5"/>
<text text-anchor="middle" x="194" y="-45.5" font-family="Helvetica,sans-Serif" font-size="10.00">mutt_ch_canonical_charset</text>
</a>
</g>
</g>
<!-- Node1&#45;&gt;Node7 -->
<g id="edge9" class="edge"><title>Node1&#45;&gt;Node7</title>
<path fill="none" stroke="midnightblue" d="M56.8789,-114.372C71.5916,-101.812 99.0972,-79.9192 126,-67 130.716,-64.7355 135.751,-62.6938 140.863,-60.8641"/>
<polygon fill="midnightblue" stroke="midnightblue" points="142.329,-64.0658 150.726,-57.6043 140.133,-57.4195 142.329,-64.0658"/>
</g>
<!-- Node8 -->
<g id="node8" class="node"><title>Node8</title>
<g id="a_node8"><a xlink:href="mutt_2string_8c.html#ad5b66f8059a202f7bfa5fc4fa3047c67" target="_top" xlink:title="Replace one string with another. ">
<polygon fill="white" stroke="red" points="149.5,-0.5 149.5,-19.5 238.5,-19.5 238.5,-0.5 149.5,-0.5"/>
<text text-anchor="middle" x="194" y="-7.5" font-family="Helvetica,sans-Serif" font-size="10.00">mutt_str_replace</text>
</a>
</g>
</g>
<!-- Node1&#45;&gt;Node8 -->
<g id="edge10" class="edge"><title>Node1&#45;&gt;Node8</title>
<path fill="none" stroke="midnightblue" d="M51.4465,-114.275C62.7523,-94.9943 90.6837,-51.8172 126,-29 130.27,-26.2412 134.945,-23.8761 139.776,-21.8498"/>
<polygon fill="midnightblue" stroke="midnightblue" points="141.037,-25.1154 149.195,-18.3562 138.602,-18.5523 141.037,-25.1154"/>
</g>
<!-- Node3&#45;&gt;Node2 -->
<g id="edge3" class="edge"><title>Node3&#45;&gt;Node2</title>
<path fill="none" stroke="midnightblue" d="M247.389,-193.408C260.557,-191.751 274.764,-189.964 288.181,-188.275"/>
<polygon fill="midnightblue" stroke="midnightblue" points="288.772,-191.729 298.257,-187.007 287.898,-184.783 288.772,-191.729"/>
</g>
<!-- Node4&#45;&gt;Node2 -->
<g id="edge5" class="edge"><title>Node4&#45;&gt;Node2</title>
<path fill="none" stroke="midnightblue" d="M253.813,-169.4C265.098,-170.82 276.907,-172.306 288.161,-173.722"/>
<polygon fill="midnightblue" stroke="midnightblue" points="287.951,-177.223 298.31,-174.999 288.825,-170.278 287.951,-177.223"/>
</g>
<!-- Node5&#45;&gt;Node2 -->
<g id="edge7" class="edge"><title>Node5&#45;&gt;Node2</title>
<path fill="none" stroke="midnightblue" d="M232.526,-133.582C242.219,-136.345 252.575,-139.553 262,-143 280.922,-149.92 301.545,-159.222 317.621,-166.89"/>
<polygon fill="midnightblue" stroke="midnightblue" points="316.461,-170.217 326.987,-171.418 319.507,-163.915 316.461,-170.217"/>
</g>
</g>
</svg>
