<?xml version="1.0" encoding="UTF-8" standalone="no"?>
<!DOCTYPE svg PUBLIC "-//W3C//DTD SVG 1.1//EN"
 "http://www.w3.org/Graphics/SVG/1.1/DTD/svg11.dtd">
<!-- Generated by graphviz version 2.36.0 (20140111.2315)
 -->
<!-- Title: mutt_ch_iconv Pages: 1 -->
<svg width="244pt" height="104pt"
 viewBox="0.00 0.00 244.00 104.00" xmlns="http://www.w3.org/2000/svg" xmlns:xlink="http://www.w3.org/1999/xlink">
<g id="graph0" class="graph" transform="scale(1 1) rotate(0) translate(4 100)">
<title>mutt_ch_iconv</title>
<polygon fill="white" stroke="none" points="-4,4 -4,-100 240,-100 240,4 -4,4"/>
<!-- Node1 -->
<g id="node1" class="node"><title>Node1</title>
<polygon fill="#bfbfbf" stroke="black" points="0,-38.5 0,-57.5 80,-57.5 80,-38.5 0,-38.5"/>
<text text-anchor="middle" x="40" y="-45.5" font-family="Helvetica,sans-Serif" font-size="10.00">mutt_ch_iconv</text>
</g>
<!-- Node2 -->
<g id="node2" class="node"><title>Node2</title>
<g id="a_node2"><a xlink:href="handler_8c.html#a5c6c2cd1f11389cb6a7af6e27d79dfc3" target="_top" xlink:title="Convert text and write it to a file. ">
<polygon fill="white" stroke="red" points="131.5,-76.5 131.5,-95.5 220.5,-95.5 220.5,-76.5 131.5,-76.5"/>
<text text-anchor="middle" x="176" y="-83.5" font-family="Helvetica,sans-Serif" font-size="10.00">convert_to_state</text>
</a>
</g>
</g>
<!-- Node1&#45;&gt;Node2 -->
<g id="edge1" class="edge"><title>Node1&#45;&gt;Node2</title>
<path fill="none" stroke="midnightblue" d="M84.4383,-60.3183C102.849,-65.5393 123.98,-71.5316 141.197,-76.4141"/>
<polygon fill="midnightblue" stroke="midnightblue" points="85.3894,-56.9501 74.8139,-57.589 83.4796,-63.6845 85.3894,-56.9501"/>
</g>
<!-- Node3 -->
<g id="node3" class="node"><title>Node3</title>
<g id="a_node3"><a xlink:href="charset_8h.html#ab7e77d77daee2304cbdabeb54bdb3e97" target="_top" xlink:title="Convert a string between encodings. ">
<polygon fill="white" stroke="red" points="116.5,-38.5 116.5,-57.5 235.5,-57.5 235.5,-38.5 116.5,-38.5"/>
<text text-anchor="middle" x="176" y="-45.5" font-family="Helvetica,sans-Serif" font-size="10.00">mutt_ch_convert_string</text>
</a>
</g>
</g>
<!-- Node1&#45;&gt;Node3 -->
<g id="edge2" class="edge"><title>Node1&#45;&gt;Node3</title>
<path fill="none" stroke="midnightblue" d="M90.2515,-48C98.7593,-48 107.679,-48 116.405,-48"/>
<polygon fill="midnightblue" stroke="midnightblue" points="90.1186,-44.5001 80.1186,-48 90.1185,-51.5001 90.1186,-44.5001"/>
</g>
<!-- Node4 -->
<g id="node4" class="node"><title>Node4</title>
<g id="a_node4"><a xlink:href="charset_8h.html#a90191f2589de2c605dd8c13b496ad3e1" target="_top" xlink:title="Convert a file&#39;s character set. ">
<polygon fill="white" stroke="red" points="128.5,-0.5 128.5,-19.5 223.5,-19.5 223.5,-0.5 128.5,-0.5"/>
<text text-anchor="middle" x="176" y="-7.5" font-family="Helvetica,sans-Serif" font-size="10.00">mutt_ch_fgetconv</text>
</a>
</g>
</g>
<!-- Node1&#45;&gt;Node4 -->
<g id="edge3" class="edge"><title>Node1&#45;&gt;Node4</title>
<path fill="none" stroke="midnightblue" d="M84.4383,-35.6817C102.849,-30.4607 123.98,-24.4684 141.197,-19.5859"/>
<polygon fill="midnightblue" stroke="midnightblue" points="83.4796,-32.3155 74.8139,-38.411 85.3894,-39.0499 83.4796,-32.3155"/>
</g>
</g>
</svg>
