<?xml version="1.0" encoding="UTF-8" standalone="no"?>
<!DOCTYPE svg PUBLIC "-//W3C//DTD SVG 1.1//EN"
 "http://www.w3.org/Graphics/SVG/1.1/DTD/svg11.dtd">
<!-- Generated by graphviz version 2.36.0 (20140111.2315)
 -->
<!-- Title: mutt_ch_canonical_charset Pages: 1 -->
<svg width="300pt" height="306pt"
 viewBox="0.00 0.00 300.00 306.00" xmlns="http://www.w3.org/2000/svg" xmlns:xlink="http://www.w3.org/1999/xlink">
<g id="graph0" class="graph" transform="scale(1 1) rotate(0) translate(4 302)">
<title>mutt_ch_canonical_charset</title>
<polygon fill="white" stroke="none" points="-4,4 -4,-302 296,-302 296,4 -4,4"/>
<!-- Node1 -->
<g id="node1" class="node"><title>Node1</title>
<polygon fill="#bfbfbf" stroke="black" points="0,-133.5 0,-152.5 136,-152.5 136,-133.5 0,-133.5"/>
<text text-anchor="middle" x="68" y="-140.5" font-family="Helvetica,sans-Serif" font-size="10.00">mutt_ch_canonical_charset</text>
</g>
<!-- Node2 -->
<g id="node2" class="node"><title>Node2</title>
<g id="a_node2"><a xlink:href="copy_8h.html#abab1732612a46d6e72e452b7ffef1b82" target="_top" xlink:title="Copy email header. ">
<polygon fill="white" stroke="red" points="183.5,-278.5 183.5,-297.5 280.5,-297.5 280.5,-278.5 183.5,-278.5"/>
<text text-anchor="middle" x="232" y="-285.5" font-family="Helvetica,sans-Serif" font-size="10.00">mutt_copy_header</text>
</a>
</g>
</g>
<!-- Node1&#45;&gt;Node2 -->
<g id="edge1" class="edge"><title>Node1&#45;&gt;Node2</title>
<path fill="none" stroke="midnightblue" d="M79.5176,-161.781C95.8316,-189.245 129.798,-240.219 172,-269 177.601,-272.82 184.018,-275.91 190.511,-278.399"/>
<polygon fill="midnightblue" stroke="midnightblue" points="82.3633,-159.71 74.3233,-152.81 76.3056,-163.218 82.3633,-159.71"/>
</g>
<!-- Node3 -->
<g id="node3" class="node"><title>Node3</title>
<g id="a_node3"><a xlink:href="charset_8h.html#aea5561f6489bbbbdfcdfb29e6f22b688" target="_top" xlink:title="Are the names of two character sets equivalent? ">
<polygon fill="white" stroke="black" points="186,-240.5 186,-259.5 278,-259.5 278,-240.5 186,-240.5"/>
<text text-anchor="middle" x="232" y="-247.5" font-family="Helvetica,sans-Serif" font-size="10.00">mutt_ch_chscmp</text>
</a>
</g>
</g>
<!-- Node1&#45;&gt;Node3 -->
<g id="edge2" class="edge"><title>Node1&#45;&gt;Node3</title>
<path fill="none" stroke="midnightblue" d="M85.0511,-159.962C104.153,-179.286 137.785,-210.677 172,-230 179.346,-234.149 187.692,-237.626 195.748,-240.456"/>
<polygon fill="midnightblue" stroke="midnightblue" points="87.4986,-157.459 78.0197,-152.726 82.4782,-162.337 87.4986,-157.459"/>
</g>
<!-- Node4 -->
<g id="node4" class="node"><title>Node4</title>
<g id="a_node4"><a xlink:href="charset_8h.html#a2f497381e4cc9d5a2a714fd8361d2604" target="_top" xlink:title="Get the user&#39;s choice of character set. ">
<polygon fill="white" stroke="red" points="177,-191 177,-221 287,-221 287,-191 177,-191"/>
<text text-anchor="start" x="185" y="-209" font-family="Helvetica,sans-Serif" font-size="10.00">mutt_ch_get_langinfo</text>
<text text-anchor="middle" x="232" y="-198" font-family="Helvetica,sans-Serif" font-size="10.00">_charset</text>
</a>
</g>
</g>
<!-- Node1&#45;&gt;Node4 -->
<g id="edge3" class="edge"><title>Node1&#45;&gt;Node4</title>
<path fill="none" stroke="midnightblue" d="M103.071,-156.25C129.137,-166.387 165.102,-180.373 192.261,-190.935"/>
<polygon fill="midnightblue" stroke="midnightblue" points="104.193,-152.931 93.6043,-152.568 101.656,-159.455 104.193,-152.931"/>
</g>
<!-- Node5 -->
<g id="node5" class="node"><title>Node5</title>
<g id="a_node5"><a xlink:href="charset_8h.html#aecf9659e09f009e78e428cd172439b7b" target="_top" xlink:title="Set up iconv for conversions. ">
<polygon fill="white" stroke="red" points="178.5,-152.5 178.5,-171.5 285.5,-171.5 285.5,-152.5 178.5,-152.5"/>
<text text-anchor="middle" x="232" y="-159.5" font-family="Helvetica,sans-Serif" font-size="10.00">mutt_ch_iconv_open</text>
</a>
</g>
</g>
<!-- Node1&#45;&gt;Node5 -->
<g id="edge4" class="edge"><title>Node1&#45;&gt;Node5</title>
<path fill="none" stroke="midnightblue" d="M146.268,-152.062C157.181,-153.342 168.183,-154.633 178.482,-155.84"/>
<polygon fill="midnightblue" stroke="midnightblue" points="146.635,-148.581 136.295,-150.893 145.819,-155.534 146.635,-148.581"/>
</g>
<!-- Node6 -->
<g id="node6" class="node"><title>Node6</title>
<g id="a_node6"><a xlink:href="charset_8h.html#a7bb46d6d31e21e8390de490c5894bfda" target="_top" xlink:title="Update the records for a new character set. ">
<polygon fill="white" stroke="red" points="178,-114.5 178,-133.5 286,-133.5 286,-114.5 178,-114.5"/>
<text text-anchor="middle" x="232" y="-121.5" font-family="Helvetica,sans-Serif" font-size="10.00">mutt_ch_set_charset</text>
</a>
</g>
</g>
<!-- Node1&#45;&gt;Node6 -->
<g id="edge5" class="edge"><title>Node1&#45;&gt;Node6</title>
<path fill="none" stroke="midnightblue" d="M146.475,-133.913C157.143,-132.662 167.893,-131.401 177.983,-130.218"/>
<polygon fill="midnightblue" stroke="midnightblue" points="145.819,-130.466 136.295,-135.107 146.635,-137.419 145.819,-130.466"/>
</g>
<!-- Node7 -->
<g id="node7" class="node"><title>Node7</title>
<g id="a_node7"><a xlink:href="charset_8h.html#a6b6d1b517fe97550d91168ec3085f30d" target="_top" xlink:title="Figure the best charset to encode a string. ">
<polygon fill="white" stroke="red" points="187.5,-76.5 187.5,-95.5 276.5,-95.5 276.5,-76.5 187.5,-76.5"/>
<text text-anchor="middle" x="232" y="-83.5" font-family="Helvetica,sans-Serif" font-size="10.00">mutt_ch_choose</text>
</a>
</g>
</g>
<!-- Node1&#45;&gt;Node7 -->
<g id="edge6" class="edge"><title>Node1&#45;&gt;Node7</title>
<path fill="none" stroke="midnightblue" d="M103.455,-129.878C123.405,-122.384 149.036,-112.93 172,-105 181.256,-101.804 191.387,-98.479 200.601,-95.521"/>
<polygon fill="midnightblue" stroke="midnightblue" points="101.993,-126.689 93.871,-133.492 104.463,-133.239 101.993,-126.689"/>
</g>
<!-- Node8 -->
<g id="node8" class="node"><title>Node8</title>
<g id="a_node8"><a xlink:href="sendlib_8h.html#a0ca26551c77ac46f69710b91eec6675e" target="_top" xlink:title="Analyze file to determine MIME encoding to use. ">
<polygon fill="white" stroke="red" points="175.5,-38.5 175.5,-57.5 288.5,-57.5 288.5,-38.5 175.5,-38.5"/>
<text text-anchor="middle" x="232" y="-45.5" font-family="Helvetica,sans-Serif" font-size="10.00">mutt_get_content_info</text>
</a>
</g>
</g>
<!-- Node1&#45;&gt;Node8 -->
<g id="edge7" class="edge"><title>Node1&#45;&gt;Node8</title>
<path fill="none" stroke="midnightblue" d="M87.2312,-126.661C106.922,-109.735 139.813,-83.4964 172,-67 179.182,-63.3188 187.22,-60.1638 194.996,-57.5426"/>
<polygon fill="midnightblue" stroke="midnightblue" points="84.8709,-124.075 79.6408,-133.289 89.4753,-129.348 84.8709,-124.075"/>
</g>
<!-- Node9 -->
<g id="node9" class="node"><title>Node9</title>
<g id="a_node9"><a xlink:href="sendlib_8h.html#a8465f41e6b0f0256527ca2404edfb762" target="_top" xlink:title="Get a body&#39;s character set. ">
<polygon fill="white" stroke="red" points="172.5,-0.5 172.5,-19.5 291.5,-19.5 291.5,-0.5 172.5,-0.5"/>
<text text-anchor="middle" x="232" y="-7.5" font-family="Helvetica,sans-Serif" font-size="10.00">mutt_body_get_charset</text>
</a>
</g>
</g>
<!-- Node1&#45;&gt;Node9 -->
<g id="edge8" class="edge"><title>Node1&#45;&gt;Node9</title>
<path fill="none" stroke="midnightblue" d="M80.9441,-124.6C98.1573,-99.4877 132.272,-54.6776 172,-29 177.874,-25.2031 184.569,-22.1094 191.29,-19.6066"/>
<polygon fill="midnightblue" stroke="midnightblue" points="77.8551,-122.922 75.1981,-133.178 83.6711,-126.818 77.8551,-122.922"/>
</g>
</g>
</svg>
