<?xml version="1.0" encoding="UTF-8" standalone="no"?>
<!DOCTYPE svg PUBLIC "-//W3C//DTD SVG 1.1//EN"
 "http://www.w3.org/Graphics/SVG/1.1/DTD/svg11.dtd">
<!-- Generated by graphviz version 2.36.0 (20140111.2315)
 -->
<!-- Title: mutt_ch_fgetconv_open Pages: 1 -->
<svg width="440pt" height="248pt"
 viewBox="0.00 0.00 440.00 248.00" xmlns="http://www.w3.org/2000/svg" xmlns:xlink="http://www.w3.org/1999/xlink">
<g id="graph0" class="graph" transform="scale(1 1) rotate(0) translate(4 244)">
<title>mutt_ch_fgetconv_open</title>
<polygon fill="white" stroke="none" points="-4,4 -4,-244 436,-244 436,4 -4,4"/>
<!-- Node1 -->
<g id="node1" class="node"><title>Node1</title>
<polygon fill="#bfbfbf" stroke="black" points="0.5,-125.5 0.5,-144.5 121.5,-144.5 121.5,-125.5 0.5,-125.5"/>
<text text-anchor="middle" x="61" y="-132.5" font-family="Helvetica,sans-Serif" font-size="10.00">mutt_ch_fgetconv_open</text>
</g>
<!-- Node2 -->
<g id="node2" class="node"><title>Node2</title>
<g id="a_node2"><a xlink:href="crypt__gpgme_8c.html#ab66d572be0c35eeb6c5247ecd94b2fcc" target="_top" xlink:title="Copy a clearsigned message. ">
<polygon fill="white" stroke="black" points="171,-220.5 171,-239.5 263,-239.5 263,-220.5 171,-220.5"/>
<text text-anchor="middle" x="217" y="-227.5" font-family="Helvetica,sans-Serif" font-size="10.00">copy_clearsigned</text>
</a>
</g>
</g>
<!-- Node1&#45;&gt;Node2 -->
<g id="edge1" class="edge"><title>Node1&#45;&gt;Node2</title>
<path fill="none" stroke="midnightblue" d="M80.9604,-151.212C99.6676,-166.664 129.52,-189.898 158,-206 167.771,-211.524 179.068,-216.488 189.082,-220.449"/>
<polygon fill="midnightblue" stroke="midnightblue" points="83.1098,-148.447 73.1944,-144.713 78.6176,-153.815 83.1098,-148.447"/>
</g>
<!-- Node3 -->
<g id="node3" class="node"><title>Node3</title>
<g id="a_node3"><a xlink:href="crypt__gpgme_8h.html#af9f3a30e035954c5624c3d673819a597" target="_top" xlink:title="Implements CryptModuleSpecs::application_handler() ">
<polygon fill="white" stroke="black" points="312.5,-189 312.5,-219 431.5,-219 431.5,-189 312.5,-189"/>
<text text-anchor="start" x="320.5" y="-207" font-family="Helvetica,sans-Serif" font-size="10.00">pgp_gpgme_application</text>
<text text-anchor="middle" x="372" y="-196" font-family="Helvetica,sans-Serif" font-size="10.00">_handler</text>
</a>
</g>
</g>
<!-- Node1&#45;&gt;Node3 -->
<g id="edge3" class="edge"><title>Node1&#45;&gt;Node3</title>
<path fill="none" stroke="midnightblue" d="M91.3024,-148.66C110.013,-156.862 134.993,-166.862 158,-173 209.27,-186.678 269.198,-194.72 312.404,-199.17"/>
<polygon fill="midnightblue" stroke="midnightblue" points="92.6915,-145.447 82.1334,-144.565 89.8371,-151.839 92.6915,-145.447"/>
</g>
<!-- Node4 -->
<g id="node4" class="node"><title>Node4</title>
<g id="a_node4"><a xlink:href="pgp_8c.html#ac24e944daf0a1b1740ce5af55fb6c84b" target="_top" xlink:title="Copy a clearsigned message, stripping the signature. ">
<polygon fill="white" stroke="black" points="160.5,-144.5 160.5,-163.5 273.5,-163.5 273.5,-144.5 160.5,-144.5"/>
<text text-anchor="middle" x="217" y="-151.5" font-family="Helvetica,sans-Serif" font-size="10.00">pgp_copy_clearsigned</text>
</a>
</g>
</g>
<!-- Node1&#45;&gt;Node4 -->
<g id="edge4" class="edge"><title>Node1&#45;&gt;Node4</title>
<path fill="none" stroke="midnightblue" d="M131.535,-143.579C141.205,-144.772 151.034,-145.985 160.403,-147.141"/>
<polygon fill="midnightblue" stroke="midnightblue" points="131.894,-140.097 121.54,-142.346 131.037,-147.044 131.894,-140.097"/>
</g>
<!-- Node5 -->
<g id="node5" class="node"><title>Node5</title>
<g id="a_node5"><a xlink:href="pgp_8h.html#aa55c76c8d08b0720d97cdb6360440f78" target="_top" xlink:title="Implements CryptModuleSpecs::application_handler() ">
<polygon fill="white" stroke="black" points="315.5,-127 315.5,-157 428.5,-157 428.5,-127 315.5,-127"/>
<text text-anchor="start" x="323.5" y="-145" font-family="Helvetica,sans-Serif" font-size="10.00">pgp_class_application</text>
<text text-anchor="middle" x="372" y="-134" font-family="Helvetica,sans-Serif" font-size="10.00">_handler</text>
</a>
</g>
</g>
<!-- Node1&#45;&gt;Node5 -->
<g id="edge6" class="edge"><title>Node1&#45;&gt;Node5</title>
<path fill="none" stroke="midnightblue" d="M131.611,-133.707C173.473,-133.252 227.809,-133.227 276,-135 288.725,-135.468 302.39,-136.288 315.278,-137.206"/>
<polygon fill="midnightblue" stroke="midnightblue" points="131.478,-130.209 121.521,-133.828 131.562,-137.208 131.478,-130.209"/>
</g>
<!-- Node6 -->
<g id="node6" class="node"><title>Node6</title>
<g id="a_node6"><a xlink:href="pgp_8h.html#ac9cc11180d20f595eeffa36d236d5e23" target="_top" xlink:title="Implements CryptModuleSpecs::pgp_traditional_encryptsign() ">
<polygon fill="white" stroke="black" points="163,-57 163,-87 271,-87 271,-57 163,-57"/>
<text text-anchor="start" x="171" y="-75" font-family="Helvetica,sans-Serif" font-size="10.00">pgp_class_traditional</text>
<text text-anchor="middle" x="217" y="-64" font-family="Helvetica,sans-Serif" font-size="10.00">_encryptsign</text>
</a>
</g>
</g>
<!-- Node1&#45;&gt;Node6 -->
<g id="edge7" class="edge"><title>Node1&#45;&gt;Node6</title>
<path fill="none" stroke="midnightblue" d="M94.7164,-121.616C119.469,-111.49 153.47,-97.5805 179.174,-87.065"/>
<polygon fill="midnightblue" stroke="midnightblue" points="93.3195,-118.406 85.3893,-125.432 95.97,-124.885 93.3195,-118.406"/>
</g>
<!-- Node7 -->
<g id="node7" class="node"><title>Node7</title>
<g id="a_node7"><a xlink:href="sendlib_8h.html#a96e81f3dcb5a6c959a95ad70024cc2ec" target="_top" xlink:title="Write a MIME part. ">
<polygon fill="white" stroke="red" points="158,-0.5 158,-19.5 276,-19.5 276,-0.5 158,-0.5"/>
<text text-anchor="middle" x="217" y="-7.5" font-family="Helvetica,sans-Serif" font-size="10.00">mutt_write_mime_body</text>
</a>
</g>
</g>
<!-- Node1&#45;&gt;Node7 -->
<g id="edge8" class="edge"><title>Node1&#45;&gt;Node7</title>
<path fill="none" stroke="midnightblue" d="M78.8066,-118.275C97.4359,-100.1 128.728,-70.6308 158,-48 171.619,-37.4709 188.121,-26.8478 200.035,-19.521"/>
<polygon fill="midnightblue" stroke="midnightblue" points="76.318,-115.814 71.6407,-125.32 81.2255,-120.806 76.318,-115.814"/>
</g>
<!-- Node2&#45;&gt;Node3 -->
<g id="edge2" class="edge"><title>Node2&#45;&gt;Node3</title>
<path fill="none" stroke="midnightblue" d="M273.084,-220.639C285.83,-218.473 299.439,-216.161 312.332,-213.97"/>
<polygon fill="midnightblue" stroke="midnightblue" points="272.35,-217.214 263.078,-222.34 273.523,-224.115 272.35,-217.214"/>
</g>
<!-- Node4&#45;&gt;Node5 -->
<g id="edge5" class="edge"><title>Node4&#45;&gt;Node5</title>
<path fill="none" stroke="midnightblue" d="M283.68,-148.849C294.239,-148.02 305.078,-147.17 315.372,-146.363"/>
<polygon fill="midnightblue" stroke="midnightblue" points="283.365,-145.362 273.669,-149.634 283.912,-152.341 283.365,-145.362"/>
</g>
<!-- Node7&#45;&gt;Node7 -->
<g id="edge9" class="edge"><title>Node7&#45;&gt;Node7</title>
<path fill="none" stroke="midnightblue" d="M188.254,-28.6539C189.456,-33.9368 199.038,-38 217,-38 244.371,-38 252.283,-28.5653 240.736,-19.7571"/>
<polygon fill="midnightblue" stroke="midnightblue" points="191.407,-30.1879 193.264,-19.7571 185.308,-26.7532 191.407,-30.1879"/>
</g>
</g>
</svg>
