<?xml version="1.0" encoding="UTF-8" standalone="no"?>
<!DOCTYPE svg PUBLIC "-//W3C//DTD SVG 1.1//EN"
 "http://www.w3.org/Graphics/SVG/1.1/DTD/svg11.dtd">
<!-- Generated by graphviz version 2.36.0 (20140111.2315)
 -->
<!-- Title: mutt_ch_choose Pages: 1 -->
<svg width="334pt" height="47pt"
 viewBox="0.00 0.00 334.00 47.00" xmlns="http://www.w3.org/2000/svg" xmlns:xlink="http://www.w3.org/1999/xlink">
<g id="graph0" class="graph" transform="scale(1 1) rotate(0) translate(4 43)">
<title>mutt_ch_choose</title>
<polygon fill="white" stroke="none" points="-4,4 -4,-43 330,-43 330,4 -4,4"/>
<!-- Node1 -->
<g id="node1" class="node"><title>Node1</title>
<polygon fill="#bfbfbf" stroke="black" points="0.5,-0.5 0.5,-19.5 89.5,-19.5 89.5,-0.5 0.5,-0.5"/>
<text text-anchor="middle" x="45" y="-7.5" font-family="Helvetica,sans-Serif" font-size="10.00">mutt_ch_choose</text>
</g>
<!-- Node2 -->
<g id="node2" class="node"><title>Node2</title>
<g id="a_node2"><a xlink:href="email_2rfc2047_8c.html#ad304a6e40f646f43a411b649f960b306" target="_top" xlink:title="RFC2047&#45;encode a string. ">
<polygon fill="white" stroke="red" points="126,-19.5 126,-38.5 174,-38.5 174,-19.5 126,-19.5"/>
<text text-anchor="middle" x="150" y="-26.5" font-family="Helvetica,sans-Serif" font-size="10.00">encode</text>
</a>
</g>
</g>
<!-- Node1&#45;&gt;Node2 -->
<g id="edge1" class="edge"><title>Node1&#45;&gt;Node2</title>
<path fill="none" stroke="midnightblue" d="M99.6311,-19.8931C108.819,-21.588 117.916,-23.2661 125.75,-24.7112"/>
<polygon fill="midnightblue" stroke="midnightblue" points="100.15,-16.4299 89.6813,-18.0577 98.8804,-23.3138 100.15,-16.4299"/>
</g>
<!-- Node3 -->
<g id="node3" class="node"><title>Node3</title>
<g id="a_node3"><a xlink:href="rfc2231_8h.html#ac1aa83c6f3742edd57f20505ab9b445e" target="_top" xlink:title="Encode a string to be suitable for an RFC2231 header. ">
<polygon fill="white" stroke="red" points="210.5,-0.5 210.5,-19.5 325.5,-19.5 325.5,-0.5 210.5,-0.5"/>
<text text-anchor="middle" x="268" y="-7.5" font-family="Helvetica,sans-Serif" font-size="10.00">rfc2231_encode_string</text>
</a>
</g>
</g>
<!-- Node1&#45;&gt;Node3 -->
<g id="edge3" class="edge"><title>Node1&#45;&gt;Node3</title>
<path fill="none" stroke="midnightblue" d="M99.7403,-10C133.27,-10 176.37,-10 210.421,-10"/>
<polygon fill="midnightblue" stroke="midnightblue" points="99.6625,-6.5001 89.6625,-10 99.6625,-13.5001 99.6625,-6.5001"/>
</g>
<!-- Node2&#45;&gt;Node3 -->
<g id="edge2" class="edge"><title>Node2&#45;&gt;Node3</title>
<path fill="none" stroke="midnightblue" d="M184.067,-23.5839C192.257,-22.2424 201.266,-20.7668 210.236,-19.2976"/>
<polygon fill="midnightblue" stroke="midnightblue" points="183.498,-20.1303 174.196,-25.2007 184.63,-27.0382 183.498,-20.1303"/>
</g>
</g>
</svg>
