<?xml version="1.0" encoding="UTF-8" standalone="no"?>
<!DOCTYPE svg PUBLIC "-//W3C//DTD SVG 1.1//EN"
 "http://www.w3.org/Graphics/SVG/1.1/DTD/svg11.dtd">
<!-- Generated by graphviz version 2.36.0 (20140111.2315)
 -->
<!-- Title: mutt_ch_fgetconv_close Pages: 1 -->
<svg width="442pt" height="248pt"
 viewBox="0.00 0.00 442.00 248.00" xmlns="http://www.w3.org/2000/svg" xmlns:xlink="http://www.w3.org/1999/xlink">
<g id="graph0" class="graph" transform="scale(1 1) rotate(0) translate(4 244)">
<title>mutt_ch_fgetconv_close</title>
<polygon fill="white" stroke="none" points="-4,4 -4,-244 438,-244 438,4 -4,4"/>
<!-- Node1 -->
<g id="node1" class="node"><title>Node1</title>
<polygon fill="#bfbfbf" stroke="black" points="0.5,-125.5 0.5,-144.5 123.5,-144.5 123.5,-125.5 0.5,-125.5"/>
<text text-anchor="middle" x="62" y="-132.5" font-family="Helvetica,sans-Serif" font-size="10.00">mutt_ch_fgetconv_close</text>
</g>
<!-- Node2 -->
<g id="node2" class="node"><title>Node2</title>
<g id="a_node2"><a xlink:href="crypt__gpgme_8c.html#ab66d572be0c35eeb6c5247ecd94b2fcc" target="_top" xlink:title="Copy a clearsigned message. ">
<polygon fill="white" stroke="black" points="173,-220.5 173,-239.5 265,-239.5 265,-220.5 173,-220.5"/>
<text text-anchor="middle" x="219" y="-227.5" font-family="Helvetica,sans-Serif" font-size="10.00">copy_clearsigned</text>
</a>
</g>
</g>
<!-- Node1&#45;&gt;Node2 -->
<g id="edge1" class="edge"><title>Node1&#45;&gt;Node2</title>
<path fill="none" stroke="midnightblue" d="M82.1864,-151.195C101.109,-166.635 131.287,-189.86 160,-206 169.785,-211.5 181.085,-216.459 191.097,-220.423"/>
<polygon fill="midnightblue" stroke="midnightblue" points="84.2678,-148.375 74.3297,-144.703 79.8086,-153.771 84.2678,-148.375"/>
</g>
<!-- Node3 -->
<g id="node3" class="node"><title>Node3</title>
<g id="a_node3"><a xlink:href="crypt__gpgme_8h.html#af9f3a30e035954c5624c3d673819a597" target="_top" xlink:title="Implements CryptModuleSpecs::application_handler() ">
<polygon fill="white" stroke="black" points="314.5,-189 314.5,-219 433.5,-219 433.5,-189 314.5,-189"/>
<text text-anchor="start" x="322.5" y="-207" font-family="Helvetica,sans-Serif" font-size="10.00">pgp_gpgme_application</text>
<text text-anchor="middle" x="374" y="-196" font-family="Helvetica,sans-Serif" font-size="10.00">_handler</text>
</a>
</g>
</g>
<!-- Node1&#45;&gt;Node3 -->
<g id="edge3" class="edge"><title>Node1&#45;&gt;Node3</title>
<path fill="none" stroke="midnightblue" d="M92.6225,-148.65C111.533,-156.848 136.774,-166.848 160,-173 211.294,-186.588 271.22,-194.64 314.419,-199.116"/>
<polygon fill="midnightblue" stroke="midnightblue" points="93.9163,-145.396 83.3547,-144.558 91.0886,-151.799 93.9163,-145.396"/>
</g>
<!-- Node4 -->
<g id="node4" class="node"><title>Node4</title>
<g id="a_node4"><a xlink:href="pgp_8c.html#ac24e944daf0a1b1740ce5af55fb6c84b" target="_top" xlink:title="Copy a clearsigned message, stripping the signature. ">
<polygon fill="white" stroke="black" points="162.5,-144.5 162.5,-163.5 275.5,-163.5 275.5,-144.5 162.5,-144.5"/>
<text text-anchor="middle" x="219" y="-151.5" font-family="Helvetica,sans-Serif" font-size="10.00">pgp_copy_clearsigned</text>
</a>
</g>
</g>
<!-- Node1&#45;&gt;Node4 -->
<g id="edge4" class="edge"><title>Node1&#45;&gt;Node4</title>
<path fill="none" stroke="midnightblue" d="M133.755,-143.673C143.366,-144.851 153.117,-146.047 162.409,-147.186"/>
<polygon fill="midnightblue" stroke="midnightblue" points="134.167,-140.198 123.815,-142.455 133.315,-147.146 134.167,-140.198"/>
</g>
<!-- Node5 -->
<g id="node5" class="node"><title>Node5</title>
<g id="a_node5"><a xlink:href="pgp_8h.html#aa55c76c8d08b0720d97cdb6360440f78" target="_top" xlink:title="Implements CryptModuleSpecs::application_handler() ">
<polygon fill="white" stroke="black" points="317.5,-127 317.5,-157 430.5,-157 430.5,-127 317.5,-127"/>
<text text-anchor="start" x="325.5" y="-145" font-family="Helvetica,sans-Serif" font-size="10.00">pgp_class_application</text>
<text text-anchor="middle" x="374" y="-134" font-family="Helvetica,sans-Serif" font-size="10.00">_handler</text>
</a>
</g>
</g>
<!-- Node1&#45;&gt;Node5 -->
<g id="edge6" class="edge"><title>Node1&#45;&gt;Node5</title>
<path fill="none" stroke="midnightblue" d="M133.836,-133.692C175.77,-133.243 229.929,-133.231 278,-135 290.725,-135.468 304.39,-136.288 317.278,-137.206"/>
<polygon fill="midnightblue" stroke="midnightblue" points="133.681,-130.193 123.723,-133.811 133.763,-137.193 133.681,-130.193"/>
</g>
<!-- Node6 -->
<g id="node6" class="node"><title>Node6</title>
<g id="a_node6"><a xlink:href="pgp_8h.html#ac9cc11180d20f595eeffa36d236d5e23" target="_top" xlink:title="Implements CryptModuleSpecs::pgp_traditional_encryptsign() ">
<polygon fill="white" stroke="black" points="165,-57 165,-87 273,-87 273,-57 165,-57"/>
<text text-anchor="start" x="173" y="-75" font-family="Helvetica,sans-Serif" font-size="10.00">pgp_class_traditional</text>
<text text-anchor="middle" x="219" y="-64" font-family="Helvetica,sans-Serif" font-size="10.00">_encryptsign</text>
</a>
</g>
</g>
<!-- Node1&#45;&gt;Node6 -->
<g id="edge7" class="edge"><title>Node1&#45;&gt;Node6</title>
<path fill="none" stroke="midnightblue" d="M95.9288,-121.616C120.842,-111.49 155.064,-97.5805 180.935,-87.065"/>
<polygon fill="midnightblue" stroke="midnightblue" points="94.4873,-118.424 86.5412,-125.432 97.1231,-124.909 94.4873,-118.424"/>
</g>
<!-- Node7 -->
<g id="node7" class="node"><title>Node7</title>
<g id="a_node7"><a xlink:href="sendlib_8h.html#a96e81f3dcb5a6c959a95ad70024cc2ec" target="_top" xlink:title="Write a MIME part. ">
<polygon fill="white" stroke="red" points="160,-0.5 160,-19.5 278,-19.5 278,-0.5 160,-0.5"/>
<text text-anchor="middle" x="219" y="-7.5" font-family="Helvetica,sans-Serif" font-size="10.00">mutt_write_mime_body</text>
</a>
</g>
</g>
<!-- Node1&#45;&gt;Node7 -->
<g id="edge8" class="edge"><title>Node1&#45;&gt;Node7</title>
<path fill="none" stroke="midnightblue" d="M80.0118,-118.296C98.8612,-100.139 130.501,-70.6845 160,-48 173.646,-37.506 190.145,-26.8788 202.051,-19.5415"/>
<polygon fill="midnightblue" stroke="midnightblue" points="77.499,-115.857 72.7601,-125.333 82.374,-120.881 77.499,-115.857"/>
</g>
<!-- Node2&#45;&gt;Node3 -->
<g id="edge2" class="edge"><title>Node2&#45;&gt;Node3</title>
<path fill="none" stroke="midnightblue" d="M275.084,-220.639C287.83,-218.473 301.439,-216.161 314.332,-213.97"/>
<polygon fill="midnightblue" stroke="midnightblue" points="274.35,-217.214 265.078,-222.34 275.523,-224.115 274.35,-217.214"/>
</g>
<!-- Node4&#45;&gt;Node5 -->
<g id="edge5" class="edge"><title>Node4&#45;&gt;Node5</title>
<path fill="none" stroke="midnightblue" d="M285.68,-148.849C296.239,-148.02 307.078,-147.17 317.372,-146.363"/>
<polygon fill="midnightblue" stroke="midnightblue" points="285.365,-145.362 275.669,-149.634 285.912,-152.341 285.365,-145.362"/>
</g>
<!-- Node7&#45;&gt;Node7 -->
<g id="edge9" class="edge"><title>Node7&#45;&gt;Node7</title>
<path fill="none" stroke="midnightblue" d="M190.254,-28.6539C191.456,-33.9368 201.038,-38 219,-38 246.371,-38 254.283,-28.5653 242.736,-19.7571"/>
<polygon fill="midnightblue" stroke="midnightblue" points="193.407,-30.1879 195.264,-19.7571 187.308,-26.7532 193.407,-30.1879"/>
</g>
</g>
</svg>
