<?xml version="1.0" encoding="UTF-8" standalone="no"?>
<!DOCTYPE svg PUBLIC "-//W3C//DTD SVG 1.1//EN"
 "http://www.w3.org/Graphics/SVG/1.1/DTD/svg11.dtd">
<!-- Generated by graphviz version 2.36.0 (20140111.2315)
 -->
<!-- Title: mutt_parse_mono Pages: 1 -->
<svg width="226pt" height="66pt"
 viewBox="0.00 0.00 226.00 66.00" xmlns="http://www.w3.org/2000/svg" xmlns:xlink="http://www.w3.org/1999/xlink">
<g id="graph0" class="graph" transform="scale(1 1) rotate(0) translate(4 62)">
<title>mutt_parse_mono</title>
<polygon fill="white" stroke="none" points="-4,4 -4,-62 222,-62 222,4 -4,4"/>
<!-- Node1 -->
<g id="node1" class="node"><title>Node1</title>
<polygon fill="#bfbfbf" stroke="black" points="0.5,-19.5 0.5,-38.5 95.5,-38.5 95.5,-19.5 0.5,-19.5"/>
<text text-anchor="middle" x="48" y="-26.5" font-family="Helvetica,sans-Serif" font-size="10.00">mutt_parse_mono</text>
</g>
<!-- Node2 -->
<g id="node2" class="node"><title>Node2</title>
<g id="a_node2"><a xlink:href="color_8c.html#aa2a97fcd77f1ddb29de20df898d81d17" target="_top" xlink:title="Parse a &quot;color&quot; command. ">
<polygon fill="white" stroke="red" points="141.5,-38.5 141.5,-57.5 208.5,-57.5 208.5,-38.5 141.5,-38.5"/>
<text text-anchor="middle" x="175" y="-45.5" font-family="Helvetica,sans-Serif" font-size="10.00">parse_color</text>
</a>
</g>
</g>
<!-- Node1&#45;&gt;Node2 -->
<g id="edge1" class="edge"><title>Node1&#45;&gt;Node2</title>
<path fill="none" stroke="midnightblue" d="M95.5454,-36.0749C107.237,-37.852 119.727,-39.7505 131.225,-41.4982"/>
<polygon fill="midnightblue" stroke="midnightblue" points="131.041,-45.0104 141.453,-43.0529 132.093,-38.0899 131.041,-45.0104"/>
</g>
<!-- Node3 -->
<g id="node3" class="node"><title>Node3</title>
<g id="a_node3"><a xlink:href="color_8c.html#a47198bd753fead2d85a226386620e564" target="_top" xlink:title="Parse an attribute description &#45; Implements parser_callback_t. ">
<polygon fill="white" stroke="red" points="132,-0.5 132,-19.5 218,-19.5 218,-0.5 132,-0.5"/>
<text text-anchor="middle" x="175" y="-7.5" font-family="Helvetica,sans-Serif" font-size="10.00">parse_attr_spec</text>
</a>
</g>
</g>
<!-- Node1&#45;&gt;Node3 -->
<g id="edge2" class="edge"><title>Node1&#45;&gt;Node3</title>
<path fill="none" stroke="midnightblue" d="M95.5454,-21.9251C104.127,-20.6208 113.138,-19.2511 121.871,-17.9236"/>
<polygon fill="midnightblue" stroke="midnightblue" points="122.592,-21.3542 131.953,-16.3912 121.54,-14.4337 122.592,-21.3542"/>
</g>
</g>
</svg>
