<?xml version="1.0" encoding="UTF-8" standalone="no"?>
<!DOCTYPE svg PUBLIC "-//W3C//DTD SVG 1.1//EN"
 "http://www.w3.org/Graphics/SVG/1.1/DTD/svg11.dtd">
<!-- Generated by graphviz version 2.36.0 (20140111.2315)
 -->
<!-- Title: ci_start_color Pages: 1 -->
<svg width="192pt" height="28pt"
 viewBox="0.00 0.00 192.00 28.00" xmlns="http://www.w3.org/2000/svg" xmlns:xlink="http://www.w3.org/1999/xlink">
<g id="graph0" class="graph" transform="scale(1 1) rotate(0) translate(4 24)">
<title>ci_start_color</title>
<polygon fill="white" stroke="none" points="-4,4 -4,-24 188,-24 188,4 -4,4"/>
<!-- Node1 -->
<g id="node1" class="node"><title>Node1</title>
<polygon fill="#bfbfbf" stroke="black" points="0.5,-0.5 0.5,-19.5 75.5,-19.5 75.5,-0.5 0.5,-0.5"/>
<text text-anchor="middle" x="38" y="-7.5" font-family="Helvetica,sans-Serif" font-size="10.00">ci_start_color</text>
</g>
<!-- Node2 -->
<g id="node2" class="node"><title>Node2</title>
<g id="a_node2"><a xlink:href="main_8c.html#a89dfa0cebc094eedb2f4855e6db352ca" target="_top" xlink:title="Start the curses or slang UI. ">
<polygon fill="white" stroke="red" points="112.5,-0.5 112.5,-19.5 183.5,-19.5 183.5,-0.5 112.5,-0.5"/>
<text text-anchor="middle" x="148" y="-7.5" font-family="Helvetica,sans-Serif" font-size="10.00">start_curses</text>
</a>
</g>
</g>
<!-- Node1&#45;&gt;Node2 -->
<g id="edge1" class="edge"><title>Node1&#45;&gt;Node2</title>
<path fill="none" stroke="midnightblue" d="M85.8204,-10C94.7113,-10 103.866,-10 112.299,-10"/>
<polygon fill="midnightblue" stroke="midnightblue" points="85.5639,-6.5001 75.5639,-10 85.5638,-13.5001 85.5639,-6.5001"/>
</g>
</g>
</svg>
