<?xml version="1.0" encoding="UTF-8" standalone="no"?>
<!DOCTYPE svg PUBLIC "-//W3C//DTD SVG 1.1//EN"
 "http://www.w3.org/Graphics/SVG/1.1/DTD/svg11.dtd">
<!-- Generated by graphviz version 2.36.0 (20140111.2315)
 -->
<!-- Title: set_copy_flags Pages: 1 -->
<svg width="268pt" height="115pt"
 viewBox="0.00 0.00 268.00 115.00" xmlns="http://www.w3.org/2000/svg" xmlns:xlink="http://www.w3.org/1999/xlink">
<g id="graph0" class="graph" transform="scale(1 1) rotate(0) translate(4 111)">
<title>set_copy_flags</title>
<polygon fill="white" stroke="none" points="-4,4 -4,-111 264,-111 264,4 -4,4"/>
<!-- Node1 -->
<g id="node1" class="node"><title>Node1</title>
<polygon fill="#bfbfbf" stroke="black" points="0.5,-49.5 0.5,-68.5 83.5,-68.5 83.5,-49.5 0.5,-49.5"/>
<text text-anchor="middle" x="42" y="-56.5" font-family="Helvetica,sans-Serif" font-size="10.00">set_copy_flags</text>
</g>
<!-- Node2 -->
<g id="node2" class="node"><title>Node2</title>
<g id="a_node2"><a xlink:href="crypt_8c.html#ad25b7a6f1ca21e0c78215cd31a5f8c5b" target="_top" xlink:title="Does the message have encrypted parts? ">
<polygon fill="white" stroke="red" points="120,-87.5 120,-106.5 260,-106.5 260,-87.5 120,-87.5"/>
<text text-anchor="middle" x="190" y="-94.5" font-family="Helvetica,sans-Serif" font-size="10.00">mutt_is_multipart_encrypted</text>
</a>
</g>
</g>
<!-- Node1&#45;&gt;Node2 -->
<g id="edge1" class="edge"><title>Node1&#45;&gt;Node2</title>
<path fill="none" stroke="midnightblue" d="M79.842,-68.589C98.8479,-73.5358 122.229,-79.6211 142.469,-84.8892"/>
<polygon fill="midnightblue" stroke="midnightblue" points="141.864,-88.3482 152.423,-87.4799 143.627,-81.5739 141.864,-88.3482"/>
</g>
<!-- Node3 -->
<g id="node3" class="node"><title>Node3</title>
<g id="a_node3"><a xlink:href="crypt_8c.html#a48685463993d7c829855e1f92b7e5f29" target="_top" xlink:title="Does the message use PGP? ">
<polygon fill="white" stroke="red" points="129,-49.5 129,-68.5 251,-68.5 251,-49.5 129,-49.5"/>
<text text-anchor="middle" x="190" y="-56.5" font-family="Helvetica,sans-Serif" font-size="10.00">mutt_is_application_pgp</text>
</a>
</g>
</g>
<!-- Node1&#45;&gt;Node3 -->
<g id="edge2" class="edge"><title>Node1&#45;&gt;Node3</title>
<path fill="none" stroke="midnightblue" d="M83.6691,-59C94.6116,-59 106.769,-59 118.823,-59"/>
<polygon fill="midnightblue" stroke="midnightblue" points="118.895,-62.5001 128.895,-59 118.895,-55.5001 118.895,-62.5001"/>
</g>
<!-- Node4 -->
<g id="node4" class="node"><title>Node4</title>
<g id="a_node4"><a xlink:href="crypt_8c.html#a1d2bf368c209730b1f196b860dbbc01f" target="_top" xlink:title="Does the message use S/MIME? ">
<polygon fill="white" stroke="red" points="139.5,-0 139.5,-30 240.5,-30 240.5,-0 139.5,-0"/>
<text text-anchor="start" x="147.5" y="-18" font-family="Helvetica,sans-Serif" font-size="10.00">mutt_is_application</text>
<text text-anchor="middle" x="190" y="-7" font-family="Helvetica,sans-Serif" font-size="10.00">_smime</text>
</a>
</g>
</g>
<!-- Node1&#45;&gt;Node4 -->
<g id="edge3" class="edge"><title>Node1&#45;&gt;Node4</title>
<path fill="none" stroke="midnightblue" d="M74.6798,-49.4527C90.7488,-44.6099 110.801,-38.5669 129.604,-32.9001"/>
<polygon fill="midnightblue" stroke="midnightblue" points="130.731,-36.2161 139.296,-29.9794 128.711,-29.5138 130.731,-36.2161"/>
</g>
</g>
</svg>
