<?xml version="1.0" encoding="UTF-8" standalone="no"?>
<!DOCTYPE svg PUBLIC "-//W3C//DTD SVG 1.1//EN"
 "http://www.w3.org/Graphics/SVG/1.1/DTD/svg11.dtd">
<!-- Generated by graphviz version 2.36.0 (20140111.2315)
 -->
<!-- Title: log_listener Pages: 1 -->
<svg width="204pt" height="180pt"
 viewBox="0.00 0.00 204.00 180.00" xmlns="http://www.w3.org/2000/svg" xmlns:xlink="http://www.w3.org/1999/xlink">
<g id="graph0" class="graph" transform="scale(1 1) rotate(0) translate(4 176)">
<title>log_listener</title>
<polygon fill="white" stroke="none" points="-4,4 -4,-176 200,-176 200,4 -4,4"/>
<!-- Node1 -->
<g id="node1" class="node"><title>Node1</title>
<polygon fill="#bfbfbf" stroke="black" points="0,-76.5 0,-95.5 66,-95.5 66,-76.5 0,-76.5"/>
<text text-anchor="middle" x="33" y="-83.5" font-family="Helvetica,sans-Serif" font-size="10.00">log_listener</text>
</g>
<!-- Node2 -->
<g id="node2" class="node"><title>Node2</title>
<g id="a_node2"><a xlink:href="buffer_8c.html#ab31dc6030636f826c60c65d143cb249d" target="_top" xlink:title="Initialise a new Buffer. ">
<polygon fill="white" stroke="black" points="107,-152.5 107,-171.5 191,-171.5 191,-152.5 107,-152.5"/>
<text text-anchor="middle" x="149" y="-159.5" font-family="Helvetica,sans-Serif" font-size="10.00">mutt_buffer_init</text>
</a>
</g>
</g>
<!-- Node1&#45;&gt;Node2 -->
<g id="edge1" class="edge"><title>Node1&#45;&gt;Node2</title>
<path fill="none" stroke="midnightblue" d="M43.4045,-95.5234C55.8991,-107.771 79.0746,-129.112 102,-143 105.141,-144.903 108.507,-146.697 111.936,-148.367"/>
<polygon fill="midnightblue" stroke="midnightblue" points="110.498,-151.558 121.052,-152.485 113.38,-145.179 110.498,-151.558"/>
</g>
<!-- Node3 -->
<g id="node3" class="node"><title>Node3</title>
<g id="a_node3"><a xlink:href="memory_8c.html#a4c1612d209c7825d55e6a014df352f03" target="_top" xlink:title="Allocate zeroed memory on the heap. ">
<polygon fill="white" stroke="red" points="102,-114.5 102,-133.5 196,-133.5 196,-114.5 102,-114.5"/>
<text text-anchor="middle" x="149" y="-121.5" font-family="Helvetica,sans-Serif" font-size="10.00">mutt_mem_calloc</text>
</a>
</g>
</g>
<!-- Node1&#45;&gt;Node3 -->
<g id="edge2" class="edge"><title>Node1&#45;&gt;Node3</title>
<path fill="none" stroke="midnightblue" d="M62.767,-95.589C76.9433,-100.314 94.2366,-106.079 109.532,-111.177"/>
<polygon fill="midnightblue" stroke="midnightblue" points="108.649,-114.572 119.242,-114.414 110.862,-107.931 108.649,-114.572"/>
</g>
<!-- Node4 -->
<g id="node4" class="node"><title>Node4</title>
<g id="a_node4"><a xlink:href="buffer_8c.html#a8da54c4ec8e1a4e21158f134441bdf2d" target="_top" xlink:title="Reset an existing Buffer. ">
<polygon fill="white" stroke="black" points="102.5,-76.5 102.5,-95.5 195.5,-95.5 195.5,-76.5 102.5,-76.5"/>
<text text-anchor="middle" x="149" y="-83.5" font-family="Helvetica,sans-Serif" font-size="10.00">mutt_buffer_reset</text>
</a>
</g>
</g>
<!-- Node1&#45;&gt;Node4 -->
<g id="edge3" class="edge"><title>Node1&#45;&gt;Node4</title>
<path fill="none" stroke="midnightblue" d="M66.0587,-86C74.193,-86 83.1714,-86 92.1132,-86"/>
<polygon fill="midnightblue" stroke="midnightblue" points="92.1464,-89.5001 102.146,-86 92.1464,-82.5001 92.1464,-89.5001"/>
</g>
<!-- Node5 -->
<g id="node5" class="node"><title>Node5</title>
<g id="a_node5"><a xlink:href="config_2set_8c.html#aae8bc50e36b926998d926687f97c8b48" target="_top" xlink:title="Get a config item as a string. ">
<polygon fill="white" stroke="red" points="103.5,-38.5 103.5,-57.5 194.5,-57.5 194.5,-38.5 103.5,-38.5"/>
<text text-anchor="middle" x="149" y="-45.5" font-family="Helvetica,sans-Serif" font-size="10.00">cs_he_string_get</text>
</a>
</g>
</g>
<!-- Node1&#45;&gt;Node5 -->
<g id="edge4" class="edge"><title>Node1&#45;&gt;Node5</title>
<path fill="none" stroke="midnightblue" d="M62.767,-76.411C76.9433,-71.6856 94.2366,-65.9211 109.532,-60.8226"/>
<polygon fill="midnightblue" stroke="midnightblue" points="110.862,-64.0687 119.242,-57.5859 108.649,-57.4279 110.862,-64.0687"/>
</g>
<!-- Node6 -->
<g id="node6" class="node"><title>Node6</title>
<g id="a_node6"><a xlink:href="config_2set_8c.html#adcbe5a0a3dbd9fb44afaaeb1546e6a6f" target="_top" xlink:title="Get the initial, or parent, value of a config item. ">
<polygon fill="white" stroke="red" points="104.5,-0.5 104.5,-19.5 193.5,-19.5 193.5,-0.5 104.5,-0.5"/>
<text text-anchor="middle" x="149" y="-7.5" font-family="Helvetica,sans-Serif" font-size="10.00">cs_he_initial_get</text>
</a>
</g>
</g>
<!-- Node1&#45;&gt;Node6 -->
<g id="edge5" class="edge"><title>Node1&#45;&gt;Node6</title>
<path fill="none" stroke="midnightblue" d="M43.4045,-76.4766C55.8991,-64.2295 79.0746,-42.8878 102,-29 105.141,-27.0973 108.507,-25.3027 111.936,-23.6328"/>
<polygon fill="midnightblue" stroke="midnightblue" points="113.38,-26.8212 121.052,-19.5148 110.498,-20.4419 113.38,-26.8212"/>
</g>
</g>
</svg>
