<?xml version="1.0" encoding="UTF-8" standalone="no"?>
<!DOCTYPE svg PUBLIC "-//W3C//DTD SVG 1.1//EN"
 "http://www.w3.org/Graphics/SVG/1.1/DTD/svg11.dtd">
<!-- Generated by graphviz version 2.36.0 (20140111.2315)
 -->
<!-- Title: mutt_print_message Pages: 1 -->
<svg width="384pt" height="78pt"
 viewBox="0.00 0.00 384.00 78.35" xmlns="http://www.w3.org/2000/svg" xmlns:xlink="http://www.w3.org/1999/xlink">
<g id="graph0" class="graph" transform="scale(1 1) rotate(0) translate(4 74.3498)">
<title>mutt_print_message</title>
<polygon fill="white" stroke="none" points="-4,4 -4,-74.3498 380,-74.3498 380,4 -4,4"/>
<!-- Node1 -->
<g id="node1" class="node"><title>Node1</title>
<polygon fill="#bfbfbf" stroke="black" points="0.5,-38.5 0.5,-57.5 105.5,-57.5 105.5,-38.5 0.5,-38.5"/>
<text text-anchor="middle" x="53" y="-45.5" font-family="Helvetica,sans-Serif" font-size="10.00">mutt_print_message</text>
</g>
<!-- Node2 -->
<g id="node2" class="node"><title>Node2</title>
<g id="a_node2"><a xlink:href="curs__lib_8c.html#a25532ef8e160d4f2e43c20325e5f1cdc" target="_top" xlink:title="Is a message in the index tagged (and within limit) ">
<polygon fill="white" stroke="red" points="272,-38.5 272,-57.5 376,-57.5 376,-38.5 272,-38.5"/>
<text text-anchor="middle" x="324" y="-45.5" font-family="Helvetica,sans-Serif" font-size="10.00">message_is_tagged</text>
</a>
</g>
</g>
<!-- Node1&#45;&gt;Node2 -->
<g id="edge1" class="edge"><title>Node1&#45;&gt;Node2</title>
<path fill="none" stroke="midnightblue" d="M89.6844,-57.5086C105.574,-61.2734 124.593,-65.1423 142,-67 183.542,-71.4336 194.463,-71.4828 236,-67 249.719,-65.5194 264.446,-62.7619 277.812,-59.7977"/>
<polygon fill="midnightblue" stroke="midnightblue" points="278.771,-63.1683 287.727,-57.5084 277.196,-56.3477 278.771,-63.1683"/>
</g>
<!-- Node3 -->
<g id="node3" class="node"><title>Node3</title>
<g id="a_node3"><a xlink:href="init_8c.html#a620eb80c92ac555970111949ad0b7c56" target="_top" xlink:title="Ask the user a quad&#45;question. ">
<polygon fill="white" stroke="red" points="142.5,-38.5 142.5,-57.5 235.5,-57.5 235.5,-38.5 142.5,-38.5"/>
<text text-anchor="middle" x="189" y="-45.5" font-family="Helvetica,sans-Serif" font-size="10.00">query_quadoption</text>
</a>
</g>
</g>
<!-- Node1&#45;&gt;Node3 -->
<g id="edge2" class="edge"><title>Node1&#45;&gt;Node3</title>
<path fill="none" stroke="midnightblue" d="M105.808,-48C114.489,-48 123.53,-48 132.304,-48"/>
<polygon fill="midnightblue" stroke="midnightblue" points="132.444,-51.5001 142.444,-48 132.444,-44.5001 132.444,-51.5001"/>
</g>
<!-- Node4 -->
<g id="node4" class="node"><title>Node4</title>
<g id="a_node4"><a xlink:href="commands_8c.html#aac6beb55deb8072b189d20d8b24f6f34" target="_top" xlink:title="Pipe message to a command. ">
<polygon fill="white" stroke="red" points="149,-0.5 149,-19.5 229,-19.5 229,-0.5 149,-0.5"/>
<text text-anchor="middle" x="189" y="-7.5" font-family="Helvetica,sans-Serif" font-size="10.00">pipe_message</text>
</a>
</g>
</g>
<!-- Node1&#45;&gt;Node4 -->
<g id="edge3" class="edge"><title>Node1&#45;&gt;Node4</title>
<path fill="none" stroke="midnightblue" d="M87.8139,-38.411C105.033,-33.5281 126.164,-27.5357 144.573,-22.315"/>
<polygon fill="midnightblue" stroke="midnightblue" points="145.531,-25.6815 154.197,-19.5859 143.621,-18.947 145.531,-25.6815"/>
</g>
<!-- Node4&#45;&gt;Node2 -->
<g id="edge4" class="edge"><title>Node4&#45;&gt;Node2</title>
<path fill="none" stroke="midnightblue" d="M223.562,-19.589C240.573,-24.4494 261.432,-30.4091 279.645,-35.6127"/>
<polygon fill="midnightblue" stroke="midnightblue" points="278.872,-39.0321 289.449,-38.4141 280.796,-32.3014 278.872,-39.0321"/>
</g>
</g>
</svg>
