<?xml version="1.0" encoding="UTF-8" standalone="no"?>
<!DOCTYPE svg PUBLIC "-//W3C//DTD SVG 1.1//EN"
 "http://www.w3.org/Graphics/SVG/1.1/DTD/svg11.dtd">
<!-- Generated by graphviz version 2.36.0 (20140111.2315)
 -->
<!-- Title: ci_bounce_message Pages: 1 -->
<svg width="420pt" height="478pt"
 viewBox="0.00 0.00 420.00 478.15" xmlns="http://www.w3.org/2000/svg" xmlns:xlink="http://www.w3.org/1999/xlink">
<g id="graph0" class="graph" transform="scale(1 1) rotate(0) translate(4 474.145)">
<title>ci_bounce_message</title>
<polygon fill="white" stroke="none" points="-4,4 -4,-474.145 416,-474.145 416,4 -4,4"/>
<!-- Node1 -->
<g id="node1" class="node"><title>Node1</title>
<polygon fill="#bfbfbf" stroke="black" points="0,-222.645 0,-241.645 106,-241.645 106,-222.645 0,-222.645"/>
<text text-anchor="middle" x="53" y="-229.645" font-family="Helvetica,sans-Serif" font-size="10.00">ci_bounce_message</text>
</g>
<!-- Node2 -->
<g id="node2" class="node"><title>Node2</title>
<g id="a_node2"><a xlink:href="curs__lib_8c.html#a25532ef8e160d4f2e43c20325e5f1cdc" target="_top" xlink:title="Is a message in the index tagged (and within limit) ">
<polygon fill="white" stroke="red" points="149,-450.645 149,-469.645 253,-469.645 253,-450.645 149,-450.645"/>
<text text-anchor="middle" x="201" y="-457.645" font-family="Helvetica,sans-Serif" font-size="10.00">message_is_tagged</text>
</a>
</g>
</g>
<!-- Node1&#45;&gt;Node2 -->
<g id="edge1" class="edge"><title>Node1&#45;&gt;Node2</title>
<path fill="none" stroke="midnightblue" d="M55.2581,-242.098C59.9893,-275.36 79.745,-383.794 142,-441.145 143.71,-442.72 145.552,-444.165 147.492,-445.49"/>
<polygon fill="midnightblue" stroke="midnightblue" points="146.082,-448.713 156.514,-450.566 149.515,-442.612 146.082,-448.713"/>
</g>
<!-- Node3 -->
<g id="node3" class="node"><title>Node3</title>
<g id="a_node3"><a xlink:href="mutt_2string_8c.html#a3b8965b21d6e21536750f8883cd4333a" target="_top" xlink:title="Copy a string into a buffer (guaranteeing NUL&#45;termination) ">
<polygon fill="white" stroke="black" points="310,-393.645 310,-412.645 398,-412.645 398,-393.645 310,-393.645"/>
<text text-anchor="middle" x="354" y="-400.645" font-family="Helvetica,sans-Serif" font-size="10.00">mutt_str_strfcpy</text>
</a>
</g>
</g>
<!-- Node1&#45;&gt;Node3 -->
<g id="edge2" class="edge"><title>Node1&#45;&gt;Node3</title>
<path fill="none" stroke="midnightblue" d="M57.3077,-241.795C66.4094,-266.774 94.3619,-333.783 142,-365.145 189.013,-396.096 254.109,-403.741 299.52,-404.814"/>
<polygon fill="midnightblue" stroke="midnightblue" points="299.709,-408.317 309.756,-404.953 299.805,-401.317 299.709,-408.317"/>
</g>
<!-- Node4 -->
<g id="node4" class="node"><title>Node4</title>
<g id="a_node4"><a xlink:href="email_2address_8c.html#ae63c64c4d9614f613c9d6b52dcf9be35" target="_top" xlink:title="Parse a list of email addresses. ">
<polygon fill="white" stroke="red" points="144.5,-412.645 144.5,-431.645 257.5,-431.645 257.5,-412.645 144.5,-412.645"/>
<text text-anchor="middle" x="201" y="-419.645" font-family="Helvetica,sans-Serif" font-size="10.00">mutt_addr_parse_list2</text>
</a>
</g>
</g>
<!-- Node1&#45;&gt;Node4 -->
<g id="edge3" class="edge"><title>Node1&#45;&gt;Node4</title>
<path fill="none" stroke="midnightblue" d="M56.5934,-241.835C64.5692,-269.882 91.3161,-352.067 142,-398.145 146.339,-402.09 151.417,-405.437 156.731,-408.263"/>
<polygon fill="midnightblue" stroke="midnightblue" points="155.27,-411.444 165.808,-412.541 158.254,-405.112 155.27,-411.444"/>
</g>
<!-- Node5 -->
<g id="node5" class="node"><title>Node5</title>
<g id="a_node5"><a xlink:href="alias_8c.html#aea3d897a501d63b3cad3f8a6bbc119da" target="_top" xlink:title="Expand aliases in a List of Addresses. ">
<polygon fill="white" stroke="red" points="146.5,-336.645 146.5,-355.645 255.5,-355.645 255.5,-336.645 146.5,-336.645"/>
<text text-anchor="middle" x="201" y="-343.645" font-family="Helvetica,sans-Serif" font-size="10.00">mutt_expand_aliases</text>
</a>
</g>
</g>
<!-- Node1&#45;&gt;Node5 -->
<g id="edge5" class="edge"><title>Node1&#45;&gt;Node5</title>
<path fill="none" stroke="midnightblue" d="M61.2326,-241.802C75.1204,-259.771 107.241,-298.646 142,-322.145 147.823,-326.082 154.394,-329.559 160.965,-332.557"/>
<polygon fill="midnightblue" stroke="midnightblue" points="159.935,-335.922 170.508,-336.606 162.669,-329.478 159.935,-335.922"/>
</g>
<!-- Node6 -->
<g id="node6" class="node"><title>Node6</title>
<g id="a_node6"><a xlink:href="email_2address_8c.html#adc78f8cb7c880c8a427dde656617ecf2" target="_top" xlink:title="Convert an Address list to Punycode. ">
<polygon fill="white" stroke="red" points="302,-279.645 302,-298.645 406,-298.645 406,-279.645 302,-279.645"/>
<text text-anchor="middle" x="354" y="-286.645" font-family="Helvetica,sans-Serif" font-size="10.00">mutt_addrlist_to_intl</text>
</a>
</g>
</g>
<!-- Node1&#45;&gt;Node6 -->
<g id="edge6" class="edge"><title>Node1&#45;&gt;Node6</title>
<path fill="none" stroke="midnightblue" d="M74.1404,-241.662C91.6708,-249.521 117.969,-260.299 142,-266.145 191.451,-278.175 248.958,-283.919 291.436,-286.659"/>
<polygon fill="midnightblue" stroke="midnightblue" points="291.43,-290.165 301.623,-287.277 291.854,-283.177 291.43,-290.165"/>
</g>
<!-- Node7 -->
<g id="node7" class="node"><title>Node7</title>
<g id="a_node7"><a xlink:href="email_2address_8c.html#a261c737f5760766b245e5e8506b11b12" target="_top" xlink:title="Free a list of Addresses. ">
<polygon fill="white" stroke="red" points="313,-231.645 313,-250.645 395,-250.645 395,-231.645 313,-231.645"/>
<text text-anchor="middle" x="354" y="-238.645" font-family="Helvetica,sans-Serif" font-size="10.00">mutt_addr_free</text>
</a>
</g>
</g>
<!-- Node1&#45;&gt;Node7 -->
<g id="edge7" class="edge"><title>Node1&#45;&gt;Node7</title>
<path fill="none" stroke="midnightblue" d="M89.6844,-241.654C105.574,-245.419 124.593,-249.288 142,-251.145 196.743,-256.988 259.841,-252.539 302.67,-247.86"/>
<polygon fill="midnightblue" stroke="midnightblue" points="303.294,-251.312 312.834,-246.704 302.503,-244.357 303.294,-251.312"/>
</g>
<!-- Node8 -->
<g id="node8" class="node"><title>Node8</title>
<g id="a_node8"><a xlink:href="email_2address_8c.html#ac1ccf9a098991f797af50f11e6575695" target="_top" xlink:title="Write an Address to a buffer. ">
<polygon fill="white" stroke="red" points="311,-188.645 311,-207.645 397,-207.645 397,-188.645 311,-188.645"/>
<text text-anchor="middle" x="354" y="-195.645" font-family="Helvetica,sans-Serif" font-size="10.00">mutt_addr_write</text>
</a>
</g>
</g>
<!-- Node1&#45;&gt;Node8 -->
<g id="edge8" class="edge"><title>Node1&#45;&gt;Node8</title>
<path fill="none" stroke="midnightblue" d="M92.3392,-222.632C107.692,-219.147 125.599,-215.487 142,-213.145 195.738,-205.473 257.764,-201.66 300.592,-199.807"/>
<polygon fill="midnightblue" stroke="midnightblue" points="300.931,-203.297 310.778,-199.388 300.643,-196.302 300.931,-203.297"/>
</g>
<!-- Node9 -->
<g id="node9" class="node"><title>Node9</title>
<g id="a_node9"><a xlink:href="curs__lib_8c.html#aeedb58ae252fce936c20c5f66684d80c" target="_top" xlink:title="Measure a string&#39;s width in screen cells. ">
<polygon fill="white" stroke="red" points="163,-146.645 163,-165.645 239,-165.645 239,-146.645 163,-146.645"/>
<text text-anchor="middle" x="201" y="-153.645" font-family="Helvetica,sans-Serif" font-size="10.00">mutt_strwidth</text>
</a>
</g>
</g>
<!-- Node1&#45;&gt;Node9 -->
<g id="edge9" class="edge"><title>Node1&#45;&gt;Node9</title>
<path fill="none" stroke="midnightblue" d="M68.8987,-222.46C86.1152,-211.478 115.485,-193.382 142,-180.145 149.486,-176.408 157.699,-172.754 165.53,-169.469"/>
<polygon fill="midnightblue" stroke="midnightblue" points="166.89,-172.694 174.817,-165.664 164.236,-166.216 166.89,-172.694"/>
</g>
<!-- Node10 -->
<g id="node10" class="node"><title>Node10</title>
<g id="a_node10"><a xlink:href="curs__lib_8c.html#a84d21621e3fe2b505b17033d8c2b21bd" target="_top" xlink:title="Format a string, like snprintf() ">
<polygon fill="white" stroke="black" points="149.5,-108.645 149.5,-127.645 252.5,-127.645 252.5,-108.645 149.5,-108.645"/>
<text text-anchor="middle" x="201" y="-115.645" font-family="Helvetica,sans-Serif" font-size="10.00">mutt_simple_format</text>
</a>
</g>
</g>
<!-- Node1&#45;&gt;Node10 -->
<g id="edge10" class="edge"><title>Node1&#45;&gt;Node10</title>
<path fill="none" stroke="midnightblue" d="M60.3219,-222.565C73.3529,-203.542 105.094,-160.806 142,-137.145 145.175,-135.11 148.588,-133.273 152.112,-131.619"/>
<polygon fill="midnightblue" stroke="midnightblue" points="153.73,-134.737 161.612,-127.657 151.035,-128.276 153.73,-134.737"/>
</g>
<!-- Node11 -->
<g id="node11" class="node"><title>Node11</title>
<g id="a_node11"><a xlink:href="mutt_2string_8c.html#a9ea8568afcd2f6b67f4be5254ffb6f8e" target="_top" xlink:title="Concatenate two strings. ">
<polygon fill="white" stroke="black" points="159.5,-70.6454 159.5,-89.6454 242.5,-89.6454 242.5,-70.6454 159.5,-70.6454"/>
<text text-anchor="middle" x="201" y="-77.6454" font-family="Helvetica,sans-Serif" font-size="10.00">mutt_str_strcat</text>
</a>
</g>
</g>
<!-- Node1&#45;&gt;Node11 -->
<g id="edge11" class="edge"><title>Node1&#45;&gt;Node11</title>
<path fill="none" stroke="midnightblue" d="M57.7121,-222.51C67.5862,-198.143 96.8644,-133.559 142,-99.1454 144.49,-97.2472 147.177,-95.534 149.984,-93.9885"/>
<polygon fill="midnightblue" stroke="midnightblue" points="151.714,-97.042 159.257,-89.6017 148.721,-90.7143 151.714,-97.042"/>
</g>
<!-- Node12 -->
<g id="node12" class="node"><title>Node12</title>
<g id="a_node12"><a xlink:href="init_8c.html#a620eb80c92ac555970111949ad0b7c56" target="_top" xlink:title="Ask the user a quad&#45;question. ">
<polygon fill="white" stroke="red" points="154.5,-32.6454 154.5,-51.6454 247.5,-51.6454 247.5,-32.6454 154.5,-32.6454"/>
<text text-anchor="middle" x="201" y="-39.6454" font-family="Helvetica,sans-Serif" font-size="10.00">query_quadoption</text>
</a>
</g>
</g>
<!-- Node1&#45;&gt;Node12 -->
<g id="edge12" class="edge"><title>Node1&#45;&gt;Node12</title>
<path fill="none" stroke="midnightblue" d="M56.2322,-222.389C63.3723,-193.382 88.3932,-106.855 142,-61.1454 143.975,-59.4611 146.104,-57.9251 148.338,-56.5245"/>
<polygon fill="midnightblue" stroke="midnightblue" points="150.16,-59.5207 157.379,-51.7661 146.9,-53.3262 150.16,-59.5207"/>
</g>
<!-- Node13 -->
<g id="node13" class="node"><title>Node13</title>
<g id="a_node13"><a xlink:href="mutt__window_8c.html#adb0d282e3a7b3cf644485c1aab14774f" target="_top" xlink:title="Clear a row of a Window. ">
<polygon fill="white" stroke="red" points="296,-13.6454 296,-32.6454 412,-32.6454 412,-13.6454 296,-13.6454"/>
<text text-anchor="middle" x="354" y="-20.6454" font-family="Helvetica,sans-Serif" font-size="10.00">mutt_window_clearline</text>
</a>
</g>
</g>
<!-- Node1&#45;&gt;Node13 -->
<g id="edge14" class="edge"><title>Node1&#45;&gt;Node13</title>
<path fill="none" stroke="midnightblue" d="M54.5493,-222.362C57.0847,-187.715 70.8274,-70.4023 142,-23.1454 193.211,10.8574 267.947,0.28233 313.363,-11.0392"/>
<polygon fill="midnightblue" stroke="midnightblue" points="312.58,-14.4523 323.141,-13.6018 314.355,-7.68099 312.58,-14.4523"/>
</g>
<!-- Node14 -->
<g id="node14" class="node"><title>Node14</title>
<g id="a_node14"><a xlink:href="sendlib_8c.html#ae4568c8957cffa5c849f71e469dd42e6" target="_top" xlink:title="Bounce an email message. ">
<polygon fill="white" stroke="red" points="142,-222.645 142,-241.645 260,-241.645 260,-222.645 142,-222.645"/>
<text text-anchor="middle" x="201" y="-229.645" font-family="Helvetica,sans-Serif" font-size="10.00">mutt_bounce_message</text>
</a>
</g>
</g>
<!-- Node1&#45;&gt;Node14 -->
<g id="edge15" class="edge"><title>Node1&#45;&gt;Node14</title>
<path fill="none" stroke="midnightblue" d="M106.297,-232.145C114.589,-232.145 123.27,-232.145 131.86,-232.145"/>
<polygon fill="midnightblue" stroke="midnightblue" points="131.875,-235.646 141.875,-232.145 131.875,-228.646 131.875,-235.646"/>
</g>
<!-- Node4&#45;&gt;Node3 -->
<g id="edge4" class="edge"><title>Node4&#45;&gt;Node3</title>
<path fill="none" stroke="midnightblue" d="M257.798,-415.125C271.455,-413.406 286.037,-411.571 299.58,-409.867"/>
<polygon fill="midnightblue" stroke="midnightblue" points="300.216,-413.315 309.701,-408.594 299.342,-406.37 300.216,-413.315"/>
</g>
<!-- Node12&#45;&gt;Node13 -->
<g id="edge13" class="edge"><title>Node12&#45;&gt;Node13</title>
<path fill="none" stroke="midnightblue" d="M247.715,-36.3933C259.701,-34.885 272.88,-33.2267 285.737,-31.609"/>
<polygon fill="midnightblue" stroke="midnightblue" points="286.465,-35.0451 295.95,-30.324 285.591,-28.0999 286.465,-35.0451"/>
</g>
<!-- Node14&#45;&gt;Node6 -->
<g id="edge16" class="edge"><title>Node14&#45;&gt;Node6</title>
<path fill="none" stroke="midnightblue" d="M227.274,-241.686C252.099,-251.057 290.183,-265.433 317.932,-275.908"/>
<polygon fill="midnightblue" stroke="midnightblue" points="317.052,-279.317 327.644,-279.574 319.524,-272.768 317.052,-279.317"/>
</g>
<!-- Node14&#45;&gt;Node7 -->
<g id="edge17" class="edge"><title>Node14&#45;&gt;Node7</title>
<path fill="none" stroke="midnightblue" d="M260.381,-235.625C274.401,-236.461 289.253,-237.346 302.861,-238.157"/>
<polygon fill="midnightblue" stroke="midnightblue" points="302.799,-241.659 312.99,-238.761 303.216,-234.672 302.799,-241.659"/>
</g>
<!-- Node14&#45;&gt;Node8 -->
<g id="edge18" class="edge"><title>Node14&#45;&gt;Node8</title>
<path fill="none" stroke="midnightblue" d="M244.464,-222.584C261.981,-218.64 282.453,-214.03 300.868,-209.884"/>
<polygon fill="midnightblue" stroke="midnightblue" points="301.868,-213.246 310.855,-207.635 300.33,-206.417 301.868,-213.246"/>
</g>
</g>
</svg>
