<?xml version="1.0" encoding="UTF-8" standalone="no"?>
<!DOCTYPE svg PUBLIC "-//W3C//DTD SVG 1.1//EN"
 "http://www.w3.org/Graphics/SVG/1.1/DTD/svg11.dtd">
<!-- Generated by graphviz version 2.36.0 (20140111.2315)
 -->
<!-- Title: cs_dump_set Pages: 1 -->
<svg width="214pt" height="256pt"
 viewBox="0.00 0.00 214.00 256.00" xmlns="http://www.w3.org/2000/svg" xmlns:xlink="http://www.w3.org/1999/xlink">
<g id="graph0" class="graph" transform="scale(1 1) rotate(0) translate(4 252)">
<title>cs_dump_set</title>
<polygon fill="white" stroke="none" points="-4,4 -4,-252 210,-252 210,4 -4,4"/>
<!-- Node1 -->
<g id="node1" class="node"><title>Node1</title>
<polygon fill="#bfbfbf" stroke="black" points="0.5,-114.5 0.5,-133.5 75.5,-133.5 75.5,-114.5 0.5,-114.5"/>
<text text-anchor="middle" x="38" y="-121.5" font-family="Helvetica,sans-Serif" font-size="10.00">cs_dump_set</text>
</g>
<!-- Node2 -->
<g id="node2" class="node"><title>Node2</title>
<g id="a_node2"><a xlink:href="buffer_8c.html#ab31dc6030636f826c60c65d143cb249d" target="_top" xlink:title="Initialise a new Buffer. ">
<polygon fill="white" stroke="black" points="117,-228.5 117,-247.5 201,-247.5 201,-228.5 117,-228.5"/>
<text text-anchor="middle" x="159" y="-235.5" font-family="Helvetica,sans-Serif" font-size="10.00">mutt_buffer_init</text>
</a>
</g>
</g>
<!-- Node1&#45;&gt;Node2 -->
<g id="edge1" class="edge"><title>Node1&#45;&gt;Node2</title>
<path fill="none" stroke="midnightblue" d="M44.1345,-133.7C54.561,-152.558 79.9658,-194.462 112,-219 114.176,-220.667 116.518,-222.212 118.953,-223.64"/>
<polygon fill="midnightblue" stroke="midnightblue" points="117.547,-226.853 128.041,-228.31 120.746,-220.626 117.547,-226.853"/>
</g>
<!-- Node3 -->
<g id="node3" class="node"><title>Node3</title>
<g id="a_node3"><a xlink:href="memory_8c.html#a4c1612d209c7825d55e6a014df352f03" target="_top" xlink:title="Allocate zeroed memory on the heap. ">
<polygon fill="white" stroke="red" points="112,-190.5 112,-209.5 206,-209.5 206,-190.5 112,-190.5"/>
<text text-anchor="middle" x="159" y="-197.5" font-family="Helvetica,sans-Serif" font-size="10.00">mutt_mem_calloc</text>
</a>
</g>
</g>
<!-- Node1&#45;&gt;Node3 -->
<g id="edge2" class="edge"><title>Node1&#45;&gt;Node3</title>
<path fill="none" stroke="midnightblue" d="M49.7014,-133.888C63.3624,-146.136 88.1003,-167.083 112,-181 115.173,-182.848 118.561,-184.606 122.004,-186.253"/>
<polygon fill="midnightblue" stroke="midnightblue" points="120.582,-189.451 131.139,-190.339 123.44,-183.061 120.582,-189.451"/>
</g>
<!-- Node4 -->
<g id="node4" class="node"><title>Node4</title>
<g id="a_node4"><a xlink:href="hash_8c.html#ada087672df41f9d0e8c4282b0ba7b84b" target="_top" xlink:title="Iterate through all the HashElem&#39;s in a Hash table. ">
<polygon fill="white" stroke="black" points="115,-152.5 115,-171.5 203,-171.5 203,-152.5 115,-152.5"/>
<text text-anchor="middle" x="159" y="-159.5" font-family="Helvetica,sans-Serif" font-size="10.00">mutt_hash_walk</text>
</a>
</g>
</g>
<!-- Node1&#45;&gt;Node4 -->
<g id="edge3" class="edge"><title>Node1&#45;&gt;Node4</title>
<path fill="none" stroke="midnightblue" d="M69.0287,-133.589C83.9677,-138.359 102.223,-144.189 118.301,-149.323"/>
<polygon fill="midnightblue" stroke="midnightblue" points="117.39,-152.706 127.981,-152.414 119.519,-146.038 117.39,-152.706"/>
</g>
<!-- Node5 -->
<g id="node5" class="node"><title>Node5</title>
<g id="a_node5"><a xlink:href="config_2set_8c.html#a74b013e244b5a66aec376873a2c90194" target="_top" xlink:title="Get the definition for a type. ">
<polygon fill="white" stroke="black" points="114.5,-114.5 114.5,-133.5 203.5,-133.5 203.5,-114.5 114.5,-114.5"/>
<text text-anchor="middle" x="159" y="-121.5" font-family="Helvetica,sans-Serif" font-size="10.00">cs_get_type_def</text>
</a>
</g>
</g>
<!-- Node1&#45;&gt;Node5 -->
<g id="edge4" class="edge"><title>Node1&#45;&gt;Node5</title>
<path fill="none" stroke="midnightblue" d="M75.6749,-124C84.6019,-124 94.3367,-124 103.885,-124"/>
<polygon fill="midnightblue" stroke="midnightblue" points="104.126,-127.5 114.126,-124 104.126,-120.5 104.126,-127.5"/>
</g>
<!-- Node6 -->
<g id="node6" class="node"><title>Node6</title>
<g id="a_node6"><a xlink:href="mutt_2string_8c.html#ae48085384a6545e0fac589a88243ea31" target="_top" xlink:title="Copy a string, safely. ">
<polygon fill="white" stroke="red" points="116.5,-76.5 116.5,-95.5 201.5,-95.5 201.5,-76.5 116.5,-76.5"/>
<text text-anchor="middle" x="159" y="-83.5" font-family="Helvetica,sans-Serif" font-size="10.00">mutt_str_strdup</text>
</a>
</g>
</g>
<!-- Node1&#45;&gt;Node6 -->
<g id="edge5" class="edge"><title>Node1&#45;&gt;Node6</title>
<path fill="none" stroke="midnightblue" d="M69.0287,-114.411C83.9677,-109.641 102.223,-103.811 118.301,-98.6771"/>
<polygon fill="midnightblue" stroke="midnightblue" points="119.519,-101.962 127.981,-95.5859 117.39,-95.2938 119.519,-101.962"/>
</g>
<!-- Node7 -->
<g id="node7" class="node"><title>Node7</title>
<g id="a_node7"><a xlink:href="buffer_8c.html#a8da54c4ec8e1a4e21158f134441bdf2d" target="_top" xlink:title="Reset an existing Buffer. ">
<polygon fill="white" stroke="black" points="112.5,-38.5 112.5,-57.5 205.5,-57.5 205.5,-38.5 112.5,-38.5"/>
<text text-anchor="middle" x="159" y="-45.5" font-family="Helvetica,sans-Serif" font-size="10.00">mutt_buffer_reset</text>
</a>
</g>
</g>
<!-- Node1&#45;&gt;Node7 -->
<g id="edge6" class="edge"><title>Node1&#45;&gt;Node7</title>
<path fill="none" stroke="midnightblue" d="M49.7014,-114.112C63.3624,-101.864 88.1003,-80.9173 112,-67 115.173,-65.1521 118.561,-63.394 122.004,-61.747"/>
<polygon fill="midnightblue" stroke="midnightblue" points="123.44,-64.9391 131.139,-57.6609 120.582,-58.5492 123.44,-64.9391"/>
</g>
<!-- Node8 -->
<g id="node8" class="node"><title>Node8</title>
<g id="a_node8"><a xlink:href="common_8c.html#ab59e4106ba744d106bf214764395b68e" target="_top" xlink:title="sort_list_cb">
<polygon fill="white" stroke="black" points="125.5,-0.5 125.5,-19.5 192.5,-19.5 192.5,-0.5 125.5,-0.5"/>
<text text-anchor="middle" x="159" y="-7.5" font-family="Helvetica,sans-Serif" font-size="10.00">sort_list_cb</text>
</a>
</g>
</g>
<!-- Node1&#45;&gt;Node8 -->
<g id="edge7" class="edge"><title>Node1&#45;&gt;Node8</title>
<path fill="none" stroke="midnightblue" d="M44.1345,-114.3C54.561,-95.4421 79.9658,-53.5378 112,-29 114.176,-27.3334 116.518,-25.7881 118.953,-24.3597"/>
<polygon fill="midnightblue" stroke="midnightblue" points="120.746,-27.3736 128.041,-19.6904 117.547,-21.1474 120.746,-27.3736"/>
</g>
</g>
</svg>
