<?xml version="1.0" encoding="UTF-8" standalone="no"?>
<!DOCTYPE svg PUBLIC "-//W3C//DTD SVG 1.1//EN"
 "http://www.w3.org/Graphics/SVG/1.1/DTD/svg11.dtd">
<!-- Generated by graphviz version 2.36.0 (20140111.2315)
 -->
<!-- Title: mutt_update_compose_menu Pages: 1 -->
<svg width="342pt" height="104pt"
 viewBox="0.00 0.00 342.00 104.00" xmlns="http://www.w3.org/2000/svg" xmlns:xlink="http://www.w3.org/1999/xlink">
<g id="graph0" class="graph" transform="scale(1 1) rotate(0) translate(4 100)">
<title>mutt_update_compose_menu</title>
<polygon fill="white" stroke="none" points="-4,4 -4,-100 338,-100 338,4 -4,4"/>
<!-- Node1 -->
<g id="node1" class="node"><title>Node1</title>
<polygon fill="#bfbfbf" stroke="black" points="0.5,-38.5 0.5,-57.5 145.5,-57.5 145.5,-38.5 0.5,-38.5"/>
<text text-anchor="middle" x="73" y="-45.5" font-family="Helvetica,sans-Serif" font-size="10.00">mutt_update_compose_menu</text>
</g>
<!-- Node2 -->
<g id="node2" class="node"><title>Node2</title>
<g id="a_node2"><a xlink:href="compose_8c.html#ac4f967e1fde0b8096af8be64a5ecbb95" target="_top" xlink:title="Generate the attachment list for the compose screen. ">
<polygon fill="white" stroke="red" points="182,-76.5 182,-95.5 334,-95.5 334,-76.5 182,-76.5"/>
<text text-anchor="middle" x="258" y="-83.5" font-family="Helvetica,sans-Serif" font-size="10.00">mutt_gen_compose_attach_list</text>
</a>
</g>
</g>
<!-- Node1&#45;&gt;Node2 -->
<g id="edge1" class="edge"><title>Node1&#45;&gt;Node2</title>
<path fill="none" stroke="midnightblue" d="M120.179,-57.589C144.763,-62.6939 175.186,-69.0113 201.097,-74.3918"/>
<polygon fill="midnightblue" stroke="midnightblue" points="200.651,-77.8736 211.153,-76.4799 202.074,-71.0198 200.651,-77.8736"/>
</g>
<!-- Node3 -->
<g id="node3" class="node"><title>Node3</title>
<g id="a_node3"><a xlink:href="recvattach_8c.html#aa21744623c750c6f114a93f06ac5e257" target="_top" xlink:title="Create a new Attachment context. ">
<polygon fill="white" stroke="red" points="215,-38.5 215,-57.5 301,-57.5 301,-38.5 215,-38.5"/>
<text text-anchor="middle" x="258" y="-45.5" font-family="Helvetica,sans-Serif" font-size="10.00">mutt_attach_init</text>
</a>
</g>
</g>
<!-- Node1&#45;&gt;Node3 -->
<g id="edge2" class="edge"><title>Node1&#45;&gt;Node3</title>
<path fill="none" stroke="midnightblue" d="M145.539,-48C165.24,-48 186.238,-48 204.636,-48"/>
<polygon fill="midnightblue" stroke="midnightblue" points="204.85,-51.5001 214.85,-48 204.85,-44.5001 204.85,-51.5001"/>
</g>
<!-- Node4 -->
<g id="node4" class="node"><title>Node4</title>
<g id="a_node4"><a xlink:href="recvattach_8c.html#aa9845701586d190b83e575e9e1f89303" target="_top" xlink:title="Refresh the list of attachments. ">
<polygon fill="white" stroke="red" points="212,-0.5 212,-19.5 304,-19.5 304,-0.5 212,-0.5"/>
<text text-anchor="middle" x="258" y="-7.5" font-family="Helvetica,sans-Serif" font-size="10.00">mutt_update_tree</text>
</a>
</g>
</g>
<!-- Node1&#45;&gt;Node4 -->
<g id="edge3" class="edge"><title>Node1&#45;&gt;Node4</title>
<path fill="none" stroke="midnightblue" d="M120.179,-38.411C144.95,-33.2673 175.649,-26.8925 201.688,-21.4856"/>
<polygon fill="midnightblue" stroke="midnightblue" points="202.707,-24.8488 211.786,-19.3887 201.283,-17.995 202.707,-24.8488"/>
</g>
</g>
</svg>
