<?xml version="1.0" encoding="UTF-8" standalone="no"?>
<!DOCTYPE svg PUBLIC "-//W3C//DTD SVG 1.1//EN"
 "http://www.w3.org/Graphics/SVG/1.1/DTD/svg11.dtd">
<!-- Generated by graphviz version 2.36.0 (20140111.2315)
 -->
<!-- Title: store_size Pages: 1 -->
<svg width="340pt" height="85pt"
 viewBox="0.00 0.00 340.00 85.00" xmlns="http://www.w3.org/2000/svg" xmlns:xlink="http://www.w3.org/1999/xlink">
<g id="graph0" class="graph" transform="scale(1 1) rotate(0) translate(4 81)">
<title>store_size</title>
<polygon fill="white" stroke="none" points="-4,4 -4,-81 336,-81 336,4 -4,4"/>
<!-- Node1 -->
<g id="node1" class="node"><title>Node1</title>
<polygon fill="#bfbfbf" stroke="black" points="0,-19.5 0,-38.5 62,-38.5 62,-19.5 0,-19.5"/>
<text text-anchor="middle" x="31" y="-26.5" font-family="Helvetica,sans-Serif" font-size="10.00">store_size</text>
</g>
<!-- Node2 -->
<g id="node2" class="node"><title>Node2</title>
<g id="a_node2"><a xlink:href="compress_8c.html#a3b1ff60249105d0a7992997c6a7147a4" target="_top" xlink:title="Implements MxOps::mbox_open() ">
<polygon fill="white" stroke="black" points="101,-57.5 101,-76.5 197,-76.5 197,-57.5 101,-57.5"/>
<text text-anchor="middle" x="149" y="-64.5" font-family="Helvetica,sans-Serif" font-size="10.00">comp_mbox_open</text>
</a>
</g>
</g>
<!-- Node1&#45;&gt;Node2 -->
<g id="edge1" class="edge"><title>Node1&#45;&gt;Node2</title>
<path fill="none" stroke="midnightblue" d="M71.1528,-41.8259C86.7176,-46.9247 104.314,-52.6891 118.738,-57.4141"/>
<polygon fill="midnightblue" stroke="midnightblue" points="71.8644,-38.3761 61.2717,-38.589 69.6852,-45.0282 71.8644,-38.3761"/>
</g>
<!-- Node3 -->
<g id="node3" class="node"><title>Node3</title>
<g id="a_node3"><a xlink:href="compress_8c.html#afa6c46e3135f8ef980da4620d89d2ffa" target="_top" xlink:title="Implements MxOps::mbox_check() ">
<polygon fill="white" stroke="black" points="98.5,-19.5 98.5,-38.5 199.5,-38.5 199.5,-19.5 98.5,-19.5"/>
<text text-anchor="middle" x="149" y="-26.5" font-family="Helvetica,sans-Serif" font-size="10.00">comp_mbox_check</text>
</a>
</g>
</g>
<!-- Node1&#45;&gt;Node3 -->
<g id="edge2" class="edge"><title>Node1&#45;&gt;Node3</title>
<path fill="none" stroke="midnightblue" d="M72.3844,-29C80.7175,-29 89.5866,-29 98.2087,-29"/>
<polygon fill="midnightblue" stroke="midnightblue" points="72.1749,-25.5001 62.1748,-29 72.1748,-32.5001 72.1749,-25.5001"/>
</g>
<!-- Node4 -->
<g id="node4" class="node"><title>Node4</title>
<g id="a_node4"><a xlink:href="compress_8c.html#a93b3597ecc13b2edd41e3adf6e3a4af0" target="_top" xlink:title="Implements MxOps::mbox_sync() ">
<polygon fill="white" stroke="black" points="236,-0.5 236,-19.5 332,-19.5 332,-0.5 236,-0.5"/>
<text text-anchor="middle" x="284" y="-7.5" font-family="Helvetica,sans-Serif" font-size="10.00">comp_mbox_sync</text>
</a>
</g>
</g>
<!-- Node1&#45;&gt;Node4 -->
<g id="edge4" class="edge"><title>Node1&#45;&gt;Node4</title>
<path fill="none" stroke="midnightblue" d="M68.2163,-16.603C77.7861,-13.8732 88.1856,-11.3846 98,-10 144.592,-3.4271 198.443,-4.37709 235.987,-6.39233"/>
<polygon fill="midnightblue" stroke="midnightblue" points="67.1687,-13.2632 58.6032,-19.4988 69.1877,-19.9657 67.1687,-13.2632"/>
</g>
<!-- Node3&#45;&gt;Node4 -->
<g id="edge3" class="edge"><title>Node3&#45;&gt;Node4</title>
<path fill="none" stroke="midnightblue" d="M209.64,-20.48C218.351,-19.2356 227.22,-17.9686 235.641,-16.7656"/>
<polygon fill="midnightblue" stroke="midnightblue" points="208.929,-17.046 199.524,-21.9251 209.919,-23.9756 208.929,-17.046"/>
</g>
</g>
</svg>
