<?xml version="1.0" encoding="UTF-8" standalone="no"?>
<!DOCTYPE svg PUBLIC "-//W3C//DTD SVG 1.1//EN"
 "http://www.w3.org/Graphics/SVG/1.1/DTD/svg11.dtd">
<!-- Generated by graphviz version 2.36.0 (20140111.2315)
 -->
<!-- Title: compress.h Pages: 1 -->
<svg width="85pt" height="140pt"
 viewBox="0.00 0.00 85.00 140.00" xmlns="http://www.w3.org/2000/svg" xmlns:xlink="http://www.w3.org/1999/xlink">
<g id="graph0" class="graph" transform="scale(1 1) rotate(0) translate(4 136)">
<title>compress.h</title>
<polygon fill="white" stroke="none" points="-4,4 -4,-136 81,-136 81,4 -4,4"/>
<!-- Node1 -->
<g id="node1" class="node"><title>Node1</title>
<polygon fill="#bfbfbf" stroke="black" points="0,-112.5 0,-131.5 68,-131.5 68,-112.5 0,-112.5"/>
<text text-anchor="middle" x="34" y="-119.5" font-family="Helvetica,sans-Serif" font-size="10.00">compress.h</text>
</g>
<!-- Node2 -->
<g id="node2" class="node"><title>Node2</title>
<polygon fill="white" stroke="#bfbfbf" points="6,-0.5 6,-19.5 62,-19.5 62,-0.5 6,-0.5"/>
<text text-anchor="middle" x="34" y="-7.5" font-family="Helvetica,sans-Serif" font-size="10.00">stdbool.h</text>
</g>
<!-- Node1&#45;&gt;Node2 -->
<g id="edge1" class="edge"><title>Node1&#45;&gt;Node2</title>
<path fill="none" stroke="midnightblue" d="M33.0059,-112.388C32.0153,-103.342 30.5631,-88.6937 30,-76 29.3102,-60.45 30.5192,-42.8265 31.7842,-29.8568"/>
<polygon fill="midnightblue" stroke="midnightblue" points="35.2734,-30.1435 32.8639,-19.8263 28.3136,-29.3942 35.2734,-30.1435"/>
</g>
<!-- Node3 -->
<g id="node3" class="node"><title>Node3</title>
<g id="a_node3"><a xlink:href="mx_8h.html" target="_top" xlink:title="API for mailboxes. ">
<polygon fill="white" stroke="red" points="39,-56.5 39,-75.5 77,-75.5 77,-56.5 39,-56.5"/>
<text text-anchor="middle" x="58" y="-63.5" font-family="Helvetica,sans-Serif" font-size="10.00">mx.h</text>
</a>
</g>
</g>
<!-- Node1&#45;&gt;Node3 -->
<g id="edge2" class="edge"><title>Node1&#45;&gt;Node3</title>
<path fill="none" stroke="midnightblue" d="M37.9631,-112.083C41.2133,-104.77 45.9194,-94.1814 49.954,-85.1034"/>
<polygon fill="midnightblue" stroke="midnightblue" points="53.2475,-86.3107 54.1106,-75.7511 46.8508,-83.4677 53.2475,-86.3107"/>
</g>
<!-- Node3&#45;&gt;Node2 -->
<g id="edge3" class="edge"><title>Node3&#45;&gt;Node2</title>
<path fill="none" stroke="midnightblue" d="M54.0369,-56.083C50.7867,-48.77 46.0806,-38.1814 42.046,-29.1034"/>
<polygon fill="midnightblue" stroke="midnightblue" points="45.1492,-27.4677 37.8894,-19.7511 38.7525,-30.3107 45.1492,-27.4677"/>
</g>
</g>
</svg>
