<?xml version="1.0" encoding="UTF-8" standalone="no"?>
<!DOCTYPE svg PUBLIC "-//W3C//DTD SVG 1.1//EN"
 "http://www.w3.org/Graphics/SVG/1.1/DTD/svg11.dtd">
<!-- Generated by graphviz version 2.36.0 (20140111.2315)
 -->
<!-- Title: comp_mbox_open Pages: 1 -->
<svg width="364pt" height="332pt"
 viewBox="0.00 0.00 364.00 332.00" xmlns="http://www.w3.org/2000/svg" xmlns:xlink="http://www.w3.org/1999/xlink">
<g id="graph0" class="graph" transform="scale(1 1) rotate(0) translate(4 328)">
<title>comp_mbox_open</title>
<polygon fill="white" stroke="none" points="-4,4 -4,-328 360,-328 360,4 -4,4"/>
<!-- Node1 -->
<g id="node1" class="node"><title>Node1</title>
<polygon fill="#bfbfbf" stroke="black" points="0,-152.5 0,-171.5 96,-171.5 96,-152.5 0,-152.5"/>
<text text-anchor="middle" x="48" y="-159.5" font-family="Helvetica,sans-Serif" font-size="10.00">comp_mbox_open</text>
</g>
<!-- Node2 -->
<g id="node2" class="node"><title>Node2</title>
<g id="a_node2"><a xlink:href="compress_8c.html#a5e9c7add14a760ec674b84b53e9f903b" target="_top" xlink:title="Find the compress hooks for a mailbox. ">
<polygon fill="white" stroke="red" points="133.5,-304.5 133.5,-323.5 232.5,-323.5 232.5,-304.5 133.5,-304.5"/>
<text text-anchor="middle" x="183" y="-311.5" font-family="Helvetica,sans-Serif" font-size="10.00">set_compress_info</text>
</a>
</g>
</g>
<!-- Node1&#45;&gt;Node2 -->
<g id="edge1" class="edge"><title>Node1&#45;&gt;Node2</title>
<path fill="none" stroke="midnightblue" d="M52.4378,-171.514C61.6023,-195.597 88.8968,-259.569 132,-295 134.04,-296.677 136.244,-298.216 138.55,-299.626"/>
<polygon fill="midnightblue" stroke="midnightblue" points="137.334,-302.939 147.82,-304.453 140.567,-296.731 137.334,-302.939"/>
</g>
<!-- Node3 -->
<g id="node3" class="node"><title>Node3</title>
<g id="a_node3"><a xlink:href="compress_8c.html#aa4ae33cd6bc7f7ccad755186ba7e653d" target="_top" xlink:title="Set the mailbox paths. ">
<polygon fill="white" stroke="red" points="148,-266.5 148,-285.5 218,-285.5 218,-266.5 148,-266.5"/>
<text text-anchor="middle" x="183" y="-273.5" font-family="Helvetica,sans-Serif" font-size="10.00">setup_paths</text>
</a>
</g>
</g>
<!-- Node1&#45;&gt;Node3 -->
<g id="edge2" class="edge"><title>Node1&#45;&gt;Node3</title>
<path fill="none" stroke="midnightblue" d="M55.11,-171.747C67.4418,-190.689 97.1243,-232.732 132,-257 134.706,-258.883 137.623,-260.609 140.64,-262.185"/>
<polygon fill="midnightblue" stroke="midnightblue" points="139.339,-265.44 149.883,-266.474 142.285,-259.09 139.339,-265.44"/>
</g>
<!-- Node4 -->
<g id="node4" class="node"><title>Node4</title>
<g id="a_node4"><a xlink:href="compress_8c.html#a2953d9559d6a77cf3e8350aa1a3f5b13" target="_top" xlink:title="Save the size of the compressed file. ">
<polygon fill="white" stroke="red" points="152,-228.5 152,-247.5 214,-247.5 214,-228.5 152,-228.5"/>
<text text-anchor="middle" x="183" y="-235.5" font-family="Helvetica,sans-Serif" font-size="10.00">store_size</text>
</a>
</g>
</g>
<!-- Node1&#45;&gt;Node4 -->
<g id="edge3" class="edge"><title>Node1&#45;&gt;Node4</title>
<path fill="none" stroke="midnightblue" d="M61.0687,-171.665C76.7243,-183.871 105.211,-204.969 132,-219 135.794,-220.987 139.845,-222.875 143.935,-224.635"/>
<polygon fill="midnightblue" stroke="midnightblue" points="142.87,-227.98 153.452,-228.496 145.501,-221.493 142.87,-227.98"/>
</g>
<!-- Node5 -->
<g id="node5" class="node"><title>Node5</title>
<g id="a_node5"><a xlink:href="compress_8c.html#a3a62d718d8cbd62b718636c9501d9818" target="_top" xlink:title="Try to lock the ctx&#45;&gt;realpath. ">
<polygon fill="white" stroke="red" points="146,-190.5 146,-209.5 220,-209.5 220,-190.5 146,-190.5"/>
<text text-anchor="middle" x="183" y="-197.5" font-family="Helvetica,sans-Serif" font-size="10.00">lock_realpath</text>
</a>
</g>
</g>
<!-- Node1&#45;&gt;Node5 -->
<g id="edge4" class="edge"><title>Node1&#45;&gt;Node5</title>
<path fill="none" stroke="midnightblue" d="M82.5615,-171.589C99.573,-176.449 120.432,-182.409 138.645,-187.613"/>
<polygon fill="midnightblue" stroke="midnightblue" points="137.872,-191.032 148.449,-190.414 139.796,-184.301 137.872,-191.032"/>
</g>
<!-- Node6 -->
<g id="node6" class="node"><title>Node6</title>
<g id="a_node6"><a xlink:href="compress_8c.html#a90da29e324df82c73080cabf7eee479b" target="_top" xlink:title="Run a system command. ">
<polygon fill="white" stroke="red" points="133.5,-152.5 133.5,-171.5 232.5,-171.5 232.5,-152.5 133.5,-152.5"/>
<text text-anchor="middle" x="183" y="-159.5" font-family="Helvetica,sans-Serif" font-size="10.00">execute_command</text>
</a>
</g>
</g>
<!-- Node1&#45;&gt;Node6 -->
<g id="edge5" class="edge"><title>Node1&#45;&gt;Node6</title>
<path fill="none" stroke="midnightblue" d="M96.2653,-162C104.945,-162 114.103,-162 123.075,-162"/>
<polygon fill="midnightblue" stroke="midnightblue" points="123.09,-165.5 133.089,-162 123.089,-158.5 123.09,-165.5"/>
</g>
<!-- Node7 -->
<g id="node7" class="node"><title>Node7</title>
<g id="a_node7"><a xlink:href="compress_8c.html#a52fa1b0ab89580a9c84a971923370a8e" target="_top" xlink:title="Unlock the ctx&#45;&gt;realpath. ">
<polygon fill="white" stroke="red" points="270.5,-57.5 270.5,-76.5 355.5,-76.5 355.5,-57.5 270.5,-57.5"/>
<text text-anchor="middle" x="313" y="-64.5" font-family="Helvetica,sans-Serif" font-size="10.00">unlock_realpath</text>
</a>
</g>
</g>
<!-- Node1&#45;&gt;Node7 -->
<g id="edge6" class="edge"><title>Node1&#45;&gt;Node7</title>
<path fill="none" stroke="midnightblue" d="M85.7295,-152.488C123.476,-142.295 183.673,-124.874 234,-105 251.469,-98.1013 270.425,-88.9081 285.275,-81.2921"/>
<polygon fill="midnightblue" stroke="midnightblue" points="287.127,-84.2742 294.384,-76.555 283.897,-78.0638 287.127,-84.2742"/>
</g>
<!-- Node8 -->
<g id="node8" class="node"><title>Node8</title>
<g id="a_node8"><a xlink:href="mx_8c.html#adf47b437bf62efa6dd4b940b8a5b791e" target="_top" xlink:title="Identify the type of mailbox. ">
<polygon fill="white" stroke="red" points="143,-76.5 143,-95.5 223,-95.5 223,-76.5 143,-76.5"/>
<text text-anchor="middle" x="183" y="-83.5" font-family="Helvetica,sans-Serif" font-size="10.00">mx_get_magic</text>
</a>
</g>
</g>
<!-- Node1&#45;&gt;Node8 -->
<g id="edge7" class="edge"><title>Node1&#45;&gt;Node8</title>
<path fill="none" stroke="midnightblue" d="M63.1019,-152.484C79.3857,-141.657 107.129,-123.704 132,-110 138.233,-106.566 145.034,-103.114 151.556,-99.9415"/>
<polygon fill="midnightblue" stroke="midnightblue" points="153.294,-102.991 160.813,-95.5271 150.28,-96.6723 153.294,-102.991"/>
</g>
<!-- Node9 -->
<g id="node9" class="node"><title>Node9</title>
<g id="a_node9"><a xlink:href="mx_8c.html#ab64012877019efe3735e675cbaf5a343" target="_top" xlink:title="Get mailbox operations. ">
<polygon fill="white" stroke="black" points="148,-38.5 148,-57.5 218,-57.5 218,-38.5 148,-38.5"/>
<text text-anchor="middle" x="183" y="-45.5" font-family="Helvetica,sans-Serif" font-size="10.00">mx_get_ops</text>
</a>
</g>
</g>
<!-- Node1&#45;&gt;Node9 -->
<g id="edge8" class="edge"><title>Node1&#45;&gt;Node9</title>
<path fill="none" stroke="midnightblue" d="M55.11,-152.253C67.4418,-133.311 97.1243,-91.268 132,-67 134.706,-65.1171 137.623,-63.391 140.64,-61.8145"/>
<polygon fill="midnightblue" stroke="midnightblue" points="142.285,-64.9098 149.883,-57.5263 139.339,-58.5599 142.285,-64.9098"/>
</g>
<!-- Node10 -->
<g id="node10" class="node"><title>Node10</title>
<g id="a_node10"><a xlink:href="compress_8c.html#a7d8662155a1d29280396e94b24dced7a" target="_top" xlink:title="Frees the compress info members and structure. ">
<polygon fill="white" stroke="black" points="132,-0.5 132,-19.5 234,-19.5 234,-0.5 132,-0.5"/>
<text text-anchor="middle" x="183" y="-7.5" font-family="Helvetica,sans-Serif" font-size="10.00">free_compress_info</text>
</a>
</g>
</g>
<!-- Node1&#45;&gt;Node10 -->
<g id="edge9" class="edge"><title>Node1&#45;&gt;Node10</title>
<path fill="none" stroke="midnightblue" d="M52.4378,-152.486C61.6023,-128.403 88.8968,-64.4307 132,-29 134.04,-27.3231 136.244,-25.7843 138.55,-24.3737"/>
<polygon fill="midnightblue" stroke="midnightblue" points="140.567,-27.2694 147.82,-19.5465 137.334,-21.0606 140.567,-27.2694"/>
</g>
<!-- Node10&#45;&gt;Node7 -->
<g id="edge10" class="edge"><title>Node10&#45;&gt;Node7</title>
<path fill="none" stroke="midnightblue" d="M210.388,-19.5187C218.06,-22.4228 226.415,-25.7189 234,-29 251.012,-36.3583 269.69,-45.422 284.503,-52.8518"/>
<polygon fill="midnightblue" stroke="midnightblue" points="283.119,-56.074 293.622,-57.4639 286.278,-49.8275 283.119,-56.074"/>
</g>
</g>
</svg>
