<?xml version="1.0" encoding="UTF-8" standalone="no"?>
<!DOCTYPE svg PUBLIC "-//W3C//DTD SVG 1.1//EN"
 "http://www.w3.org/Graphics/SVG/1.1/DTD/svg11.dtd">
<!-- Generated by graphviz version 2.36.0 (20140111.2315)
 -->
<!-- Title: cs_str_native_get Pages: 1 -->
<svg width="222pt" height="104pt"
 viewBox="0.00 0.00 222.00 104.00" xmlns="http://www.w3.org/2000/svg" xmlns:xlink="http://www.w3.org/1999/xlink">
<g id="graph0" class="graph" transform="scale(1 1) rotate(0) translate(4 100)">
<title>cs_str_native_get</title>
<polygon fill="white" stroke="none" points="-4,4 -4,-100 218,-100 218,4 -4,4"/>
<!-- Node1 -->
<g id="node1" class="node"><title>Node1</title>
<polygon fill="#bfbfbf" stroke="black" points="0,-38.5 0,-57.5 94,-57.5 94,-38.5 0,-38.5"/>
<text text-anchor="middle" x="47" y="-45.5" font-family="Helvetica,sans-Serif" font-size="10.00">cs_str_native_get</text>
</g>
<!-- Node2 -->
<g id="node2" class="node"><title>Node2</title>
<g id="a_node2"><a xlink:href="test_2config_2address_8c.html#afdd5f411dfa0e2d1c7c7a2a9710182dd" target="_top" xlink:title="test_native_get">
<polygon fill="white" stroke="red" points="130.5,-76.5 130.5,-95.5 213.5,-95.5 213.5,-76.5 130.5,-76.5"/>
<text text-anchor="middle" x="172" y="-83.5" font-family="Helvetica,sans-Serif" font-size="10.00">test_native_get</text>
</a>
</g>
</g>
<!-- Node1&#45;&gt;Node2 -->
<g id="edge1" class="edge"><title>Node1&#45;&gt;Node2</title>
<path fill="none" stroke="midnightblue" d="M89.0445,-60.6804C105.664,-65.8148 124.532,-71.6441 139.972,-76.4141"/>
<polygon fill="midnightblue" stroke="midnightblue" points="89.6257,-57.1968 79.0381,-57.589 87.5594,-63.8849 89.6257,-57.1968"/>
</g>
<!-- Node3 -->
<g id="node3" class="node"><title>Node3</title>
<g id="a_node3"><a xlink:href="test_2config_2address_8c.html#a3a25b594f616f113e6bc749efeb43531" target="_top" xlink:title="dump_native">
<polygon fill="white" stroke="red" points="136,-38.5 136,-57.5 208,-57.5 208,-38.5 136,-38.5"/>
<text text-anchor="middle" x="172" y="-45.5" font-family="Helvetica,sans-Serif" font-size="10.00">dump_native</text>
</a>
</g>
</g>
<!-- Node1&#45;&gt;Node3 -->
<g id="edge2" class="edge"><title>Node1&#45;&gt;Node3</title>
<path fill="none" stroke="midnightblue" d="M104.305,-48C115.009,-48 125.924,-48 135.742,-48"/>
<polygon fill="midnightblue" stroke="midnightblue" points="104.151,-44.5001 94.1506,-48 104.151,-51.5001 104.151,-44.5001"/>
</g>
<!-- Node4 -->
<g id="node4" class="node"><title>Node4</title>
<g id="a_node4"><a xlink:href="test_2config_2set_8h.html#a9df85117efed404dbec10443a902d5dd" target="_top" xlink:title="config_set">
<polygon fill="white" stroke="black" points="141,-0.5 141,-19.5 203,-19.5 203,-0.5 141,-0.5"/>
<text text-anchor="middle" x="172" y="-7.5" font-family="Helvetica,sans-Serif" font-size="10.00">config_set</text>
</a>
</g>
</g>
<!-- Node1&#45;&gt;Node4 -->
<g id="edge3" class="edge"><title>Node1&#45;&gt;Node4</title>
<path fill="none" stroke="midnightblue" d="M88.7253,-35.4182C105.728,-30.1654 125.131,-24.1711 140.822,-19.3232"/>
<polygon fill="midnightblue" stroke="midnightblue" points="87.5594,-32.1151 79.0381,-38.411 89.6257,-38.8032 87.5594,-32.1151"/>
</g>
</g>
</svg>
