<?xml version="1.0" encoding="UTF-8" standalone="no"?>
<!DOCTYPE svg PUBLIC "-//W3C//DTD SVG 1.1//EN"
 "http://www.w3.org/Graphics/SVG/1.1/DTD/svg11.dtd">
<!-- Generated by graphviz version 2.36.0 (20140111.2315)
 -->
<!-- Title: sort_init Pages: 1 -->
<svg width="186pt" height="218pt"
 viewBox="0.00 0.00 186.00 218.00" xmlns="http://www.w3.org/2000/svg" xmlns:xlink="http://www.w3.org/1999/xlink">
<g id="graph0" class="graph" transform="scale(1 1) rotate(0) translate(4 214)">
<title>sort_init</title>
<polygon fill="white" stroke="none" points="-4,4 -4,-214 182,-214 182,4 -4,4"/>
<!-- Node1 -->
<g id="node1" class="node"><title>Node1</title>
<polygon fill="#bfbfbf" stroke="black" points="0.5,-95.5 0.5,-114.5 51.5,-114.5 51.5,-95.5 0.5,-95.5"/>
<text text-anchor="middle" x="26" y="-102.5" font-family="Helvetica,sans-Serif" font-size="10.00">sort_init</text>
</g>
<!-- Node2 -->
<g id="node2" class="node"><title>Node2</title>
<g id="a_node2"><a xlink:href="config_2sort_8c.html#ac9cb1b1a69665a0b25f880c16d786730" target="_top" xlink:title="Set a Sort by string &#45; Implements cst_string_set. ">
<polygon fill="white" stroke="red" points="92.5,-190.5 92.5,-209.5 173.5,-209.5 173.5,-190.5 92.5,-190.5"/>
<text text-anchor="middle" x="133" y="-197.5" font-family="Helvetica,sans-Serif" font-size="10.00">sort_string_set</text>
</a>
</g>
</g>
<!-- Node1&#45;&gt;Node2 -->
<g id="edge1" class="edge"><title>Node1&#45;&gt;Node2</title>
<path fill="none" stroke="midnightblue" d="M32.5735,-114.662C42.1091,-130.451 62.9679,-161.929 88,-181 90.0849,-182.588 92.3229,-184.074 94.6447,-185.457"/>
<polygon fill="midnightblue" stroke="midnightblue" points="93.387,-188.749 103.869,-190.29 96.6358,-182.549 93.387,-188.749"/>
</g>
<!-- Node3 -->
<g id="node3" class="node"><title>Node3</title>
<g id="a_node3"><a xlink:href="config_2sort_8c.html#af458194ca4d2919a626af268cb81cd0f" target="_top" xlink:title="Get a Sort as a string &#45; Implements cst_string_get. ">
<polygon fill="white" stroke="red" points="92.5,-152.5 92.5,-171.5 173.5,-171.5 173.5,-152.5 92.5,-152.5"/>
<text text-anchor="middle" x="133" y="-159.5" font-family="Helvetica,sans-Serif" font-size="10.00">sort_string_get</text>
</a>
</g>
</g>
<!-- Node1&#45;&gt;Node3 -->
<g id="edge2" class="edge"><title>Node1&#45;&gt;Node3</title>
<path fill="none" stroke="midnightblue" d="M41.1863,-114.684C53.327,-122.764 71.4199,-134.318 88,-143 91.3677,-144.763 94.9348,-146.503 98.5229,-148.17"/>
<polygon fill="midnightblue" stroke="midnightblue" points="97.3892,-151.497 107.947,-152.383 100.246,-145.107 97.3892,-151.497"/>
</g>
<!-- Node4 -->
<g id="node4" class="node"><title>Node4</title>
<g id="a_node4"><a xlink:href="config_2sort_8c.html#ad4ee67ea5d8ab1c9d654fc2e8fa77af8" target="_top" xlink:title="Set a Sort config item by int &#45; Implements cst_native_set. ">
<polygon fill="white" stroke="red" points="91.5,-114.5 91.5,-133.5 174.5,-133.5 174.5,-114.5 91.5,-114.5"/>
<text text-anchor="middle" x="133" y="-121.5" font-family="Helvetica,sans-Serif" font-size="10.00">sort_native_set</text>
</a>
</g>
</g>
<!-- Node1&#45;&gt;Node4 -->
<g id="edge3" class="edge"><title>Node1&#45;&gt;Node4</title>
<path fill="none" stroke="midnightblue" d="M51.6178,-109.455C60.4373,-111.051 70.7357,-112.914 80.9601,-114.764"/>
<polygon fill="midnightblue" stroke="midnightblue" points="80.639,-118.263 91.1024,-116.599 81.8855,-111.375 80.639,-118.263"/>
</g>
<!-- Node5 -->
<g id="node5" class="node"><title>Node5</title>
<g id="a_node5"><a xlink:href="config_2sort_8c.html#a18be22df2e15ec86a710d846e548a8b6" target="_top" xlink:title="Get an int from a Sort config item &#45; Implements cst_native_get. ">
<polygon fill="white" stroke="black" points="91.5,-76.5 91.5,-95.5 174.5,-95.5 174.5,-76.5 91.5,-76.5"/>
<text text-anchor="middle" x="133" y="-83.5" font-family="Helvetica,sans-Serif" font-size="10.00">sort_native_get</text>
</a>
</g>
</g>
<!-- Node1&#45;&gt;Node5 -->
<g id="edge4" class="edge"><title>Node1&#45;&gt;Node5</title>
<path fill="none" stroke="midnightblue" d="M51.6178,-100.545C60.4373,-98.9494 70.7357,-97.0859 80.9601,-95.2358"/>
<polygon fill="midnightblue" stroke="midnightblue" points="81.8855,-98.6253 91.1024,-93.4005 80.639,-91.7371 81.8855,-98.6253"/>
</g>
<!-- Node6 -->
<g id="node6" class="node"><title>Node6</title>
<g id="a_node6"><a xlink:href="config_2sort_8c.html#a46f3b85af79f492736ace05a9665986a" target="_top" xlink:title="Reset a Sort to its initial value &#45; Implements cst_reset. ">
<polygon fill="white" stroke="black" points="103,-38.5 103,-57.5 163,-57.5 163,-38.5 103,-38.5"/>
<text text-anchor="middle" x="133" y="-45.5" font-family="Helvetica,sans-Serif" font-size="10.00">sort_reset</text>
</a>
</g>
</g>
<!-- Node1&#45;&gt;Node6 -->
<g id="edge5" class="edge"><title>Node1&#45;&gt;Node6</title>
<path fill="none" stroke="midnightblue" d="M41.1863,-95.3157C53.327,-87.236 71.4199,-75.6819 88,-67 91.3677,-65.2365 94.9348,-63.4973 98.5229,-61.8299"/>
<polygon fill="midnightblue" stroke="midnightblue" points="100.246,-64.8933 107.947,-57.6165 97.3892,-58.5029 100.246,-64.8933"/>
</g>
<!-- Node7 -->
<g id="node7" class="node"><title>Node7</title>
<g id="a_node7"><a xlink:href="config_2set_8c.html#aad52d5fdffe84c6231aa06d541073a38" target="_top" xlink:title="Register a type of config item. ">
<polygon fill="white" stroke="black" points="88.5,-0.5 88.5,-19.5 177.5,-19.5 177.5,-0.5 88.5,-0.5"/>
<text text-anchor="middle" x="133" y="-7.5" font-family="Helvetica,sans-Serif" font-size="10.00">cs_register_type</text>
</a>
</g>
</g>
<!-- Node1&#45;&gt;Node7 -->
<g id="edge6" class="edge"><title>Node1&#45;&gt;Node7</title>
<path fill="none" stroke="midnightblue" d="M32.5735,-95.3381C42.1091,-79.5492 62.9679,-48.0707 88,-29 90.0849,-27.4116 92.3229,-25.9265 94.6447,-24.5432"/>
<polygon fill="midnightblue" stroke="midnightblue" points="96.6358,-27.4513 103.869,-19.7099 93.387,-21.2509 96.6358,-27.4513"/>
</g>
</g>
</svg>
