<?xml version="1.0" encoding="UTF-8" standalone="no"?>
<!DOCTYPE svg PUBLIC "-//W3C//DTD SVG 1.1//EN"
 "http://www.w3.org/Graphics/SVG/1.1/DTD/svg11.dtd">
<!-- Generated by graphviz version 2.36.0 (20140111.2315)
 -->
<!-- Title: cs_str_string_set Pages: 1 -->
<svg width="306pt" height="522pt"
 viewBox="0.00 0.00 306.00 522.00" xmlns="http://www.w3.org/2000/svg" xmlns:xlink="http://www.w3.org/1999/xlink">
<g id="graph0" class="graph" transform="scale(1 1) rotate(0) translate(4 518)">
<title>cs_str_string_set</title>
<polygon fill="white" stroke="none" points="-4,4 -4,-518 302,-518 302,4 -4,4"/>
<!-- Node1 -->
<g id="node1" class="node"><title>Node1</title>
<polygon fill="#bfbfbf" stroke="black" points="0,-247.5 0,-266.5 92,-266.5 92,-247.5 0,-247.5"/>
<text text-anchor="middle" x="46" y="-254.5" font-family="Helvetica,sans-Serif" font-size="10.00">cs_str_string_set</text>
</g>
<!-- Node2 -->
<g id="node2" class="node"><title>Node2</title>
<g id="a_node2"><a xlink:href="browser_8h.html#ab036990112b8014c0b84c401e77f96d3" target="_top" xlink:title="Let the user select a file. ">
<polygon fill="white" stroke="red" points="133,-494.5 133,-513.5 219,-513.5 219,-494.5 133,-494.5"/>
<text text-anchor="middle" x="176" y="-501.5" font-family="Helvetica,sans-Serif" font-size="10.00">mutt_select_file</text>
</a>
</g>
</g>
<!-- Node1&#45;&gt;Node2 -->
<g id="edge1" class="edge"><title>Node1&#45;&gt;Node2</title>
<path fill="none" stroke="midnightblue" d="M49.2871,-276.831C55.1062,-319.045 74.0444,-418.92 128,-480 133.338,-486.043 140.56,-490.767 147.739,-494.365"/>
<polygon fill="midnightblue" stroke="midnightblue" points="52.7382,-276.224 48.0005,-266.748 45.7945,-277.11 52.7382,-276.224"/>
</g>
<!-- Node3 -->
<g id="node3" class="node"><title>Node3</title>
<g id="a_node3"><a xlink:href="main_8c.html#adedb285b02c41bde2158ded9cc9fd7ac" target="_top" xlink:title="Start NeoMutt. ">
<polygon fill="white" stroke="black" points="260,-456.5 260,-475.5 298,-475.5 298,-456.5 260,-456.5"/>
<text text-anchor="middle" x="279" y="-463.5" font-family="Helvetica,sans-Serif" font-size="10.00">main</text>
</a>
</g>
</g>
<!-- Node1&#45;&gt;Node3 -->
<g id="edge15" class="edge"><title>Node1&#45;&gt;Node3</title>
<path fill="none" stroke="midnightblue" d="M49.0857,-276.927C54.3772,-316.501 72.1489,-404.814 128,-447 167.169,-476.586 229.152,-473.087 259.72,-469.051"/>
<polygon fill="midnightblue" stroke="midnightblue" points="52.5523,-276.439 47.8808,-266.93 45.6026,-277.277 52.5523,-276.439"/>
</g>
<!-- Node4 -->
<g id="node4" class="node"><title>Node4</title>
<g id="a_node4"><a xlink:href="test_2config_2address_8c.html#a4eef1151766ab7cf756da87b4923338a" target="_top" xlink:title="test_initial_values">
<polygon fill="white" stroke="red" points="128.5,-418.5 128.5,-437.5 223.5,-437.5 223.5,-418.5 128.5,-418.5"/>
<text text-anchor="middle" x="176" y="-425.5" font-family="Helvetica,sans-Serif" font-size="10.00">test_initial_values</text>
</a>
</g>
</g>
<!-- Node1&#45;&gt;Node4 -->
<g id="edge3" class="edge"><title>Node1&#45;&gt;Node4</title>
<path fill="none" stroke="midnightblue" d="M52.5726,-276.503C62.6137,-308.374 86.6406,-371.787 128,-409 132.187,-412.768 137.219,-415.839 142.41,-418.326"/>
<polygon fill="midnightblue" stroke="midnightblue" points="55.8365,-275.204 49.5987,-266.64 49.1346,-277.224 55.8365,-275.204"/>
</g>
<!-- Node5 -->
<g id="node5" class="node"><title>Node5</title>
<g id="a_node5"><a xlink:href="test_2config_2address_8c.html#a6481c1ea806f91ee55dacd7bfe01acd8" target="_top" xlink:title="test_string_set">
<polygon fill="white" stroke="red" points="135.5,-380.5 135.5,-399.5 216.5,-399.5 216.5,-380.5 135.5,-380.5"/>
<text text-anchor="middle" x="176" y="-387.5" font-family="Helvetica,sans-Serif" font-size="10.00">test_string_set</text>
</a>
</g>
</g>
<!-- Node1&#45;&gt;Node5 -->
<g id="edge4" class="edge"><title>Node1&#45;&gt;Node5</title>
<path fill="none" stroke="midnightblue" d="M56.0111,-275.773C68.8223,-300.671 94.5113,-344.544 128,-371 132.696,-374.71 138.214,-377.79 143.785,-380.312"/>
<polygon fill="midnightblue" stroke="midnightblue" points="59.0592,-274.043 51.4624,-266.658 52.7957,-277.168 59.0592,-274.043"/>
</g>
<!-- Node6 -->
<g id="node6" class="node"><title>Node6</title>
<g id="a_node6"><a xlink:href="test_2config_2address_8c.html#a85fd1e4e98bab2f2185f2d6cb270d14b" target="_top" xlink:title="test_string_get">
<polygon fill="white" stroke="red" points="135.5,-342.5 135.5,-361.5 216.5,-361.5 216.5,-342.5 135.5,-342.5"/>
<text text-anchor="middle" x="176" y="-349.5" font-family="Helvetica,sans-Serif" font-size="10.00">test_string_get</text>
</a>
</g>
</g>
<!-- Node1&#45;&gt;Node6 -->
<g id="edge5" class="edge"><title>Node1&#45;&gt;Node6</title>
<path fill="none" stroke="midnightblue" d="M62.1243,-274.545C77.3695,-291.36 102.267,-316.547 128,-333 133.636,-336.603 140.067,-339.742 146.326,-342.373"/>
<polygon fill="midnightblue" stroke="midnightblue" points="64.334,-271.762 55.0785,-266.606 59.0983,-276.409 64.334,-271.762"/>
</g>
<!-- Node7 -->
<g id="node7" class="node"><title>Node7</title>
<g id="a_node7"><a xlink:href="test_2config_2address_8c.html#afdd5f411dfa0e2d1c7c7a2a9710182dd" target="_top" xlink:title="test_native_get">
<polygon fill="white" stroke="red" points="134.5,-304.5 134.5,-323.5 217.5,-323.5 217.5,-304.5 134.5,-304.5"/>
<text text-anchor="middle" x="176" y="-311.5" font-family="Helvetica,sans-Serif" font-size="10.00">test_native_get</text>
</a>
</g>
</g>
<!-- Node1&#45;&gt;Node7 -->
<g id="edge6" class="edge"><title>Node1&#45;&gt;Node7</title>
<path fill="none" stroke="midnightblue" d="M75.5454,-270.856C90.9825,-278.231 110.433,-287.335 128,-295 135.26,-298.168 143.225,-301.456 150.501,-304.39"/>
<polygon fill="midnightblue" stroke="midnightblue" points="77.0347,-267.688 66.505,-266.515 74.0049,-273.999 77.0347,-267.688"/>
</g>
<!-- Node8 -->
<g id="node8" class="node"><title>Node8</title>
<g id="a_node8"><a xlink:href="test_2config_2address_8c.html#ac8ddbbe16d88cb9b096c15cf225cbeb3" target="_top" xlink:title="test_reset">
<polygon fill="white" stroke="red" points="146,-266.5 146,-285.5 206,-285.5 206,-266.5 146,-266.5"/>
<text text-anchor="middle" x="176" y="-273.5" font-family="Helvetica,sans-Serif" font-size="10.00">test_reset</text>
</a>
</g>
</g>
<!-- Node1&#45;&gt;Node8 -->
<g id="edge7" class="edge"><title>Node1&#45;&gt;Node8</title>
<path fill="none" stroke="midnightblue" d="M102.354,-265.217C117.334,-267.44 132.957,-269.759 145.86,-271.674"/>
<polygon fill="midnightblue" stroke="midnightblue" points="102.534,-261.705 92.128,-263.699 101.506,-268.629 102.534,-261.705"/>
</g>
<!-- Node9 -->
<g id="node9" class="node"><title>Node9</title>
<g id="a_node9"><a xlink:href="test_2config_2address_8c.html#a906a32278ed761fb29743aebd54e5bac" target="_top" xlink:title="test_validator">
<polygon fill="white" stroke="red" points="138.5,-228.5 138.5,-247.5 213.5,-247.5 213.5,-228.5 138.5,-228.5"/>
<text text-anchor="middle" x="176" y="-235.5" font-family="Helvetica,sans-Serif" font-size="10.00">test_validator</text>
</a>
</g>
</g>
<!-- Node1&#45;&gt;Node9 -->
<g id="edge8" class="edge"><title>Node1&#45;&gt;Node9</title>
<path fill="none" stroke="midnightblue" d="M102.229,-248.802C114.422,-246.992 127.049,-245.118 138.292,-243.449"/>
<polygon fill="midnightblue" stroke="midnightblue" points="101.506,-245.371 92.128,-250.301 102.534,-252.295 101.506,-245.371"/>
</g>
<!-- Node10 -->
<g id="node10" class="node"><title>Node10</title>
<g id="a_node10"><a xlink:href="test_2config_2address_8c.html#a76541f7dea628989ebe0d44929067f64" target="_top" xlink:title="test_inherit">
<polygon fill="white" stroke="red" points="143.5,-190.5 143.5,-209.5 208.5,-209.5 208.5,-190.5 143.5,-190.5"/>
<text text-anchor="middle" x="176" y="-197.5" font-family="Helvetica,sans-Serif" font-size="10.00">test_inherit</text>
</a>
</g>
</g>
<!-- Node1&#45;&gt;Node10 -->
<g id="edge9" class="edge"><title>Node1&#45;&gt;Node10</title>
<path fill="none" stroke="midnightblue" d="M75.5454,-243.144C90.9825,-235.769 110.433,-226.665 128,-219 135.26,-215.832 143.225,-212.544 150.501,-209.61"/>
<polygon fill="midnightblue" stroke="midnightblue" points="74.0049,-240.001 66.505,-247.485 77.0347,-246.312 74.0049,-240.001"/>
</g>
<!-- Node11 -->
<g id="node11" class="node"><title>Node11</title>
<g id="a_node11"><a xlink:href="test_2config_2set_8h.html#a9df85117efed404dbec10443a902d5dd" target="_top" xlink:title="config_set">
<polygon fill="white" stroke="black" points="145,-152.5 145,-171.5 207,-171.5 207,-152.5 145,-152.5"/>
<text text-anchor="middle" x="176" y="-159.5" font-family="Helvetica,sans-Serif" font-size="10.00">config_set</text>
</a>
</g>
</g>
<!-- Node1&#45;&gt;Node11 -->
<g id="edge10" class="edge"><title>Node1&#45;&gt;Node11</title>
<path fill="none" stroke="midnightblue" d="M62.1243,-239.455C77.3695,-222.64 102.267,-197.453 128,-181 133.636,-177.397 140.067,-174.258 146.326,-171.627"/>
<polygon fill="midnightblue" stroke="midnightblue" points="59.0983,-237.591 55.0785,-247.394 64.334,-242.238 59.0983,-237.591"/>
</g>
<!-- Node12 -->
<g id="node12" class="node"><title>Node12</title>
<g id="a_node12"><a xlink:href="test_2config_2sort_8c.html#ad6967df231a56537b9c597c09d69e8fe" target="_top" xlink:title="test_sort_type">
<polygon fill="white" stroke="red" points="136.5,-114.5 136.5,-133.5 215.5,-133.5 215.5,-114.5 136.5,-114.5"/>
<text text-anchor="middle" x="176" y="-121.5" font-family="Helvetica,sans-Serif" font-size="10.00">test_sort_type</text>
</a>
</g>
</g>
<!-- Node1&#45;&gt;Node12 -->
<g id="edge11" class="edge"><title>Node1&#45;&gt;Node12</title>
<path fill="none" stroke="midnightblue" d="M56.0111,-238.227C68.8223,-213.329 94.5113,-169.456 128,-143 132.696,-139.29 138.214,-136.21 143.785,-133.688"/>
<polygon fill="midnightblue" stroke="midnightblue" points="52.7957,-236.832 51.4624,-247.342 59.0592,-239.957 52.7957,-236.832"/>
</g>
<!-- Node13 -->
<g id="node13" class="node"><title>Node13</title>
<g id="a_node13"><a xlink:href="init_8c.html#a8f0f3d5856d7f876c0dbf004faeeb8ad" target="_top" xlink:title="Parse the &#39;set&#39; family of commands &#45; Implements command_t. ">
<polygon fill="white" stroke="black" points="146.5,-76.5 146.5,-95.5 205.5,-95.5 205.5,-76.5 146.5,-76.5"/>
<text text-anchor="middle" x="176" y="-83.5" font-family="Helvetica,sans-Serif" font-size="10.00">parse_set</text>
</a>
</g>
</g>
<!-- Node1&#45;&gt;Node13 -->
<g id="edge12" class="edge"><title>Node1&#45;&gt;Node13</title>
<path fill="none" stroke="midnightblue" d="M52.5726,-237.497C62.6137,-205.626 86.6406,-142.213 128,-105 133.234,-100.291 139.787,-96.669 146.323,-93.9154"/>
<polygon fill="midnightblue" stroke="midnightblue" points="49.1346,-236.776 49.5987,-247.36 55.8365,-238.796 49.1346,-236.776"/>
</g>
<!-- Node14 -->
<g id="node14" class="node"><title>Node14</title>
<g id="a_node14"><a xlink:href="mutt_8h.html#a81fd8c287cd99179a455c6809855953c" target="_top" xlink:title="Initialise NeoMutt. ">
<polygon fill="white" stroke="black" points="149,-38.5 149,-57.5 203,-57.5 203,-38.5 149,-38.5"/>
<text text-anchor="middle" x="176" y="-45.5" font-family="Helvetica,sans-Serif" font-size="10.00">mutt_init</text>
</a>
</g>
</g>
<!-- Node1&#45;&gt;Node14 -->
<g id="edge13" class="edge"><title>Node1&#45;&gt;Node14</title>
<path fill="none" stroke="midnightblue" d="M50.3242,-236.969C57.6433,-198.877 78.597,-115.482 128,-67 133.779,-61.3286 141.475,-57.2796 148.963,-54.4195"/>
<polygon fill="midnightblue" stroke="midnightblue" points="46.801,-236.785 48.4741,-247.247 53.6903,-238.025 46.801,-236.785"/>
</g>
<!-- Node15 -->
<g id="node15" class="node"><title>Node15</title>
<g id="a_node15"><a xlink:href="mutt__logging_8h.html#ad4f467432144a2a9f23e60eb2af9c5c2" target="_top" xlink:title="Change the logging file. ">
<polygon fill="white" stroke="red" points="130.5,-0.5 130.5,-19.5 221.5,-19.5 221.5,-0.5 130.5,-0.5"/>
<text text-anchor="middle" x="176" y="-7.5" font-family="Helvetica,sans-Serif" font-size="10.00">mutt_log_set_file</text>
</a>
</g>
</g>
<!-- Node1&#45;&gt;Node15 -->
<g id="edge16" class="edge"><title>Node1&#45;&gt;Node15</title>
<path fill="none" stroke="midnightblue" d="M48.6437,-237.231C53.268,-193.861 70.111,-89.4221 128,-29 131.653,-25.1869 136.176,-22.1175 140.96,-19.6526"/>
<polygon fill="midnightblue" stroke="midnightblue" points="45.1469,-237.032 47.6762,-247.32 52.1149,-237.7 45.1469,-237.032"/>
</g>
<!-- Node2&#45;&gt;Node3 -->
<g id="edge2" class="edge"><title>Node2&#45;&gt;Node3</title>
<path fill="none" stroke="midnightblue" d="M212.137,-490.78C228.219,-484.729 246.599,-477.814 259.848,-472.829"/>
<polygon fill="midnightblue" stroke="midnightblue" points="210.614,-487.614 202.487,-494.411 213.079,-494.165 210.614,-487.614"/>
</g>
<!-- Node14&#45;&gt;Node3 -->
<g id="edge14" class="edge"><title>Node14&#45;&gt;Node3</title>
<path fill="none" stroke="midnightblue" d="M212.467,-57.4125C216.884,-59.8993 220.922,-63.0386 224,-67 273.324,-130.477 277.607,-401.963 277.968,-456.453"/>
<polygon fill="midnightblue" stroke="midnightblue" points="213.609,-54.0878 203.054,-53.1697 210.732,-60.4696 213.609,-54.0878"/>
</g>
</g>
</svg>
