<?xml version="1.0" encoding="UTF-8" standalone="no"?>
<!DOCTYPE svg PUBLIC "-//W3C//DTD SVG 1.1//EN"
 "http://www.w3.org/Graphics/SVG/1.1/DTD/svg11.dtd">
<!-- Generated by graphviz version 2.36.0 (20140111.2315)
 -->
<!-- Title: bool_str_toggle Pages: 1 -->
<svg width="340pt" height="104pt"
 viewBox="0.00 0.00 340.00 104.00" xmlns="http://www.w3.org/2000/svg" xmlns:xlink="http://www.w3.org/1999/xlink">
<g id="graph0" class="graph" transform="scale(1 1) rotate(0) translate(4 100)">
<title>bool_str_toggle</title>
<polygon fill="white" stroke="none" points="-4,4 -4,-100 336,-100 336,4 -4,4"/>
<!-- Node1 -->
<g id="node1" class="node"><title>Node1</title>
<polygon fill="#bfbfbf" stroke="black" points="0.5,-38.5 0.5,-57.5 83.5,-57.5 83.5,-38.5 0.5,-38.5"/>
<text text-anchor="middle" x="42" y="-45.5" font-family="Helvetica,sans-Serif" font-size="10.00">bool_str_toggle</text>
</g>
<!-- Node2 -->
<g id="node2" class="node"><title>Node2</title>
<g id="a_node2"><a xlink:href="config_2set_8c.html#a6a48e8c12db6f64a6da6b219c3d987d9" target="_top" xlink:title="Get the HashElem representing a config item. ">
<polygon fill="white" stroke="red" points="125,-76.5 125,-95.5 197,-95.5 197,-76.5 125,-76.5"/>
<text text-anchor="middle" x="161" y="-83.5" font-family="Helvetica,sans-Serif" font-size="10.00">cs_get_elem</text>
</a>
</g>
</g>
<!-- Node1&#45;&gt;Node2 -->
<g id="edge1" class="edge"><title>Node1&#45;&gt;Node2</title>
<path fill="none" stroke="midnightblue" d="M72.524,-57.589C87.2119,-62.3594 105.16,-68.1888 120.968,-73.3229"/>
<polygon fill="midnightblue" stroke="midnightblue" points="119.893,-76.6538 130.485,-76.4141 122.056,-69.9961 119.893,-76.6538"/>
</g>
<!-- Node3 -->
<g id="node3" class="node"><title>Node3</title>
<g id="a_node3"><a xlink:href="buffer_8c.html#ad057ee239ae5bcfd72cab3749036ab02" target="_top" xlink:title="Format a string into a Buffer. ">
<polygon fill="white" stroke="red" points="238.5,-19.5 238.5,-38.5 331.5,-38.5 331.5,-19.5 238.5,-19.5"/>
<text text-anchor="middle" x="285" y="-26.5" font-family="Helvetica,sans-Serif" font-size="10.00">mutt_buffer_printf</text>
</a>
</g>
</g>
<!-- Node1&#45;&gt;Node3 -->
<g id="edge2" class="edge"><title>Node1&#45;&gt;Node3</title>
<path fill="none" stroke="midnightblue" d="M83.6098,-44.7984C123.31,-41.6685 184.067,-36.8785 228.275,-33.3933"/>
<polygon fill="midnightblue" stroke="midnightblue" points="228.592,-36.8792 238.286,-32.604 228.042,-29.9009 228.592,-36.8792"/>
</g>
<!-- Node4 -->
<g id="node4" class="node"><title>Node4</title>
<g id="a_node4"><a xlink:href="config_2bool_8c.html#a0c3d1d3762a3c3fb7815a3f3420a6a1e" target="_top" xlink:title="Toggle the value of a bool. ">
<polygon fill="white" stroke="red" points="120,-0.5 120,-19.5 202,-19.5 202,-0.5 120,-0.5"/>
<text text-anchor="middle" x="161" y="-7.5" font-family="Helvetica,sans-Serif" font-size="10.00">bool_he_toggle</text>
</a>
</g>
</g>
<!-- Node1&#45;&gt;Node4 -->
<g id="edge3" class="edge"><title>Node1&#45;&gt;Node4</title>
<path fill="none" stroke="midnightblue" d="M72.524,-38.411C87.2119,-33.6406 105.16,-27.8112 120.968,-22.6771"/>
<polygon fill="midnightblue" stroke="midnightblue" points="122.056,-26.0039 130.485,-19.5859 119.893,-19.3462 122.056,-26.0039"/>
</g>
<!-- Node4&#45;&gt;Node3 -->
<g id="edge4" class="edge"><title>Node4&#45;&gt;Node3</title>
<path fill="none" stroke="midnightblue" d="M202.285,-16.274C210.566,-17.5636 219.425,-18.9433 228.143,-20.301"/>
<polygon fill="midnightblue" stroke="midnightblue" points="227.85,-23.7974 238.269,-21.878 228.927,-16.8808 227.85,-23.7974"/>
</g>
</g>
</svg>
