<?xml version="1.0" encoding="UTF-8" standalone="no"?>
<!DOCTYPE svg PUBLIC "-//W3C//DTD SVG 1.1//EN"
 "http://www.w3.org/Graphics/SVG/1.1/DTD/svg11.dtd">
<!-- Generated by graphviz version 2.36.0 (20140111.2315)
 -->
<!-- Title: cs_he_native_set Pages: 1 -->
<svg width="332pt" height="123pt"
 viewBox="0.00 0.00 332.00 123.00" xmlns="http://www.w3.org/2000/svg" xmlns:xlink="http://www.w3.org/1999/xlink">
<g id="graph0" class="graph" transform="scale(1 1) rotate(0) translate(4 119)">
<title>cs_he_native_set</title>
<polygon fill="white" stroke="none" points="-4,4 -4,-119 328,-119 328,4 -4,4"/>
<!-- Node1 -->
<g id="node1" class="node"><title>Node1</title>
<polygon fill="#bfbfbf" stroke="black" points="0.5,-38.5 0.5,-57.5 93.5,-57.5 93.5,-38.5 0.5,-38.5"/>
<text text-anchor="middle" x="47" y="-45.5" font-family="Helvetica,sans-Serif" font-size="10.00">cs_he_native_set</text>
</g>
<!-- Node2 -->
<g id="node2" class="node"><title>Node2</title>
<g id="a_node2"><a xlink:href="init_8c.html#a8f0f3d5856d7f876c0dbf004faeeb8ad" target="_top" xlink:title="Parse the &#39;set&#39; family of commands &#45; Implements command_t. ">
<polygon fill="white" stroke="black" points="137.5,-95.5 137.5,-114.5 196.5,-114.5 196.5,-95.5 137.5,-95.5"/>
<text text-anchor="middle" x="167" y="-102.5" font-family="Helvetica,sans-Serif" font-size="10.00">parse_set</text>
</a>
</g>
</g>
<!-- Node1&#45;&gt;Node2 -->
<g id="edge1" class="edge"><title>Node1&#45;&gt;Node2</title>
<path fill="none" stroke="midnightblue" d="M76.7694,-61.8971C98.2994,-72.2972 127.188,-86.252 146.185,-95.4284"/>
<polygon fill="midnightblue" stroke="midnightblue" points="78.2774,-58.7386 67.7505,-57.5405 75.2327,-65.0418 78.2774,-58.7386"/>
</g>
<!-- Node3 -->
<g id="node3" class="node"><title>Node3</title>
<g id="a_node3"><a xlink:href="mutt__lua_8c.html#af96bea1efde57c78432367ad9e0b62d0" target="_top" xlink:title="Set a NeoMutt variable. ">
<polygon fill="white" stroke="black" points="130.5,-57.5 130.5,-76.5 203.5,-76.5 203.5,-57.5 130.5,-57.5"/>
<text text-anchor="middle" x="167" y="-64.5" font-family="Helvetica,sans-Serif" font-size="10.00">lua_mutt_set</text>
</a>
</g>
</g>
<!-- Node1&#45;&gt;Node3 -->
<g id="edge2" class="edge"><title>Node1&#45;&gt;Node3</title>
<path fill="none" stroke="midnightblue" d="M103.758,-56.978C112.815,-58.4364 121.974,-59.9111 130.379,-61.2643"/>
<polygon fill="midnightblue" stroke="midnightblue" points="104.051,-53.4802 93.6219,-55.3459 102.938,-60.3912 104.051,-53.4802"/>
</g>
<!-- Node4 -->
<g id="node4" class="node"><title>Node4</title>
<g id="a_node4"><a xlink:href="test_2config_2account_8h.html#a001e798c1cbf9721cc2fc9b2a98f446e" target="_top" xlink:title="Set an Account&#45;specific config item. ">
<polygon fill="white" stroke="black" points="130,-19.5 130,-38.5 204,-38.5 204,-19.5 130,-19.5"/>
<text text-anchor="middle" x="167" y="-26.5" font-family="Helvetica,sans-Serif" font-size="10.00">ac_set_value</text>
</a>
</g>
</g>
<!-- Node1&#45;&gt;Node4 -->
<g id="edge3" class="edge"><title>Node1&#45;&gt;Node4</title>
<path fill="none" stroke="midnightblue" d="M103.541,-39.057C112.403,-37.63 121.37,-36.1861 129.638,-34.8549"/>
<polygon fill="midnightblue" stroke="midnightblue" points="102.938,-35.6088 93.6219,-40.6541 104.051,-42.5198 102.938,-35.6088"/>
</g>
<!-- Node5 -->
<g id="node5" class="node"><title>Node5</title>
<g id="a_node5"><a xlink:href="account2_8h.html#a2ce9e343cbe8dcaa562803d43192b409" target="_top" xlink:title="config_account">
<polygon fill="white" stroke="black" points="240.5,-0.5 240.5,-19.5 323.5,-19.5 323.5,-0.5 240.5,-0.5"/>
<text text-anchor="middle" x="282" y="-7.5" font-family="Helvetica,sans-Serif" font-size="10.00">config_account</text>
</a>
</g>
</g>
<!-- Node1&#45;&gt;Node5 -->
<g id="edge5" class="edge"><title>Node1&#45;&gt;Node5</title>
<path fill="none" stroke="midnightblue" d="M72.3686,-33.288C88.1789,-24.6235 109.571,-14.5036 130,-10 166.737,-1.90147 209.734,-2.88215 240.431,-5.30806"/>
<polygon fill="midnightblue" stroke="midnightblue" points="70.2741,-30.4522 63.3041,-38.4316 73.7288,-36.5403 70.2741,-30.4522"/>
</g>
<!-- Node4&#45;&gt;Node5 -->
<g id="edge4" class="edge"><title>Node4&#45;&gt;Node5</title>
<path fill="none" stroke="midnightblue" d="M214.024,-21.2615C222.684,-19.8053 231.685,-18.2919 240.173,-16.8647"/>
<polygon fill="midnightblue" stroke="midnightblue" points="213.346,-17.8263 204.065,-22.936 214.507,-24.7294 213.346,-17.8263"/>
</g>
</g>
</svg>
