<?xml version="1.0" encoding="UTF-8" standalone="no"?>
<!DOCTYPE svg PUBLIC "-//W3C//DTD SVG 1.1//EN"
 "http://www.w3.org/Graphics/SVG/1.1/DTD/svg11.dtd">
<!-- Generated by graphviz version 2.36.0 (20140111.2315)
 -->
<!-- Title: create_synonym Pages: 1 -->
<svg width="204pt" height="28pt"
 viewBox="0.00 0.00 204.00 28.00" xmlns="http://www.w3.org/2000/svg" xmlns:xlink="http://www.w3.org/1999/xlink">
<g id="graph0" class="graph" transform="scale(1 1) rotate(0) translate(4 24)">
<title>create_synonym</title>
<polygon fill="white" stroke="none" points="-4,4 -4,-24 200,-24 200,4 -4,4"/>
<!-- Node1 -->
<g id="node1" class="node"><title>Node1</title>
<polygon fill="#bfbfbf" stroke="black" points="0.5,-0.5 0.5,-19.5 89.5,-19.5 89.5,-0.5 0.5,-0.5"/>
<text text-anchor="middle" x="45" y="-7.5" font-family="Helvetica,sans-Serif" font-size="10.00">create_synonym</text>
</g>
<!-- Node2 -->
<g id="node2" class="node"><title>Node2</title>
<g id="a_node2"><a xlink:href="config_2set_8c.html#a12b0e4cd101b1dd514242c109d324e19" target="_top" xlink:title="Register one config item. ">
<polygon fill="white" stroke="red" points="126,-0.5 126,-19.5 196,-19.5 196,-0.5 126,-0.5"/>
<text text-anchor="middle" x="161" y="-7.5" font-family="Helvetica,sans-Serif" font-size="10.00">reg_one_var</text>
</a>
</g>
</g>
<!-- Node1&#45;&gt;Node2 -->
<g id="edge1" class="edge"><title>Node1&#45;&gt;Node2</title>
<path fill="none" stroke="midnightblue" d="M99.9599,-10C108.738,-10 117.613,-10 125.748,-10"/>
<polygon fill="midnightblue" stroke="midnightblue" points="99.7494,-6.5001 89.7493,-10 99.7493,-13.5001 99.7494,-6.5001"/>
</g>
</g>
</svg>
