<?xml version="1.0" encoding="UTF-8" standalone="no"?>
<!DOCTYPE svg PUBLIC "-//W3C//DTD SVG 1.1//EN"
 "http://www.w3.org/Graphics/SVG/1.1/DTD/svg11.dtd">
<!-- Generated by graphviz version 2.36.0 (20140111.2315)
 -->
<!-- Title: config/magic.c Pages: 1 -->
<svg width="708pt" height="140pt"
 viewBox="0.00 0.00 708.00 140.00" xmlns="http://www.w3.org/2000/svg" xmlns:xlink="http://www.w3.org/1999/xlink">
<g id="graph0" class="graph" transform="scale(1 1) rotate(0) translate(4 136)">
<title>config/magic.c</title>
<polygon fill="white" stroke="none" points="-4,4 -4,-136 704,-136 704,4 -4,4"/>
<!-- Node1 -->
<g id="node1" class="node"><title>Node1</title>
<polygon fill="#bfbfbf" stroke="black" points="314,-112.5 314,-131.5 394,-131.5 394,-112.5 314,-112.5"/>
<text text-anchor="middle" x="354" y="-119.5" font-family="Helvetica,sans-Serif" font-size="10.00">config/magic.c</text>
</g>
<!-- Node2 -->
<g id="node2" class="node"><title>Node2</title>
<polygon fill="white" stroke="#bfbfbf" points="-0.5,-56.5 -0.5,-75.5 50.5,-75.5 50.5,-56.5 -0.5,-56.5"/>
<text text-anchor="middle" x="25" y="-63.5" font-family="Helvetica,sans-Serif" font-size="10.00">config.h</text>
</g>
<!-- Node1&#45;&gt;Node2 -->
<g id="edge1" class="edge"><title>Node1&#45;&gt;Node2</title>
<path fill="none" stroke="midnightblue" d="M313.83,-116.143C258.896,-109.219 157.095,-95.3797 60.4797,-75.9088"/>
<polygon fill="midnightblue" stroke="midnightblue" points="61.0436,-72.4518 50.5459,-73.8828 59.6447,-79.3106 61.0436,-72.4518"/>
</g>
<!-- Node3 -->
<g id="node3" class="node"><title>Node3</title>
<polygon fill="white" stroke="#bfbfbf" points="209,-0.5 209,-19.5 261,-19.5 261,-0.5 209,-0.5"/>
<text text-anchor="middle" x="235" y="-7.5" font-family="Helvetica,sans-Serif" font-size="10.00">stddef.h</text>
</g>
<!-- Node1&#45;&gt;Node3 -->
<g id="edge2" class="edge"><title>Node1&#45;&gt;Node3</title>
<path fill="none" stroke="midnightblue" d="M316.49,-112.442C295.389,-105.807 270.123,-94.5255 254,-76 242.794,-63.1239 238.187,-43.9458 236.299,-29.7556"/>
<polygon fill="midnightblue" stroke="midnightblue" points="239.767,-29.264 235.293,-19.6603 232.802,-29.958 239.767,-29.264"/>
</g>
<!-- Node4 -->
<g id="node4" class="node"><title>Node4</title>
<polygon fill="white" stroke="#bfbfbf" points="159,-56.5 159,-75.5 207,-75.5 207,-56.5 159,-56.5"/>
<text text-anchor="middle" x="183" y="-63.5" font-family="Helvetica,sans-Serif" font-size="10.00">limits.h</text>
</g>
<!-- Node1&#45;&gt;Node4 -->
<g id="edge3" class="edge"><title>Node1&#45;&gt;Node4</title>
<path fill="none" stroke="midnightblue" d="M326.905,-112.444C297.162,-103.051 249.358,-87.9553 217.092,-77.7658"/>
<polygon fill="midnightblue" stroke="midnightblue" points="217.794,-74.3172 207.204,-74.6433 215.686,-80.9923 217.794,-74.3172"/>
</g>
<!-- Node5 -->
<g id="node5" class="node"><title>Node5</title>
<polygon fill="white" stroke="#bfbfbf" points="517.5,-0.5 517.5,-19.5 566.5,-19.5 566.5,-0.5 517.5,-0.5"/>
<text text-anchor="middle" x="542" y="-7.5" font-family="Helvetica,sans-Serif" font-size="10.00">stdint.h</text>
</g>
<!-- Node1&#45;&gt;Node5 -->
<g id="edge4" class="edge"><title>Node1&#45;&gt;Node5</title>
<path fill="none" stroke="midnightblue" d="M376.02,-112.34C396.294,-104.032 426.933,-90.6193 452,-76 477.946,-60.8684 505.654,-40.0728 523.364,-26.1161"/>
<polygon fill="midnightblue" stroke="midnightblue" points="526.015,-28.4785 531.651,-19.5073 521.651,-23.0055 526.015,-28.4785"/>
</g>
<!-- Node6 -->
<g id="node6" class="node"><title>Node6</title>
<g id="a_node6"><a xlink:href="buffer_8h.html" target="_top" xlink:title="General purpose object for storing and parsing strings. ">
<polygon fill="white" stroke="red" points="69,-56.5 69,-75.5 141,-75.5 141,-56.5 69,-56.5"/>
<text text-anchor="middle" x="105" y="-63.5" font-family="Helvetica,sans-Serif" font-size="10.00">mutt/buffer.h</text>
</a>
</g>
</g>
<!-- Node1&#45;&gt;Node6 -->
<g id="edge5" class="edge"><title>Node1&#45;&gt;Node6</title>
<path fill="none" stroke="midnightblue" d="M314.545,-112.444C270.086,-102.802 197.91,-87.1491 150.946,-76.9642"/>
<polygon fill="midnightblue" stroke="midnightblue" points="151.551,-73.5141 141.036,-74.8151 150.067,-80.3551 151.551,-73.5141"/>
</g>
<!-- Node7 -->
<g id="node7" class="node"><title>Node7</title>
<g id="a_node7"><a xlink:href="logging_8h.html" target="_top" xlink:title="Logging Dispatcher. ">
<polygon fill="white" stroke="red" points="365,-56.5 365,-75.5 443,-75.5 443,-56.5 365,-56.5"/>
<text text-anchor="middle" x="404" y="-63.5" font-family="Helvetica,sans-Serif" font-size="10.00">mutt/logging.h</text>
</a>
</g>
</g>
<!-- Node1&#45;&gt;Node7 -->
<g id="edge7" class="edge"><title>Node1&#45;&gt;Node7</title>
<path fill="none" stroke="midnightblue" d="M362.256,-112.083C369.465,-104.298 380.11,-92.8015 388.846,-83.3665"/>
<polygon fill="midnightblue" stroke="midnightblue" points="391.671,-85.4666 395.897,-75.7511 386.535,-80.7108 391.671,-85.4666"/>
</g>
<!-- Node8 -->
<g id="node8" class="node"><title>Node8</title>
<g id="a_node8"><a xlink:href="memory_8h.html" target="_top" xlink:title="Memory management wrappers. ">
<polygon fill="white" stroke="black" points="263.5,-56.5 263.5,-75.5 346.5,-75.5 346.5,-56.5 263.5,-56.5"/>
<text text-anchor="middle" x="305" y="-63.5" font-family="Helvetica,sans-Serif" font-size="10.00">mutt/memory.h</text>
</a>
</g>
</g>
<!-- Node1&#45;&gt;Node8 -->
<g id="edge8" class="edge"><title>Node1&#45;&gt;Node8</title>
<path fill="none" stroke="midnightblue" d="M345.909,-112.083C338.845,-104.298 328.412,-92.8015 319.851,-83.3665"/>
<polygon fill="midnightblue" stroke="midnightblue" points="322.253,-80.8047 312.941,-75.7511 317.069,-85.5087 322.253,-80.8047"/>
</g>
<!-- Node9 -->
<g id="node9" class="node"><title>Node9</title>
<g id="a_node9"><a xlink:href="string2_8h.html" target="_top" xlink:title="String manipulation functions. ">
<polygon fill="white" stroke="red" points="499.5,-56.5 499.5,-75.5 576.5,-75.5 576.5,-56.5 499.5,-56.5"/>
<text text-anchor="middle" x="538" y="-63.5" font-family="Helvetica,sans-Serif" font-size="10.00">mutt/string2.h</text>
</a>
</g>
</g>
<!-- Node1&#45;&gt;Node9 -->
<g id="edge10" class="edge"><title>Node1&#45;&gt;Node9</title>
<path fill="none" stroke="midnightblue" d="M383.155,-112.444C414.513,-103.241 464.531,-88.5617 499.197,-78.3879"/>
<polygon fill="midnightblue" stroke="midnightblue" points="500.371,-81.6909 508.981,-75.5164 498.4,-74.9742 500.371,-81.6909"/>
</g>
<!-- Node10 -->
<g id="node10" class="node"><title>Node10</title>
<g id="a_node10"><a xlink:href="config_2set_8h.html" target="_top" xlink:title="A collection of config items. ">
<polygon fill="white" stroke="red" points="595,-56.5 595,-75.5 633,-75.5 633,-56.5 595,-56.5"/>
<text text-anchor="middle" x="614" y="-63.5" font-family="Helvetica,sans-Serif" font-size="10.00">set.h</text>
</a>
</g>
</g>
<!-- Node1&#45;&gt;Node10 -->
<g id="edge11" class="edge"><title>Node1&#45;&gt;Node10</title>
<path fill="none" stroke="midnightblue" d="M394.354,-114.506C440.69,-106.734 518.832,-92.6601 585,-76 585.099,-75.9751 585.198,-75.95 585.298,-75.9248"/>
<polygon fill="midnightblue" stroke="midnightblue" points="586.044,-79.3501 594.74,-73.2971 584.167,-72.6064 586.044,-79.3501"/>
</g>
<!-- Node11 -->
<g id="node11" class="node"><title>Node11</title>
<g id="a_node11"><a xlink:href="types_8h.html" target="_top" xlink:title="Constants for all the config types. ">
<polygon fill="white" stroke="black" points="651.5,-56.5 651.5,-75.5 700.5,-75.5 700.5,-56.5 651.5,-56.5"/>
<text text-anchor="middle" x="676" y="-63.5" font-family="Helvetica,sans-Serif" font-size="10.00">types.h</text>
</a>
</g>
</g>
<!-- Node1&#45;&gt;Node11 -->
<g id="edge13" class="edge"><title>Node1&#45;&gt;Node11</title>
<path fill="none" stroke="midnightblue" d="M394.307,-116.045C448.308,-109.113 547.275,-95.38 641.234,-75.9681"/>
<polygon fill="midnightblue" stroke="midnightblue" points="642.117,-79.3593 651.189,-73.8859 640.684,-72.5076 642.117,-79.3593"/>
</g>
<!-- Node6&#45;&gt;Node3 -->
<g id="edge6" class="edge"><title>Node6&#45;&gt;Node3</title>
<path fill="none" stroke="midnightblue" d="M125.599,-56.4435C146.993,-47.5566 180.681,-33.5632 205.024,-23.4514"/>
<polygon fill="midnightblue" stroke="midnightblue" points="206.605,-26.5848 214.497,-19.5164 203.92,-20.1203 206.605,-26.5848"/>
</g>
<!-- Node8&#45;&gt;Node3 -->
<g id="edge9" class="edge"><title>Node8&#45;&gt;Node3</title>
<path fill="none" stroke="midnightblue" d="M293.753,-56.324C283.203,-48.1849 267.199,-35.8395 254.558,-26.0874"/>
<polygon fill="midnightblue" stroke="midnightblue" points="256.507,-23.1707 246.451,-19.8339 252.231,-28.7132 256.507,-23.1707"/>
</g>
<!-- Node10&#45;&gt;Node5 -->
<g id="edge12" class="edge"><title>Node10&#45;&gt;Node5</title>
<path fill="none" stroke="midnightblue" d="M602.432,-56.324C591.58,-48.1849 575.119,-35.8395 562.117,-26.0874"/>
<polygon fill="midnightblue" stroke="midnightblue" points="563.879,-23.0339 553.779,-19.8339 559.679,-28.6339 563.879,-23.0339"/>
</g>
</g>
</svg>
