<?xml version="1.0" encoding="UTF-8" standalone="no"?>
<!DOCTYPE svg PUBLIC "-//W3C//DTD SVG 1.1//EN"
 "http://www.w3.org/Graphics/SVG/1.1/DTD/svg11.dtd">
<!-- Generated by graphviz version 2.36.0 (20140111.2315)
 -->
<!-- Title: regex_native_get Pages: 1 -->
<svg width="196pt" height="28pt"
 viewBox="0.00 0.00 196.00 28.00" xmlns="http://www.w3.org/2000/svg" xmlns:xlink="http://www.w3.org/1999/xlink">
<g id="graph0" class="graph" transform="scale(1 1) rotate(0) translate(4 24)">
<title>regex_native_get</title>
<polygon fill="white" stroke="none" points="-4,4 -4,-24 192,-24 192,4 -4,4"/>
<!-- Node1 -->
<g id="node1" class="node"><title>Node1</title>
<polygon fill="#bfbfbf" stroke="black" points="0.5,-0.5 0.5,-19.5 91.5,-19.5 91.5,-0.5 0.5,-0.5"/>
<text text-anchor="middle" x="46" y="-7.5" font-family="Helvetica,sans-Serif" font-size="10.00">regex_native_get</text>
</g>
<!-- Node2 -->
<g id="node2" class="node"><title>Node2</title>
<g id="a_node2"><a xlink:href="regex2_8h.html#a0eac3faaf8685546c79a7e648f15b6f7" target="_top" xlink:title="Register the Regex config type. ">
<polygon fill="white" stroke="red" points="128.5,-0.5 128.5,-19.5 187.5,-19.5 187.5,-0.5 128.5,-0.5"/>
<text text-anchor="middle" x="158" y="-7.5" font-family="Helvetica,sans-Serif" font-size="10.00">regex_init</text>
</a>
</g>
</g>
<!-- Node1&#45;&gt;Node2 -->
<g id="edge1" class="edge"><title>Node1&#45;&gt;Node2</title>
<path fill="none" stroke="midnightblue" d="M101.997,-10C111.129,-10 120.261,-10 128.386,-10"/>
<polygon fill="midnightblue" stroke="midnightblue" points="101.741,-6.5001 91.7412,-10 101.741,-13.5001 101.741,-6.5001"/>
</g>
</g>
</svg>
