<?xml version="1.0" encoding="UTF-8" standalone="no"?>
<!DOCTYPE svg PUBLIC "-//W3C//DTD SVG 1.1//EN"
 "http://www.w3.org/Graphics/SVG/1.1/DTD/svg11.dtd">
<!-- Generated by graphviz version 2.36.0 (20140111.2315)
 -->
<!-- Title: bool_str_toggle Pages: 1 -->
<svg width="256pt" height="180pt"
 viewBox="0.00 0.00 256.00 180.00" xmlns="http://www.w3.org/2000/svg" xmlns:xlink="http://www.w3.org/1999/xlink">
<g id="graph0" class="graph" transform="scale(1 1) rotate(0) translate(4 176)">
<title>bool_str_toggle</title>
<polygon fill="white" stroke="none" points="-4,4 -4,-176 252,-176 252,4 -4,4"/>
<!-- Node1 -->
<g id="node1" class="node"><title>Node1</title>
<polygon fill="#bfbfbf" stroke="black" points="0.5,-76.5 0.5,-95.5 83.5,-95.5 83.5,-76.5 0.5,-76.5"/>
<text text-anchor="middle" x="42" y="-83.5" font-family="Helvetica,sans-Serif" font-size="10.00">bool_str_toggle</text>
</g>
<!-- Node2 -->
<g id="node2" class="node"><title>Node2</title>
<g id="a_node2"><a xlink:href="browser_8h.html#ab036990112b8014c0b84c401e77f96d3" target="_top" xlink:title="Let the user select a file. ">
<polygon fill="white" stroke="red" points="141,-152.5 141,-171.5 227,-171.5 227,-152.5 141,-152.5"/>
<text text-anchor="middle" x="184" y="-159.5" font-family="Helvetica,sans-Serif" font-size="10.00">mutt_select_file</text>
</a>
</g>
</g>
<!-- Node1&#45;&gt;Node2 -->
<g id="edge1" class="edge"><title>Node1&#45;&gt;Node2</title>
<path fill="none" stroke="midnightblue" d="M61.5784,-102.637C76.4682,-115.228 98.3773,-132.15 120,-143 127.454,-146.74 135.779,-149.892 143.874,-152.488"/>
<polygon fill="midnightblue" stroke="midnightblue" points="63.5307,-99.6984 53.6779,-95.8031 58.951,-104.992 63.5307,-99.6984"/>
</g>
<!-- Node3 -->
<g id="node3" class="node"><title>Node3</title>
<g id="a_node3"><a xlink:href="test_2config_2bool_8c.html#aa724c802934cb5163589b66102ea9838" target="_top" xlink:title="test_toggle">
<polygon fill="white" stroke="red" points="151.5,-114.5 151.5,-133.5 216.5,-133.5 216.5,-114.5 151.5,-114.5"/>
<text text-anchor="middle" x="184" y="-121.5" font-family="Helvetica,sans-Serif" font-size="10.00">test_toggle</text>
</a>
</g>
</g>
<!-- Node1&#45;&gt;Node3 -->
<g id="edge2" class="edge"><title>Node1&#45;&gt;Node3</title>
<path fill="none" stroke="midnightblue" d="M88.0973,-98.2407C108.61,-103.808 132.404,-110.267 151.035,-115.324"/>
<polygon fill="midnightblue" stroke="midnightblue" points="88.8956,-94.8308 78.3279,-95.589 87.0619,-101.586 88.8956,-94.8308"/>
</g>
<!-- Node4 -->
<g id="node4" class="node"><title>Node4</title>
<g id="a_node4"><a xlink:href="curs__main_8h.html#af7d9d8649ad205788c9af1bbf871207f" target="_top" xlink:title="Display a list of emails. ">
<polygon fill="white" stroke="red" points="137,-76.5 137,-95.5 231,-95.5 231,-76.5 137,-76.5"/>
<text text-anchor="middle" x="184" y="-83.5" font-family="Helvetica,sans-Serif" font-size="10.00">mutt_index_menu</text>
</a>
</g>
</g>
<!-- Node1&#45;&gt;Node4 -->
<g id="edge3" class="edge"><title>Node1&#45;&gt;Node4</title>
<path fill="none" stroke="midnightblue" d="M93.8813,-86C107.95,-86 123.135,-86 136.915,-86"/>
<polygon fill="midnightblue" stroke="midnightblue" points="93.8702,-82.5001 83.8701,-86 93.8701,-89.5001 93.8702,-82.5001"/>
</g>
<!-- Node5 -->
<g id="node5" class="node"><title>Node5</title>
<g id="a_node5"><a xlink:href="pager_8h.html#a1f4fb11389135c8767d9c4adca46f0d4" target="_top" xlink:title="Display a file, or help, in a window. ">
<polygon fill="white" stroke="red" points="151.5,-38.5 151.5,-57.5 216.5,-57.5 216.5,-38.5 151.5,-38.5"/>
<text text-anchor="middle" x="184" y="-45.5" font-family="Helvetica,sans-Serif" font-size="10.00">mutt_pager</text>
</a>
</g>
</g>
<!-- Node1&#45;&gt;Node5 -->
<g id="edge4" class="edge"><title>Node1&#45;&gt;Node5</title>
<path fill="none" stroke="midnightblue" d="M88.0973,-73.7593C108.61,-68.1916 132.404,-61.7333 151.035,-56.6763"/>
<polygon fill="midnightblue" stroke="midnightblue" points="87.0619,-70.4136 78.3279,-76.411 88.8956,-77.1692 87.0619,-70.4136"/>
</g>
<!-- Node6 -->
<g id="node6" class="node"><title>Node6</title>
<g id="a_node6"><a xlink:href="recvattach_8c.html#a257c4d49784ac5af30fcd0dde8d8c816" target="_top" xlink:title="Event loop for the Attachment menu. ">
<polygon fill="white" stroke="red" points="120,-0.5 120,-19.5 248,-19.5 248,-0.5 120,-0.5"/>
<text text-anchor="middle" x="184" y="-7.5" font-family="Helvetica,sans-Serif" font-size="10.00">mutt_attach_display_loop</text>
</a>
</g>
</g>
<!-- Node1&#45;&gt;Node6 -->
<g id="edge5" class="edge"><title>Node1&#45;&gt;Node6</title>
<path fill="none" stroke="midnightblue" d="M61.5784,-69.3626C76.4682,-56.7715 98.3773,-39.8499 120,-29 127.454,-25.2598 135.779,-22.1077 143.874,-19.5124"/>
<polygon fill="midnightblue" stroke="midnightblue" points="58.951,-67.0075 53.6779,-76.1969 63.5307,-72.3016 58.951,-67.0075"/>
</g>
</g>
</svg>
