<?xml version="1.0" encoding="UTF-8" standalone="no"?>
<!DOCTYPE svg PUBLIC "-//W3C//DTD SVG 1.1//EN"
 "http://www.w3.org/Graphics/SVG/1.1/DTD/svg11.dtd">
<!-- Generated by graphviz version 2.36.0 (20140111.2315)
 -->
<!-- Title: cs_inherit_variable Pages: 1 -->
<svg width="386pt" height="142pt"
 viewBox="0.00 0.00 386.00 142.00" xmlns="http://www.w3.org/2000/svg" xmlns:xlink="http://www.w3.org/1999/xlink">
<g id="graph0" class="graph" transform="scale(1 1) rotate(0) translate(4 138)">
<title>cs_inherit_variable</title>
<polygon fill="white" stroke="none" points="-4,4 -4,-138 382,-138 382,4 -4,4"/>
<!-- Node1 -->
<g id="node1" class="node"><title>Node1</title>
<polygon fill="#bfbfbf" stroke="black" points="0,-57.5 0,-76.5 98,-76.5 98,-57.5 0,-57.5"/>
<text text-anchor="middle" x="49" y="-64.5" font-family="Helvetica,sans-Serif" font-size="10.00">cs_inherit_variable</text>
</g>
<!-- Node2 -->
<g id="node2" class="node"><title>Node2</title>
<g id="a_node2"><a xlink:href="buffer_8c.html#ab31dc6030636f826c60c65d143cb249d" target="_top" xlink:title="Initialise a new Buffer. ">
<polygon fill="white" stroke="black" points="153,-114.5 153,-133.5 237,-133.5 237,-114.5 153,-114.5"/>
<text text-anchor="middle" x="195" y="-121.5" font-family="Helvetica,sans-Serif" font-size="10.00">mutt_buffer_init</text>
</a>
</g>
</g>
<!-- Node1&#45;&gt;Node2 -->
<g id="edge1" class="edge"><title>Node1&#45;&gt;Node2</title>
<path fill="none" stroke="midnightblue" d="M69.4105,-76.5714C86.2601,-84.6882 111.429,-96.3558 134,-105 139.622,-107.153 145.603,-109.259 151.528,-111.239"/>
<polygon fill="midnightblue" stroke="midnightblue" points="150.781,-114.677 161.373,-114.438 152.944,-108.019 150.781,-114.677"/>
</g>
<!-- Node3 -->
<g id="node3" class="node"><title>Node3</title>
<g id="a_node3"><a xlink:href="memory_8c.html#a4c1612d209c7825d55e6a014df352f03" target="_top" xlink:title="Allocate zeroed memory on the heap. ">
<polygon fill="white" stroke="red" points="148,-76.5 148,-95.5 242,-95.5 242,-76.5 148,-76.5"/>
<text text-anchor="middle" x="195" y="-83.5" font-family="Helvetica,sans-Serif" font-size="10.00">mutt_mem_calloc</text>
</a>
</g>
</g>
<!-- Node1&#45;&gt;Node3 -->
<g id="edge2" class="edge"><title>Node1&#45;&gt;Node3</title>
<path fill="none" stroke="midnightblue" d="M98.3505,-73.3796C110.987,-75.0469 124.717,-76.8584 137.726,-78.575"/>
<polygon fill="midnightblue" stroke="midnightblue" points="137.598,-82.0884 147.97,-79.9266 138.514,-75.1485 137.598,-82.0884"/>
</g>
<!-- Node4 -->
<g id="node4" class="node"><title>Node4</title>
<g id="a_node4"><a xlink:href="mutt_2string_8c.html#ae48085384a6545e0fac589a88243ea31" target="_top" xlink:title="Copy a string, safely. ">
<polygon fill="white" stroke="red" points="292.5,-19.5 292.5,-38.5 377.5,-38.5 377.5,-19.5 292.5,-19.5"/>
<text text-anchor="middle" x="335" y="-26.5" font-family="Helvetica,sans-Serif" font-size="10.00">mutt_str_strdup</text>
</a>
</g>
</g>
<!-- Node1&#45;&gt;Node4 -->
<g id="edge3" class="edge"><title>Node1&#45;&gt;Node4</title>
<path fill="none" stroke="midnightblue" d="M98.1767,-60.5538C149.214,-53.7249 229.52,-42.9798 281.973,-35.9613"/>
<polygon fill="midnightblue" stroke="midnightblue" points="282.628,-39.405 292.076,-34.6096 281.7,-32.4668 282.628,-39.405"/>
</g>
<!-- Node5 -->
<g id="node5" class="node"><title>Node5</title>
<g id="a_node5"><a xlink:href="hash_8c.html#af4bb9b9b7288999c4d5035a82e4e9aab" target="_top" xlink:title="Insert a string with type info into a Hash Table. ">
<polygon fill="white" stroke="red" points="134.5,-0.5 134.5,-19.5 255.5,-19.5 255.5,-0.5 134.5,-0.5"/>
<text text-anchor="middle" x="195" y="-7.5" font-family="Helvetica,sans-Serif" font-size="10.00">mutt_hash_typed_insert</text>
</a>
</g>
</g>
<!-- Node1&#45;&gt;Node5 -->
<g id="edge4" class="edge"><title>Node1&#45;&gt;Node5</title>
<path fill="none" stroke="midnightblue" d="M74.1024,-57.4595C97.6727,-48.1295 133.777,-33.8384 160.209,-23.3758"/>
<polygon fill="midnightblue" stroke="midnightblue" points="161.809,-26.5065 169.819,-19.5716 159.233,-19.9979 161.809,-26.5065"/>
</g>
<!-- Node5&#45;&gt;Node4 -->
<g id="edge5" class="edge"><title>Node5&#45;&gt;Node4</title>
<path fill="none" stroke="midnightblue" d="M255.726,-18.2232C264.627,-19.4486 273.737,-20.7029 282.45,-21.9025"/>
<polygon fill="midnightblue" stroke="midnightblue" points="282.076,-25.3839 292.46,-23.2807 283.03,-18.4493 282.076,-25.3839"/>
</g>
</g>
</svg>
