<?xml version="1.0" encoding="UTF-8" standalone="no"?>
<!DOCTYPE svg PUBLIC "-//W3C//DTD SVG 1.1//EN"
 "http://www.w3.org/Graphics/SVG/1.1/DTD/svg11.dtd">
<!-- Generated by graphviz version 2.36.0 (20140111.2315)
 -->
<!-- Title: bool_init Pages: 1 -->
<svg width="188pt" height="218pt"
 viewBox="0.00 0.00 188.00 218.00" xmlns="http://www.w3.org/2000/svg" xmlns:xlink="http://www.w3.org/1999/xlink">
<g id="graph0" class="graph" transform="scale(1 1) rotate(0) translate(4 214)">
<title>bool_init</title>
<polygon fill="white" stroke="none" points="-4,4 -4,-214 184,-214 184,4 -4,4"/>
<!-- Node1 -->
<g id="node1" class="node"><title>Node1</title>
<polygon fill="#bfbfbf" stroke="black" points="0.5,-95.5 0.5,-114.5 53.5,-114.5 53.5,-95.5 0.5,-95.5"/>
<text text-anchor="middle" x="27" y="-102.5" font-family="Helvetica,sans-Serif" font-size="10.00">bool_init</text>
</g>
<!-- Node2 -->
<g id="node2" class="node"><title>Node2</title>
<g id="a_node2"><a xlink:href="config_2bool_8c.html#a3f0f8081b626af5ea57f2210b6f13927" target="_top" xlink:title="Set a Bool by string &#45; Implements cst_string_set. ">
<polygon fill="white" stroke="red" points="93.5,-190.5 93.5,-209.5 176.5,-209.5 176.5,-190.5 93.5,-190.5"/>
<text text-anchor="middle" x="135" y="-197.5" font-family="Helvetica,sans-Serif" font-size="10.00">bool_string_set</text>
</a>
</g>
</g>
<!-- Node1&#45;&gt;Node2 -->
<g id="edge1" class="edge"><title>Node1&#45;&gt;Node2</title>
<path fill="none" stroke="midnightblue" d="M33.7036,-114.657C43.4512,-130.438 64.7302,-161.906 90,-181 92.3028,-182.74 94.7894,-184.357 97.3676,-185.853"/>
<polygon fill="midnightblue" stroke="midnightblue" points="95.8593,-189.013 106.353,-190.473 99.0603,-182.788 95.8593,-189.013"/>
</g>
<!-- Node3 -->
<g id="node3" class="node"><title>Node3</title>
<g id="a_node3"><a xlink:href="config_2bool_8c.html#adcc1fd1ca971eacff907f8e5f08e6a15" target="_top" xlink:title="Get a Bool as a string &#45; Implements cst_string_get. ">
<polygon fill="white" stroke="red" points="93.5,-152.5 93.5,-171.5 176.5,-171.5 176.5,-152.5 93.5,-152.5"/>
<text text-anchor="middle" x="135" y="-159.5" font-family="Helvetica,sans-Serif" font-size="10.00">bool_string_get</text>
</a>
</g>
</g>
<!-- Node1&#45;&gt;Node3 -->
<g id="edge2" class="edge"><title>Node1&#45;&gt;Node3</title>
<path fill="none" stroke="midnightblue" d="M42.4414,-114.663C54.7948,-122.729 73.1919,-134.276 90,-143 93.3741,-144.751 96.9453,-146.483 100.536,-148.145"/>
<polygon fill="midnightblue" stroke="midnightblue" points="99.4046,-151.473 109.963,-152.353 102.258,-145.081 99.4046,-151.473"/>
</g>
<!-- Node4 -->
<g id="node4" class="node"><title>Node4</title>
<g id="a_node4"><a xlink:href="config_2bool_8c.html#a8c62e12d9f8415ec172ca96cdf8d83f1" target="_top" xlink:title="Set a Bool config item by bool &#45; Implements cst_native_set. ">
<polygon fill="white" stroke="red" points="92.5,-114.5 92.5,-133.5 177.5,-133.5 177.5,-114.5 92.5,-114.5"/>
<text text-anchor="middle" x="135" y="-121.5" font-family="Helvetica,sans-Serif" font-size="10.00">bool_native_set</text>
</a>
</g>
</g>
<!-- Node1&#45;&gt;Node4 -->
<g id="edge3" class="edge"><title>Node1&#45;&gt;Node4</title>
<path fill="none" stroke="midnightblue" d="M53.6596,-109.599C62.3908,-111.164 72.4852,-112.974 82.5077,-114.77"/>
<polygon fill="midnightblue" stroke="midnightblue" points="81.9923,-118.234 92.453,-116.553 83.2274,-111.343 81.9923,-118.234"/>
</g>
<!-- Node5 -->
<g id="node5" class="node"><title>Node5</title>
<g id="a_node5"><a xlink:href="config_2bool_8c.html#add3e84a22709e9a0711b174a2d8201e8" target="_top" xlink:title="Get a bool from a Bool config item &#45; Implements cst_native_get. ">
<polygon fill="white" stroke="black" points="92.5,-76.5 92.5,-95.5 177.5,-95.5 177.5,-76.5 92.5,-76.5"/>
<text text-anchor="middle" x="135" y="-83.5" font-family="Helvetica,sans-Serif" font-size="10.00">bool_native_get</text>
</a>
</g>
</g>
<!-- Node1&#45;&gt;Node5 -->
<g id="edge4" class="edge"><title>Node1&#45;&gt;Node5</title>
<path fill="none" stroke="midnightblue" d="M53.6596,-100.401C62.3908,-98.8356 72.4852,-97.0262 82.5077,-95.2298"/>
<polygon fill="midnightblue" stroke="midnightblue" points="83.2274,-98.6566 92.453,-93.4471 81.9923,-91.7664 83.2274,-98.6566"/>
</g>
<!-- Node6 -->
<g id="node6" class="node"><title>Node6</title>
<g id="a_node6"><a xlink:href="config_2bool_8c.html#ad3c45cb204d1372625fa72c9f00fa2db" target="_top" xlink:title="Reset a Bool to its initial value &#45; Implements cst_reset. ">
<polygon fill="white" stroke="black" points="104,-38.5 104,-57.5 166,-57.5 166,-38.5 104,-38.5"/>
<text text-anchor="middle" x="135" y="-45.5" font-family="Helvetica,sans-Serif" font-size="10.00">bool_reset</text>
</a>
</g>
</g>
<!-- Node1&#45;&gt;Node6 -->
<g id="edge5" class="edge"><title>Node1&#45;&gt;Node6</title>
<path fill="none" stroke="midnightblue" d="M42.4414,-95.3372C54.7948,-87.2705 73.1919,-75.7236 90,-67 93.3741,-65.2488 96.9453,-63.5175 100.536,-61.8548"/>
<polygon fill="midnightblue" stroke="midnightblue" points="102.258,-64.9191 109.963,-57.647 99.4046,-58.5269 102.258,-64.9191"/>
</g>
<!-- Node7 -->
<g id="node7" class="node"><title>Node7</title>
<g id="a_node7"><a xlink:href="config_2set_8c.html#aad52d5fdffe84c6231aa06d541073a38" target="_top" xlink:title="Register a type of config item. ">
<polygon fill="white" stroke="black" points="90.5,-0.5 90.5,-19.5 179.5,-19.5 179.5,-0.5 90.5,-0.5"/>
<text text-anchor="middle" x="135" y="-7.5" font-family="Helvetica,sans-Serif" font-size="10.00">cs_register_type</text>
</a>
</g>
</g>
<!-- Node1&#45;&gt;Node7 -->
<g id="edge6" class="edge"><title>Node1&#45;&gt;Node7</title>
<path fill="none" stroke="midnightblue" d="M33.7036,-95.3432C43.4512,-79.5616 64.7302,-48.0935 90,-29 92.3028,-27.26 94.7894,-25.6428 97.3676,-24.1469"/>
<polygon fill="midnightblue" stroke="midnightblue" points="99.0603,-27.2122 106.353,-19.5267 95.8593,-20.9869 99.0603,-27.2122"/>
</g>
</g>
</svg>
