<?xml version="1.0" encoding="UTF-8" standalone="no"?>
<!DOCTYPE svg PUBLIC "-//W3C//DTD SVG 1.1//EN"
 "http://www.w3.org/Graphics/SVG/1.1/DTD/svg11.dtd">
<!-- Generated by graphviz version 2.36.0 (20140111.2315)
 -->
<!-- Title: cs_str_native_get Pages: 1 -->
<svg width="232pt" height="66pt"
 viewBox="0.00 0.00 232.00 66.00" xmlns="http://www.w3.org/2000/svg" xmlns:xlink="http://www.w3.org/1999/xlink">
<g id="graph0" class="graph" transform="scale(1 1) rotate(0) translate(4 62)">
<title>cs_str_native_get</title>
<polygon fill="white" stroke="none" points="-4,4 -4,-62 228,-62 228,4 -4,4"/>
<!-- Node1 -->
<g id="node1" class="node"><title>Node1</title>
<polygon fill="#bfbfbf" stroke="black" points="0,-19.5 0,-38.5 94,-38.5 94,-19.5 0,-19.5"/>
<text text-anchor="middle" x="47" y="-26.5" font-family="Helvetica,sans-Serif" font-size="10.00">cs_str_native_get</text>
</g>
<!-- Node2 -->
<g id="node2" class="node"><title>Node2</title>
<g id="a_node2"><a xlink:href="config_2set_8c.html#a6a48e8c12db6f64a6da6b219c3d987d9" target="_top" xlink:title="Get the HashElem representing a config item. ">
<polygon fill="white" stroke="red" points="141,-38.5 141,-57.5 213,-57.5 213,-38.5 141,-38.5"/>
<text text-anchor="middle" x="177" y="-45.5" font-family="Helvetica,sans-Serif" font-size="10.00">cs_get_elem</text>
</a>
</g>
</g>
<!-- Node1&#45;&gt;Node2 -->
<g id="edge1" class="edge"><title>Node1&#45;&gt;Node2</title>
<path fill="none" stroke="midnightblue" d="M94.2109,-35.8594C106.063,-37.6188 118.8,-39.5094 130.611,-41.2625"/>
<polygon fill="midnightblue" stroke="midnightblue" points="130.3,-44.7547 140.706,-42.761 131.328,-37.8306 130.3,-44.7547"/>
</g>
<!-- Node3 -->
<g id="node3" class="node"><title>Node3</title>
<g id="a_node3"><a xlink:href="config_2set_8c.html#a86307a07e4994514634a1658ec0cfe66" target="_top" xlink:title="Natively get the value of a HashElem config item. ">
<polygon fill="white" stroke="red" points="130.5,-0.5 130.5,-19.5 223.5,-19.5 223.5,-0.5 130.5,-0.5"/>
<text text-anchor="middle" x="177" y="-7.5" font-family="Helvetica,sans-Serif" font-size="10.00">cs_he_native_get</text>
</a>
</g>
</g>
<!-- Node1&#45;&gt;Node3 -->
<g id="edge2" class="edge"><title>Node1&#45;&gt;Node3</title>
<path fill="none" stroke="midnightblue" d="M94.2109,-22.1406C102.652,-20.8876 111.541,-19.5681 120.225,-18.2791"/>
<polygon fill="midnightblue" stroke="midnightblue" points="120.908,-21.7161 130.286,-16.7857 119.88,-14.792 120.908,-21.7161"/>
</g>
</g>
</svg>
