<?xml version="1.0" encoding="UTF-8" standalone="no"?>
<!DOCTYPE svg PUBLIC "-//W3C//DTD SVG 1.1//EN"
 "http://www.w3.org/Graphics/SVG/1.1/DTD/svg11.dtd">
<!-- Generated by graphviz version 2.36.0 (20140111.2315)
 -->
<!-- Title: magic_init Pages: 1 -->
<svg width="200pt" height="218pt"
 viewBox="0.00 0.00 200.00 218.00" xmlns="http://www.w3.org/2000/svg" xmlns:xlink="http://www.w3.org/1999/xlink">
<g id="graph0" class="graph" transform="scale(1 1) rotate(0) translate(4 214)">
<title>magic_init</title>
<polygon fill="white" stroke="none" points="-4,4 -4,-214 196,-214 196,4 -4,4"/>
<!-- Node1 -->
<g id="node1" class="node"><title>Node1</title>
<polygon fill="#bfbfbf" stroke="black" points="0.5,-95.5 0.5,-114.5 61.5,-114.5 61.5,-95.5 0.5,-95.5"/>
<text text-anchor="middle" x="31" y="-102.5" font-family="Helvetica,sans-Serif" font-size="10.00">magic_init</text>
</g>
<!-- Node2 -->
<g id="node2" class="node"><title>Node2</title>
<g id="a_node2"><a xlink:href="config_2magic_8c.html#ac0e7d9dc08b6af0f88c11d8f9090036b" target="_top" xlink:title="Set a Mailbox Magic by string &#45; Implements cst_string_set. ">
<polygon fill="white" stroke="red" points="99.5,-190.5 99.5,-209.5 190.5,-209.5 190.5,-190.5 99.5,-190.5"/>
<text text-anchor="middle" x="145" y="-197.5" font-family="Helvetica,sans-Serif" font-size="10.00">magic_string_set</text>
</a>
</g>
</g>
<!-- Node1&#45;&gt;Node2 -->
<g id="edge1" class="edge"><title>Node1&#45;&gt;Node2</title>
<path fill="none" stroke="midnightblue" d="M38.1873,-114.681C48.7302,-130.498 71.6157,-162.016 98,-181 100.367,-182.703 102.91,-184.288 105.54,-185.755"/>
<polygon fill="midnightblue" stroke="midnightblue" points="104.182,-188.988 114.696,-190.295 107.291,-182.716 104.182,-188.988"/>
</g>
<!-- Node3 -->
<g id="node3" class="node"><title>Node3</title>
<g id="a_node3"><a xlink:href="config_2magic_8c.html#a269a1700cc15589f4bdea8c55a61f684" target="_top" xlink:title="Get a Mailbox Magic as a string &#45; Implements cst_string_get. ">
<polygon fill="white" stroke="red" points="99.5,-152.5 99.5,-171.5 190.5,-171.5 190.5,-152.5 99.5,-152.5"/>
<text text-anchor="middle" x="145" y="-159.5" font-family="Helvetica,sans-Serif" font-size="10.00">magic_string_get</text>
</a>
</g>
</g>
<!-- Node1&#45;&gt;Node3 -->
<g id="edge2" class="edge"><title>Node1&#45;&gt;Node3</title>
<path fill="none" stroke="midnightblue" d="M47.4222,-114.648C60.6025,-122.706 80.2029,-134.248 98,-143 101.647,-144.793 105.506,-146.569 109.377,-148.273"/>
<polygon fill="midnightblue" stroke="midnightblue" points="108.336,-151.634 118.907,-152.33 111.077,-145.193 108.336,-151.634"/>
</g>
<!-- Node4 -->
<g id="node4" class="node"><title>Node4</title>
<g id="a_node4"><a xlink:href="config_2magic_8c.html#a3e141f5ef44f164a46266024cdd22830" target="_top" xlink:title="Set a Mailbox Magic config item by int &#45; Implements cst_native_set. ">
<polygon fill="white" stroke="red" points="98.5,-114.5 98.5,-133.5 191.5,-133.5 191.5,-114.5 98.5,-114.5"/>
<text text-anchor="middle" x="145" y="-121.5" font-family="Helvetica,sans-Serif" font-size="10.00">magic_native_set</text>
</a>
</g>
</g>
<!-- Node1&#45;&gt;Node4 -->
<g id="edge3" class="edge"><title>Node1&#45;&gt;Node4</title>
<path fill="none" stroke="midnightblue" d="M61.7199,-110.042C69.9057,-111.43 79.0603,-112.983 88.2076,-114.535"/>
<polygon fill="midnightblue" stroke="midnightblue" points="87.6397,-117.989 98.0843,-116.211 88.8105,-111.087 87.6397,-117.989"/>
</g>
<!-- Node5 -->
<g id="node5" class="node"><title>Node5</title>
<g id="a_node5"><a xlink:href="config_2magic_8c.html#a7b1cd343ccfef72df8bb37159a7c570f" target="_top" xlink:title="Get an int from a Mailbox Magic config item &#45; Implements cst_native_get. ">
<polygon fill="white" stroke="black" points="98.5,-76.5 98.5,-95.5 191.5,-95.5 191.5,-76.5 98.5,-76.5"/>
<text text-anchor="middle" x="145" y="-83.5" font-family="Helvetica,sans-Serif" font-size="10.00">magic_native_get</text>
</a>
</g>
</g>
<!-- Node1&#45;&gt;Node5 -->
<g id="edge4" class="edge"><title>Node1&#45;&gt;Node5</title>
<path fill="none" stroke="midnightblue" d="M61.7199,-99.9582C69.9057,-98.5696 79.0603,-97.0166 88.2076,-95.4648"/>
<polygon fill="midnightblue" stroke="midnightblue" points="88.8105,-98.9126 98.0843,-93.7893 87.6397,-92.0112 88.8105,-98.9126"/>
</g>
<!-- Node6 -->
<g id="node6" class="node"><title>Node6</title>
<g id="a_node6"><a xlink:href="config_2magic_8c.html#a8bfc7629505798cf4ab42aeaf4dde60a" target="_top" xlink:title="Reset a Mailbox Magic to its initial value &#45; Implements cst_reset. ">
<polygon fill="white" stroke="black" points="110,-38.5 110,-57.5 180,-57.5 180,-38.5 110,-38.5"/>
<text text-anchor="middle" x="145" y="-45.5" font-family="Helvetica,sans-Serif" font-size="10.00">magic_reset</text>
</a>
</g>
</g>
<!-- Node1&#45;&gt;Node6 -->
<g id="edge5" class="edge"><title>Node1&#45;&gt;Node6</title>
<path fill="none" stroke="midnightblue" d="M47.4222,-95.3519C60.6025,-87.2942 80.2029,-75.7523 98,-67 101.647,-65.2066 105.506,-63.431 109.377,-61.727"/>
<polygon fill="midnightblue" stroke="midnightblue" points="111.077,-64.807 118.907,-57.6697 108.336,-58.3663 111.077,-64.807"/>
</g>
<!-- Node7 -->
<g id="node7" class="node"><title>Node7</title>
<g id="a_node7"><a xlink:href="config_2set_8c.html#aad52d5fdffe84c6231aa06d541073a38" target="_top" xlink:title="Register a type of config item. ">
<polygon fill="white" stroke="black" points="100.5,-0.5 100.5,-19.5 189.5,-19.5 189.5,-0.5 100.5,-0.5"/>
<text text-anchor="middle" x="145" y="-7.5" font-family="Helvetica,sans-Serif" font-size="10.00">cs_register_type</text>
</a>
</g>
</g>
<!-- Node1&#45;&gt;Node7 -->
<g id="edge6" class="edge"><title>Node1&#45;&gt;Node7</title>
<path fill="none" stroke="midnightblue" d="M38.1873,-95.3186C48.7302,-79.5017 71.6157,-47.9838 98,-29 100.367,-27.2968 102.91,-25.7125 105.54,-24.2453"/>
<polygon fill="midnightblue" stroke="midnightblue" points="107.291,-27.2836 114.696,-19.7055 104.182,-21.0123 107.291,-27.2836"/>
</g>
</g>
</svg>
