<?xml version="1.0" encoding="UTF-8" standalone="no"?>
<!DOCTYPE svg PUBLIC "-//W3C//DTD SVG 1.1//EN"
 "http://www.w3.org/Graphics/SVG/1.1/DTD/svg11.dtd">
<!-- Generated by graphviz version 2.36.0 (20140111.2315)
 -->
<!-- Title: regex_create Pages: 1 -->
<svg width="214pt" height="142pt"
 viewBox="0.00 0.00 214.00 142.00" xmlns="http://www.w3.org/2000/svg" xmlns:xlink="http://www.w3.org/1999/xlink">
<g id="graph0" class="graph" transform="scale(1 1) rotate(0) translate(4 138)">
<title>regex_create</title>
<polygon fill="white" stroke="none" points="-4,4 -4,-138 210,-138 210,4 -4,4"/>
<!-- Node1 -->
<g id="node1" class="node"><title>Node1</title>
<polygon fill="#bfbfbf" stroke="black" points="0.5,-57.5 0.5,-76.5 73.5,-76.5 73.5,-57.5 0.5,-57.5"/>
<text text-anchor="middle" x="37" y="-64.5" font-family="Helvetica,sans-Serif" font-size="10.00">regex_create</text>
</g>
<!-- Node2 -->
<g id="node2" class="node"><title>Node2</title>
<g id="a_node2"><a xlink:href="memory_8c.html#a4c1612d209c7825d55e6a014df352f03" target="_top" xlink:title="Allocate zeroed memory on the heap. ">
<polygon fill="white" stroke="red" points="111,-114.5 111,-133.5 205,-133.5 205,-114.5 111,-114.5"/>
<text text-anchor="middle" x="158" y="-121.5" font-family="Helvetica,sans-Serif" font-size="10.00">mutt_mem_calloc</text>
</a>
</g>
</g>
<!-- Node1&#45;&gt;Node2 -->
<g id="edge1" class="edge"><title>Node1&#45;&gt;Node2</title>
<path fill="none" stroke="midnightblue" d="M54.9205,-76.5555C69.3579,-84.5566 90.7724,-96.0676 110,-105 114.061,-106.886 118.364,-108.774 122.652,-110.586"/>
<polygon fill="midnightblue" stroke="midnightblue" points="121.339,-113.831 131.918,-114.408 124.008,-107.359 121.339,-113.831"/>
</g>
<!-- Node3 -->
<g id="node3" class="node"><title>Node3</title>
<g id="a_node3"><a xlink:href="mutt_2string_8c.html#ae48085384a6545e0fac589a88243ea31" target="_top" xlink:title="Copy a string, safely. ">
<polygon fill="white" stroke="red" points="115.5,-76.5 115.5,-95.5 200.5,-95.5 200.5,-76.5 115.5,-76.5"/>
<text text-anchor="middle" x="158" y="-83.5" font-family="Helvetica,sans-Serif" font-size="10.00">mutt_str_strdup</text>
</a>
</g>
</g>
<!-- Node1&#45;&gt;Node3 -->
<g id="edge2" class="edge"><title>Node1&#45;&gt;Node3</title>
<path fill="none" stroke="midnightblue" d="M73.7039,-72.7006C83.665,-74.2911 94.6915,-76.0516 105.373,-77.7571"/>
<polygon fill="midnightblue" stroke="midnightblue" points="105.036,-81.2475 115.463,-79.3681 106.14,-74.3351 105.036,-81.2475"/>
</g>
<!-- Node4 -->
<g id="node4" class="node"><title>Node4</title>
<g id="a_node4"><a xlink:href="mbyte_8c.html#ac501dbdcd18344eeab59157ccb3b91f5" target="_top" xlink:title="Does a multi&#45;byte string contain only lowercase characters? ">
<polygon fill="white" stroke="black" points="110,-38.5 110,-57.5 206,-57.5 206,-38.5 110,-38.5"/>
<text text-anchor="middle" x="158" y="-45.5" font-family="Helvetica,sans-Serif" font-size="10.00">mutt_mb_is_lower</text>
</a>
</g>
</g>
<!-- Node1&#45;&gt;Node4 -->
<g id="edge3" class="edge"><title>Node1&#45;&gt;Node4</title>
<path fill="none" stroke="midnightblue" d="M73.7039,-61.2994C81.961,-59.981 90.9501,-58.5458 99.8681,-57.1219"/>
<polygon fill="midnightblue" stroke="midnightblue" points="100.541,-60.5589 109.864,-55.5259 99.4371,-53.6465 100.541,-60.5589"/>
</g>
<!-- Node5 -->
<g id="node5" class="node"><title>Node5</title>
<g id="a_node5"><a xlink:href="config_2regex_8c.html#a9cda05f6cfcbbce2a2f73a6cbc606466" target="_top" xlink:title="Free a Regex object. ">
<polygon fill="white" stroke="black" points="127,-0.5 127,-19.5 189,-19.5 189,-0.5 127,-0.5"/>
<text text-anchor="middle" x="158" y="-7.5" font-family="Helvetica,sans-Serif" font-size="10.00">regex_free</text>
</a>
</g>
</g>
<!-- Node1&#45;&gt;Node5 -->
<g id="edge4" class="edge"><title>Node1&#45;&gt;Node5</title>
<path fill="none" stroke="midnightblue" d="M54.9205,-57.4445C69.3579,-49.4434 90.7724,-37.9324 110,-29 114.061,-27.1135 118.364,-25.2264 122.652,-23.4135"/>
<polygon fill="midnightblue" stroke="midnightblue" points="124.008,-26.6406 131.918,-19.5922 121.339,-20.1693 124.008,-26.6406"/>
</g>
</g>
</svg>
