<?xml version="1.0" encoding="UTF-8" standalone="no"?>
<!DOCTYPE svg PUBLIC "-//W3C//DTD SVG 1.1//EN"
 "http://www.w3.org/Graphics/SVG/1.1/DTD/svg11.dtd">
<!-- Generated by graphviz version 2.36.0 (20140111.2315)
 -->
<!-- Title: cs_init Pages: 1 -->
<svg width="150pt" height="28pt"
 viewBox="0.00 0.00 150.00 28.00" xmlns="http://www.w3.org/2000/svg" xmlns:xlink="http://www.w3.org/1999/xlink">
<g id="graph0" class="graph" transform="scale(1 1) rotate(0) translate(4 24)">
<title>cs_init</title>
<polygon fill="white" stroke="none" points="-4,4 -4,-24 146,-24 146,4 -4,4"/>
<!-- Node1 -->
<g id="node1" class="node"><title>Node1</title>
<polygon fill="#bfbfbf" stroke="black" points="0.5,-0.5 0.5,-19.5 45.5,-19.5 45.5,-0.5 0.5,-0.5"/>
<text text-anchor="middle" x="23" y="-7.5" font-family="Helvetica,sans-Serif" font-size="10.00">cs_init</text>
</g>
<!-- Node2 -->
<g id="node2" class="node"><title>Node2</title>
<g id="a_node2"><a xlink:href="config_2set_8h.html#a47c50500bab3876a2853ca7469595a06" target="_top" xlink:title="Create a new Config Set. ">
<polygon fill="white" stroke="red" points="82.5,-0.5 82.5,-19.5 141.5,-19.5 141.5,-0.5 82.5,-0.5"/>
<text text-anchor="middle" x="112" y="-7.5" font-family="Helvetica,sans-Serif" font-size="10.00">cs_create</text>
</a>
</g>
</g>
<!-- Node1&#45;&gt;Node2 -->
<g id="edge1" class="edge"><title>Node1&#45;&gt;Node2</title>
<path fill="none" stroke="midnightblue" d="M55.6491,-10C64.3261,-10 73.6842,-10 82.1926,-10"/>
<polygon fill="midnightblue" stroke="midnightblue" points="55.5057,-6.5001 45.5056,-10 55.5056,-13.5001 55.5057,-6.5001"/>
</g>
</g>
</svg>
