<?xml version="1.0" encoding="UTF-8" standalone="no"?>
<!DOCTYPE svg PUBLIC "-//W3C//DTD SVG 1.1//EN"
 "http://www.w3.org/Graphics/SVG/1.1/DTD/svg11.dtd">
<!-- Generated by graphviz version 2.36.0 (20140111.2315)
 -->
<!-- Title: cs_register_variables Pages: 1 -->
<svg width="246pt" height="636pt"
 viewBox="0.00 0.00 246.00 636.00" xmlns="http://www.w3.org/2000/svg" xmlns:xlink="http://www.w3.org/1999/xlink">
<g id="graph0" class="graph" transform="scale(1 1) rotate(0) translate(4 632)">
<title>cs_register_variables</title>
<polygon fill="white" stroke="none" points="-4,4 -4,-632 242,-632 242,4 -4,4"/>
<!-- Node1 -->
<g id="node1" class="node"><title>Node1</title>
<polygon fill="#bfbfbf" stroke="black" points="0.5,-304.5 0.5,-323.5 109.5,-323.5 109.5,-304.5 0.5,-304.5"/>
<text text-anchor="middle" x="55" y="-311.5" font-family="Helvetica,sans-Serif" font-size="10.00">cs_register_variables</text>
</g>
<!-- Node2 -->
<g id="node2" class="node"><title>Node2</title>
<g id="a_node2"><a xlink:href="test_2config_2address_8h.html#a9efc5843bb346e494cdedcf6d276f01a" target="_top" xlink:title="config_address">
<polygon fill="white" stroke="black" points="150.5,-608.5 150.5,-627.5 233.5,-627.5 233.5,-608.5 150.5,-608.5"/>
<text text-anchor="middle" x="192" y="-615.5" font-family="Helvetica,sans-Serif" font-size="10.00">config_address</text>
</a>
</g>
</g>
<!-- Node1&#45;&gt;Node2 -->
<g id="edge1" class="edge"><title>Node1&#45;&gt;Node2</title>
<path fill="none" stroke="midnightblue" d="M56.7448,-333.696C59.6844,-384.254 74.2156,-520.158 146,-599 149.426,-602.762 153.717,-605.805 158.281,-608.258"/>
<polygon fill="midnightblue" stroke="midnightblue" points="60.2307,-333.32 56.2473,-323.503 53.239,-333.662 60.2307,-333.32"/>
</g>
<!-- Node3 -->
<g id="node3" class="node"><title>Node3</title>
<g id="a_node3"><a xlink:href="test_2config_2bool_8h.html#ada83ebc51705bf2ca44d510251e70417" target="_top" xlink:title="config_bool">
<polygon fill="white" stroke="black" points="159,-570.5 159,-589.5 225,-589.5 225,-570.5 159,-570.5"/>
<text text-anchor="middle" x="192" y="-577.5" font-family="Helvetica,sans-Serif" font-size="10.00">config_bool</text>
</a>
</g>
</g>
<!-- Node1&#45;&gt;Node3 -->
<g id="edge2" class="edge"><title>Node1&#45;&gt;Node3</title>
<path fill="none" stroke="midnightblue" d="M57.9255,-334.121C63.3578,-380.205 82.7874,-494.539 146,-561 149.624,-564.81 154.131,-567.889 158.883,-570.367"/>
<polygon fill="midnightblue" stroke="midnightblue" points="61.3803,-333.513 56.8279,-323.946 54.4207,-334.264 61.3803,-333.513"/>
</g>
<!-- Node4 -->
<g id="node4" class="node"><title>Node4</title>
<g id="a_node4"><a xlink:href="test_2config_2command_8h.html#aefaabde38ea5a3b34afe9e88421ddc92" target="_top" xlink:title="config_command">
<polygon fill="white" stroke="black" points="146.5,-532.5 146.5,-551.5 237.5,-551.5 237.5,-532.5 146.5,-532.5"/>
<text text-anchor="middle" x="192" y="-539.5" font-family="Helvetica,sans-Serif" font-size="10.00">config_command</text>
</a>
</g>
</g>
<!-- Node1&#45;&gt;Node4 -->
<g id="edge3" class="edge"><title>Node1&#45;&gt;Node4</title>
<path fill="none" stroke="midnightblue" d="M59.3952,-333.744C67.3617,-374.414 90.9066,-468.297 146,-523 149.851,-526.824 154.59,-529.924 159.53,-532.422"/>
<polygon fill="midnightblue" stroke="midnightblue" points="62.809,-332.957 57.548,-323.76 55.9259,-334.23 62.809,-332.957"/>
</g>
<!-- Node5 -->
<g id="node5" class="node"><title>Node5</title>
<g id="a_node5"><a xlink:href="test_2config_2long_8h.html#ac4c10973946aa75bdbce30384b80dd4e" target="_top" xlink:title="config_long">
<polygon fill="white" stroke="black" points="159,-494.5 159,-513.5 225,-513.5 225,-494.5 159,-494.5"/>
<text text-anchor="middle" x="192" y="-501.5" font-family="Helvetica,sans-Serif" font-size="10.00">config_long</text>
</a>
</g>
</g>
<!-- Node1&#45;&gt;Node5 -->
<g id="edge4" class="edge"><title>Node1&#45;&gt;Node5</title>
<path fill="none" stroke="midnightblue" d="M61.4341,-333.422C72.1064,-368.269 98.9568,-441.793 146,-485 150.122,-488.786 155.11,-491.883 160.243,-494.394"/>
<polygon fill="midnightblue" stroke="midnightblue" points="64.7115,-332.161 58.5324,-323.555 57.9959,-334.136 64.7115,-332.161"/>
</g>
<!-- Node6 -->
<g id="node6" class="node"><title>Node6</title>
<g id="a_node6"><a xlink:href="test_2config_2magic_8h.html#a25ffeed13fcf8aeb6f9ccf542ab59926" target="_top" xlink:title="config_magic">
<polygon fill="white" stroke="black" points="155,-456.5 155,-475.5 229,-475.5 229,-456.5 155,-456.5"/>
<text text-anchor="middle" x="192" y="-463.5" font-family="Helvetica,sans-Serif" font-size="10.00">config_magic</text>
</a>
</g>
</g>
<!-- Node1&#45;&gt;Node6 -->
<g id="edge5" class="edge"><title>Node1&#45;&gt;Node6</title>
<path fill="none" stroke="midnightblue" d="M64.4538,-332.987C77.9431,-361.341 106.859,-414.846 146,-447 150.587,-450.768 156.03,-453.896 161.518,-456.452"/>
<polygon fill="midnightblue" stroke="midnightblue" points="67.5641,-331.374 60.1917,-323.765 61.2099,-334.31 67.5641,-331.374"/>
</g>
<!-- Node7 -->
<g id="node7" class="node"><title>Node7</title>
<g id="a_node7"><a xlink:href="test_2config_2mbtable_8h.html#a61255b55342634403ec230b3634385c4" target="_top" xlink:title="config_mbtable">
<polygon fill="white" stroke="black" points="150.5,-418.5 150.5,-437.5 233.5,-437.5 233.5,-418.5 150.5,-418.5"/>
<text text-anchor="middle" x="192" y="-425.5" font-family="Helvetica,sans-Serif" font-size="10.00">config_mbtable</text>
</a>
</g>
</g>
<!-- Node1&#45;&gt;Node7 -->
<g id="edge6" class="edge"><title>Node1&#45;&gt;Node7</title>
<path fill="none" stroke="midnightblue" d="M68.9695,-331.604C85.0687,-352.429 114.301,-387.035 146,-409 151.298,-412.671 157.416,-415.837 163.4,-418.474"/>
<polygon fill="midnightblue" stroke="midnightblue" points="71.7338,-329.457 62.905,-323.6 66.1544,-333.685 71.7338,-329.457"/>
</g>
<!-- Node8 -->
<g id="node8" class="node"><title>Node8</title>
<g id="a_node8"><a xlink:href="test_2config_2number_8h.html#aec737386712b021f98736e91a4c2d47a" target="_top" xlink:title="config_number">
<polygon fill="white" stroke="black" points="152,-380.5 152,-399.5 232,-399.5 232,-380.5 152,-380.5"/>
<text text-anchor="middle" x="192" y="-387.5" font-family="Helvetica,sans-Serif" font-size="10.00">config_number</text>
</a>
</g>
</g>
<!-- Node1&#45;&gt;Node8 -->
<g id="edge7" class="edge"><title>Node1&#45;&gt;Node8</title>
<path fill="none" stroke="midnightblue" d="M78.1463,-329.478C95.9993,-341.595 121.997,-358.442 146,-371 152.462,-374.381 159.661,-377.635 166.372,-380.465"/>
<polygon fill="midnightblue" stroke="midnightblue" points="79.8329,-326.39 69.6066,-323.62 75.8733,-332.163 79.8329,-326.39"/>
</g>
<!-- Node9 -->
<g id="node9" class="node"><title>Node9</title>
<g id="a_node9"><a xlink:href="test_2config_2path_8h.html#a15433bf87c73f824847d01b477b040f1" target="_top" xlink:title="config_path">
<polygon fill="white" stroke="black" points="158.5,-342.5 158.5,-361.5 225.5,-361.5 225.5,-342.5 158.5,-342.5"/>
<text text-anchor="middle" x="192" y="-349.5" font-family="Helvetica,sans-Serif" font-size="10.00">config_path</text>
</a>
</g>
</g>
<!-- Node1&#45;&gt;Node9 -->
<g id="edge8" class="edge"><title>Node1&#45;&gt;Node9</title>
<path fill="none" stroke="midnightblue" d="M99.7292,-326.309C118.786,-331.673 140.741,-337.853 158.342,-342.807"/>
<polygon fill="midnightblue" stroke="midnightblue" points="100.64,-322.93 90.0662,-323.589 98.7438,-329.668 100.64,-322.93"/>
</g>
<!-- Node10 -->
<g id="node10" class="node"><title>Node10</title>
<g id="a_node10"><a xlink:href="test_2config_2quad_8h.html#a52eed6b3ccd8b34c4b9613d6bfb4b316" target="_top" xlink:title="config_quad">
<polygon fill="white" stroke="black" points="157.5,-304.5 157.5,-323.5 226.5,-323.5 226.5,-304.5 157.5,-304.5"/>
<text text-anchor="middle" x="192" y="-311.5" font-family="Helvetica,sans-Serif" font-size="10.00">config_quad</text>
</a>
</g>
</g>
<!-- Node1&#45;&gt;Node10 -->
<g id="edge9" class="edge"><title>Node1&#45;&gt;Node10</title>
<path fill="none" stroke="midnightblue" d="M119.995,-314C132.869,-314 145.913,-314 157.248,-314"/>
<polygon fill="midnightblue" stroke="midnightblue" points="119.744,-310.5 109.743,-314 119.743,-317.5 119.744,-310.5"/>
</g>
<!-- Node11 -->
<g id="node11" class="node"><title>Node11</title>
<g id="a_node11"><a xlink:href="test_2config_2regex3_8h.html#ab49e5a6f7f27b02cd0ec44dc206f5d2f" target="_top" xlink:title="config_regex">
<polygon fill="white" stroke="black" points="156,-266.5 156,-285.5 228,-285.5 228,-266.5 156,-266.5"/>
<text text-anchor="middle" x="192" y="-273.5" font-family="Helvetica,sans-Serif" font-size="10.00">config_regex</text>
</a>
</g>
</g>
<!-- Node1&#45;&gt;Node11 -->
<g id="edge10" class="edge"><title>Node1&#45;&gt;Node11</title>
<path fill="none" stroke="midnightblue" d="M99.7625,-301.682C118.311,-296.461 139.599,-290.468 156.945,-285.586"/>
<polygon fill="midnightblue" stroke="midnightblue" points="98.7438,-298.332 90.0662,-304.411 100.64,-305.07 98.7438,-298.332"/>
</g>
<!-- Node12 -->
<g id="node12" class="node"><title>Node12</title>
<g id="a_node12"><a xlink:href="test_2config_2set_8h.html#a9df85117efed404dbec10443a902d5dd" target="_top" xlink:title="config_set">
<polygon fill="white" stroke="black" points="161,-228.5 161,-247.5 223,-247.5 223,-228.5 161,-228.5"/>
<text text-anchor="middle" x="192" y="-235.5" font-family="Helvetica,sans-Serif" font-size="10.00">config_set</text>
</a>
</g>
</g>
<!-- Node1&#45;&gt;Node12 -->
<g id="edge11" class="edge"><title>Node1&#45;&gt;Node12</title>
<path fill="none" stroke="midnightblue" d="M78.1463,-298.522C95.9993,-286.405 121.997,-269.558 146,-257 152.462,-253.619 159.661,-250.365 166.372,-247.535"/>
<polygon fill="midnightblue" stroke="midnightblue" points="75.8733,-295.837 69.6066,-304.38 79.8329,-301.61 75.8733,-295.837"/>
</g>
<!-- Node13 -->
<g id="node13" class="node"><title>Node13</title>
<g id="a_node13"><a xlink:href="test_2config_2sort_8h.html#a1e48ee018f813022d178d6df8df06f60" target="_top" xlink:title="config_sort">
<polygon fill="white" stroke="black" points="159.5,-190.5 159.5,-209.5 224.5,-209.5 224.5,-190.5 159.5,-190.5"/>
<text text-anchor="middle" x="192" y="-197.5" font-family="Helvetica,sans-Serif" font-size="10.00">config_sort</text>
</a>
</g>
</g>
<!-- Node1&#45;&gt;Node13 -->
<g id="edge12" class="edge"><title>Node1&#45;&gt;Node13</title>
<path fill="none" stroke="midnightblue" d="M68.9695,-296.396C85.0687,-275.571 114.301,-240.965 146,-219 151.298,-215.329 157.416,-212.163 163.4,-209.526"/>
<polygon fill="midnightblue" stroke="midnightblue" points="66.1544,-294.315 62.905,-304.4 71.7338,-298.543 66.1544,-294.315"/>
</g>
<!-- Node14 -->
<g id="node14" class="node"><title>Node14</title>
<g id="a_node14"><a xlink:href="string4_8h.html#af404a4c009b9711d6f5708bd3f9fefd3" target="_top" xlink:title="config_string">
<polygon fill="white" stroke="black" points="156,-152.5 156,-171.5 228,-171.5 228,-152.5 156,-152.5"/>
<text text-anchor="middle" x="192" y="-159.5" font-family="Helvetica,sans-Serif" font-size="10.00">config_string</text>
</a>
</g>
</g>
<!-- Node1&#45;&gt;Node14 -->
<g id="edge13" class="edge"><title>Node1&#45;&gt;Node14</title>
<path fill="none" stroke="midnightblue" d="M64.4538,-295.013C77.9431,-266.659 106.859,-213.154 146,-181 150.587,-177.232 156.03,-174.104 161.518,-171.548"/>
<polygon fill="midnightblue" stroke="midnightblue" points="61.2099,-293.69 60.1917,-304.235 67.5641,-296.626 61.2099,-293.69"/>
</g>
<!-- Node15 -->
<g id="node15" class="node"><title>Node15</title>
<g id="a_node15"><a xlink:href="mutt_8h.html#a010347bb26a5857fdac5430b85cfaab0" target="_top" xlink:title="Initialise the config system. ">
<polygon fill="white" stroke="red" points="161.5,-114.5 161.5,-133.5 222.5,-133.5 222.5,-114.5 161.5,-114.5"/>
<text text-anchor="middle" x="192" y="-121.5" font-family="Helvetica,sans-Serif" font-size="10.00">init_config</text>
</a>
</g>
</g>
<!-- Node1&#45;&gt;Node15 -->
<g id="edge14" class="edge"><title>Node1&#45;&gt;Node15</title>
<path fill="none" stroke="midnightblue" d="M61.4341,-294.578C72.1064,-259.731 98.9568,-186.207 146,-143 150.372,-138.985 155.718,-135.744 161.178,-133.156"/>
<polygon fill="midnightblue" stroke="midnightblue" points="57.9959,-293.864 58.5324,-304.445 64.7115,-295.839 57.9959,-293.864"/>
</g>
<!-- Node16 -->
<g id="node16" class="node"><title>Node16</title>
<g id="a_node16"><a xlink:href="account2_8h.html#a2ce9e343cbe8dcaa562803d43192b409" target="_top" xlink:title="config_account">
<polygon fill="white" stroke="black" points="150.5,-76.5 150.5,-95.5 233.5,-95.5 233.5,-76.5 150.5,-76.5"/>
<text text-anchor="middle" x="192" y="-83.5" font-family="Helvetica,sans-Serif" font-size="10.00">config_account</text>
</a>
</g>
</g>
<!-- Node1&#45;&gt;Node16 -->
<g id="edge15" class="edge"><title>Node1&#45;&gt;Node16</title>
<path fill="none" stroke="midnightblue" d="M59.3952,-294.256C67.3617,-253.586 90.9066,-159.703 146,-105 149.851,-101.176 154.59,-98.0764 159.53,-95.5781"/>
<polygon fill="midnightblue" stroke="midnightblue" points="55.9259,-293.77 57.548,-304.24 62.809,-295.043 55.9259,-293.77"/>
</g>
<!-- Node17 -->
<g id="node17" class="node"><title>Node17</title>
<g id="a_node17"><a xlink:href="initial_8h.html#a4cd564d94f5c10c32f06ae4e775861b5" target="_top" xlink:title="config_initial">
<polygon fill="white" stroke="black" points="156.5,-38.5 156.5,-57.5 227.5,-57.5 227.5,-38.5 156.5,-38.5"/>
<text text-anchor="middle" x="192" y="-45.5" font-family="Helvetica,sans-Serif" font-size="10.00">config_initial</text>
</a>
</g>
</g>
<!-- Node1&#45;&gt;Node17 -->
<g id="edge16" class="edge"><title>Node1&#45;&gt;Node17</title>
<path fill="none" stroke="midnightblue" d="M57.9255,-293.879C63.3578,-247.795 82.7874,-133.461 146,-67 149.624,-63.1902 154.131,-60.1114 158.883,-57.6329"/>
<polygon fill="midnightblue" stroke="midnightblue" points="54.4207,-293.736 56.8279,-304.054 61.3803,-294.487 54.4207,-293.736"/>
</g>
<!-- Node18 -->
<g id="node18" class="node"><title>Node18</title>
<g id="a_node18"><a xlink:href="synonym_8h.html#acf81082ee377e802e06c0e4533c5d90f" target="_top" xlink:title="config_synonym">
<polygon fill="white" stroke="black" points="148,-0.5 148,-19.5 236,-19.5 236,-0.5 148,-0.5"/>
<text text-anchor="middle" x="192" y="-7.5" font-family="Helvetica,sans-Serif" font-size="10.00">config_synonym</text>
</a>
</g>
</g>
<!-- Node1&#45;&gt;Node18 -->
<g id="edge17" class="edge"><title>Node1&#45;&gt;Node18</title>
<path fill="none" stroke="midnightblue" d="M56.7448,-294.304C59.6844,-243.746 74.2156,-107.842 146,-29 149.426,-25.2377 153.717,-22.1952 158.281,-19.7419"/>
<polygon fill="midnightblue" stroke="midnightblue" points="53.239,-294.338 56.2473,-304.497 60.2307,-294.68 53.239,-294.338"/>
</g>
</g>
</svg>
