<?xml version="1.0" encoding="UTF-8" standalone="no"?>
<!DOCTYPE svg PUBLIC "-//W3C//DTD SVG 1.1//EN"
 "http://www.w3.org/Graphics/SVG/1.1/DTD/svg11.dtd">
<!-- Generated by graphviz version 2.36.0 (20140111.2315)
 -->
<!-- Title: cs_str_native_set Pages: 1 -->
<svg width="346pt" height="408pt"
 viewBox="0.00 0.00 346.00 408.00" xmlns="http://www.w3.org/2000/svg" xmlns:xlink="http://www.w3.org/1999/xlink">
<g id="graph0" class="graph" transform="scale(1 1) rotate(0) translate(4 404)">
<title>cs_str_native_set</title>
<polygon fill="white" stroke="none" points="-4,4 -4,-404 342,-404 342,4 -4,4"/>
<!-- Node1 -->
<g id="node1" class="node"><title>Node1</title>
<polygon fill="#bfbfbf" stroke="black" points="0,-190.5 0,-209.5 94,-209.5 94,-190.5 0,-190.5"/>
<text text-anchor="middle" x="47" y="-197.5" font-family="Helvetica,sans-Serif" font-size="10.00">cs_str_native_set</text>
</g>
<!-- Node2 -->
<g id="node2" class="node"><title>Node2</title>
<g id="a_node2"><a xlink:href="browser_8h.html#ab036990112b8014c0b84c401e77f96d3" target="_top" xlink:title="Let the user select a file. ">
<polygon fill="white" stroke="red" points="140,-380.5 140,-399.5 226,-399.5 226,-380.5 140,-380.5"/>
<text text-anchor="middle" x="183" y="-387.5" font-family="Helvetica,sans-Serif" font-size="10.00">mutt_select_file</text>
</a>
</g>
</g>
<!-- Node1&#45;&gt;Node2 -->
<g id="edge1" class="edge"><title>Node1&#45;&gt;Node2</title>
<path fill="none" stroke="midnightblue" d="M53.0168,-219.626C62.6076,-253.577 86.554,-323.686 130,-366 136.268,-372.105 144.372,-376.848 152.308,-380.445"/>
<polygon fill="midnightblue" stroke="midnightblue" points="56.2931,-218.333 50.3073,-209.591 49.5351,-220.158 56.2931,-218.333"/>
</g>
<!-- Node3 -->
<g id="node3" class="node"><title>Node3</title>
<g id="a_node3"><a xlink:href="main_8c.html#adedb285b02c41bde2158ded9cc9fd7ac" target="_top" xlink:title="Start NeoMutt. ">
<polygon fill="white" stroke="black" points="286,-351.5 286,-370.5 324,-370.5 324,-351.5 286,-351.5"/>
<text text-anchor="middle" x="305" y="-358.5" font-family="Helvetica,sans-Serif" font-size="10.00">main</text>
</a>
</g>
</g>
<!-- Node1&#45;&gt;Node3 -->
<g id="edge9" class="edge"><title>Node1&#45;&gt;Node3</title>
<path fill="none" stroke="midnightblue" d="M54.0512,-219.322C64.4327,-249.023 88.6161,-305.355 130,-333 178.85,-365.632 252.3,-365.066 285.972,-362.743"/>
<polygon fill="midnightblue" stroke="midnightblue" points="57.3233,-218.07 50.8446,-209.687 50.6815,-220.28 57.3233,-218.07"/>
</g>
<!-- Node4 -->
<g id="node4" class="node"><title>Node4</title>
<g id="a_node4"><a xlink:href="commands_8h.html#aa401d1f464e86b0914af3b111bae8c31" target="_top" xlink:title="Ask the user for a sort method. ">
<polygon fill="white" stroke="red" points="138.5,-304.5 138.5,-323.5 227.5,-323.5 227.5,-304.5 138.5,-304.5"/>
<text text-anchor="middle" x="183" y="-311.5" font-family="Helvetica,sans-Serif" font-size="10.00">mutt_select_sort</text>
</a>
</g>
</g>
<!-- Node1&#45;&gt;Node4 -->
<g id="edge3" class="edge"><title>Node1&#45;&gt;Node4</title>
<path fill="none" stroke="midnightblue" d="M60.6484,-217.684C75.46,-237.389 101.606,-269.204 130,-290 137.861,-295.758 147.324,-300.624 156.01,-304.438"/>
<polygon fill="midnightblue" stroke="midnightblue" points="63.4199,-215.545 54.6733,-209.566 57.7823,-219.695 63.4199,-215.545"/>
</g>
<!-- Node5 -->
<g id="node5" class="node"><title>Node5</title>
<g id="a_node5"><a xlink:href="pager_8h.html#a1f4fb11389135c8767d9c4adca46f0d4" target="_top" xlink:title="Display a file, or help, in a window. ">
<polygon fill="white" stroke="red" points="272.5,-294.5 272.5,-313.5 337.5,-313.5 337.5,-294.5 272.5,-294.5"/>
<text text-anchor="middle" x="305" y="-301.5" font-family="Helvetica,sans-Serif" font-size="10.00">mutt_pager</text>
</a>
</g>
</g>
<!-- Node1&#45;&gt;Node5 -->
<g id="edge12" class="edge"><title>Node1&#45;&gt;Node5</title>
<path fill="none" stroke="midnightblue" d="M67.1588,-216.182C83.0754,-228.893 106.791,-246.197 130,-257 177.234,-278.985 236.63,-292.254 272.388,-298.844"/>
<polygon fill="midnightblue" stroke="midnightblue" points="69.1317,-213.274 59.1714,-209.663 64.7056,-218.697 69.1317,-213.274"/>
</g>
<!-- Node6 -->
<g id="node6" class="node"><title>Node6</title>
<g id="a_node6"><a xlink:href="test_2config_2address_8c.html#ab5935bf604cc953008fde261e13163b8" target="_top" xlink:title="test_native_set">
<polygon fill="white" stroke="red" points="141.5,-228.5 141.5,-247.5 224.5,-247.5 224.5,-228.5 141.5,-228.5"/>
<text text-anchor="middle" x="183" y="-235.5" font-family="Helvetica,sans-Serif" font-size="10.00">test_native_set</text>
</a>
</g>
</g>
<!-- Node1&#45;&gt;Node6 -->
<g id="edge5" class="edge"><title>Node1&#45;&gt;Node6</title>
<path fill="none" stroke="midnightblue" d="M91.4383,-212.318C109.849,-217.539 130.98,-223.532 148.197,-228.414"/>
<polygon fill="midnightblue" stroke="midnightblue" points="92.3894,-208.95 81.8139,-209.589 90.4796,-215.685 92.3894,-208.95"/>
</g>
<!-- Node7 -->
<g id="node7" class="node"><title>Node7</title>
<g id="a_node7"><a xlink:href="test_2config_2address_8c.html#a906a32278ed761fb29743aebd54e5bac" target="_top" xlink:title="test_validator">
<polygon fill="white" stroke="red" points="145.5,-190.5 145.5,-209.5 220.5,-209.5 220.5,-190.5 145.5,-190.5"/>
<text text-anchor="middle" x="183" y="-197.5" font-family="Helvetica,sans-Serif" font-size="10.00">test_validator</text>
</a>
</g>
</g>
<!-- Node1&#45;&gt;Node7 -->
<g id="edge6" class="edge"><title>Node1&#45;&gt;Node7</title>
<path fill="none" stroke="midnightblue" d="M104.462,-200C118.198,-200 132.541,-200 145.101,-200"/>
<polygon fill="midnightblue" stroke="midnightblue" points="104.115,-196.5 94.1152,-200 104.115,-203.5 104.115,-196.5"/>
</g>
<!-- Node8 -->
<g id="node8" class="node"><title>Node8</title>
<g id="a_node8"><a xlink:href="test_2config_2set_8h.html#a9df85117efed404dbec10443a902d5dd" target="_top" xlink:title="config_set">
<polygon fill="white" stroke="black" points="152,-152.5 152,-171.5 214,-171.5 214,-152.5 152,-152.5"/>
<text text-anchor="middle" x="183" y="-159.5" font-family="Helvetica,sans-Serif" font-size="10.00">config_set</text>
</a>
</g>
</g>
<!-- Node1&#45;&gt;Node8 -->
<g id="edge7" class="edge"><title>Node1&#45;&gt;Node8</title>
<path fill="none" stroke="midnightblue" d="M91.5044,-187.663C111.226,-182.07 134.059,-175.595 151.855,-170.549"/>
<polygon fill="midnightblue" stroke="midnightblue" points="90.4796,-184.315 81.8139,-190.411 92.3894,-191.05 90.4796,-184.315"/>
</g>
<!-- Node9 -->
<g id="node9" class="node"><title>Node9</title>
<g id="a_node9"><a xlink:href="test_2config_2sort_8c.html#ad6967df231a56537b9c597c09d69e8fe" target="_top" xlink:title="test_sort_type">
<polygon fill="white" stroke="red" points="143.5,-114.5 143.5,-133.5 222.5,-133.5 222.5,-114.5 143.5,-114.5"/>
<text text-anchor="middle" x="183" y="-121.5" font-family="Helvetica,sans-Serif" font-size="10.00">test_sort_type</text>
</a>
</g>
</g>
<!-- Node1&#45;&gt;Node9 -->
<g id="edge8" class="edge"><title>Node1&#45;&gt;Node9</title>
<path fill="none" stroke="midnightblue" d="M67.6976,-184.139C83.7609,-171.751 107.409,-154.729 130,-143 136.824,-139.457 144.462,-136.273 151.737,-133.569"/>
<polygon fill="midnightblue" stroke="midnightblue" points="65.319,-181.556 59.6089,-190.481 69.638,-187.065 65.319,-181.556"/>
</g>
<!-- Node10 -->
<g id="node10" class="node"><title>Node10</title>
<g id="a_node10"><a xlink:href="mutt__logging_8h.html#a83f78100474c4e9db5ac2358f1dc59f9" target="_top" xlink:title="Change the logging level. ">
<polygon fill="white" stroke="red" points="134,-76.5 134,-95.5 232,-95.5 232,-76.5 134,-76.5"/>
<text text-anchor="middle" x="183" y="-83.5" font-family="Helvetica,sans-Serif" font-size="10.00">mutt_log_set_level</text>
</a>
</g>
</g>
<!-- Node1&#45;&gt;Node10 -->
<g id="edge10" class="edge"><title>Node1&#45;&gt;Node10</title>
<path fill="none" stroke="midnightblue" d="M59.4797,-181.79C73.675,-160.622 99.7062,-125.926 130,-105 135.457,-101.231 141.749,-98.1129 148.031,-95.5694"/>
<polygon fill="midnightblue" stroke="midnightblue" points="56.5184,-179.923 53.9799,-190.21 62.3789,-183.751 56.5184,-179.923"/>
</g>
<!-- Node11 -->
<g id="node11" class="node"><title>Node11</title>
<g id="a_node11"><a xlink:href="mutt__notmuch_8c.html#a8da43128384281992caf90397da2452b" target="_top" xlink:title="Restore vfolder&#39;s search window to its original position. ">
<polygon fill="white" stroke="red" points="130,-38.5 130,-57.5 236,-57.5 236,-38.5 130,-38.5"/>
<text text-anchor="middle" x="183" y="-45.5" font-family="Helvetica,sans-Serif" font-size="10.00">query_window_reset</text>
</a>
</g>
</g>
<!-- Node1&#45;&gt;Node11 -->
<g id="edge11" class="edge"><title>Node1&#45;&gt;Node11</title>
<path fill="none" stroke="midnightblue" d="M55.0467,-180.803C66.5007,-152.133 91.7925,-98.1702 130,-67 134.692,-63.1722 140.224,-60.0778 145.898,-57.5875"/>
<polygon fill="midnightblue" stroke="midnightblue" points="51.6584,-179.863 51.3363,-190.453 58.1921,-182.375 51.6584,-179.863"/>
</g>
<!-- Node12 -->
<g id="node12" class="node"><title>Node12</title>
<g id="a_node12"><a xlink:href="account2_8h.html#a2ce9e343cbe8dcaa562803d43192b409" target="_top" xlink:title="config_account">
<polygon fill="white" stroke="black" points="141.5,-0.5 141.5,-19.5 224.5,-19.5 224.5,-0.5 141.5,-0.5"/>
<text text-anchor="middle" x="183" y="-7.5" font-family="Helvetica,sans-Serif" font-size="10.00">config_account</text>
</a>
</g>
</g>
<!-- Node1&#45;&gt;Node12 -->
<g id="edge13" class="edge"><title>Node1&#45;&gt;Node12</title>
<path fill="none" stroke="midnightblue" d="M52.2501,-180.365C60.8514,-145.178 83.581,-71.1288 130,-29 134.27,-25.1243 139.395,-22.0216 144.74,-19.5425"/>
<polygon fill="midnightblue" stroke="midnightblue" points="48.7879,-179.802 49.9418,-190.334 55.6075,-181.382 48.7879,-179.802"/>
</g>
<!-- Node2&#45;&gt;Node3 -->
<g id="edge2" class="edge"><title>Node2&#45;&gt;Node3</title>
<path fill="none" stroke="midnightblue" d="M233.456,-378.048C252.018,-373.562 271.97,-368.74 285.903,-365.373"/>
<polygon fill="midnightblue" stroke="midnightblue" points="232.523,-374.673 223.625,-380.424 234.167,-381.477 232.523,-374.673"/>
</g>
<!-- Node4&#45;&gt;Node5 -->
<g id="edge4" class="edge"><title>Node4&#45;&gt;Node5</title>
<path fill="none" stroke="midnightblue" d="M237.856,-309.512C249.602,-308.533 261.664,-307.528 272.219,-306.648"/>
<polygon fill="midnightblue" stroke="midnightblue" points="237.337,-306.043 227.662,-310.361 237.918,-313.019 237.337,-306.043"/>
</g>
</g>
</svg>
