<?xml version="1.0" encoding="UTF-8" standalone="no"?>
<!DOCTYPE svg PUBLIC "-//W3C//DTD SVG 1.1//EN"
 "http://www.w3.org/Graphics/SVG/1.1/DTD/svg11.dtd">
<!-- Generated by graphviz version 2.36.0 (20140111.2315)
 -->
<!-- Title: cs_he_initial_set Pages: 1 -->
<svg width="232pt" height="66pt"
 viewBox="0.00 0.00 232.00 66.00" xmlns="http://www.w3.org/2000/svg" xmlns:xlink="http://www.w3.org/1999/xlink">
<g id="graph0" class="graph" transform="scale(1 1) rotate(0) translate(4 62)">
<title>cs_he_initial_set</title>
<polygon fill="white" stroke="none" points="-4,4 -4,-62 228,-62 228,4 -4,4"/>
<!-- Node1 -->
<g id="node1" class="node"><title>Node1</title>
<polygon fill="#bfbfbf" stroke="black" points="0.5,-19.5 0.5,-38.5 89.5,-38.5 89.5,-19.5 0.5,-19.5"/>
<text text-anchor="middle" x="45" y="-26.5" font-family="Helvetica,sans-Serif" font-size="10.00">cs_he_initial_set</text>
</g>
<!-- Node2 -->
<g id="node2" class="node"><title>Node2</title>
<g id="a_node2"><a xlink:href="config_2set_8c.html#a74b013e244b5a66aec376873a2c90194" target="_top" xlink:title="Get the definition for a type. ">
<polygon fill="white" stroke="black" points="130.5,-38.5 130.5,-57.5 219.5,-57.5 219.5,-38.5 130.5,-38.5"/>
<text text-anchor="middle" x="175" y="-45.5" font-family="Helvetica,sans-Serif" font-size="10.00">cs_get_type_def</text>
</a>
</g>
</g>
<!-- Node1&#45;&gt;Node2 -->
<g id="edge1" class="edge"><title>Node1&#45;&gt;Node2</title>
<path fill="none" stroke="midnightblue" d="M89.6923,-35.4856C99.4695,-36.9369 109.952,-38.4929 120.088,-39.9975"/>
<polygon fill="midnightblue" stroke="midnightblue" points="119.664,-43.4728 130.07,-41.4791 120.692,-36.5487 119.664,-43.4728"/>
</g>
<!-- Node3 -->
<g id="node3" class="node"><title>Node3</title>
<g id="a_node3"><a xlink:href="config_2set_8c.html#ac2e0310fa7a87a1439db1afd3856931b" target="_top" xlink:title="Notify all listeners of an event. ">
<polygon fill="white" stroke="black" points="126,-0.5 126,-19.5 224,-19.5 224,-0.5 126,-0.5"/>
<text text-anchor="middle" x="175" y="-7.5" font-family="Helvetica,sans-Serif" font-size="10.00">cs_notify_listeners</text>
</a>
</g>
</g>
<!-- Node1&#45;&gt;Node3 -->
<g id="edge2" class="edge"><title>Node1&#45;&gt;Node3</title>
<path fill="none" stroke="midnightblue" d="M89.6923,-22.5144C98.021,-21.2781 106.862,-19.9659 115.564,-18.6741"/>
<polygon fill="midnightblue" stroke="midnightblue" points="116.299,-22.1034 125.677,-17.1729 115.272,-15.1792 116.299,-22.1034"/>
</g>
</g>
</svg>
