<?xml version="1.0" encoding="UTF-8" standalone="no"?>
<!DOCTYPE svg PUBLIC "-//W3C//DTD SVG 1.1//EN"
 "http://www.w3.org/Graphics/SVG/1.1/DTD/svg11.dtd">
<!-- Generated by graphviz version 2.36.0 (20140111.2315)
 -->
<!-- Title: string_init Pages: 1 -->
<svg width="310pt" height="256pt"
 viewBox="0.00 0.00 310.00 256.00" xmlns="http://www.w3.org/2000/svg" xmlns:xlink="http://www.w3.org/1999/xlink">
<g id="graph0" class="graph" transform="scale(1 1) rotate(0) translate(4 252)">
<title>string_init</title>
<polygon fill="white" stroke="none" points="-4,4 -4,-252 306,-252 306,4 -4,4"/>
<!-- Node1 -->
<g id="node1" class="node"><title>Node1</title>
<polygon fill="#bfbfbf" stroke="black" points="0.5,-114.5 0.5,-133.5 59.5,-133.5 59.5,-114.5 0.5,-114.5"/>
<text text-anchor="middle" x="30" y="-121.5" font-family="Helvetica,sans-Serif" font-size="10.00">string_init</text>
</g>
<!-- Node2 -->
<g id="node2" class="node"><title>Node2</title>
<g id="a_node2"><a xlink:href="config_2string_8c.html#a1836b567baead24f9ae06e3abb1cf01b" target="_top" xlink:title="Set a String by string &#45; Implements cst_string_set. ">
<polygon fill="white" stroke="red" points="97.5,-228.5 97.5,-247.5 186.5,-247.5 186.5,-228.5 97.5,-228.5"/>
<text text-anchor="middle" x="142" y="-235.5" font-family="Helvetica,sans-Serif" font-size="10.00">string_string_set</text>
</a>
</g>
</g>
<!-- Node1&#45;&gt;Node2 -->
<g id="edge1" class="edge"><title>Node1&#45;&gt;Node2</title>
<path fill="none" stroke="midnightblue" d="M36.0795,-133.778C45.7338,-151.608 68.2662,-189.791 96,-214 99.9835,-217.477 104.557,-220.638 109.229,-223.441"/>
<polygon fill="midnightblue" stroke="midnightblue" points="107.756,-226.625 118.205,-228.379 111.13,-220.492 107.756,-226.625"/>
</g>
<!-- Node3 -->
<g id="node3" class="node"><title>Node3</title>
<g id="a_node3"><a xlink:href="config_2string_8c.html#a02e912517ad66b0b9f74cf9726ab3ede" target="_top" xlink:title="Destroy a String &#45; Implements cst_destroy. ">
<polygon fill="white" stroke="black" points="224,-152.5 224,-171.5 302,-171.5 302,-152.5 224,-152.5"/>
<text text-anchor="middle" x="263" y="-159.5" font-family="Helvetica,sans-Serif" font-size="10.00">string_destroy</text>
</a>
</g>
</g>
<!-- Node1&#45;&gt;Node3 -->
<g id="edge9" class="edge"><title>Node1&#45;&gt;Node3</title>
<path fill="none" stroke="midnightblue" d="M38.0994,-133.572C48.8521,-147.17 70.7151,-171.484 96,-181 139.612,-197.414 193.856,-185.746 228.215,-174.777"/>
<polygon fill="midnightblue" stroke="midnightblue" points="229.407,-178.069 237.78,-171.577 227.186,-171.431 229.407,-178.069"/>
</g>
<!-- Node4 -->
<g id="node4" class="node"><title>Node4</title>
<g id="a_node4"><a xlink:href="config_2string_8c.html#abf83cfcb7725c482a8ee0d9fbb15c070" target="_top" xlink:title="Get a String as a string &#45; Implements cst_string_get. ">
<polygon fill="white" stroke="red" points="97.5,-152.5 97.5,-171.5 186.5,-171.5 186.5,-152.5 97.5,-152.5"/>
<text text-anchor="middle" x="142" y="-159.5" font-family="Helvetica,sans-Serif" font-size="10.00">string_string_get</text>
</a>
</g>
</g>
<!-- Node1&#45;&gt;Node4 -->
<g id="edge3" class="edge"><title>Node1&#45;&gt;Node4</title>
<path fill="none" stroke="midnightblue" d="M58.7576,-133.589C72.3062,-138.269 88.8055,-143.969 103.46,-149.032"/>
<polygon fill="midnightblue" stroke="midnightblue" points="102.656,-152.457 113.251,-152.414 104.942,-145.841 102.656,-152.457"/>
</g>
<!-- Node5 -->
<g id="node5" class="node"><title>Node5</title>
<g id="a_node5"><a xlink:href="config_2string_8c.html#a4edd040b3fc2ed50d5c5ad925b184e88" target="_top" xlink:title="Set a String config item by string &#45; Implements cst_native_set. ">
<polygon fill="white" stroke="red" points="96.5,-114.5 96.5,-133.5 187.5,-133.5 187.5,-114.5 96.5,-114.5"/>
<text text-anchor="middle" x="142" y="-121.5" font-family="Helvetica,sans-Serif" font-size="10.00">string_native_set</text>
</a>
</g>
</g>
<!-- Node1&#45;&gt;Node5 -->
<g id="edge4" class="edge"><title>Node1&#45;&gt;Node5</title>
<path fill="none" stroke="midnightblue" d="M59.6141,-124C67.7542,-124 76.905,-124 86.0537,-124"/>
<polygon fill="midnightblue" stroke="midnightblue" points="86.3282,-127.5 96.3282,-124 86.3281,-120.5 86.3282,-127.5"/>
</g>
<!-- Node6 -->
<g id="node6" class="node"><title>Node6</title>
<g id="a_node6"><a xlink:href="config_2string_8c.html#ab5bb6eaa20eb0bc40f0e2fa305a0ad90" target="_top" xlink:title="Get a string from a String config item &#45; Implements cst_native_get. ">
<polygon fill="white" stroke="black" points="96.5,-76.5 96.5,-95.5 187.5,-95.5 187.5,-76.5 96.5,-76.5"/>
<text text-anchor="middle" x="142" y="-83.5" font-family="Helvetica,sans-Serif" font-size="10.00">string_native_get</text>
</a>
</g>
</g>
<!-- Node1&#45;&gt;Node6 -->
<g id="edge6" class="edge"><title>Node1&#45;&gt;Node6</title>
<path fill="none" stroke="midnightblue" d="M58.7576,-114.411C72.3062,-109.731 88.8055,-104.031 103.46,-98.9685"/>
<polygon fill="midnightblue" stroke="midnightblue" points="104.942,-102.159 113.251,-95.5859 102.656,-95.543 104.942,-102.159"/>
</g>
<!-- Node7 -->
<g id="node7" class="node"><title>Node7</title>
<g id="a_node7"><a xlink:href="config_2string_8c.html#a63c7f945e37eec859151937510577717" target="_top" xlink:title="Reset a String to its initial value &#45; Implements cst_reset. ">
<polygon fill="white" stroke="red" points="108,-38.5 108,-57.5 176,-57.5 176,-38.5 108,-38.5"/>
<text text-anchor="middle" x="142" y="-45.5" font-family="Helvetica,sans-Serif" font-size="10.00">string_reset</text>
</a>
</g>
</g>
<!-- Node1&#45;&gt;Node7 -->
<g id="edge7" class="edge"><title>Node1&#45;&gt;Node7</title>
<path fill="none" stroke="midnightblue" d="M39.9229,-114.47C51.7942,-102.216 73.8693,-80.8661 96,-67 98.8026,-65.244 101.796,-63.582 104.856,-62.0263"/>
<polygon fill="midnightblue" stroke="midnightblue" points="106.545,-65.1003 114.117,-57.6895 103.576,-58.761 106.545,-65.1003"/>
</g>
<!-- Node8 -->
<g id="node8" class="node"><title>Node8</title>
<g id="a_node8"><a xlink:href="config_2set_8c.html#aad52d5fdffe84c6231aa06d541073a38" target="_top" xlink:title="Register a type of config item. ">
<polygon fill="white" stroke="black" points="97.5,-0.5 97.5,-19.5 186.5,-19.5 186.5,-0.5 97.5,-0.5"/>
<text text-anchor="middle" x="142" y="-7.5" font-family="Helvetica,sans-Serif" font-size="10.00">cs_register_type</text>
</a>
</g>
</g>
<!-- Node1&#45;&gt;Node8 -->
<g id="edge10" class="edge"><title>Node1&#45;&gt;Node8</title>
<path fill="none" stroke="midnightblue" d="M35.3084,-114.299C44.1307,-95.4394 65.9796,-53.5322 96,-29 98.011,-27.3566 100.185,-25.8345 102.454,-24.4282"/>
<polygon fill="midnightblue" stroke="midnightblue" points="104.37,-27.3725 111.533,-19.5663 101.065,-21.2015 104.37,-27.3725"/>
</g>
<!-- Node2&#45;&gt;Node3 -->
<g id="edge2" class="edge"><title>Node2&#45;&gt;Node3</title>
<path fill="none" stroke="midnightblue" d="M162.119,-228.463C170.228,-224.25 179.703,-219.101 188,-214 206.499,-202.627 226.607,-188.366 241.187,-177.657"/>
<polygon fill="midnightblue" stroke="midnightblue" points="243.537,-180.271 249.487,-171.505 239.368,-174.648 243.537,-180.271"/>
</g>
<!-- Node5&#45;&gt;Node3 -->
<g id="edge5" class="edge"><title>Node5&#45;&gt;Node3</title>
<path fill="none" stroke="midnightblue" d="M173.029,-133.589C187.968,-138.359 206.223,-144.189 222.301,-149.323"/>
<polygon fill="midnightblue" stroke="midnightblue" points="221.39,-152.706 231.981,-152.414 223.519,-146.038 221.39,-152.706"/>
</g>
<!-- Node7&#45;&gt;Node3 -->
<g id="edge8" class="edge"><title>Node7&#45;&gt;Node3</title>
<path fill="none" stroke="midnightblue" d="M171.815,-57.5777C177.476,-60.1555 183.155,-63.2841 188,-67 215.783,-88.3083 238.885,-122.395 251.54,-143.421"/>
<polygon fill="midnightblue" stroke="midnightblue" points="248.677,-145.458 256.744,-152.326 254.72,-141.926 248.677,-145.458"/>
</g>
</g>
</svg>
