<?xml version="1.0" encoding="UTF-8" standalone="no"?>
<!DOCTYPE svg PUBLIC "-//W3C//DTD SVG 1.1//EN"
 "http://www.w3.org/Graphics/SVG/1.1/DTD/svg11.dtd">
<!-- Generated by graphviz version 2.36.0 (20140111.2315)
 -->
<!-- Title: long_native_get Pages: 1 -->
<svg width="184pt" height="28pt"
 viewBox="0.00 0.00 184.00 28.00" xmlns="http://www.w3.org/2000/svg" xmlns:xlink="http://www.w3.org/1999/xlink">
<g id="graph0" class="graph" transform="scale(1 1) rotate(0) translate(4 24)">
<title>long_native_get</title>
<polygon fill="white" stroke="none" points="-4,4 -4,-24 180,-24 180,4 -4,4"/>
<!-- Node1 -->
<g id="node1" class="node"><title>Node1</title>
<polygon fill="#bfbfbf" stroke="black" points="0.5,-0.5 0.5,-19.5 85.5,-19.5 85.5,-0.5 0.5,-0.5"/>
<text text-anchor="middle" x="43" y="-7.5" font-family="Helvetica,sans-Serif" font-size="10.00">long_native_get</text>
</g>
<!-- Node2 -->
<g id="node2" class="node"><title>Node2</title>
<g id="a_node2"><a xlink:href="config_2long_8h.html#a214c571bcb1b6322e21f0a34fa55e742" target="_top" xlink:title="Register the Long config type. ">
<polygon fill="white" stroke="red" points="122.5,-0.5 122.5,-19.5 175.5,-19.5 175.5,-0.5 122.5,-0.5"/>
<text text-anchor="middle" x="149" y="-7.5" font-family="Helvetica,sans-Serif" font-size="10.00">long_init</text>
</a>
</g>
</g>
<!-- Node1&#45;&gt;Node2 -->
<g id="edge1" class="edge"><title>Node1&#45;&gt;Node2</title>
<path fill="none" stroke="midnightblue" d="M95.7256,-10C105.019,-10 114.325,-10 122.455,-10"/>
<polygon fill="midnightblue" stroke="midnightblue" points="95.7016,-6.5001 85.7015,-10 95.7015,-13.5001 95.7016,-6.5001"/>
</g>
</g>
</svg>
