<?xml version="1.0" encoding="UTF-8" standalone="no"?>
<!DOCTYPE svg PUBLIC "-//W3C//DTD SVG 1.1//EN"
 "http://www.w3.org/Graphics/SVG/1.1/DTD/svg11.dtd">
<!-- Generated by graphviz version 2.36.0 (20140111.2315)
 -->
<!-- Title: address_init Pages: 1 -->
<svg width="198pt" height="66pt"
 viewBox="0.00 0.00 198.00 66.00" xmlns="http://www.w3.org/2000/svg" xmlns:xlink="http://www.w3.org/1999/xlink">
<g id="graph0" class="graph" transform="scale(1 1) rotate(0) translate(4 62)">
<title>address_init</title>
<polygon fill="white" stroke="none" points="-4,4 -4,-62 194,-62 194,4 -4,4"/>
<!-- Node1 -->
<g id="node1" class="node"><title>Node1</title>
<polygon fill="#bfbfbf" stroke="black" points="0.5,-19.5 0.5,-38.5 69.5,-38.5 69.5,-19.5 0.5,-19.5"/>
<text text-anchor="middle" x="35" y="-26.5" font-family="Helvetica,sans-Serif" font-size="10.00">address_init</text>
</g>
<!-- Node2 -->
<g id="node2" class="node"><title>Node2</title>
<g id="a_node2"><a xlink:href="test_2config_2address_8h.html#a9efc5843bb346e494cdedcf6d276f01a" target="_top" xlink:title="config_address">
<polygon fill="white" stroke="black" points="106.5,-38.5 106.5,-57.5 189.5,-57.5 189.5,-38.5 106.5,-38.5"/>
<text text-anchor="middle" x="148" y="-45.5" font-family="Helvetica,sans-Serif" font-size="10.00">config_address</text>
</a>
</g>
</g>
<!-- Node1&#45;&gt;Node2 -->
<g id="edge1" class="edge"><title>Node1&#45;&gt;Node2</title>
<path fill="none" stroke="midnightblue" d="M79.7083,-36.4816C88.5261,-37.991 97.7603,-39.5716 106.464,-41.0614"/>
<polygon fill="midnightblue" stroke="midnightblue" points="80.0521,-32.9896 69.6049,-34.7522 78.871,-39.8893 80.0521,-32.9896"/>
</g>
<!-- Node3 -->
<g id="node3" class="node"><title>Node3</title>
<g id="a_node3"><a xlink:href="mutt_8h.html#a010347bb26a5857fdac5430b85cfaab0" target="_top" xlink:title="Initialise the config system. ">
<polygon fill="white" stroke="red" points="117.5,-0.5 117.5,-19.5 178.5,-19.5 178.5,-0.5 117.5,-0.5"/>
<text text-anchor="middle" x="148" y="-7.5" font-family="Helvetica,sans-Serif" font-size="10.00">init_config</text>
</a>
</g>
</g>
<!-- Node1&#45;&gt;Node3 -->
<g id="edge2" class="edge"><title>Node1&#45;&gt;Node3</title>
<path fill="none" stroke="midnightblue" d="M79.5093,-21.5525C92.1593,-19.3872 105.682,-17.0724 117.276,-15.0879"/>
<polygon fill="midnightblue" stroke="midnightblue" points="78.871,-18.1107 69.6049,-23.2478 80.0521,-25.0104 78.871,-18.1107"/>
</g>
</g>
</svg>
