<?xml version="1.0" encoding="UTF-8" standalone="no"?>
<!DOCTYPE svg PUBLIC "-//W3C//DTD SVG 1.1//EN"
 "http://www.w3.org/Graphics/SVG/1.1/DTD/svg11.dtd">
<!-- Generated by graphviz version 2.36.0 (20140111.2315)
 -->
<!-- Title: cs_str_string_set Pages: 1 -->
<svg width="230pt" height="104pt"
 viewBox="0.00 0.00 230.00 104.00" xmlns="http://www.w3.org/2000/svg" xmlns:xlink="http://www.w3.org/1999/xlink">
<g id="graph0" class="graph" transform="scale(1 1) rotate(0) translate(4 100)">
<title>cs_str_string_set</title>
<polygon fill="white" stroke="none" points="-4,4 -4,-100 226,-100 226,4 -4,4"/>
<!-- Node1 -->
<g id="node1" class="node"><title>Node1</title>
<polygon fill="#bfbfbf" stroke="black" points="0,-38.5 0,-57.5 92,-57.5 92,-38.5 0,-38.5"/>
<text text-anchor="middle" x="46" y="-45.5" font-family="Helvetica,sans-Serif" font-size="10.00">cs_str_string_set</text>
</g>
<!-- Node2 -->
<g id="node2" class="node"><title>Node2</title>
<g id="a_node2"><a xlink:href="config_2set_8c.html#a6a48e8c12db6f64a6da6b219c3d987d9" target="_top" xlink:title="Get the HashElem representing a config item. ">
<polygon fill="white" stroke="red" points="139,-76.5 139,-95.5 211,-95.5 211,-76.5 139,-76.5"/>
<text text-anchor="middle" x="175" y="-83.5" font-family="Helvetica,sans-Serif" font-size="10.00">cs_get_elem</text>
</a>
</g>
</g>
<!-- Node1&#45;&gt;Node2 -->
<g id="edge1" class="edge"><title>Node1&#45;&gt;Node2</title>
<path fill="none" stroke="midnightblue" d="M79.0475,-57.589C95.1411,-62.4044 114.841,-68.2988 132.117,-73.468"/>
<polygon fill="midnightblue" stroke="midnightblue" points="131.379,-76.9006 141.963,-76.4141 133.386,-70.1943 131.379,-76.9006"/>
</g>
<!-- Node3 -->
<g id="node3" class="node"><title>Node3</title>
<g id="a_node3"><a xlink:href="buffer_8c.html#ad057ee239ae5bcfd72cab3749036ab02" target="_top" xlink:title="Format a string into a Buffer. ">
<polygon fill="white" stroke="red" points="128.5,-38.5 128.5,-57.5 221.5,-57.5 221.5,-38.5 128.5,-38.5"/>
<text text-anchor="middle" x="175" y="-45.5" font-family="Helvetica,sans-Serif" font-size="10.00">mutt_buffer_printf</text>
</a>
</g>
</g>
<!-- Node1&#45;&gt;Node3 -->
<g id="edge2" class="edge"><title>Node1&#45;&gt;Node3</title>
<path fill="none" stroke="midnightblue" d="M92.133,-48C100.537,-48 109.411,-48 118.092,-48"/>
<polygon fill="midnightblue" stroke="midnightblue" points="118.156,-51.5001 128.156,-48 118.156,-44.5001 118.156,-51.5001"/>
</g>
<!-- Node4 -->
<g id="node4" class="node"><title>Node4</title>
<g id="a_node4"><a xlink:href="config_2set_8c.html#a6c9cf00df6994a9cef7caf5d9f0f01c6" target="_top" xlink:title="Set a config item by string. ">
<polygon fill="white" stroke="red" points="129.5,-0.5 129.5,-19.5 220.5,-19.5 220.5,-0.5 129.5,-0.5"/>
<text text-anchor="middle" x="175" y="-7.5" font-family="Helvetica,sans-Serif" font-size="10.00">cs_he_string_set</text>
</a>
</g>
</g>
<!-- Node1&#45;&gt;Node4 -->
<g id="edge3" class="edge"><title>Node1&#45;&gt;Node4</title>
<path fill="none" stroke="midnightblue" d="M79.0475,-38.411C95.1411,-33.5956 114.841,-27.7012 132.117,-22.532"/>
<polygon fill="midnightblue" stroke="midnightblue" points="133.386,-25.8057 141.963,-19.5859 131.379,-19.0994 133.386,-25.8057"/>
</g>
</g>
</svg>
