<?xml version="1.0" encoding="UTF-8" standalone="no"?>
<!DOCTYPE svg PUBLIC "-//W3C//DTD SVG 1.1//EN"
 "http://www.w3.org/Graphics/SVG/1.1/DTD/svg11.dtd">
<!-- Generated by graphviz version 2.36.0 (20140111.2315)
 -->
<!-- Title: cs_register_type Pages: 1 -->
<svg width="310pt" height="484pt"
 viewBox="0.00 0.00 310.00 484.00" xmlns="http://www.w3.org/2000/svg" xmlns:xlink="http://www.w3.org/1999/xlink">
<g id="graph0" class="graph" transform="scale(1 1) rotate(0) translate(4 480)">
<title>cs_register_type</title>
<polygon fill="white" stroke="none" points="-4,4 -4,-480 306,-480 306,4 -4,4"/>
<!-- Node1 -->
<g id="node1" class="node"><title>Node1</title>
<polygon fill="#bfbfbf" stroke="black" points="0.5,-228.5 0.5,-247.5 89.5,-247.5 89.5,-228.5 0.5,-228.5"/>
<text text-anchor="middle" x="45" y="-235.5" font-family="Helvetica,sans-Serif" font-size="10.00">cs_register_type</text>
</g>
<!-- Node2 -->
<g id="node2" class="node"><title>Node2</title>
<g id="a_node2"><a xlink:href="config_2address_8h.html#ac3f6d995646320966d761937f5a6db14" target="_top" xlink:title="Register the Address config type. ">
<polygon fill="white" stroke="red" points="130.5,-456.5 130.5,-475.5 199.5,-475.5 199.5,-456.5 130.5,-456.5"/>
<text text-anchor="middle" x="165" y="-463.5" font-family="Helvetica,sans-Serif" font-size="10.00">address_init</text>
</a>
</g>
</g>
<!-- Node1&#45;&gt;Node2 -->
<g id="edge1" class="edge"><title>Node1&#45;&gt;Node2</title>
<path fill="none" stroke="midnightblue" d="M48.6855,-257.699C55.1118,-297.943 74.831,-390.549 126,-447 129.368,-450.716 133.629,-453.799 138.069,-456.322"/>
<polygon fill="midnightblue" stroke="midnightblue" points="52.1169,-256.978 47.1819,-247.603 45.1933,-258.009 52.1169,-256.978"/>
</g>
<!-- Node3 -->
<g id="node3" class="node"><title>Node3</title>
<g id="a_node3"><a xlink:href="config_2bool_8h.html#a95a976b51db5924fb9614cc41d4fed70" target="_top" xlink:title="Register the Bool config type. ">
<polygon fill="white" stroke="red" points="138.5,-418.5 138.5,-437.5 191.5,-437.5 191.5,-418.5 138.5,-418.5"/>
<text text-anchor="middle" x="165" y="-425.5" font-family="Helvetica,sans-Serif" font-size="10.00">bool_init</text>
</a>
</g>
</g>
<!-- Node1&#45;&gt;Node3 -->
<g id="edge2" class="edge"><title>Node1&#45;&gt;Node3</title>
<path fill="none" stroke="midnightblue" d="M51.4982,-257.534C61.6476,-290.794 86.0169,-359.167 126,-404 131.09,-409.707 137.851,-414.562 144.259,-418.38"/>
<polygon fill="midnightblue" stroke="midnightblue" points="54.7806,-256.29 48.5993,-247.685 48.0655,-258.267 54.7806,-256.29"/>
</g>
<!-- Node4 -->
<g id="node4" class="node"><title>Node4</title>
<g id="a_node4"><a xlink:href="test_2config_2set_8h.html#a9df85117efed404dbec10443a902d5dd" target="_top" xlink:title="config_set">
<polygon fill="white" stroke="black" points="240,-399.5 240,-418.5 302,-418.5 302,-399.5 240,-399.5"/>
<text text-anchor="middle" x="271" y="-406.5" font-family="Helvetica,sans-Serif" font-size="10.00">config_set</text>
</a>
</g>
</g>
<!-- Node1&#45;&gt;Node4 -->
<g id="edge12" class="edge"><title>Node1&#45;&gt;Node4</title>
<path fill="none" stroke="midnightblue" d="M52.2557,-257.26C62.7348,-286.415 86.6468,-341.477 126,-371 159.609,-396.214 208.572,-404.729 239.854,-407.586"/>
<polygon fill="midnightblue" stroke="midnightblue" points="55.5598,-256.105 48.9991,-247.786 48.94,-258.38 55.5598,-256.105"/>
</g>
<!-- Node5 -->
<g id="node5" class="node"><title>Node5</title>
<g id="a_node5"><a xlink:href="config_2command_8h.html#a6fbaaaadef82af83812c65002474a53f" target="_top" xlink:title="Register the Command config type. ">
<polygon fill="white" stroke="red" points="126.5,-342.5 126.5,-361.5 203.5,-361.5 203.5,-342.5 126.5,-342.5"/>
<text text-anchor="middle" x="165" y="-349.5" font-family="Helvetica,sans-Serif" font-size="10.00">command_init</text>
</a>
</g>
</g>
<!-- Node1&#45;&gt;Node5 -->
<g id="edge4" class="edge"><title>Node1&#45;&gt;Node5</title>
<path fill="none" stroke="midnightblue" d="M57.9345,-256.246C72.177,-276.93 97.6526,-310.667 126,-333 130.519,-336.56 135.812,-339.715 140.988,-342.381"/>
<polygon fill="midnightblue" stroke="midnightblue" points="60.7007,-254.088 52.2112,-247.749 54.8949,-257.999 60.7007,-254.088"/>
</g>
<!-- Node6 -->
<g id="node6" class="node"><title>Node6</title>
<g id="a_node6"><a xlink:href="config_2long_8h.html#a214c571bcb1b6322e21f0a34fa55e742" target="_top" xlink:title="Register the Long config type. ">
<polygon fill="white" stroke="red" points="138.5,-304.5 138.5,-323.5 191.5,-323.5 191.5,-304.5 138.5,-304.5"/>
<text text-anchor="middle" x="165" y="-311.5" font-family="Helvetica,sans-Serif" font-size="10.00">long_init</text>
</a>
</g>
</g>
<!-- Node1&#45;&gt;Node6 -->
<g id="edge5" class="edge"><title>Node1&#45;&gt;Node6</title>
<path fill="none" stroke="midnightblue" d="M66.0846,-253.638C81.9178,-265.635 104.79,-282.247 126,-295 131.436,-298.269 137.508,-301.485 143.176,-304.316"/>
<polygon fill="midnightblue" stroke="midnightblue" points="68.136,-250.8 58.0678,-247.501 63.8812,-256.359 68.136,-250.8"/>
</g>
<!-- Node7 -->
<g id="node7" class="node"><title>Node7</title>
<g id="a_node7"><a xlink:href="config_2magic_8h.html#aea18668b6c1e82da15a57082eeee24a7" target="_top" xlink:title="Register the Mailbox Magic config type. ">
<polygon fill="white" stroke="red" points="134.5,-266.5 134.5,-285.5 195.5,-285.5 195.5,-266.5 134.5,-266.5"/>
<text text-anchor="middle" x="165" y="-273.5" font-family="Helvetica,sans-Serif" font-size="10.00">magic_init</text>
</a>
</g>
</g>
<!-- Node1&#45;&gt;Node7 -->
<g id="edge6" class="edge"><title>Node1&#45;&gt;Node7</title>
<path fill="none" stroke="midnightblue" d="M85.3761,-250.68C101.32,-255.815 119.421,-261.644 134.233,-266.414"/>
<polygon fill="midnightblue" stroke="midnightblue" points="86.3679,-247.323 75.7764,-247.589 84.2221,-253.986 86.3679,-247.323"/>
</g>
<!-- Node8 -->
<g id="node8" class="node"><title>Node8</title>
<g id="a_node8"><a xlink:href="config_2mbtable_8h.html#ab986d01ef3b35a31442489a4966323f5" target="_top" xlink:title="Register the MbTable config type. ">
<polygon fill="white" stroke="red" points="130.5,-228.5 130.5,-247.5 199.5,-247.5 199.5,-228.5 130.5,-228.5"/>
<text text-anchor="middle" x="165" y="-235.5" font-family="Helvetica,sans-Serif" font-size="10.00">mbtable_init</text>
</a>
</g>
</g>
<!-- Node1&#45;&gt;Node8 -->
<g id="edge7" class="edge"><title>Node1&#45;&gt;Node8</title>
<path fill="none" stroke="midnightblue" d="M99.8143,-238C110.144,-238 120.687,-238 130.164,-238"/>
<polygon fill="midnightblue" stroke="midnightblue" points="99.6036,-234.5 89.6036,-238 99.6036,-241.5 99.6036,-234.5"/>
</g>
<!-- Node9 -->
<g id="node9" class="node"><title>Node9</title>
<g id="a_node9"><a xlink:href="config_2number_8h.html#a7f72ea5a6dcb2232432e67245ac099f6" target="_top" xlink:title="Register the Number config type. ">
<polygon fill="white" stroke="red" points="131.5,-190.5 131.5,-209.5 198.5,-209.5 198.5,-190.5 131.5,-190.5"/>
<text text-anchor="middle" x="165" y="-197.5" font-family="Helvetica,sans-Serif" font-size="10.00">number_init</text>
</a>
</g>
</g>
<!-- Node1&#45;&gt;Node9 -->
<g id="edge8" class="edge"><title>Node1&#45;&gt;Node9</title>
<path fill="none" stroke="midnightblue" d="M85.3761,-225.32C101.32,-220.185 119.421,-214.356 134.233,-209.586"/>
<polygon fill="midnightblue" stroke="midnightblue" points="84.2221,-222.014 75.7764,-228.411 86.3679,-228.677 84.2221,-222.014"/>
</g>
<!-- Node10 -->
<g id="node10" class="node"><title>Node10</title>
<g id="a_node10"><a xlink:href="config_2path_8h.html#a88200a97cb95b0daba50e04f318a5f03" target="_top" xlink:title="Register the Path config type. ">
<polygon fill="white" stroke="red" points="138.5,-152.5 138.5,-171.5 191.5,-171.5 191.5,-152.5 138.5,-152.5"/>
<text text-anchor="middle" x="165" y="-159.5" font-family="Helvetica,sans-Serif" font-size="10.00">path_init</text>
</a>
</g>
</g>
<!-- Node1&#45;&gt;Node10 -->
<g id="edge9" class="edge"><title>Node1&#45;&gt;Node10</title>
<path fill="none" stroke="midnightblue" d="M66.0846,-222.362C81.9178,-210.365 104.79,-193.753 126,-181 131.436,-177.731 137.508,-174.515 143.176,-171.684"/>
<polygon fill="midnightblue" stroke="midnightblue" points="63.8812,-219.641 58.0678,-228.499 68.136,-225.2 63.8812,-219.641"/>
</g>
<!-- Node11 -->
<g id="node11" class="node"><title>Node11</title>
<g id="a_node11"><a xlink:href="config_2quad_8h.html#ade096ee3fb64386af67bd4b664066506" target="_top" xlink:title="Register the Quad&#45;option config type. ">
<polygon fill="white" stroke="red" points="137,-114.5 137,-133.5 193,-133.5 193,-114.5 137,-114.5"/>
<text text-anchor="middle" x="165" y="-121.5" font-family="Helvetica,sans-Serif" font-size="10.00">quad_init</text>
</a>
</g>
</g>
<!-- Node1&#45;&gt;Node11 -->
<g id="edge10" class="edge"><title>Node1&#45;&gt;Node11</title>
<path fill="none" stroke="midnightblue" d="M57.9345,-219.754C72.177,-199.07 97.6526,-165.333 126,-143 130.519,-139.44 135.812,-136.285 140.988,-133.619"/>
<polygon fill="midnightblue" stroke="midnightblue" points="54.8949,-218.001 52.2112,-228.251 60.7007,-221.912 54.8949,-218.001"/>
</g>
<!-- Node12 -->
<g id="node12" class="node"><title>Node12</title>
<g id="a_node12"><a xlink:href="regex2_8h.html#a0eac3faaf8685546c79a7e648f15b6f7" target="_top" xlink:title="Register the Regex config type. ">
<polygon fill="white" stroke="red" points="135.5,-76.5 135.5,-95.5 194.5,-95.5 194.5,-76.5 135.5,-76.5"/>
<text text-anchor="middle" x="165" y="-83.5" font-family="Helvetica,sans-Serif" font-size="10.00">regex_init</text>
</a>
</g>
</g>
<!-- Node1&#45;&gt;Node12 -->
<g id="edge11" class="edge"><title>Node1&#45;&gt;Node12</title>
<path fill="none" stroke="midnightblue" d="M53.3782,-218.919C65.0607,-190.827 90.2187,-138.098 126,-105 130.007,-101.294 134.872,-98.1425 139.765,-95.5351"/>
<polygon fill="midnightblue" stroke="midnightblue" points="50.0545,-217.803 49.5666,-228.387 56.548,-220.418 50.0545,-217.803"/>
</g>
<!-- Node13 -->
<g id="node13" class="node"><title>Node13</title>
<g id="a_node13"><a xlink:href="config_2sort_8h.html#a950a5552f7fa1af85327fac1fe894c9f" target="_top" xlink:title="Register the Sort config type. ">
<polygon fill="white" stroke="red" points="139.5,-38.5 139.5,-57.5 190.5,-57.5 190.5,-38.5 139.5,-38.5"/>
<text text-anchor="middle" x="165" y="-45.5" font-family="Helvetica,sans-Serif" font-size="10.00">sort_init</text>
</a>
</g>
</g>
<!-- Node1&#45;&gt;Node13 -->
<g id="edge13" class="edge"><title>Node1&#45;&gt;Node13</title>
<path fill="none" stroke="midnightblue" d="M50.6173,-218.38C59.6484,-183.805 82.6593,-111.485 126,-67 129.809,-63.0905 134.591,-59.8536 139.465,-57.2271"/>
<polygon fill="midnightblue" stroke="midnightblue" points="47.1932,-217.646 48.1683,-228.196 53.985,-219.341 47.1932,-217.646"/>
</g>
<!-- Node14 -->
<g id="node14" class="node"><title>Node14</title>
<g id="a_node14"><a xlink:href="string3_8h.html#a5dd1e57b7abf9ddc92a8742efb6a7d2a" target="_top" xlink:title="Register the String config type. ">
<polygon fill="white" stroke="red" points="135.5,-0.5 135.5,-19.5 194.5,-19.5 194.5,-0.5 135.5,-0.5"/>
<text text-anchor="middle" x="165" y="-7.5" font-family="Helvetica,sans-Serif" font-size="10.00">string_init</text>
</a>
</g>
</g>
<!-- Node1&#45;&gt;Node14 -->
<g id="edge14" class="edge"><title>Node1&#45;&gt;Node14</title>
<path fill="none" stroke="midnightblue" d="M48.6855,-218.301C55.1118,-178.057 74.831,-85.4508 126,-29 129.368,-25.2838 133.629,-22.2013 138.069,-19.678"/>
<polygon fill="midnightblue" stroke="midnightblue" points="45.1933,-217.991 47.1819,-228.397 52.1169,-219.022 45.1933,-217.991"/>
</g>
<!-- Node3&#45;&gt;Node4 -->
<g id="edge3" class="edge"><title>Node3&#45;&gt;Node4</title>
<path fill="none" stroke="midnightblue" d="M201.725,-421.473C214.119,-419.209 227.885,-416.694 239.79,-414.519"/>
<polygon fill="midnightblue" stroke="midnightblue" points="200.916,-418.063 191.708,-423.303 202.174,-424.949 200.916,-418.063"/>
</g>
</g>
</svg>
