<?xml version="1.0" encoding="UTF-8" standalone="no"?>
<!DOCTYPE svg PUBLIC "-//W3C//DTD SVG 1.1//EN"
 "http://www.w3.org/Graphics/SVG/1.1/DTD/svg11.dtd">
<!-- Generated by graphviz version 2.36.0 (20140111.2315)
 -->
<!-- Title: quad_native_set Pages: 1 -->
<svg width="188pt" height="28pt"
 viewBox="0.00 0.00 188.00 28.00" xmlns="http://www.w3.org/2000/svg" xmlns:xlink="http://www.w3.org/1999/xlink">
<g id="graph0" class="graph" transform="scale(1 1) rotate(0) translate(4 24)">
<title>quad_native_set</title>
<polygon fill="white" stroke="none" points="-4,4 -4,-24 184,-24 184,4 -4,4"/>
<!-- Node1 -->
<g id="node1" class="node"><title>Node1</title>
<polygon fill="#bfbfbf" stroke="black" points="0,-0.5 0,-19.5 88,-19.5 88,-0.5 0,-0.5"/>
<text text-anchor="middle" x="44" y="-7.5" font-family="Helvetica,sans-Serif" font-size="10.00">quad_native_set</text>
</g>
<!-- Node2 -->
<g id="node2" class="node"><title>Node2</title>
<g id="a_node2"><a xlink:href="config_2quad_8h.html#ade096ee3fb64386af67bd4b664066506" target="_top" xlink:title="Register the Quad&#45;option config type. ">
<polygon fill="white" stroke="red" points="124,-0.5 124,-19.5 180,-19.5 180,-0.5 124,-0.5"/>
<text text-anchor="middle" x="152" y="-7.5" font-family="Helvetica,sans-Serif" font-size="10.00">quad_init</text>
</a>
</g>
</g>
<!-- Node1&#45;&gt;Node2 -->
<g id="edge1" class="edge"><title>Node1&#45;&gt;Node2</title>
<path fill="none" stroke="midnightblue" d="M98.3797,-10C107.168,-10 115.943,-10 123.737,-10"/>
<polygon fill="midnightblue" stroke="midnightblue" points="98.1143,-6.5001 88.1143,-10 98.1142,-13.5001 98.1143,-6.5001"/>
</g>
</g>
</svg>
