<?xml version="1.0" encoding="UTF-8" standalone="no"?>
<!DOCTYPE svg PUBLIC "-//W3C//DTD SVG 1.1//EN"
 "http://www.w3.org/Graphics/SVG/1.1/DTD/svg11.dtd">
<!-- Generated by graphviz version 2.36.0 (20140111.2315)
 -->
<!-- Title: address_string_set Pages: 1 -->
<svg width="374pt" height="104pt"
 viewBox="0.00 0.00 374.00 104.00" xmlns="http://www.w3.org/2000/svg" xmlns:xlink="http://www.w3.org/1999/xlink">
<g id="graph0" class="graph" transform="scale(1 1) rotate(0) translate(4 100)">
<title>address_string_set</title>
<polygon fill="white" stroke="none" points="-4,4 -4,-100 370,-100 370,4 -4,4"/>
<!-- Node1 -->
<g id="node1" class="node"><title>Node1</title>
<polygon fill="#bfbfbf" stroke="black" points="0.5,-38.5 0.5,-57.5 99.5,-57.5 99.5,-38.5 0.5,-38.5"/>
<text text-anchor="middle" x="50" y="-45.5" font-family="Helvetica,sans-Serif" font-size="10.00">address_string_set</text>
</g>
<!-- Node2 -->
<g id="node2" class="node"><title>Node2</title>
<g id="a_node2"><a xlink:href="email_2address_8c.html#abc55e4ec2195cdbfc45eaa22cbce9c64" target="_top" xlink:title="Parse a list of email addresses. ">
<polygon fill="white" stroke="red" points="136.5,-76.5 136.5,-95.5 243.5,-95.5 243.5,-76.5 136.5,-76.5"/>
<text text-anchor="middle" x="190" y="-83.5" font-family="Helvetica,sans-Serif" font-size="10.00">mutt_addr_parse_list</text>
</a>
</g>
</g>
<!-- Node1&#45;&gt;Node2 -->
<g id="edge1" class="edge"><title>Node1&#45;&gt;Node2</title>
<path fill="none" stroke="midnightblue" d="M85.8232,-57.589C103.638,-62.4944 125.518,-68.5196 144.539,-73.7571"/>
<polygon fill="midnightblue" stroke="midnightblue" points="143.618,-77.1336 154.188,-76.4141 145.476,-70.3848 143.618,-77.1336"/>
</g>
<!-- Node3 -->
<g id="node3" class="node"><title>Node3</title>
<g id="a_node3"><a xlink:href="mutt_2string_8c.html#ae48085384a6545e0fac589a88243ea31" target="_top" xlink:title="Copy a string, safely. ">
<polygon fill="white" stroke="red" points="280.5,-57.5 280.5,-76.5 365.5,-76.5 365.5,-57.5 280.5,-57.5"/>
<text text-anchor="middle" x="323" y="-64.5" font-family="Helvetica,sans-Serif" font-size="10.00">mutt_str_strdup</text>
</a>
</g>
</g>
<!-- Node1&#45;&gt;Node3 -->
<g id="edge4" class="edge"><title>Node1&#45;&gt;Node3</title>
<path fill="none" stroke="midnightblue" d="M99.7624,-51.4188C147.849,-54.7902 221.079,-59.9243 270.194,-63.3678"/>
<polygon fill="midnightblue" stroke="midnightblue" points="270.07,-66.8677 280.291,-64.0757 270.56,-59.8848 270.07,-66.8677"/>
</g>
<!-- Node4 -->
<g id="node4" class="node"><title>Node4</title>
<g id="a_node4"><a xlink:href="config_2address_8c.html#abd2f53bded52356d4d0066d3558326df" target="_top" xlink:title="Destroy an Address object &#45; Implements cst_destroy. ">
<polygon fill="white" stroke="red" points="145.5,-0.5 145.5,-19.5 234.5,-19.5 234.5,-0.5 145.5,-0.5"/>
<text text-anchor="middle" x="190" y="-7.5" font-family="Helvetica,sans-Serif" font-size="10.00">address_destroy</text>
</a>
</g>
</g>
<!-- Node1&#45;&gt;Node4 -->
<g id="edge3" class="edge"><title>Node1&#45;&gt;Node4</title>
<path fill="none" stroke="midnightblue" d="M85.8232,-38.411C103.638,-33.5056 125.518,-27.4804 144.539,-22.2429"/>
<polygon fill="midnightblue" stroke="midnightblue" points="145.476,-25.6152 154.188,-19.5859 143.618,-18.8664 145.476,-25.6152"/>
</g>
<!-- Node2&#45;&gt;Node3 -->
<g id="edge2" class="edge"><title>Node2&#45;&gt;Node3</title>
<path fill="none" stroke="midnightblue" d="M243.528,-78.3815C252.328,-77.1051 261.453,-75.7816 270.234,-74.5081"/>
<polygon fill="midnightblue" stroke="midnightblue" points="270.949,-77.9411 280.343,-73.0419 269.944,-71.0136 270.949,-77.9411"/>
</g>
</g>
</svg>
