<?xml version="1.0" encoding="UTF-8" standalone="no"?>
<!DOCTYPE svg PUBLIC "-//W3C//DTD SVG 1.1//EN"
 "http://www.w3.org/Graphics/SVG/1.1/DTD/svg11.dtd">
<!-- Generated by graphviz version 2.36.0 (20140111.2315)
 -->
<!-- Title: address_init Pages: 1 -->
<svg width="342pt" height="256pt"
 viewBox="0.00 0.00 342.00 256.00" xmlns="http://www.w3.org/2000/svg" xmlns:xlink="http://www.w3.org/1999/xlink">
<g id="graph0" class="graph" transform="scale(1 1) rotate(0) translate(4 252)">
<title>address_init</title>
<polygon fill="white" stroke="none" points="-4,4 -4,-252 338,-252 338,4 -4,4"/>
<!-- Node1 -->
<g id="node1" class="node"><title>Node1</title>
<polygon fill="#bfbfbf" stroke="black" points="0.5,-114.5 0.5,-133.5 69.5,-133.5 69.5,-114.5 0.5,-114.5"/>
<text text-anchor="middle" x="35" y="-121.5" font-family="Helvetica,sans-Serif" font-size="10.00">address_init</text>
</g>
<!-- Node2 -->
<g id="node2" class="node"><title>Node2</title>
<g id="a_node2"><a xlink:href="config_2address_8c.html#a5d737b3ecc68fd6a4f17b9187556dbd9" target="_top" xlink:title="Set an Address by string &#45; Implements cst_string_set. ">
<polygon fill="white" stroke="red" points="107.5,-228.5 107.5,-247.5 206.5,-247.5 206.5,-228.5 107.5,-228.5"/>
<text text-anchor="middle" x="157" y="-235.5" font-family="Helvetica,sans-Serif" font-size="10.00">address_string_set</text>
</a>
</g>
</g>
<!-- Node1&#45;&gt;Node2 -->
<g id="edge1" class="edge"><title>Node1&#45;&gt;Node2</title>
<path fill="none" stroke="midnightblue" d="M41.3903,-133.589C51.8326,-151.446 76.4151,-190.143 106,-214 110.61,-217.717 115.89,-221.034 121.253,-223.927"/>
<polygon fill="midnightblue" stroke="midnightblue" points="119.739,-227.083 130.253,-228.394 122.851,-220.813 119.739,-227.083"/>
</g>
<!-- Node3 -->
<g id="node3" class="node"><title>Node3</title>
<g id="a_node3"><a xlink:href="config_2address_8c.html#abd2f53bded52356d4d0066d3558326df" target="_top" xlink:title="Destroy an Address object &#45; Implements cst_destroy. ">
<polygon fill="white" stroke="red" points="244.5,-190.5 244.5,-209.5 333.5,-209.5 333.5,-190.5 244.5,-190.5"/>
<text text-anchor="middle" x="289" y="-197.5" font-family="Helvetica,sans-Serif" font-size="10.00">address_destroy</text>
</a>
</g>
</g>
<!-- Node1&#45;&gt;Node3 -->
<g id="edge8" class="edge"><title>Node1&#45;&gt;Node3</title>
<path fill="none" stroke="midnightblue" d="M44.3604,-133.67C56.459,-146.922 80.2377,-170.299 106,-181 146.762,-197.932 196.887,-202.082 234.206,-202.336"/>
<polygon fill="midnightblue" stroke="midnightblue" points="234.382,-205.836 244.373,-202.312 234.365,-198.836 234.382,-205.836"/>
</g>
<!-- Node4 -->
<g id="node4" class="node"><title>Node4</title>
<g id="a_node4"><a xlink:href="config_2address_8c.html#ad491963060ee2cc61d5426b2367707d9" target="_top" xlink:title="Get an Address as a string &#45; Implements cst_string_get. ">
<polygon fill="white" stroke="red" points="107.5,-152.5 107.5,-171.5 206.5,-171.5 206.5,-152.5 107.5,-152.5"/>
<text text-anchor="middle" x="157" y="-159.5" font-family="Helvetica,sans-Serif" font-size="10.00">address_string_get</text>
</a>
</g>
</g>
<!-- Node1&#45;&gt;Node4 -->
<g id="edge3" class="edge"><title>Node1&#45;&gt;Node4</title>
<path fill="none" stroke="midnightblue" d="M66.2811,-133.589C81.3456,-138.359 99.754,-144.189 115.967,-149.323"/>
<polygon fill="midnightblue" stroke="midnightblue" points="115.139,-152.732 125.729,-152.414 117.252,-146.058 115.139,-152.732"/>
</g>
<!-- Node5 -->
<g id="node5" class="node"><title>Node5</title>
<g id="a_node5"><a xlink:href="config_2address_8c.html#ae93647fb497ccd3fbe0e2fd2cb834224" target="_top" xlink:title="Set an Address config item by Address object &#45; Implements cst_native_set. ">
<polygon fill="white" stroke="red" points="106.5,-114.5 106.5,-133.5 207.5,-133.5 207.5,-114.5 106.5,-114.5"/>
<text text-anchor="middle" x="157" y="-121.5" font-family="Helvetica,sans-Serif" font-size="10.00">address_native_set</text>
</a>
</g>
</g>
<!-- Node1&#45;&gt;Node5 -->
<g id="edge4" class="edge"><title>Node1&#45;&gt;Node5</title>
<path fill="none" stroke="midnightblue" d="M69.746,-124C78.0062,-124 87.0933,-124 96.1751,-124"/>
<polygon fill="midnightblue" stroke="midnightblue" points="96.3821,-127.5 106.382,-124 96.3821,-120.5 96.3821,-127.5"/>
</g>
<!-- Node6 -->
<g id="node6" class="node"><title>Node6</title>
<g id="a_node6"><a xlink:href="config_2address_8c.html#a8008133974fe559ede7da70d359f5418" target="_top" xlink:title="Get an Address object from an Address config item &#45; Implements cst_native_get. ">
<polygon fill="white" stroke="black" points="106.5,-76.5 106.5,-95.5 207.5,-95.5 207.5,-76.5 106.5,-76.5"/>
<text text-anchor="middle" x="157" y="-83.5" font-family="Helvetica,sans-Serif" font-size="10.00">address_native_get</text>
</a>
</g>
</g>
<!-- Node1&#45;&gt;Node6 -->
<g id="edge5" class="edge"><title>Node1&#45;&gt;Node6</title>
<path fill="none" stroke="midnightblue" d="M66.2811,-114.411C81.3456,-109.641 99.754,-103.811 115.967,-98.6771"/>
<polygon fill="midnightblue" stroke="midnightblue" points="117.252,-101.942 125.729,-95.5859 115.139,-95.2682 117.252,-101.942"/>
</g>
<!-- Node7 -->
<g id="node7" class="node"><title>Node7</title>
<g id="a_node7"><a xlink:href="config_2address_8c.html#af3fccaef5848b5826a78e3644508328b" target="_top" xlink:title="Reset an Address to its initial value &#45; Implements cst_reset. ">
<polygon fill="white" stroke="red" points="118,-38.5 118,-57.5 196,-57.5 196,-38.5 118,-38.5"/>
<text text-anchor="middle" x="157" y="-45.5" font-family="Helvetica,sans-Serif" font-size="10.00">address_reset</text>
</a>
</g>
</g>
<!-- Node1&#45;&gt;Node7 -->
<g id="edge6" class="edge"><title>Node1&#45;&gt;Node7</title>
<path fill="none" stroke="midnightblue" d="M45.6746,-114.396C58.5298,-102.062 82.3793,-80.627 106,-67 109.431,-65.0206 113.107,-63.1733 116.851,-61.469"/>
<polygon fill="midnightblue" stroke="midnightblue" points="118.338,-64.6403 126.196,-57.5336 115.622,-58.189 118.338,-64.6403"/>
</g>
<!-- Node8 -->
<g id="node8" class="node"><title>Node8</title>
<g id="a_node8"><a xlink:href="config_2set_8c.html#aad52d5fdffe84c6231aa06d541073a38" target="_top" xlink:title="Register a type of config item. ">
<polygon fill="white" stroke="black" points="112.5,-0.5 112.5,-19.5 201.5,-19.5 201.5,-0.5 112.5,-0.5"/>
<text text-anchor="middle" x="157" y="-7.5" font-family="Helvetica,sans-Serif" font-size="10.00">cs_register_type</text>
</a>
</g>
</g>
<!-- Node1&#45;&gt;Node8 -->
<g id="edge9" class="edge"><title>Node1&#45;&gt;Node8</title>
<path fill="none" stroke="midnightblue" d="M40.7589,-114.212C50.4685,-95.1989 74.347,-53.0357 106,-29 108.436,-27.1503 111.073,-25.462 113.818,-23.9243"/>
<polygon fill="midnightblue" stroke="midnightblue" points="115.399,-27.0477 122.846,-19.512 112.325,-20.7587 115.399,-27.0477"/>
</g>
<!-- Node2&#45;&gt;Node3 -->
<g id="edge2" class="edge"><title>Node2&#45;&gt;Node3</title>
<path fill="none" stroke="midnightblue" d="M190.804,-228.411C207.278,-223.596 227.443,-217.701 245.127,-212.532"/>
<polygon fill="midnightblue" stroke="midnightblue" points="246.59,-215.751 255.206,-209.586 244.626,-209.032 246.59,-215.751"/>
</g>
<!-- Node7&#45;&gt;Node3 -->
<g id="edge7" class="edge"><title>Node7&#45;&gt;Node3</title>
<path fill="none" stroke="midnightblue" d="M192.492,-57.5995C198.035,-60.0954 203.44,-63.1886 208,-67 245.582,-98.4121 270.128,-152.273 281.202,-180.864"/>
<polygon fill="midnightblue" stroke="midnightblue" points="278.016,-182.336 284.786,-190.485 284.575,-179.893 278.016,-182.336"/>
</g>
</g>
</svg>
