<?xml version="1.0" encoding="UTF-8" standalone="no"?>
<!DOCTYPE svg PUBLIC "-//W3C//DTD SVG 1.1//EN"
 "http://www.w3.org/Graphics/SVG/1.1/DTD/svg11.dtd">
<!-- Generated by graphviz version 2.36.0 (20140111.2315)
 -->
<!-- Title: sort_init Pages: 1 -->
<svg width="162pt" height="66pt"
 viewBox="0.00 0.00 162.00 66.00" xmlns="http://www.w3.org/2000/svg" xmlns:xlink="http://www.w3.org/1999/xlink">
<g id="graph0" class="graph" transform="scale(1 1) rotate(0) translate(4 62)">
<title>sort_init</title>
<polygon fill="white" stroke="none" points="-4,4 -4,-62 158,-62 158,4 -4,4"/>
<!-- Node1 -->
<g id="node1" class="node"><title>Node1</title>
<polygon fill="#bfbfbf" stroke="black" points="0.5,-19.5 0.5,-38.5 51.5,-38.5 51.5,-19.5 0.5,-19.5"/>
<text text-anchor="middle" x="26" y="-26.5" font-family="Helvetica,sans-Serif" font-size="10.00">sort_init</text>
</g>
<!-- Node2 -->
<g id="node2" class="node"><title>Node2</title>
<g id="a_node2"><a xlink:href="test_2config_2sort_8h.html#a1e48ee018f813022d178d6df8df06f60" target="_top" xlink:title="config_sort">
<polygon fill="white" stroke="black" points="88.5,-38.5 88.5,-57.5 153.5,-57.5 153.5,-38.5 88.5,-38.5"/>
<text text-anchor="middle" x="121" y="-45.5" font-family="Helvetica,sans-Serif" font-size="10.00">config_sort</text>
</a>
</g>
</g>
<!-- Node1&#45;&gt;Node2 -->
<g id="edge1" class="edge"><title>Node1&#45;&gt;Node2</title>
<path fill="none" stroke="midnightblue" d="M61.7935,-36.1084C70.4995,-37.887 79.7911,-39.7853 88.336,-41.531"/>
<polygon fill="midnightblue" stroke="midnightblue" points="62.4205,-32.6642 51.9223,-34.0917 61.0193,-39.5226 62.4205,-32.6642"/>
</g>
<!-- Node3 -->
<g id="node3" class="node"><title>Node3</title>
<g id="a_node3"><a xlink:href="mutt_8h.html#a010347bb26a5857fdac5430b85cfaab0" target="_top" xlink:title="Initialise the config system. ">
<polygon fill="white" stroke="red" points="90.5,-0.5 90.5,-19.5 151.5,-19.5 151.5,-0.5 90.5,-0.5"/>
<text text-anchor="middle" x="121" y="-7.5" font-family="Helvetica,sans-Serif" font-size="10.00">init_config</text>
</a>
</g>
</g>
<!-- Node1&#45;&gt;Node3 -->
<g id="edge2" class="edge"><title>Node1&#45;&gt;Node3</title>
<path fill="none" stroke="midnightblue" d="M61.7826,-21.8939C71.1905,-19.9718 81.2829,-17.9099 90.3785,-16.0517"/>
<polygon fill="midnightblue" stroke="midnightblue" points="61.0193,-18.4774 51.9223,-23.9083 62.4205,-25.3358 61.0193,-18.4774"/>
</g>
</g>
</svg>
