<?xml version="1.0" encoding="UTF-8" standalone="no"?>
<!DOCTYPE svg PUBLIC "-//W3C//DTD SVG 1.1//EN"
 "http://www.w3.org/Graphics/SVG/1.1/DTD/svg11.dtd">
<!-- Generated by graphviz version 2.36.0 (20140111.2315)
 -->
<!-- Title: cs_get_elem Pages: 1 -->
<svg width="364pt" height="785pt"
 viewBox="0.00 0.00 364.00 784.87" xmlns="http://www.w3.org/2000/svg" xmlns:xlink="http://www.w3.org/1999/xlink">
<g id="graph0" class="graph" transform="scale(1 1) rotate(0) translate(4 780.872)">
<title>cs_get_elem</title>
<polygon fill="white" stroke="none" points="-4,4 -4,-780.872 360,-780.872 360,4 -4,4"/>
<!-- Node1 -->
<g id="node1" class="node"><title>Node1</title>
<polygon fill="#bfbfbf" stroke="black" points="0,-380.5 0,-399.5 72,-399.5 72,-380.5 0,-380.5"/>
<text text-anchor="middle" x="36" y="-387.5" font-family="Helvetica,sans-Serif" font-size="10.00">cs_get_elem</text>
</g>
<!-- Node2 -->
<g id="node2" class="node"><title>Node2</title>
<g id="a_node2"><a xlink:href="config_2bool_8h.html#ae88becdf3a9af7ec837dfbdc9f7088ee" target="_top" xlink:title="Toggle the value of a bool. ">
<polygon fill="white" stroke="red" points="130.5,-722.5 130.5,-741.5 213.5,-741.5 213.5,-722.5 130.5,-722.5"/>
<text text-anchor="middle" x="172" y="-729.5" font-family="Helvetica,sans-Serif" font-size="10.00">bool_str_toggle</text>
</a>
</g>
</g>
<!-- Node1&#45;&gt;Node2 -->
<g id="edge1" class="edge"><title>Node1&#45;&gt;Node2</title>
<path fill="none" stroke="midnightblue" d="M38.7603,-409.856C44.7483,-473.051 66.312,-667.993 108,-713 113.978,-719.454 122.059,-723.744 130.437,-726.588"/>
<polygon fill="midnightblue" stroke="midnightblue" points="42.2234,-409.293 37.8221,-399.655 35.2528,-409.934 42.2234,-409.293"/>
</g>
<!-- Node3 -->
<g id="node3" class="node"><title>Node3</title>
<g id="a_node3"><a xlink:href="test_2config_2bool_8c.html#aa724c802934cb5163589b66102ea9838" target="_top" xlink:title="test_toggle">
<polygon fill="white" stroke="red" points="281.5,-741.5 281.5,-760.5 346.5,-760.5 346.5,-741.5 281.5,-741.5"/>
<text text-anchor="middle" x="314" y="-748.5" font-family="Helvetica,sans-Serif" font-size="10.00">test_toggle</text>
</a>
</g>
</g>
<!-- Node1&#45;&gt;Node3 -->
<g id="edge3" class="edge"><title>Node1&#45;&gt;Node3</title>
<path fill="none" stroke="midnightblue" d="M37.7363,-410.017C40.7434,-479.303 54.6041,-707.083 108,-751 158.989,-792.938 243.721,-774.098 286.523,-760.542"/>
<polygon fill="midnightblue" stroke="midnightblue" points="41.2184,-409.5 37.3178,-399.65 34.2241,-409.783 41.2184,-409.5"/>
</g>
<!-- Node4 -->
<g id="node4" class="node"><title>Node4</title>
<g id="a_node4"><a xlink:href="config_2set_8c.html#a94c832681c45e7cde02f1856b83fe038" target="_top" xlink:title="Create an alternative name for a config item. ">
<polygon fill="white" stroke="red" points="127.5,-684.5 127.5,-703.5 216.5,-703.5 216.5,-684.5 127.5,-684.5"/>
<text text-anchor="middle" x="172" y="-691.5" font-family="Helvetica,sans-Serif" font-size="10.00">create_synonym</text>
</a>
</g>
</g>
<!-- Node1&#45;&gt;Node4 -->
<g id="edge4" class="edge"><title>Node1&#45;&gt;Node4</title>
<path fill="none" stroke="midnightblue" d="M39.3776,-409.763C46.7381,-467.794 70.9101,-636.056 108,-675 113.279,-680.543 120.11,-684.485 127.319,-687.286"/>
<polygon fill="midnightblue" stroke="midnightblue" points="42.8337,-409.192 38.1308,-399.698 35.8868,-410.052 42.8337,-409.192"/>
</g>
<!-- Node5 -->
<g id="node5" class="node"><title>Node5</title>
<g id="a_node5"><a xlink:href="config_2set_8h.html#a2c2cb475e50df247e8c88dab8c123534" target="_top" xlink:title="Reset a config item to its initial value. ">
<polygon fill="white" stroke="red" points="136.5,-646.5 136.5,-665.5 207.5,-665.5 207.5,-646.5 136.5,-646.5"/>
<text text-anchor="middle" x="172" y="-653.5" font-family="Helvetica,sans-Serif" font-size="10.00">cs_str_reset</text>
</a>
</g>
</g>
<!-- Node1&#45;&gt;Node5 -->
<g id="edge5" class="edge"><title>Node1&#45;&gt;Node5</title>
<path fill="none" stroke="midnightblue" d="M37.152,-409.783C38.5651,-455.079 48.2717,-567.382 108,-632 115.468,-640.079 125.946,-645.461 136.216,-649.037"/>
<polygon fill="midnightblue" stroke="midnightblue" points="40.6513,-409.706 36.9461,-399.78 33.6528,-409.85 40.6513,-409.706"/>
</g>
<!-- Node6 -->
<g id="node6" class="node"><title>Node6</title>
<g id="a_node6"><a xlink:href="config_2set_8h.html#a2923b046583690255351a486a6a7a0c6" target="_top" xlink:title="Set the initial value of a config item. ">
<polygon fill="white" stroke="red" points="127,-570.5 127,-589.5 217,-589.5 217,-570.5 127,-570.5"/>
<text text-anchor="middle" x="172" y="-577.5" font-family="Helvetica,sans-Serif" font-size="10.00">cs_str_initial_set</text>
</a>
</g>
</g>
<!-- Node1&#45;&gt;Node6 -->
<g id="edge6" class="edge"><title>Node1&#45;&gt;Node6</title>
<path fill="none" stroke="midnightblue" d="M40.2998,-409.905C47.0015,-444.284 65.3507,-515.031 108,-556 114.584,-562.324 123.004,-567.023 131.531,-570.499"/>
<polygon fill="midnightblue" stroke="midnightblue" points="43.6839,-408.951 38.4553,-399.736 36.7963,-410.2 43.6839,-408.951"/>
</g>
<!-- Node7 -->
<g id="node7" class="node"><title>Node7</title>
<g id="a_node7"><a xlink:href="account2_8h.html#a2ce9e343cbe8dcaa562803d43192b409" target="_top" xlink:title="config_account">
<polygon fill="white" stroke="black" points="272.5,-475.5 272.5,-494.5 355.5,-494.5 355.5,-475.5 272.5,-475.5"/>
<text text-anchor="middle" x="314" y="-482.5" font-family="Helvetica,sans-Serif" font-size="10.00">config_account</text>
</a>
</g>
</g>
<!-- Node1&#45;&gt;Node7 -->
<g id="edge32" class="edge"><title>Node1&#45;&gt;Node7</title>
<path fill="none" stroke="midnightblue" d="M40.8462,-409.587C48.016,-440.132 66.6168,-498.181 108,-523 170.549,-560.513 261.638,-515.43 297.587,-494.534"/>
<polygon fill="midnightblue" stroke="midnightblue" points="44.24,-408.721 38.7008,-399.69 37.3989,-410.204 44.24,-408.721"/>
</g>
<!-- Node8 -->
<g id="node8" class="node"><title>Node8</title>
<g id="a_node8"><a xlink:href="initial_8c.html#a4f413b8276ee82988bdb95f4ebccd862" target="_top" xlink:title="test_set_initial">
<polygon fill="white" stroke="red" points="274,-589.5 274,-608.5 354,-608.5 354,-589.5 274,-589.5"/>
<text text-anchor="middle" x="314" y="-596.5" font-family="Helvetica,sans-Serif" font-size="10.00">test_set_initial</text>
</a>
</g>
</g>
<!-- Node1&#45;&gt;Node8 -->
<g id="edge33" class="edge"><title>Node1&#45;&gt;Node8</title>
<path fill="none" stroke="midnightblue" d="M36.7701,-409.736C37.4744,-452.728 45.9456,-554.543 108,-599 160.511,-636.62 241.608,-620.896 284.362,-608.558"/>
<polygon fill="midnightblue" stroke="midnightblue" points="40.2701,-409.689 36.7347,-399.702 33.2701,-409.714 40.2701,-409.689"/>
</g>
<!-- Node9 -->
<g id="node9" class="node"><title>Node9</title>
<g id="a_node9"><a xlink:href="config_2set_8h.html#a1bc435f8e505a9274333899fa70250ce" target="_top" xlink:title="Get the initial, or parent, value of a config item. ">
<polygon fill="white" stroke="red" points="127,-494.5 127,-513.5 217,-513.5 217,-494.5 127,-494.5"/>
<text text-anchor="middle" x="172" y="-501.5" font-family="Helvetica,sans-Serif" font-size="10.00">cs_str_initial_get</text>
</a>
</g>
</g>
<!-- Node1&#45;&gt;Node9 -->
<g id="edge9" class="edge"><title>Node1&#45;&gt;Node9</title>
<path fill="none" stroke="midnightblue" d="M46.2866,-408.794C57.8552,-430.304 79.6084,-465.117 108,-485 113.708,-488.998 120.273,-492.169 126.962,-494.681"/>
<polygon fill="midnightblue" stroke="midnightblue" points="49.2773,-406.958 41.5706,-399.688 43.0614,-410.177 49.2773,-406.958"/>
</g>
<!-- Node10 -->
<g id="node10" class="node"><title>Node10</title>
<g id="a_node10"><a xlink:href="config_2set_8h.html#a5b6c4a72c38c2eca93569af53cc82eed" target="_top" xlink:title="Set a config item by string. ">
<polygon fill="white" stroke="red" points="126,-304.5 126,-323.5 218,-323.5 218,-304.5 126,-304.5"/>
<text text-anchor="middle" x="172" y="-311.5" font-family="Helvetica,sans-Serif" font-size="10.00">cs_str_string_set</text>
</a>
</g>
</g>
<!-- Node1&#45;&gt;Node10 -->
<g id="edge11" class="edge"><title>Node1&#45;&gt;Node10</title>
<path fill="none" stroke="midnightblue" d="M54.2867,-372.93C67.8861,-360.337 87.8462,-343.613 108,-333 115.177,-329.221 123.219,-326.076 131.094,-323.505"/>
<polygon fill="midnightblue" stroke="midnightblue" points="51.5324,-370.72 46.6963,-380.146 56.3554,-375.793 51.5324,-370.72"/>
</g>
<!-- Node11 -->
<g id="node11" class="node"><title>Node11</title>
<g id="a_node11"><a xlink:href="test_2config_2set_8h.html#a9df85117efed404dbec10443a902d5dd" target="_top" xlink:title="config_set">
<polygon fill="white" stroke="black" points="283,-304.5 283,-323.5 345,-323.5 345,-304.5 283,-304.5"/>
<text text-anchor="middle" x="314" y="-311.5" font-family="Helvetica,sans-Serif" font-size="10.00">config_set</text>
</a>
</g>
</g>
<!-- Node1&#45;&gt;Node11 -->
<g id="edge22" class="edge"><title>Node1&#45;&gt;Node11</title>
<path fill="none" stroke="midnightblue" d="M44.7436,-371.033C55.2437,-348.167 76.3916,-310.838 108,-295 168.237,-264.818 250.912,-289.385 290.323,-304.439"/>
<polygon fill="midnightblue" stroke="midnightblue" points="41.4516,-369.827 40.6691,-380.393 47.8698,-372.621 41.4516,-369.827"/>
</g>
<!-- Node12 -->
<g id="node12" class="node"><title>Node12</title>
<g id="a_node12"><a xlink:href="init_8c.html#a8f0f3d5856d7f876c0dbf004faeeb8ad" target="_top" xlink:title="Parse the &#39;set&#39; family of commands &#45; Implements command_t. ">
<polygon fill="white" stroke="black" points="284.5,-380.5 284.5,-399.5 343.5,-399.5 343.5,-380.5 284.5,-380.5"/>
<text text-anchor="middle" x="314" y="-387.5" font-family="Helvetica,sans-Serif" font-size="10.00">parse_set</text>
</a>
</g>
</g>
<!-- Node1&#45;&gt;Node12 -->
<g id="edge23" class="edge"><title>Node1&#45;&gt;Node12</title>
<path fill="none" stroke="midnightblue" d="M75.3679,-402.227C85.8402,-405.024 97.2623,-407.588 108,-409 164.403,-416.416 179.527,-415.865 236,-409 252.265,-407.023 270.047,-402.778 284.421,-398.802"/>
<polygon fill="midnightblue" stroke="midnightblue" points="76.2457,-398.838 65.6717,-399.503 74.3528,-405.577 76.2457,-398.838"/>
</g>
<!-- Node13 -->
<g id="node13" class="node"><title>Node13</title>
<g id="a_node13"><a xlink:href="config_2set_8h.html#a6fd54e2cfa94fb1157988cebc135ef67" target="_top" xlink:title="Get a config item as a string. ">
<polygon fill="white" stroke="red" points="126,-342.5 126,-361.5 218,-361.5 218,-342.5 126,-342.5"/>
<text text-anchor="middle" x="172" y="-349.5" font-family="Helvetica,sans-Serif" font-size="10.00">cs_str_string_get</text>
</a>
</g>
</g>
<!-- Node1&#45;&gt;Node13 -->
<g id="edge14" class="edge"><title>Node1&#45;&gt;Node13</title>
<path fill="none" stroke="midnightblue" d="M80.4383,-377.682C98.8491,-372.461 119.98,-366.468 137.197,-361.586"/>
<polygon fill="midnightblue" stroke="midnightblue" points="79.4796,-374.315 70.8139,-380.411 81.3894,-381.05 79.4796,-374.315"/>
</g>
<!-- Node14 -->
<g id="node14" class="node"><title>Node14</title>
<g id="a_node14"><a xlink:href="config_2set_8h.html#a6eec066d228f0ded678c35ed8aa9ac28" target="_top" xlink:title="Natively set the value of a string config item. ">
<polygon fill="white" stroke="red" points="125,-380.5 125,-399.5 219,-399.5 219,-380.5 125,-380.5"/>
<text text-anchor="middle" x="172" y="-387.5" font-family="Helvetica,sans-Serif" font-size="10.00">cs_str_native_set</text>
</a>
</g>
</g>
<!-- Node1&#45;&gt;Node14 -->
<g id="edge17" class="edge"><title>Node1&#45;&gt;Node14</title>
<path fill="none" stroke="midnightblue" d="M82.3875,-390C96.1031,-390 111.172,-390 124.932,-390"/>
<polygon fill="midnightblue" stroke="midnightblue" points="82.207,-386.5 72.2069,-390 82.2069,-393.5 82.207,-386.5"/>
</g>
<!-- Node15 -->
<g id="node15" class="node"><title>Node15</title>
<g id="a_node15"><a xlink:href="config_2set_8h.html#aa24d0f20de3cddc0e486772a303b07cc" target="_top" xlink:title="Natively get the value of a string config item. ">
<polygon fill="white" stroke="red" points="125,-0.5 125,-19.5 219,-19.5 219,-0.5 125,-0.5"/>
<text text-anchor="middle" x="172" y="-7.5" font-family="Helvetica,sans-Serif" font-size="10.00">cs_str_native_get</text>
</a>
</g>
</g>
<!-- Node1&#45;&gt;Node15 -->
<g id="edge20" class="edge"><title>Node1&#45;&gt;Node15</title>
<path fill="none" stroke="midnightblue" d="M38.2662,-370.062C42.9806,-301.986 61.686,-80.1274 108,-29 112.602,-23.9199 118.507,-20.1775 124.852,-17.4246"/>
<polygon fill="midnightblue" stroke="midnightblue" points="34.7587,-370.059 37.5858,-380.27 41.7432,-370.525 34.7587,-370.059"/>
</g>
<!-- Node16 -->
<g id="node16" class="node"><title>Node16</title>
<g id="a_node16"><a xlink:href="mutt_8h.html#a10a5a62f5a2ac28b4b4954f7f1250267" target="_top" xlink:title="Implement the &#45;Q command line flag. ">
<polygon fill="white" stroke="red" points="117,-228.5 117,-247.5 227,-247.5 227,-228.5 117,-228.5"/>
<text text-anchor="middle" x="172" y="-235.5" font-family="Helvetica,sans-Serif" font-size="10.00">mutt_query_variables</text>
</a>
</g>
</g>
<!-- Node1&#45;&gt;Node16 -->
<g id="edge24" class="edge"><title>Node1&#45;&gt;Node16</title>
<path fill="none" stroke="midnightblue" d="M43.0435,-370.41C52.5612,-342.622 73.5875,-291.829 108,-262 115.164,-255.79 124.101,-251.108 132.973,-247.607"/>
<polygon fill="midnightblue" stroke="midnightblue" points="39.6377,-369.565 39.8572,-380.157 46.2912,-371.74 39.6377,-369.565"/>
</g>
<!-- Node17 -->
<g id="node17" class="node"><title>Node17</title>
<g id="a_node17"><a xlink:href="myvar_8h.html#ad36e6b14c1df71ea7dd5ecd74be8dace" target="_top" xlink:title="Convert a config variable to a string. ">
<polygon fill="white" stroke="black" points="133,-190.5 133,-209.5 211,-209.5 211,-190.5 133,-190.5"/>
<text text-anchor="middle" x="172" y="-197.5" font-family="Helvetica,sans-Serif" font-size="10.00">var_to_string2</text>
</a>
</g>
</g>
<!-- Node1&#45;&gt;Node17 -->
<g id="edge25" class="edge"><title>Node1&#45;&gt;Node17</title>
<path fill="none" stroke="midnightblue" d="M39.6543,-370.152C45.4591,-334.623 62.6019,-260.045 108,-219 114.949,-212.718 123.91,-208.51 132.881,-205.694"/>
<polygon fill="midnightblue" stroke="midnightblue" points="36.1658,-369.815 38.1465,-380.223 43.0886,-370.851 36.1658,-369.815"/>
</g>
<!-- Node18 -->
<g id="node18" class="node"><title>Node18</title>
<g id="a_node18"><a xlink:href="mutt_8h.html#a173ae67a86a1c7bfc88e98a0edbe514f" target="_top" xlink:title="Complete a variable/value. ">
<polygon fill="white" stroke="red" points="108,-152.5 108,-171.5 236,-171.5 236,-152.5 108,-152.5"/>
<text text-anchor="middle" x="172" y="-159.5" font-family="Helvetica,sans-Serif" font-size="10.00">mutt_var_value_complete</text>
</a>
</g>
</g>
<!-- Node1&#45;&gt;Node18 -->
<g id="edge26" class="edge"><title>Node1&#45;&gt;Node18</title>
<path fill="none" stroke="midnightblue" d="M37.9035,-370.445C40.8716,-329.366 53.5832,-233.567 108,-181 112.026,-177.111 116.819,-174.014 121.938,-171.55"/>
<polygon fill="midnightblue" stroke="midnightblue" points="34.4056,-370.307 37.2982,-380.499 41.393,-370.728 34.4056,-370.307"/>
</g>
<!-- Node19 -->
<g id="node19" class="node"><title>Node19</title>
<g id="a_node19"><a xlink:href="main_8c.html#a65d332be0abf5b14c519e50da55d72bf" target="_top" xlink:title="Temporary measure. ">
<polygon fill="white" stroke="red" points="141,-114.5 141,-133.5 203,-133.5 203,-114.5 141,-114.5"/>
<text text-anchor="middle" x="172" y="-121.5" font-family="Helvetica,sans-Serif" font-size="10.00">reset_tilde</text>
</a>
</g>
</g>
<!-- Node1&#45;&gt;Node19 -->
<g id="edge27" class="edge"><title>Node1&#45;&gt;Node19</title>
<path fill="none" stroke="midnightblue" d="M36.6937,-370.153C37.0912,-323.721 44.7192,-207.109 108,-143 116.667,-134.219 129.234,-129.466 140.868,-126.904"/>
<polygon fill="midnightblue" stroke="midnightblue" points="33.1942,-370.379 36.719,-380.371 40.1941,-370.362 33.1942,-370.379"/>
</g>
<!-- Node20 -->
<g id="node20" class="node"><title>Node20</title>
<g id="a_node20"><a xlink:href="mutt__lua_8c.html#af96bea1efde57c78432367ad9e0b62d0" target="_top" xlink:title="Set a NeoMutt variable. ">
<polygon fill="white" stroke="black" points="135.5,-76.5 135.5,-95.5 208.5,-95.5 208.5,-76.5 135.5,-76.5"/>
<text text-anchor="middle" x="172" y="-83.5" font-family="Helvetica,sans-Serif" font-size="10.00">lua_mutt_set</text>
</a>
</g>
</g>
<!-- Node1&#45;&gt;Node20 -->
<g id="edge28" class="edge"><title>Node1&#45;&gt;Node20</title>
<path fill="none" stroke="midnightblue" d="M39.3776,-370.237C46.7381,-312.206 70.9101,-143.944 108,-105 115.248,-97.3892 125.424,-92.7949 135.486,-90.0318"/>
<polygon fill="midnightblue" stroke="midnightblue" points="35.8868,-369.948 38.1308,-380.302 42.8337,-370.808 35.8868,-369.948"/>
</g>
<!-- Node21 -->
<g id="node21" class="node"><title>Node21</title>
<g id="a_node21"><a xlink:href="mutt__lua_8c.html#a870b4dfbaa4a7a2e8ac33784311fe023" target="_top" xlink:title="Get a NeoMutt variable. ">
<polygon fill="white" stroke="black" points="135.5,-38.5 135.5,-57.5 208.5,-57.5 208.5,-38.5 135.5,-38.5"/>
<text text-anchor="middle" x="172" y="-45.5" font-family="Helvetica,sans-Serif" font-size="10.00">lua_mutt_get</text>
</a>
</g>
</g>
<!-- Node1&#45;&gt;Node21 -->
<g id="edge29" class="edge"><title>Node1&#45;&gt;Node21</title>
<path fill="none" stroke="midnightblue" d="M38.7603,-370.144C44.7483,-306.949 66.312,-112.007 108,-67 115.142,-59.2893 125.287,-54.6668 135.355,-51.9087"/>
<polygon fill="midnightblue" stroke="midnightblue" points="35.2528,-370.066 37.8221,-380.345 42.2234,-370.707 35.2528,-370.066"/>
</g>
<!-- Node22 -->
<g id="node22" class="node"><title>Node22</title>
<g id="a_node22"><a xlink:href="test_2config_2account_8h.html#aba52ac7455c6328124bfd5064f449323" target="_top" xlink:title="Create an Account. ">
<polygon fill="white" stroke="red" points="142.5,-456.5 142.5,-475.5 201.5,-475.5 201.5,-456.5 142.5,-456.5"/>
<text text-anchor="middle" x="172" y="-463.5" font-family="Helvetica,sans-Serif" font-size="10.00">ac_create</text>
</a>
</g>
</g>
<!-- Node1&#45;&gt;Node22 -->
<g id="edge30" class="edge"><title>Node1&#45;&gt;Node22</title>
<path fill="none" stroke="midnightblue" d="M56.2066,-406.269C69.9794,-417.37 89.3258,-431.845 108,-442 118.796,-447.871 131.335,-452.963 142.37,-456.928"/>
<polygon fill="midnightblue" stroke="midnightblue" points="58.3561,-403.505 48.4073,-399.862 53.9128,-408.914 58.3561,-403.505"/>
</g>
<!-- Node2&#45;&gt;Node3 -->
<g id="edge2" class="edge"><title>Node2&#45;&gt;Node3</title>
<path fill="none" stroke="midnightblue" d="M223.955,-738.915C243.097,-741.513 264.296,-744.39 281.206,-746.685"/>
<polygon fill="midnightblue" stroke="midnightblue" points="224.25,-735.423 213.87,-737.547 223.309,-742.36 224.25,-735.423"/>
</g>
<!-- Node6&#45;&gt;Node7 -->
<g id="edge7" class="edge"><title>Node6&#45;&gt;Node7</title>
<path fill="none" stroke="midnightblue" d="M214.972,-566.588C222.217,-563.558 229.501,-560.024 236,-556 264.446,-538.386 291.779,-509.413 304.904,-494.51"/>
<polygon fill="midnightblue" stroke="midnightblue" points="213.235,-563.509 205.195,-570.408 215.783,-570.029 213.235,-563.509"/>
</g>
<!-- Node6&#45;&gt;Node8 -->
<g id="edge8" class="edge"><title>Node6&#45;&gt;Node8</title>
<path fill="none" stroke="midnightblue" d="M227.28,-587.367C242.761,-589.468 259.324,-591.715 273.723,-593.67"/>
<polygon fill="midnightblue" stroke="midnightblue" points="227.677,-583.888 217.297,-586.012 226.735,-590.825 227.677,-583.888"/>
</g>
<!-- Node9&#45;&gt;Node7 -->
<g id="edge10" class="edge"><title>Node9&#45;&gt;Node7</title>
<path fill="none" stroke="midnightblue" d="M227.441,-496.612C242.374,-494.585 258.303,-492.423 272.318,-490.521"/>
<polygon fill="midnightblue" stroke="midnightblue" points="226.735,-493.175 217.297,-497.988 227.677,-500.112 226.735,-493.175"/>
</g>
<!-- Node10&#45;&gt;Node11 -->
<g id="edge12" class="edge"><title>Node10&#45;&gt;Node11</title>
<path fill="none" stroke="midnightblue" d="M228.179,-314C246.712,-314 266.697,-314 282.611,-314"/>
<polygon fill="midnightblue" stroke="midnightblue" points="228.068,-310.5 218.068,-314 228.067,-317.5 228.068,-310.5"/>
</g>
<!-- Node10&#45;&gt;Node12 -->
<g id="edge13" class="edge"><title>Node10&#45;&gt;Node12</title>
<path fill="none" stroke="midnightblue" d="M221.652,-326.811C226.592,-328.66 231.458,-330.721 236,-333 261.866,-345.979 288.143,-367.647 302.322,-380.197"/>
<polygon fill="midnightblue" stroke="midnightblue" points="222.721,-323.477 212.126,-323.512 220.431,-330.092 222.721,-323.477"/>
</g>
<!-- Node13&#45;&gt;Node7 -->
<g id="edge16" class="edge"><title>Node13&#45;&gt;Node7</title>
<path fill="none" stroke="midnightblue" d="M227.466,-365.689C230.461,-367.272 233.332,-369.035 236,-371 255.807,-385.589 293.596,-450.516 307.602,-475.322"/>
<polygon fill="midnightblue" stroke="midnightblue" points="228.741,-362.424 218.189,-361.464 225.839,-368.795 228.741,-362.424"/>
</g>
<!-- Node13&#45;&gt;Node11 -->
<g id="edge15" class="edge"><title>Node13&#45;&gt;Node11</title>
<path fill="none" stroke="midnightblue" d="M218.101,-339.758C239.305,-334.003 264.013,-327.296 282.902,-322.169"/>
<polygon fill="midnightblue" stroke="midnightblue" points="217.062,-336.414 208.328,-342.411 218.896,-343.169 217.062,-336.414"/>
</g>
<!-- Node14&#45;&gt;Node7 -->
<g id="edge19" class="edge"><title>Node14&#45;&gt;Node7</title>
<path fill="none" stroke="midnightblue" d="M195.509,-405.274C224.607,-425.019 274.424,-458.824 298.768,-475.343"/>
<polygon fill="midnightblue" stroke="midnightblue" points="197.434,-402.351 187.194,-399.632 193.504,-408.143 197.434,-402.351"/>
</g>
<!-- Node14&#45;&gt;Node11 -->
<g id="edge18" class="edge"><title>Node14&#45;&gt;Node11</title>
<path fill="none" stroke="midnightblue" d="M221.652,-377.189C226.592,-375.34 231.458,-373.279 236,-371 261.866,-358.021 288.143,-336.353 302.322,-323.803"/>
<polygon fill="midnightblue" stroke="midnightblue" points="220.431,-373.908 212.126,-380.488 222.721,-380.523 220.431,-373.908"/>
</g>
<!-- Node15&#45;&gt;Node11 -->
<g id="edge21" class="edge"><title>Node15&#45;&gt;Node11</title>
<path fill="none" stroke="midnightblue" d="M228.169,-22.6242C231.008,-24.4701 233.652,-26.5826 236,-29 315.101,-110.432 314.965,-264.308 313.491,-304.304"/>
<polygon fill="midnightblue" stroke="midnightblue" points="229.635,-19.4402 219.16,-17.8485 226.356,-25.6248 229.635,-19.4402"/>
</g>
<!-- Node22&#45;&gt;Node7 -->
<g id="edge31" class="edge"><title>Node22&#45;&gt;Node7</title>
<path fill="none" stroke="midnightblue" d="M211.718,-471.255C230.6,-473.817 253.305,-476.899 272.428,-479.494"/>
<polygon fill="midnightblue" stroke="midnightblue" points="212.049,-467.767 201.669,-469.891 211.107,-474.704 212.049,-467.767"/>
</g>
</g>
</svg>
