<?xml version="1.0" encoding="UTF-8" standalone="no"?>
<!DOCTYPE svg PUBLIC "-//W3C//DTD SVG 1.1//EN"
 "http://www.w3.org/Graphics/SVG/1.1/DTD/svg11.dtd">
<!-- Generated by graphviz version 2.36.0 (20140111.2315)
 -->
<!-- Title: cs_get_type_def Pages: 1 -->
<svg width="326pt" height="484pt"
 viewBox="0.00 0.00 326.00 484.00" xmlns="http://www.w3.org/2000/svg" xmlns:xlink="http://www.w3.org/1999/xlink">
<g id="graph0" class="graph" transform="scale(1 1) rotate(0) translate(4 480)">
<title>cs_get_type_def</title>
<polygon fill="white" stroke="none" points="-4,4 -4,-480 322,-480 322,4 -4,4"/>
<!-- Node1 -->
<g id="node1" class="node"><title>Node1</title>
<polygon fill="#bfbfbf" stroke="black" points="0.5,-228.5 0.5,-247.5 89.5,-247.5 89.5,-228.5 0.5,-228.5"/>
<text text-anchor="middle" x="45" y="-235.5" font-family="Helvetica,sans-Serif" font-size="10.00">cs_get_type_def</text>
</g>
<!-- Node2 -->
<g id="node2" class="node"><title>Node2</title>
<g id="a_node2"><a xlink:href="dump_8h.html#a0b93e8a4e40b7bcd77950545494ac3be" target="_top" xlink:title="Dump the config in the style of NeoMutt. ">
<polygon fill="white" stroke="red" points="126.5,-456.5 126.5,-475.5 219.5,-475.5 219.5,-456.5 126.5,-456.5"/>
<text text-anchor="middle" x="173" y="-463.5" font-family="Helvetica,sans-Serif" font-size="10.00">dump_config_neo</text>
</a>
</g>
</g>
<!-- Node1&#45;&gt;Node2 -->
<g id="edge1" class="edge"><title>Node1&#45;&gt;Node2</title>
<path fill="none" stroke="midnightblue" d="M48.3203,-257.746C54.0975,-298.42 72.72,-392.309 126,-447 129.738,-450.837 134.364,-453.93 139.228,-456.414"/>
<polygon fill="midnightblue" stroke="midnightblue" points="51.7818,-257.222 47.0134,-247.761 44.841,-258.131 51.7818,-257.222"/>
</g>
<!-- Node3 -->
<g id="node3" class="node"><title>Node3</title>
<g id="a_node3"><a xlink:href="config_2set_8c.html#af612051570ed31dd6bb88f0ebf086a78" target="_top" xlink:title="Callback function for the Hash Table &#45; Implements hash_destructor_t. ">
<polygon fill="white" stroke="red" points="148.5,-418.5 148.5,-437.5 197.5,-437.5 197.5,-418.5 148.5,-418.5"/>
<text text-anchor="middle" x="173" y="-425.5" font-family="Helvetica,sans-Serif" font-size="10.00">destroy</text>
</a>
</g>
</g>
<!-- Node1&#45;&gt;Node3 -->
<g id="edge2" class="edge"><title>Node1&#45;&gt;Node3</title>
<path fill="none" stroke="midnightblue" d="M50.1781,-257.443C58.6202,-292.323 80.8736,-365.898 126,-409 132.123,-414.849 140.3,-419.004 148.06,-421.905"/>
<polygon fill="midnightblue" stroke="midnightblue" points="53.5594,-256.529 47.9109,-247.566 46.7369,-258.095 53.5594,-256.529"/>
</g>
<!-- Node4 -->
<g id="node4" class="node"><title>Node4</title>
<g id="a_node4"><a xlink:href="config_2set_8c.html#a12b0e4cd101b1dd514242c109d324e19" target="_top" xlink:title="Register one config item. ">
<polygon fill="white" stroke="red" points="138,-380.5 138,-399.5 208,-399.5 208,-380.5 138,-380.5"/>
<text text-anchor="middle" x="173" y="-387.5" font-family="Helvetica,sans-Serif" font-size="10.00">reg_one_var</text>
</a>
</g>
</g>
<!-- Node1&#45;&gt;Node4 -->
<g id="edge3" class="edge"><title>Node1&#45;&gt;Node4</title>
<path fill="none" stroke="midnightblue" d="M53.0768,-257.419C64.3757,-285.941 89.0514,-339.21 126,-371 130.323,-374.719 135.474,-377.784 140.74,-380.284"/>
<polygon fill="midnightblue" stroke="midnightblue" points="56.2397,-255.89 49.4037,-247.796 49.6999,-258.386 56.2397,-255.89"/>
</g>
<!-- Node5 -->
<g id="node5" class="node"><title>Node5</title>
<g id="a_node5"><a xlink:href="config_2set_8h.html#a52b4a1b57f44e2a7972fe3e3747c3557" target="_top" xlink:title="Reset a config item to its initial value. ">
<polygon fill="white" stroke="red" points="138,-342.5 138,-361.5 208,-361.5 208,-342.5 138,-342.5"/>
<text text-anchor="middle" x="173" y="-349.5" font-family="Helvetica,sans-Serif" font-size="10.00">cs_he_reset</text>
</a>
</g>
</g>
<!-- Node1&#45;&gt;Node5 -->
<g id="edge4" class="edge"><title>Node1&#45;&gt;Node5</title>
<path fill="none" stroke="midnightblue" d="M57.4358,-256.292C71.3721,-277.293 96.7168,-311.591 126,-333 131.022,-336.672 136.858,-339.781 142.653,-342.354"/>
<polygon fill="midnightblue" stroke="midnightblue" points="60.2315,-254.17 51.8623,-247.673 54.3534,-257.971 60.2315,-254.17"/>
</g>
<!-- Node6 -->
<g id="node6" class="node"><title>Node6</title>
<g id="a_node6"><a xlink:href="config_2set_8h.html#ad446d589baec46f5506d398fd4895d96" target="_top" xlink:title="Set the initial value of a config item. ">
<polygon fill="white" stroke="red" points="128.5,-304.5 128.5,-323.5 217.5,-323.5 217.5,-304.5 128.5,-304.5"/>
<text text-anchor="middle" x="173" y="-311.5" font-family="Helvetica,sans-Serif" font-size="10.00">cs_he_initial_set</text>
</a>
</g>
</g>
<!-- Node1&#45;&gt;Node6 -->
<g id="edge5" class="edge"><title>Node1&#45;&gt;Node6</title>
<path fill="none" stroke="midnightblue" d="M65.5612,-253.859C81.2671,-266.108 104.219,-282.948 126,-295 132.2,-298.43 139.147,-301.612 145.727,-304.353"/>
<polygon fill="midnightblue" stroke="midnightblue" points="67.648,-251.047 57.6345,-247.586 63.3038,-256.536 67.648,-251.047"/>
</g>
<!-- Node7 -->
<g id="node7" class="node"><title>Node7</title>
<g id="a_node7"><a xlink:href="config_2set_8h.html#adcbe5a0a3dbd9fb44afaaeb1546e6a6f" target="_top" xlink:title="Get the initial, or parent, value of a config item. ">
<polygon fill="white" stroke="red" points="128.5,-266.5 128.5,-285.5 217.5,-285.5 217.5,-266.5 128.5,-266.5"/>
<text text-anchor="middle" x="173" y="-273.5" font-family="Helvetica,sans-Serif" font-size="10.00">cs_he_initial_get</text>
</a>
</g>
</g>
<!-- Node1&#45;&gt;Node7 -->
<g id="edge6" class="edge"><title>Node1&#45;&gt;Node7</title>
<path fill="none" stroke="midnightblue" d="M87.5644,-250.535C104.705,-255.705 124.25,-261.599 140.215,-266.414"/>
<polygon fill="midnightblue" stroke="midnightblue" points="88.3798,-247.126 77.7951,-247.589 86.3586,-253.827 88.3798,-247.126"/>
</g>
<!-- Node8 -->
<g id="node8" class="node"><title>Node8</title>
<g id="a_node8"><a xlink:href="config_2set_8h.html#a6c9cf00df6994a9cef7caf5d9f0f01c6" target="_top" xlink:title="Set a config item by string. ">
<polygon fill="white" stroke="red" points="127.5,-228.5 127.5,-247.5 218.5,-247.5 218.5,-228.5 127.5,-228.5"/>
<text text-anchor="middle" x="173" y="-235.5" font-family="Helvetica,sans-Serif" font-size="10.00">cs_he_string_set</text>
</a>
</g>
</g>
<!-- Node1&#45;&gt;Node8 -->
<g id="edge7" class="edge"><title>Node1&#45;&gt;Node8</title>
<path fill="none" stroke="midnightblue" d="M99.8206,-238C108.906,-238 118.251,-238 127.079,-238"/>
<polygon fill="midnightblue" stroke="midnightblue" points="99.7151,-234.5 89.7151,-238 99.715,-241.5 99.7151,-234.5"/>
</g>
<!-- Node9 -->
<g id="node9" class="node"><title>Node9</title>
<g id="a_node9"><a xlink:href="config_2set_8h.html#aae8bc50e36b926998d926687f97c8b48" target="_top" xlink:title="Get a config item as a string. ">
<polygon fill="white" stroke="red" points="127.5,-190.5 127.5,-209.5 218.5,-209.5 218.5,-190.5 127.5,-190.5"/>
<text text-anchor="middle" x="173" y="-197.5" font-family="Helvetica,sans-Serif" font-size="10.00">cs_he_string_get</text>
</a>
</g>
</g>
<!-- Node1&#45;&gt;Node9 -->
<g id="edge8" class="edge"><title>Node1&#45;&gt;Node9</title>
<path fill="none" stroke="midnightblue" d="M87.5644,-225.465C104.705,-220.295 124.25,-214.401 140.215,-209.586"/>
<polygon fill="midnightblue" stroke="midnightblue" points="86.3586,-222.173 77.7951,-228.411 88.3798,-228.874 86.3586,-222.173"/>
</g>
<!-- Node10 -->
<g id="node10" class="node"><title>Node10</title>
<g id="a_node10"><a xlink:href="config_2set_8h.html#a81e8688ba324bf79fdb467df153028b1" target="_top" xlink:title="Natively set the value of a HashElem config item. ">
<polygon fill="white" stroke="red" points="126.5,-152.5 126.5,-171.5 219.5,-171.5 219.5,-152.5 126.5,-152.5"/>
<text text-anchor="middle" x="173" y="-159.5" font-family="Helvetica,sans-Serif" font-size="10.00">cs_he_native_set</text>
</a>
</g>
</g>
<!-- Node1&#45;&gt;Node10 -->
<g id="edge9" class="edge"><title>Node1&#45;&gt;Node10</title>
<path fill="none" stroke="midnightblue" d="M65.5612,-222.141C81.2671,-209.892 104.219,-193.052 126,-181 132.2,-177.57 139.147,-174.388 145.727,-171.647"/>
<polygon fill="midnightblue" stroke="midnightblue" points="63.3038,-219.464 57.6345,-228.414 67.648,-224.953 63.3038,-219.464"/>
</g>
<!-- Node11 -->
<g id="node11" class="node"><title>Node11</title>
<g id="a_node11"><a xlink:href="config_2set_8h.html#a6eec066d228f0ded678c35ed8aa9ac28" target="_top" xlink:title="Natively set the value of a string config item. ">
<polygon fill="white" stroke="red" points="126,-114.5 126,-133.5 220,-133.5 220,-114.5 126,-114.5"/>
<text text-anchor="middle" x="173" y="-121.5" font-family="Helvetica,sans-Serif" font-size="10.00">cs_str_native_set</text>
</a>
</g>
</g>
<!-- Node1&#45;&gt;Node11 -->
<g id="edge10" class="edge"><title>Node1&#45;&gt;Node11</title>
<path fill="none" stroke="midnightblue" d="M57.4358,-219.708C71.3721,-198.707 96.7168,-164.409 126,-143 131.022,-139.328 136.858,-136.219 142.653,-133.646"/>
<polygon fill="midnightblue" stroke="midnightblue" points="54.3534,-218.029 51.8623,-228.327 60.2315,-221.83 54.3534,-218.029"/>
</g>
<!-- Node12 -->
<g id="node12" class="node"><title>Node12</title>
<g id="a_node12"><a xlink:href="test_2config_2set_8h.html#a9df85117efed404dbec10443a902d5dd" target="_top" xlink:title="config_set">
<polygon fill="white" stroke="black" points="256,-95.5 256,-114.5 318,-114.5 318,-95.5 256,-95.5"/>
<text text-anchor="middle" x="287" y="-102.5" font-family="Helvetica,sans-Serif" font-size="10.00">config_set</text>
</a>
</g>
</g>
<!-- Node1&#45;&gt;Node12 -->
<g id="edge13" class="edge"><title>Node1&#45;&gt;Node12</title>
<path fill="none" stroke="midnightblue" d="M51.1294,-218.327C60.308,-187.662 82.7579,-129.452 126,-105 166.259,-82.2349 221.831,-89.0822 255.768,-96.6525"/>
<polygon fill="midnightblue" stroke="midnightblue" points="47.6727,-217.691 48.3344,-228.265 54.4112,-219.586 47.6727,-217.691"/>
</g>
<!-- Node13 -->
<g id="node13" class="node"><title>Node13</title>
<g id="a_node13"><a xlink:href="config_2set_8h.html#a86307a07e4994514634a1658ec0cfe66" target="_top" xlink:title="Natively get the value of a HashElem config item. ">
<polygon fill="white" stroke="red" points="126.5,-38.5 126.5,-57.5 219.5,-57.5 219.5,-38.5 126.5,-38.5"/>
<text text-anchor="middle" x="173" y="-45.5" font-family="Helvetica,sans-Serif" font-size="10.00">cs_he_native_get</text>
</a>
</g>
</g>
<!-- Node1&#45;&gt;Node13 -->
<g id="edge12" class="edge"><title>Node1&#45;&gt;Node13</title>
<path fill="none" stroke="midnightblue" d="M51.1118,-218.107C60.6811,-184.308 84.2037,-115.147 126,-72 131.766,-66.0477 139.329,-61.274 146.652,-57.6005"/>
<polygon fill="midnightblue" stroke="midnightblue" points="47.6345,-217.557 48.3952,-228.125 54.3905,-219.389 47.6345,-217.557"/>
</g>
<!-- Node14 -->
<g id="node14" class="node"><title>Node14</title>
<g id="a_node14"><a xlink:href="common_8h.html#a9ac6ab5fc2ae5820c69d2f0a0377805e" target="_top" xlink:title="cs_dump_set">
<polygon fill="white" stroke="red" points="135.5,-0.5 135.5,-19.5 210.5,-19.5 210.5,-0.5 135.5,-0.5"/>
<text text-anchor="middle" x="173" y="-7.5" font-family="Helvetica,sans-Serif" font-size="10.00">cs_dump_set</text>
</a>
</g>
</g>
<!-- Node1&#45;&gt;Node14 -->
<g id="edge14" class="edge"><title>Node1&#45;&gt;Node14</title>
<path fill="none" stroke="midnightblue" d="M48.3203,-218.254C54.0975,-177.58 72.72,-83.6908 126,-29 129.738,-25.1628 134.364,-22.0698 139.228,-19.5856"/>
<polygon fill="midnightblue" stroke="midnightblue" points="44.841,-217.869 47.0134,-228.239 51.7818,-218.778 44.841,-217.869"/>
</g>
<!-- Node11&#45;&gt;Node12 -->
<g id="edge11" class="edge"><title>Node11&#45;&gt;Node12</title>
<path fill="none" stroke="midnightblue" d="M230.18,-114.469C239.058,-112.963 247.93,-111.458 255.903,-110.106"/>
<polygon fill="midnightblue" stroke="midnightblue" points="229.475,-111.039 220.201,-116.162 230.646,-117.94 229.475,-111.039"/>
</g>
</g>
</svg>
