<?xml version="1.0" encoding="UTF-8" standalone="no"?>
<!DOCTYPE svg PUBLIC "-//W3C//DTD SVG 1.1//EN"
 "http://www.w3.org/Graphics/SVG/1.1/DTD/svg11.dtd">
<!-- Generated by graphviz version 2.36.0 (20140111.2315)
 -->
<!-- Title: config/set.h Pages: 1 -->
<svg width="1435pt" height="84pt"
 viewBox="0.00 0.00 1435.00 84.00" xmlns="http://www.w3.org/2000/svg" xmlns:xlink="http://www.w3.org/1999/xlink">
<g id="graph0" class="graph" transform="scale(1 1) rotate(0) translate(4 80)">
<title>config/set.h</title>
<polygon fill="white" stroke="none" points="-4,4 -4,-80 1431,-80 1431,4 -4,4"/>
<!-- Node1 -->
<g id="node1" class="node"><title>Node1</title>
<polygon fill="#bfbfbf" stroke="black" points="691,-56.5 691,-75.5 759,-75.5 759,-56.5 691,-56.5"/>
<text text-anchor="middle" x="725" y="-63.5" font-family="Helvetica,sans-Serif" font-size="10.00">config/set.h</text>
</g>
<!-- Node2 -->
<g id="node2" class="node"><title>Node2</title>
<g id="a_node2"><a xlink:href="lib_8h.html" target="_top" xlink:title="Convenience wrapper for the config headers. ">
<polygon fill="white" stroke="red" points="0,-0.5 0,-19.5 64,-19.5 64,-0.5 0,-0.5"/>
<text text-anchor="middle" x="32" y="-7.5" font-family="Helvetica,sans-Serif" font-size="10.00">config/lib.h</text>
</a>
</g>
</g>
<!-- Node1&#45;&gt;Node2 -->
<g id="edge1" class="edge"><title>Node1&#45;&gt;Node2</title>
<path fill="none" stroke="midnightblue" d="M680.586,-64.1849C574.825,-61.7552 299.942,-52.5592 73,-20 70.1145,-19.586 67.1298,-19.0817 64.1473,-18.5253"/>
<polygon fill="midnightblue" stroke="midnightblue" points="680.801,-67.6904 690.876,-64.412 680.956,-60.6921 680.801,-67.6904"/>
</g>
<!-- Node3 -->
<g id="node3" class="node"><title>Node3</title>
<g id="a_node3"><a xlink:href="config_2address_8c.html" target="_top" xlink:title="Type representing an email address. ">
<polygon fill="white" stroke="black" points="82.5,-0.5 82.5,-19.5 171.5,-19.5 171.5,-0.5 82.5,-0.5"/>
<text text-anchor="middle" x="127" y="-7.5" font-family="Helvetica,sans-Serif" font-size="10.00">config/address.c</text>
</a>
</g>
</g>
<!-- Node1&#45;&gt;Node3 -->
<g id="edge2" class="edge"><title>Node1&#45;&gt;Node3</title>
<path fill="none" stroke="midnightblue" d="M680.689,-62.579C587.795,-57.2301 365.951,-43.0223 181,-20 177.982,-19.6243 174.875,-19.2019 171.748,-18.7504"/>
<polygon fill="midnightblue" stroke="midnightblue" points="680.662,-66.083 690.845,-63.1579 681.06,-59.0944 680.662,-66.083"/>
</g>
<!-- Node4 -->
<g id="node4" class="node"><title>Node4</title>
<g id="a_node4"><a xlink:href="config_2bool_8c.html" target="_top" xlink:title="Type representing a boolean. ">
<polygon fill="white" stroke="black" points="190,-0.5 190,-19.5 262,-19.5 262,-0.5 190,-0.5"/>
<text text-anchor="middle" x="226" y="-7.5" font-family="Helvetica,sans-Serif" font-size="10.00">config/bool.c</text>
</a>
</g>
</g>
<!-- Node1&#45;&gt;Node4 -->
<g id="edge3" class="edge"><title>Node1&#45;&gt;Node4</title>
<path fill="none" stroke="midnightblue" d="M680.597,-62.0593C599.12,-56.3393 420.383,-42.2862 271,-20 268.163,-19.5768 265.234,-19.0946 262.295,-18.5785"/>
<polygon fill="midnightblue" stroke="midnightblue" points="680.754,-65.5785 690.972,-62.7793 681.238,-58.5953 680.754,-65.5785"/>
</g>
<!-- Node5 -->
<g id="node5" class="node"><title>Node5</title>
<g id="a_node5"><a xlink:href="config_2command_8c.html" target="_top" xlink:title="Type representing a command. ">
<polygon fill="white" stroke="black" points="280.5,-0.5 280.5,-19.5 377.5,-19.5 377.5,-0.5 280.5,-0.5"/>
<text text-anchor="middle" x="329" y="-7.5" font-family="Helvetica,sans-Serif" font-size="10.00">config/command.c</text>
</a>
</g>
</g>
<!-- Node1&#45;&gt;Node5 -->
<g id="edge4" class="edge"><title>Node1&#45;&gt;Node5</title>
<path fill="none" stroke="midnightblue" d="M680.673,-59.4085C616.042,-51.1853 492.178,-35.1601 387,-20 383.974,-19.5639 380.861,-19.1064 377.723,-18.6385"/>
<polygon fill="midnightblue" stroke="midnightblue" points="680.542,-62.9198 690.903,-60.7078 681.424,-55.9756 680.542,-62.9198"/>
</g>
<!-- Node6 -->
<g id="node6" class="node"><title>Node6</title>
<g id="a_node6"><a xlink:href="dump_8c.html" target="_top" xlink:title="Dump all the config. ">
<polygon fill="white" stroke="black" points="396,-0.5 396,-19.5 474,-19.5 474,-0.5 396,-0.5"/>
<text text-anchor="middle" x="435" y="-7.5" font-family="Helvetica,sans-Serif" font-size="10.00">config/dump.c</text>
</a>
</g>
</g>
<!-- Node1&#45;&gt;Node6 -->
<g id="edge5" class="edge"><title>Node1&#45;&gt;Node6</title>
<path fill="none" stroke="midnightblue" d="M681.084,-56.8542C632.594,-47.8553 552.221,-32.9252 483,-20 480.083,-19.4553 477.066,-18.8913 474.032,-18.3235"/>
<polygon fill="midnightblue" stroke="midnightblue" points="680.461,-60.2983 690.932,-58.6816 681.738,-53.4158 680.461,-60.2983"/>
</g>
<!-- Node7 -->
<g id="node7" class="node"><title>Node7</title>
<g id="a_node7"><a xlink:href="config_2long_8c.html" target="_top" xlink:title="Type representing a long. ">
<polygon fill="white" stroke="black" points="492,-0.5 492,-19.5 564,-19.5 564,-0.5 492,-0.5"/>
<text text-anchor="middle" x="528" y="-7.5" font-family="Helvetica,sans-Serif" font-size="10.00">config/long.c</text>
</a>
</g>
</g>
<!-- Node1&#45;&gt;Node7 -->
<g id="edge6" class="edge"><title>Node1&#45;&gt;Node7</title>
<path fill="none" stroke="midnightblue" d="M683.771,-53.6986C646.591,-43.507 592.729,-28.7429 559.069,-19.5164"/>
<polygon fill="midnightblue" stroke="midnightblue" points="683.215,-57.1754 693.785,-56.4435 685.066,-50.4244 683.215,-57.1754"/>
</g>
<!-- Node8 -->
<g id="node8" class="node"><title>Node8</title>
<g id="a_node8"><a xlink:href="config_2magic_8c.html" target="_top" xlink:title="Type representing a mailbox. ">
<polygon fill="white" stroke="black" points="582,-0.5 582,-19.5 662,-19.5 662,-0.5 582,-0.5"/>
<text text-anchor="middle" x="622" y="-7.5" font-family="Helvetica,sans-Serif" font-size="10.00">config/magic.c</text>
</a>
</g>
</g>
<!-- Node1&#45;&gt;Node8 -->
<g id="edge7" class="edge"><title>Node1&#45;&gt;Node8</title>
<path fill="none" stroke="midnightblue" d="M699.421,-51.5895C680.377,-41.6052 654.936,-28.2672 638.508,-19.6545"/>
<polygon fill="midnightblue" stroke="midnightblue" points="697.969,-54.7805 708.451,-56.324 701.22,-48.5808 697.969,-54.7805"/>
</g>
<!-- Node9 -->
<g id="node9" class="node"><title>Node9</title>
<g id="a_node9"><a xlink:href="config_2mbtable_8c.html" target="_top" xlink:title="Type representing a multibyte character table. ">
<polygon fill="white" stroke="black" points="680.5,-0.5 680.5,-19.5 769.5,-19.5 769.5,-0.5 680.5,-0.5"/>
<text text-anchor="middle" x="725" y="-7.5" font-family="Helvetica,sans-Serif" font-size="10.00">config/mbtable.c</text>
</a>
</g>
</g>
<!-- Node1&#45;&gt;Node9 -->
<g id="edge8" class="edge"><title>Node1&#45;&gt;Node9</title>
<path fill="none" stroke="midnightblue" d="M725,-45.8045C725,-36.9102 725,-26.7798 725,-19.7511"/>
<polygon fill="midnightblue" stroke="midnightblue" points="721.5,-46.083 725,-56.083 728.5,-46.083 721.5,-46.083"/>
</g>
<!-- Node10 -->
<g id="node10" class="node"><title>Node10</title>
<g id="a_node10"><a xlink:href="config_2number_8c.html" target="_top" xlink:title="Type representing a number. ">
<polygon fill="white" stroke="black" points="788,-0.5 788,-19.5 874,-19.5 874,-0.5 788,-0.5"/>
<text text-anchor="middle" x="831" y="-7.5" font-family="Helvetica,sans-Serif" font-size="10.00">config/number.c</text>
</a>
</g>
</g>
<!-- Node1&#45;&gt;Node10 -->
<g id="edge9" class="edge"><title>Node1&#45;&gt;Node10</title>
<path fill="none" stroke="midnightblue" d="M751.056,-51.7261C770.684,-41.7271 797.028,-28.3065 814.012,-19.6545"/>
<polygon fill="midnightblue" stroke="midnightblue" points="749.352,-48.666 742.031,-56.324 752.53,-54.9033 749.352,-48.666"/>
</g>
<!-- Node11 -->
<g id="node11" class="node"><title>Node11</title>
<g id="a_node11"><a xlink:href="config_2path_8c.html" target="_top" xlink:title="Type representing a path. ">
<polygon fill="white" stroke="black" points="892.5,-0.5 892.5,-19.5 965.5,-19.5 965.5,-0.5 892.5,-0.5"/>
<text text-anchor="middle" x="929" y="-7.5" font-family="Helvetica,sans-Serif" font-size="10.00">config/path.c</text>
</a>
</g>
</g>
<!-- Node1&#45;&gt;Node11 -->
<g id="edge10" class="edge"><title>Node1&#45;&gt;Node11</title>
<path fill="none" stroke="midnightblue" d="M767.201,-53.8291C805.718,-43.6333 861.822,-28.7823 896.827,-19.5164"/>
<polygon fill="midnightblue" stroke="midnightblue" points="766.096,-50.5011 757.324,-56.4435 767.887,-57.268 766.096,-50.5011"/>
</g>
<!-- Node12 -->
<g id="node12" class="node"><title>Node12</title>
<g id="a_node12"><a xlink:href="config_2quad_8c.html" target="_top" xlink:title="Type representing a quad&#45;option. ">
<polygon fill="white" stroke="black" points="983.5,-0.5 983.5,-19.5 1058.5,-19.5 1058.5,-0.5 983.5,-0.5"/>
<text text-anchor="middle" x="1021" y="-7.5" font-family="Helvetica,sans-Serif" font-size="10.00">config/quad.c</text>
</a>
</g>
</g>
<!-- Node1&#45;&gt;Node12 -->
<g id="edge11" class="edge"><title>Node1&#45;&gt;Node12</title>
<path fill="none" stroke="midnightblue" d="M769.363,-57.1261C819.183,-48.2505 902.432,-33.3189 974,-20 977.022,-19.4376 980.152,-18.8497 983.296,-18.2556"/>
<polygon fill="midnightblue" stroke="midnightblue" points="768.488,-53.7269 759.256,-58.9254 769.715,-60.6185 768.488,-53.7269"/>
</g>
<!-- Node13 -->
<g id="node13" class="node"><title>Node13</title>
<g id="a_node13"><a xlink:href="config_2regex_8c.html" target="_top" xlink:title="Type representing a regular expression. ">
<polygon fill="white" stroke="black" points="1077,-0.5 1077,-19.5 1155,-19.5 1155,-0.5 1077,-0.5"/>
<text text-anchor="middle" x="1116" y="-7.5" font-family="Helvetica,sans-Serif" font-size="10.00">config/regex.c</text>
</a>
</g>
</g>
<!-- Node1&#45;&gt;Node13 -->
<g id="edge12" class="edge"><title>Node1&#45;&gt;Node13</title>
<path fill="none" stroke="midnightblue" d="M769.396,-59.8891C834.723,-52.2032 960.528,-36.7716 1067,-20 1070.25,-19.4886 1073.61,-18.9307 1076.98,-18.3514"/>
<polygon fill="midnightblue" stroke="midnightblue" points="768.587,-56.4599 759.062,-61.0996 769.401,-63.4124 768.587,-56.4599"/>
</g>
<!-- Node14 -->
<g id="node14" class="node"><title>Node14</title>
<g id="a_node14"><a xlink:href="config_2set_8c.html" target="_top" xlink:title="A collection of config items. ">
<polygon fill="white" stroke="black" points="1173,-0.5 1173,-19.5 1241,-19.5 1241,-0.5 1173,-0.5"/>
<text text-anchor="middle" x="1207" y="-7.5" font-family="Helvetica,sans-Serif" font-size="10.00">config/set.c</text>
</a>
</g>
</g>
<!-- Node1&#45;&gt;Node14 -->
<g id="edge13" class="edge"><title>Node1&#45;&gt;Node14</title>
<path fill="none" stroke="midnightblue" d="M769.146,-62.0041C848.499,-56.2793 1020.36,-42.3313 1164,-20 1166.86,-19.5548 1169.82,-19.0434 1172.79,-18.4953"/>
<polygon fill="midnightblue" stroke="midnightblue" points="768.754,-58.5231 759.028,-62.7255 769.252,-65.5054 768.754,-58.5231"/>
</g>
<!-- Node15 -->
<g id="node15" class="node"><title>Node15</title>
<g id="a_node15"><a xlink:href="config_2sort_8c.html" target="_top" xlink:title="Type representing a sort option. ">
<polygon fill="white" stroke="black" points="1259.5,-0.5 1259.5,-19.5 1330.5,-19.5 1330.5,-0.5 1259.5,-0.5"/>
<text text-anchor="middle" x="1295" y="-7.5" font-family="Helvetica,sans-Serif" font-size="10.00">config/sort.c</text>
</a>
</g>
</g>
<!-- Node1&#45;&gt;Node15 -->
<g id="edge14" class="edge"><title>Node1&#45;&gt;Node15</title>
<path fill="none" stroke="midnightblue" d="M769.427,-62.8732C860.116,-58.1621 1072.93,-45.2144 1250,-20 1253,-19.5732 1256.1,-19.0748 1259.2,-18.5354"/>
<polygon fill="midnightblue" stroke="midnightblue" points="769.047,-59.388 759.239,-63.3943 769.405,-66.3789 769.047,-59.388"/>
</g>
<!-- Node16 -->
<g id="node16" class="node"><title>Node16</title>
<g id="a_node16"><a xlink:href="config_2string_8c.html" target="_top" xlink:title="Type representing a string. ">
<polygon fill="white" stroke="black" points="1349,-0.5 1349,-19.5 1427,-19.5 1427,-0.5 1349,-0.5"/>
<text text-anchor="middle" x="1388" y="-7.5" font-family="Helvetica,sans-Serif" font-size="10.00">config/string.c</text>
</a>
</g>
</g>
<!-- Node1&#45;&gt;Node16 -->
<g id="edge15" class="edge"><title>Node1&#45;&gt;Node16</title>
<path fill="none" stroke="midnightblue" d="M769.23,-63.4058C870.438,-59.3984 1126.53,-47.2164 1339,-20 1342.17,-19.5934 1345.45,-19.1163 1348.74,-18.5976"/>
<polygon fill="midnightblue" stroke="midnightblue" points="768.933,-59.9146 759.076,-63.8008 769.205,-66.9093 768.933,-59.9146"/>
</g>
</g>
</svg>
