<?xml version="1.0" encoding="UTF-8" standalone="no"?>
<!DOCTYPE svg PUBLIC "-//W3C//DTD SVG 1.1//EN"
 "http://www.w3.org/Graphics/SVG/1.1/DTD/svg11.dtd">
<!-- Generated by graphviz version 2.36.0 (20140111.2315)
 -->
<!-- Title: sort_string_set Pages: 1 -->
<svg width="178pt" height="28pt"
 viewBox="0.00 0.00 178.00 28.00" xmlns="http://www.w3.org/2000/svg" xmlns:xlink="http://www.w3.org/1999/xlink">
<g id="graph0" class="graph" transform="scale(1 1) rotate(0) translate(4 24)">
<title>sort_string_set</title>
<polygon fill="white" stroke="none" points="-4,4 -4,-24 174,-24 174,4 -4,4"/>
<!-- Node1 -->
<g id="node1" class="node"><title>Node1</title>
<polygon fill="#bfbfbf" stroke="black" points="0.5,-0.5 0.5,-19.5 81.5,-19.5 81.5,-0.5 0.5,-0.5"/>
<text text-anchor="middle" x="41" y="-7.5" font-family="Helvetica,sans-Serif" font-size="10.00">sort_string_set</text>
</g>
<!-- Node2 -->
<g id="node2" class="node"><title>Node2</title>
<g id="a_node2"><a xlink:href="config_2sort_8h.html#a950a5552f7fa1af85327fac1fe894c9f" target="_top" xlink:title="Register the Sort config type. ">
<polygon fill="white" stroke="red" points="118.5,-0.5 118.5,-19.5 169.5,-19.5 169.5,-0.5 118.5,-0.5"/>
<text text-anchor="middle" x="144" y="-7.5" font-family="Helvetica,sans-Serif" font-size="10.00">sort_init</text>
</a>
</g>
</g>
<!-- Node1&#45;&gt;Node2 -->
<g id="edge1" class="edge"><title>Node1&#45;&gt;Node2</title>
<path fill="none" stroke="midnightblue" d="M91.9234,-10C101.109,-10 110.32,-10 118.341,-10"/>
<polygon fill="midnightblue" stroke="midnightblue" points="91.628,-6.5001 81.628,-10 91.628,-13.5001 91.628,-6.5001"/>
</g>
</g>
</svg>
