<?xml version="1.0" encoding="UTF-8" standalone="no"?>
<!DOCTYPE svg PUBLIC "-//W3C//DTD SVG 1.1//EN"
 "http://www.w3.org/Graphics/SVG/1.1/DTD/svg11.dtd">
<!-- Generated by graphviz version 2.36.0 (20140111.2315)
 -->
<!-- Title: quad_he_toggle Pages: 1 -->
<svg width="228pt" height="104pt"
 viewBox="0.00 0.00 228.00 104.00" xmlns="http://www.w3.org/2000/svg" xmlns:xlink="http://www.w3.org/1999/xlink">
<g id="graph0" class="graph" transform="scale(1 1) rotate(0) translate(4 100)">
<title>quad_he_toggle</title>
<polygon fill="white" stroke="none" points="-4,4 -4,-100 224,-100 224,4 -4,4"/>
<!-- Node1 -->
<g id="node1" class="node"><title>Node1</title>
<polygon fill="#bfbfbf" stroke="black" points="0.5,-38.5 0.5,-57.5 85.5,-57.5 85.5,-38.5 0.5,-38.5"/>
<text text-anchor="middle" x="43" y="-45.5" font-family="Helvetica,sans-Serif" font-size="10.00">quad_he_toggle</text>
</g>
<!-- Node2 -->
<g id="node2" class="node"><title>Node2</title>
<g id="a_node2"><a xlink:href="buffer_8c.html#ad057ee239ae5bcfd72cab3749036ab02" target="_top" xlink:title="Format a string into a Buffer. ">
<polygon fill="white" stroke="red" points="124.5,-76.5 124.5,-95.5 217.5,-95.5 217.5,-76.5 124.5,-76.5"/>
<text text-anchor="middle" x="171" y="-83.5" font-family="Helvetica,sans-Serif" font-size="10.00">mutt_buffer_printf</text>
</a>
</g>
</g>
<!-- Node1&#45;&gt;Node2 -->
<g id="edge1" class="edge"><title>Node1&#45;&gt;Node2</title>
<path fill="none" stroke="midnightblue" d="M75.7951,-57.589C91.7621,-62.4044 111.307,-68.2988 128.447,-73.468"/>
<polygon fill="midnightblue" stroke="midnightblue" points="127.63,-76.8775 138.215,-76.4141 129.652,-70.1756 127.63,-76.8775"/>
</g>
<!-- Node3 -->
<g id="node3" class="node"><title>Node3</title>
<g id="a_node3"><a xlink:href="config_2quad_8c.html#a68786c45b09b6fb886fcecb2f479fde4" target="_top" xlink:title="Toggle (invert) the value of a quad option. ">
<polygon fill="white" stroke="black" points="136.5,-38.5 136.5,-57.5 205.5,-57.5 205.5,-38.5 136.5,-38.5"/>
<text text-anchor="middle" x="171" y="-45.5" font-family="Helvetica,sans-Serif" font-size="10.00">quad_toggle</text>
</a>
</g>
</g>
<!-- Node1&#45;&gt;Node3 -->
<g id="edge2" class="edge"><title>Node1&#45;&gt;Node3</title>
<path fill="none" stroke="midnightblue" d="M85.6063,-48C98.6154,-48 113.006,-48 126.163,-48"/>
<polygon fill="midnightblue" stroke="midnightblue" points="126.401,-51.5001 136.401,-48 126.401,-44.5001 126.401,-51.5001"/>
</g>
<!-- Node4 -->
<g id="node4" class="node"><title>Node4</title>
<g id="a_node4"><a xlink:href="config_2set_8c.html#ac2e0310fa7a87a1439db1afd3856931b" target="_top" xlink:title="Notify all listeners of an event. ">
<polygon fill="white" stroke="black" points="122,-0.5 122,-19.5 220,-19.5 220,-0.5 122,-0.5"/>
<text text-anchor="middle" x="171" y="-7.5" font-family="Helvetica,sans-Serif" font-size="10.00">cs_notify_listeners</text>
</a>
</g>
</g>
<!-- Node1&#45;&gt;Node4 -->
<g id="edge3" class="edge"><title>Node1&#45;&gt;Node4</title>
<path fill="none" stroke="midnightblue" d="M75.7951,-38.411C91.7621,-33.5956 111.307,-27.7012 128.447,-22.532"/>
<polygon fill="midnightblue" stroke="midnightblue" points="129.652,-25.8244 138.215,-19.5859 127.63,-19.1225 129.652,-25.8244"/>
</g>
</g>
</svg>
