<?xml version="1.0" encoding="UTF-8" standalone="no"?>
<!DOCTYPE svg PUBLIC "-//W3C//DTD SVG 1.1//EN"
 "http://www.w3.org/Graphics/SVG/1.1/DTD/svg11.dtd">
<!-- Generated by graphviz version 2.36.0 (20140111.2315)
 -->
<!-- Title: conn/conn_globals.h Pages: 1 -->
<svg width="567pt" height="84pt"
 viewBox="0.00 0.00 567.00 84.00" xmlns="http://www.w3.org/2000/svg" xmlns:xlink="http://www.w3.org/1999/xlink">
<g id="graph0" class="graph" transform="scale(1 1) rotate(0) translate(4 80)">
<title>conn/conn_globals.h</title>
<polygon fill="white" stroke="none" points="-4,4 -4,-80 563,-80 563,4 -4,4"/>
<!-- Node1 -->
<g id="node1" class="node"><title>Node1</title>
<polygon fill="#bfbfbf" stroke="black" points="228,-56.5 228,-75.5 334,-75.5 334,-56.5 228,-56.5"/>
<text text-anchor="middle" x="281" y="-63.5" font-family="Helvetica,sans-Serif" font-size="10.00">conn/conn_globals.h</text>
</g>
<!-- Node2 -->
<g id="node2" class="node"><title>Node2</title>
<g id="a_node2"><a xlink:href="conn_8h.html" target="_top" xlink:title="Connection Library. ">
<polygon fill="white" stroke="red" points="0,-0.5 0,-19.5 70,-19.5 70,-0.5 0,-0.5"/>
<text text-anchor="middle" x="35" y="-7.5" font-family="Helvetica,sans-Serif" font-size="10.00">conn/conn.h</text>
</a>
</g>
</g>
<!-- Node1&#45;&gt;Node2 -->
<g id="edge1" class="edge"><title>Node1&#45;&gt;Node2</title>
<path fill="none" stroke="midnightblue" d="M232.2,-54.2879C184.392,-43.7934 112.704,-28.0569 70.21,-18.729"/>
<polygon fill="midnightblue" stroke="midnightblue" points="231.503,-57.718 242.021,-56.4435 233.004,-50.8808 231.503,-57.718"/>
</g>
<!-- Node3 -->
<g id="node3" class="node"><title>Node3</title>
<g id="a_node3"><a xlink:href="conn__raw_8c.html" target="_top" xlink:title="Low&#45;level socket handling. ">
<polygon fill="white" stroke="black" points="88.5,-0.5 88.5,-19.5 179.5,-19.5 179.5,-0.5 88.5,-0.5"/>
<text text-anchor="middle" x="134" y="-7.5" font-family="Helvetica,sans-Serif" font-size="10.00">conn/conn_raw.c</text>
</a>
</g>
</g>
<!-- Node1&#45;&gt;Node3 -->
<g id="edge2" class="edge"><title>Node1&#45;&gt;Node3</title>
<path fill="none" stroke="midnightblue" d="M248.077,-52.9058C220.44,-42.7536 181.656,-28.5063 157.184,-19.5164"/>
<polygon fill="midnightblue" stroke="midnightblue" points="247.114,-56.2806 257.707,-56.4435 249.528,-49.71 247.114,-56.2806"/>
</g>
<!-- Node4 -->
<g id="node4" class="node"><title>Node4</title>
<g id="a_node4"><a xlink:href="socket_8c.html" target="_top" xlink:title="Low&#45;level socket handling. ">
<polygon fill="white" stroke="black" points="198,-0.5 198,-19.5 276,-19.5 276,-0.5 198,-0.5"/>
<text text-anchor="middle" x="237" y="-7.5" font-family="Helvetica,sans-Serif" font-size="10.00">conn/socket.c</text>
</a>
</g>
</g>
<!-- Node1&#45;&gt;Node4 -->
<g id="edge3" class="edge"><title>Node1&#45;&gt;Node4</title>
<path fill="none" stroke="midnightblue" d="M267.265,-48.144C259.599,-38.7357 250.367,-27.4046 244.131,-19.7511"/>
<polygon fill="midnightblue" stroke="midnightblue" points="264.704,-50.5415 273.734,-56.083 270.131,-46.1198 264.704,-50.5415"/>
</g>
<!-- Node5 -->
<g id="node5" class="node"><title>Node5</title>
<g id="a_node5"><a xlink:href="ssl_8c.html" target="_top" xlink:title="Handling of OpenSSL encryption. ">
<polygon fill="white" stroke="black" points="294,-0.5 294,-19.5 356,-19.5 356,-0.5 294,-0.5"/>
<text text-anchor="middle" x="325" y="-7.5" font-family="Helvetica,sans-Serif" font-size="10.00">conn/ssl.c</text>
</a>
</g>
</g>
<!-- Node1&#45;&gt;Node5 -->
<g id="edge4" class="edge"><title>Node1&#45;&gt;Node5</title>
<path fill="none" stroke="midnightblue" d="M294.735,-48.144C302.401,-38.7357 311.633,-27.4046 317.869,-19.7511"/>
<polygon fill="midnightblue" stroke="midnightblue" points="291.869,-46.1198 288.266,-56.083 297.296,-50.5415 291.869,-46.1198"/>
</g>
<!-- Node6 -->
<g id="node6" class="node"><title>Node6</title>
<g id="a_node6"><a xlink:href="ssl__gnutls_8c.html" target="_top" xlink:title="Handling of GnuTLS encryption. ">
<polygon fill="white" stroke="black" points="373.5,-0.5 373.5,-19.5 466.5,-19.5 466.5,-0.5 373.5,-0.5"/>
<text text-anchor="middle" x="420" y="-7.5" font-family="Helvetica,sans-Serif" font-size="10.00">conn/ssl_gnutls.c</text>
</a>
</g>
</g>
<!-- Node1&#45;&gt;Node6 -->
<g id="edge5" class="edge"><title>Node1&#45;&gt;Node6</title>
<path fill="none" stroke="midnightblue" d="M312.476,-52.772C338.585,-42.6287 375.039,-28.4669 398.078,-19.5164"/>
<polygon fill="midnightblue" stroke="midnightblue" points="311.079,-49.5598 303.025,-56.4435 313.614,-56.0847 311.079,-49.5598"/>
</g>
<!-- Node7 -->
<g id="node7" class="node"><title>Node7</title>
<g id="a_node7"><a xlink:href="tunnel_8c.html" target="_top" xlink:title="Support for network tunnelling. ">
<polygon fill="white" stroke="black" points="484.5,-0.5 484.5,-19.5 559.5,-19.5 559.5,-0.5 484.5,-0.5"/>
<text text-anchor="middle" x="522" y="-7.5" font-family="Helvetica,sans-Serif" font-size="10.00">conn/tunnel.c</text>
</a>
</g>
</g>
<!-- Node1&#45;&gt;Node7 -->
<g id="edge6" class="edge"><title>Node1&#45;&gt;Node7</title>
<path fill="none" stroke="midnightblue" d="M329.153,-54.2104C374.836,-43.9744 442.547,-28.8028 484.388,-19.4275"/>
<polygon fill="midnightblue" stroke="midnightblue" points="328.18,-50.8417 319.187,-56.4435 329.71,-57.6723 328.18,-50.8417"/>
</g>
</g>
</svg>
