<?xml version="1.0" encoding="UTF-8" standalone="no"?>
<!DOCTYPE svg PUBLIC "-//W3C//DTD SVG 1.1//EN"
 "http://www.w3.org/Graphics/SVG/1.1/DTD/svg11.dtd">
<!-- Generated by graphviz version 2.36.0 (20140111.2315)
 -->
<!-- Title: raw_socket_read Pages: 1 -->
<svg width="250pt" height="116pt"
 viewBox="0.00 0.00 250.00 116.00" xmlns="http://www.w3.org/2000/svg" xmlns:xlink="http://www.w3.org/1999/xlink">
<g id="graph0" class="graph" transform="scale(1 1) rotate(0) translate(4 112)">
<title>raw_socket_read</title>
<polygon fill="white" stroke="none" points="-4,4 -4,-112 246,-112 246,4 -4,4"/>
<!-- Node1 -->
<g id="node1" class="node"><title>Node1</title>
<polygon fill="#bfbfbf" stroke="black" points="0.5,-44.5 0.5,-63.5 91.5,-63.5 91.5,-44.5 0.5,-44.5"/>
<text text-anchor="middle" x="46" y="-51.5" font-family="Helvetica,sans-Serif" font-size="10.00">raw_socket_read</text>
</g>
<!-- Node2 -->
<g id="node2" class="node"><title>Node2</title>
<g id="a_node2"><a xlink:href="socket_8h.html#a1e3195d6b1472777b64d1d9633e3b2cc" target="_top" xlink:title="allocate and initialise a new connection ">
<polygon fill="white" stroke="red" points="138,-88.5 138,-107.5 232,-107.5 232,-88.5 138,-88.5"/>
<text text-anchor="middle" x="185" y="-95.5" font-family="Helvetica,sans-Serif" font-size="10.00">mutt_socket_new</text>
</a>
</g>
</g>
<!-- Node1&#45;&gt;Node2 -->
<g id="edge1" class="edge"><title>Node1&#45;&gt;Node2</title>
<path fill="none" stroke="midnightblue" d="M86.3015,-66.6224C107.963,-73.5793 134.416,-82.0753 154.331,-88.4713"/>
<polygon fill="midnightblue" stroke="midnightblue" points="87.3182,-63.2729 76.727,-63.5473 85.1777,-69.9376 87.3182,-63.2729"/>
</g>
<!-- Node3 -->
<g id="node3" class="node"><title>Node3</title>
<g id="a_node3"><a xlink:href="ssl_8c.html#a580181fa12ad95a66805761f701e7cd2" target="_top" xlink:title="Close an SSL Connection and restore Connnection callbacks. ">
<polygon fill="white" stroke="red" points="128.5,-39 128.5,-69 241.5,-69 241.5,-39 128.5,-39"/>
<text text-anchor="start" x="136.5" y="-57" font-family="Helvetica,sans-Serif" font-size="10.00">ssl_socket_close_and</text>
<text text-anchor="middle" x="185" y="-46" font-family="Helvetica,sans-Serif" font-size="10.00">_restore</text>
</a>
</g>
</g>
<!-- Node1&#45;&gt;Node3 -->
<g id="edge2" class="edge"><title>Node1&#45;&gt;Node3</title>
<path fill="none" stroke="midnightblue" d="M102.093,-54C110.632,-54 119.46,-54 128.017,-54"/>
<polygon fill="midnightblue" stroke="midnightblue" points="101.859,-50.5001 91.8589,-54 101.859,-57.5001 101.859,-50.5001"/>
</g>
<!-- Node4 -->
<g id="node4" class="node"><title>Node4</title>
<g id="a_node4"><a xlink:href="ssl__gnutls_8c.html#a0c11cb8253f1e3cd4df8ba1a92ef3252" target="_top" xlink:title="Close a TLS connection. ">
<polygon fill="white" stroke="red" points="139.5,-0.5 139.5,-19.5 230.5,-19.5 230.5,-0.5 139.5,-0.5"/>
<text text-anchor="middle" x="185" y="-7.5" font-family="Helvetica,sans-Serif" font-size="10.00">tls_starttls_close</text>
</a>
</g>
</g>
<!-- Node1&#45;&gt;Node4 -->
<g id="edge3" class="edge"><title>Node1&#45;&gt;Node4</title>
<path fill="none" stroke="midnightblue" d="M86.3015,-41.3776C107.963,-34.4207 134.416,-25.9247 154.331,-19.5287"/>
<polygon fill="midnightblue" stroke="midnightblue" points="85.1777,-38.0624 76.727,-44.4527 87.3182,-44.7271 85.1777,-38.0624"/>
</g>
</g>
</svg>
