<?xml version="1.0" encoding="UTF-8" standalone="no"?>
<!DOCTYPE svg PUBLIC "-//W3C//DTD SVG 1.1//EN"
 "http://www.w3.org/Graphics/SVG/1.1/DTD/svg11.dtd">
<!-- Generated by graphviz version 2.36.0 (20140111.2315)
 -->
<!-- Title: conn/account.h Pages: 1 -->
<svg width="652pt" height="140pt"
 viewBox="0.00 0.00 652.00 140.00" xmlns="http://www.w3.org/2000/svg" xmlns:xlink="http://www.w3.org/1999/xlink">
<g id="graph0" class="graph" transform="scale(1 1) rotate(0) translate(4 136)">
<title>conn/account.h</title>
<polygon fill="white" stroke="none" points="-4,4 -4,-136 648,-136 648,4 -4,4"/>
<!-- Node1 -->
<g id="node1" class="node"><title>Node1</title>
<polygon fill="#bfbfbf" stroke="black" points="297.5,-112.5 297.5,-131.5 380.5,-131.5 380.5,-112.5 297.5,-112.5"/>
<text text-anchor="middle" x="339" y="-119.5" font-family="Helvetica,sans-Serif" font-size="10.00">conn/account.h</text>
</g>
<!-- Node2 -->
<g id="node2" class="node"><title>Node2</title>
<g id="a_node2"><a xlink:href="conn_8h.html" target="_top" xlink:title="Connection Library. ">
<polygon fill="white" stroke="red" points="0,-0.5 0,-19.5 70,-19.5 70,-0.5 0,-0.5"/>
<text text-anchor="middle" x="35" y="-7.5" font-family="Helvetica,sans-Serif" font-size="10.00">conn/conn.h</text>
</a>
</g>
</g>
<!-- Node1&#45;&gt;Node2 -->
<g id="edge1" class="edge"><title>Node1&#45;&gt;Node2</title>
<path fill="none" stroke="midnightblue" d="M298.893,-109.576C269.608,-100.987 229.065,-88.5813 194,-76 142.913,-57.6699 84.1019,-32.5498 54.3701,-19.5589"/>
<polygon fill="midnightblue" stroke="midnightblue" points="298.175,-113.012 308.755,-112.449 300.133,-106.291 298.175,-113.012"/>
</g>
<!-- Node3 -->
<g id="node3" class="node"><title>Node3</title>
<g id="a_node3"><a xlink:href="connection_8h.html" target="_top" xlink:title="An open network connection (socket) ">
<polygon fill="white" stroke="black" points="253,-56.5 253,-75.5 349,-75.5 349,-56.5 253,-56.5"/>
<text text-anchor="middle" x="301" y="-63.5" font-family="Helvetica,sans-Serif" font-size="10.00">conn/connection.h</text>
</a>
</g>
</g>
<!-- Node1&#45;&gt;Node3 -->
<g id="edge2" class="edge"><title>Node1&#45;&gt;Node3</title>
<path fill="none" stroke="midnightblue" d="M326.935,-103.855C320.355,-94.5048 312.489,-83.3265 307.158,-75.7511"/>
<polygon fill="midnightblue" stroke="midnightblue" points="324.108,-105.919 332.725,-112.083 329.832,-101.891 324.108,-105.919"/>
</g>
<!-- Node4 -->
<g id="node4" class="node"><title>Node4</title>
<g id="a_node4"><a xlink:href="conn__raw_8c.html" target="_top" xlink:title="Low&#45;level socket handling. ">
<polygon fill="white" stroke="black" points="88.5,-0.5 88.5,-19.5 179.5,-19.5 179.5,-0.5 88.5,-0.5"/>
<text text-anchor="middle" x="134" y="-7.5" font-family="Helvetica,sans-Serif" font-size="10.00">conn/conn_raw.c</text>
</a>
</g>
</g>
<!-- Node1&#45;&gt;Node4 -->
<g id="edge10" class="edge"><title>Node1&#45;&gt;Node4</title>
<path fill="none" stroke="midnightblue" d="M305.335,-108.927C283.625,-100.67 255.057,-88.9116 231,-76 198.313,-58.4566 162.791,-32.7797 145.19,-19.5623"/>
<polygon fill="midnightblue" stroke="midnightblue" points="304.194,-112.237 314.787,-112.466 306.649,-105.682 304.194,-112.237"/>
</g>
<!-- Node5 -->
<g id="node5" class="node"><title>Node5</title>
<g id="a_node5"><a xlink:href="sasl_8c.html" target="_top" xlink:title="SASL authentication support. ">
<polygon fill="white" stroke="black" points="197.5,-0.5 197.5,-19.5 264.5,-19.5 264.5,-0.5 197.5,-0.5"/>
<text text-anchor="middle" x="231" y="-7.5" font-family="Helvetica,sans-Serif" font-size="10.00">conn/sasl.c</text>
</a>
</g>
</g>
<!-- Node1&#45;&gt;Node5 -->
<g id="edge11" class="edge"><title>Node1&#45;&gt;Node5</title>
<path fill="none" stroke="midnightblue" d="M293.034,-109.007C275.227,-102.135 256.224,-91.6567 244,-76 230.969,-59.3097 229.954,-33.0326 230.414,-19.572"/>
<polygon fill="midnightblue" stroke="midnightblue" points="292.159,-112.41 302.754,-112.464 294.505,-105.815 292.159,-112.41"/>
</g>
<!-- Node6 -->
<g id="node6" class="node"><title>Node6</title>
<g id="a_node6"><a xlink:href="socket_8c.html" target="_top" xlink:title="Low&#45;level socket handling. ">
<polygon fill="white" stroke="black" points="283,-0.5 283,-19.5 361,-19.5 361,-0.5 283,-0.5"/>
<text text-anchor="middle" x="322" y="-7.5" font-family="Helvetica,sans-Serif" font-size="10.00">conn/socket.c</text>
</a>
</g>
</g>
<!-- Node1&#45;&gt;Node6 -->
<g id="edge12" class="edge"><title>Node1&#45;&gt;Node6</title>
<path fill="none" stroke="midnightblue" d="M350.027,-103.581C356.944,-90.4 363.582,-71.9132 358,-56 352.9,-41.461 340.908,-28.1298 332.162,-19.8145"/>
<polygon fill="midnightblue" stroke="midnightblue" points="346.85,-102.085 344.882,-112.495 352.912,-105.584 346.85,-102.085"/>
</g>
<!-- Node7 -->
<g id="node7" class="node"><title>Node7</title>
<g id="a_node7"><a xlink:href="ssl_8c.html" target="_top" xlink:title="Handling of OpenSSL encryption. ">
<polygon fill="white" stroke="black" points="379,-0.5 379,-19.5 441,-19.5 441,-0.5 379,-0.5"/>
<text text-anchor="middle" x="410" y="-7.5" font-family="Helvetica,sans-Serif" font-size="10.00">conn/ssl.c</text>
</a>
</g>
</g>
<!-- Node1&#45;&gt;Node7 -->
<g id="edge13" class="edge"><title>Node1&#45;&gt;Node7</title>
<path fill="none" stroke="midnightblue" d="M352.811,-104.524C359.527,-96.2006 367.525,-85.809 374,-76 386.791,-56.6211 399.393,-32.3588 405.747,-19.661"/>
<polygon fill="midnightblue" stroke="midnightblue" points="350.036,-102.388 346.394,-112.337 355.445,-106.83 350.036,-102.388"/>
</g>
<!-- Node8 -->
<g id="node8" class="node"><title>Node8</title>
<g id="a_node8"><a xlink:href="ssl__gnutls_8c.html" target="_top" xlink:title="Handling of GnuTLS encryption. ">
<polygon fill="white" stroke="black" points="458.5,-0.5 458.5,-19.5 551.5,-19.5 551.5,-0.5 458.5,-0.5"/>
<text text-anchor="middle" x="505" y="-7.5" font-family="Helvetica,sans-Serif" font-size="10.00">conn/ssl_gnutls.c</text>
</a>
</g>
</g>
<!-- Node1&#45;&gt;Node8 -->
<g id="edge14" class="edge"><title>Node1&#45;&gt;Node8</title>
<path fill="none" stroke="midnightblue" d="M360.559,-106.714C395.539,-83.5347 463.605,-38.4303 492.035,-19.5914"/>
<polygon fill="midnightblue" stroke="midnightblue" points="358.428,-103.927 352.026,-112.368 362.295,-109.762 358.428,-103.927"/>
</g>
<!-- Node9 -->
<g id="node9" class="node"><title>Node9</title>
<g id="a_node9"><a xlink:href="tunnel_8c.html" target="_top" xlink:title="Support for network tunnelling. ">
<polygon fill="white" stroke="black" points="569.5,-0.5 569.5,-19.5 644.5,-19.5 644.5,-0.5 569.5,-0.5"/>
<text text-anchor="middle" x="607" y="-7.5" font-family="Helvetica,sans-Serif" font-size="10.00">conn/tunnel.c</text>
</a>
</g>
</g>
<!-- Node1&#45;&gt;Node9 -->
<g id="edge15" class="edge"><title>Node1&#45;&gt;Node9</title>
<path fill="none" stroke="midnightblue" d="M369.587,-108.446C424.626,-85.855 538.998,-38.9113 586.068,-19.5914"/>
<polygon fill="midnightblue" stroke="midnightblue" points="367.952,-105.333 360.03,-112.368 370.61,-111.809 367.952,-105.333"/>
</g>
<!-- Node3&#45;&gt;Node2 -->
<g id="edge3" class="edge"><title>Node3&#45;&gt;Node2</title>
<path fill="none" stroke="midnightblue" d="M249.029,-54.4923C204.035,-45.3889 137.216,-31.8542 79,-20 76.0967,-19.4088 73.0858,-18.7948 70.0633,-18.1779"/>
<polygon fill="midnightblue" stroke="midnightblue" points="248.354,-57.9267 258.85,-56.4791 249.742,-51.0657 248.354,-57.9267"/>
</g>
<!-- Node3&#45;&gt;Node4 -->
<g id="edge4" class="edge"><title>Node3&#45;&gt;Node4</title>
<path fill="none" stroke="midnightblue" d="M264.83,-53.3044C233.363,-43.1294 188.506,-28.6246 160.338,-19.5164"/>
<polygon fill="midnightblue" stroke="midnightblue" points="263.947,-56.697 274.538,-56.4435 266.1,-50.0366 263.947,-56.697"/>
</g>
<!-- Node3&#45;&gt;Node5 -->
<g id="edge5" class="edge"><title>Node3&#45;&gt;Node5</title>
<path fill="none" stroke="midnightblue" d="M281.686,-50.1008C269.088,-40.3824 253.072,-28.0269 242.451,-19.8339"/>
<polygon fill="midnightblue" stroke="midnightblue" points="279.698,-52.9871 289.753,-56.324 283.973,-47.4446 279.698,-52.9871"/>
</g>
<!-- Node3&#45;&gt;Node6 -->
<g id="edge6" class="edge"><title>Node3&#45;&gt;Node6</title>
<path fill="none" stroke="midnightblue" d="M308.121,-46.6897C311.66,-37.589 315.772,-27.0141 318.597,-19.7511"/>
<polygon fill="midnightblue" stroke="midnightblue" points="304.83,-45.4944 304.468,-56.083 311.354,-48.0315 304.83,-45.4944"/>
</g>
<!-- Node3&#45;&gt;Node7 -->
<g id="edge7" class="edge"><title>Node3&#45;&gt;Node7</title>
<path fill="none" stroke="midnightblue" d="M327.519,-51.8622C347.73,-41.8492 374.987,-28.3458 392.531,-19.6545"/>
<polygon fill="midnightblue" stroke="midnightblue" points="325.92,-48.7485 318.513,-56.324 329.027,-55.0209 325.92,-48.7485"/>
</g>
<!-- Node3&#45;&gt;Node8 -->
<g id="edge8" class="edge"><title>Node3&#45;&gt;Node8</title>
<path fill="none" stroke="midnightblue" d="M343.201,-53.8291C381.718,-43.6333 437.822,-28.7823 472.827,-19.5164"/>
<polygon fill="midnightblue" stroke="midnightblue" points="342.096,-50.5011 333.324,-56.4435 343.887,-57.268 342.096,-50.5011"/>
</g>
<!-- Node3&#45;&gt;Node9 -->
<g id="edge9" class="edge"><title>Node3&#45;&gt;Node9</title>
<path fill="none" stroke="midnightblue" d="M359.394,-55.1488C411.921,-46.2172 491.182,-32.5664 560,-20 563.024,-19.4478 566.156,-18.8672 569.301,-18.278"/>
<polygon fill="midnightblue" stroke="midnightblue" points="358.529,-51.7455 349.256,-56.8704 359.701,-58.6467 358.529,-51.7455"/>
</g>
</g>
</svg>
