<?xml version="1.0" encoding="UTF-8" standalone="no"?>
<!DOCTYPE svg PUBLIC "-//W3C//DTD SVG 1.1//EN"
 "http://www.w3.org/Graphics/SVG/1.1/DTD/svg11.dtd">
<!-- Generated by graphviz version 2.36.0 (20140111.2315)
 -->
<!-- Title: mutt_copy_hdr Pages: 1 -->
<svg width="400pt" height="408pt"
 viewBox="0.00 0.00 400.00 408.00" xmlns="http://www.w3.org/2000/svg" xmlns:xlink="http://www.w3.org/1999/xlink">
<g id="graph0" class="graph" transform="scale(1 1) rotate(0) translate(4 404)">
<title>mutt_copy_hdr</title>
<polygon fill="white" stroke="none" points="-4,4 -4,-404 396,-404 396,4 -4,4"/>
<!-- Node1 -->
<g id="node1" class="node"><title>Node1</title>
<polygon fill="#bfbfbf" stroke="black" points="0.5,-190.5 0.5,-209.5 81.5,-209.5 81.5,-190.5 0.5,-190.5"/>
<text text-anchor="middle" x="41" y="-197.5" font-family="Helvetica,sans-Serif" font-size="10.00">mutt_copy_hdr</text>
</g>
<!-- Node2 -->
<g id="node2" class="node"><title>Node2</title>
<g id="a_node2"><a xlink:href="mutt_2string_8c.html#a0f37dc8085c127cb48df9b47a21236a6" target="_top" xlink:title="Compare two strings (to a maximum), safely. ">
<polygon fill="white" stroke="black" points="133.5,-380.5 133.5,-399.5 226.5,-399.5 226.5,-380.5 133.5,-380.5"/>
<text text-anchor="middle" x="180" y="-387.5" font-family="Helvetica,sans-Serif" font-size="10.00">mutt_str_strncmp</text>
</a>
</g>
</g>
<!-- Node1&#45;&gt;Node2 -->
<g id="edge1" class="edge"><title>Node1&#45;&gt;Node2</title>
<path fill="none" stroke="midnightblue" d="M43.7982,-209.72C49.4895,-237.849 69.6684,-320.233 118,-366 122.132,-369.912 126.977,-373.212 132.098,-375.989"/>
<polygon fill="midnightblue" stroke="midnightblue" points="130.985,-379.334 141.522,-380.443 133.976,-373.006 130.985,-379.334"/>
</g>
<!-- Node3 -->
<g id="node3" class="node"><title>Node3</title>
<g id="a_node3"><a xlink:href="mutt_2string_8c.html#a0ab98e8f251c9db11831b77a1681edc3" target="_top" xlink:title="Compare two strings ignoring case (to a maximum), safely. ">
<polygon fill="white" stroke="black" points="278,-332.5 278,-351.5 392,-351.5 392,-332.5 278,-332.5"/>
<text text-anchor="middle" x="335" y="-339.5" font-family="Helvetica,sans-Serif" font-size="10.00">mutt_str_strncasecmp</text>
</a>
</g>
</g>
<!-- Node1&#45;&gt;Node3 -->
<g id="edge2" class="edge"><title>Node1&#45;&gt;Node3</title>
<path fill="none" stroke="midnightblue" d="M45.0166,-209.729C52.7996,-233.015 75.9492,-291.95 118,-318 162.58,-345.617 222.422,-350.321 267.814,-348.851"/>
<polygon fill="midnightblue" stroke="midnightblue" points="268.012,-352.346 277.852,-348.418 267.711,-345.352 268.012,-352.346"/>
</g>
<!-- Node4 -->
<g id="node4" class="node"><title>Node4</title>
<g id="a_node4"><a xlink:href="memory_8c.html#a4c1612d209c7825d55e6a014df352f03" target="_top" xlink:title="Allocate zeroed memory on the heap. ">
<polygon fill="white" stroke="red" points="288,-285.5 288,-304.5 382,-304.5 382,-285.5 288,-285.5"/>
<text text-anchor="middle" x="335" y="-292.5" font-family="Helvetica,sans-Serif" font-size="10.00">mutt_mem_calloc</text>
</a>
</g>
</g>
<!-- Node1&#45;&gt;Node4 -->
<g id="edge3" class="edge"><title>Node1&#45;&gt;Node4</title>
<path fill="none" stroke="midnightblue" d="M46.1313,-209.63C55.4568,-229.962 80.3071,-276.884 118,-295 171.104,-320.523 240.386,-314.717 285.985,-306.424"/>
<polygon fill="midnightblue" stroke="midnightblue" points="286.75,-309.841 295.907,-304.512 285.425,-302.967 286.75,-309.841"/>
</g>
<!-- Node5 -->
<g id="node5" class="node"><title>Node5</title>
<g id="a_node5"><a xlink:href="copy_8c.html#a240d006c7a7b579c5e6c82836fc7917c" target="_top" xlink:title="Parse an email&#39;s headers. ">
<polygon fill="white" stroke="red" points="119,-266.5 119,-285.5 241,-285.5 241,-266.5 119,-266.5"/>
<text text-anchor="middle" x="180" y="-273.5" font-family="Helvetica,sans-Serif" font-size="10.00">address_header_decode</text>
</a>
</g>
</g>
<!-- Node1&#45;&gt;Node5 -->
<g id="edge4" class="edge"><title>Node1&#45;&gt;Node5</title>
<path fill="none" stroke="midnightblue" d="M52.533,-209.776C66.5215,-222.297 92.4494,-243.933 118,-257 122.28,-259.189 126.86,-261.181 131.515,-262.981"/>
<polygon fill="midnightblue" stroke="midnightblue" points="130.509,-266.338 141.103,-266.406 132.863,-259.746 130.509,-266.338"/>
</g>
<!-- Node6 -->
<g id="node6" class="node"><title>Node6</title>
<g id="a_node6"><a xlink:href="mutt_2string_8c.html#ae48085384a6545e0fac589a88243ea31" target="_top" xlink:title="Copy a string, safely. ">
<polygon fill="white" stroke="red" points="292.5,-228.5 292.5,-247.5 377.5,-247.5 377.5,-228.5 292.5,-228.5"/>
<text text-anchor="middle" x="335" y="-235.5" font-family="Helvetica,sans-Serif" font-size="10.00">mutt_str_strdup</text>
</a>
</g>
</g>
<!-- Node1&#45;&gt;Node6 -->
<g id="edge13" class="edge"><title>Node1&#45;&gt;Node6</title>
<path fill="none" stroke="midnightblue" d="M81.6209,-202.486C122.083,-205.324 186.642,-210.679 242,-219 255.238,-220.99 269.444,-223.657 282.637,-226.362"/>
<polygon fill="midnightblue" stroke="midnightblue" points="281.991,-229.802 292.496,-228.428 283.426,-222.951 281.991,-229.802"/>
</g>
<!-- Node7 -->
<g id="node7" class="node"><title>Node7</title>
<g id="a_node7"><a xlink:href="email_2rfc2047_8c.html#a89c57c82465740567f73641c9397d760" target="_top" xlink:title="Decode any RFC2047&#45;encoded header fields. ">
<polygon fill="white" stroke="red" points="137,-152.5 137,-171.5 223,-171.5 223,-152.5 137,-152.5"/>
<text text-anchor="middle" x="180" y="-159.5" font-family="Helvetica,sans-Serif" font-size="10.00">rfc2047_decode</text>
</a>
</g>
</g>
<!-- Node1&#45;&gt;Node7 -->
<g id="edge8" class="edge"><title>Node1&#45;&gt;Node7</title>
<path fill="none" stroke="midnightblue" d="M76.5709,-190.411C94.1752,-185.528 115.779,-179.536 134.601,-174.315"/>
<polygon fill="midnightblue" stroke="midnightblue" points="135.739,-177.631 144.44,-171.586 133.868,-170.886 135.739,-177.631"/>
</g>
<!-- Node8 -->
<g id="node8" class="node"><title>Node8</title>
<g id="a_node8"><a xlink:href="mutt_2string_8c.html#aca11f88d08a860c07419df3efb18f35a" target="_top" xlink:title="Calculate the length of a string, safely. ">
<polygon fill="white" stroke="black" points="294,-133.5 294,-152.5 376,-152.5 376,-133.5 294,-133.5"/>
<text text-anchor="middle" x="335" y="-140.5" font-family="Helvetica,sans-Serif" font-size="10.00">mutt_str_strlen</text>
</a>
</g>
</g>
<!-- Node1&#45;&gt;Node8 -->
<g id="edge10" class="edge"><title>Node1&#45;&gt;Node8</title>
<path fill="none" stroke="midnightblue" d="M50.671,-190.394C63.7044,-176.754 89.836,-152.388 118,-143 172.458,-124.847 239.02,-128.404 283.739,-134.197"/>
<polygon fill="midnightblue" stroke="midnightblue" points="283.391,-137.682 293.775,-135.583 284.348,-130.748 283.391,-137.682"/>
</g>
<!-- Node9 -->
<g id="node9" class="node"><title>Node9</title>
<g id="a_node9"><a xlink:href="memory_8c.html#af778eb8166966fc0666c64849f6c7c5b" target="_top" xlink:title="Resize a block of memory on the heap. ">
<polygon fill="white" stroke="red" points="131.5,-76.5 131.5,-95.5 228.5,-95.5 228.5,-76.5 131.5,-76.5"/>
<text text-anchor="middle" x="180" y="-83.5" font-family="Helvetica,sans-Serif" font-size="10.00">mutt_mem_realloc</text>
</a>
</g>
</g>
<!-- Node1&#45;&gt;Node9 -->
<g id="edge11" class="edge"><title>Node1&#45;&gt;Node9</title>
<path fill="none" stroke="midnightblue" d="M47.8924,-190.228C59.2963,-172.067 86.0927,-132.885 118,-110 123.654,-105.945 130.087,-102.458 136.604,-99.4984"/>
<polygon fill="midnightblue" stroke="midnightblue" points="138.242,-102.608 146.132,-95.5361 135.554,-96.1444 138.242,-102.608"/>
</g>
<!-- Node10 -->
<g id="node10" class="node"><title>Node10</title>
<g id="a_node10"><a xlink:href="parse_8c.html#a5f2728949322a1a6210d61d9629005d1" target="_top" xlink:title="Does the string match the ignore list. ">
<polygon fill="white" stroke="red" points="125,-38.5 125,-57.5 235,-57.5 235,-38.5 125,-38.5"/>
<text text-anchor="middle" x="180" y="-45.5" font-family="Helvetica,sans-Serif" font-size="10.00">mutt_matches_ignore</text>
</a>
</g>
</g>
<!-- Node1&#45;&gt;Node10 -->
<g id="edge12" class="edge"><title>Node1&#45;&gt;Node10</title>
<path fill="none" stroke="midnightblue" d="M44.7867,-190.333C52.3308,-165.891 75.4987,-101.145 118,-67 120.27,-65.1764 122.716,-63.527 125.277,-62.0353"/>
<polygon fill="midnightblue" stroke="midnightblue" points="126.937,-65.1194 134.347,-57.5468 123.832,-58.8457 126.937,-65.1194"/>
</g>
<!-- Node11 -->
<g id="node11" class="node"><title>Node11</title>
<g id="a_node11"><a xlink:href="sendlib_8c.html#af4efff59dc837ce6e4e5490113c1cde4" target="_top" xlink:title="Write one header line to a file. ">
<polygon fill="white" stroke="red" points="121,-228.5 121,-247.5 239,-247.5 239,-228.5 121,-228.5"/>
<text text-anchor="middle" x="180" y="-235.5" font-family="Helvetica,sans-Serif" font-size="10.00">mutt_write_one_header</text>
</a>
</g>
</g>
<!-- Node1&#45;&gt;Node11 -->
<g id="edge14" class="edge"><title>Node1&#45;&gt;Node11</title>
<path fill="none" stroke="midnightblue" d="M76.5709,-209.589C94.1752,-214.472 115.779,-220.464 134.601,-225.685"/>
<polygon fill="midnightblue" stroke="midnightblue" points="133.868,-229.114 144.44,-228.414 135.739,-222.369 133.868,-229.114"/>
</g>
<!-- Node12 -->
<g id="node12" class="node"><title>Node12</title>
<g id="a_node12"><a xlink:href="mutt__window_8c.html#a3ef60b46e51db32c05fcf766e6e946d8" target="_top" xlink:title="Calculate the wrap column for a Window. ">
<polygon fill="white" stroke="black" points="118,-0.5 118,-19.5 242,-19.5 242,-0.5 118,-0.5"/>
<text text-anchor="middle" x="180" y="-7.5" font-family="Helvetica,sans-Serif" font-size="10.00">mutt_window_wrap_cols</text>
</a>
</g>
</g>
<!-- Node1&#45;&gt;Node12 -->
<g id="edge16" class="edge"><title>Node1&#45;&gt;Node12</title>
<path fill="none" stroke="midnightblue" d="M43.4728,-190.231C48.3684,-161.188 66.7942,-74.573 118,-29 119.921,-27.2901 121.995,-25.734 124.178,-24.318"/>
<polygon fill="midnightblue" stroke="midnightblue" points="125.915,-27.3576 133.045,-19.5213 122.584,-21.2007 125.915,-27.3576"/>
</g>
<!-- Node5&#45;&gt;Node3 -->
<g id="edge5" class="edge"><title>Node5&#45;&gt;Node3</title>
<path fill="none" stroke="midnightblue" d="M203.248,-285.597C229.309,-296.839 272.678,-315.548 302.265,-328.31"/>
<polygon fill="midnightblue" stroke="midnightblue" points="301.157,-331.644 311.726,-332.391 303.93,-325.217 301.157,-331.644"/>
</g>
<!-- Node5&#45;&gt;Node4 -->
<g id="edge7" class="edge"><title>Node5&#45;&gt;Node4</title>
<path fill="none" stroke="midnightblue" d="M241.031,-283.455C253.074,-284.95 265.69,-286.517 277.605,-287.997"/>
<polygon fill="midnightblue" stroke="midnightblue" points="277.508,-291.511 287.863,-289.271 278.371,-284.565 277.508,-291.511"/>
</g>
<!-- Node5&#45;&gt;Node6 -->
<g id="edge6" class="edge"><title>Node5&#45;&gt;Node6</title>
<path fill="none" stroke="midnightblue" d="M219.608,-266.411C239.707,-261.419 264.475,-255.268 285.819,-249.967"/>
<polygon fill="midnightblue" stroke="midnightblue" points="286.808,-253.327 295.669,-247.52 285.12,-246.534 286.808,-253.327"/>
</g>
<!-- Node7&#45;&gt;Node8 -->
<g id="edge9" class="edge"><title>Node7&#45;&gt;Node8</title>
<path fill="none" stroke="midnightblue" d="M223.213,-156.758C241.968,-154.429 264.19,-151.669 283.79,-149.235"/>
<polygon fill="midnightblue" stroke="midnightblue" points="284.277,-152.702 293.769,-147.996 283.414,-145.755 284.277,-152.702"/>
</g>
<!-- Node11&#45;&gt;Node6 -->
<g id="edge15" class="edge"><title>Node11&#45;&gt;Node6</title>
<path fill="none" stroke="midnightblue" d="M239.279,-238C253.277,-238 268.138,-238 281.837,-238"/>
<polygon fill="midnightblue" stroke="midnightblue" points="282.053,-241.5 292.053,-238 282.053,-234.5 282.053,-241.5"/>
</g>
</g>
</svg>
