<?xml version="1.0" encoding="UTF-8" standalone="no"?>
<!DOCTYPE svg PUBLIC "-//W3C//DTD SVG 1.1//EN"
 "http://www.w3.org/Graphics/SVG/1.1/DTD/svg11.dtd">
<!-- Generated by graphviz version 2.36.0 (20140111.2315)
 -->
<!-- Title: mutt_copy_message_fp Pages: 1 -->
<svg width="292pt" height="180pt"
 viewBox="0.00 0.00 292.00 180.00" xmlns="http://www.w3.org/2000/svg" xmlns:xlink="http://www.w3.org/1999/xlink">
<g id="graph0" class="graph" transform="scale(1 1) rotate(0) translate(4 176)">
<title>mutt_copy_message_fp</title>
<polygon fill="white" stroke="none" points="-4,4 -4,-176 288,-176 288,4 -4,4"/>
<!-- Node1 -->
<g id="node1" class="node"><title>Node1</title>
<polygon fill="#bfbfbf" stroke="black" points="0.5,-76.5 0.5,-95.5 121.5,-95.5 121.5,-76.5 0.5,-76.5"/>
<text text-anchor="middle" x="61" y="-83.5" font-family="Helvetica,sans-Serif" font-size="10.00">mutt_copy_message_fp</text>
</g>
<!-- Node2 -->
<g id="node2" class="node"><title>Node2</title>
<g id="a_node2"><a xlink:href="copy_8h.html#afe88afbb99e45f4551735b80ce631f85" target="_top" xlink:title="Copy a message from a Context. ">
<polygon fill="white" stroke="red" points="158,-152.5 158,-171.5 284,-171.5 284,-152.5 158,-152.5"/>
<text text-anchor="middle" x="221" y="-159.5" font-family="Helvetica,sans-Serif" font-size="10.00">mutt_copy_message_ctx</text>
</a>
</g>
</g>
<!-- Node1&#45;&gt;Node2 -->
<g id="edge1" class="edge"><title>Node1&#45;&gt;Node2</title>
<path fill="none" stroke="midnightblue" d="M84.2494,-101.291C103.2,-113.797 131.495,-131.272 158,-143 166.133,-146.599 175.151,-149.786 183.733,-152.473"/>
<polygon fill="midnightblue" stroke="midnightblue" points="86.0024,-98.2527 75.7457,-95.5975 82.108,-104.069 86.0024,-98.2527"/>
</g>
<!-- Node3 -->
<g id="node3" class="node"><title>Node3</title>
<g id="a_node3"><a xlink:href="copy_8c.html#a7e4401925a387ea5e6fadab50ead3ef7" target="_top" xlink:title="appends a copy of the given message to a mailbox ">
<polygon fill="white" stroke="red" points="174.5,-114.5 174.5,-133.5 267.5,-133.5 267.5,-114.5 174.5,-114.5"/>
<text text-anchor="middle" x="221" y="-121.5" font-family="Helvetica,sans-Serif" font-size="10.00">append_message</text>
</a>
</g>
</g>
<!-- Node1&#45;&gt;Node3 -->
<g id="edge2" class="edge"><title>Node1&#45;&gt;Node3</title>
<path fill="none" stroke="midnightblue" d="M111.762,-97.968C133.903,-103.293 159.612,-109.476 180.417,-114.48"/>
<polygon fill="midnightblue" stroke="midnightblue" points="112.411,-94.5245 101.87,-95.589 110.774,-101.33 112.411,-94.5245"/>
</g>
<!-- Node4 -->
<g id="node4" class="node"><title>Node4</title>
<g id="a_node4"><a xlink:href="mutt__attach_8h.html#a7eca34952ac9afff3ff8ac5706fa6bc8" target="_top" xlink:title="Save an attachment. ">
<polygon fill="white" stroke="red" points="163,-76.5 163,-95.5 279,-95.5 279,-76.5 163,-76.5"/>
<text text-anchor="middle" x="221" y="-83.5" font-family="Helvetica,sans-Serif" font-size="10.00">mutt_save_attachment</text>
</a>
</g>
</g>
<!-- Node1&#45;&gt;Node4 -->
<g id="edge3" class="edge"><title>Node1&#45;&gt;Node4</title>
<path fill="none" stroke="midnightblue" d="M131.949,-86C142.261,-86 152.781,-86 162.794,-86"/>
<polygon fill="midnightblue" stroke="midnightblue" points="131.733,-82.5001 121.733,-86 131.733,-89.5001 131.733,-82.5001"/>
</g>
<!-- Node5 -->
<g id="node5" class="node"><title>Node5</title>
<g id="a_node5"><a xlink:href="recvcmd_8c.html#ab5979027a0a9e06fb96e3e54ad77b9a7" target="_top" xlink:title="Forward one or several message&#45;type attachments. ">
<polygon fill="white" stroke="red" points="166,-38.5 166,-57.5 276,-57.5 276,-38.5 166,-38.5"/>
<text text-anchor="middle" x="221" y="-45.5" font-family="Helvetica,sans-Serif" font-size="10.00">attach_forward_msgs</text>
</a>
</g>
</g>
<!-- Node1&#45;&gt;Node5 -->
<g id="edge4" class="edge"><title>Node1&#45;&gt;Node5</title>
<path fill="none" stroke="midnightblue" d="M111.762,-74.032C133.903,-68.7069 159.612,-62.5238 180.417,-57.5201"/>
<polygon fill="midnightblue" stroke="midnightblue" points="110.774,-70.6696 101.87,-76.411 112.411,-77.4755 110.774,-70.6696"/>
</g>
<!-- Node6 -->
<g id="node6" class="node"><title>Node6</title>
<g id="a_node6"><a xlink:href="recvcmd_8c.html#ad787a7b5d402e6892f455ebf6f699125" target="_top" xlink:title="This is very similar to send.c&#39;s include_reply() ">
<polygon fill="white" stroke="red" points="168,-0.5 168,-19.5 274,-19.5 274,-0.5 168,-0.5"/>
<text text-anchor="middle" x="221" y="-7.5" font-family="Helvetica,sans-Serif" font-size="10.00">attach_include_reply</text>
</a>
</g>
</g>
<!-- Node1&#45;&gt;Node6 -->
<g id="edge5" class="edge"><title>Node1&#45;&gt;Node6</title>
<path fill="none" stroke="midnightblue" d="M84.2494,-70.709C103.2,-58.2026 131.495,-40.7281 158,-29 166.133,-25.4012 175.151,-22.2141 183.733,-19.5274"/>
<polygon fill="midnightblue" stroke="midnightblue" points="82.108,-67.9307 75.7457,-76.4025 86.0024,-73.7473 82.108,-67.9307"/>
</g>
</g>
</svg>
