<?xml version="1.0" encoding="UTF-8" standalone="no"?>
<!DOCTYPE svg PUBLIC "-//W3C//DTD SVG 1.1//EN"
 "http://www.w3.org/Graphics/SVG/1.1/DTD/svg11.dtd">
<!-- Generated by graphviz version 2.36.0 (20140111.2315)
 -->
<!-- Title: mutt_copy_message_ctx Pages: 1 -->
<svg width="292pt" height="104pt"
 viewBox="0.00 0.00 292.00 104.00" xmlns="http://www.w3.org/2000/svg" xmlns:xlink="http://www.w3.org/1999/xlink">
<g id="graph0" class="graph" transform="scale(1 1) rotate(0) translate(4 100)">
<title>mutt_copy_message_ctx</title>
<polygon fill="white" stroke="none" points="-4,4 -4,-100 288,-100 288,4 -4,4"/>
<!-- Node1 -->
<g id="node1" class="node"><title>Node1</title>
<polygon fill="#bfbfbf" stroke="black" points="0,-38.5 0,-57.5 126,-57.5 126,-38.5 0,-38.5"/>
<text text-anchor="middle" x="63" y="-45.5" font-family="Helvetica,sans-Serif" font-size="10.00">mutt_copy_message_ctx</text>
</g>
<!-- Node2 -->
<g id="node2" class="node"><title>Node2</title>
<g id="a_node2"><a xlink:href="mx_8c.html#a023ab20d4926e2bac4206686fb35a33e" target="_top" xlink:title="return a stream pointer for a message ">
<polygon fill="white" stroke="red" points="183,-76.5 183,-95.5 263,-95.5 263,-76.5 183,-76.5"/>
<text text-anchor="middle" x="223" y="-83.5" font-family="Helvetica,sans-Serif" font-size="10.00">mx_msg_open</text>
</a>
</g>
</g>
<!-- Node1&#45;&gt;Node2 -->
<g id="edge1" class="edge"><title>Node1&#45;&gt;Node2</title>
<path fill="none" stroke="midnightblue" d="M103.87,-57.589C124.878,-62.6416 150.826,-68.8822 173.047,-74.2264"/>
<polygon fill="midnightblue" stroke="midnightblue" points="172.422,-77.6758 182.963,-76.6113 174.059,-70.8699 172.422,-77.6758"/>
</g>
<!-- Node3 -->
<g id="node3" class="node"><title>Node3</title>
<g id="a_node3"><a xlink:href="copy_8c.html#a83d41783f47bc19055f396db29a6ceb6" target="_top" xlink:title="make a copy of a message from a FILE pointer ">
<polygon fill="white" stroke="red" points="162.5,-38.5 162.5,-57.5 283.5,-57.5 283.5,-38.5 162.5,-38.5"/>
<text text-anchor="middle" x="223" y="-45.5" font-family="Helvetica,sans-Serif" font-size="10.00">mutt_copy_message_fp</text>
</a>
</g>
</g>
<!-- Node1&#45;&gt;Node3 -->
<g id="edge2" class="edge"><title>Node1&#45;&gt;Node3</title>
<path fill="none" stroke="midnightblue" d="M126.446,-48C134.939,-48 143.7,-48 152.312,-48"/>
<polygon fill="midnightblue" stroke="midnightblue" points="152.327,-51.5001 162.327,-48 152.327,-44.5001 152.327,-51.5001"/>
</g>
<!-- Node4 -->
<g id="node4" class="node"><title>Node4</title>
<g id="a_node4"><a xlink:href="mx_8c.html#a80867e6aff3b2804c4eef734b673982c" target="_top" xlink:title="Close a message. ">
<polygon fill="white" stroke="black" points="181.5,-0.5 181.5,-19.5 264.5,-19.5 264.5,-0.5 181.5,-0.5"/>
<text text-anchor="middle" x="223" y="-7.5" font-family="Helvetica,sans-Serif" font-size="10.00">mx_msg_close</text>
</a>
</g>
</g>
<!-- Node1&#45;&gt;Node4 -->
<g id="edge3" class="edge"><title>Node1&#45;&gt;Node4</title>
<path fill="none" stroke="midnightblue" d="M103.87,-38.411C124.72,-33.3965 150.435,-27.2119 172.543,-21.8947"/>
<polygon fill="midnightblue" stroke="midnightblue" points="173.512,-25.2615 182.417,-19.5201 171.875,-18.4555 173.512,-25.2615"/>
</g>
</g>
</svg>
