<?xml version="1.0" encoding="UTF-8" standalone="no"?>
<!DOCTYPE svg PUBLIC "-//W3C//DTD SVG 1.1//EN"
 "http://www.w3.org/Graphics/SVG/1.1/DTD/svg11.dtd">
<!-- Generated by graphviz version 2.36.0 (20140111.2315)
 -->
<!-- Title: copy.c Pages: 1 -->
<svg width="1218pt" height="196pt"
 viewBox="0.00 0.00 1218.00 196.00" xmlns="http://www.w3.org/2000/svg" xmlns:xlink="http://www.w3.org/1999/xlink">
<g id="graph0" class="graph" transform="scale(1 1) rotate(0) translate(4 192)">
<title>copy.c</title>
<polygon fill="white" stroke="none" points="-4,4 -4,-192 1214,-192 1214,4 -4,4"/>
<!-- Node1 -->
<g id="node1" class="node"><title>Node1</title>
<polygon fill="#bfbfbf" stroke="black" points="612,-168.5 612,-187.5 658,-187.5 658,-168.5 612,-168.5"/>
<text text-anchor="middle" x="635" y="-175.5" font-family="Helvetica,sans-Serif" font-size="10.00">copy.c</text>
</g>
<!-- Node2 -->
<g id="node2" class="node"><title>Node2</title>
<polygon fill="white" stroke="#bfbfbf" points="-0.5,-112.5 -0.5,-131.5 50.5,-131.5 50.5,-112.5 -0.5,-112.5"/>
<text text-anchor="middle" x="25" y="-119.5" font-family="Helvetica,sans-Serif" font-size="10.00">config.h</text>
</g>
<!-- Node1&#45;&gt;Node2 -->
<g id="edge1" class="edge"><title>Node1&#45;&gt;Node2</title>
<path fill="none" stroke="midnightblue" d="M611.769,-176.688C534.561,-175.337 279.488,-168.354 60.5783,-131.981"/>
<polygon fill="midnightblue" stroke="midnightblue" points="60.954,-128.495 50.5111,-130.282 59.7897,-135.397 60.954,-128.495"/>
</g>
<!-- Node3 -->
<g id="node3" class="node"><title>Node3</title>
<polygon fill="white" stroke="#bfbfbf" points="68.5,-112.5 68.5,-131.5 117.5,-131.5 117.5,-112.5 68.5,-112.5"/>
<text text-anchor="middle" x="93" y="-119.5" font-family="Helvetica,sans-Serif" font-size="10.00">ctype.h</text>
</g>
<!-- Node1&#45;&gt;Node3 -->
<g id="edge2" class="edge"><title>Node1&#45;&gt;Node3</title>
<path fill="none" stroke="midnightblue" d="M611.779,-176.35C540.707,-174.066 319.828,-164.778 127.765,-131.821"/>
<polygon fill="midnightblue" stroke="midnightblue" points="128.226,-128.348 117.774,-130.08 127.025,-135.244 128.226,-128.348"/>
</g>
<!-- Node4 -->
<g id="node4" class="node"><title>Node4</title>
<polygon fill="white" stroke="#bfbfbf" points="135.5,-112.5 135.5,-131.5 194.5,-131.5 194.5,-112.5 135.5,-112.5"/>
<text text-anchor="middle" x="165" y="-119.5" font-family="Helvetica,sans-Serif" font-size="10.00">inttypes.h</text>
</g>
<!-- Node1&#45;&gt;Node4 -->
<g id="edge3" class="edge"><title>Node1&#45;&gt;Node4</title>
<path fill="none" stroke="midnightblue" d="M611.81,-175.342C547.553,-170.577 361.87,-155.652 209,-132 207.555,-131.776 206.086,-131.537 204.604,-131.286"/>
<polygon fill="midnightblue" stroke="midnightblue" points="205.217,-127.841 194.752,-129.491 203.962,-134.727 205.217,-127.841"/>
</g>
<!-- Node5 -->
<g id="node5" class="node"><title>Node5</title>
<polygon fill="white" stroke="#bfbfbf" points="797,-0.5 797,-19.5 853,-19.5 853,-0.5 797,-0.5"/>
<text text-anchor="middle" x="825" y="-7.5" font-family="Helvetica,sans-Serif" font-size="10.00">stdbool.h</text>
</g>
<!-- Node1&#45;&gt;Node5 -->
<g id="edge4" class="edge"><title>Node1&#45;&gt;Node5</title>
<path fill="none" stroke="midnightblue" d="M658.126,-176.501C746.931,-174.349 1062.59,-164.452 1092,-132 1161.45,-55.3754 952.418,-24.157 863.246,-14.5394"/>
<polygon fill="midnightblue" stroke="midnightblue" points="863.551,-11.0524 853.242,-13.4972 862.826,-18.0147 863.551,-11.0524"/>
</g>
<!-- Node6 -->
<g id="node6" class="node"><title>Node6</title>
<polygon fill="white" stroke="#bfbfbf" points="251.5,-112.5 251.5,-131.5 300.5,-131.5 300.5,-112.5 251.5,-112.5"/>
<text text-anchor="middle" x="276" y="-119.5" font-family="Helvetica,sans-Serif" font-size="10.00">string.h</text>
</g>
<!-- Node1&#45;&gt;Node6 -->
<g id="edge5" class="edge"><title>Node1&#45;&gt;Node6</title>
<path fill="none" stroke="midnightblue" d="M611.986,-174.783C560.046,-169.574 429.646,-155.349 310.795,-131.933"/>
<polygon fill="midnightblue" stroke="midnightblue" points="311.293,-128.463 300.801,-129.936 309.922,-135.328 311.293,-128.463"/>
</g>
<!-- Node7 -->
<g id="node7" class="node"><title>Node7</title>
<g id="a_node7"><a xlink:href="mutt_2mutt_8h.html" target="_top" xlink:title="Convenience wrapper for the library headers. ">
<polygon fill="white" stroke="red" points="218.5,-56.5 218.5,-75.5 285.5,-75.5 285.5,-56.5 218.5,-56.5"/>
<text text-anchor="middle" x="252" y="-63.5" font-family="Helvetica,sans-Serif" font-size="10.00">mutt/mutt.h</text>
</a>
</g>
</g>
<!-- Node1&#45;&gt;Node7 -->
<g id="edge6" class="edge"><title>Node1&#45;&gt;Node7</title>
<path fill="none" stroke="midnightblue" d="M611.924,-176.105C531.587,-172.754 267.706,-159.704 243,-132 231.773,-119.411 236.544,-99.6408 242.562,-85.2076"/>
<polygon fill="midnightblue" stroke="midnightblue" points="245.886,-86.361 246.954,-75.8201 239.546,-83.3946 245.886,-86.361"/>
</g>
<!-- Node8 -->
<g id="node8" class="node"><title>Node8</title>
<g id="a_node8"><a xlink:href="lib_8h.html" target="_top" xlink:title="Convenience wrapper for the config headers. ">
<polygon fill="white" stroke="red" points="373,-56.5 373,-75.5 437,-75.5 437,-56.5 373,-56.5"/>
<text text-anchor="middle" x="405" y="-63.5" font-family="Helvetica,sans-Serif" font-size="10.00">config/lib.h</text>
</a>
</g>
</g>
<!-- Node1&#45;&gt;Node8 -->
<g id="edge7" class="edge"><title>Node1&#45;&gt;Node8</title>
<path fill="none" stroke="midnightblue" d="M611.699,-175.127C562.258,-170.684 449.149,-157.886 422,-132 409.61,-120.186 405.839,-100.554 404.877,-85.9515"/>
<polygon fill="midnightblue" stroke="midnightblue" points="408.365,-85.4656 404.596,-75.5638 401.368,-85.6547 408.365,-85.4656"/>
</g>
<!-- Node9 -->
<g id="node9" class="node"><title>Node9</title>
<g id="a_node9"><a xlink:href="email_8h.html" target="_top" xlink:title="Structs that make up an email. ">
<polygon fill="white" stroke="red" points="431,-112.5 431,-131.5 505,-131.5 505,-112.5 431,-112.5"/>
<text text-anchor="middle" x="468" y="-119.5" font-family="Helvetica,sans-Serif" font-size="10.00">email/email.h</text>
</a>
</g>
</g>
<!-- Node1&#45;&gt;Node9 -->
<g id="edge8" class="edge"><title>Node1&#45;&gt;Node9</title>
<path fill="none" stroke="midnightblue" d="M611.779,-169.492C583.839,-160.457 536.619,-145.188 503.956,-134.626"/>
<polygon fill="midnightblue" stroke="midnightblue" points="504.915,-131.258 494.323,-131.512 502.762,-137.919 504.915,-131.258"/>
</g>
<!-- Node10 -->
<g id="node10" class="node"><title>Node10</title>
<g id="a_node10"><a xlink:href="mutt_8h.html" target="_top" xlink:title="Many unsorted constants and some structs. ">
<polygon fill="white" stroke="red" points="1166,-56.5 1166,-75.5 1210,-75.5 1210,-56.5 1166,-56.5"/>
<text text-anchor="middle" x="1188" y="-63.5" font-family="Helvetica,sans-Serif" font-size="10.00">mutt.h</text>
</a>
</g>
</g>
<!-- Node1&#45;&gt;Node10 -->
<g id="edge9" class="edge"><title>Node1&#45;&gt;Node10</title>
<path fill="none" stroke="midnightblue" d="M658.337,-176.943C759.67,-176.458 1158.08,-172.005 1195,-132 1206.4,-119.65 1202.27,-99.8428 1196.76,-85.3353"/>
<polygon fill="midnightblue" stroke="midnightblue" points="1199.87,-83.701 1192.71,-75.8907 1193.44,-86.4606 1199.87,-83.701"/>
</g>
<!-- Node11 -->
<g id="node11" class="node"><title>Node11</title>
<g id="a_node11"><a xlink:href="copy_8h.html" target="_top" xlink:title="Duplicate the structure of an entire email. ">
<polygon fill="white" stroke="red" points="561,-112.5 561,-131.5 607,-131.5 607,-112.5 561,-112.5"/>
<text text-anchor="middle" x="584" y="-119.5" font-family="Helvetica,sans-Serif" font-size="10.00">copy.h</text>
</a>
</g>
</g>
<!-- Node1&#45;&gt;Node11 -->
<g id="edge11" class="edge"><title>Node1&#45;&gt;Node11</title>
<path fill="none" stroke="midnightblue" d="M626.578,-168.083C619.152,-160.22 608.148,-148.569 599.188,-139.081"/>
<polygon fill="midnightblue" stroke="midnightblue" points="601.676,-136.618 592.265,-131.751 596.587,-141.424 601.676,-136.618"/>
</g>
<!-- Node12 -->
<g id="node12" class="node"><title>Node12</title>
<g id="a_node12"><a xlink:href="context_8h.html" target="_top" xlink:title="The &quot;currently&#45;open&quot; mailbox. ">
<polygon fill="white" stroke="red" points="490.5,-56.5 490.5,-75.5 547.5,-75.5 547.5,-56.5 490.5,-56.5"/>
<text text-anchor="middle" x="519" y="-63.5" font-family="Helvetica,sans-Serif" font-size="10.00">context.h</text>
</a>
</g>
</g>
<!-- Node1&#45;&gt;Node12 -->
<g id="edge12" class="edge"><title>Node1&#45;&gt;Node12</title>
<path fill="none" stroke="midnightblue" d="M611.813,-168.864C593.679,-161.541 568.806,-149.267 552,-132 539.057,-118.702 530.115,-99.3143 524.836,-85.1746"/>
<polygon fill="midnightblue" stroke="midnightblue" points="528.09,-83.8751 521.508,-75.5727 521.476,-86.1675 528.09,-83.8751"/>
</g>
<!-- Node13 -->
<g id="node13" class="node"><title>Node13</title>
<g id="a_node13"><a xlink:href="globals_8h.html" target="_top" xlink:title="Hundreds of global variables to back the user variables. ">
<polygon fill="white" stroke="red" points="319,-112.5 319,-131.5 375,-131.5 375,-112.5 319,-112.5"/>
<text text-anchor="middle" x="347" y="-119.5" font-family="Helvetica,sans-Serif" font-size="10.00">globals.h</text>
</a>
</g>
</g>
<!-- Node1&#45;&gt;Node13 -->
<g id="edge14" class="edge"><title>Node1&#45;&gt;Node13</title>
<path fill="none" stroke="midnightblue" d="M611.893,-173.013C568.257,-165.43 470.764,-148.235 389,-132 387.766,-131.755 386.512,-131.503 385.246,-131.246"/>
<polygon fill="midnightblue" stroke="midnightblue" points="385.944,-127.817 375.442,-129.216 384.525,-134.671 385.944,-127.817"/>
</g>
<!-- Node14 -->
<g id="node14" class="node"><title>Node14</title>
<g id="a_node14"><a xlink:href="handler_8h.html" target="_top" xlink:title="Decide how to display email content. ">
<polygon fill="white" stroke="red" points="566,-56.5 566,-75.5 622,-75.5 622,-56.5 566,-56.5"/>
<text text-anchor="middle" x="594" y="-63.5" font-family="Helvetica,sans-Serif" font-size="10.00">handler.h</text>
</a>
</g>
</g>
<!-- Node1&#45;&gt;Node14 -->
<g id="edge18" class="edge"><title>Node1&#45;&gt;Node14</title>
<path fill="none" stroke="midnightblue" d="M632.992,-168.433C629.932,-155.852 623.644,-131.734 616,-112 612.427,-102.776 607.686,-92.8645 603.52,-84.6976"/>
<polygon fill="midnightblue" stroke="midnightblue" points="606.581,-82.999 598.841,-75.7647 600.38,-86.247 606.581,-82.999"/>
</g>
<!-- Node15 -->
<g id="node15" class="node"><title>Node15</title>
<g id="a_node15"><a xlink:href="hdrline_8h.html" target="_top" xlink:title="String processing routines to generate the mail index. ">
<polygon fill="white" stroke="red" points="640.5,-56.5 640.5,-75.5 693.5,-75.5 693.5,-56.5 640.5,-56.5"/>
<text text-anchor="middle" x="667" y="-63.5" font-family="Helvetica,sans-Serif" font-size="10.00">hdrline.h</text>
</a>
</g>
</g>
<!-- Node1&#45;&gt;Node15 -->
<g id="edge20" class="edge"><title>Node1&#45;&gt;Node15</title>
<path fill="none" stroke="midnightblue" d="M637.765,-168.398C640.649,-159.359 645.262,-144.717 649,-132 653.592,-116.377 658.507,-98.5475 662.038,-85.5181"/>
<polygon fill="midnightblue" stroke="midnightblue" points="665.419,-86.4227 664.642,-75.8564 658.66,-84.6011 665.419,-86.4227"/>
</g>
<!-- Node16 -->
<g id="node16" class="node"><title>Node16</title>
<g id="a_node16"><a xlink:href="mutt__window_8h.html" target="_top" xlink:title="Window management. ">
<polygon fill="white" stroke="red" points="777.5,-112.5 777.5,-131.5 860.5,-131.5 860.5,-112.5 777.5,-112.5"/>
<text text-anchor="middle" x="819" y="-119.5" font-family="Helvetica,sans-Serif" font-size="10.00">mutt_window.h</text>
</a>
</g>
</g>
<!-- Node1&#45;&gt;Node16 -->
<g id="edge22" class="edge"><title>Node1&#45;&gt;Node16</title>
<path fill="none" stroke="midnightblue" d="M658.304,-170.161C688.887,-161.185 743.003,-145.303 779.909,-134.472"/>
<polygon fill="midnightblue" stroke="midnightblue" points="781.219,-137.736 789.829,-131.561 779.248,-131.019 781.219,-137.736"/>
</g>
<!-- Node17 -->
<g id="node17" class="node"><title>Node17</title>
<g id="a_node17"><a xlink:href="muttlib_8h.html" target="_top" xlink:title="Some miscellaneous functions. ">
<polygon fill="white" stroke="red" points="712,-56.5 712,-75.5 766,-75.5 766,-56.5 712,-56.5"/>
<text text-anchor="middle" x="739" y="-63.5" font-family="Helvetica,sans-Serif" font-size="10.00">muttlib.h</text>
</a>
</g>
</g>
<!-- Node1&#45;&gt;Node17 -->
<g id="edge23" class="edge"><title>Node1&#45;&gt;Node17</title>
<path fill="none" stroke="midnightblue" d="M643.161,-168.368C660.552,-149.974 701.493,-106.671 723.824,-83.0519"/>
<polygon fill="midnightblue" stroke="midnightblue" points="726.55,-85.2625 730.877,-75.5914 721.464,-80.4534 726.55,-85.2625"/>
</g>
<!-- Node18 -->
<g id="node18" class="node"><title>Node18</title>
<g id="a_node18"><a xlink:href="mx_8h.html" target="_top" xlink:title="API for mailboxes. ">
<polygon fill="white" stroke="red" points="958,-56.5 958,-75.5 996,-75.5 996,-56.5 958,-56.5"/>
<text text-anchor="middle" x="977" y="-63.5" font-family="Helvetica,sans-Serif" font-size="10.00">mx.h</text>
</a>
</g>
</g>
<!-- Node1&#45;&gt;Node18 -->
<g id="edge25" class="edge"><title>Node1&#45;&gt;Node18</title>
<path fill="none" stroke="midnightblue" d="M658.042,-176.592C704.331,-175.008 811.101,-167.459 892,-132 918.949,-120.188 945.089,-98.1098 961.105,-82.9911"/>
<polygon fill="midnightblue" stroke="midnightblue" points="963.767,-85.2854 968.508,-75.8106 958.893,-80.2607 963.767,-85.2854"/>
</g>
<!-- Node19 -->
<g id="node19" class="node"><title>Node19</title>
<g id="a_node19"><a xlink:href="ncrypt_8h.html" target="_top" xlink:title="API for encryption/signing of emails. ">
<polygon fill="white" stroke="red" points="784,-56.5 784,-75.5 866,-75.5 866,-56.5 784,-56.5"/>
<text text-anchor="middle" x="825" y="-63.5" font-family="Helvetica,sans-Serif" font-size="10.00">ncrypt/ncrypt.h</text>
</a>
</g>
</g>
<!-- Node1&#45;&gt;Node19 -->
<g id="edge27" class="edge"><title>Node1&#45;&gt;Node19</title>
<path fill="none" stroke="midnightblue" d="M649.909,-168.368C682.791,-149.332 761.755,-103.615 801.422,-80.6505"/>
<polygon fill="midnightblue" stroke="midnightblue" points="803.26,-83.6308 810.16,-75.5914 799.752,-77.5728 803.26,-83.6308"/>
</g>
<!-- Node20 -->
<g id="node20" class="node"><title>Node20</title>
<g id="a_node20"><a xlink:href="sendlib_8h.html" target="_top" xlink:title="Miscellaneous functions for sending an email. ">
<polygon fill="white" stroke="red" points="884,-56.5 884,-75.5 940,-75.5 940,-56.5 884,-56.5"/>
<text text-anchor="middle" x="912" y="-63.5" font-family="Helvetica,sans-Serif" font-size="10.00">sendlib.h</text>
</a>
</g>
</g>
<!-- Node1&#45;&gt;Node20 -->
<g id="edge29" class="edge"><title>Node1&#45;&gt;Node20</title>
<path fill="none" stroke="midnightblue" d="M658.361,-174.817C710.502,-169.581 834.496,-155.011 869,-132 886.012,-120.655 897.924,-100.052 904.828,-85.0762"/>
<polygon fill="midnightblue" stroke="midnightblue" points="908.086,-86.36 908.81,-75.7899 901.652,-83.6017 908.086,-86.36"/>
</g>
<!-- Node21 -->
<g id="node21" class="node"><title>Node21</title>
<g id="a_node21"><a xlink:href="state_8h.html" target="_top" xlink:title="Keep track when processing files. ">
<polygon fill="white" stroke="red" points="1139.5,-112.5 1139.5,-131.5 1186.5,-131.5 1186.5,-112.5 1139.5,-112.5"/>
<text text-anchor="middle" x="1163" y="-119.5" font-family="Helvetica,sans-Serif" font-size="10.00">state.h</text>
</a>
</g>
</g>
<!-- Node1&#45;&gt;Node21 -->
<g id="edge31" class="edge"><title>Node1&#45;&gt;Node21</title>
<path fill="none" stroke="midnightblue" d="M658.107,-176.036C728.555,-172.851 946.689,-161.154 1125,-132 1126.46,-131.761 1127.95,-131.497 1129.46,-131.214"/>
<polygon fill="midnightblue" stroke="midnightblue" points="1130.32,-134.61 1139.39,-129.137 1128.88,-127.758 1130.32,-134.61"/>
</g>
<!-- Node22 -->
<g id="node22" class="node"><title>Node22</title>
<g id="a_node22"><a xlink:href="mutt__notmuch_8h.html" target="_top" xlink:title="Notmuch virtual mailbox type. ">
<polygon fill="white" stroke="red" points="955,-112.5 955,-131.5 1083,-131.5 1083,-112.5 955,-112.5"/>
<text text-anchor="middle" x="1019" y="-119.5" font-family="Helvetica,sans-Serif" font-size="10.00">notmuch/mutt_notmuch.h</text>
</a>
</g>
</g>
<!-- Node1&#45;&gt;Node22 -->
<g id="edge32" class="edge"><title>Node1&#45;&gt;Node22</title>
<path fill="none" stroke="midnightblue" d="M658.156,-173.744C714.442,-165.828 860.268,-145.322 948.351,-132.935"/>
<polygon fill="midnightblue" stroke="midnightblue" points="948.854,-136.399 958.27,-131.54 947.88,-129.467 948.854,-136.399"/>
</g>
<!-- Node10&#45;&gt;Node5 -->
<g id="edge10" class="edge"><title>Node10&#45;&gt;Node5</title>
<path fill="none" stroke="midnightblue" d="M1165.84,-61.7033C1105.71,-52.7584 938.934,-27.9489 863.243,-16.6891"/>
<polygon fill="midnightblue" stroke="midnightblue" points="863.594,-13.2028 853.188,-15.1932 862.564,-20.1266 863.594,-13.2028"/>
</g>
<!-- Node12&#45;&gt;Node5 -->
<g id="edge13" class="edge"><title>Node12&#45;&gt;Node5</title>
<path fill="none" stroke="midnightblue" d="M547.589,-58.0148C550.758,-57.3044 553.943,-56.6179 557,-56 638.335,-39.5585 734.412,-24.4678 786.582,-16.6326"/>
<polygon fill="midnightblue" stroke="midnightblue" points="787.347,-20.0573 796.72,-15.1185 786.313,-13.1341 787.347,-20.0573"/>
</g>
<!-- Node13&#45;&gt;Node5 -->
<g id="edge15" class="edge"><title>Node13&#45;&gt;Node5</title>
<path fill="none" stroke="midnightblue" d="M346.415,-112.236C345.998,-98.0122 347.493,-70.0784 364,-56 395.906,-28.7889 681.869,-16.0457 786.701,-12.2588"/>
<polygon fill="midnightblue" stroke="midnightblue" points="786.973,-15.7515 796.843,-11.9001 786.725,-8.75586 786.973,-15.7515"/>
</g>
<!-- Node13&#45;&gt;Node7 -->
<g id="edge16" class="edge"><title>Node13&#45;&gt;Node7</title>
<path fill="none" stroke="midnightblue" d="M331.737,-112.324C316.779,-103.822 293.745,-90.7288 276.273,-80.7975"/>
<polygon fill="midnightblue" stroke="midnightblue" points="277.649,-77.5534 267.226,-75.6545 274.19,-83.639 277.649,-77.5534"/>
</g>
<!-- Node13&#45;&gt;Node8 -->
<g id="edge17" class="edge"><title>Node13&#45;&gt;Node8</title>
<path fill="none" stroke="midnightblue" d="M356.319,-112.324C364.893,-104.341 377.812,-92.3128 388.188,-82.6529"/>
<polygon fill="midnightblue" stroke="midnightblue" points="390.578,-85.2098 395.512,-75.8339 385.808,-80.0865 390.578,-85.2098"/>
</g>
<!-- Node14&#45;&gt;Node5 -->
<g id="edge19" class="edge"><title>Node14&#45;&gt;Node5</title>
<path fill="none" stroke="midnightblue" d="M622.219,-58.305C625.516,-57.5262 628.832,-56.7445 632,-56 685.805,-43.3558 748.082,-28.8605 787.011,-19.8163"/>
<polygon fill="midnightblue" stroke="midnightblue" points="787.917,-23.1992 796.866,-17.5275 786.333,-16.3807 787.917,-23.1992"/>
</g>
<!-- Node15&#45;&gt;Node5 -->
<g id="edge21" class="edge"><title>Node15&#45;&gt;Node5</title>
<path fill="none" stroke="midnightblue" d="M692.036,-56.4435C718.616,-47.3591 760.809,-32.9388 790.523,-22.7831"/>
<polygon fill="midnightblue" stroke="midnightblue" points="791.751,-26.0625 800.082,-19.5164 789.487,-19.4386 791.751,-26.0625"/>
</g>
<!-- Node17&#45;&gt;Node5 -->
<g id="edge24" class="edge"><title>Node17&#45;&gt;Node5</title>
<path fill="none" stroke="midnightblue" d="M752.817,-56.324C766.233,-47.9002 786.824,-34.9709 802.586,-25.0741"/>
<polygon fill="midnightblue" stroke="midnightblue" points="804.609,-27.9364 811.217,-19.6545 800.887,-22.0081 804.609,-27.9364"/>
</g>
<!-- Node18&#45;&gt;Node5 -->
<g id="edge26" class="edge"><title>Node18&#45;&gt;Node5</title>
<path fill="none" stroke="midnightblue" d="M957.749,-58.1609C932.916,-49.3386 889.303,-33.8444 858.868,-23.032"/>
<polygon fill="midnightblue" stroke="midnightblue" points="859.693,-19.6108 849.098,-19.5611 857.349,-26.2069 859.693,-19.6108"/>
</g>
<!-- Node19&#45;&gt;Node5 -->
<g id="edge28" class="edge"><title>Node19&#45;&gt;Node5</title>
<path fill="none" stroke="midnightblue" d="M825,-56.083C825,-49.0059 825,-38.8611 825,-29.9865"/>
<polygon fill="midnightblue" stroke="midnightblue" points="828.5,-29.751 825,-19.7511 821.5,-29.7511 828.5,-29.751"/>
</g>
<!-- Node20&#45;&gt;Node5 -->
<g id="edge30" class="edge"><title>Node20&#45;&gt;Node5</title>
<path fill="none" stroke="midnightblue" d="M898.022,-56.324C884.45,-47.9002 863.62,-34.9709 847.675,-25.0741"/>
<polygon fill="midnightblue" stroke="midnightblue" points="849.286,-21.9544 838.943,-19.6545 845.594,-27.9019 849.286,-21.9544"/>
</g>
<!-- Node22&#45;&gt;Node5 -->
<g id="edge33" class="edge"><title>Node22&#45;&gt;Node5</title>
<path fill="none" stroke="midnightblue" d="M1019.81,-112.089C1020.54,-98.1648 1019.77,-71.2635 1005,-56 985.633,-35.986 910.301,-22.4779 863.448,-15.8183"/>
<polygon fill="midnightblue" stroke="midnightblue" points="863.726,-12.3237 853.342,-14.425 862.77,-19.2581 863.726,-12.3237"/>
</g>
<!-- Node22&#45;&gt;Node18 -->
<g id="edge34" class="edge"><title>Node22&#45;&gt;Node18</title>
<path fill="none" stroke="midnightblue" d="M1012.06,-112.083C1006.07,-104.377 997.248,-93.0333 989.952,-83.6531"/>
<polygon fill="midnightblue" stroke="midnightblue" points="992.709,-81.4958 983.806,-75.7511 987.183,-85.7934 992.709,-81.4958"/>
</g>
</g>
</svg>
