<?xml version="1.0" encoding="UTF-8" standalone="no"?>
<!DOCTYPE svg PUBLIC "-//W3C//DTD SVG 1.1//EN"
 "http://www.w3.org/Graphics/SVG/1.1/DTD/svg11.dtd">
<!-- Generated by graphviz version 2.36.0 (20140111.2315)
 -->
<!-- Title: mutt_copy_header Pages: 1 -->
<svg width="264pt" height="142pt"
 viewBox="0.00 0.00 264.00 142.00" xmlns="http://www.w3.org/2000/svg" xmlns:xlink="http://www.w3.org/1999/xlink">
<g id="graph0" class="graph" transform="scale(1 1) rotate(0) translate(4 138)">
<title>mutt_copy_header</title>
<polygon fill="white" stroke="none" points="-4,4 -4,-138 260,-138 260,4 -4,4"/>
<!-- Node1 -->
<g id="node1" class="node"><title>Node1</title>
<polygon fill="#bfbfbf" stroke="black" points="0.5,-57.5 0.5,-76.5 97.5,-76.5 97.5,-57.5 0.5,-57.5"/>
<text text-anchor="middle" x="49" y="-64.5" font-family="Helvetica,sans-Serif" font-size="10.00">mutt_copy_header</text>
</g>
<!-- Node2 -->
<g id="node2" class="node"><title>Node2</title>
<g id="a_node2"><a xlink:href="copy_8h.html#a83d41783f47bc19055f396db29a6ceb6" target="_top" xlink:title="make a copy of a message from a FILE pointer ">
<polygon fill="white" stroke="red" points="134.5,-114.5 134.5,-133.5 255.5,-133.5 255.5,-114.5 134.5,-114.5"/>
<text text-anchor="middle" x="195" y="-121.5" font-family="Helvetica,sans-Serif" font-size="10.00">mutt_copy_message_fp</text>
</a>
</g>
</g>
<!-- Node1&#45;&gt;Node2 -->
<g id="edge1" class="edge"><title>Node1&#45;&gt;Node2</title>
<path fill="none" stroke="midnightblue" d="M78.7805,-81.0379C94.8353,-88.6096 115.309,-97.8415 134,-105 142.775,-108.361 152.426,-111.608 161.373,-114.438"/>
<polygon fill="midnightblue" stroke="midnightblue" points="79.9434,-77.715 69.4105,-76.5714 76.9313,-84.0339 79.9434,-77.715"/>
</g>
<!-- Node3 -->
<g id="node3" class="node"><title>Node3</title>
<g id="a_node3"><a xlink:href="pattern_8c.html#a945a2a83eee776e1b5dd8bb58f8b3b3e" target="_top" xlink:title="Search an email. ">
<polygon fill="white" stroke="red" points="160,-76.5 160,-95.5 230,-95.5 230,-76.5 160,-76.5"/>
<text text-anchor="middle" x="195" y="-83.5" font-family="Helvetica,sans-Serif" font-size="10.00">msg_search</text>
</a>
</g>
</g>
<!-- Node1&#45;&gt;Node3 -->
<g id="edge2" class="edge"><title>Node1&#45;&gt;Node3</title>
<path fill="none" stroke="midnightblue" d="M107.754,-74.6203C125.374,-76.9452 144.18,-79.4266 159.72,-81.4769"/>
<polygon fill="midnightblue" stroke="midnightblue" points="107.922,-71.1122 97.5501,-73.274 107.006,-78.0521 107.922,-71.1122"/>
</g>
<!-- Node4 -->
<g id="node4" class="node"><title>Node4</title>
<g id="a_node4"><a xlink:href="recvcmd_8c.html#adfb04a6c8b5a04730eb551224096b9ff" target="_top" xlink:title="Write an email header to a file, optionally quoting it. ">
<polygon fill="white" stroke="red" points="154,-38.5 154,-57.5 236,-57.5 236,-38.5 154,-38.5"/>
<text text-anchor="middle" x="195" y="-45.5" font-family="Helvetica,sans-Serif" font-size="10.00">include_header</text>
</a>
</g>
</g>
<!-- Node1&#45;&gt;Node4 -->
<g id="edge3" class="edge"><title>Node1&#45;&gt;Node4</title>
<path fill="none" stroke="midnightblue" d="M107.551,-59.4065C123.021,-57.3653 139.419,-55.2016 153.728,-53.3137"/>
<polygon fill="midnightblue" stroke="midnightblue" points="107.006,-55.9479 97.5501,-60.726 107.922,-62.8878 107.006,-55.9479"/>
</g>
<!-- Node5 -->
<g id="node5" class="node"><title>Node5</title>
<g id="a_node5"><a xlink:href="sendlib_8c.html#a9a653a3e76847d5e165a910082e246cf" target="_top" xlink:title="Bounce an email message. ">
<polygon fill="white" stroke="red" points="148.5,-0.5 148.5,-19.5 241.5,-19.5 241.5,-0.5 148.5,-0.5"/>
<text text-anchor="middle" x="195" y="-7.5" font-family="Helvetica,sans-Serif" font-size="10.00">bounce_message</text>
</a>
</g>
</g>
<!-- Node1&#45;&gt;Node5 -->
<g id="edge4" class="edge"><title>Node1&#45;&gt;Node5</title>
<path fill="none" stroke="midnightblue" d="M78.7805,-52.9621C94.8353,-45.3904 115.309,-36.1585 134,-29 142.775,-25.6392 152.426,-22.3922 161.373,-19.5619"/>
<polygon fill="midnightblue" stroke="midnightblue" points="76.9313,-49.9661 69.4105,-57.4286 79.9434,-56.285 76.9313,-49.9661"/>
</g>
</g>
</svg>
