<?xml version="1.0" encoding="UTF-8" standalone="no"?>
<!DOCTYPE svg PUBLIC "-//W3C//DTD SVG 1.1//EN"
 "http://www.w3.org/Graphics/SVG/1.1/DTD/svg11.dtd">
<!-- Generated by graphviz version 2.36.0 (20140111.2315)
 -->
<!-- Title: crypt_copy_key Pages: 1 -->
<svg width="360pt" height="75pt"
 viewBox="0.00 0.00 360.00 75.00" xmlns="http://www.w3.org/2000/svg" xmlns:xlink="http://www.w3.org/1999/xlink">
<g id="graph0" class="graph" transform="scale(1 1) rotate(0) translate(4 71)">
<title>crypt_copy_key</title>
<polygon fill="white" stroke="none" points="-4,4 -4,-71 356,-71 356,4 -4,4"/>
<!-- Node1 -->
<g id="node1" class="node"><title>Node1</title>
<polygon fill="#bfbfbf" stroke="black" points="0,-28.5 0,-47.5 86,-47.5 86,-28.5 0,-28.5"/>
<text text-anchor="middle" x="43" y="-35.5" font-family="Helvetica,sans-Serif" font-size="10.00">crypt_copy_key</text>
</g>
<!-- Node2 -->
<g id="node2" class="node"><title>Node2</title>
<g id="a_node2"><a xlink:href="crypt__gpgme_8c.html#a53af74e6bda99d7d997ee5ad0ef4db0a" target="_top" xlink:title="Get the user to select a key. ">
<polygon fill="white" stroke="black" points="122.5,-28.5 122.5,-47.5 213.5,-47.5 213.5,-28.5 122.5,-28.5"/>
<text text-anchor="middle" x="168" y="-35.5" font-family="Helvetica,sans-Serif" font-size="10.00">crypt_select_key</text>
</a>
</g>
</g>
<!-- Node1&#45;&gt;Node2 -->
<g id="edge1" class="edge"><title>Node1&#45;&gt;Node2</title>
<path fill="none" stroke="midnightblue" d="M96.3801,-38C105.076,-38 114.02,-38 122.496,-38"/>
<polygon fill="midnightblue" stroke="midnightblue" points="96.3297,-34.5001 86.3296,-38 96.3296,-41.5001 96.3297,-34.5001"/>
</g>
<!-- Node3 -->
<g id="node3" class="node"><title>Node3</title>
<g id="a_node3"><a xlink:href="crypt__gpgme_8c.html#ac348259b46efd26c645dcc642617a985" target="_top" xlink:title="Find a key by email address. ">
<polygon fill="white" stroke="red" points="250,-47.5 250,-66.5 352,-66.5 352,-47.5 250,-47.5"/>
<text text-anchor="middle" x="301" y="-54.5" font-family="Helvetica,sans-Serif" font-size="10.00">crypt_getkeybyaddr</text>
</a>
</g>
</g>
<!-- Node1&#45;&gt;Node3 -->
<g id="edge4" class="edge"><title>Node1&#45;&gt;Node3</title>
<path fill="none" stroke="midnightblue" d="M85.5089,-50.0561C97.2067,-52.9204 110.013,-55.561 122,-57 164.956,-62.1564 214.163,-61.673 249.938,-60.1762"/>
<polygon fill="midnightblue" stroke="midnightblue" points="86.1185,-46.5993 75.5626,-47.506 84.38,-53.3799 86.1185,-46.5993"/>
</g>
<!-- Node4 -->
<g id="node4" class="node"><title>Node4</title>
<g id="a_node4"><a xlink:href="crypt__gpgme_8c.html#ab76dd341f3dafb968e9467a0cfb8b4ca" target="_top" xlink:title="Find a key by string. ">
<polygon fill="white" stroke="red" points="253.5,-0.5 253.5,-19.5 348.5,-19.5 348.5,-0.5 253.5,-0.5"/>
<text text-anchor="middle" x="301" y="-7.5" font-family="Helvetica,sans-Serif" font-size="10.00">crypt_getkeybystr</text>
</a>
</g>
</g>
<!-- Node1&#45;&gt;Node4 -->
<g id="edge5" class="edge"><title>Node1&#45;&gt;Node4</title>
<path fill="none" stroke="midnightblue" d="M87.1634,-25.9516C98.4211,-23.2327 110.596,-20.6621 122,-19 166.244,-12.5516 217.253,-10.5153 253.293,-9.96488"/>
<polygon fill="midnightblue" stroke="midnightblue" points="85.9788,-22.6402 77.131,-28.4683 87.6821,-29.4299 85.9788,-22.6402"/>
</g>
<!-- Node2&#45;&gt;Node3 -->
<g id="edge2" class="edge"><title>Node2&#45;&gt;Node3</title>
<path fill="none" stroke="midnightblue" d="M223.664,-45.9284C232.27,-47.1766 241.133,-48.4621 249.636,-49.6953"/>
<polygon fill="midnightblue" stroke="midnightblue" points="224.115,-42.4573 213.716,-44.4856 223.11,-49.3848 224.115,-42.4573"/>
</g>
<!-- Node2&#45;&gt;Node4 -->
<g id="edge3" class="edge"><title>Node2&#45;&gt;Node4</title>
<path fill="none" stroke="midnightblue" d="M223.711,-26.306C234.298,-24.0431 245.272,-21.6975 255.485,-19.5146"/>
<polygon fill="midnightblue" stroke="midnightblue" points="222.764,-22.9293 213.716,-28.4423 224.227,-29.7747 222.764,-22.9293"/>
</g>
</g>
</svg>
