<?xml version="1.0" encoding="UTF-8" standalone="no"?>
<!DOCTYPE svg PUBLIC "-//W3C//DTD SVG 1.1//EN"
 "http://www.w3.org/Graphics/SVG/1.1/DTD/svg11.dtd">
<!-- Generated by graphviz version 2.36.0 (20140111.2315)
 -->
<!-- Title: encrypt_gpgme_object Pages: 1 -->
<svg width="432pt" height="200pt"
 viewBox="0.00 0.00 432.00 199.99" xmlns="http://www.w3.org/2000/svg" xmlns:xlink="http://www.w3.org/1999/xlink">
<g id="graph0" class="graph" transform="scale(1 1) rotate(0) translate(4 195.989)">
<title>encrypt_gpgme_object</title>
<polygon fill="white" stroke="none" points="-4,4 -4,-195.989 428,-195.989 428,4 -4,4"/>
<!-- Node1 -->
<g id="node1" class="node"><title>Node1</title>
<polygon fill="#bfbfbf" stroke="black" points="0.5,-95.5 0.5,-114.5 115.5,-114.5 115.5,-95.5 0.5,-95.5"/>
<text text-anchor="middle" x="58" y="-102.5" font-family="Helvetica,sans-Serif" font-size="10.00">encrypt_gpgme_object</text>
</g>
<!-- Node2 -->
<g id="node2" class="node"><title>Node2</title>
<g id="a_node2"><a xlink:href="crypt__gpgme_8c.html#a31d59710ce616d9e2acea30f70294362" target="_top" xlink:title="Create a new GPGME context. ">
<polygon fill="white" stroke="red" points="308,-152.5 308,-171.5 424,-171.5 424,-152.5 308,-152.5"/>
<text text-anchor="middle" x="366" y="-159.5" font-family="Helvetica,sans-Serif" font-size="10.00">create_gpgme_context</text>
</a>
</g>
</g>
<!-- Node1&#45;&gt;Node2 -->
<g id="edge1" class="edge"><title>Node1&#45;&gt;Node2</title>
<path fill="none" stroke="midnightblue" d="M66.687,-114.623C81.1819,-131.901 114.488,-167.622 152,-181 210.92,-202.013 284.55,-187.135 328.004,-174.508"/>
<polygon fill="midnightblue" stroke="midnightblue" points="329.289,-177.776 337.85,-171.534 327.265,-171.075 329.289,-177.776"/>
</g>
<!-- Node3 -->
<g id="node3" class="node"><title>Node3</title>
<g id="a_node3"><a xlink:href="crypt__gpgme_8c.html#a433e35eb7b66902025d1a6eced7c17c8" target="_top" xlink:title="Create a new GPGME data object. ">
<polygon fill="white" stroke="red" points="161,-152.5 161,-171.5 263,-171.5 263,-152.5 161,-152.5"/>
<text text-anchor="middle" x="212" y="-159.5" font-family="Helvetica,sans-Serif" font-size="10.00">create_gpgme_data</text>
</a>
</g>
</g>
<!-- Node1&#45;&gt;Node3 -->
<g id="edge2" class="edge"><title>Node1&#45;&gt;Node3</title>
<path fill="none" stroke="midnightblue" d="M80.9878,-114.539C99.7167,-122.53 127.421,-134.036 152,-143 157.905,-145.154 164.186,-147.313 170.365,-149.365"/>
<polygon fill="midnightblue" stroke="midnightblue" points="169.329,-152.708 179.922,-152.482 171.5,-146.053 169.329,-152.708"/>
</g>
<!-- Node4 -->
<g id="node4" class="node"><title>Node4</title>
<g id="a_node4"><a xlink:href="crypt__gpgme_8c.html#a0f56893e2d452f3c81f0cb2e5bed2580" target="_top" xlink:title="Make sure that the correct signer is set. ">
<polygon fill="white" stroke="black" points="181,-114.5 181,-133.5 243,-133.5 243,-114.5 181,-114.5"/>
<text text-anchor="middle" x="212" y="-121.5" font-family="Helvetica,sans-Serif" font-size="10.00">set_signer</text>
</a>
</g>
</g>
<!-- Node1&#45;&gt;Node4 -->
<g id="edge3" class="edge"><title>Node1&#45;&gt;Node4</title>
<path fill="none" stroke="midnightblue" d="M115.599,-112.075C133.913,-114.364 153.837,-116.855 170.718,-118.965"/>
<polygon fill="midnightblue" stroke="midnightblue" points="170.437,-122.457 180.794,-120.224 171.305,-115.511 170.437,-122.457"/>
</g>
<!-- Node5 -->
<g id="node5" class="node"><title>Node5</title>
<g id="a_node5"><a xlink:href="crypt__gpgme_8c.html#a0a360c190938728cf8cbc2ee1befa057" target="_top" xlink:title="Set the signature notation. ">
<polygon fill="white" stroke="black" points="157.5,-76.5 157.5,-95.5 266.5,-95.5 266.5,-76.5 157.5,-76.5"/>
<text text-anchor="middle" x="212" y="-83.5" font-family="Helvetica,sans-Serif" font-size="10.00">set_pka_sig_notation</text>
</a>
</g>
</g>
<!-- Node1&#45;&gt;Node5 -->
<g id="edge5" class="edge"><title>Node1&#45;&gt;Node5</title>
<path fill="none" stroke="midnightblue" d="M115.599,-97.9251C125.961,-96.6298 136.839,-95.2701 147.39,-93.9513"/>
<polygon fill="midnightblue" stroke="midnightblue" points="147.888,-97.4163 157.377,-92.7029 147.02,-90.4703 147.888,-97.4163"/>
</g>
<!-- Node6 -->
<g id="node6" class="node"><title>Node6</title>
<g id="a_node6"><a xlink:href="crypt__gpgme_8c.html#acde3260a9e30d9ffd4fa5a62f19620a9" target="_top" xlink:title="accommodate for a redraw if needed ">
<polygon fill="white" stroke="red" points="165.5,-38.5 165.5,-57.5 258.5,-57.5 258.5,-38.5 165.5,-38.5"/>
<text text-anchor="middle" x="212" y="-45.5" font-family="Helvetica,sans-Serif" font-size="10.00">redraw_if_needed</text>
</a>
</g>
</g>
<!-- Node1&#45;&gt;Node6 -->
<g id="edge6" class="edge"><title>Node1&#45;&gt;Node6</title>
<path fill="none" stroke="midnightblue" d="M80.9878,-95.4609C99.7167,-87.4698 127.421,-75.9643 152,-67 157.905,-64.8465 164.186,-62.6866 170.365,-60.6354"/>
<polygon fill="midnightblue" stroke="midnightblue" points="171.5,-63.9467 179.922,-57.518 169.329,-57.2918 171.5,-63.9467"/>
</g>
<!-- Node7 -->
<g id="node7" class="node"><title>Node7</title>
<g id="a_node7"><a xlink:href="crypt__gpgme_8c.html#adf7cfc215501ef8a701a722e76497b0e" target="_top" xlink:title="Copy a data object to a temporary file. ">
<polygon fill="white" stroke="red" points="152,-0.5 152,-19.5 272,-19.5 272,-0.5 152,-0.5"/>
<text text-anchor="middle" x="212" y="-7.5" font-family="Helvetica,sans-Serif" font-size="10.00">data_object_to_tempfile</text>
</a>
</g>
</g>
<!-- Node1&#45;&gt;Node7 -->
<g id="edge7" class="edge"><title>Node1&#45;&gt;Node7</title>
<path fill="none" stroke="midnightblue" d="M68.1621,-95.4745C83.9139,-79.599 117.75,-47.6372 152,-29 155.935,-26.859 160.149,-24.9119 164.449,-23.1523"/>
<polygon fill="midnightblue" stroke="midnightblue" points="165.79,-26.3875 173.923,-19.5972 163.331,-19.8338 165.79,-26.3875"/>
</g>
<!-- Node4&#45;&gt;Node2 -->
<g id="edge4" class="edge"><title>Node4&#45;&gt;Node2</title>
<path fill="none" stroke="midnightblue" d="M243.03,-131.508C264.17,-136.792 292.91,-143.978 317.182,-150.046"/>
<polygon fill="midnightblue" stroke="midnightblue" points="316.379,-153.452 326.929,-152.482 318.076,-146.661 316.379,-153.452"/>
</g>
</g>
</svg>
