<?xml version="1.0" encoding="UTF-8" standalone="no"?>
<!DOCTYPE svg PUBLIC "-//W3C//DTD SVG 1.1//EN"
 "http://www.w3.org/Graphics/SVG/1.1/DTD/svg11.dtd">
<!-- Generated by graphviz version 2.36.0 (20140111.2315)
 -->
<!-- Title: find_keys Pages: 1 -->
<svg width="468pt" height="572pt"
 viewBox="0.00 0.00 468.00 572.00" xmlns="http://www.w3.org/2000/svg" xmlns:xlink="http://www.w3.org/1999/xlink">
<g id="graph0" class="graph" transform="scale(1 1) rotate(0) translate(4 568)">
<title>find_keys</title>
<polygon fill="white" stroke="none" points="-4,4 -4,-568 464,-568 464,4 -4,4"/>
<!-- Node1 -->
<g id="node1" class="node"><title>Node1</title>
<polygon fill="#bfbfbf" stroke="black" points="0.5,-266.5 0.5,-285.5 59.5,-285.5 59.5,-266.5 0.5,-266.5"/>
<text text-anchor="middle" x="30" y="-273.5" font-family="Helvetica,sans-Serif" font-size="10.00">find_keys</text>
</g>
<!-- Node2 -->
<g id="node2" class="node"><title>Node2</title>
<g id="a_node2"><a xlink:href="sendlib_8c.html#a2b5c4f6a3ed63bac7f4d59bbeca72d2c" target="_top" xlink:title="Get the Fully&#45;Qualified Domain Name. ">
<polygon fill="white" stroke="black" points="117,-544.5 117,-563.5 177,-563.5 177,-544.5 117,-544.5"/>
<text text-anchor="middle" x="147" y="-551.5" font-family="Helvetica,sans-Serif" font-size="10.00">mutt_fqdn</text>
</a>
</g>
</g>
<!-- Node1&#45;&gt;Node2 -->
<g id="edge1" class="edge"><title>Node1&#45;&gt;Node2</title>
<path fill="none" stroke="midnightblue" d="M30.4637,-285.656C28.933,-322.905 28.3851,-458.952 96,-535 99.2606,-538.667 103.306,-541.63 107.672,-544.023"/>
<polygon fill="midnightblue" stroke="midnightblue" points="106.382,-547.28 116.939,-548.178 109.246,-540.893 106.382,-547.28"/>
</g>
<!-- Node3 -->
<g id="node3" class="node"><title>Node3</title>
<g id="a_node3"><a xlink:href="hook_8c.html#adce4d617e1b3ef99bec1a7969dd08a43" target="_top" xlink:title="Find crypto hooks for an Address. ">
<polygon fill="white" stroke="red" points="102.5,-506.5 102.5,-525.5 191.5,-525.5 191.5,-506.5 102.5,-506.5"/>
<text text-anchor="middle" x="147" y="-513.5" font-family="Helvetica,sans-Serif" font-size="10.00">mutt_crypt_hook</text>
</a>
</g>
</g>
<!-- Node1&#45;&gt;Node3 -->
<g id="edge2" class="edge"><title>Node1&#45;&gt;Node3</title>
<path fill="none" stroke="midnightblue" d="M30.9667,-285.857C31.3868,-319.857 37.3159,-433.608 96,-497 97.3484,-498.457 98.8202,-499.802 100.385,-501.046"/>
<polygon fill="midnightblue" stroke="midnightblue" points="98.5382,-504.019 108.851,-506.448 102.304,-498.118 98.5382,-504.019"/>
</g>
<!-- Node4 -->
<g id="node4" class="node"><title>Node4</title>
<g id="a_node4"><a xlink:href="curs__lib_8c.html#a2ac481c92c3c888c1f658696909a3430" target="_top" xlink:title="Ask the user a Yes/No question. ">
<polygon fill="white" stroke="red" points="109,-468.5 109,-487.5 185,-487.5 185,-468.5 109,-468.5"/>
<text text-anchor="middle" x="147" y="-475.5" font-family="Helvetica,sans-Serif" font-size="10.00">mutt_yesorno</text>
</a>
</g>
</g>
<!-- Node1&#45;&gt;Node4 -->
<g id="edge3" class="edge"><title>Node1&#45;&gt;Node4</title>
<path fill="none" stroke="midnightblue" d="M31.7273,-285.741C34.4612,-315.576 46.6549,-406.77 96,-458 97.816,-459.885 99.833,-461.598 101.985,-463.152"/>
<polygon fill="midnightblue" stroke="midnightblue" points="100.432,-466.3 110.817,-468.397 104.006,-460.282 100.432,-466.3"/>
</g>
<!-- Node5 -->
<g id="node5" class="node"><title>Node5</title>
<g id="a_node5"><a xlink:href="crypt_8c.html#a3230991ab72820135b5ba8fe94a5f43d" target="_top" xlink:title="Is this a numerical keyid. ">
<polygon fill="white" stroke="black" points="98,-419 98,-449 196,-449 196,-419 98,-419"/>
<text text-anchor="start" x="106" y="-437" font-family="Helvetica,sans-Serif" font-size="10.00">crypt_is_numerical</text>
<text text-anchor="middle" x="147" y="-426" font-family="Helvetica,sans-Serif" font-size="10.00">_keyid</text>
</a>
</g>
</g>
<!-- Node1&#45;&gt;Node5 -->
<g id="edge4" class="edge"><title>Node1&#45;&gt;Node5</title>
<path fill="none" stroke="midnightblue" d="M33.8749,-285.767C41.0502,-308.766 61.6781,-367.167 96,-404 99.0722,-407.297 102.588,-410.354 106.3,-413.156"/>
<polygon fill="midnightblue" stroke="midnightblue" points="104.416,-416.108 114.643,-418.874 108.373,-410.334 104.416,-416.108"/>
</g>
<!-- Node6 -->
<g id="node6" class="node"><title>Node6</title>
<g id="a_node6"><a xlink:href="email_2address_8c.html#abc55e4ec2195cdbfc45eaa22cbce9c64" target="_top" xlink:title="Parse a list of email addresses. ">
<polygon fill="white" stroke="red" points="234.5,-380.5 234.5,-399.5 341.5,-399.5 341.5,-380.5 234.5,-380.5"/>
<text text-anchor="middle" x="288" y="-387.5" font-family="Helvetica,sans-Serif" font-size="10.00">mutt_addr_parse_list</text>
</a>
</g>
</g>
<!-- Node1&#45;&gt;Node6 -->
<g id="edge5" class="edge"><title>Node1&#45;&gt;Node6</title>
<path fill="none" stroke="midnightblue" d="M39.6995,-285.909C51.3293,-298.574 73.1437,-320.366 96,-333 136.034,-355.13 185.65,-369.603 224.278,-378.427"/>
<polygon fill="midnightblue" stroke="midnightblue" points="223.835,-381.914 234.356,-380.659 225.349,-375.079 223.835,-381.914"/>
</g>
<!-- Node7 -->
<g id="node7" class="node"><title>Node7</title>
<g id="a_node7"><a xlink:href="email_2address_8c.html#a261c737f5760766b245e5e8506b11b12" target="_top" xlink:title="Free a list of Addresses. ">
<polygon fill="white" stroke="red" points="378,-380.5 378,-399.5 460,-399.5 460,-380.5 378,-380.5"/>
<text text-anchor="middle" x="419" y="-387.5" font-family="Helvetica,sans-Serif" font-size="10.00">mutt_addr_free</text>
</a>
</g>
</g>
<!-- Node1&#45;&gt;Node7 -->
<g id="edge12" class="edge"><title>Node1&#45;&gt;Node7</title>
<path fill="none" stroke="midnightblue" d="M35.386,-285.722C44.1939,-304.153 65.8046,-344.275 96,-366 148.147,-403.519 170.489,-399.334 234,-409 281.454,-416.222 294.36,-414.865 342,-409 353.693,-407.561 366.175,-404.92 377.573,-402.055"/>
<polygon fill="midnightblue" stroke="midnightblue" points="378.483,-405.435 387.263,-399.505 376.701,-398.666 378.483,-405.435"/>
</g>
<!-- Node8 -->
<g id="node8" class="node"><title>Node8</title>
<g id="a_node8"><a xlink:href="email_2address_8c.html#ac4e28048c66d87462bf941c89bfaf08a" target="_top" xlink:title="Expand local names in an Address list using a hostname. ">
<polygon fill="white" stroke="red" points="100,-114.5 100,-133.5 194,-133.5 194,-114.5 100,-114.5"/>
<text text-anchor="middle" x="147" y="-121.5" font-family="Helvetica,sans-Serif" font-size="10.00">mutt_addr_qualify</text>
</a>
</g>
</g>
<!-- Node1&#45;&gt;Node8 -->
<g id="edge7" class="edge"><title>Node1&#45;&gt;Node8</title>
<path fill="none" stroke="midnightblue" d="M33.5531,-266.361C40.15,-243.133 59.8267,-183.373 96,-148 99.7756,-144.308 104.228,-141.096 108.895,-138.329"/>
<polygon fill="midnightblue" stroke="midnightblue" points="110.782,-141.291 118.01,-133.544 107.529,-135.093 110.782,-141.291"/>
</g>
<!-- Node9 -->
<g id="node9" class="node"><title>Node9</title>
<g id="a_node9"><a xlink:href="mutt_2string_8c.html#aca11f88d08a860c07419df3efb18f35a" target="_top" xlink:title="Calculate the length of a string, safely. ">
<polygon fill="white" stroke="black" points="247,-95.5 247,-114.5 329,-114.5 329,-95.5 247,-95.5"/>
<text text-anchor="middle" x="288" y="-102.5" font-family="Helvetica,sans-Serif" font-size="10.00">mutt_str_strlen</text>
</a>
</g>
</g>
<!-- Node1&#45;&gt;Node9 -->
<g id="edge22" class="edge"><title>Node1&#45;&gt;Node9</title>
<path fill="none" stroke="midnightblue" d="M31.1721,-266.398C32.2943,-236.282 40.3117,-143.408 96,-105 140.635,-74.2153 206.176,-82.7575 247.705,-92.947"/>
<polygon fill="midnightblue" stroke="midnightblue" points="246.904,-96.355 257.462,-95.48 248.663,-89.5796 246.904,-96.355"/>
</g>
<!-- Node10 -->
<g id="node10" class="node"><title>Node10</title>
<g id="a_node10"><a xlink:href="crypt__gpgme_8c.html#ab76dd341f3dafb968e9467a0cfb8b4ca" target="_top" xlink:title="Find a key by string. ">
<polygon fill="white" stroke="red" points="240.5,-190.5 240.5,-209.5 335.5,-209.5 335.5,-190.5 240.5,-190.5"/>
<text text-anchor="middle" x="288" y="-197.5" font-family="Helvetica,sans-Serif" font-size="10.00">crypt_getkeybystr</text>
</a>
</g>
</g>
<!-- Node1&#45;&gt;Node10 -->
<g id="edge9" class="edge"><title>Node1&#45;&gt;Node10</title>
<path fill="none" stroke="midnightblue" d="M38.6003,-266.313C49.6412,-253.04 71.4931,-229.638 96,-219 138.371,-200.608 190.855,-196.562 230.077,-196.72"/>
<polygon fill="midnightblue" stroke="midnightblue" points="230.212,-200.222 240.258,-196.855 230.306,-193.222 230.212,-200.222"/>
</g>
<!-- Node11 -->
<g id="node11" class="node"><title>Node11</title>
<g id="a_node11"><a xlink:href="list_8c.html#ab5c53ce94cc2aafa4299dbc81a37f4a4" target="_top" xlink:title="Free a List AND its strings. ">
<polygon fill="white" stroke="black" points="381,-266.5 381,-285.5 457,-285.5 457,-266.5 381,-266.5"/>
<text text-anchor="middle" x="419" y="-273.5" font-family="Helvetica,sans-Serif" font-size="10.00">mutt_list_free</text>
</a>
</g>
</g>
<!-- Node1&#45;&gt;Node11 -->
<g id="edge13" class="edge"><title>Node1&#45;&gt;Node11</title>
<path fill="none" stroke="midnightblue" d="M59.7717,-276C125.908,-276 289.296,-276 370.547,-276"/>
<polygon fill="midnightblue" stroke="midnightblue" points="370.978,-279.5 380.978,-276 370.978,-272.5 370.978,-279.5"/>
</g>
<!-- Node12 -->
<g id="node12" class="node"><title>Node12</title>
<g id="a_node12"><a xlink:href="crypt__gpgme_8c.html#ad9e2c90d140db17e217a93238917da08" target="_top" xlink:title="Release all the keys in a list. ">
<polygon fill="white" stroke="black" points="378.5,-190.5 378.5,-209.5 459.5,-209.5 459.5,-190.5 378.5,-190.5"/>
<text text-anchor="middle" x="419" y="-197.5" font-family="Helvetica,sans-Serif" font-size="10.00">crypt_free_key</text>
</a>
</g>
</g>
<!-- Node1&#45;&gt;Node12 -->
<g id="edge24" class="edge"><title>Node1&#45;&gt;Node12</title>
<path fill="none" stroke="midnightblue" d="M35.2294,-266.452C43.7696,-248.458 64.9426,-209.829 96,-193 187.465,-143.438 316.054,-169.611 379.499,-187.615"/>
<polygon fill="midnightblue" stroke="midnightblue" points="378.526,-190.978 389.107,-190.422 380.489,-184.258 378.526,-190.978"/>
</g>
<!-- Node13 -->
<g id="node13" class="node"><title>Node13</title>
<g id="a_node13"><a xlink:href="crypt__gpgme_8c.html#ac348259b46efd26c645dcc642617a985" target="_top" xlink:title="Find a key by email address. ">
<polygon fill="white" stroke="red" points="96,-304.5 96,-323.5 198,-323.5 198,-304.5 96,-304.5"/>
<text text-anchor="middle" x="147" y="-311.5" font-family="Helvetica,sans-Serif" font-size="10.00">crypt_getkeybyaddr</text>
</a>
</g>
</g>
<!-- Node1&#45;&gt;Node13 -->
<g id="edge14" class="edge"><title>Node1&#45;&gt;Node13</title>
<path fill="none" stroke="midnightblue" d="M59.7227,-285.491C74.1301,-290.252 91.7852,-296.086 107.363,-301.233"/>
<polygon fill="midnightblue" stroke="midnightblue" points="106.652,-304.684 117.245,-304.498 108.848,-298.037 106.652,-304.684"/>
</g>
<!-- Node14 -->
<g id="node14" class="node"><title>Node14</title>
<g id="a_node14"><a xlink:href="crypt__gpgme_8c.html#af5bfc9a0bb58a2c9b0285b956c4b8f08" target="_top" xlink:title="Ask the user for a key. ">
<polygon fill="white" stroke="red" points="98.5,-228.5 98.5,-247.5 195.5,-247.5 195.5,-228.5 98.5,-228.5"/>
<text text-anchor="middle" x="147" y="-235.5" font-family="Helvetica,sans-Serif" font-size="10.00">crypt_ask_for_key</text>
</a>
</g>
</g>
<!-- Node1&#45;&gt;Node14 -->
<g id="edge19" class="edge"><title>Node1&#45;&gt;Node14</title>
<path fill="none" stroke="midnightblue" d="M59.7227,-266.509C74.1301,-261.748 91.7852,-255.914 107.363,-250.767"/>
<polygon fill="midnightblue" stroke="midnightblue" points="108.848,-253.963 117.245,-247.502 106.652,-247.316 108.848,-253.963"/>
</g>
<!-- Node15 -->
<g id="node15" class="node"><title>Node15</title>
<g id="a_node15"><a xlink:href="crypt__gpgme_8c.html#a08bc28c85b57ee05a55062eed7f25756" target="_top" xlink:title="Find the fingerprint of a key. ">
<polygon fill="white" stroke="black" points="97.5,-38.5 97.5,-57.5 196.5,-57.5 196.5,-38.5 97.5,-38.5"/>
<text text-anchor="middle" x="147" y="-45.5" font-family="Helvetica,sans-Serif" font-size="10.00">crypt_fpr_or_lkeyid</text>
</a>
</g>
</g>
<!-- Node1&#45;&gt;Node15 -->
<g id="edge21" class="edge"><title>Node1&#45;&gt;Node15</title>
<path fill="none" stroke="midnightblue" d="M31.4592,-266.175C33.4492,-234.247 43.7962,-132.019 96,-72 99.1892,-68.3334 103.064,-65.1797 107.231,-62.4792"/>
<polygon fill="midnightblue" stroke="midnightblue" points="109.036,-65.4799 116.066,-57.5534 105.627,-59.3659 109.036,-65.4799"/>
</g>
<!-- Node16 -->
<g id="node16" class="node"><title>Node16</title>
<g id="a_node16"><a xlink:href="memory_8c.html#af778eb8166966fc0666c64849f6c7c5b" target="_top" xlink:title="Resize a block of memory on the heap. ">
<polygon fill="white" stroke="red" points="98.5,-0.5 98.5,-19.5 195.5,-19.5 195.5,-0.5 98.5,-0.5"/>
<text text-anchor="middle" x="147" y="-7.5" font-family="Helvetica,sans-Serif" font-size="10.00">mutt_mem_realloc</text>
</a>
</g>
</g>
<!-- Node1&#45;&gt;Node16 -->
<g id="edge23" class="edge"><title>Node1&#45;&gt;Node16</title>
<path fill="none" stroke="midnightblue" d="M30.5985,-266.04C29.6741,-229.451 31.3579,-100.872 96,-29 97.1954,-27.6709 98.4937,-26.4343 99.8728,-25.2837"/>
<polygon fill="midnightblue" stroke="midnightblue" points="102.08,-28.0202 108.499,-19.5905 98.2245,-22.178 102.08,-28.0202"/>
</g>
<!-- Node6&#45;&gt;Node7 -->
<g id="edge6" class="edge"><title>Node6&#45;&gt;Node7</title>
<path fill="none" stroke="midnightblue" d="M341.841,-390C350.35,-390 359.138,-390 367.587,-390"/>
<polygon fill="midnightblue" stroke="midnightblue" points="367.684,-393.5 377.684,-390 367.684,-386.5 367.684,-393.5"/>
</g>
<!-- Node8&#45;&gt;Node9 -->
<g id="edge8" class="edge"><title>Node8&#45;&gt;Node9</title>
<path fill="none" stroke="midnightblue" d="M194.285,-117.673C208.012,-115.797 223.104,-113.734 237.052,-111.827"/>
<polygon fill="midnightblue" stroke="midnightblue" points="237.536,-115.294 246.97,-110.472 236.588,-108.358 237.536,-115.294"/>
</g>
<!-- Node10&#45;&gt;Node11 -->
<g id="edge10" class="edge"><title>Node10&#45;&gt;Node11</title>
<path fill="none" stroke="midnightblue" d="M305.338,-209.625C327.438,-222.645 367.063,-245.991 392.941,-261.236"/>
<polygon fill="midnightblue" stroke="midnightblue" points="391.402,-264.392 401.795,-266.453 394.955,-258.361 391.402,-264.392"/>
</g>
<!-- Node10&#45;&gt;Node12 -->
<g id="edge11" class="edge"><title>Node10&#45;&gt;Node12</title>
<path fill="none" stroke="midnightblue" d="M335.572,-200C346.182,-200 357.495,-200 368.232,-200"/>
<polygon fill="midnightblue" stroke="midnightblue" points="368.309,-203.5 378.309,-200 368.309,-196.5 368.309,-203.5"/>
</g>
<!-- Node13&#45;&gt;Node6 -->
<g id="edge16" class="edge"><title>Node13&#45;&gt;Node6</title>
<path fill="none" stroke="midnightblue" d="M170.443,-323.53C179.258,-327.59 189.322,-332.628 198,-338 215.235,-348.669 216.647,-355.524 234,-366 240.042,-369.648 246.735,-373.092 253.272,-376.172"/>
<polygon fill="midnightblue" stroke="midnightblue" points="252.091,-379.48 262.646,-380.406 254.973,-373.1 252.091,-379.48"/>
</g>
<!-- Node13&#45;&gt;Node7 -->
<g id="edge17" class="edge"><title>Node13&#45;&gt;Node7</title>
<path fill="none" stroke="midnightblue" d="M181.922,-323.548C230.622,-337.256 320.382,-362.522 374.09,-377.64"/>
<polygon fill="midnightblue" stroke="midnightblue" points="373.43,-381.09 384.004,-380.431 375.327,-374.352 373.43,-381.09"/>
</g>
<!-- Node13&#45;&gt;Node11 -->
<g id="edge15" class="edge"><title>Node13&#45;&gt;Node11</title>
<path fill="none" stroke="midnightblue" d="M198.358,-308.596C237.584,-304.187 293.363,-297.482 342,-290 351.349,-288.562 361.312,-286.854 370.843,-285.134"/>
<polygon fill="midnightblue" stroke="midnightblue" points="371.762,-288.524 380.965,-283.276 370.497,-281.639 371.762,-288.524"/>
</g>
<!-- Node13&#45;&gt;Node12 -->
<g id="edge18" class="edge"><title>Node13&#45;&gt;Node12</title>
<path fill="none" stroke="midnightblue" d="M170.556,-304.477C218.5,-284.233 330.675,-236.871 385.995,-213.513"/>
<polygon fill="midnightblue" stroke="midnightblue" points="387.468,-216.691 395.319,-209.577 384.745,-210.242 387.468,-216.691"/>
</g>
<!-- Node14&#45;&gt;Node10 -->
<g id="edge20" class="edge"><title>Node14&#45;&gt;Node10</title>
<path fill="none" stroke="midnightblue" d="M183.076,-228.411C201.019,-223.506 223.058,-217.48 242.217,-212.243"/>
<polygon fill="midnightblue" stroke="midnightblue" points="243.213,-215.599 251.936,-209.586 241.367,-208.847 243.213,-215.599"/>
</g>
</g>
</svg>
