<?xml version="1.0" encoding="UTF-8" standalone="no"?>
<!DOCTYPE svg PUBLIC "-//W3C//DTD SVG 1.1//EN"
 "http://www.w3.org/Graphics/SVG/1.1/DTD/svg11.dtd">
<!-- Generated by graphviz version 2.36.0 (20140111.2315)
 -->
<!-- Title: crypt_keyid Pages: 1 -->
<svg width="230pt" height="153pt"
 viewBox="0.00 0.00 230.00 153.00" xmlns="http://www.w3.org/2000/svg" xmlns:xlink="http://www.w3.org/1999/xlink">
<g id="graph0" class="graph" transform="scale(1 1) rotate(0) translate(4 149)">
<title>crypt_keyid</title>
<polygon fill="white" stroke="none" points="-4,4 -4,-149 226,-149 226,4 -4,4"/>
<!-- Node1 -->
<g id="node1" class="node"><title>Node1</title>
<polygon fill="#bfbfbf" stroke="black" points="0.5,-68.5 0.5,-87.5 67.5,-87.5 67.5,-68.5 0.5,-68.5"/>
<text text-anchor="middle" x="34" y="-75.5" font-family="Helvetica,sans-Serif" font-size="10.00">crypt_keyid</text>
</g>
<!-- Node2 -->
<g id="node2" class="node"><title>Node2</title>
<g id="a_node2"><a xlink:href="crypt__gpgme_8c.html#a40d07d9c1d42f50976324b170272906f" target="_top" xlink:title="Format a string for the key selection menu &#45; Implements format_t. ">
<polygon fill="white" stroke="red" points="119,-125.5 119,-144.5 207,-144.5 207,-125.5 119,-125.5"/>
<text text-anchor="middle" x="163" y="-132.5" font-family="Helvetica,sans-Serif" font-size="10.00">crypt_format_str</text>
</a>
</g>
</g>
<!-- Node1&#45;&gt;Node2 -->
<g id="edge1" class="edge"><title>Node1&#45;&gt;Node2</title>
<path fill="none" stroke="midnightblue" d="M59.2471,-92.8108C72.2264,-100.362 88.6592,-109.333 104,-116 112.066,-119.506 120.998,-122.735 129.388,-125.499"/>
<polygon fill="midnightblue" stroke="midnightblue" points="60.8598,-89.6982 50.4715,-87.6165 57.2943,-95.7221 60.8598,-89.6982"/>
</g>
<!-- Node3 -->
<g id="node3" class="node"><title>Node3</title>
<g id="a_node3"><a xlink:href="crypt__gpgme_8c.html#abf137f94451de251c8179788615f4b74" target="_top" xlink:title="Show detailed information about the selected key. ">
<polygon fill="white" stroke="red" points="132,-87.5 132,-106.5 194,-106.5 194,-87.5 132,-87.5"/>
<text text-anchor="middle" x="163" y="-94.5" font-family="Helvetica,sans-Serif" font-size="10.00">verify_key</text>
</a>
</g>
</g>
<!-- Node1&#45;&gt;Node3 -->
<g id="edge2" class="edge"><title>Node1&#45;&gt;Node3</title>
<path fill="none" stroke="midnightblue" d="M77.7733,-84.3991C95.4246,-87.0399 115.476,-90.0397 131.585,-92.4498"/>
<polygon fill="midnightblue" stroke="midnightblue" points="78.1135,-80.9112 67.7057,-82.893 77.0777,-87.8341 78.1135,-80.9112"/>
</g>
<!-- Node4 -->
<g id="node4" class="node"><title>Node4</title>
<g id="a_node4"><a xlink:href="crypt__gpgme_8c.html#ac348259b46efd26c645dcc642617a985" target="_top" xlink:title="Find a key by email address. ">
<polygon fill="white" stroke="red" points="112,-49.5 112,-68.5 214,-68.5 214,-49.5 112,-49.5"/>
<text text-anchor="middle" x="163" y="-56.5" font-family="Helvetica,sans-Serif" font-size="10.00">crypt_getkeybyaddr</text>
</a>
</g>
</g>
<!-- Node1&#45;&gt;Node4 -->
<g id="edge3" class="edge"><title>Node1&#45;&gt;Node4</title>
<path fill="none" stroke="midnightblue" d="M77.7991,-71.597C88.6674,-69.971 100.444,-68.2091 111.649,-66.5328"/>
<polygon fill="midnightblue" stroke="midnightblue" points="77.0777,-68.1659 67.7057,-73.107 78.1135,-75.0888 77.0777,-68.1659"/>
</g>
<!-- Node5 -->
<g id="node5" class="node"><title>Node5</title>
<g id="a_node5"><a xlink:href="crypt__gpgme_8h.html#ab3031c1c6cd431efc8fc3b90607c042d" target="_top" xlink:title="Implements CryptModuleSpecs::pgp_make_key_attachment() ">
<polygon fill="white" stroke="black" points="104.5,-0 104.5,-30 221.5,-30 221.5,-0 104.5,-0"/>
<text text-anchor="start" x="112.5" y="-18" font-family="Helvetica,sans-Serif" font-size="10.00">pgp_gpgme_make_key</text>
<text text-anchor="middle" x="163" y="-7" font-family="Helvetica,sans-Serif" font-size="10.00">_attachment</text>
</a>
</g>
</g>
<!-- Node1&#45;&gt;Node5 -->
<g id="edge4" class="edge"><title>Node1&#45;&gt;Node5</title>
<path fill="none" stroke="midnightblue" d="M60.0233,-63.458C72.9893,-56.1184 89.1738,-47.2569 104,-40 110.894,-36.6256 118.354,-33.2274 125.556,-30.0707"/>
<polygon fill="midnightblue" stroke="midnightblue" points="58.1636,-60.4895 51.2164,-68.4887 61.6356,-66.5677 58.1636,-60.4895"/>
</g>
</g>
</svg>
