<?xml version="1.0" encoding="UTF-8" standalone="no"?>
<!DOCTYPE svg PUBLIC "-//W3C//DTD SVG 1.1//EN"
 "http://www.w3.org/Graphics/SVG/1.1/DTD/svg11.dtd">
<!-- Generated by graphviz version 2.36.0 (20140111.2315)
 -->
<!-- Title: crypt_get_keys Pages: 1 -->
<svg width="360pt" height="55pt"
 viewBox="0.00 0.00 360.00 55.00" xmlns="http://www.w3.org/2000/svg" xmlns:xlink="http://www.w3.org/1999/xlink">
<g id="graph0" class="graph" transform="scale(1 1) rotate(0) translate(4 51)">
<title>crypt_get_keys</title>
<polygon fill="white" stroke="none" points="-4,4 -4,-51 356,-51 356,4 -4,4"/>
<!-- Node1 -->
<g id="node1" class="node"><title>Node1</title>
<polygon fill="#bfbfbf" stroke="black" points="0.5,-0.5 0.5,-19.5 83.5,-19.5 83.5,-0.5 0.5,-0.5"/>
<text text-anchor="middle" x="42" y="-7.5" font-family="Helvetica,sans-Serif" font-size="10.00">crypt_get_keys</text>
</g>
<!-- Node2 -->
<g id="node2" class="node"><title>Node2</title>
<g id="a_node2"><a xlink:href="ncrypt_8h.html#a0abc1622d0bb5099b99a7c3584995eb7" target="_top" xlink:title="Can all recipients be determined. ">
<polygon fill="white" stroke="red" points="120.5,-17 120.5,-47 219.5,-47 219.5,-17 120.5,-17"/>
<text text-anchor="start" x="128.5" y="-35" font-family="Helvetica,sans-Serif" font-size="10.00">crypt_opportunistic</text>
<text text-anchor="middle" x="170" y="-24" font-family="Helvetica,sans-Serif" font-size="10.00">_encrypt</text>
</a>
</g>
</g>
<!-- Node1&#45;&gt;Node2 -->
<g id="edge1" class="edge"><title>Node1&#45;&gt;Node2</title>
<path fill="none" stroke="midnightblue" d="M93.6313,-18.8404C102.376,-20.3672 111.451,-21.9518 120.147,-23.4701"/>
<polygon fill="midnightblue" stroke="midnightblue" points="94.0138,-15.3543 83.5608,-17.082 92.8097,-22.25 94.0138,-15.3543"/>
</g>
<!-- Node3 -->
<g id="node3" class="node"><title>Node3</title>
<g id="a_node3"><a xlink:href="send_8h.html#a09c909ab2bb41101590ed2b13f65fc2d" target="_top" xlink:title="Send an email. ">
<polygon fill="white" stroke="red" points="256.5,-0.5 256.5,-19.5 351.5,-19.5 351.5,-0.5 256.5,-0.5"/>
<text text-anchor="middle" x="304" y="-7.5" font-family="Helvetica,sans-Serif" font-size="10.00">ci_send_message</text>
</a>
</g>
</g>
<!-- Node1&#45;&gt;Node3 -->
<g id="edge3" class="edge"><title>Node1&#45;&gt;Node3</title>
<path fill="none" stroke="midnightblue" d="M93.8379,-8.4927C102.564,-8.28746 111.543,-8.10982 120,-8 164.441,-7.42295 175.559,-7.46464 220,-8 231.819,-8.14237 244.582,-8.39874 256.472,-8.68146"/>
<polygon fill="midnightblue" stroke="midnightblue" points="93.6664,-4.99579 83.7567,-8.74391 93.8408,-11.9936 93.6664,-4.99579"/>
</g>
<!-- Node2&#45;&gt;Node3 -->
<g id="edge2" class="edge"><title>Node2&#45;&gt;Node3</title>
<path fill="none" stroke="midnightblue" d="M229.682,-22.2197C238.553,-20.7412 247.602,-19.2329 256.179,-17.8036"/>
<polygon fill="midnightblue" stroke="midnightblue" points="229.065,-18.7741 219.777,-23.8705 230.216,-25.6788 229.065,-18.7741"/>
</g>
</g>
</svg>
