<?xml version="1.0" encoding="UTF-8" standalone="no"?>
<!DOCTYPE svg PUBLIC "-//W3C//DTD SVG 1.1//EN"
 "http://www.w3.org/Graphics/SVG/1.1/DTD/svg11.dtd">
<!-- Generated by graphviz version 2.36.0 (20140111.2315)
 -->
<!-- Title: set_pka_sig_notation Pages: 1 -->
<svg width="270pt" height="66pt"
 viewBox="0.00 0.00 270.00 66.00" xmlns="http://www.w3.org/2000/svg" xmlns:xlink="http://www.w3.org/1999/xlink">
<g id="graph0" class="graph" transform="scale(1 1) rotate(0) translate(4 62)">
<title>set_pka_sig_notation</title>
<polygon fill="white" stroke="none" points="-4,4 -4,-62 266,-62 266,4 -4,4"/>
<!-- Node1 -->
<g id="node1" class="node"><title>Node1</title>
<polygon fill="#bfbfbf" stroke="black" points="0.5,-19.5 0.5,-38.5 109.5,-38.5 109.5,-19.5 0.5,-19.5"/>
<text text-anchor="middle" x="55" y="-26.5" font-family="Helvetica,sans-Serif" font-size="10.00">set_pka_sig_notation</text>
</g>
<!-- Node2 -->
<g id="node2" class="node"><title>Node2</title>
<g id="a_node2"><a xlink:href="crypt__gpgme_8c.html#a12881989b10ae49d0f1a237d785e52d0" target="_top" xlink:title="Encrypt the GPGPME data object. ">
<polygon fill="white" stroke="red" points="146.5,-38.5 146.5,-57.5 261.5,-57.5 261.5,-38.5 146.5,-38.5"/>
<text text-anchor="middle" x="204" y="-45.5" font-family="Helvetica,sans-Serif" font-size="10.00">encrypt_gpgme_object</text>
</a>
</g>
</g>
<!-- Node1&#45;&gt;Node2 -->
<g id="edge1" class="edge"><title>Node1&#45;&gt;Node2</title>
<path fill="none" stroke="midnightblue" d="M120.001,-37.2723C128.7,-38.3965 137.579,-39.5442 146.14,-40.6507"/>
<polygon fill="midnightblue" stroke="midnightblue" points="120.269,-33.7778 109.903,-35.967 119.371,-40.7201 120.269,-33.7778"/>
</g>
<!-- Node3 -->
<g id="node3" class="node"><title>Node3</title>
<g id="a_node3"><a xlink:href="crypt__gpgme_8c.html#a4d07485b28aaf3e4ee49f3faf1fe9c1c" target="_top" xlink:title="Sign a message. ">
<polygon fill="white" stroke="red" points="164,-0.5 164,-19.5 244,-19.5 244,-0.5 164,-0.5"/>
<text text-anchor="middle" x="204" y="-7.5" font-family="Helvetica,sans-Serif" font-size="10.00">sign_message</text>
</a>
</g>
</g>
<!-- Node1&#45;&gt;Node3 -->
<g id="edge2" class="edge"><title>Node1&#45;&gt;Node3</title>
<path fill="none" stroke="midnightblue" d="M120.096,-20.7155C134.984,-18.7912 150.396,-16.7992 163.833,-15.0624"/>
<polygon fill="midnightblue" stroke="midnightblue" points="119.371,-17.2799 109.903,-22.033 120.269,-24.2222 119.371,-17.2799"/>
</g>
</g>
</svg>
