<?xml version="1.0" encoding="UTF-8" standalone="no"?>
<!DOCTYPE svg PUBLIC "-//W3C//DTD SVG 1.1//EN"
 "http://www.w3.org/Graphics/SVG/1.1/DTD/svg11.dtd">
<!-- Generated by graphviz version 2.36.0 (20140111.2315)
 -->
<!-- Title: crypt_forget_passphrase Pages: 1 -->
<svg width="320pt" height="66pt"
 viewBox="0.00 0.00 320.00 66.00" xmlns="http://www.w3.org/2000/svg" xmlns:xlink="http://www.w3.org/1999/xlink">
<g id="graph0" class="graph" transform="scale(1 1) rotate(0) translate(4 62)">
<title>crypt_forget_passphrase</title>
<polygon fill="white" stroke="none" points="-4,4 -4,-62 316,-62 316,4 -4,4"/>
<!-- Node1 -->
<g id="node1" class="node"><title>Node1</title>
<polygon fill="#bfbfbf" stroke="black" points="0,-19.5 0,-38.5 124,-38.5 124,-19.5 0,-19.5"/>
<text text-anchor="middle" x="62" y="-26.5" font-family="Helvetica,sans-Serif" font-size="10.00">crypt_forget_passphrase</text>
</g>
<!-- Node2 -->
<g id="node2" class="node"><title>Node2</title>
<g id="a_node2"><a xlink:href="cryptglue_8c.html#ab11bb907cc90bcd3aadecfd0000b5350" target="_top" xlink:title="Wrapper for CryptModuleSpecs::void_passphrase() ">
<polygon fill="white" stroke="black" points="167,-38.5 167,-57.5 305,-57.5 305,-38.5 167,-38.5"/>
<text text-anchor="middle" x="236" y="-45.5" font-family="Helvetica,sans-Serif" font-size="10.00">crypt_pgp_void_passphrase</text>
</a>
</g>
</g>
<!-- Node1&#45;&gt;Node2 -->
<g id="edge1" class="edge"><title>Node1&#45;&gt;Node2</title>
<path fill="none" stroke="midnightblue" d="M124.125,-35.7522C134.697,-36.92 145.817,-38.1484 156.768,-39.3581"/>
<polygon fill="midnightblue" stroke="midnightblue" points="156.433,-42.8423 166.757,-40.4615 157.201,-35.8846 156.433,-42.8423"/>
</g>
<!-- Node3 -->
<g id="node3" class="node"><title>Node3</title>
<g id="a_node3"><a xlink:href="cryptglue_8c.html#a84e2b083debe6ba85cf3deca3e0fe99a" target="_top" xlink:title="Wrapper for CryptModuleSpecs::void_passphrase() ">
<polygon fill="white" stroke="black" points="160,-0.5 160,-19.5 312,-19.5 312,-0.5 160,-0.5"/>
<text text-anchor="middle" x="236" y="-7.5" font-family="Helvetica,sans-Serif" font-size="10.00">crypt_smime_void_passphrase</text>
</a>
</g>
</g>
<!-- Node1&#45;&gt;Node3 -->
<g id="edge2" class="edge"><title>Node1&#45;&gt;Node3</title>
<path fill="none" stroke="midnightblue" d="M124.125,-22.2478C132.453,-21.3278 141.122,-20.3703 149.78,-19.4138"/>
<polygon fill="midnightblue" stroke="midnightblue" points="150.363,-22.8708 159.918,-18.2939 149.594,-15.9132 150.363,-22.8708"/>
</g>
</g>
</svg>
