<?xml version="1.0" encoding="UTF-8" standalone="no"?>
<!DOCTYPE svg PUBLIC "-//W3C//DTD SVG 1.1//EN"
 "http://www.w3.org/Graphics/SVG/1.1/DTD/svg11.dtd">
<!-- Generated by graphviz version 2.36.0 (20140111.2315)
 -->
<!-- Title: ncrypt/crypt_gpgme.c Pages: 1 -->
<svg width="2879pt" height="140pt"
 viewBox="0.00 0.00 2879.00 140.00" xmlns="http://www.w3.org/2000/svg" xmlns:xlink="http://www.w3.org/1999/xlink">
<g id="graph0" class="graph" transform="scale(1 1) rotate(0) translate(4 136)">
<title>ncrypt/crypt_gpgme.c</title>
<polygon fill="white" stroke="none" points="-4,4 -4,-136 2875,-136 2875,4 -4,4"/>
<!-- Node1 -->
<g id="node1" class="node"><title>Node1</title>
<polygon fill="#bfbfbf" stroke="black" points="1369.5,-112.5 1369.5,-131.5 1480.5,-131.5 1480.5,-112.5 1369.5,-112.5"/>
<text text-anchor="middle" x="1425" y="-119.5" font-family="Helvetica,sans-Serif" font-size="10.00">ncrypt/crypt_gpgme.c</text>
</g>
<!-- Node2 -->
<g id="node2" class="node"><title>Node2</title>
<polygon fill="white" stroke="#bfbfbf" points="-0.5,-56.5 -0.5,-75.5 50.5,-75.5 50.5,-56.5 -0.5,-56.5"/>
<text text-anchor="middle" x="25" y="-63.5" font-family="Helvetica,sans-Serif" font-size="10.00">config.h</text>
</g>
<!-- Node1&#45;&gt;Node2 -->
<g id="edge1" class="edge"><title>Node1&#45;&gt;Node2</title>
<path fill="none" stroke="midnightblue" d="M1369.17,-120.84C1148.8,-119.954 338.242,-114.206 60.899,-75.9246"/>
<polygon fill="midnightblue" stroke="midnightblue" points="61.2579,-72.4404 50.8633,-74.4905 60.2675,-79.37 61.2579,-72.4404"/>
</g>
<!-- Node3 -->
<g id="node3" class="node"><title>Node3</title>
<polygon fill="white" stroke="#bfbfbf" points="68.5,-56.5 68.5,-75.5 117.5,-75.5 117.5,-56.5 68.5,-56.5"/>
<text text-anchor="middle" x="93" y="-63.5" font-family="Helvetica,sans-Serif" font-size="10.00">ctype.h</text>
</g>
<!-- Node1&#45;&gt;Node3 -->
<g id="edge2" class="edge"><title>Node1&#45;&gt;Node3</title>
<path fill="none" stroke="midnightblue" d="M1369.35,-120.786C1156.22,-119.703 391.048,-113.345 127.644,-75.8674"/>
<polygon fill="midnightblue" stroke="midnightblue" points="128.138,-72.4024 117.734,-74.4062 127.117,-79.3276 128.138,-72.4024"/>
</g>
<!-- Node4 -->
<g id="node4" class="node"><title>Node4</title>
<polygon fill="white" stroke="#bfbfbf" points="135.5,-56.5 135.5,-75.5 182.5,-75.5 182.5,-56.5 135.5,-56.5"/>
<text text-anchor="middle" x="159" y="-63.5" font-family="Helvetica,sans-Serif" font-size="10.00">errno.h</text>
</g>
<!-- Node1&#45;&gt;Node4 -->
<g id="edge3" class="edge"><title>Node1&#45;&gt;Node4</title>
<path fill="none" stroke="midnightblue" d="M1369.3,-120.725C1163.13,-119.438 442.853,-112.485 192.753,-75.8609"/>
<polygon fill="midnightblue" stroke="midnightblue" points="193.039,-72.3643 182.627,-74.3208 191.987,-79.2847 193.039,-72.3643"/>
</g>
<!-- Node5 -->
<g id="node5" class="node"><title>Node5</title>
<polygon fill="white" stroke="#bfbfbf" points="200.5,-56.5 200.5,-75.5 263.5,-75.5 263.5,-56.5 200.5,-56.5"/>
<text text-anchor="middle" x="232" y="-63.5" font-family="Helvetica,sans-Serif" font-size="10.00">gpg&#45;error.h</text>
</g>
<!-- Node1&#45;&gt;Node5 -->
<g id="edge4" class="edge"><title>Node1&#45;&gt;Node5</title>
<path fill="none" stroke="midnightblue" d="M1369.32,-120.132C1172.42,-116.86 508.733,-104.073 273.874,-75.8074"/>
<polygon fill="midnightblue" stroke="midnightblue" points="274.043,-72.3014 263.687,-74.5364 273.177,-79.2476 274.043,-72.3014"/>
</g>
<!-- Node6 -->
<g id="node6" class="node"><title>Node6</title>
<polygon fill="white" stroke="#bfbfbf" points="282,-56.5 282,-75.5 336,-75.5 336,-56.5 282,-56.5"/>
<text text-anchor="middle" x="309" y="-63.5" font-family="Helvetica,sans-Serif" font-size="10.00">gpgme.h</text>
</g>
<!-- Node1&#45;&gt;Node6 -->
<g id="edge5" class="edge"><title>Node1&#45;&gt;Node6</title>
<path fill="none" stroke="midnightblue" d="M1369.5,-120.178C1181.01,-117.158 565.478,-105.357 346.151,-75.7992"/>
<polygon fill="midnightblue" stroke="midnightblue" points="346.398,-72.2998 336.009,-74.3782 345.427,-79.2321 346.398,-72.2998"/>
</g>
<!-- Node7 -->
<g id="node7" class="node"><title>Node7</title>
<polygon fill="white" stroke="#bfbfbf" points="354.5,-56.5 354.5,-75.5 413.5,-75.5 413.5,-56.5 354.5,-56.5"/>
<text text-anchor="middle" x="384" y="-63.5" font-family="Helvetica,sans-Serif" font-size="10.00">langinfo.h</text>
</g>
<!-- Node1&#45;&gt;Node7 -->
<g id="edge6" class="edge"><title>Node1&#45;&gt;Node7</title>
<path fill="none" stroke="midnightblue" d="M1369.45,-119.837C1190.16,-115.876 627.261,-101.785 423.706,-75.7697"/>
<polygon fill="midnightblue" stroke="midnightblue" points="424.081,-72.2889 413.707,-74.4419 423.16,-79.228 424.081,-72.2889"/>
</g>
<!-- Node8 -->
<g id="node8" class="node"><title>Node8</title>
<polygon fill="white" stroke="#bfbfbf" points="432,-56.5 432,-75.5 480,-75.5 480,-56.5 432,-56.5"/>
<text text-anchor="middle" x="456" y="-63.5" font-family="Helvetica,sans-Serif" font-size="10.00">limits.h</text>
</g>
<!-- Node1&#45;&gt;Node8 -->
<g id="edge7" class="edge"><title>Node1&#45;&gt;Node8</title>
<path fill="none" stroke="midnightblue" d="M1369.44,-119.919C1198.24,-116.343 679.436,-103.603 490.129,-75.754"/>
<polygon fill="midnightblue" stroke="midnightblue" points="490.434,-72.2599 480.018,-74.2015 489.371,-79.1788 490.434,-72.2599"/>
</g>
<!-- Node9 -->
<g id="node9" class="node"><title>Node9</title>
<polygon fill="white" stroke="#bfbfbf" points="498,-56.5 498,-75.5 548,-75.5 548,-56.5 498,-56.5"/>
<text text-anchor="middle" x="523" y="-63.5" font-family="Helvetica,sans-Serif" font-size="10.00">locale.h</text>
</g>
<!-- Node1&#45;&gt;Node9 -->
<g id="edge8" class="edge"><title>Node1&#45;&gt;Node9</title>
<path fill="none" stroke="midnightblue" d="M1369.4,-121.452C1231.79,-121.846 864.533,-118.463 562,-76 560.723,-75.8207 559.425,-75.6201 558.118,-75.4022"/>
<polygon fill="midnightblue" stroke="midnightblue" points="558.537,-71.9185 548.055,-73.4604 557.21,-78.7917 558.537,-71.9185"/>
</g>
<!-- Node10 -->
<g id="node10" class="node"><title>Node10</title>
<polygon fill="white" stroke="#bfbfbf" points="1719,-0.5 1719,-19.5 1775,-19.5 1775,-0.5 1719,-0.5"/>
<text text-anchor="middle" x="1747" y="-7.5" font-family="Helvetica,sans-Serif" font-size="10.00">stdbool.h</text>
</g>
<!-- Node1&#45;&gt;Node10 -->
<g id="edge9" class="edge"><title>Node1&#45;&gt;Node10</title>
<path fill="none" stroke="midnightblue" d="M1369.16,-120.571C1246.17,-118.664 966.562,-108.575 1016,-56 1039.93,-30.5557 1561.42,-15.6359 1708.62,-11.9208"/>
<polygon fill="midnightblue" stroke="midnightblue" points="1709.04,-15.4114 1718.95,-11.6629 1708.87,-8.41353 1709.04,-15.4114"/>
</g>
<!-- Node11 -->
<g id="node11" class="node"><title>Node11</title>
<polygon fill="white" stroke="#bfbfbf" points="2162,-0.5 2162,-19.5 2208,-19.5 2208,-0.5 2162,-0.5"/>
<text text-anchor="middle" x="2185" y="-7.5" font-family="Helvetica,sans-Serif" font-size="10.00">stdio.h</text>
</g>
<!-- Node1&#45;&gt;Node11 -->
<g id="edge10" class="edge"><title>Node1&#45;&gt;Node11</title>
<path fill="none" stroke="midnightblue" d="M1480.68,-120.666C1689.82,-119.143 2418.2,-111.315 2452,-76 2458.15,-69.5785 2457.74,-62.7876 2452,-56 2422.46,-21.0622 2283.46,-13.2385 2218.55,-11.495"/>
<polygon fill="midnightblue" stroke="midnightblue" points="2218.51,-7.99318 2208.43,-11.2567 2218.34,-14.9912 2218.51,-7.99318"/>
</g>
<!-- Node12 -->
<g id="node12" class="node"><title>Node12</title>
<polygon fill="white" stroke="#bfbfbf" points="702,-56.5 702,-75.5 750,-75.5 750,-56.5 702,-56.5"/>
<text text-anchor="middle" x="726" y="-63.5" font-family="Helvetica,sans-Serif" font-size="10.00">stdlib.h</text>
</g>
<!-- Node1&#45;&gt;Node12 -->
<g id="edge11" class="edge"><title>Node1&#45;&gt;Node12</title>
<path fill="none" stroke="midnightblue" d="M1369.31,-120.96C1256.02,-120.074 990.642,-113.903 759.946,-75.8076"/>
<polygon fill="midnightblue" stroke="midnightblue" points="760.468,-72.3463 750.027,-74.1462 759.312,-79.2502 760.468,-72.3463"/>
</g>
<!-- Node13 -->
<g id="node13" class="node"><title>Node13</title>
<polygon fill="white" stroke="#bfbfbf" points="768.5,-56.5 768.5,-75.5 817.5,-75.5 817.5,-56.5 768.5,-56.5"/>
<text text-anchor="middle" x="793" y="-63.5" font-family="Helvetica,sans-Serif" font-size="10.00">string.h</text>
</g>
<!-- Node1&#45;&gt;Node13 -->
<g id="edge12" class="edge"><title>Node1&#45;&gt;Node13</title>
<path fill="none" stroke="midnightblue" d="M1369.35,-120.214C1264.88,-118.002 1032.28,-109.58 827.791,-75.7989"/>
<polygon fill="midnightblue" stroke="midnightblue" points="828.208,-72.3201 817.767,-74.1187 827.051,-79.2237 828.208,-72.3201"/>
</g>
<!-- Node14 -->
<g id="node14" class="node"><title>Node14</title>
<polygon fill="white" stroke="#bfbfbf" points="836,-56.5 836,-75.5 890,-75.5 890,-56.5 836,-56.5"/>
<text text-anchor="middle" x="863" y="-63.5" font-family="Helvetica,sans-Serif" font-size="10.00">strings.h</text>
</g>
<!-- Node1&#45;&gt;Node14 -->
<g id="edge13" class="edge"><title>Node1&#45;&gt;Node14</title>
<path fill="none" stroke="midnightblue" d="M1369.35,-119.158C1274.76,-115.39 1076.5,-104.735 900.015,-75.9038"/>
<polygon fill="midnightblue" stroke="midnightblue" points="900.467,-72.4312 890.03,-74.2491 899.323,-79.337 900.467,-72.4312"/>
</g>
<!-- Node15 -->
<g id="node15" class="node"><title>Node15</title>
<polygon fill="white" stroke="#bfbfbf" points="908,-56.5 908,-75.5 968,-75.5 968,-56.5 908,-56.5"/>
<text text-anchor="middle" x="938" y="-63.5" font-family="Helvetica,sans-Serif" font-size="10.00">sys/stat.h</text>
</g>
<!-- Node1&#45;&gt;Node15 -->
<g id="edge14" class="edge"><title>Node1&#45;&gt;Node15</title>
<path fill="none" stroke="midnightblue" d="M1369.18,-117.139C1284.95,-110.906 1120.51,-97.1462 982,-76 980.743,-75.808 979.467,-75.604 978.18,-75.3902"/>
<polygon fill="midnightblue" stroke="midnightblue" points="978.687,-71.9252 968.225,-73.5986 977.447,-78.8146 978.687,-71.9252"/>
</g>
<!-- Node16 -->
<g id="node16" class="node"><title>Node16</title>
<polygon fill="white" stroke="#bfbfbf" points="622,-0.5 622,-19.5 666,-19.5 666,-0.5 622,-0.5"/>
<text text-anchor="middle" x="644" y="-7.5" font-family="Helvetica,sans-Serif" font-size="10.00">time.h</text>
</g>
<!-- Node1&#45;&gt;Node16 -->
<g id="edge15" class="edge"><title>Node1&#45;&gt;Node16</title>
<path fill="none" stroke="midnightblue" d="M1369.37,-120.062C1187.65,-116.73 621.64,-104.124 595,-76 579.746,-59.8962 601.617,-39.1046 620.824,-25.4274"/>
<polygon fill="midnightblue" stroke="midnightblue" points="622.993,-28.186 629.318,-19.6864 619.073,-22.3865 622.993,-28.186"/>
</g>
<!-- Node17 -->
<g id="node17" class="node"><title>Node17</title>
<polygon fill="white" stroke="#bfbfbf" points="1024.5,-56.5 1024.5,-75.5 1075.5,-75.5 1075.5,-56.5 1024.5,-56.5"/>
<text text-anchor="middle" x="1050" y="-63.5" font-family="Helvetica,sans-Serif" font-size="10.00">unistd.h</text>
</g>
<!-- Node1&#45;&gt;Node17 -->
<g id="edge16" class="edge"><title>Node1&#45;&gt;Node17</title>
<path fill="none" stroke="midnightblue" d="M1369.31,-115.704C1303.74,-109.007 1191.43,-96.092 1085.44,-75.8597"/>
<polygon fill="midnightblue" stroke="midnightblue" points="1086.02,-72.4065 1075.53,-73.9434 1084.69,-79.2791 1086.02,-72.4065"/>
</g>
<!-- Node18 -->
<g id="node18" class="node"><title>Node18</title>
<polygon fill="white" stroke="#bfbfbf" points="1093.5,-56.5 1093.5,-75.5 1160.5,-75.5 1160.5,-56.5 1093.5,-56.5"/>
<text text-anchor="middle" x="1127" y="-63.5" font-family="Helvetica,sans-Serif" font-size="10.00">mutt/mutt.h</text>
</g>
<!-- Node1&#45;&gt;Node18 -->
<g id="edge17" class="edge"><title>Node1&#45;&gt;Node18</title>
<path fill="none" stroke="midnightblue" d="M1373.63,-112.426C1324.28,-104.079 1247.37,-90.7809 1171.05,-76.1537"/>
<polygon fill="midnightblue" stroke="midnightblue" points="1171.26,-72.6296 1160.78,-74.1757 1169.94,-79.5033 1171.26,-72.6296"/>
</g>
<!-- Node19 -->
<g id="node19" class="node"><title>Node19</title>
<g id="a_node19"><a xlink:href="email_8h.html" target="_top" xlink:title="Structs that make up an email. ">
<polygon fill="white" stroke="red" points="1179,-56.5 1179,-75.5 1253,-75.5 1253,-56.5 1179,-56.5"/>
<text text-anchor="middle" x="1216" y="-63.5" font-family="Helvetica,sans-Serif" font-size="10.00">email/email.h</text>
</a>
</g>
</g>
<!-- Node1&#45;&gt;Node19 -->
<g id="edge18" class="edge"><title>Node1&#45;&gt;Node19</title>
<path fill="none" stroke="midnightblue" d="M1391.88,-112.444C1355.88,-103.142 1298.23,-88.246 1258.81,-78.062"/>
<polygon fill="midnightblue" stroke="midnightblue" points="1259.52,-74.6294 1248.96,-75.5164 1257.77,-81.4068 1259.52,-74.6294"/>
</g>
<!-- Node20 -->
<g id="node20" class="node"><title>Node20</title>
<polygon fill="white" stroke="#bfbfbf" points="1271,-56.5 1271,-75.5 1315,-75.5 1315,-56.5 1271,-56.5"/>
<text text-anchor="middle" x="1293" y="-63.5" font-family="Helvetica,sans-Serif" font-size="10.00">mutt.h</text>
</g>
<!-- Node1&#45;&gt;Node20 -->
<g id="edge19" class="edge"><title>Node1&#45;&gt;Node20</title>
<path fill="none" stroke="midnightblue" d="M1404.08,-112.444C1382.26,-103.517 1347.85,-89.4387 1323.11,-79.3168"/>
<polygon fill="midnightblue" stroke="midnightblue" points="1324.4,-76.0634 1313.82,-75.5164 1321.75,-82.5422 1324.4,-76.0634"/>
</g>
<!-- Node21 -->
<g id="node21" class="node"><title>Node21</title>
<g id="a_node21"><a xlink:href="alias_8h.html" target="_top" xlink:title="Representation of a single alias to an email address. ">
<polygon fill="white" stroke="red" points="1333.5,-56.5 1333.5,-75.5 1378.5,-75.5 1378.5,-56.5 1333.5,-56.5"/>
<text text-anchor="middle" x="1356" y="-63.5" font-family="Helvetica,sans-Serif" font-size="10.00">alias.h</text>
</a>
</g>
</g>
<!-- Node1&#45;&gt;Node21 -->
<g id="edge20" class="edge"><title>Node1&#45;&gt;Node21</title>
<path fill="none" stroke="midnightblue" d="M1413.91,-112.324C1403.51,-104.185 1387.74,-91.8395 1375.28,-82.0874"/>
<polygon fill="midnightblue" stroke="midnightblue" points="1377.32,-79.2407 1367.29,-75.8339 1373.01,-84.7533 1377.32,-79.2407"/>
</g>
<!-- Node22 -->
<g id="node22" class="node"><title>Node22</title>
<g id="a_node22"><a xlink:href="crypt_8h.html" target="_top" xlink:title="Signing/encryption multiplexor. ">
<polygon fill="white" stroke="black" points="1541.5,-56.5 1541.5,-75.5 1588.5,-75.5 1588.5,-56.5 1541.5,-56.5"/>
<text text-anchor="middle" x="1565" y="-63.5" font-family="Helvetica,sans-Serif" font-size="10.00">crypt.h</text>
</a>
</g>
</g>
<!-- Node1&#45;&gt;Node22 -->
<g id="edge22" class="edge"><title>Node1&#45;&gt;Node22</title>
<path fill="none" stroke="midnightblue" d="M1447.18,-112.444C1470.43,-103.478 1507.15,-89.314 1533.42,-79.1827"/>
<polygon fill="midnightblue" stroke="midnightblue" points="1534.85,-82.3807 1542.92,-75.5164 1532.33,-75.8497 1534.85,-82.3807"/>
</g>
<!-- Node23 -->
<g id="node23" class="node"><title>Node23</title>
<g id="a_node23"><a xlink:href="curs__lib_8h.html" target="_top" xlink:title="GUI miscellaneous curses (window drawing) routines. ">
<polygon fill="white" stroke="red" points="1755.5,-56.5 1755.5,-75.5 1814.5,-75.5 1814.5,-56.5 1755.5,-56.5"/>
<text text-anchor="middle" x="1785" y="-63.5" font-family="Helvetica,sans-Serif" font-size="10.00">curs_lib.h</text>
</a>
</g>
</g>
<!-- Node1&#45;&gt;Node23 -->
<g id="edge24" class="edge"><title>Node1&#45;&gt;Node23</title>
<path fill="none" stroke="midnightblue" d="M1480.72,-114.564C1544.74,-106.845 1652.83,-92.8206 1745,-76 1745.11,-75.9808 1745.21,-75.9616 1745.32,-75.9422"/>
<polygon fill="midnightblue" stroke="midnightblue" points="1746.22,-79.3314 1755.35,-73.9546 1744.86,-72.4648 1746.22,-79.3314"/>
</g>
<!-- Node24 -->
<g id="node24" class="node"><title>Node24</title>
<g id="a_node24"><a xlink:href="format__flags_8h.html" target="_top" xlink:title="Flags to control mutt_expando_format() ">
<polygon fill="white" stroke="red" points="2568.5,-0.5 2568.5,-19.5 2647.5,-19.5 2647.5,-0.5 2568.5,-0.5"/>
<text text-anchor="middle" x="2608" y="-7.5" font-family="Helvetica,sans-Serif" font-size="10.00">format_flags.h</text>
</a>
</g>
</g>
<!-- Node1&#45;&gt;Node24 -->
<g id="edge27" class="edge"><title>Node1&#45;&gt;Node24</title>
<path fill="none" stroke="midnightblue" d="M1480.91,-121.28C1730.22,-122.261 2730.32,-123.231 2776,-76 2814.31,-36.3942 2720.31,-20.5161 2657.97,-14.4653"/>
<polygon fill="midnightblue" stroke="midnightblue" points="2658.16,-10.9681 2647.88,-13.5437 2657.52,-17.939 2658.16,-10.9681"/>
</g>
<!-- Node25 -->
<g id="node25" class="node"><title>Node25</title>
<g id="a_node25"><a xlink:href="globals_8h.html" target="_top" xlink:title="Hundreds of global variables to back the user variables. ">
<polygon fill="white" stroke="red" points="1607,-56.5 1607,-75.5 1663,-75.5 1663,-56.5 1607,-56.5"/>
<text text-anchor="middle" x="1635" y="-63.5" font-family="Helvetica,sans-Serif" font-size="10.00">globals.h</text>
</a>
</g>
</g>
<!-- Node1&#45;&gt;Node25 -->
<g id="edge28" class="edge"><title>Node1&#45;&gt;Node25</title>
<path fill="none" stroke="midnightblue" d="M1458.28,-112.444C1496.04,-102.731 1557.53,-86.9208 1597.11,-76.7426"/>
<polygon fill="midnightblue" stroke="midnightblue" points="1598.11,-80.1005 1606.92,-74.2203 1596.36,-73.3211 1598.11,-80.1005"/>
</g>
<!-- Node26 -->
<g id="node26" class="node"><title>Node26</title>
<g id="a_node26"><a xlink:href="handler_8h.html" target="_top" xlink:title="Decide how to display email content. ">
<polygon fill="white" stroke="red" points="1681,-56.5 1681,-75.5 1737,-75.5 1737,-56.5 1681,-56.5"/>
<text text-anchor="middle" x="1709" y="-63.5" font-family="Helvetica,sans-Serif" font-size="10.00">handler.h</text>
</a>
</g>
</g>
<!-- Node1&#45;&gt;Node26 -->
<g id="edge30" class="edge"><title>Node1&#45;&gt;Node26</title>
<path fill="none" stroke="midnightblue" d="M1476.03,-112.456C1525.89,-103.923 1603.86,-90.0814 1671,-76 1671.1,-75.9791 1671.2,-75.9582 1671.3,-75.9372"/>
<polygon fill="midnightblue" stroke="midnightblue" points="1671.8,-79.411 1680.81,-73.8465 1670.3,-72.5741 1671.8,-79.411"/>
</g>
<!-- Node27 -->
<g id="node27" class="node"><title>Node27</title>
<g id="a_node27"><a xlink:href="hook_8h.html" target="_top" xlink:title="Parse and execute user&#45;defined hooks. ">
<polygon fill="white" stroke="black" points="2318,-56.5 2318,-75.5 2364,-75.5 2364,-56.5 2318,-56.5"/>
<text text-anchor="middle" x="2341" y="-63.5" font-family="Helvetica,sans-Serif" font-size="10.00">hook.h</text>
</a>
</g>
</g>
<!-- Node1&#45;&gt;Node27 -->
<g id="edge32" class="edge"><title>Node1&#45;&gt;Node27</title>
<path fill="none" stroke="midnightblue" d="M1480.64,-119.732C1645.2,-115.738 2128.63,-102.194 2307.62,-75.5861"/>
<polygon fill="midnightblue" stroke="midnightblue" points="2308.36,-79.0146 2317.7,-74.0217 2307.28,-72.0975 2308.36,-79.0146"/>
</g>
<!-- Node28 -->
<g id="node28" class="node"><title>Node28</title>
<g id="a_node28"><a xlink:href="keymap_8h.html" target="_top" xlink:title="Manage keymappings. ">
<polygon fill="white" stroke="red" points="1832.5,-56.5 1832.5,-75.5 1891.5,-75.5 1891.5,-56.5 1832.5,-56.5"/>
<text text-anchor="middle" x="1862" y="-63.5" font-family="Helvetica,sans-Serif" font-size="10.00">keymap.h</text>
</a>
</g>
</g>
<!-- Node1&#45;&gt;Node28 -->
<g id="edge35" class="edge"><title>Node1&#45;&gt;Node28</title>
<path fill="none" stroke="midnightblue" d="M1480.65,-116.727C1555.91,-110.503 1694.43,-97.4697 1822.29,-75.9321"/>
<polygon fill="midnightblue" stroke="midnightblue" points="1822.99,-79.3631 1832.26,-74.2315 1821.81,-72.4628 1822.99,-79.3631"/>
</g>
<!-- Node29 -->
<g id="node29" class="node"><title>Node29</title>
<g id="a_node29"><a xlink:href="menu_8h.html" target="_top" xlink:title="GUI present the user with a selectable list. ">
<polygon fill="white" stroke="red" points="2004.5,-56.5 2004.5,-75.5 2053.5,-75.5 2053.5,-56.5 2004.5,-56.5"/>
<text text-anchor="middle" x="2029" y="-63.5" font-family="Helvetica,sans-Serif" font-size="10.00">menu.h</text>
</a>
</g>
</g>
<!-- Node1&#45;&gt;Node29 -->
<g id="edge36" class="edge"><title>Node1&#45;&gt;Node29</title>
<path fill="none" stroke="midnightblue" d="M1480.83,-119.919C1581.63,-117.244 1800.69,-108.126 1994.16,-75.8144"/>
<polygon fill="midnightblue" stroke="midnightblue" points="1994.96,-79.2299 2004.23,-74.1079 1993.79,-72.3284 1994.96,-79.2299"/>
</g>
<!-- Node30 -->
<g id="node30" class="node"><title>Node30</title>
<g id="a_node30"><a xlink:href="mutt__attach_8h.html" target="_top" xlink:title="Handling of email attachments. ">
<polygon fill="white" stroke="black" points="1909.5,-56.5 1909.5,-75.5 1986.5,-75.5 1986.5,-56.5 1909.5,-56.5"/>
<text text-anchor="middle" x="1948" y="-63.5" font-family="Helvetica,sans-Serif" font-size="10.00">mutt_attach.h</text>
</a>
</g>
</g>
<!-- Node1&#45;&gt;Node30 -->
<g id="edge39" class="edge"><title>Node1&#45;&gt;Node30</title>
<path fill="none" stroke="midnightblue" d="M1480.77,-117.367C1567.81,-111.335 1741.41,-97.8494 1898.93,-76.0229"/>
<polygon fill="midnightblue" stroke="midnightblue" points="1899.86,-79.4264 1909.28,-74.5731 1898.89,-72.4941 1899.86,-79.4264"/>
</g>
<!-- Node31 -->
<g id="node31" class="node"><title>Node31</title>
<g id="a_node31"><a xlink:href="mutt__logging_8h.html" target="_top" xlink:title="Mutt Logging. ">
<polygon fill="white" stroke="red" points="604,-56.5 604,-75.5 684,-75.5 684,-56.5 604,-56.5"/>
<text text-anchor="middle" x="644" y="-63.5" font-family="Helvetica,sans-Serif" font-size="10.00">mutt_logging.h</text>
</a>
</g>
</g>
<!-- Node1&#45;&gt;Node31 -->
<g id="edge42" class="edge"><title>Node1&#45;&gt;Node31</title>
<path fill="none" stroke="midnightblue" d="M1369.24,-119.858C1248.12,-116.882 951.837,-106.933 693.979,-75.9667"/>
<polygon fill="midnightblue" stroke="midnightblue" points="694.4,-72.4922 684.051,-74.7617 693.556,-79.4412 694.4,-72.4922"/>
</g>
<!-- Node32 -->
<g id="node32" class="node"><title>Node32</title>
<g id="a_node32"><a xlink:href="mutt__window_8h.html" target="_top" xlink:title="Window management. ">
<polygon fill="white" stroke="red" points="2142.5,-56.5 2142.5,-75.5 2225.5,-75.5 2225.5,-56.5 2142.5,-56.5"/>
<text text-anchor="middle" x="2184" y="-63.5" font-family="Helvetica,sans-Serif" font-size="10.00">mutt_window.h</text>
</a>
</g>
</g>
<!-- Node1&#45;&gt;Node32 -->
<g id="edge45" class="edge"><title>Node1&#45;&gt;Node32</title>
<path fill="none" stroke="midnightblue" d="M1480.72,-119.565C1598.91,-116.065 1883.53,-105.224 2132.35,-75.9306"/>
<polygon fill="midnightblue" stroke="midnightblue" points="2132.79,-79.4035 2142.31,-74.7467 2131.96,-72.4525 2132.79,-79.4035"/>
</g>
<!-- Node33 -->
<g id="node33" class="node"><title>Node33</title>
<g id="a_node33"><a xlink:href="muttlib_8h.html" target="_top" xlink:title="Some miscellaneous functions. ">
<polygon fill="white" stroke="red" points="2500,-56.5 2500,-75.5 2554,-75.5 2554,-56.5 2500,-56.5"/>
<text text-anchor="middle" x="2527" y="-63.5" font-family="Helvetica,sans-Serif" font-size="10.00">muttlib.h</text>
</a>
</g>
</g>
<!-- Node1&#45;&gt;Node33 -->
<g id="edge46" class="edge"><title>Node1&#45;&gt;Node33</title>
<path fill="none" stroke="midnightblue" d="M1480.81,-119.913C1670.39,-116.022 2288.77,-101.632 2486,-76 2487.26,-75.8362 2488.54,-75.653 2489.83,-75.4538"/>
<polygon fill="midnightblue" stroke="midnightblue" points="2490.54,-78.881 2499.77,-73.6688 2489.31,-71.9912 2490.54,-78.881"/>
</g>
<!-- Node34 -->
<g id="node34" class="node"><title>Node34</title>
<g id="a_node34"><a xlink:href="ncrypt_8h.html" target="_top" xlink:title="API for encryption/signing of emails. ">
<polygon fill="white" stroke="black" points="2072,-56.5 2072,-75.5 2124,-75.5 2124,-56.5 2072,-56.5"/>
<text text-anchor="middle" x="2098" y="-63.5" font-family="Helvetica,sans-Serif" font-size="10.00">ncrypt.h</text>
</a>
</g>
</g>
<!-- Node1&#45;&gt;Node34 -->
<g id="edge50" class="edge"><title>Node1&#45;&gt;Node34</title>
<path fill="none" stroke="midnightblue" d="M1480.75,-120.322C1590.29,-118.284 1841.29,-110.128 2061.63,-75.726"/>
<polygon fill="midnightblue" stroke="midnightblue" points="2062.43,-79.1419 2071.76,-74.1211 2061.34,-72.228 2062.43,-79.1419"/>
</g>
<!-- Node35 -->
<g id="node35" class="node"><title>Node35</title>
<g id="a_node35"><a xlink:href="opcodes_8h.html" target="_top" xlink:title="All user&#45;callable functions. ">
<polygon fill="white" stroke="black" points="2382,-56.5 2382,-75.5 2444,-75.5 2444,-56.5 2382,-56.5"/>
<text text-anchor="middle" x="2413" y="-63.5" font-family="Helvetica,sans-Serif" font-size="10.00">opcodes.h</text>
</a>
</g>
</g>
<!-- Node1&#45;&gt;Node35 -->
<g id="edge53" class="edge"><title>Node1&#45;&gt;Node35</title>
<path fill="none" stroke="midnightblue" d="M1480.6,-121.722C1625.83,-122.891 2028.47,-121.527 2371.52,-75.956"/>
<polygon fill="midnightblue" stroke="midnightblue" points="2372.21,-79.3953 2381.65,-74.5948 2371.27,-72.4576 2372.21,-79.3953"/>
</g>
<!-- Node36 -->
<g id="node36" class="node"><title>Node36</title>
<g id="a_node36"><a xlink:href="options_8h.html" target="_top" xlink:title="Handling of global boolean variables. ">
<polygon fill="white" stroke="red" points="1397,-56.5 1397,-75.5 1453,-75.5 1453,-56.5 1397,-56.5"/>
<text text-anchor="middle" x="1425" y="-63.5" font-family="Helvetica,sans-Serif" font-size="10.00">options.h</text>
</a>
</g>
</g>
<!-- Node1&#45;&gt;Node36 -->
<g id="edge54" class="edge"><title>Node1&#45;&gt;Node36</title>
<path fill="none" stroke="midnightblue" d="M1425,-112.083C1425,-105.006 1425,-94.8611 1425,-85.9865"/>
<polygon fill="midnightblue" stroke="midnightblue" points="1428.5,-85.751 1425,-75.7511 1421.5,-85.7511 1428.5,-85.751"/>
</g>
<!-- Node37 -->
<g id="node37" class="node"><title>Node37</title>
<g id="a_node37"><a xlink:href="protos_8h.html" target="_top" xlink:title="Prototypes for many functions. ">
<polygon fill="white" stroke="red" points="1471,-56.5 1471,-75.5 1523,-75.5 1523,-56.5 1471,-56.5"/>
<text text-anchor="middle" x="1497" y="-63.5" font-family="Helvetica,sans-Serif" font-size="10.00">protos.h</text>
</a>
</g>
</g>
<!-- Node1&#45;&gt;Node37 -->
<g id="edge56" class="edge"><title>Node1&#45;&gt;Node37</title>
<path fill="none" stroke="midnightblue" d="M1436.57,-112.324C1447.42,-104.185 1463.88,-91.8395 1476.88,-82.0874"/>
<polygon fill="midnightblue" stroke="midnightblue" points="1479.32,-84.6339 1485.22,-75.8339 1475.12,-79.0339 1479.32,-84.6339"/>
</g>
<!-- Node38 -->
<g id="node38" class="node"><title>Node38</title>
<g id="a_node38"><a xlink:href="recvattach_8h.html" target="_top" xlink:title="Routines for managing attachments. ">
<polygon fill="white" stroke="red" points="2572.5,-56.5 2572.5,-75.5 2643.5,-75.5 2643.5,-56.5 2572.5,-56.5"/>
<text text-anchor="middle" x="2608" y="-63.5" font-family="Helvetica,sans-Serif" font-size="10.00">recvattach.h</text>
</a>
</g>
</g>
<!-- Node1&#45;&gt;Node38 -->
<g id="edge60" class="edge"><title>Node1&#45;&gt;Node38</title>
<path fill="none" stroke="midnightblue" d="M1480.67,-119.964C1675.97,-116.149 2330.18,-101.811 2562.16,-75.8511"/>
<polygon fill="midnightblue" stroke="midnightblue" points="2562.69,-79.3129 2572.22,-74.6856 2561.88,-72.3594 2562.69,-79.3129"/>
</g>
<!-- Node39 -->
<g id="node39" class="node"><title>Node39</title>
<g id="a_node39"><a xlink:href="sendlib_8h.html" target="_top" xlink:title="Miscellaneous functions for sending an email. ">
<polygon fill="white" stroke="black" points="2244,-56.5 2244,-75.5 2300,-75.5 2300,-56.5 2244,-56.5"/>
<text text-anchor="middle" x="2272" y="-63.5" font-family="Helvetica,sans-Serif" font-size="10.00">sendlib.h</text>
</a>
</g>
</g>
<!-- Node1&#45;&gt;Node39 -->
<g id="edge63" class="edge"><title>Node1&#45;&gt;Node39</title>
<path fill="none" stroke="midnightblue" d="M1480.75,-121.283C1612.51,-121.217 1953.14,-116.743 2234,-76 2234.1,-75.9854 2234.2,-75.9707 2234.3,-75.9558"/>
<polygon fill="midnightblue" stroke="midnightblue" points="2234.66,-79.448 2243.89,-74.2442 2233.43,-72.5571 2234.66,-79.448"/>
</g>
<!-- Node40 -->
<g id="node40" class="node"><title>Node40</title>
<polygon fill="white" stroke="#bfbfbf" points="2726.5,-56.5 2726.5,-75.5 2767.5,-75.5 2767.5,-56.5 2726.5,-56.5"/>
<text text-anchor="middle" x="2747" y="-63.5" font-family="Helvetica,sans-Serif" font-size="10.00">sort.h</text>
</g>
<!-- Node1&#45;&gt;Node40 -->
<g id="edge66" class="edge"><title>Node1&#45;&gt;Node40</title>
<path fill="none" stroke="midnightblue" d="M1480.74,-120.958C1693.24,-120.507 2453.26,-116.169 2715.92,-75.6349"/>
<polygon fill="midnightblue" stroke="midnightblue" points="2716.86,-79.0293 2726.18,-73.9908 2715.75,-72.1175 2716.86,-79.0293"/>
</g>
<!-- Node41 -->
<g id="node41" class="node"><title>Node41</title>
<g id="a_node41"><a xlink:href="state_8h.html" target="_top" xlink:title="Keep track when processing files. ">
<polygon fill="white" stroke="black" points="2661.5,-56.5 2661.5,-75.5 2708.5,-75.5 2708.5,-56.5 2661.5,-56.5"/>
<text text-anchor="middle" x="2685" y="-63.5" font-family="Helvetica,sans-Serif" font-size="10.00">state.h</text>
</a>
</g>
</g>
<!-- Node1&#45;&gt;Node41 -->
<g id="edge67" class="edge"><title>Node1&#45;&gt;Node41</title>
<path fill="none" stroke="midnightblue" d="M1480.74,-120.653C1686.18,-119.115 2401.59,-111.392 2651.24,-75.6517"/>
<polygon fill="midnightblue" stroke="midnightblue" points="2651.97,-79.0813 2661.35,-74.1493 2650.94,-72.1573 2651.97,-79.0813"/>
</g>
<!-- Node42 -->
<g id="node42" class="node"><title>Node42</title>
<polygon fill="white" stroke="#bfbfbf" points="2824.5,-56.5 2824.5,-75.5 2871.5,-75.5 2871.5,-56.5 2824.5,-56.5"/>
<text text-anchor="middle" x="2848" y="-63.5" font-family="Helvetica,sans-Serif" font-size="10.00">libintl.h</text>
</g>
<!-- Node1&#45;&gt;Node42 -->
<g id="edge69" class="edge"><title>Node1&#45;&gt;Node42</title>
<path fill="none" stroke="midnightblue" d="M1480.81,-120.676C1705.77,-119.141 2546.49,-111.125 2810,-76 2811.47,-75.804 2812.97,-75.5759 2814.47,-75.3224"/>
<polygon fill="midnightblue" stroke="midnightblue" points="2815.29,-78.7291 2824.42,-73.3562 2813.93,-71.862 2815.29,-78.7291"/>
</g>
<!-- Node21&#45;&gt;Node10 -->
<g id="edge21" class="edge"><title>Node21&#45;&gt;Node10</title>
<path fill="none" stroke="midnightblue" d="M1378.62,-58.1856C1381.76,-57.3748 1384.95,-56.6174 1388,-56 1503.48,-32.6596 1642.45,-19.365 1708.5,-13.9246"/>
<polygon fill="midnightblue" stroke="midnightblue" points="1709.15,-17.3834 1718.84,-13.0886 1708.59,-10.4062 1709.15,-17.3834"/>
</g>
<!-- Node22&#45;&gt;Node10 -->
<g id="edge23" class="edge"><title>Node22&#45;&gt;Node10</title>
<path fill="none" stroke="midnightblue" d="M1588.79,-57.9404C1619.35,-48.8727 1672.77,-33.0254 1708.99,-22.2783"/>
<polygon fill="midnightblue" stroke="midnightblue" points="1710.12,-25.5921 1718.72,-19.3921 1708.13,-18.8812 1710.12,-25.5921"/>
</g>
<!-- Node23&#45;&gt;Node10 -->
<g id="edge25" class="edge"><title>Node23&#45;&gt;Node10</title>
<path fill="none" stroke="midnightblue" d="M1778.73,-56.083C1773.36,-48.4554 1765.48,-37.2645 1758.92,-27.9408"/>
<polygon fill="midnightblue" stroke="midnightblue" points="1761.78,-25.9149 1753.16,-19.7511 1756.05,-29.9434 1761.78,-25.9149"/>
</g>
<!-- Node23&#45;&gt;Node11 -->
<g id="edge26" class="edge"><title>Node23&#45;&gt;Node11</title>
<path fill="none" stroke="midnightblue" d="M1814.75,-57.8039C1817.86,-57.1496 1820.99,-56.5336 1824,-56 1943.63,-34.7974 2087.32,-20.0497 2151.35,-14.0285"/>
<polygon fill="midnightblue" stroke="midnightblue" points="2152.01,-17.4823 2161.65,-13.0715 2151.37,-10.5123 2152.01,-17.4823"/>
</g>
<!-- Node25&#45;&gt;Node10 -->
<g id="edge29" class="edge"><title>Node25&#45;&gt;Node10</title>
<path fill="none" stroke="midnightblue" d="M1652.99,-56.324C1671.04,-47.6247 1699.05,-34.1202 1719.8,-24.113"/>
<polygon fill="midnightblue" stroke="midnightblue" points="1721.56,-27.1502 1729.05,-19.6545 1718.52,-20.8449 1721.56,-27.1502"/>
</g>
<!-- Node26&#45;&gt;Node10 -->
<g id="edge31" class="edge"><title>Node26&#45;&gt;Node10</title>
<path fill="none" stroke="midnightblue" d="M1715.27,-56.083C1720.64,-48.4554 1728.52,-37.2645 1735.08,-27.9408"/>
<polygon fill="midnightblue" stroke="midnightblue" points="1737.95,-29.9434 1740.84,-19.7511 1732.22,-25.9149 1737.95,-29.9434"/>
</g>
<!-- Node27&#45;&gt;Node10 -->
<g id="edge33" class="edge"><title>Node27&#45;&gt;Node10</title>
<path fill="none" stroke="midnightblue" d="M2317.69,-58.0643C2314.45,-57.2723 2311.16,-56.5525 2308,-56 2113.58,-21.9958 1876.68,-13.6366 1785.4,-11.623"/>
<polygon fill="midnightblue" stroke="midnightblue" points="1785.32,-8.12081 1775.25,-11.4125 1785.18,-15.1193 1785.32,-8.12081"/>
</g>
<!-- Node27&#45;&gt;Node11 -->
<g id="edge34" class="edge"><title>Node27&#45;&gt;Node11</title>
<path fill="none" stroke="midnightblue" d="M2317.98,-57.0321C2291.48,-47.8594 2247.76,-32.724 2217.73,-22.3287"/>
<polygon fill="midnightblue" stroke="midnightblue" points="2218.71,-18.9643 2208.11,-19.0006 2216.42,-25.5792 2218.71,-18.9643"/>
</g>
<!-- Node29&#45;&gt;Node10 -->
<g id="edge37" class="edge"><title>Node29&#45;&gt;Node10</title>
<path fill="none" stroke="midnightblue" d="M2004.17,-58.1851C2001.09,-57.4114 1997.98,-56.6637 1995,-56 1921.19,-39.5606 1834.01,-24.8092 1785.15,-16.9586"/>
<polygon fill="midnightblue" stroke="midnightblue" points="1785.47,-13.464 1775.04,-15.344 1784.36,-20.3765 1785.47,-13.464"/>
</g>
<!-- Node29&#45;&gt;Node11 -->
<g id="edge38" class="edge"><title>Node29&#45;&gt;Node11</title>
<path fill="none" stroke="midnightblue" d="M2053.72,-56.4435C2080.31,-47.239 2122.73,-32.5565 2152.12,-22.3826"/>
<polygon fill="midnightblue" stroke="midnightblue" points="2153.62,-25.5669 2161.92,-18.9883 2151.33,-18.952 2153.62,-25.5669"/>
</g>
<!-- Node30&#45;&gt;Node10 -->
<g id="edge40" class="edge"><title>Node30&#45;&gt;Node10</title>
<path fill="none" stroke="midnightblue" d="M1916.15,-56.4435C1880.48,-46.8613 1822.72,-31.3424 1784.79,-21.1537"/>
<polygon fill="midnightblue" stroke="midnightblue" points="1785.7,-17.7725 1775.13,-18.558 1783.88,-24.5328 1785.7,-17.7725"/>
</g>
<!-- Node30&#45;&gt;Node11 -->
<g id="edge41" class="edge"><title>Node30&#45;&gt;Node11</title>
<path fill="none" stroke="midnightblue" d="M1985.55,-56.4435C2031.47,-45.9813 2108.45,-28.442 2152.13,-18.4902"/>
<polygon fill="midnightblue" stroke="midnightblue" points="2152.98,-21.8848 2161.96,-16.2506 2151.43,-15.0597 2152.98,-21.8848"/>
</g>
<!-- Node31&#45;&gt;Node10 -->
<g id="edge43" class="edge"><title>Node31&#45;&gt;Node10</title>
<path fill="none" stroke="midnightblue" d="M684.044,-57.1766C687.067,-56.7296 690.078,-56.3291 693,-56 1088.12,-11.4975 1571.08,-10.1119 1708.75,-10.7186"/>
<polygon fill="midnightblue" stroke="midnightblue" points="1708.78,-14.2187 1718.79,-10.7693 1708.81,-7.21876 1708.78,-14.2187"/>
</g>
<!-- Node31&#45;&gt;Node16 -->
<g id="edge44" class="edge"><title>Node31&#45;&gt;Node16</title>
<path fill="none" stroke="midnightblue" d="M644,-56.083C644,-49.0059 644,-38.8611 644,-29.9865"/>
<polygon fill="midnightblue" stroke="midnightblue" points="647.5,-29.751 644,-19.7511 640.5,-29.7511 647.5,-29.751"/>
</g>
<!-- Node33&#45;&gt;Node10 -->
<g id="edge47" class="edge"><title>Node33&#45;&gt;Node10</title>
<path fill="none" stroke="midnightblue" d="M2499.96,-61.3866C2485.71,-59.5759 2467.93,-57.4633 2452,-56 2198.14,-32.6845 1891.74,-17.564 1785.48,-12.7018"/>
<polygon fill="midnightblue" stroke="midnightblue" points="1785.4,-9.19467 1775.25,-12.2373 1785.08,-16.1875 1785.4,-9.19467"/>
</g>
<!-- Node33&#45;&gt;Node11 -->
<g id="edge48" class="edge"><title>Node33&#45;&gt;Node11</title>
<path fill="none" stroke="midnightblue" d="M2499.71,-58.7388C2495.14,-57.769 2490.44,-56.8189 2486,-56 2389.1,-38.1423 2273.65,-22.4229 2218.1,-15.2024"/>
<polygon fill="midnightblue" stroke="midnightblue" points="2218.49,-11.724 2208.12,-13.9139 2217.59,-18.6663 2218.49,-11.724"/>
</g>
<!-- Node33&#45;&gt;Node24 -->
<g id="edge49" class="edge"><title>Node33&#45;&gt;Node24</title>
<path fill="none" stroke="midnightblue" d="M2540.01,-56.324C2552.53,-47.979 2571.68,-35.2122 2586.47,-25.3524"/>
<polygon fill="midnightblue" stroke="midnightblue" points="2588.64,-28.1137 2595.02,-19.6545 2584.76,-22.2894 2588.64,-28.1137"/>
</g>
<!-- Node34&#45;&gt;Node10 -->
<g id="edge51" class="edge"><title>Node34&#45;&gt;Node10</title>
<path fill="none" stroke="midnightblue" d="M2071.72,-58.0987C2068.46,-57.3399 2065.16,-56.6192 2062,-56 1963.04,-36.6151 1845.05,-21.9953 1785.48,-15.2011"/>
<polygon fill="midnightblue" stroke="midnightblue" points="1785.73,-11.707 1775.4,-14.0625 1784.94,-18.6628 1785.73,-11.707"/>
</g>
<!-- Node34&#45;&gt;Node11 -->
<g id="edge52" class="edge"><title>Node34&#45;&gt;Node11</title>
<path fill="none" stroke="midnightblue" d="M2111.98,-56.324C2125.55,-47.9002 2146.38,-34.9709 2162.32,-25.0741"/>
<polygon fill="midnightblue" stroke="midnightblue" points="2164.41,-27.9019 2171.06,-19.6545 2160.71,-21.9544 2164.41,-27.9019"/>
</g>
<!-- Node36&#45;&gt;Node10 -->
<g id="edge55" class="edge"><title>Node36&#45;&gt;Node10</title>
<path fill="none" stroke="midnightblue" d="M1453.23,-57.8811C1456.18,-57.2117 1459.15,-56.5711 1462,-56 1549.9,-38.4002 1654.19,-23.4155 1708.99,-15.9909"/>
<polygon fill="midnightblue" stroke="midnightblue" points="1709.51,-19.4529 1718.95,-14.6509 1708.57,-12.5154 1709.51,-19.4529"/>
</g>
<!-- Node37&#45;&gt;Node10 -->
<g id="edge57" class="edge"><title>Node37&#45;&gt;Node10</title>
<path fill="none" stroke="midnightblue" d="M1523.32,-58.2987C1526.57,-57.5056 1529.86,-56.7222 1533,-56 1594.35,-41.8852 1666.02,-27.1747 1708.89,-18.5627"/>
<polygon fill="midnightblue" stroke="midnightblue" points="1709.77,-21.9565 1718.88,-16.5606 1708.39,-15.0928 1709.77,-21.9565"/>
</g>
<!-- Node37&#45;&gt;Node11 -->
<g id="edge58" class="edge"><title>Node37&#45;&gt;Node11</title>
<path fill="none" stroke="midnightblue" d="M1523.24,-57.8739C1526.51,-57.1536 1529.82,-56.5035 1533,-56 1767.94,-18.8214 2055.33,-12.357 2151.71,-11.235"/>
<polygon fill="midnightblue" stroke="midnightblue" points="2151.77,-14.7347 2161.73,-11.13 2151.7,-7.73506 2151.77,-14.7347"/>
</g>
<!-- Node37&#45;&gt;Node16 -->
<g id="edge59" class="edge"><title>Node37&#45;&gt;Node16</title>
<path fill="none" stroke="midnightblue" d="M1470.77,-57.831C1467.5,-57.118 1464.19,-56.4814 1461,-56 1158.55,-10.2884 786.871,-9.63814 676.409,-10.5852"/>
<polygon fill="midnightblue" stroke="midnightblue" points="676.22,-7.08681 666.255,-10.6836 676.288,-14.0865 676.22,-7.08681"/>
</g>
<!-- Node38&#45;&gt;Node10 -->
<g id="edge61" class="edge"><title>Node38&#45;&gt;Node10</title>
<path fill="none" stroke="midnightblue" d="M2572.21,-57.3653C2569.11,-56.8475 2566,-56.3812 2563,-56 2265.45,-18.2352 1902.88,-12.1552 1785.58,-11.1829"/>
<polygon fill="midnightblue" stroke="midnightblue" points="1785.34,-7.68115 1775.32,-11.106 1785.29,-14.681 1785.34,-7.68115"/>
</g>
<!-- Node38&#45;&gt;Node24 -->
<g id="edge62" class="edge"><title>Node38&#45;&gt;Node24</title>
<path fill="none" stroke="midnightblue" d="M2608,-56.083C2608,-49.0059 2608,-38.8611 2608,-29.9865"/>
<polygon fill="midnightblue" stroke="midnightblue" points="2611.5,-29.751 2608,-19.7511 2604.5,-29.7511 2611.5,-29.751"/>
</g>
<!-- Node39&#45;&gt;Node10 -->
<g id="edge64" class="edge"><title>Node39&#45;&gt;Node10</title>
<path fill="none" stroke="midnightblue" d="M2243.87,-57.8723C2240.55,-57.1712 2237.21,-56.526 2234,-56 2068.23,-28.8493 1867.84,-16.7883 1785.33,-12.7089"/>
<polygon fill="midnightblue" stroke="midnightblue" points="1785.33,-9.20492 1775.17,-12.2179 1784.99,-16.1968 1785.33,-9.20492"/>
</g>
<!-- Node39&#45;&gt;Node11 -->
<g id="edge65" class="edge"><title>Node39&#45;&gt;Node11</title>
<path fill="none" stroke="midnightblue" d="M2258.02,-56.324C2244.45,-47.9002 2223.62,-34.9709 2207.68,-25.0741"/>
<polygon fill="midnightblue" stroke="midnightblue" points="2209.29,-21.9544 2198.94,-19.6545 2205.59,-27.9019 2209.29,-21.9544"/>
</g>
<!-- Node41&#45;&gt;Node11 -->
<g id="edge68" class="edge"><title>Node41&#45;&gt;Node11</title>
<path fill="none" stroke="midnightblue" d="M2661.32,-58.023C2658.2,-57.258 2655.04,-56.5564 2652,-56 2490.93,-26.4967 2294.83,-15.5796 2218.05,-12.2521"/>
<polygon fill="midnightblue" stroke="midnightblue" points="2218.17,-8.75385 2208.03,-11.8318 2217.87,-15.7477 2218.17,-8.75385"/>
</g>
</g>
</svg>
