<?xml version="1.0" encoding="UTF-8" standalone="no"?>
<!DOCTYPE svg PUBLIC "-//W3C//DTD SVG 1.1//EN"
 "http://www.w3.org/Graphics/SVG/1.1/DTD/svg11.dtd">
<!-- Generated by graphviz version 2.36.0 (20140111.2315)
 -->
<!-- Title: show_one_sig_status Pages: 1 -->
<svg width="276pt" height="115pt"
 viewBox="0.00 0.00 276.00 115.00" xmlns="http://www.w3.org/2000/svg" xmlns:xlink="http://www.w3.org/1999/xlink">
<g id="graph0" class="graph" transform="scale(1 1) rotate(0) translate(4 111)">
<title>show_one_sig_status</title>
<polygon fill="white" stroke="none" points="-4,4 -4,-111 272,-111 272,4 -4,4"/>
<!-- Node1 -->
<g id="node1" class="node"><title>Node1</title>
<polygon fill="#bfbfbf" stroke="black" points="0.5,-49.5 0.5,-68.5 111.5,-68.5 111.5,-49.5 0.5,-49.5"/>
<text text-anchor="middle" x="56" y="-56.5" font-family="Helvetica,sans-Serif" font-size="10.00">show_one_sig_status</text>
</g>
<!-- Node2 -->
<g id="node2" class="node"><title>Node2</title>
<g id="a_node2"><a xlink:href="crypt__gpgme_8c.html#a490d3344cd29fb3466bc7868e4b26c87" target="_top" xlink:title="Do the actual verification step. ">
<polygon fill="white" stroke="red" points="177,-87.5 177,-106.5 239,-106.5 239,-87.5 177,-87.5"/>
<text text-anchor="middle" x="208" y="-94.5" font-family="Helvetica,sans-Serif" font-size="10.00">verify_one</text>
</a>
</g>
</g>
<!-- Node1&#45;&gt;Node2 -->
<g id="edge1" class="edge"><title>Node1&#45;&gt;Node2</title>
<path fill="none" stroke="midnightblue" d="M104.677,-71.0781C128.277,-77.0568 156.058,-84.0947 176.713,-89.3273"/>
<polygon fill="midnightblue" stroke="midnightblue" points="105.405,-67.652 94.8513,-68.589 103.686,-74.4377 105.405,-67.652"/>
</g>
<!-- Node3 -->
<g id="node3" class="node"><title>Node3</title>
<g id="a_node3"><a xlink:href="crypt__gpgme_8c.html#ae757f76311407e5a467fae53e795d046" target="_top" xlink:title="Decrypt a PGP or SMIME message. ">
<polygon fill="white" stroke="red" points="172.5,-49.5 172.5,-68.5 243.5,-68.5 243.5,-49.5 172.5,-49.5"/>
<text text-anchor="middle" x="208" y="-56.5" font-family="Helvetica,sans-Serif" font-size="10.00">decrypt_part</text>
</a>
</g>
</g>
<!-- Node1&#45;&gt;Node3 -->
<g id="edge2" class="edge"><title>Node1&#45;&gt;Node3</title>
<path fill="none" stroke="midnightblue" d="M121.7,-59C139.089,-59 157.231,-59 172.291,-59"/>
<polygon fill="midnightblue" stroke="midnightblue" points="121.578,-55.5001 111.578,-59 121.578,-62.5001 121.578,-55.5001"/>
</g>
<!-- Node4 -->
<g id="node4" class="node"><title>Node4</title>
<g id="a_node4"><a xlink:href="crypt__gpgme_8h.html#af9f3a30e035954c5624c3d673819a597" target="_top" xlink:title="Implements CryptModuleSpecs::application_handler() ">
<polygon fill="white" stroke="black" points="148.5,-0 148.5,-30 267.5,-30 267.5,-0 148.5,-0"/>
<text text-anchor="start" x="156.5" y="-18" font-family="Helvetica,sans-Serif" font-size="10.00">pgp_gpgme_application</text>
<text text-anchor="middle" x="208" y="-7" font-family="Helvetica,sans-Serif" font-size="10.00">_handler</text>
</a>
</g>
</g>
<!-- Node1&#45;&gt;Node4 -->
<g id="edge3" class="edge"><title>Node1&#45;&gt;Node4</title>
<path fill="none" stroke="midnightblue" d="M99.4611,-46.5447C116.936,-41.4187 137.335,-35.4351 155.641,-30.0654"/>
<polygon fill="midnightblue" stroke="midnightblue" points="98.1583,-43.2794 89.5478,-49.4527 100.129,-49.9963 98.1583,-43.2794"/>
</g>
</g>
</svg>
