<?xml version="1.0" encoding="UTF-8" standalone="no"?>
<!DOCTYPE svg PUBLIC "-//W3C//DTD SVG 1.1//EN"
 "http://www.w3.org/Graphics/SVG/1.1/DTD/svg11.dtd">
<!-- Generated by graphviz version 2.36.0 (20140111.2315)
 -->
<!-- Title: crypt_pgp_traditional_encryptsign Pages: 1 -->
<svg width="224pt" height="38pt"
 viewBox="0.00 0.00 224.00 38.00" xmlns="http://www.w3.org/2000/svg" xmlns:xlink="http://www.w3.org/1999/xlink">
<g id="graph0" class="graph" transform="scale(1 1) rotate(0) translate(4 34)">
<title>crypt_pgp_traditional_encryptsign</title>
<polygon fill="white" stroke="none" points="-4,4 -4,-34 220,-34 220,4 -4,4"/>
<!-- Node1 -->
<g id="node1" class="node"><title>Node1</title>
<polygon fill="#bfbfbf" stroke="black" points="0.5,-0 0.5,-30 107.5,-30 107.5,-0 0.5,-0"/>
<text text-anchor="start" x="8.5" y="-18" font-family="Helvetica,sans-Serif" font-size="10.00">crypt_pgp_traditional</text>
<text text-anchor="middle" x="54" y="-7" font-family="Helvetica,sans-Serif" font-size="10.00">_encryptsign</text>
</g>
<!-- Node2 -->
<g id="node2" class="node"><title>Node2</title>
<g id="a_node2"><a xlink:href="ncrypt_8h.html#a32971c8da3b857113a83d34f3c185f1d" target="_top" xlink:title="Encrypt and/or sign a message. ">
<polygon fill="white" stroke="red" points="144.5,-5.5 144.5,-24.5 215.5,-24.5 215.5,-5.5 144.5,-5.5"/>
<text text-anchor="middle" x="180" y="-12.5" font-family="Helvetica,sans-Serif" font-size="10.00">mutt_protect</text>
</a>
</g>
</g>
<!-- Node1&#45;&gt;Node2 -->
<g id="edge1" class="edge"><title>Node1&#45;&gt;Node2</title>
<path fill="none" stroke="midnightblue" d="M117.84,-15C126.95,-15 136.035,-15 144.31,-15"/>
<polygon fill="midnightblue" stroke="midnightblue" points="117.587,-11.5001 107.587,-15 117.587,-18.5001 117.587,-11.5001"/>
</g>
</g>
</svg>
