<?xml version="1.0" encoding="UTF-8" standalone="no"?>
<!DOCTYPE svg PUBLIC "-//W3C//DTD SVG 1.1//EN"
 "http://www.w3.org/Graphics/SVG/1.1/DTD/svg11.dtd">
<!-- Generated by graphviz version 2.36.0 (20140111.2315)
 -->
<!-- Title: crypt_select_key Pages: 1 -->
<svg width="398pt" height="707pt"
 viewBox="0.00 0.00 398.00 706.66" xmlns="http://www.w3.org/2000/svg" xmlns:xlink="http://www.w3.org/1999/xlink">
<g id="graph0" class="graph" transform="scale(1 1) rotate(0) translate(4 702.656)">
<title>crypt_select_key</title>
<polygon fill="white" stroke="none" points="-4,4 -4,-702.656 394,-702.656 394,4 -4,4"/>
<!-- Node1 -->
<g id="node1" class="node"><title>Node1</title>
<polygon fill="#bfbfbf" stroke="black" points="0.5,-342.5 0.5,-361.5 91.5,-361.5 91.5,-342.5 0.5,-342.5"/>
<text text-anchor="middle" x="46" y="-349.5" font-family="Helvetica,sans-Serif" font-size="10.00">crypt_select_key</text>
</g>
<!-- Node2 -->
<g id="node2" class="node"><title>Node2</title>
<g id="a_node2"><a xlink:href="memory_8c.html#af778eb8166966fc0666c64849f6c7c5b" target="_top" xlink:title="Resize a block of memory on the heap. ">
<polygon fill="white" stroke="red" points="292.5,-532.5 292.5,-551.5 389.5,-551.5 389.5,-532.5 292.5,-532.5"/>
<text text-anchor="middle" x="341" y="-539.5" font-family="Helvetica,sans-Serif" font-size="10.00">mutt_mem_realloc</text>
</a>
</g>
</g>
<!-- Node1&#45;&gt;Node2 -->
<g id="edge1" class="edge"><title>Node1&#45;&gt;Node2</title>
<path fill="none" stroke="midnightblue" d="M47.8604,-361.614C52.4868,-410.908 76.1513,-634.548 128,-675 172.853,-709.994 206.178,-702.461 256,-675 300.094,-650.697 324.243,-592.421 334.306,-561.708"/>
<polygon fill="midnightblue" stroke="midnightblue" points="337.774,-562.341 337.387,-551.753 331.087,-560.271 337.774,-562.341"/>
</g>
<!-- Node3 -->
<g id="node3" class="node"><title>Node3</title>
<g id="a_node3"><a xlink:href="crypt__gpgme_8c.html#a36f9707aa70c9ca4db97845a85360872" target="_top" xlink:title="Compare the addresses of two keys. ">
<polygon fill="white" stroke="red" points="131.5,-646.5 131.5,-665.5 252.5,-665.5 252.5,-646.5 131.5,-646.5"/>
<text text-anchor="middle" x="192" y="-653.5" font-family="Helvetica,sans-Serif" font-size="10.00">crypt_compare_address</text>
</a>
</g>
</g>
<!-- Node1&#45;&gt;Node3 -->
<g id="edge2" class="edge"><title>Node1&#45;&gt;Node3</title>
<path fill="none" stroke="midnightblue" d="M46.6624,-361.709C45.8205,-401.752 48.0818,-555.792 128,-637 129.442,-638.466 130.993,-639.819 132.631,-641.069"/>
<polygon fill="midnightblue" stroke="midnightblue" points="131.082,-644.226 141.431,-646.494 134.755,-638.267 131.082,-644.226"/>
</g>
<!-- Node4 -->
<g id="node4" class="node"><title>Node4</title>
<g id="a_node4"><a xlink:href="crypt__gpgme_8c.html#ac71ceafa8440f02eddce67858880262d" target="_top" xlink:title="Compare the dates of two keys. ">
<polygon fill="white" stroke="red" points="139.5,-608.5 139.5,-627.5 244.5,-627.5 244.5,-608.5 139.5,-608.5"/>
<text text-anchor="middle" x="192" y="-615.5" font-family="Helvetica,sans-Serif" font-size="10.00">crypt_compare_date</text>
</a>
</g>
</g>
<!-- Node1&#45;&gt;Node4 -->
<g id="edge3" class="edge"><title>Node1&#45;&gt;Node4</title>
<path fill="none" stroke="midnightblue" d="M47.1553,-361.661C48.2802,-398.281 57.2825,-529.958 128,-599 129.627,-600.589 131.382,-602.045 133.235,-603.38"/>
<polygon fill="midnightblue" stroke="midnightblue" points="131.506,-606.424 141.897,-608.492 135.064,-600.395 131.506,-606.424"/>
</g>
<!-- Node5 -->
<g id="node5" class="node"><title>Node5</title>
<g id="a_node5"><a xlink:href="crypt__gpgme_8c.html#a681bcd56e9e69cf91f3c089cf0f20121" target="_top" xlink:title="Compare the IDs of two keys. ">
<polygon fill="white" stroke="red" points="137,-570.5 137,-589.5 247,-589.5 247,-570.5 137,-570.5"/>
<text text-anchor="middle" x="192" y="-577.5" font-family="Helvetica,sans-Serif" font-size="10.00">crypt_compare_keyid</text>
</a>
</g>
</g>
<!-- Node1&#45;&gt;Node5 -->
<g id="edge4" class="edge"><title>Node1&#45;&gt;Node5</title>
<path fill="none" stroke="midnightblue" d="M47.7974,-361.53C51.0616,-394.363 66.3253,-503.89 128,-561 129.703,-562.577 131.532,-564.023 133.456,-565.349"/>
<polygon fill="midnightblue" stroke="midnightblue" points="131.988,-568.54 142.413,-570.43 135.442,-562.451 131.988,-568.54"/>
</g>
<!-- Node6 -->
<g id="node6" class="node"><title>Node6</title>
<g id="a_node6"><a xlink:href="crypt__gpgme_8c.html#ac31bd967c25ce2dec301dc582f7839f6" target="_top" xlink:title="Compare the trust levels of two keys. ">
<polygon fill="white" stroke="red" points="139,-532.5 139,-551.5 245,-551.5 245,-532.5 139,-532.5"/>
<text text-anchor="middle" x="192" y="-539.5" font-family="Helvetica,sans-Serif" font-size="10.00">crypt_compare_trust</text>
</a>
</g>
</g>
<!-- Node1&#45;&gt;Node6 -->
<g id="edge5" class="edge"><title>Node1&#45;&gt;Node6</title>
<path fill="none" stroke="midnightblue" d="M48.7588,-361.802C54.5047,-390.937 75.466,-477.784 128,-523 129.97,-524.695 132.087,-526.24 134.31,-527.646"/>
<polygon fill="midnightblue" stroke="midnightblue" points="132.844,-530.83 143.319,-532.416 136.119,-524.643 132.844,-530.83"/>
</g>
<!-- Node7 -->
<g id="node7" class="node"><title>Node7</title>
<g id="a_node7"><a xlink:href="help_8c.html#ac7f38173d5c07f3f213e883832aaeddc" target="_top" xlink:title="Create one entry for the help bar. ">
<polygon fill="white" stroke="red" points="147.5,-494.5 147.5,-513.5 236.5,-513.5 236.5,-494.5 147.5,-494.5"/>
<text text-anchor="middle" x="192" y="-501.5" font-family="Helvetica,sans-Serif" font-size="10.00">mutt_make_help</text>
</a>
</g>
</g>
<!-- Node1&#45;&gt;Node7 -->
<g id="edge6" class="edge"><title>Node1&#45;&gt;Node7</title>
<path fill="none" stroke="midnightblue" d="M50.1436,-361.695C58.5913,-386.204 84.1602,-451.092 128,-485 131.113,-487.408 134.53,-489.512 138.111,-491.35"/>
<polygon fill="midnightblue" stroke="midnightblue" points="136.714,-494.559 147.276,-495.394 139.54,-488.155 136.714,-494.559"/>
</g>
<!-- Node8 -->
<g id="node8" class="node"><title>Node8</title>
<g id="a_node8"><a xlink:href="menu_8c.html#a07fe8255b23ce3d17da2c1cb6f8a7958" target="_top" xlink:title="Create a new Menu. ">
<polygon fill="white" stroke="red" points="147.5,-456.5 147.5,-475.5 236.5,-475.5 236.5,-456.5 147.5,-456.5"/>
<text text-anchor="middle" x="192" y="-463.5" font-family="Helvetica,sans-Serif" font-size="10.00">mutt_menu_new</text>
</a>
</g>
</g>
<!-- Node1&#45;&gt;Node8 -->
<g id="edge7" class="edge"><title>Node1&#45;&gt;Node8</title>
<path fill="none" stroke="midnightblue" d="M52.579,-361.673C64.1419,-380.861 92.6203,-423.879 128,-447 131.15,-449.058 134.532,-450.902 138.035,-452.551"/>
<polygon fill="midnightblue" stroke="midnightblue" points="136.933,-455.883 147.511,-456.479 139.613,-449.417 136.933,-455.883"/>
</g>
<!-- Node9 -->
<g id="node9" class="node"><title>Node9</title>
<g id="a_node9"><a xlink:href="crypt__gpgme_8c.html#aadfbad730c8e2258e872742b3d209a01" target="_top" xlink:title="Format a menu item for the key selection list. ">
<polygon fill="white" stroke="red" points="159.5,-418.5 159.5,-437.5 224.5,-437.5 224.5,-418.5 159.5,-418.5"/>
<text text-anchor="middle" x="192" y="-425.5" font-family="Helvetica,sans-Serif" font-size="10.00">crypt_entry</text>
</a>
</g>
</g>
<!-- Node1&#45;&gt;Node9 -->
<g id="edge8" class="edge"><title>Node1&#45;&gt;Node9</title>
<path fill="none" stroke="midnightblue" d="M58.0699,-361.552C73.0273,-374.029 100.944,-395.828 128,-409 134.856,-412.338 142.42,-415.227 149.857,-417.674"/>
<polygon fill="midnightblue" stroke="midnightblue" points="148.902,-421.042 159.489,-420.637 150.96,-414.352 148.902,-421.042"/>
</g>
<!-- Node10 -->
<g id="node10" class="node"><title>Node10</title>
<g id="a_node10"><a xlink:href="menu_8c.html#a04f3d31793e49bd9c718fd184ce3d575" target="_top" xlink:title="Add a new Menu to the stack. ">
<polygon fill="white" stroke="black" points="128.5,-380.5 128.5,-399.5 255.5,-399.5 255.5,-380.5 128.5,-380.5"/>
<text text-anchor="middle" x="192" y="-387.5" font-family="Helvetica,sans-Serif" font-size="10.00">mutt_menu_push_current</text>
</a>
</g>
</g>
<!-- Node1&#45;&gt;Node10 -->
<g id="edge9" class="edge"><title>Node1&#45;&gt;Node10</title>
<path fill="none" stroke="midnightblue" d="M83.3373,-361.589C102.083,-366.536 125.143,-372.621 145.107,-377.889"/>
<polygon fill="midnightblue" stroke="midnightblue" points="144.362,-381.312 154.924,-380.48 146.148,-374.544 144.362,-381.312"/>
</g>
<!-- Node11 -->
<g id="node11" class="node"><title>Node11</title>
<g id="a_node11"><a xlink:href="mutt__logging_8c.html#af068b3f524a31fad293b2fb61dfc4534" target="_top" xlink:title="Clear the message line (bottom line of screen) ">
<polygon fill="white" stroke="red" points="297.5,-285.5 297.5,-304.5 384.5,-304.5 384.5,-285.5 297.5,-285.5"/>
<text text-anchor="middle" x="341" y="-292.5" font-family="Helvetica,sans-Serif" font-size="10.00">mutt_clear_error</text>
</a>
</g>
</g>
<!-- Node1&#45;&gt;Node11 -->
<g id="edge11" class="edge"><title>Node1&#45;&gt;Node11</title>
<path fill="none" stroke="midnightblue" d="M91.7778,-352.215C134.612,-351.424 200.688,-347.581 256,-333 276.442,-327.611 298.15,-317.668 314.377,-309.304"/>
<polygon fill="midnightblue" stroke="midnightblue" points="316.046,-312.381 323.246,-304.609 312.771,-306.194 316.046,-312.381"/>
</g>
<!-- Node12 -->
<g id="node12" class="node"><title>Node12</title>
<g id="a_node12"><a xlink:href="menu_8c.html#a2a7161a4171307d15f2362f5d55dfdb1" target="_top" xlink:title="Menu event loop. ">
<polygon fill="white" stroke="red" points="147.5,-304.5 147.5,-323.5 236.5,-323.5 236.5,-304.5 147.5,-304.5"/>
<text text-anchor="middle" x="192" y="-311.5" font-family="Helvetica,sans-Serif" font-size="10.00">mutt_menu_loop</text>
</a>
</g>
</g>
<!-- Node1&#45;&gt;Node12 -->
<g id="edge12" class="edge"><title>Node1&#45;&gt;Node12</title>
<path fill="none" stroke="midnightblue" d="M83.3373,-342.411C102.083,-337.464 125.143,-331.379 145.107,-326.111"/>
<polygon fill="midnightblue" stroke="midnightblue" points="146.148,-329.456 154.924,-323.52 144.362,-322.688 146.148,-329.456"/>
</g>
<!-- Node13 -->
<g id="node13" class="node"><title>Node13</title>
<g id="a_node13"><a xlink:href="crypt__gpgme_8c.html#abf137f94451de251c8179788615f4b74" target="_top" xlink:title="Show detailed information about the selected key. ">
<polygon fill="white" stroke="red" points="161,-266.5 161,-285.5 223,-285.5 223,-266.5 161,-266.5"/>
<text text-anchor="middle" x="192" y="-273.5" font-family="Helvetica,sans-Serif" font-size="10.00">verify_key</text>
</a>
</g>
</g>
<!-- Node1&#45;&gt;Node13 -->
<g id="edge14" class="edge"><title>Node1&#45;&gt;Node13</title>
<path fill="none" stroke="midnightblue" d="M58.0699,-342.448C73.0273,-329.971 100.944,-308.172 128,-295 135.222,-291.484 143.23,-288.466 151.046,-285.938"/>
<polygon fill="midnightblue" stroke="midnightblue" points="152.213,-289.242 160.772,-282.997 150.187,-282.541 152.213,-289.242"/>
</g>
<!-- Node14 -->
<g id="node14" class="node"><title>Node14</title>
<g id="a_node14"><a xlink:href="crypt__gpgme_8c.html#a9cb16b08108f16a623ed75e5f27f6863" target="_top" xlink:title="Is the key valid. ">
<polygon fill="white" stroke="black" points="143,-228.5 143,-247.5 241,-247.5 241,-228.5 143,-228.5"/>
<text text-anchor="middle" x="192" y="-235.5" font-family="Helvetica,sans-Serif" font-size="10.00">crypt_key_is_valid</text>
</a>
</g>
</g>
<!-- Node1&#45;&gt;Node14 -->
<g id="edge16" class="edge"><title>Node1&#45;&gt;Node14</title>
<path fill="none" stroke="midnightblue" d="M52.579,-342.327C64.1419,-323.139 92.6203,-280.121 128,-257 131.15,-254.942 134.532,-253.098 138.035,-251.449"/>
<polygon fill="midnightblue" stroke="midnightblue" points="139.613,-254.583 147.511,-247.521 136.933,-248.117 139.613,-254.583"/>
</g>
<!-- Node15 -->
<g id="node15" class="node"><title>Node15</title>
<g id="a_node15"><a xlink:href="crypt__gpgme_8c.html#a708c9d8760ce17fa209ae59c7b6ac97a" target="_top" xlink:title="Is key ID valid. ">
<polygon fill="white" stroke="black" points="147.5,-190.5 147.5,-209.5 236.5,-209.5 236.5,-190.5 147.5,-190.5"/>
<text text-anchor="middle" x="192" y="-197.5" font-family="Helvetica,sans-Serif" font-size="10.00">crypt_id_is_valid</text>
</a>
</g>
</g>
<!-- Node1&#45;&gt;Node15 -->
<g id="edge17" class="edge"><title>Node1&#45;&gt;Node15</title>
<path fill="none" stroke="midnightblue" d="M50.1436,-342.305C58.5913,-317.796 84.1602,-252.908 128,-219 131.113,-216.592 134.53,-214.488 138.111,-212.65"/>
<polygon fill="midnightblue" stroke="midnightblue" points="139.54,-215.845 147.276,-208.606 136.714,-209.441 139.54,-215.845"/>
</g>
<!-- Node16 -->
<g id="node16" class="node"><title>Node16</title>
<g id="a_node16"><a xlink:href="crypt__gpgme_8c.html#aaefb958c689b1ae848ef4e60e13eaaad" target="_top" xlink:title="Is the key strong. ">
<polygon fill="white" stroke="black" points="144,-152.5 144,-171.5 240,-171.5 240,-152.5 144,-152.5"/>
<text text-anchor="middle" x="192" y="-159.5" font-family="Helvetica,sans-Serif" font-size="10.00">crypt_id_is_strong</text>
</a>
</g>
</g>
<!-- Node1&#45;&gt;Node16 -->
<g id="edge18" class="edge"><title>Node1&#45;&gt;Node16</title>
<path fill="none" stroke="midnightblue" d="M48.7588,-342.198C54.5047,-313.063 75.466,-226.216 128,-181 130.192,-179.114 132.566,-177.415 135.065,-175.884"/>
<polygon fill="midnightblue" stroke="midnightblue" points="136.672,-178.993 143.96,-171.304 133.467,-172.77 136.672,-178.993"/>
</g>
<!-- Node17 -->
<g id="node17" class="node"><title>Node17</title>
<g id="a_node17"><a xlink:href="curs__lib_8c.html#a2ac481c92c3c888c1f658696909a3430" target="_top" xlink:title="Ask the user a Yes/No question. ">
<polygon fill="white" stroke="red" points="154,-114.5 154,-133.5 230,-133.5 230,-114.5 154,-114.5"/>
<text text-anchor="middle" x="192" y="-121.5" font-family="Helvetica,sans-Serif" font-size="10.00">mutt_yesorno</text>
</a>
</g>
</g>
<!-- Node1&#45;&gt;Node17 -->
<g id="edge19" class="edge"><title>Node1&#45;&gt;Node17</title>
<path fill="none" stroke="midnightblue" d="M47.7974,-342.47C51.0616,-309.637 66.3253,-200.11 128,-143 132.676,-138.67 138.305,-135.325 144.25,-132.742"/>
<polygon fill="midnightblue" stroke="midnightblue" points="145.564,-135.988 153.761,-129.276 143.167,-129.411 145.564,-135.988"/>
</g>
<!-- Node18 -->
<g id="node18" class="node"><title>Node18</title>
<g id="a_node18"><a xlink:href="crypt__gpgme_8c.html#a39f5757e842f414fd64498dbcb7fdffc" target="_top" xlink:title="Return a copy of KEY. ">
<polygon fill="white" stroke="red" points="149,-76.5 149,-95.5 235,-95.5 235,-76.5 149,-76.5"/>
<text text-anchor="middle" x="192" y="-83.5" font-family="Helvetica,sans-Serif" font-size="10.00">crypt_copy_key</text>
</a>
</g>
</g>
<!-- Node1&#45;&gt;Node18 -->
<g id="edge21" class="edge"><title>Node1&#45;&gt;Node18</title>
<path fill="none" stroke="midnightblue" d="M47.1553,-342.339C48.2802,-305.719 57.2825,-174.042 128,-105 131.446,-101.636 135.465,-98.8641 139.776,-96.5814"/>
<polygon fill="midnightblue" stroke="midnightblue" points="141.198,-99.7794 148.943,-92.5489 138.38,-93.372 141.198,-99.7794"/>
</g>
<!-- Node19 -->
<g id="node19" class="node"><title>Node19</title>
<g id="a_node19"><a xlink:href="menu_8c.html#acbb5c8e0e047ca06629a7e8ee967d890" target="_top" xlink:title="Remove a Menu from the stack. ">
<polygon fill="white" stroke="red" points="131,-38.5 131,-57.5 253,-57.5 253,-38.5 131,-38.5"/>
<text text-anchor="middle" x="192" y="-45.5" font-family="Helvetica,sans-Serif" font-size="10.00">mutt_menu_pop_current</text>
</a>
</g>
</g>
<!-- Node1&#45;&gt;Node19 -->
<g id="edge22" class="edge"><title>Node1&#45;&gt;Node19</title>
<path fill="none" stroke="midnightblue" d="M46.6624,-342.291C45.8205,-302.248 48.0818,-148.208 128,-67 129.442,-65.5344 130.993,-64.1809 132.631,-62.9311"/>
<polygon fill="midnightblue" stroke="midnightblue" points="134.755,-65.7329 141.431,-57.5062 131.082,-59.774 134.755,-65.7329"/>
</g>
<!-- Node20 -->
<g id="node20" class="node"><title>Node20</title>
<g id="a_node20"><a xlink:href="menu_8c.html#a466caa434b1d937fe3b1c6d690b0110d" target="_top" xlink:title="Destroy a menu. ">
<polygon fill="white" stroke="black" points="140.5,-0.5 140.5,-19.5 243.5,-19.5 243.5,-0.5 140.5,-0.5"/>
<text text-anchor="middle" x="192" y="-7.5" font-family="Helvetica,sans-Serif" font-size="10.00">mutt_menu_destroy</text>
</a>
</g>
</g>
<!-- Node1&#45;&gt;Node20 -->
<g id="edge23" class="edge"><title>Node1&#45;&gt;Node20</title>
<path fill="none" stroke="midnightblue" d="M48.1392,-342.332C54.051,-293.723 82.7094,-76.4807 128,-29 129.39,-27.543 130.887,-26.1966 132.47,-24.9525"/>
<polygon fill="midnightblue" stroke="midnightblue" points="134.429,-27.8548 141.001,-19.5451 130.681,-21.9423 134.429,-27.8548"/>
</g>
<!-- Node10&#45;&gt;Node2 -->
<g id="edge10" class="edge"><title>Node10&#45;&gt;Node2</title>
<path fill="none" stroke="midnightblue" d="M238.951,-399.579C245.029,-402.04 250.908,-405.127 256,-409 295.688,-439.184 321.492,-493.964 333.029,-522.903"/>
<polygon fill="midnightblue" stroke="midnightblue" points="329.784,-524.219 336.633,-532.303 336.32,-521.713 329.784,-524.219"/>
</g>
<!-- Node12&#45;&gt;Node11 -->
<g id="edge13" class="edge"><title>Node12&#45;&gt;Node11</title>
<path fill="none" stroke="midnightblue" d="M236.707,-308.351C252.616,-306.294 270.768,-303.948 287.37,-301.803"/>
<polygon fill="midnightblue" stroke="midnightblue" points="288.004,-305.25 297.473,-300.497 287.107,-298.307 288.004,-305.25"/>
</g>
<!-- Node13&#45;&gt;Node11 -->
<g id="edge15" class="edge"><title>Node13&#45;&gt;Node11</title>
<path fill="none" stroke="midnightblue" d="M223.102,-279.891C241.593,-282.281 265.794,-285.409 287.375,-288.198"/>
<polygon fill="midnightblue" stroke="midnightblue" points="287.033,-291.683 297.399,-289.494 287.93,-284.741 287.033,-291.683"/>
</g>
<!-- Node17&#45;&gt;Node11 -->
<g id="edge20" class="edge"><title>Node17&#45;&gt;Node11</title>
<path fill="none" stroke="midnightblue" d="M230.321,-130.141C239.408,-132.95 248.624,-137.042 256,-143 299.832,-178.403 324.432,-243.116 334.521,-275.482"/>
<polygon fill="midnightblue" stroke="midnightblue" points="331.186,-276.543 337.393,-285.129 337.895,-274.546 331.186,-276.543"/>
</g>
</g>
</svg>
