<?xml version="1.0" encoding="UTF-8" standalone="no"?>
<!DOCTYPE svg PUBLIC "-//W3C//DTD SVG 1.1//EN"
 "http://www.w3.org/Graphics/SVG/1.1/DTD/svg11.dtd">
<!-- Generated by graphviz version 2.36.0 (20140111.2315)
 -->
<!-- Title: crypt_pgp_check_traditional Pages: 1 -->
<svg width="298pt" height="77pt"
 viewBox="0.00 0.00 298.00 77.00" xmlns="http://www.w3.org/2000/svg" xmlns:xlink="http://www.w3.org/1999/xlink">
<g id="graph0" class="graph" transform="scale(1 1) rotate(0) translate(4 73)">
<title>crypt_pgp_check_traditional</title>
<polygon fill="white" stroke="none" points="-4,4 -4,-73 294,-73 294,4 -4,4"/>
<!-- Node1 -->
<g id="node1" class="node"><title>Node1</title>
<polygon fill="#bfbfbf" stroke="black" points="0,-27.5 0,-46.5 138,-46.5 138,-27.5 0,-27.5"/>
<text text-anchor="middle" x="69" y="-34.5" font-family="Helvetica,sans-Serif" font-size="10.00">crypt_pgp_check_traditional</text>
</g>
<!-- Node2 -->
<g id="node2" class="node"><title>Node2</title>
<g id="a_node2"><a xlink:href="commands_8c.html#a844de87332c13f05311a72a7b3a6ea96" target="_top" xlink:title="Check for an inline PGP content. ">
<polygon fill="white" stroke="red" points="176.5,-49.5 176.5,-68.5 287.5,-68.5 287.5,-49.5 176.5,-49.5"/>
<text text-anchor="middle" x="232" y="-56.5" font-family="Helvetica,sans-Serif" font-size="10.00">check_traditional_pgp</text>
</a>
</g>
</g>
<!-- Node1&#45;&gt;Node2 -->
<g id="edge1" class="edge"><title>Node1&#45;&gt;Node2</title>
<path fill="none" stroke="midnightblue" d="M148.45,-47.7198C157.859,-49.0056 167.306,-50.2964 176.275,-51.5221"/>
<polygon fill="midnightblue" stroke="midnightblue" points="148.66,-44.2162 138.278,-46.33 147.713,-51.1517 148.66,-44.2162"/>
</g>
<!-- Node3 -->
<g id="node3" class="node"><title>Node3</title>
<g id="a_node3"><a xlink:href="recvattach_8c.html#a60d9fc9257f39e8ba116b6e683e16fae" target="_top" xlink:title="Is the Attachment inline PGP? ">
<polygon fill="white" stroke="red" points="174.5,-0 174.5,-30 289.5,-30 289.5,-0 174.5,-0"/>
<text text-anchor="start" x="182.5" y="-18" font-family="Helvetica,sans-Serif" font-size="10.00">recvattach_pgp_check</text>
<text text-anchor="middle" x="232" y="-7" font-family="Helvetica,sans-Serif" font-size="10.00">_traditional</text>
</a>
</g>
</g>
<!-- Node1&#45;&gt;Node3 -->
<g id="edge2" class="edge"><title>Node1&#45;&gt;Node3</title>
<path fill="none" stroke="midnightblue" d="M148.466,-26.278C157.177,-25.0876 165.92,-23.8929 174.287,-22.7496"/>
<polygon fill="midnightblue" stroke="midnightblue" points="147.713,-22.8483 138.278,-27.67 148.66,-29.7838 147.713,-22.8483"/>
</g>
</g>
</svg>
