<?xml version="1.0" encoding="UTF-8" standalone="no"?>
<!DOCTYPE svg PUBLIC "-//W3C//DTD SVG 1.1//EN"
 "http://www.w3.org/Graphics/SVG/1.1/DTD/svg11.dtd">
<!-- Generated by graphviz version 2.36.0 (20140111.2315)
 -->
<!-- Title: pgp_gpgme_invoke_import Pages: 1 -->
<svg width="428pt" height="104pt"
 viewBox="0.00 0.00 428.00 104.00" xmlns="http://www.w3.org/2000/svg" xmlns:xlink="http://www.w3.org/1999/xlink">
<g id="graph0" class="graph" transform="scale(1 1) rotate(0) translate(4 100)">
<title>pgp_gpgme_invoke_import</title>
<polygon fill="white" stroke="none" points="-4,4 -4,-100 424,-100 424,4 -4,4"/>
<!-- Node1 -->
<g id="node1" class="node"><title>Node1</title>
<polygon fill="#bfbfbf" stroke="black" points="0.5,-38.5 0.5,-57.5 133.5,-57.5 133.5,-38.5 0.5,-38.5"/>
<text text-anchor="middle" x="67" y="-45.5" font-family="Helvetica,sans-Serif" font-size="10.00">pgp_gpgme_invoke_import</text>
</g>
<!-- Node2 -->
<g id="node2" class="node"><title>Node2</title>
<g id="a_node2"><a xlink:href="file_8c.html#ae1c0c19fec03274220b3ca065ad1e2e5" target="_top" xlink:title="Call fopen() safely. ">
<polygon fill="white" stroke="red" points="192.5,-76.5 192.5,-95.5 275.5,-95.5 275.5,-76.5 192.5,-76.5"/>
<text text-anchor="middle" x="234" y="-83.5" font-family="Helvetica,sans-Serif" font-size="10.00">mutt_file_fopen</text>
</a>
</g>
</g>
<!-- Node1&#45;&gt;Node2 -->
<g id="edge1" class="edge"><title>Node1&#45;&gt;Node2</title>
<path fill="none" stroke="midnightblue" d="M109.636,-57.589C131.674,-62.6644 158.917,-68.9384 182.191,-74.2986"/>
<polygon fill="midnightblue" stroke="midnightblue" points="181.703,-77.7777 192.233,-76.6113 183.274,-70.9562 181.703,-77.7777"/>
</g>
<!-- Node3 -->
<g id="node3" class="node"><title>Node3</title>
<g id="a_node3"><a xlink:href="file_8c.html#a4982d9040dfaf38e847729be2af83ed6" target="_top" xlink:title="Close a FILE handle (and NULL the pointer) ">
<polygon fill="white" stroke="black" points="334,-19.5 334,-38.5 420,-38.5 420,-19.5 334,-19.5"/>
<text text-anchor="middle" x="377" y="-26.5" font-family="Helvetica,sans-Serif" font-size="10.00">mutt_file_fclose</text>
</a>
</g>
</g>
<!-- Node1&#45;&gt;Node3 -->
<g id="edge2" class="edge"><title>Node1&#45;&gt;Node3</title>
<path fill="none" stroke="midnightblue" d="M133.696,-43.9473C190.342,-40.453 271.062,-35.4735 323.491,-32.2392"/>
<polygon fill="midnightblue" stroke="midnightblue" points="323.819,-35.7257 333.584,-31.6166 323.388,-28.739 323.819,-35.7257"/>
</g>
<!-- Node4 -->
<g id="node4" class="node"><title>Node4</title>
<g id="a_node4"><a xlink:href="crypt__gpgme_8c.html#ada2e31886edb9f9b2753be90ba6861b3" target="_top" xlink:title="Write PGP keys to a file. ">
<polygon fill="white" stroke="red" points="170,-0.5 170,-19.5 298,-19.5 298,-0.5 170,-0.5"/>
<text text-anchor="middle" x="234" y="-7.5" font-family="Helvetica,sans-Serif" font-size="10.00">pgp_gpgme_extract_keys</text>
</a>
</g>
</g>
<!-- Node1&#45;&gt;Node4 -->
<g id="edge3" class="edge"><title>Node1&#45;&gt;Node4</title>
<path fill="none" stroke="midnightblue" d="M109.636,-38.411C131.508,-33.3739 158.506,-27.1562 181.664,-21.8229"/>
<polygon fill="midnightblue" stroke="midnightblue" points="182.704,-25.1751 191.663,-19.5201 181.133,-18.3537 182.704,-25.1751"/>
</g>
<!-- Node4&#45;&gt;Node3 -->
<g id="edge4" class="edge"><title>Node4&#45;&gt;Node3</title>
<path fill="none" stroke="midnightblue" d="M298.077,-18.4997C306.626,-19.6517 315.322,-20.8236 323.655,-21.9465"/>
<polygon fill="midnightblue" stroke="midnightblue" points="323.228,-25.4204 333.606,-23.2873 324.163,-18.4831 323.228,-25.4204"/>
</g>
</g>
</svg>
