<?xml version="1.0" encoding="UTF-8" standalone="no"?>
<!DOCTYPE svg PUBLIC "-//W3C//DTD SVG 1.1//EN"
 "http://www.w3.org/Graphics/SVG/1.1/DTD/svg11.dtd">
<!-- Generated by graphviz version 2.36.0 (20140111.2315)
 -->
<!-- Title: pgp_gpgme_encrypt_message Pages: 1 -->
<svg width="570pt" height="335pt"
 viewBox="0.00 0.00 570.00 335.08" xmlns="http://www.w3.org/2000/svg" xmlns:xlink="http://www.w3.org/1999/xlink">
<g id="graph0" class="graph" transform="scale(1 1) rotate(0) translate(4 331.082)">
<title>pgp_gpgme_encrypt_message</title>
<polygon fill="white" stroke="none" points="-4,4 -4,-331.082 566,-331.082 566,4 -4,4"/>
<!-- Node1 -->
<g id="node1" class="node"><title>Node1</title>
<polygon fill="#bfbfbf" stroke="black" points="0.5,-137.582 0.5,-156.582 149.5,-156.582 149.5,-137.582 0.5,-137.582"/>
<text text-anchor="middle" x="75" y="-144.582" font-family="Helvetica,sans-Serif" font-size="10.00">pgp_gpgme_encrypt_message</text>
</g>
<!-- Node2 -->
<g id="node2" class="node"><title>Node2</title>
<g id="a_node2"><a xlink:href="crypt__gpgme_8c.html#a42d6fbd0ab6765b13722776391487825" target="_top" xlink:title="Create a GpgmeRecipientSet from a string of keys. ">
<polygon fill="white" stroke="red" points="196,-307.582 196,-326.582 300,-326.582 300,-307.582 196,-307.582"/>
<text text-anchor="middle" x="248" y="-314.582" font-family="Helvetica,sans-Serif" font-size="10.00">create_recipient_set</text>
</a>
</g>
</g>
<!-- Node1&#45;&gt;Node2 -->
<g id="edge1" class="edge"><title>Node1&#45;&gt;Node2</title>
<path fill="none" stroke="midnightblue" d="M80.7991,-156.712C94.0587,-182.405 133.701,-253.326 186,-293.082 191.357,-297.154 197.493,-300.625 203.763,-303.556"/>
<polygon fill="midnightblue" stroke="midnightblue" points="202.397,-306.779 212.969,-307.47 205.136,-300.337 202.397,-306.779"/>
</g>
<!-- Node3 -->
<g id="node3" class="node"><title>Node3</title>
<g id="a_node3"><a xlink:href="crypt__gpgme_8c.html#a6889071f6a2194be994b0f22a74514d5" target="_top" xlink:title="Free a set of recipients. ">
<polygon fill="white" stroke="black" points="346,-288.582 346,-307.582 440,-307.582 440,-288.582 346,-288.582"/>
<text text-anchor="middle" x="393" y="-295.582" font-family="Helvetica,sans-Serif" font-size="10.00">free_recipient_set</text>
</a>
</g>
</g>
<!-- Node1&#45;&gt;Node3 -->
<g id="edge6" class="edge"><title>Node1&#45;&gt;Node3</title>
<path fill="none" stroke="midnightblue" d="M82.3291,-156.898C97.3318,-179.279 137.461,-234.153 186,-260.082 232.623,-284.988 292.71,-293.862 335.943,-296.88"/>
<polygon fill="midnightblue" stroke="midnightblue" points="335.804,-300.378 346,-297.499 336.233,-293.392 335.804,-300.378"/>
</g>
<!-- Node4 -->
<g id="node4" class="node"><title>Node4</title>
<g id="a_node4"><a xlink:href="crypt_8c.html#a7321a72cf7c00a3a126fdba74a648191" target="_top" xlink:title="Convert an email to 7bit encoding. ">
<polygon fill="white" stroke="red" points="193,-213.582 193,-232.582 303,-232.582 303,-213.582 193,-213.582"/>
<text text-anchor="middle" x="248" y="-220.582" font-family="Helvetica,sans-Serif" font-size="10.00">crypt_convert_to_7bit</text>
</a>
</g>
</g>
<!-- Node1&#45;&gt;Node4 -->
<g id="edge3" class="edge"><title>Node1&#45;&gt;Node4</title>
<path fill="none" stroke="midnightblue" d="M92.3378,-156.71C113.449,-168.877 151.584,-189.934 186,-204.082 191.455,-206.324 197.275,-208.455 203.074,-210.423"/>
<polygon fill="midnightblue" stroke="midnightblue" points="202.152,-213.804 212.745,-213.574 204.321,-207.148 202.152,-213.804"/>
</g>
<!-- Node5 -->
<g id="node5" class="node"><title>Node5</title>
<g id="a_node5"><a xlink:href="crypt__gpgme_8c.html#a5f88576e041b52a5e0196a77d808ad74" target="_top" xlink:title="Create GPGME object from the mail body. ">
<polygon fill="white" stroke="red" points="194.5,-175.582 194.5,-194.582 301.5,-194.582 301.5,-175.582 194.5,-175.582"/>
<text text-anchor="middle" x="248" y="-182.582" font-family="Helvetica,sans-Serif" font-size="10.00">body_to_data_object</text>
</a>
</g>
</g>
<!-- Node1&#45;&gt;Node5 -->
<g id="edge5" class="edge"><title>Node1&#45;&gt;Node5</title>
<path fill="none" stroke="midnightblue" d="M119.151,-156.671C141.919,-161.731 170.048,-167.982 194.119,-173.331"/>
<polygon fill="midnightblue" stroke="midnightblue" points="193.639,-176.809 204.16,-175.562 195.157,-169.976 193.639,-176.809"/>
</g>
<!-- Node6 -->
<g id="node6" class="node"><title>Node6</title>
<g id="a_node6"><a xlink:href="crypt__gpgme_8c.html#a12881989b10ae49d0f1a237d785e52d0" target="_top" xlink:title="Encrypt the GPGPME data object. ">
<polygon fill="white" stroke="red" points="190.5,-137.582 190.5,-156.582 305.5,-156.582 305.5,-137.582 190.5,-137.582"/>
<text text-anchor="middle" x="248" y="-144.582" font-family="Helvetica,sans-Serif" font-size="10.00">encrypt_gpgme_object</text>
</a>
</g>
</g>
<!-- Node1&#45;&gt;Node6 -->
<g id="edge7" class="edge"><title>Node1&#45;&gt;Node6</title>
<path fill="none" stroke="midnightblue" d="M149.512,-147.082C159.657,-147.082 170.031,-147.082 180.049,-147.082"/>
<polygon fill="midnightblue" stroke="midnightblue" points="180.334,-150.582 190.334,-147.082 180.334,-143.582 180.334,-150.582"/>
</g>
<!-- Node7 -->
<g id="node7" class="node"><title>Node7</title>
<g id="a_node7"><a xlink:href="body_8c.html#aee001296b775e82e3988b5a81e53e30c" target="_top" xlink:title="Create a new Body. ">
<polygon fill="white" stroke="red" points="205,-99.582 205,-118.582 291,-118.582 291,-99.582 205,-99.582"/>
<text text-anchor="middle" x="248" y="-106.582" font-family="Helvetica,sans-Serif" font-size="10.00">mutt_body_new</text>
</a>
</g>
</g>
<!-- Node1&#45;&gt;Node7 -->
<g id="edge8" class="edge"><title>Node1&#45;&gt;Node7</title>
<path fill="none" stroke="midnightblue" d="M119.151,-137.493C142.092,-132.395 170.476,-126.087 194.668,-120.711"/>
<polygon fill="midnightblue" stroke="midnightblue" points="195.748,-124.057 204.751,-118.471 194.23,-117.223 195.748,-124.057"/>
</g>
<!-- Node8 -->
<g id="node8" class="node"><title>Node8</title>
<g id="a_node8"><a xlink:href="mutt_2string_8c.html#ae48085384a6545e0fac589a88243ea31" target="_top" xlink:title="Copy a string, safely. ">
<polygon fill="white" stroke="red" points="476.5,-42.582 476.5,-61.582 561.5,-61.582 561.5,-42.582 476.5,-42.582"/>
<text text-anchor="middle" x="519" y="-49.582" font-family="Helvetica,sans-Serif" font-size="10.00">mutt_str_strdup</text>
</a>
</g>
</g>
<!-- Node1&#45;&gt;Node8 -->
<g id="edge9" class="edge"><title>Node1&#45;&gt;Node8</title>
<path fill="none" stroke="midnightblue" d="M90.2136,-137.542C110.504,-124.445 149.38,-101.251 186,-90.082 281.998,-60.804 399.862,-53.743 466.201,-52.2422"/>
<polygon fill="midnightblue" stroke="midnightblue" points="466.464,-55.7379 476.395,-52.0465 466.329,-48.7392 466.464,-55.7379"/>
</g>
<!-- Node9 -->
<g id="node9" class="node"><title>Node9</title>
<g id="a_node9"><a xlink:href="sendlib_8c.html#acf444c886b59f427ec6c0c144958cb3a" target="_top" xlink:title="Create a unique boundary id for a MIME part. ">
<polygon fill="white" stroke="red" points="186,-23.582 186,-42.582 310,-42.582 310,-23.582 186,-23.582"/>
<text text-anchor="middle" x="248" y="-30.582" font-family="Helvetica,sans-Serif" font-size="10.00">mutt_generate_boundary</text>
</a>
</g>
</g>
<!-- Node1&#45;&gt;Node9 -->
<g id="edge10" class="edge"><title>Node1&#45;&gt;Node9</title>
<path fill="none" stroke="midnightblue" d="M85.5245,-137.512C103.69,-119.688 145.131,-81.0436 186,-57.082 192.834,-53.0753 200.461,-49.473 207.946,-46.3515"/>
<polygon fill="midnightblue" stroke="midnightblue" points="209.267,-49.5929 217.279,-42.6605 206.692,-43.0835 209.267,-49.5929"/>
</g>
<!-- Node10 -->
<g id="node10" class="node"><title>Node10</title>
<g id="a_node10"><a xlink:href="parameter_8c.html#a0ae25acb8447c3823aa66e23fb6bc3c4" target="_top" xlink:title="Set a Parameter. ">
<polygon fill="white" stroke="red" points="349.5,-23.582 349.5,-42.582 436.5,-42.582 436.5,-23.582 349.5,-23.582"/>
<text text-anchor="middle" x="393" y="-30.582" font-family="Helvetica,sans-Serif" font-size="10.00">mutt_param_set</text>
</a>
</g>
</g>
<!-- Node1&#45;&gt;Node10 -->
<g id="edge13" class="edge"><title>Node1&#45;&gt;Node10</title>
<path fill="none" stroke="midnightblue" d="M80.379,-137.232C92.5954,-111.152 129.879,-40.4949 186,-14.082 242.409,12.4662 317.033,-5.72389 359.235,-20.1876"/>
<polygon fill="midnightblue" stroke="midnightblue" points="358.138,-23.5125 368.733,-23.5694 360.486,-16.918 358.138,-23.5125"/>
</g>
<!-- Node2&#45;&gt;Node3 -->
<g id="edge2" class="edge"><title>Node2&#45;&gt;Node3</title>
<path fill="none" stroke="midnightblue" d="M300.222,-310.276C311.751,-308.744 324.047,-307.111 335.769,-305.553"/>
<polygon fill="midnightblue" stroke="midnightblue" points="336.436,-308.995 345.888,-304.209 335.514,-302.056 336.436,-308.995"/>
</g>
<!-- Node4&#45;&gt;Node4 -->
<g id="edge4" class="edge"><title>Node4&#45;&gt;Node4</title>
<path fill="none" stroke="midnightblue" d="M225.805,-232.839C215.008,-241.647 222.406,-251.082 248,-251.082 264.796,-251.082 273.756,-247.019 274.879,-241.736"/>
<polygon fill="midnightblue" stroke="midnightblue" points="277.951,-240.057 270.195,-232.839 271.757,-243.318 277.951,-240.057"/>
</g>
<!-- Node9&#45;&gt;Node10 -->
<g id="edge11" class="edge"><title>Node9&#45;&gt;Node10</title>
<path fill="none" stroke="midnightblue" d="M310.06,-33.082C319.76,-33.082 329.722,-33.082 339.211,-33.082"/>
<polygon fill="midnightblue" stroke="midnightblue" points="339.288,-36.5821 349.287,-33.082 339.287,-29.5821 339.288,-36.5821"/>
</g>
<!-- Node10&#45;&gt;Node8 -->
<g id="edge12" class="edge"><title>Node10&#45;&gt;Node8</title>
<path fill="none" stroke="midnightblue" d="M436.674,-39.6207C446.137,-41.0707 456.267,-42.6229 466.054,-44.1226"/>
<polygon fill="midnightblue" stroke="midnightblue" points="465.672,-47.6048 476.087,-45.6598 466.732,-40.6855 465.672,-47.6048"/>
</g>
</g>
</svg>
