<?xml version="1.0" encoding="UTF-8" standalone="no"?>
<!DOCTYPE svg PUBLIC "-//W3C//DTD SVG 1.1//EN"
 "http://www.w3.org/Graphics/SVG/1.1/DTD/svg11.dtd">
<!-- Generated by graphviz version 2.36.0 (20140111.2315)
 -->
<!-- Title: gpgme_send_menu Pages: 1 -->
<svg width="282pt" height="66pt"
 viewBox="0.00 0.00 282.00 66.00" xmlns="http://www.w3.org/2000/svg" xmlns:xlink="http://www.w3.org/1999/xlink">
<g id="graph0" class="graph" transform="scale(1 1) rotate(0) translate(4 62)">
<title>gpgme_send_menu</title>
<polygon fill="white" stroke="none" points="-4,4 -4,-62 278,-62 278,4 -4,4"/>
<!-- Node1 -->
<g id="node1" class="node"><title>Node1</title>
<polygon fill="#bfbfbf" stroke="black" points="0.5,-19.5 0.5,-38.5 101.5,-38.5 101.5,-19.5 0.5,-19.5"/>
<text text-anchor="middle" x="51" y="-26.5" font-family="Helvetica,sans-Serif" font-size="10.00">gpgme_send_menu</text>
</g>
<!-- Node2 -->
<g id="node2" class="node"><title>Node2</title>
<g id="a_node2"><a xlink:href="crypt__gpgme_8h.html#a3fd4b7428f32a919f12367aa016ceb72" target="_top" xlink:title="Implements CryptModuleSpecs::send_menu() ">
<polygon fill="white" stroke="black" points="145,-38.5 145,-57.5 267,-57.5 267,-38.5 145,-38.5"/>
<text text-anchor="middle" x="206" y="-45.5" font-family="Helvetica,sans-Serif" font-size="10.00">pgp_gpgme_send_menu</text>
</a>
</g>
</g>
<!-- Node1&#45;&gt;Node2 -->
<g id="edge1" class="edge"><title>Node1&#45;&gt;Node2</title>
<path fill="none" stroke="midnightblue" d="M111.895,-36.438C122.736,-37.7843 134.045,-39.1886 144.892,-40.5356"/>
<polygon fill="midnightblue" stroke="midnightblue" points="112.03,-32.9279 101.675,-35.1688 111.167,-39.8745 112.03,-32.9279"/>
</g>
<!-- Node3 -->
<g id="node3" class="node"><title>Node3</title>
<g id="a_node3"><a xlink:href="crypt__gpgme_8h.html#a6c3efa4c1af94080847fe33bd165fdbc" target="_top" xlink:title="Implements CryptModuleSpecs::send_menu() ">
<polygon fill="white" stroke="black" points="138,-0.5 138,-19.5 274,-19.5 274,-0.5 138,-0.5"/>
<text text-anchor="middle" x="206" y="-7.5" font-family="Helvetica,sans-Serif" font-size="10.00">smime_gpgme_send_menu</text>
</a>
</g>
</g>
<!-- Node1&#45;&gt;Node3 -->
<g id="edge2" class="edge"><title>Node1&#45;&gt;Node3</title>
<path fill="none" stroke="midnightblue" d="M111.866,-21.5657C120.362,-20.5106 129.146,-19.4198 137.77,-18.3488"/>
<polygon fill="midnightblue" stroke="midnightblue" points="111.167,-18.1255 101.675,-22.8312 112.03,-25.0721 111.167,-18.1255"/>
</g>
</g>
</svg>
