<?xml version="1.0" encoding="UTF-8" standalone="no"?>
<!DOCTYPE svg PUBLIC "-//W3C//DTD SVG 1.1//EN"
 "http://www.w3.org/Graphics/SVG/1.1/DTD/svg11.dtd">
<!-- Generated by graphviz version 2.36.0 (20140111.2315)
 -->
<!-- Title: crypt_pgp_valid_passphrase Pages: 1 -->
<svg width="304pt" height="28pt"
 viewBox="0.00 0.00 304.00 28.00" xmlns="http://www.w3.org/2000/svg" xmlns:xlink="http://www.w3.org/1999/xlink">
<g id="graph0" class="graph" transform="scale(1 1) rotate(0) translate(4 24)">
<title>crypt_pgp_valid_passphrase</title>
<polygon fill="white" stroke="none" points="-4,4 -4,-24 300,-24 300,4 -4,4"/>
<!-- Node1 -->
<g id="node1" class="node"><title>Node1</title>
<polygon fill="#bfbfbf" stroke="black" points="0,-0.5 0,-19.5 140,-19.5 140,-0.5 0,-0.5"/>
<text text-anchor="middle" x="70" y="-7.5" font-family="Helvetica,sans-Serif" font-size="10.00">crypt_pgp_valid_passphrase</text>
</g>
<!-- Node2 -->
<g id="node2" class="node"><title>Node2</title>
<g id="a_node2"><a xlink:href="ncrypt_8h.html#a99c2d9b5ec280d93293e3b6a7416fc72" target="_top" xlink:title="Check that we have a usable passphrase, ask if not. ">
<polygon fill="white" stroke="red" points="176.5,-0.5 176.5,-19.5 295.5,-19.5 295.5,-0.5 176.5,-0.5"/>
<text text-anchor="middle" x="236" y="-7.5" font-family="Helvetica,sans-Serif" font-size="10.00">crypt_valid_passphrase</text>
</a>
</g>
</g>
<!-- Node1&#45;&gt;Node2 -->
<g id="edge1" class="edge"><title>Node1&#45;&gt;Node2</title>
<path fill="none" stroke="midnightblue" d="M150.335,-10C159.112,-10 167.929,-10 176.384,-10"/>
<polygon fill="midnightblue" stroke="midnightblue" points="150.075,-6.5001 140.075,-10 150.075,-13.5001 150.075,-6.5001"/>
</g>
</g>
</svg>
