<?xml version="1.0" encoding="UTF-8" standalone="no"?>
<!DOCTYPE svg PUBLIC "-//W3C//DTD SVG 1.1//EN"
 "http://www.w3.org/Graphics/SVG/1.1/DTD/svg11.dtd">
<!-- Generated by graphviz version 2.36.0 (20140111.2315)
 -->
<!-- Title: pgp_gpgme_make_key_attachment Pages: 1 -->
<svg width="404pt" height="332pt"
 viewBox="0.00 0.00 404.00 332.00" xmlns="http://www.w3.org/2000/svg" xmlns:xlink="http://www.w3.org/1999/xlink">
<g id="graph0" class="graph" transform="scale(1 1) rotate(0) translate(4 328)">
<title>pgp_gpgme_make_key_attachment</title>
<polygon fill="white" stroke="none" points="-4,4 -4,-328 400,-328 400,4 -4,4"/>
<!-- Node1 -->
<g id="node1" class="node"><title>Node1</title>
<polygon fill="#bfbfbf" stroke="black" points="0.5,-147 0.5,-177 117.5,-177 117.5,-147 0.5,-147"/>
<text text-anchor="start" x="8.5" y="-165" font-family="Helvetica,sans-Serif" font-size="10.00">pgp_gpgme_make_key</text>
<text text-anchor="middle" x="59" y="-154" font-family="Helvetica,sans-Serif" font-size="10.00">_attachment</text>
</g>
<!-- Node2 -->
<g id="node2" class="node"><title>Node2</title>
<g id="a_node2"><a xlink:href="crypt__gpgme_8c.html#af5bfc9a0bb58a2c9b0285b956c4b8f08" target="_top" xlink:title="Ask the user for a key. ">
<polygon fill="white" stroke="red" points="165.5,-304.5 165.5,-323.5 262.5,-323.5 262.5,-304.5 165.5,-304.5"/>
<text text-anchor="middle" x="214" y="-311.5" font-family="Helvetica,sans-Serif" font-size="10.00">crypt_ask_for_key</text>
</a>
</g>
</g>
<!-- Node1&#45;&gt;Node2 -->
<g id="edge1" class="edge"><title>Node1&#45;&gt;Node2</title>
<path fill="none" stroke="midnightblue" d="M67.4989,-177.133C81.2478,-203.469 112.894,-257.975 154,-290 159.095,-293.969 164.936,-297.377 170.918,-300.272"/>
<polygon fill="midnightblue" stroke="midnightblue" points="169.783,-303.596 180.346,-304.407 172.594,-297.185 169.783,-303.596"/>
</g>
<!-- Node3 -->
<g id="node3" class="node"><title>Node3</title>
<g id="a_node3"><a xlink:href="mutt_2string_8c.html#ae48085384a6545e0fac589a88243ea31" target="_top" xlink:title="Copy a string, safely. ">
<polygon fill="white" stroke="red" points="310.5,-266.5 310.5,-285.5 395.5,-285.5 395.5,-266.5 310.5,-266.5"/>
<text text-anchor="middle" x="353" y="-273.5" font-family="Helvetica,sans-Serif" font-size="10.00">mutt_str_strdup</text>
</a>
</g>
</g>
<!-- Node1&#45;&gt;Node3 -->
<g id="edge8" class="edge"><title>Node1&#45;&gt;Node3</title>
<path fill="none" stroke="midnightblue" d="M69.7079,-177.047C84.7802,-198.958 116.061,-238.992 154,-257 200.015,-278.842 258.736,-281.822 300.245,-280.425"/>
<polygon fill="midnightblue" stroke="midnightblue" points="300.57,-283.914 310.409,-279.984 300.267,-276.92 300.57,-283.914"/>
</g>
<!-- Node4 -->
<g id="node4" class="node"><title>Node4</title>
<g id="a_node4"><a xlink:href="crypt__gpgme_8c.html#a31d59710ce616d9e2acea30f70294362" target="_top" xlink:title="Create a new GPGME context. ">
<polygon fill="white" stroke="red" points="156,-228.5 156,-247.5 272,-247.5 272,-228.5 156,-228.5"/>
<text text-anchor="middle" x="214" y="-235.5" font-family="Helvetica,sans-Serif" font-size="10.00">create_gpgme_context</text>
</a>
</g>
</g>
<!-- Node1&#45;&gt;Node4 -->
<g id="edge3" class="edge"><title>Node1&#45;&gt;Node4</title>
<path fill="none" stroke="midnightblue" d="M81.6076,-177.109C100.162,-189.584 127.958,-207.109 154,-219 158.772,-221.179 163.866,-223.217 168.987,-225.089"/>
<polygon fill="midnightblue" stroke="midnightblue" points="168.194,-228.518 178.788,-228.477 170.481,-221.902 168.194,-228.518"/>
</g>
<!-- Node5 -->
<g id="node5" class="node"><title>Node5</title>
<g id="a_node5"><a xlink:href="crypt__gpgme_8c.html#a433e35eb7b66902025d1a6eced7c17c8" target="_top" xlink:title="Create a new GPGME data object. ">
<polygon fill="white" stroke="red" points="163,-190.5 163,-209.5 265,-209.5 265,-190.5 163,-190.5"/>
<text text-anchor="middle" x="214" y="-197.5" font-family="Helvetica,sans-Serif" font-size="10.00">create_gpgme_data</text>
</a>
</g>
</g>
<!-- Node1&#45;&gt;Node5 -->
<g id="edge4" class="edge"><title>Node1&#45;&gt;Node5</title>
<path fill="none" stroke="midnightblue" d="M117.843,-176.366C133.244,-180.191 149.72,-184.283 164.56,-187.969"/>
<polygon fill="midnightblue" stroke="midnightblue" points="163.991,-191.434 174.54,-190.448 165.678,-184.64 163.991,-191.434"/>
</g>
<!-- Node6 -->
<g id="node6" class="node"><title>Node6</title>
<g id="a_node6"><a xlink:href="crypt__gpgme_8c.html#adf7cfc215501ef8a701a722e76497b0e" target="_top" xlink:title="Copy a data object to a temporary file. ">
<polygon fill="white" stroke="red" points="154,-152.5 154,-171.5 274,-171.5 274,-152.5 154,-152.5"/>
<text text-anchor="middle" x="214" y="-159.5" font-family="Helvetica,sans-Serif" font-size="10.00">data_object_to_tempfile</text>
</a>
</g>
</g>
<!-- Node1&#45;&gt;Node6 -->
<g id="edge5" class="edge"><title>Node1&#45;&gt;Node6</title>
<path fill="none" stroke="midnightblue" d="M117.843,-162C126.297,-162 135.075,-162 143.729,-162"/>
<polygon fill="midnightblue" stroke="midnightblue" points="143.803,-165.5 153.803,-162 143.803,-158.5 143.803,-165.5"/>
</g>
<!-- Node7 -->
<g id="node7" class="node"><title>Node7</title>
<g id="a_node7"><a xlink:href="body_8c.html#aee001296b775e82e3988b5a81e53e30c" target="_top" xlink:title="Create a new Body. ">
<polygon fill="white" stroke="red" points="171,-114.5 171,-133.5 257,-133.5 257,-114.5 171,-114.5"/>
<text text-anchor="middle" x="214" y="-121.5" font-family="Helvetica,sans-Serif" font-size="10.00">mutt_body_new</text>
</a>
</g>
</g>
<!-- Node1&#45;&gt;Node7 -->
<g id="edge7" class="edge"><title>Node1&#45;&gt;Node7</title>
<path fill="none" stroke="midnightblue" d="M117.843,-147.634C133.244,-143.809 149.72,-139.717 164.56,-136.031"/>
<polygon fill="midnightblue" stroke="midnightblue" points="165.678,-139.36 174.54,-133.552 163.991,-132.566 165.678,-139.36"/>
</g>
<!-- Node8 -->
<g id="node8" class="node"><title>Node8</title>
<g id="a_node8"><a xlink:href="crypt__gpgme_8c.html#a88b6f46bb4c16a7de6f9318e713c52db" target="_top" xlink:title="Find the ID for the key. ">
<polygon fill="white" stroke="black" points="180.5,-76.5 180.5,-95.5 247.5,-95.5 247.5,-76.5 180.5,-76.5"/>
<text text-anchor="middle" x="214" y="-83.5" font-family="Helvetica,sans-Serif" font-size="10.00">crypt_keyid</text>
</a>
</g>
</g>
<!-- Node1&#45;&gt;Node8 -->
<g id="edge9" class="edge"><title>Node1&#45;&gt;Node8</title>
<path fill="none" stroke="midnightblue" d="M81.6076,-146.891C100.162,-134.416 127.958,-116.891 154,-105 159.33,-102.566 165.063,-100.308 170.784,-98.2611"/>
<polygon fill="midnightblue" stroke="midnightblue" points="171.986,-101.549 180.332,-95.0217 169.737,-94.9205 171.986,-101.549"/>
</g>
<!-- Node9 -->
<g id="node9" class="node"><title>Node9</title>
<g id="a_node9"><a xlink:href="sendlib_8c.html#a3d800a72894aa007528c1bfd4b5a9dbc" target="_top" xlink:title="Update the encoding type. ">
<polygon fill="white" stroke="red" points="156.5,-38.5 156.5,-57.5 271.5,-57.5 271.5,-38.5 156.5,-38.5"/>
<text text-anchor="middle" x="214" y="-45.5" font-family="Helvetica,sans-Serif" font-size="10.00">mutt_update_encoding</text>
</a>
</g>
</g>
<!-- Node1&#45;&gt;Node9 -->
<g id="edge10" class="edge"><title>Node1&#45;&gt;Node9</title>
<path fill="none" stroke="midnightblue" d="M71.0625,-146.939C87.1139,-126.107 118.815,-88.6263 154,-67 157.359,-64.9353 160.965,-63.0724 164.679,-61.3959"/>
<polygon fill="midnightblue" stroke="midnightblue" points="166.095,-64.5986 174.053,-57.6034 163.47,-58.1096 166.095,-64.5986"/>
</g>
<!-- Node10 -->
<g id="node10" class="node"><title>Node10</title>
<g id="a_node10"><a xlink:href="crypt__gpgme_8c.html#ad9e2c90d140db17e217a93238917da08" target="_top" xlink:title="Release all the keys in a list. ">
<polygon fill="white" stroke="black" points="173.5,-0.5 173.5,-19.5 254.5,-19.5 254.5,-0.5 173.5,-0.5"/>
<text text-anchor="middle" x="214" y="-7.5" font-family="Helvetica,sans-Serif" font-size="10.00">crypt_free_key</text>
</a>
</g>
</g>
<!-- Node1&#45;&gt;Node10 -->
<g id="edge11" class="edge"><title>Node1&#45;&gt;Node10</title>
<path fill="none" stroke="midnightblue" d="M66.6848,-146.815C79.5718,-119.271 110.475,-60.9716 154,-29 157.041,-26.7663 160.356,-24.7881 163.812,-23.0372"/>
<polygon fill="midnightblue" stroke="midnightblue" points="165.453,-26.1394 173.202,-18.9143 162.638,-19.73 165.453,-26.1394"/>
</g>
<!-- Node2&#45;&gt;Node3 -->
<g id="edge2" class="edge"><title>Node2&#45;&gt;Node3</title>
<path fill="none" stroke="midnightblue" d="M249.571,-304.411C267.175,-299.528 288.779,-293.536 307.601,-288.315"/>
<polygon fill="midnightblue" stroke="midnightblue" points="308.739,-291.631 317.44,-285.586 306.868,-284.886 308.739,-291.631"/>
</g>
<!-- Node6&#45;&gt;Node3 -->
<g id="edge6" class="edge"><title>Node6&#45;&gt;Node3</title>
<path fill="none" stroke="midnightblue" d="M255.482,-171.611C261.975,-174.099 268.395,-177.186 274,-181 303.835,-201.3 328.289,-236.233 341.452,-257.61"/>
<polygon fill="midnightblue" stroke="midnightblue" points="338.554,-259.583 346.685,-266.376 344.565,-255.996 338.554,-259.583"/>
</g>
</g>
</svg>
