<?xml version="1.0" encoding="UTF-8" standalone="no"?>
<!DOCTYPE svg PUBLIC "-//W3C//DTD SVG 1.1//EN"
 "http://www.w3.org/Graphics/SVG/1.1/DTD/svg11.dtd">
<!-- Generated by graphviz version 2.36.0 (20140111.2315)
 -->
<!-- Title: crypt_ask_for_key Pages: 1 -->
<svg width="260pt" height="116pt"
 viewBox="0.00 0.00 260.00 116.00" xmlns="http://www.w3.org/2000/svg" xmlns:xlink="http://www.w3.org/1999/xlink">
<g id="graph0" class="graph" transform="scale(1 1) rotate(0) translate(4 112)">
<title>crypt_ask_for_key</title>
<polygon fill="white" stroke="none" points="-4,4 -4,-112 256,-112 256,4 -4,4"/>
<!-- Node1 -->
<g id="node1" class="node"><title>Node1</title>
<polygon fill="#bfbfbf" stroke="black" points="0.5,-44.5 0.5,-63.5 97.5,-63.5 97.5,-44.5 0.5,-44.5"/>
<text text-anchor="middle" x="49" y="-51.5" font-family="Helvetica,sans-Serif" font-size="10.00">crypt_ask_for_key</text>
</g>
<!-- Node2 -->
<g id="node2" class="node"><title>Node2</title>
<g id="a_node2"><a xlink:href="crypt__gpgme_8c.html#ad744c2659199be1f6e2527500903f1b5" target="_top" xlink:title="Find keys of the recipients of the message. ">
<polygon fill="white" stroke="red" points="163.5,-88.5 163.5,-107.5 222.5,-107.5 222.5,-88.5 163.5,-88.5"/>
<text text-anchor="middle" x="193" y="-95.5" font-family="Helvetica,sans-Serif" font-size="10.00">find_keys</text>
</a>
</g>
</g>
<!-- Node1&#45;&gt;Node2 -->
<g id="edge1" class="edge"><title>Node1&#45;&gt;Node2</title>
<path fill="none" stroke="midnightblue" d="M90.3954,-66.5169C113.618,-73.7125 142.242,-82.582 163.184,-89.0711"/>
<polygon fill="midnightblue" stroke="midnightblue" points="91.3998,-63.164 80.8119,-63.5473 89.3279,-69.8504 91.3998,-63.164"/>
</g>
<!-- Node3 -->
<g id="node3" class="node"><title>Node3</title>
<g id="a_node3"><a xlink:href="crypt__gpgme_8h.html#ab3031c1c6cd431efc8fc3b90607c042d" target="_top" xlink:title="Implements CryptModuleSpecs::pgp_make_key_attachment() ">
<polygon fill="white" stroke="black" points="134.5,-39 134.5,-69 251.5,-69 251.5,-39 134.5,-39"/>
<text text-anchor="start" x="142.5" y="-57" font-family="Helvetica,sans-Serif" font-size="10.00">pgp_gpgme_make_key</text>
<text text-anchor="middle" x="193" y="-46" font-family="Helvetica,sans-Serif" font-size="10.00">_attachment</text>
</a>
</g>
</g>
<!-- Node1&#45;&gt;Node3 -->
<g id="edge2" class="edge"><title>Node1&#45;&gt;Node3</title>
<path fill="none" stroke="midnightblue" d="M107.799,-54C116.557,-54 125.592,-54 134.347,-54"/>
<polygon fill="midnightblue" stroke="midnightblue" points="107.679,-50.5001 97.679,-54 107.679,-57.5001 107.679,-50.5001"/>
</g>
<!-- Node4 -->
<g id="node4" class="node"><title>Node4</title>
<g id="a_node4"><a xlink:href="crypt__gpgme_8c.html#a8b575f75d1ff262dea594e65a309a33c" target="_top" xlink:title="Show the user the encryption/signing menu. ">
<polygon fill="white" stroke="red" points="142.5,-0.5 142.5,-19.5 243.5,-19.5 243.5,-0.5 142.5,-0.5"/>
<text text-anchor="middle" x="193" y="-7.5" font-family="Helvetica,sans-Serif" font-size="10.00">gpgme_send_menu</text>
</a>
</g>
</g>
<!-- Node1&#45;&gt;Node4 -->
<g id="edge3" class="edge"><title>Node1&#45;&gt;Node4</title>
<path fill="none" stroke="midnightblue" d="M90.4327,-41.4715C112.94,-34.4973 140.514,-25.9535 161.248,-19.5287"/>
<polygon fill="midnightblue" stroke="midnightblue" points="89.3279,-38.1496 80.8119,-44.4527 91.3998,-44.836 89.3279,-38.1496"/>
</g>
</g>
</svg>
