<?xml version="1.0" encoding="UTF-8" standalone="no"?>
<!DOCTYPE svg PUBLIC "-//W3C//DTD SVG 1.1//EN"
 "http://www.w3.org/Graphics/SVG/1.1/DTD/svg11.dtd">
<!-- Generated by graphviz version 2.36.0 (20140111.2315)
 -->
<!-- Title: mutt_signed_handler Pages: 1 -->
<svg width="548pt" height="408pt"
 viewBox="0.00 0.00 548.00 408.00" xmlns="http://www.w3.org/2000/svg" xmlns:xlink="http://www.w3.org/1999/xlink">
<g id="graph0" class="graph" transform="scale(1 1) rotate(0) translate(4 404)">
<title>mutt_signed_handler</title>
<polygon fill="white" stroke="none" points="-4,4 -4,-404 544,-404 544,4 -4,4"/>
<!-- Node1 -->
<g id="node1" class="node"><title>Node1</title>
<polygon fill="#bfbfbf" stroke="black" points="0.5,-209.5 0.5,-228.5 107.5,-228.5 107.5,-209.5 0.5,-209.5"/>
<text text-anchor="middle" x="54" y="-216.5" font-family="Helvetica,sans-Serif" font-size="10.00">mutt_signed_handler</text>
</g>
<!-- Node2 -->
<g id="node2" class="node"><title>Node2</title>
<g id="a_node2"><a xlink:href="crypt_8c.html#aba98a7251090ed0306bb9564e856f0cc" target="_top" xlink:title="Is a message signed? ">
<polygon fill="white" stroke="black" points="144.5,-380.5 144.5,-399.5 269.5,-399.5 269.5,-380.5 144.5,-380.5"/>
<text text-anchor="middle" x="207" y="-387.5" font-family="Helvetica,sans-Serif" font-size="10.00">mutt_is_multipart_signed</text>
</a>
</g>
</g>
<!-- Node1&#45;&gt;Node2 -->
<g id="edge1" class="edge"><title>Node1&#45;&gt;Node2</title>
<path fill="none" stroke="midnightblue" d="M58.3329,-228.733C67.6955,-254.697 96.6813,-326.317 144,-366 148.875,-370.088 154.526,-373.529 160.391,-376.411"/>
<polygon fill="midnightblue" stroke="midnightblue" points="159.142,-379.685 169.706,-380.493 161.952,-373.274 159.142,-379.685"/>
</g>
<!-- Node3 -->
<g id="node3" class="node"><title>Node3</title>
<g id="a_node3"><a xlink:href="mutt_2string_8c.html#a011e5b6fad43bc608584d585987cf9c1" target="_top" xlink:title="Compare two strings ignoring case, safely. ">
<polygon fill="white" stroke="black" points="430.5,-323.5 430.5,-342.5 539.5,-342.5 539.5,-323.5 430.5,-323.5"/>
<text text-anchor="middle" x="485" y="-330.5" font-family="Helvetica,sans-Serif" font-size="10.00">mutt_str_strcasecmp</text>
</a>
</g>
</g>
<!-- Node1&#45;&gt;Node3 -->
<g id="edge12" class="edge"><title>Node1&#45;&gt;Node3</title>
<path fill="none" stroke="midnightblue" d="M107.818,-221.182C189.888,-225.197 343.818,-235.401 394,-257 424.788,-270.251 453.043,-297.687 469.39,-315.713"/>
<polygon fill="midnightblue" stroke="midnightblue" points="466.791,-318.058 476.028,-323.248 472.044,-313.431 466.791,-318.058"/>
</g>
<!-- Node4 -->
<g id="node4" class="node"><title>Node4</title>
<g id="a_node4"><a xlink:href="parameter_8c.html#a4e936faaaa08c332e3414247583a0ffa" target="_top" xlink:title="Find a matching Parameter. ">
<polygon fill="white" stroke="black" points="306.5,-342.5 306.5,-361.5 393.5,-361.5 393.5,-342.5 306.5,-342.5"/>
<text text-anchor="middle" x="350" y="-349.5" font-family="Helvetica,sans-Serif" font-size="10.00">mutt_param_get</text>
</a>
</g>
</g>
<!-- Node1&#45;&gt;Node4 -->
<g id="edge6" class="edge"><title>Node1&#45;&gt;Node4</title>
<path fill="none" stroke="midnightblue" d="M59.2685,-228.83C69.8106,-251.76 99.4934,-308.676 144,-333 190.749,-358.55 252.554,-360.789 296.035,-358.2"/>
<polygon fill="midnightblue" stroke="midnightblue" points="296.391,-361.684 306.122,-357.494 295.902,-354.701 296.391,-361.684"/>
</g>
<!-- Node5 -->
<g id="node5" class="node"><title>Node5</title>
<g id="a_node5"><a xlink:href="state_8c.html#a274bd2d5df990d61848a6be9b18840f7" target="_top" xlink:title="Write a formatted string to the State. ">
<polygon fill="white" stroke="black" points="317.5,-266.5 317.5,-285.5 382.5,-285.5 382.5,-266.5 317.5,-266.5"/>
<text text-anchor="middle" x="350" y="-273.5" font-family="Helvetica,sans-Serif" font-size="10.00">state_printf</text>
</a>
</g>
</g>
<!-- Node1&#45;&gt;Node5 -->
<g id="edge5" class="edge"><title>Node1&#45;&gt;Node5</title>
<path fill="none" stroke="midnightblue" d="M76.4932,-228.622C94.2446,-236.163 120.286,-246.302 144,-252 199.567,-265.352 265.462,-271.382 307.25,-274.032"/>
<polygon fill="midnightblue" stroke="midnightblue" points="307.143,-277.531 317.334,-274.635 307.561,-270.544 307.143,-277.531"/>
</g>
<!-- Node6 -->
<g id="node6" class="node"><title>Node6</title>
<g id="a_node6"><a xlink:href="handler_8c.html#adae8bf0eec9bee0bd62f639bbcf8599f" target="_top" xlink:title="Handler for the Body of an email. ">
<polygon fill="white" stroke="red" points="157.5,-304.5 157.5,-323.5 256.5,-323.5 256.5,-304.5 157.5,-304.5"/>
<text text-anchor="middle" x="207" y="-311.5" font-family="Helvetica,sans-Serif" font-size="10.00">mutt_body_handler</text>
</a>
</g>
</g>
<!-- Node1&#45;&gt;Node6 -->
<g id="edge7" class="edge"><title>Node1&#45;&gt;Node6</title>
<path fill="none" stroke="midnightblue" d="M72.2362,-228.526C89.3643,-242.046 116.919,-265.446 144,-281 157.268,-288.621 173.42,-294.784 185.911,-300.206"/>
<polygon fill="midnightblue" stroke="midnightblue" points="184.473,-303.397 195.019,-304.409 187.406,-297.041 184.473,-303.397"/>
</g>
<!-- Node7 -->
<g id="node7" class="node"><title>Node7</title>
<g id="a_node7"><a xlink:href="state_8c.html#aa1f339fabf8f144e719be0f686ee0e30" target="_top" xlink:title="Write a string to the state. ">
<polygon fill="white" stroke="red" points="159.5,-190.5 159.5,-209.5 254.5,-209.5 254.5,-190.5 159.5,-190.5"/>
<text text-anchor="middle" x="207" y="-197.5" font-family="Helvetica,sans-Serif" font-size="10.00">state_attach_puts</text>
</a>
</g>
</g>
<!-- Node1&#45;&gt;Node7 -->
<g id="edge13" class="edge"><title>Node1&#45;&gt;Node7</title>
<path fill="none" stroke="midnightblue" d="M107.812,-212.355C121.096,-210.683 135.412,-208.882 148.895,-207.185"/>
<polygon fill="midnightblue" stroke="midnightblue" points="149.527,-210.634 159.012,-205.912 148.653,-203.688 149.527,-210.634"/>
</g>
<!-- Node8 -->
<g id="node8" class="node"><title>Node8</title>
<g id="a_node8"><a xlink:href="crypt_8c.html#a3f891994e68f268a2b82c0e2e60bf079" target="_top" xlink:title="Create an array of an emails parts. ">
<polygon fill="white" stroke="red" points="149,-152.5 149,-171.5 265,-171.5 265,-152.5 149,-152.5"/>
<text text-anchor="middle" x="207" y="-159.5" font-family="Helvetica,sans-Serif" font-size="10.00">crypt_fetch_signatures</text>
</a>
</g>
</g>
<!-- Node1&#45;&gt;Node8 -->
<g id="edge14" class="edge"><title>Node1&#45;&gt;Node8</title>
<path fill="none" stroke="midnightblue" d="M75.6097,-209.462C93.4897,-201.366 120.173,-189.71 144,-181 150.037,-178.793 156.465,-176.626 162.809,-174.59"/>
<polygon fill="midnightblue" stroke="midnightblue" points="164.144,-177.84 172.642,-171.512 162.053,-171.159 164.144,-177.84"/>
</g>
<!-- Node9 -->
<g id="node9" class="node"><title>Node9</title>
<g id="a_node9"><a xlink:href="crypt_8c.html#a32cadd5ce0071d7f003dde3d80f52d5d" target="_top" xlink:title="Write the message body/part. ">
<polygon fill="white" stroke="red" points="158,-114.5 158,-133.5 256,-133.5 256,-114.5 158,-114.5"/>
<text text-anchor="middle" x="207" y="-121.5" font-family="Helvetica,sans-Serif" font-size="10.00">crypt_write_signed</text>
</a>
</g>
</g>
<!-- Node1&#45;&gt;Node9 -->
<g id="edge15" class="edge"><title>Node1&#45;&gt;Node9</title>
<path fill="none" stroke="midnightblue" d="M63.6526,-209.398C78.5567,-193.409 110.694,-161.285 144,-143 147.994,-140.807 152.274,-138.833 156.651,-137.063"/>
<polygon fill="midnightblue" stroke="midnightblue" points="158.135,-140.247 166.312,-133.509 155.718,-133.677 158.135,-140.247"/>
</g>
<!-- Node10 -->
<g id="node10" class="node"><title>Node10</title>
<g id="a_node10"><a xlink:href="cryptglue_8c.html#a9457dc1f6c58f46461c4866e08946b5c" target="_top" xlink:title="Wrapper for CryptModuleSpecs::verify_one() ">
<polygon fill="white" stroke="red" points="152,-76.5 152,-95.5 262,-95.5 262,-76.5 152,-76.5"/>
<text text-anchor="middle" x="207" y="-83.5" font-family="Helvetica,sans-Serif" font-size="10.00">crypt_pgp_verify_one</text>
</a>
</g>
</g>
<!-- Node1&#45;&gt;Node10 -->
<g id="edge16" class="edge"><title>Node1&#45;&gt;Node10</title>
<path fill="none" stroke="midnightblue" d="M59.8015,-209.436C71.2686,-187.57 102.422,-133.607 144,-105 146.917,-102.993 150.053,-101.192 153.311,-99.5774"/>
<polygon fill="midnightblue" stroke="midnightblue" points="154.943,-102.685 162.731,-95.5021 152.163,-96.2604 154.943,-102.685"/>
</g>
<!-- Node11 -->
<g id="node11" class="node"><title>Node11</title>
<g id="a_node11"><a xlink:href="cryptglue_8c.html#a805ac5f7d1ad9d7714f01d2e13e8b6be" target="_top" xlink:title="Wrapper for CryptModuleSpecs::verify_one() ">
<polygon fill="white" stroke="red" points="145.5,-38.5 145.5,-57.5 268.5,-57.5 268.5,-38.5 145.5,-38.5"/>
<text text-anchor="middle" x="207" y="-45.5" font-family="Helvetica,sans-Serif" font-size="10.00">crypt_smime_verify_one</text>
</a>
</g>
</g>
<!-- Node1&#45;&gt;Node11 -->
<g id="edge17" class="edge"><title>Node1&#45;&gt;Node11</title>
<path fill="none" stroke="midnightblue" d="M57.9519,-209.134C66.5388,-182.141 94.1138,-106.46 144,-67 146.318,-65.1666 148.812,-63.5095 151.422,-62.0117"/>
<polygon fill="midnightblue" stroke="midnightblue" points="153.202,-65.0378 160.656,-57.5087 150.134,-58.7461 153.202,-65.0378"/>
</g>
<!-- Node12 -->
<g id="node12" class="node"><title>Node12</title>
<g id="a_node12"><a xlink:href="file_8c.html#ae57463c2854c006a3c67b78736e9056e" target="_top" xlink:title="Delete a file, carefully. ">
<polygon fill="white" stroke="red" points="164.5,-0.5 164.5,-19.5 249.5,-19.5 249.5,-0.5 164.5,-0.5"/>
<text text-anchor="middle" x="207" y="-7.5" font-family="Helvetica,sans-Serif" font-size="10.00">mutt_file_unlink</text>
</a>
</g>
</g>
<!-- Node1&#45;&gt;Node12 -->
<g id="edge18" class="edge"><title>Node1&#45;&gt;Node12</title>
<path fill="none" stroke="midnightblue" d="M56.6479,-209.463C62.4948,-178.54 85.1422,-80.1088 144,-29 147.391,-26.0555 151.23,-23.5674 155.296,-21.4648"/>
<polygon fill="midnightblue" stroke="midnightblue" points="156.714,-24.6649 164.473,-17.4504 153.909,-18.2516 156.714,-24.6649"/>
</g>
<!-- Node2&#45;&gt;Node3 -->
<g id="edge2" class="edge"><title>Node2&#45;&gt;Node3</title>
<path fill="none" stroke="midnightblue" d="M269.536,-388.305C306.159,-386.166 353.278,-381.426 394,-371 415.904,-365.392 439.401,-355.319 456.893,-346.953"/>
<polygon fill="midnightblue" stroke="midnightblue" points="458.503,-350.062 465.944,-342.52 455.424,-343.776 458.503,-350.062"/>
</g>
<!-- Node2&#45;&gt;Node4 -->
<g id="edge3" class="edge"><title>Node2&#45;&gt;Node4</title>
<path fill="none" stroke="midnightblue" d="M243.58,-380.411C261.782,-375.506 284.138,-369.48 303.572,-364.243"/>
<polygon fill="midnightblue" stroke="midnightblue" points="304.686,-367.568 313.431,-361.586 302.865,-360.809 304.686,-367.568"/>
</g>
<!-- Node4&#45;&gt;Node3 -->
<g id="edge4" class="edge"><title>Node4&#45;&gt;Node3</title>
<path fill="none" stroke="midnightblue" d="M393.814,-345.884C402.201,-344.686 411.165,-343.405 420.068,-342.133"/>
<polygon fill="midnightblue" stroke="midnightblue" points="420.655,-345.585 430.06,-340.706 419.665,-338.655 420.655,-345.585"/>
</g>
<!-- Node6&#45;&gt;Node1 -->
<g id="edge10" class="edge"><title>Node6&#45;&gt;Node1</title>
<path fill="none" stroke="midnightblue" d="M157.271,-305.748C152.697,-303.683 148.204,-301.414 144,-299 113.952,-281.742 83.3201,-254.824 66.9958,-236.68"/>
<polygon fill="midnightblue" stroke="midnightblue" points="69.2995,-233.979 60.1966,-228.558 63.9321,-238.473 69.2995,-233.979"/>
</g>
<!-- Node6&#45;&gt;Node3 -->
<g id="edge8" class="edge"><title>Node6&#45;&gt;Node3</title>
<path fill="none" stroke="midnightblue" d="M256.708,-317.353C302.169,-320.483 370.286,-325.172 420.096,-328.601"/>
<polygon fill="midnightblue" stroke="midnightblue" points="419.9,-332.095 430.116,-329.291 420.38,-325.112 419.9,-332.095"/>
</g>
<!-- Node6&#45;&gt;Node4 -->
<g id="edge9" class="edge"><title>Node6&#45;&gt;Node4</title>
<path fill="none" stroke="midnightblue" d="M243.58,-323.589C261.782,-328.494 284.138,-334.52 303.572,-339.757"/>
<polygon fill="midnightblue" stroke="midnightblue" points="302.865,-343.191 313.431,-342.414 304.686,-336.432 302.865,-343.191"/>
</g>
<!-- Node6&#45;&gt;Node5 -->
<g id="edge11" class="edge"><title>Node6&#45;&gt;Node5</title>
<path fill="none" stroke="midnightblue" d="M243.58,-304.411C262.982,-299.182 287.105,-292.681 307.376,-287.218"/>
<polygon fill="midnightblue" stroke="midnightblue" points="308.535,-290.53 317.28,-284.549 306.714,-283.771 308.535,-290.53"/>
</g>
</g>
</svg>
