<?xml version="1.0" encoding="UTF-8" standalone="no"?>
<!DOCTYPE svg PUBLIC "-//W3C//DTD SVG 1.1//EN"
 "http://www.w3.org/Graphics/SVG/1.1/DTD/svg11.dtd">
<!-- Generated by graphviz version 2.36.0 (20140111.2315)
 -->
<!-- Title: pgp_check_traditional_one_body Pages: 1 -->
<svg width="302pt" height="51pt"
 viewBox="0.00 0.00 302.00 51.00" xmlns="http://www.w3.org/2000/svg" xmlns:xlink="http://www.w3.org/1999/xlink">
<g id="graph0" class="graph" transform="scale(1 1) rotate(0) translate(4 47)">
<title>pgp_check_traditional_one_body</title>
<polygon fill="white" stroke="none" points="-4,4 -4,-47 298,-47 298,4 -4,4"/>
<!-- Node1 -->
<g id="node1" class="node"><title>Node1</title>
<polygon fill="#bfbfbf" stroke="black" points="0.5,-0 0.5,-30 111.5,-30 111.5,-0 0.5,-0"/>
<text text-anchor="start" x="8.5" y="-18" font-family="Helvetica,sans-Serif" font-size="10.00">pgp_check_traditional</text>
<text text-anchor="middle" x="56" y="-7" font-family="Helvetica,sans-Serif" font-size="10.00">_one_body</text>
</g>
<!-- Node2 -->
<g id="node2" class="node"><title>Node2</title>
<g id="a_node2"><a xlink:href="crypt__gpgme_8h.html#ae99b605a5ceeebc100ff10226857f84e" target="_top" xlink:title="Implements CryptModuleSpecs::pgp_check_traditional() ">
<polygon fill="white" stroke="black" points="148,-5.5 148,-24.5 294,-24.5 294,-5.5 148,-5.5"/>
<text text-anchor="middle" x="221" y="-12.5" font-family="Helvetica,sans-Serif" font-size="10.00">pgp_gpgme_check_traditional</text>
</a>
</g>
</g>
<!-- Node1&#45;&gt;Node2 -->
<g id="edge1" class="edge"><title>Node1&#45;&gt;Node2</title>
<path fill="none" stroke="midnightblue" d="M121.932,-15C130.419,-15 139.156,-15 147.754,-15"/>
<polygon fill="midnightblue" stroke="midnightblue" points="121.73,-11.5001 111.73,-15 121.73,-18.5001 121.73,-11.5001"/>
</g>
<!-- Node2&#45;&gt;Node2 -->
<g id="edge2" class="edge"><title>Node2&#45;&gt;Node2</title>
<path fill="none" stroke="midnightblue" d="M190.311,-33.2746C191.186,-38.741 201.416,-43 221,-43 250.148,-43 258.574,-33.5653 246.277,-24.7571"/>
<polygon fill="midnightblue" stroke="midnightblue" points="193.314,-35.0745 195.723,-24.7571 187.406,-31.3207 193.314,-35.0745"/>
</g>
</g>
</svg>
