<?xml version="1.0" encoding="UTF-8" standalone="no"?>
<!DOCTYPE svg PUBLIC "-//W3C//DTD SVG 1.1//EN"
 "http://www.w3.org/Graphics/SVG/1.1/DTD/svg11.dtd">
<!-- Generated by graphviz version 2.36.0 (20140111.2315)
 -->
<!-- Title: ncrypt/crypt.h Pages: 1 -->
<svg width="414pt" height="84pt"
 viewBox="0.00 0.00 414.00 84.00" xmlns="http://www.w3.org/2000/svg" xmlns:xlink="http://www.w3.org/1999/xlink">
<g id="graph0" class="graph" transform="scale(1 1) rotate(0) translate(4 80)">
<title>ncrypt/crypt.h</title>
<polygon fill="white" stroke="none" points="-4,4 -4,-80 410,-80 410,4 -4,4"/>
<!-- Node1 -->
<g id="node1" class="node"><title>Node1</title>
<polygon fill="#bfbfbf" stroke="black" points="173.5,-56.5 173.5,-75.5 250.5,-75.5 250.5,-56.5 173.5,-56.5"/>
<text text-anchor="middle" x="212" y="-63.5" font-family="Helvetica,sans-Serif" font-size="10.00">ncrypt/crypt.h</text>
</g>
<!-- Node2 -->
<g id="node2" class="node"><title>Node2</title>
<g id="a_node2"><a xlink:href="crypt__gpgme_8c.html" target="_top" xlink:title="Wrapper for PGP/SMIME calls to GPGME. ">
<polygon fill="white" stroke="black" points="-0.5,-0.5 -0.5,-19.5 110.5,-19.5 110.5,-0.5 -0.5,-0.5"/>
<text text-anchor="middle" x="55" y="-7.5" font-family="Helvetica,sans-Serif" font-size="10.00">ncrypt/crypt_gpgme.c</text>
</a>
</g>
</g>
<!-- Node1&#45;&gt;Node2 -->
<g id="edge1" class="edge"><title>Node1&#45;&gt;Node2</title>
<path fill="none" stroke="midnightblue" d="M177.611,-53.172C148.048,-43.0039 106.127,-28.5852 79.7607,-19.5164"/>
<polygon fill="midnightblue" stroke="midnightblue" points="176.528,-56.5007 187.123,-56.4435 178.805,-49.8813 176.528,-56.5007"/>
</g>
<!-- Node3 -->
<g id="node3" class="node"><title>Node3</title>
<g id="a_node3"><a xlink:href="pgp_8c.html" target="_top" xlink:title="PGP sign, encrypt, check routines. ">
<polygon fill="white" stroke="black" points="128.5,-0.5 128.5,-19.5 199.5,-19.5 199.5,-0.5 128.5,-0.5"/>
<text text-anchor="middle" x="164" y="-7.5" font-family="Helvetica,sans-Serif" font-size="10.00">ncrypt/pgp.c</text>
</a>
</g>
</g>
<!-- Node1&#45;&gt;Node3 -->
<g id="edge2" class="edge"><title>Node1&#45;&gt;Node3</title>
<path fill="none" stroke="midnightblue" d="M197.272,-48.4314C188.86,-38.9673 178.651,-27.4827 171.779,-19.7511"/>
<polygon fill="midnightblue" stroke="midnightblue" points="194.814,-50.9342 204.074,-56.083 200.046,-46.2836 194.814,-50.9342"/>
</g>
<!-- Node4 -->
<g id="node4" class="node"><title>Node4</title>
<g id="a_node4"><a xlink:href="pgpkey_8c.html" target="_top" xlink:title="PGP key management routines. ">
<polygon fill="white" stroke="black" points="218,-0.5 218,-19.5 304,-19.5 304,-0.5 218,-0.5"/>
<text text-anchor="middle" x="261" y="-7.5" font-family="Helvetica,sans-Serif" font-size="10.00">ncrypt/pgpkey.c</text>
</a>
</g>
</g>
<!-- Node1&#45;&gt;Node4 -->
<g id="edge3" class="edge"><title>Node1&#45;&gt;Node4</title>
<path fill="none" stroke="midnightblue" d="M227.034,-48.4314C235.622,-38.9673 246.043,-27.4827 253.059,-19.7511"/>
<polygon fill="midnightblue" stroke="midnightblue" points="224.219,-46.3254 220.091,-56.083 229.403,-51.0293 224.219,-46.3254"/>
</g>
<!-- Node5 -->
<g id="node5" class="node"><title>Node5</title>
<g id="a_node5"><a xlink:href="smime_8c.html" target="_top" xlink:title="SMIME helper routines. ">
<polygon fill="white" stroke="black" points="322,-0.5 322,-19.5 406,-19.5 406,-0.5 322,-0.5"/>
<text text-anchor="middle" x="364" y="-7.5" font-family="Helvetica,sans-Serif" font-size="10.00">ncrypt/smime.c</text>
</a>
</g>
</g>
<!-- Node1&#45;&gt;Node5 -->
<g id="edge4" class="edge"><title>Node1&#45;&gt;Node5</title>
<path fill="none" stroke="midnightblue" d="M245.668,-53.0392C274.268,-42.8786 314.612,-28.5457 340.028,-19.5164"/>
<polygon fill="midnightblue" stroke="midnightblue" points="244.336,-49.7978 236.085,-56.4435 246.68,-56.3939 244.336,-49.7978"/>
</g>
</g>
</svg>
