<?xml version="1.0" encoding="UTF-8" standalone="no"?>
<!DOCTYPE svg PUBLIC "-//W3C//DTD SVG 1.1//EN"
 "http://www.w3.org/Graphics/SVG/1.1/DTD/svg11.dtd">
<!-- Generated by graphviz version 2.36.0 (20140111.2315)
 -->
<!-- Title: verify_one Pages: 1 -->
<svg width="238pt" height="142pt"
 viewBox="0.00 0.00 238.00 142.00" xmlns="http://www.w3.org/2000/svg" xmlns:xlink="http://www.w3.org/1999/xlink">
<g id="graph0" class="graph" transform="scale(1 1) rotate(0) translate(4 138)">
<title>verify_one</title>
<polygon fill="white" stroke="none" points="-4,4 -4,-138 234,-138 234,4 -4,4"/>
<!-- Node1 -->
<g id="node1" class="node"><title>Node1</title>
<polygon fill="#bfbfbf" stroke="black" points="0,-57.5 0,-76.5 62,-76.5 62,-57.5 0,-57.5"/>
<text text-anchor="middle" x="31" y="-64.5" font-family="Helvetica,sans-Serif" font-size="10.00">verify_one</text>
</g>
<!-- Node2 -->
<g id="node2" class="node"><title>Node2</title>
<g id="a_node2"><a xlink:href="crypt__gpgme_8h.html#a5fba8c4b91a4fa20d6ed27e75e5b2573" target="_top" xlink:title="Implements CryptModuleSpecs::verify_one() ">
<polygon fill="white" stroke="black" points="105.5,-114.5 105.5,-133.5 222.5,-133.5 222.5,-114.5 105.5,-114.5"/>
<text text-anchor="middle" x="164" y="-121.5" font-family="Helvetica,sans-Serif" font-size="10.00">pgp_gpgme_verify_one</text>
</a>
</g>
</g>
<!-- Node1&#45;&gt;Node2 -->
<g id="edge1" class="edge"><title>Node1&#45;&gt;Node2</title>
<path fill="none" stroke="midnightblue" d="M55.1478,-82.145C67.4994,-89.7524 83.1736,-98.6721 98,-105 106.434,-108.6 115.763,-111.77 124.659,-114.438"/>
<polygon fill="midnightblue" stroke="midnightblue" points="56.7462,-79.0154 46.4193,-76.6479 53.0159,-84.9386 56.7462,-79.0154"/>
</g>
<!-- Node3 -->
<g id="node3" class="node"><title>Node3</title>
<g id="a_node3"><a xlink:href="crypt__gpgme_8h.html#a9760878f52cf39be1f8794d80015fe5c" target="_top" xlink:title="Implements CryptModuleSpecs::verify_one() ">
<polygon fill="white" stroke="black" points="98.5,-76.5 98.5,-95.5 229.5,-95.5 229.5,-76.5 98.5,-76.5"/>
<text text-anchor="middle" x="164" y="-83.5" font-family="Helvetica,sans-Serif" font-size="10.00">smime_gpgme_verify_one</text>
</a>
</g>
</g>
<!-- Node1&#45;&gt;Node3 -->
<g id="edge2" class="edge"><title>Node1&#45;&gt;Node3</title>
<path fill="none" stroke="midnightblue" d="M72.1853,-72.8284C80.4944,-74.0335 89.4458,-75.3318 98.3755,-76.627"/>
<polygon fill="midnightblue" stroke="midnightblue" points="72.4529,-69.3307 62.054,-71.359 71.4481,-76.2582 72.4529,-69.3307"/>
</g>
<!-- Node4 -->
<g id="node4" class="node"><title>Node4</title>
<g id="a_node4"><a xlink:href="cryptglue_8h.html#a9457dc1f6c58f46461c4866e08946b5c" target="_top" xlink:title="Wrapper for CryptModuleSpecs::verify_one() ">
<polygon fill="white" stroke="red" points="109,-38.5 109,-57.5 219,-57.5 219,-38.5 109,-38.5"/>
<text text-anchor="middle" x="164" y="-45.5" font-family="Helvetica,sans-Serif" font-size="10.00">crypt_pgp_verify_one</text>
</a>
</g>
</g>
<!-- Node1&#45;&gt;Node4 -->
<g id="edge3" class="edge"><title>Node1&#45;&gt;Node4</title>
<path fill="none" stroke="midnightblue" d="M72.2777,-61.1582C83.8452,-59.4805 96.6514,-57.6231 108.908,-55.8454"/>
<polygon fill="midnightblue" stroke="midnightblue" points="71.4481,-57.7418 62.054,-62.641 72.4529,-64.6693 71.4481,-57.7418"/>
</g>
<!-- Node5 -->
<g id="node5" class="node"><title>Node5</title>
<g id="a_node5"><a xlink:href="cryptglue_8h.html#a805ac5f7d1ad9d7714f01d2e13e8b6be" target="_top" xlink:title="Wrapper for CryptModuleSpecs::verify_one() ">
<polygon fill="white" stroke="red" points="102.5,-0.5 102.5,-19.5 225.5,-19.5 225.5,-0.5 102.5,-0.5"/>
<text text-anchor="middle" x="164" y="-7.5" font-family="Helvetica,sans-Serif" font-size="10.00">crypt_smime_verify_one</text>
</a>
</g>
</g>
<!-- Node1&#45;&gt;Node5 -->
<g id="edge4" class="edge"><title>Node1&#45;&gt;Node5</title>
<path fill="none" stroke="midnightblue" d="M55.1478,-51.855C67.4994,-44.2476 83.1736,-35.3279 98,-29 106.434,-25.4002 115.763,-22.2302 124.659,-19.5622"/>
<polygon fill="midnightblue" stroke="midnightblue" points="53.0159,-49.0614 46.4193,-57.3521 56.7462,-54.9846 53.0159,-49.0614"/>
</g>
</g>
</svg>
