<?xml version="1.0" encoding="UTF-8" standalone="no"?>
<!DOCTYPE svg PUBLIC "-//W3C//DTD SVG 1.1//EN"
 "http://www.w3.org/Graphics/SVG/1.1/DTD/svg11.dtd">
<!-- Generated by graphviz version 2.36.0 (20140111.2315)
 -->
<!-- Title: pgp_gpgme_application_handler Pages: 1 -->
<svg width="570pt" height="594pt"
 viewBox="0.00 0.00 570.00 593.93" xmlns="http://www.w3.org/2000/svg" xmlns:xlink="http://www.w3.org/1999/xlink">
<g id="graph0" class="graph" transform="scale(1 1) rotate(0) translate(4 589.933)">
<title>pgp_gpgme_application_handler</title>
<polygon fill="white" stroke="none" points="-4,4 -4,-589.933 566,-589.933 566,4 -4,4"/>
<!-- Node1 -->
<g id="node1" class="node"><title>Node1</title>
<polygon fill="#bfbfbf" stroke="black" points="0.5,-280 0.5,-310 119.5,-310 119.5,-280 0.5,-280"/>
<text text-anchor="start" x="8.5" y="-298" font-family="Helvetica,sans-Serif" font-size="10.00">pgp_gpgme_application</text>
<text text-anchor="middle" x="60" y="-287" font-family="Helvetica,sans-Serif" font-size="10.00">_handler</text>
</g>
<!-- Node2 -->
<g id="node2" class="node"><title>Node2</title>
<g id="a_node2"><a xlink:href="sendlib_8c.html#a8465f41e6b0f0256527ca2404edfb762" target="_top" xlink:title="Get a body&#39;s character set. ">
<polygon fill="white" stroke="red" points="156.5,-532.5 156.5,-551.5 275.5,-551.5 275.5,-532.5 156.5,-532.5"/>
<text text-anchor="middle" x="216" y="-539.5" font-family="Helvetica,sans-Serif" font-size="10.00">mutt_body_get_charset</text>
</a>
</g>
</g>
<!-- Node1&#45;&gt;Node2 -->
<g id="edge1" class="edge"><title>Node1&#45;&gt;Node2</title>
<path fill="none" stroke="midnightblue" d="M62.9293,-310.256C68.8798,-350.921 90.6759,-462.899 156,-523 157.705,-524.569 159.541,-526.008 161.473,-527.329"/>
<polygon fill="midnightblue" stroke="midnightblue" points="160.027,-530.531 170.457,-532.39 163.463,-524.432 160.027,-530.531"/>
</g>
<!-- Node3 -->
<g id="node3" class="node"><title>Node3</title>
<g id="a_node3"><a xlink:href="mutt_2string_8c.html#a3b8965b21d6e21536750f8883cd4333a" target="_top" xlink:title="Copy a string into a buffer (guaranteeing NUL&#45;termination) ">
<polygon fill="white" stroke="black" points="332,-551.5 332,-570.5 420,-570.5 420,-551.5 332,-551.5"/>
<text text-anchor="middle" x="376" y="-558.5" font-family="Helvetica,sans-Serif" font-size="10.00">mutt_str_strfcpy</text>
</a>
</g>
</g>
<!-- Node1&#45;&gt;Node3 -->
<g id="edge3" class="edge"><title>Node1&#45;&gt;Node3</title>
<path fill="none" stroke="midnightblue" d="M60.9186,-310.231C61.5949,-357.318 70.8217,-500.973 156,-561 209.276,-598.545 289.4,-585.808 336.527,-573.294"/>
<polygon fill="midnightblue" stroke="midnightblue" points="337.649,-576.615 346.345,-570.563 335.773,-569.871 337.649,-576.615"/>
</g>
<!-- Node4 -->
<g id="node4" class="node"><title>Node4</title>
<g id="a_node4"><a xlink:href="mutt_2string_8c.html#a0f37dc8085c127cb48df9b47a21236a6" target="_top" xlink:title="Compare two strings (to a maximum), safely. ">
<polygon fill="white" stroke="black" points="169.5,-494.5 169.5,-513.5 262.5,-513.5 262.5,-494.5 169.5,-494.5"/>
<text text-anchor="middle" x="216" y="-501.5" font-family="Helvetica,sans-Serif" font-size="10.00">mutt_str_strncmp</text>
</a>
</g>
</g>
<!-- Node1&#45;&gt;Node4 -->
<g id="edge4" class="edge"><title>Node1&#45;&gt;Node4</title>
<path fill="none" stroke="midnightblue" d="M64.2883,-310.053C72.8729,-345.785 99.3329,-436.357 156,-485 157.965,-486.687 160.081,-488.224 162.304,-489.625"/>
<polygon fill="midnightblue" stroke="midnightblue" points="160.829,-492.804 171.305,-494.384 164.1,-486.616 160.829,-492.804"/>
</g>
<!-- Node5 -->
<g id="node5" class="node"><title>Node5</title>
<g id="a_node5"><a xlink:href="crypt__gpgme_8c.html#a9e4c3751a7e9290b83db346a58f9fc95" target="_top" xlink:title="Create GPGME data object from file. ">
<polygon fill="white" stroke="black" points="167,-456.5 167,-475.5 265,-475.5 265,-456.5 167,-456.5"/>
<text text-anchor="middle" x="216" y="-463.5" font-family="Helvetica,sans-Serif" font-size="10.00">file_to_data_object</text>
</a>
</g>
</g>
<!-- Node1&#45;&gt;Node5 -->
<g id="edge5" class="edge"><title>Node1&#45;&gt;Node5</title>
<path fill="none" stroke="midnightblue" d="M67.0286,-310.074C79.4523,-339.368 110.599,-404.399 156,-442 160.862,-446.027 166.491,-449.452 172.301,-452.342"/>
<polygon fill="midnightblue" stroke="midnightblue" points="170.94,-455.568 181.498,-456.454 173.798,-449.177 170.94,-455.568"/>
</g>
<!-- Node6 -->
<g id="node6" class="node"><title>Node6</title>
<g id="a_node6"><a xlink:href="crypt__gpgme_8c.html#ada2e31886edb9f9b2753be90ba6861b3" target="_top" xlink:title="Write PGP keys to a file. ">
<polygon fill="white" stroke="red" points="312,-418.5 312,-437.5 440,-437.5 440,-418.5 312,-418.5"/>
<text text-anchor="middle" x="376" y="-425.5" font-family="Helvetica,sans-Serif" font-size="10.00">pgp_gpgme_extract_keys</text>
</a>
</g>
</g>
<!-- Node1&#45;&gt;Node6 -->
<g id="edge6" class="edge"><title>Node1&#45;&gt;Node6</title>
<path fill="none" stroke="midnightblue" d="M69.1426,-310.142C83.22,-334.634 114.619,-382.376 156,-404 200.501,-427.255 256.949,-432.971 301.391,-433.02"/>
<polygon fill="midnightblue" stroke="midnightblue" points="301.576,-436.519 311.546,-432.934 301.517,-429.519 301.576,-436.519"/>
</g>
<!-- Node7 -->
<g id="node7" class="node"><title>Node7</title>
<g id="a_node7"><a xlink:href="file_8c.html#a4982d9040dfaf38e847729be2af83ed6" target="_top" xlink:title="Close a FILE handle (and NULL the pointer) ">
<polygon fill="white" stroke="black" points="476,-361.5 476,-380.5 562,-380.5 562,-361.5 476,-361.5"/>
<text text-anchor="middle" x="519" y="-368.5" font-family="Helvetica,sans-Serif" font-size="10.00">mutt_file_fclose</text>
</a>
</g>
</g>
<!-- Node1&#45;&gt;Node7 -->
<g id="edge15" class="edge"><title>Node1&#45;&gt;Node7</title>
<path fill="none" stroke="midnightblue" d="M79.2997,-310.22C97.5095,-324.437 126.869,-344.932 156,-355 261.124,-391.332 393.711,-385.111 465.684,-377.785"/>
<polygon fill="midnightblue" stroke="midnightblue" points="466.28,-381.241 475.853,-376.701 465.538,-374.281 466.28,-381.241"/>
</g>
<!-- Node8 -->
<g id="node8" class="node"><title>Node8</title>
<g id="a_node8"><a xlink:href="crypt__gpgme_8c.html#a433e35eb7b66902025d1a6eced7c17c8" target="_top" xlink:title="Create a new GPGME data object. ">
<polygon fill="white" stroke="red" points="165,-190.5 165,-209.5 267,-209.5 267,-190.5 165,-190.5"/>
<text text-anchor="middle" x="216" y="-197.5" font-family="Helvetica,sans-Serif" font-size="10.00">create_gpgme_data</text>
</a>
</g>
</g>
<!-- Node1&#45;&gt;Node8 -->
<g id="edge8" class="edge"><title>Node1&#45;&gt;Node8</title>
<path fill="none" stroke="midnightblue" d="M78.2712,-279.946C96.6272,-264.478 126.955,-240.402 156,-224 162.752,-220.187 170.232,-216.662 177.535,-213.553"/>
<polygon fill="midnightblue" stroke="midnightblue" points="179.352,-216.593 187.298,-209.585 176.716,-210.108 179.352,-216.593"/>
</g>
<!-- Node9 -->
<g id="node9" class="node"><title>Node9</title>
<g id="a_node9"><a xlink:href="crypt__gpgme_8c.html#a31d59710ce616d9e2acea30f70294362" target="_top" xlink:title="Create a new GPGME context. ">
<polygon fill="white" stroke="red" points="158,-152.5 158,-171.5 274,-171.5 274,-152.5 158,-152.5"/>
<text text-anchor="middle" x="216" y="-159.5" font-family="Helvetica,sans-Serif" font-size="10.00">create_gpgme_context</text>
</a>
</g>
</g>
<!-- Node1&#45;&gt;Node9 -->
<g id="edge9" class="edge"><title>Node1&#45;&gt;Node9</title>
<path fill="none" stroke="midnightblue" d="M69.7532,-279.711C84.4763,-255.327 116.497,-207.667 156,-181 158.943,-179.013 162.108,-177.223 165.389,-175.611"/>
<polygon fill="midnightblue" stroke="midnightblue" points="167.056,-178.704 174.851,-171.529 164.283,-172.276 167.056,-178.704"/>
</g>
<!-- Node10 -->
<g id="node10" class="node"><title>Node10</title>
<g id="a_node10"><a xlink:href="crypt__gpgme_8c.html#acde3260a9e30d9ffd4fa5a62f19620a9" target="_top" xlink:title="accommodate for a redraw if needed ">
<polygon fill="white" stroke="red" points="169.5,-114.5 169.5,-133.5 262.5,-133.5 262.5,-114.5 169.5,-114.5"/>
<text text-anchor="middle" x="216" y="-121.5" font-family="Helvetica,sans-Serif" font-size="10.00">redraw_if_needed</text>
</a>
</g>
</g>
<!-- Node1&#45;&gt;Node10 -->
<g id="edge10" class="edge"><title>Node1&#45;&gt;Node10</title>
<path fill="none" stroke="midnightblue" d="M66.4575,-279.575C78.0671,-248.966 108.131,-180.295 156,-143 158.426,-141.11 161.046,-139.405 163.785,-137.868"/>
<polygon fill="midnightblue" stroke="midnightblue" points="165.36,-140.994 172.855,-133.505 162.326,-134.686 165.36,-140.994"/>
</g>
<!-- Node11 -->
<g id="node11" class="node"><title>Node11</title>
<g id="a_node11"><a xlink:href="state_8c.html#aa1f339fabf8f144e719be0f686ee0e30" target="_top" xlink:title="Write a string to the state. ">
<polygon fill="white" stroke="red" points="168.5,-76.5 168.5,-95.5 263.5,-95.5 263.5,-76.5 168.5,-76.5"/>
<text text-anchor="middle" x="216" y="-83.5" font-family="Helvetica,sans-Serif" font-size="10.00">state_attach_puts</text>
</a>
</g>
</g>
<!-- Node1&#45;&gt;Node11 -->
<g id="edge11" class="edge"><title>Node1&#45;&gt;Node11</title>
<path fill="none" stroke="midnightblue" d="M64.2883,-279.947C72.8729,-244.215 99.3329,-153.643 156,-105 157.965,-103.313 160.081,-101.776 162.304,-100.375"/>
<polygon fill="midnightblue" stroke="midnightblue" points="164.1,-103.384 171.305,-95.6163 160.829,-97.1957 164.1,-103.384"/>
</g>
<!-- Node12 -->
<g id="node12" class="node"><title>Node12</title>
<g id="a_node12"><a xlink:href="crypt__gpgme_8c.html#a90bb1055f235c6de5186089f8795d443" target="_top" xlink:title="Show information about one signature. ">
<polygon fill="white" stroke="red" points="160.5,-38.5 160.5,-57.5 271.5,-57.5 271.5,-38.5 160.5,-38.5"/>
<text text-anchor="middle" x="216" y="-45.5" font-family="Helvetica,sans-Serif" font-size="10.00">show_one_sig_status</text>
</a>
</g>
</g>
<!-- Node1&#45;&gt;Node12 -->
<g id="edge12" class="edge"><title>Node1&#45;&gt;Node12</title>
<path fill="none" stroke="midnightblue" d="M62.9293,-279.744C68.8798,-239.079 90.6759,-127.101 156,-67 157.705,-65.4312 159.541,-63.9919 161.473,-62.6714"/>
<polygon fill="midnightblue" stroke="midnightblue" points="163.463,-65.5677 170.457,-57.6096 160.027,-59.469 163.463,-65.5677"/>
</g>
<!-- Node13 -->
<g id="node13" class="node"><title>Node13</title>
<g id="a_node13"><a xlink:href="crypt__gpgme_8c.html#adf7cfc215501ef8a701a722e76497b0e" target="_top" xlink:title="Copy a data object to a temporary file. ">
<polygon fill="white" stroke="red" points="316,-342.5 316,-361.5 436,-361.5 436,-342.5 316,-342.5"/>
<text text-anchor="middle" x="376" y="-349.5" font-family="Helvetica,sans-Serif" font-size="10.00">data_object_to_tempfile</text>
</a>
</g>
</g>
<!-- Node1&#45;&gt;Node13 -->
<g id="edge13" class="edge"><title>Node1&#45;&gt;Node13</title>
<path fill="none" stroke="midnightblue" d="M91.9098,-310.054C110.13,-318.238 133.88,-327.738 156,-333 205.152,-344.692 262.035,-349.372 305.508,-351.166"/>
<polygon fill="midnightblue" stroke="midnightblue" points="305.571,-354.671 315.694,-351.544 305.83,-347.676 305.571,-354.671"/>
</g>
<!-- Node14 -->
<g id="node14" class="node"><title>Node14</title>
<g id="a_node14"><a xlink:href="crypt__gpgme_8c.html#ab66d572be0c35eeb6c5247ecd94b2fcc" target="_top" xlink:title="Copy a clearsigned message. ">
<polygon fill="white" stroke="red" points="170,-304.5 170,-323.5 262,-323.5 262,-304.5 170,-304.5"/>
<text text-anchor="middle" x="216" y="-311.5" font-family="Helvetica,sans-Serif" font-size="10.00">copy_clearsigned</text>
</a>
</g>
</g>
<!-- Node1&#45;&gt;Node14 -->
<g id="edge16" class="edge"><title>Node1&#45;&gt;Node14</title>
<path fill="none" stroke="midnightblue" d="M119.66,-302.237C132.806,-303.859 146.709,-305.575 159.713,-307.179"/>
<polygon fill="midnightblue" stroke="midnightblue" points="159.563,-310.687 169.917,-308.438 160.42,-303.74 159.563,-310.687"/>
</g>
<!-- Node15 -->
<g id="node15" class="node"><title>Node15</title>
<g id="a_node15"><a xlink:href="charset_8c.html#ac62eb0dbd9e985ae995432b6bd94a024" target="_top" xlink:title="Prepare a file for charset conversion. ">
<polygon fill="white" stroke="red" points="315.5,-266.5 315.5,-285.5 436.5,-285.5 436.5,-266.5 315.5,-266.5"/>
<text text-anchor="middle" x="376" y="-273.5" font-family="Helvetica,sans-Serif" font-size="10.00">mutt_ch_fgetconv_open</text>
</a>
</g>
</g>
<!-- Node1&#45;&gt;Node15 -->
<g id="edge21" class="edge"><title>Node1&#45;&gt;Node15</title>
<path fill="none" stroke="midnightblue" d="M119.693,-291.449C172.247,-288.268 249.393,-283.6 305.116,-280.229"/>
<polygon fill="midnightblue" stroke="midnightblue" points="305.491,-283.712 315.261,-279.615 305.068,-276.725 305.491,-283.712"/>
</g>
<!-- Node16 -->
<g id="node16" class="node"><title>Node16</title>
<g id="a_node16"><a xlink:href="charset_8c.html#a0e81727a5f32d8b10fe7c805d1d4e7ac" target="_top" xlink:title="Close an fgetconv handle. ">
<polygon fill="white" stroke="black" points="314.5,-228.5 314.5,-247.5 437.5,-247.5 437.5,-228.5 314.5,-228.5"/>
<text text-anchor="middle" x="376" y="-235.5" font-family="Helvetica,sans-Serif" font-size="10.00">mutt_ch_fgetconv_close</text>
</a>
</g>
</g>
<!-- Node1&#45;&gt;Node16 -->
<g id="edge23" class="edge"><title>Node1&#45;&gt;Node16</title>
<path fill="none" stroke="midnightblue" d="M119.693,-284.346C174.587,-274.381 256.31,-259.546 312.427,-249.359"/>
<polygon fill="midnightblue" stroke="midnightblue" points="313.38,-252.743 322.594,-247.513 312.13,-245.856 313.38,-252.743"/>
</g>
<!-- Node17 -->
<g id="node17" class="node"><title>Node17</title>
<g id="a_node17"><a xlink:href="charset_8c.html#a90191f2589de2c605dd8c13b496ad3e1" target="_top" xlink:title="Convert a file&#39;s character set. ">
<polygon fill="white" stroke="red" points="168.5,-0.5 168.5,-19.5 263.5,-19.5 263.5,-0.5 168.5,-0.5"/>
<text text-anchor="middle" x="216" y="-7.5" font-family="Helvetica,sans-Serif" font-size="10.00">mutt_ch_fgetconv</text>
</a>
</g>
</g>
<!-- Node1&#45;&gt;Node17 -->
<g id="edge22" class="edge"><title>Node1&#45;&gt;Node17</title>
<path fill="none" stroke="midnightblue" d="M61.8863,-279.907C65.3399,-235.017 81.6941,-101.003 156,-29 157.633,-27.418 159.397,-25.9678 161.262,-24.6383"/>
<polygon fill="midnightblue" stroke="midnightblue" points="163.102,-27.6164 169.97,-19.5484 159.57,-21.5731 163.102,-27.6164"/>
</g>
<!-- Node2&#45;&gt;Node3 -->
<g id="edge2" class="edge"><title>Node2&#45;&gt;Node3</title>
<path fill="none" stroke="midnightblue" d="M275.833,-549.075C290.946,-550.892 307.114,-552.837 321.917,-554.617"/>
<polygon fill="midnightblue" stroke="midnightblue" points="321.571,-558.1 331.917,-555.819 322.407,-551.15 321.571,-558.1"/>
</g>
<!-- Node6&#45;&gt;Node7 -->
<g id="edge7" class="edge"><title>Node6&#45;&gt;Node7</title>
<path fill="none" stroke="midnightblue" d="M402.83,-418.401C414.258,-414.093 427.837,-408.888 440,-404 455.408,-397.808 472.402,-390.657 486.584,-384.598"/>
<polygon fill="midnightblue" stroke="midnightblue" points="488.088,-387.761 495.899,-380.603 485.329,-381.328 488.088,-387.761"/>
</g>
<!-- Node13&#45;&gt;Node7 -->
<g id="edge14" class="edge"><title>Node13&#45;&gt;Node7</title>
<path fill="none" stroke="midnightblue" d="M436.388,-360.003C446.116,-361.313 456.133,-362.663 465.674,-363.949"/>
<polygon fill="midnightblue" stroke="midnightblue" points="465.425,-367.447 475.803,-365.314 466.36,-360.51 465.425,-367.447"/>
</g>
<!-- Node14&#45;&gt;Node7 -->
<g id="edge18" class="edge"><title>Node14&#45;&gt;Node7</title>
<path fill="none" stroke="midnightblue" d="M262.275,-313.037C307.943,-313.179 380.07,-316.467 440,-333 458.82,-338.192 478.577,-347.867 493.498,-356.155"/>
<polygon fill="midnightblue" stroke="midnightblue" points="492.13,-359.405 502.546,-361.34 495.61,-353.331 492.13,-359.405"/>
</g>
<!-- Node14&#45;&gt;Node13 -->
<g id="edge17" class="edge"><title>Node14&#45;&gt;Node13</title>
<path fill="none" stroke="midnightblue" d="M256.87,-323.589C277.72,-328.604 303.435,-334.788 325.543,-340.105"/>
<polygon fill="midnightblue" stroke="midnightblue" points="324.875,-343.544 335.417,-342.48 326.512,-336.739 324.875,-343.544"/>
</g>
<!-- Node14&#45;&gt;Node15 -->
<g id="edge19" class="edge"><title>Node14&#45;&gt;Node15</title>
<path fill="none" stroke="midnightblue" d="M256.87,-304.411C277.72,-299.396 303.435,-293.212 325.543,-287.895"/>
<polygon fill="midnightblue" stroke="midnightblue" points="326.512,-291.261 335.417,-285.52 324.875,-284.456 326.512,-291.261"/>
</g>
<!-- Node14&#45;&gt;Node16 -->
<g id="edge20" class="edge"><title>Node14&#45;&gt;Node16</title>
<path fill="none" stroke="midnightblue" d="M230.577,-304.371C248.507,-292.01 281.396,-270.545 312,-257 317.093,-254.746 322.53,-252.662 327.997,-250.764"/>
<polygon fill="midnightblue" stroke="midnightblue" points="329.386,-253.992 337.8,-247.553 327.207,-247.339 329.386,-253.992"/>
</g>
</g>
</svg>
