<?xml version="1.0" encoding="UTF-8" standalone="no"?>
<!DOCTYPE svg PUBLIC "-//W3C//DTD SVG 1.1//EN"
 "http://www.w3.org/Graphics/SVG/1.1/DTD/svg11.dtd">
<!-- Generated by graphviz version 2.36.0 (20140111.2315)
 -->
<!-- Title: init_common Pages: 1 -->
<svg width="214pt" height="66pt"
 viewBox="0.00 0.00 214.00 66.00" xmlns="http://www.w3.org/2000/svg" xmlns:xlink="http://www.w3.org/1999/xlink">
<g id="graph0" class="graph" transform="scale(1 1) rotate(0) translate(4 62)">
<title>init_common</title>
<polygon fill="white" stroke="none" points="-4,4 -4,-62 210,-62 210,4 -4,4"/>
<!-- Node1 -->
<g id="node1" class="node"><title>Node1</title>
<polygon fill="#bfbfbf" stroke="black" points="0,-19.5 0,-38.5 72,-38.5 72,-19.5 0,-19.5"/>
<text text-anchor="middle" x="36" y="-26.5" font-family="Helvetica,sans-Serif" font-size="10.00">init_common</text>
</g>
<!-- Node2 -->
<g id="node2" class="node"><title>Node2</title>
<g id="a_node2"><a xlink:href="crypt__gpgme_8h.html#a7061521ecb51237cbbc557440353af39" target="_top" xlink:title="Implements CryptModuleSpecs::init() ">
<polygon fill="white" stroke="black" points="114.5,-38.5 114.5,-57.5 199.5,-57.5 199.5,-38.5 114.5,-38.5"/>
<text text-anchor="middle" x="157" y="-45.5" font-family="Helvetica,sans-Serif" font-size="10.00">pgp_gpgme_init</text>
</a>
</g>
</g>
<!-- Node1&#45;&gt;Node2 -->
<g id="edge1" class="edge"><title>Node1&#45;&gt;Node2</title>
<path fill="none" stroke="midnightblue" d="M82.0225,-36.1885C92.6743,-37.8892 103.985,-39.6951 114.474,-41.3697"/>
<polygon fill="midnightblue" stroke="midnightblue" points="82.4871,-32.7184 72.0603,-34.5979 81.3834,-39.6308 82.4871,-32.7184"/>
</g>
<!-- Node3 -->
<g id="node3" class="node"><title>Node3</title>
<g id="a_node3"><a xlink:href="crypt__gpgme_8h.html#a19bf09fde57098f4d77a85b4b73ca90e" target="_top" xlink:title="Implements CryptModuleSpecs::init() ">
<polygon fill="white" stroke="black" points="108,-0.5 108,-19.5 206,-19.5 206,-0.5 108,-0.5"/>
<text text-anchor="middle" x="157" y="-7.5" font-family="Helvetica,sans-Serif" font-size="10.00">smime_gpgme_init</text>
</a>
</g>
</g>
<!-- Node1&#45;&gt;Node3 -->
<g id="edge2" class="edge"><title>Node1&#45;&gt;Node3</title>
<path fill="none" stroke="midnightblue" d="M82.1142,-21.7969C90.5648,-20.4476 99.4272,-19.0326 107.963,-17.6698"/>
<polygon fill="midnightblue" stroke="midnightblue" points="81.3834,-18.3692 72.0603,-23.4021 82.4871,-25.2816 81.3834,-18.3692"/>
</g>
</g>
</svg>
