<?xml version="1.0" encoding="UTF-8" standalone="no"?>
<!DOCTYPE svg PUBLIC "-//W3C//DTD SVG 1.1//EN"
 "http://www.w3.org/Graphics/SVG/1.1/DTD/svg11.dtd">
<!-- Generated by graphviz version 2.36.0 (20140111.2315)
 -->
<!-- Title: mutt_is_application_pgp Pages: 1 -->
<svg width="426pt" height="85pt"
 viewBox="0.00 0.00 426.00 85.00" xmlns="http://www.w3.org/2000/svg" xmlns:xlink="http://www.w3.org/1999/xlink">
<g id="graph0" class="graph" transform="scale(1 1) rotate(0) translate(4 81)">
<title>mutt_is_application_pgp</title>
<polygon fill="white" stroke="none" points="-4,4 -4,-81 422,-81 422,4 -4,4"/>
<!-- Node1 -->
<g id="node1" class="node"><title>Node1</title>
<polygon fill="#bfbfbf" stroke="black" points="0,-38.5 0,-57.5 122,-57.5 122,-38.5 0,-38.5"/>
<text text-anchor="middle" x="61" y="-45.5" font-family="Helvetica,sans-Serif" font-size="10.00">mutt_is_application_pgp</text>
</g>
<!-- Node2 -->
<g id="node2" class="node"><title>Node2</title>
<g id="a_node2"><a xlink:href="mutt_2string_8c.html#a011e5b6fad43bc608584d585987cf9c1" target="_top" xlink:title="Compare two strings ignoring case, safely. ">
<polygon fill="white" stroke="black" points="308.5,-57.5 308.5,-76.5 417.5,-76.5 417.5,-57.5 308.5,-57.5"/>
<text text-anchor="middle" x="363" y="-64.5" font-family="Helvetica,sans-Serif" font-size="10.00">mutt_str_strcasecmp</text>
</a>
</g>
</g>
<!-- Node1&#45;&gt;Node2 -->
<g id="edge1" class="edge"><title>Node1&#45;&gt;Node2</title>
<path fill="none" stroke="midnightblue" d="M100.977,-57.5102C118.32,-61.2752 139.062,-65.1439 158,-67 204.692,-71.5762 257.685,-71.4164 297.956,-70.1967"/>
<polygon fill="midnightblue" stroke="midnightblue" points="298.293,-73.6875 308.171,-69.8565 298.06,-66.6914 298.293,-73.6875"/>
</g>
<!-- Node3 -->
<g id="node3" class="node"><title>Node3</title>
<g id="a_node3"><a xlink:href="parameter_8c.html#a4e936faaaa08c332e3414247583a0ffa" target="_top" xlink:title="Find a matching Parameter. ">
<polygon fill="white" stroke="black" points="171.5,-38.5 171.5,-57.5 258.5,-57.5 258.5,-38.5 171.5,-38.5"/>
<text text-anchor="middle" x="215" y="-45.5" font-family="Helvetica,sans-Serif" font-size="10.00">mutt_param_get</text>
</a>
</g>
</g>
<!-- Node1&#45;&gt;Node3 -->
<g id="edge2" class="edge"><title>Node1&#45;&gt;Node3</title>
<path fill="none" stroke="midnightblue" d="M122.074,-48C134.911,-48 148.381,-48 160.932,-48"/>
<polygon fill="midnightblue" stroke="midnightblue" points="161.223,-51.5001 171.223,-48 161.223,-44.5001 161.223,-51.5001"/>
</g>
<!-- Node4 -->
<g id="node4" class="node"><title>Node4</title>
<g id="a_node4"><a xlink:href="mutt_2string_8c.html#a0ab98e8f251c9db11831b77a1681edc3" target="_top" xlink:title="Compare two strings ignoring case (to a maximum), safely. ">
<polygon fill="white" stroke="black" points="158,-0.5 158,-19.5 272,-19.5 272,-0.5 158,-0.5"/>
<text text-anchor="middle" x="215" y="-7.5" font-family="Helvetica,sans-Serif" font-size="10.00">mutt_str_strncasecmp</text>
</a>
</g>
</g>
<!-- Node1&#45;&gt;Node4 -->
<g id="edge4" class="edge"><title>Node1&#45;&gt;Node4</title>
<path fill="none" stroke="midnightblue" d="M100.356,-38.411C120.324,-33.4191 144.93,-27.2676 166.133,-21.9666"/>
<polygon fill="midnightblue" stroke="midnightblue" points="167.067,-25.341 175.92,-19.5201 165.369,-18.55 167.067,-25.341"/>
</g>
<!-- Node3&#45;&gt;Node2 -->
<g id="edge3" class="edge"><title>Node3&#45;&gt;Node2</title>
<path fill="none" stroke="midnightblue" d="M258.622,-53.5467C271.03,-55.1614 284.863,-56.9617 298.272,-58.7067"/>
<polygon fill="midnightblue" stroke="midnightblue" points="298.045,-62.2065 308.413,-60.0264 298.948,-55.2651 298.045,-62.2065"/>
</g>
</g>
</svg>
