<?xml version="1.0" encoding="UTF-8" standalone="no"?>
<!DOCTYPE svg PUBLIC "-//W3C//DTD SVG 1.1//EN"
 "http://www.w3.org/Graphics/SVG/1.1/DTD/svg11.dtd">
<!-- Generated by graphviz version 2.36.0 (20140111.2315)
 -->
<!-- Title: mutt_is_valid_multipart_pgp_encrypted Pages: 1 -->
<svg width="296pt" height="104pt"
 viewBox="0.00 0.00 296.00 104.00" xmlns="http://www.w3.org/2000/svg" xmlns:xlink="http://www.w3.org/1999/xlink">
<g id="graph0" class="graph" transform="scale(1 1) rotate(0) translate(4 100)">
<title>mutt_is_valid_multipart_pgp_encrypted</title>
<polygon fill="white" stroke="none" points="-4,4 -4,-100 292,-100 292,4 -4,4"/>
<!-- Node1 -->
<g id="node1" class="node"><title>Node1</title>
<polygon fill="#bfbfbf" stroke="black" points="0.5,-33 0.5,-63 117.5,-63 117.5,-33 0.5,-33"/>
<text text-anchor="start" x="8.5" y="-51" font-family="Helvetica,sans-Serif" font-size="10.00">mutt_is_valid_multipart</text>
<text text-anchor="middle" x="59" y="-40" font-family="Helvetica,sans-Serif" font-size="10.00">_pgp_encrypted</text>
</g>
<!-- Node2 -->
<g id="node2" class="node"><title>Node2</title>
<g id="a_node2"><a xlink:href="handler_8h.html#adae8bf0eec9bee0bd62f639bbcf8599f" target="_top" xlink:title="Handler for the Body of an email. ">
<polygon fill="white" stroke="red" points="171.5,-76.5 171.5,-95.5 270.5,-95.5 270.5,-76.5 171.5,-76.5"/>
<text text-anchor="middle" x="221" y="-83.5" font-family="Helvetica,sans-Serif" font-size="10.00">mutt_body_handler</text>
</a>
</g>
</g>
<!-- Node1&#45;&gt;Node2 -->
<g id="edge1" class="edge"><title>Node1&#45;&gt;Node2</title>
<path fill="none" stroke="midnightblue" d="M127.547,-64.0425C145.356,-68.272 164.008,-72.702 179.858,-76.4662"/>
<polygon fill="midnightblue" stroke="midnightblue" points="128.302,-60.6244 117.764,-61.7189 126.684,-67.435 128.302,-60.6244"/>
</g>
<!-- Node3 -->
<g id="node3" class="node"><title>Node3</title>
<g id="a_node3"><a xlink:href="crypt__gpgme_8h.html#a006bb6b68acc899cd89ca8c6553ab711" target="_top" xlink:title="Implements CryptModuleSpecs::decrypt_mime() ">
<polygon fill="white" stroke="black" points="154,-38.5 154,-57.5 288,-57.5 288,-38.5 154,-38.5"/>
<text text-anchor="middle" x="221" y="-45.5" font-family="Helvetica,sans-Serif" font-size="10.00">pgp_gpgme_decrypt_mime</text>
</a>
</g>
</g>
<!-- Node1&#45;&gt;Node3 -->
<g id="edge2" class="edge"><title>Node1&#45;&gt;Node3</title>
<path fill="none" stroke="midnightblue" d="M127.797,-48C136.441,-48 145.28,-48 153.897,-48"/>
<polygon fill="midnightblue" stroke="midnightblue" points="127.764,-44.5001 117.764,-48 127.764,-51.5001 127.764,-44.5001"/>
</g>
<!-- Node4 -->
<g id="node4" class="node"><title>Node4</title>
<g id="a_node4"><a xlink:href="pgp_8h.html#acb2520f7b998f28919b3e113717ff18a" target="_top" xlink:title="Implements CryptModuleSpecs::decrypt_mime() ">
<polygon fill="white" stroke="black" points="157,-0.5 157,-19.5 285,-19.5 285,-0.5 157,-0.5"/>
<text text-anchor="middle" x="221" y="-7.5" font-family="Helvetica,sans-Serif" font-size="10.00">pgp_class_decrypt_mime</text>
</a>
</g>
</g>
<!-- Node1&#45;&gt;Node4 -->
<g id="edge3" class="edge"><title>Node1&#45;&gt;Node4</title>
<path fill="none" stroke="midnightblue" d="M127.547,-31.9575C145.356,-27.728 164.008,-23.298 179.858,-19.5338"/>
<polygon fill="midnightblue" stroke="midnightblue" points="126.684,-28.565 117.764,-34.2811 128.302,-35.3756 126.684,-28.565"/>
</g>
</g>
</svg>
