<?xml version="1.0" encoding="UTF-8" standalone="no"?>
<!DOCTYPE svg PUBLIC "-//W3C//DTD SVG 1.1//EN"
 "http://www.w3.org/Graphics/SVG/1.1/DTD/svg11.dtd">
<!-- Generated by graphviz version 2.36.0 (20140111.2315)
 -->
<!-- Title: set_signer Pages: 1 -->
<svg width="222pt" height="66pt"
 viewBox="0.00 0.00 222.00 66.00" xmlns="http://www.w3.org/2000/svg" xmlns:xlink="http://www.w3.org/1999/xlink">
<g id="graph0" class="graph" transform="scale(1 1) rotate(0) translate(4 62)">
<title>set_signer</title>
<polygon fill="white" stroke="none" points="-4,4 -4,-62 218,-62 218,4 -4,4"/>
<!-- Node1 -->
<g id="node1" class="node"><title>Node1</title>
<polygon fill="#bfbfbf" stroke="black" points="0,-19.5 0,-38.5 62,-38.5 62,-19.5 0,-19.5"/>
<text text-anchor="middle" x="31" y="-26.5" font-family="Helvetica,sans-Serif" font-size="10.00">set_signer</text>
</g>
<!-- Node2 -->
<g id="node2" class="node"><title>Node2</title>
<g id="a_node2"><a xlink:href="crypt__gpgme_8c.html#a12881989b10ae49d0f1a237d785e52d0" target="_top" xlink:title="Encrypt the GPGPME data object. ">
<polygon fill="white" stroke="red" points="98.5,-38.5 98.5,-57.5 213.5,-57.5 213.5,-38.5 98.5,-38.5"/>
<text text-anchor="middle" x="156" y="-45.5" font-family="Helvetica,sans-Serif" font-size="10.00">encrypt_gpgme_object</text>
</a>
</g>
</g>
<!-- Node1&#45;&gt;Node2 -->
<g id="edge1" class="edge"><title>Node1&#45;&gt;Node2</title>
<path fill="none" stroke="midnightblue" d="M71.9923,-35.1777C80.4019,-36.4767 89.4254,-37.8706 98.3139,-39.2436"/>
<polygon fill="midnightblue" stroke="midnightblue" points="72.5063,-31.7156 62.0892,-33.6479 71.4376,-38.6336 72.5063,-31.7156"/>
</g>
<!-- Node3 -->
<g id="node3" class="node"><title>Node3</title>
<g id="a_node3"><a xlink:href="crypt__gpgme_8c.html#a4d07485b28aaf3e4ee49f3faf1fe9c1c" target="_top" xlink:title="Sign a message. ">
<polygon fill="white" stroke="red" points="116,-0.5 116,-19.5 196,-19.5 196,-0.5 116,-0.5"/>
<text text-anchor="middle" x="156" y="-7.5" font-family="Helvetica,sans-Serif" font-size="10.00">sign_message</text>
</a>
</g>
</g>
<!-- Node1&#45;&gt;Node3 -->
<g id="edge2" class="edge"><title>Node1&#45;&gt;Node3</title>
<path fill="none" stroke="midnightblue" d="M71.9959,-22.8218C86.0886,-20.6448 101.905,-18.2017 115.921,-16.0366"/>
<polygon fill="midnightblue" stroke="midnightblue" points="71.4376,-19.3664 62.0892,-24.3521 72.5063,-26.2844 71.4376,-19.3664"/>
</g>
</g>
</svg>
