<?xml version="1.0" encoding="UTF-8" standalone="no"?>
<!DOCTYPE svg PUBLIC "-//W3C//DTD SVG 1.1//EN"
 "http://www.w3.org/Graphics/SVG/1.1/DTD/svg11.dtd">
<!-- Generated by graphviz version 2.36.0 (20140111.2315)
 -->
<!-- Title: parse_dn Pages: 1 -->
<svg width="312pt" height="47pt"
 viewBox="0.00 0.00 312.00 47.00" xmlns="http://www.w3.org/2000/svg" xmlns:xlink="http://www.w3.org/1999/xlink">
<g id="graph0" class="graph" transform="scale(1 1) rotate(0) translate(4 43)">
<title>parse_dn</title>
<polygon fill="white" stroke="none" points="-4,4 -4,-43 308,-43 308,4 -4,4"/>
<!-- Node1 -->
<g id="node1" class="node"><title>Node1</title>
<polygon fill="#bfbfbf" stroke="black" points="0,-19.5 0,-38.5 56,-38.5 56,-19.5 0,-19.5"/>
<text text-anchor="middle" x="28" y="-26.5" font-family="Helvetica,sans-Serif" font-size="10.00">parse_dn</text>
</g>
<!-- Node2 -->
<g id="node2" class="node"><title>Node2</title>
<g id="a_node2"><a xlink:href="memory_8c.html#a264da4dc58e6dc8983285bd1f538f24d" target="_top" xlink:title="Allocate memory on the heap. ">
<polygon fill="white" stroke="red" points="206.5,-19.5 206.5,-38.5 303.5,-38.5 303.5,-19.5 206.5,-19.5"/>
<text text-anchor="middle" x="255" y="-26.5" font-family="Helvetica,sans-Serif" font-size="10.00">mutt_mem_malloc</text>
</a>
</g>
</g>
<!-- Node1&#45;&gt;Node2 -->
<g id="edge1" class="edge"><title>Node1&#45;&gt;Node2</title>
<path fill="none" stroke="midnightblue" d="M56.1403,-29C90.6225,-29 151.06,-29 196.092,-29"/>
<polygon fill="midnightblue" stroke="midnightblue" points="196.316,-32.5001 206.316,-29 196.315,-25.5001 196.316,-32.5001"/>
</g>
<!-- Node3 -->
<g id="node3" class="node"><title>Node3</title>
<g id="a_node3"><a xlink:href="crypt__gpgme_8c.html#a71cf721b9f24c4e34316a2cabe411aea" target="_top" xlink:title="Parse an RDN. ">
<polygon fill="white" stroke="black" points="92,-0.5 92,-19.5 170,-19.5 170,-0.5 92,-0.5"/>
<text text-anchor="middle" x="131" y="-7.5" font-family="Helvetica,sans-Serif" font-size="10.00">parse_dn_part</text>
</a>
</g>
</g>
<!-- Node1&#45;&gt;Node3 -->
<g id="edge2" class="edge"><title>Node1&#45;&gt;Node3</title>
<path fill="none" stroke="midnightblue" d="M56.0661,-23.9083C64.0477,-22.4069 73.0326,-20.7166 81.9176,-19.0452"/>
<polygon fill="midnightblue" stroke="midnightblue" points="82.6672,-22.4657 91.8477,-17.1772 81.373,-15.5863 82.6672,-22.4657"/>
</g>
<!-- Node3&#45;&gt;Node2 -->
<g id="edge3" class="edge"><title>Node3&#45;&gt;Node2</title>
<path fill="none" stroke="midnightblue" d="M170.267,-15.9596C178.593,-17.2564 187.58,-18.6558 196.467,-20.04"/>
<polygon fill="midnightblue" stroke="midnightblue" points="196,-23.5093 206.419,-21.5899 197.077,-16.5927 196,-23.5093"/>
</g>
</g>
</svg>
