<?xml version="1.0" encoding="UTF-8" standalone="no"?>
<!DOCTYPE svg PUBLIC "-//W3C//DTD SVG 1.1//EN"
 "http://www.w3.org/Graphics/SVG/1.1/DTD/svg11.dtd">
<!-- Generated by graphviz version 2.36.0 (20140111.2315)
 -->
<!-- Title: verify_sender Pages: 1 -->
<svg width="254pt" height="66pt"
 viewBox="0.00 0.00 254.00 66.00" xmlns="http://www.w3.org/2000/svg" xmlns:xlink="http://www.w3.org/1999/xlink">
<g id="graph0" class="graph" transform="scale(1 1) rotate(0) translate(4 62)">
<title>verify_sender</title>
<polygon fill="white" stroke="none" points="-4,4 -4,-62 250,-62 250,4 -4,4"/>
<!-- Node1 -->
<g id="node1" class="node"><title>Node1</title>
<polygon fill="#bfbfbf" stroke="black" points="0.5,-19.5 0.5,-38.5 75.5,-38.5 75.5,-19.5 0.5,-19.5"/>
<text text-anchor="middle" x="38" y="-26.5" font-family="Helvetica,sans-Serif" font-size="10.00">verify_sender</text>
</g>
<!-- Node2 -->
<g id="node2" class="node"><title>Node2</title>
<g id="a_node2"><a xlink:href="alias_8c.html#aea3d897a501d63b3cad3f8a6bbc119da" target="_top" xlink:title="Expand aliases in a List of Addresses. ">
<polygon fill="white" stroke="red" points="124.5,-38.5 124.5,-57.5 233.5,-57.5 233.5,-38.5 124.5,-38.5"/>
<text text-anchor="middle" x="179" y="-45.5" font-family="Helvetica,sans-Serif" font-size="10.00">mutt_expand_aliases</text>
</a>
</g>
</g>
<!-- Node1&#45;&gt;Node2 -->
<g id="edge1" class="edge"><title>Node1&#45;&gt;Node2</title>
<path fill="none" stroke="midnightblue" d="M75.5206,-33.992C87.4428,-35.6217 101.05,-37.4817 114.369,-39.3022"/>
<polygon fill="midnightblue" stroke="midnightblue" points="114.082,-42.7955 124.464,-40.6821 115.03,-35.86 114.082,-42.7955"/>
</g>
<!-- Node3 -->
<g id="node3" class="node"><title>Node3</title>
<g id="a_node3"><a xlink:href="curs__lib_8c.html#ab6a61cdfcf8c2c73ee59381c79c79774" target="_top" xlink:title="Prompt the user to &#39;press any key&#39; and wait. ">
<polygon fill="white" stroke="red" points="112,-0.5 112,-19.5 246,-19.5 246,-0.5 112,-0.5"/>
<text text-anchor="middle" x="179" y="-7.5" font-family="Helvetica,sans-Serif" font-size="10.00">mutt_any_key_to_continue</text>
</a>
</g>
</g>
<!-- Node1&#45;&gt;Node3 -->
<g id="edge2" class="edge"><title>Node1&#45;&gt;Node3</title>
<path fill="none" stroke="midnightblue" d="M75.5206,-24.008C83.7314,-22.8856 92.7416,-21.654 101.906,-20.4013"/>
<polygon fill="midnightblue" stroke="midnightblue" points="102.447,-23.86 111.881,-19.0379 101.499,-16.9245 102.447,-23.86"/>
</g>
</g>
</svg>
