<?xml version="1.0" encoding="UTF-8" standalone="no"?>
<!DOCTYPE svg PUBLIC "-//W3C//DTD SVG 1.1//EN"
 "http://www.w3.org/Graphics/SVG/1.1/DTD/svg11.dtd">
<!-- Generated by graphviz version 2.36.0 (20140111.2315)
 -->
<!-- Title: crypt_free_key Pages: 1 -->
<svg width="340pt" height="192pt"
 viewBox="0.00 0.00 340.00 192.00" xmlns="http://www.w3.org/2000/svg" xmlns:xlink="http://www.w3.org/1999/xlink">
<g id="graph0" class="graph" transform="scale(1 1) rotate(0) translate(4 188)">
<title>crypt_free_key</title>
<polygon fill="white" stroke="none" points="-4,4 -4,-188 336,-188 336,4 -4,4"/>
<!-- Node1 -->
<g id="node1" class="node"><title>Node1</title>
<polygon fill="#bfbfbf" stroke="black" points="0.5,-88.5 0.5,-107.5 81.5,-107.5 81.5,-88.5 0.5,-88.5"/>
<text text-anchor="middle" x="41" y="-95.5" font-family="Helvetica,sans-Serif" font-size="10.00">crypt_free_key</text>
</g>
<!-- Node2 -->
<g id="node2" class="node"><title>Node2</title>
<g id="a_node2"><a xlink:href="crypt__gpgme_8c.html#ac348259b46efd26c645dcc642617a985" target="_top" xlink:title="Find a key by email address. ">
<polygon fill="white" stroke="black" points="126,-164.5 126,-183.5 228,-183.5 228,-164.5 126,-164.5"/>
<text text-anchor="middle" x="177" y="-171.5" font-family="Helvetica,sans-Serif" font-size="10.00">crypt_getkeybyaddr</text>
</a>
</g>
</g>
<!-- Node1&#45;&gt;Node2 -->
<g id="edge1" class="edge"><title>Node1&#45;&gt;Node2</title>
<path fill="none" stroke="midnightblue" d="M62.4085,-113.688C77.3023,-124.7 98.2555,-139.311 118,-150 128.062,-155.448 139.628,-160.464 149.77,-164.486"/>
<polygon fill="midnightblue" stroke="midnightblue" points="64.4942,-110.877 54.3944,-107.676 60.2938,-116.477 64.4942,-110.877"/>
</g>
<!-- Node3 -->
<g id="node3" class="node"><title>Node3</title>
<g id="a_node3"><a xlink:href="crypt__gpgme_8c.html#ad744c2659199be1f6e2527500903f1b5" target="_top" xlink:title="Find keys of the recipients of the message. ">
<polygon fill="white" stroke="red" points="272.5,-126.5 272.5,-145.5 331.5,-145.5 331.5,-126.5 272.5,-126.5"/>
<text text-anchor="middle" x="302" y="-133.5" font-family="Helvetica,sans-Serif" font-size="10.00">find_keys</text>
</a>
</g>
</g>
<!-- Node1&#45;&gt;Node3 -->
<g id="edge5" class="edge"><title>Node1&#45;&gt;Node3</title>
<path fill="none" stroke="midnightblue" d="M85.654,-110.036C96.1835,-112.627 107.443,-115.142 118,-117 172.108,-126.523 236.117,-131.826 272.298,-134.281"/>
<polygon fill="midnightblue" stroke="midnightblue" points="86.3825,-106.61 75.8292,-107.548 84.6636,-113.396 86.3825,-106.61"/>
</g>
<!-- Node4 -->
<g id="node4" class="node"><title>Node4</title>
<g id="a_node4"><a xlink:href="crypt__gpgme_8c.html#ab76dd341f3dafb968e9467a0cfb8b4ca" target="_top" xlink:title="Find a key by string. ">
<polygon fill="white" stroke="red" points="129.5,-88.5 129.5,-107.5 224.5,-107.5 224.5,-88.5 129.5,-88.5"/>
<text text-anchor="middle" x="177" y="-95.5" font-family="Helvetica,sans-Serif" font-size="10.00">crypt_getkeybystr</text>
</a>
</g>
</g>
<!-- Node1&#45;&gt;Node4 -->
<g id="edge3" class="edge"><title>Node1&#45;&gt;Node4</title>
<path fill="none" stroke="midnightblue" d="M91.9361,-98C104.231,-98 117.347,-98 129.473,-98"/>
<polygon fill="midnightblue" stroke="midnightblue" points="91.8416,-94.5001 81.8416,-98 91.8416,-101.5 91.8416,-94.5001"/>
</g>
<!-- Node5 -->
<g id="node5" class="node"><title>Node5</title>
<g id="a_node5"><a xlink:href="crypt__gpgme_8h.html#ab3031c1c6cd431efc8fc3b90607c042d" target="_top" xlink:title="Implements CryptModuleSpecs::pgp_make_key_attachment() ">
<polygon fill="white" stroke="black" points="118.5,-39 118.5,-69 235.5,-69 235.5,-39 118.5,-39"/>
<text text-anchor="start" x="126.5" y="-57" font-family="Helvetica,sans-Serif" font-size="10.00">pgp_gpgme_make_key</text>
<text text-anchor="middle" x="177" y="-46" font-family="Helvetica,sans-Serif" font-size="10.00">_attachment</text>
</a>
</g>
</g>
<!-- Node1&#45;&gt;Node5 -->
<g id="edge6" class="edge"><title>Node1&#45;&gt;Node5</title>
<path fill="none" stroke="midnightblue" d="M80.81,-85.2564C96.2236,-80.1952 114.072,-74.3347 130.119,-69.0654"/>
<polygon fill="midnightblue" stroke="midnightblue" points="79.485,-82.0076 71.076,-88.4527 81.6688,-88.6582 79.485,-82.0076"/>
</g>
<!-- Node6 -->
<g id="node6" class="node"><title>Node6</title>
<g id="a_node6"><a xlink:href="crypt__gpgme_8c.html#a8b575f75d1ff262dea594e65a309a33c" target="_top" xlink:title="Show the user the encryption/signing menu. ">
<polygon fill="white" stroke="red" points="126.5,-0.5 126.5,-19.5 227.5,-19.5 227.5,-0.5 126.5,-0.5"/>
<text text-anchor="middle" x="177" y="-7.5" font-family="Helvetica,sans-Serif" font-size="10.00">gpgme_send_menu</text>
</a>
</g>
</g>
<!-- Node1&#45;&gt;Node6 -->
<g id="edge7" class="edge"><title>Node1&#45;&gt;Node6</title>
<path fill="none" stroke="midnightblue" d="M57.5064,-80.6629C71.8908,-65.4861 94.5554,-43.7675 118,-30 125.072,-25.8469 133.137,-22.3828 140.958,-19.5689"/>
<polygon fill="midnightblue" stroke="midnightblue" points="54.6358,-78.6118 50.4145,-88.3294 59.7744,-83.3652 54.6358,-78.6118"/>
</g>
<!-- Node2&#45;&gt;Node3 -->
<g id="edge2" class="edge"><title>Node2&#45;&gt;Node3</title>
<path fill="none" stroke="midnightblue" d="M218.951,-161.348C236.359,-155.97 256.248,-149.826 272.084,-144.933"/>
<polygon fill="midnightblue" stroke="midnightblue" points="217.559,-158.115 209.038,-164.411 219.626,-164.803 217.559,-158.115"/>
</g>
<!-- Node4&#45;&gt;Node3 -->
<g id="edge4" class="edge"><title>Node4&#45;&gt;Node3</title>
<path fill="none" stroke="midnightblue" d="M218.951,-110.652C236.359,-116.03 256.248,-122.174 272.084,-127.067"/>
<polygon fill="midnightblue" stroke="midnightblue" points="219.626,-107.197 209.038,-107.589 217.559,-113.885 219.626,-107.197"/>
</g>
</g>
</svg>
