<?xml version="1.0" encoding="UTF-8" standalone="no"?>
<!DOCTYPE svg PUBLIC "-//W3C//DTD SVG 1.1//EN"
 "http://www.w3.org/Graphics/SVG/1.1/DTD/svg11.dtd">
<!-- Generated by graphviz version 2.36.0 (20140111.2315)
 -->
<!-- Title: ncrypt/crypt_mod_pgp_classic.c Pages: 1 -->
<svg width="427pt" height="152pt"
 viewBox="0.00 0.00 427.00 152.00" xmlns="http://www.w3.org/2000/svg" xmlns:xlink="http://www.w3.org/1999/xlink">
<g id="graph0" class="graph" transform="scale(1 1) rotate(0) translate(4 148)">
<title>ncrypt/crypt_mod_pgp_classic.c</title>
<polygon fill="white" stroke="none" points="-4,4 -4,-148 423,-148 423,4 -4,4"/>
<!-- Node1 -->
<g id="node1" class="node"><title>Node1</title>
<polygon fill="#bfbfbf" stroke="black" points="166.5,-113 166.5,-143 279.5,-143 279.5,-113 166.5,-113"/>
<text text-anchor="start" x="174.5" y="-131" font-family="Helvetica,sans-Serif" font-size="10.00">ncrypt/crypt_mod_pgp</text>
<text text-anchor="middle" x="223" y="-120" font-family="Helvetica,sans-Serif" font-size="10.00">_classic.c</text>
</g>
<!-- Node2 -->
<g id="node2" class="node"><title>Node2</title>
<polygon fill="white" stroke="#bfbfbf" points="-0.5,-56.5 -0.5,-75.5 50.5,-75.5 50.5,-56.5 -0.5,-56.5"/>
<text text-anchor="middle" x="25" y="-63.5" font-family="Helvetica,sans-Serif" font-size="10.00">config.h</text>
</g>
<!-- Node1&#45;&gt;Node2 -->
<g id="edge1" class="edge"><title>Node1&#45;&gt;Node2</title>
<path fill="none" stroke="midnightblue" d="M176.578,-112.933C141.098,-102.181 92.925,-87.5833 60.4907,-77.7548"/>
<polygon fill="midnightblue" stroke="midnightblue" points="61.1345,-74.2927 50.5492,-74.7422 59.1044,-80.9919 61.1345,-74.2927"/>
</g>
<!-- Node3 -->
<g id="node3" class="node"><title>Node3</title>
<polygon fill="white" stroke="#bfbfbf" points="200,-0.5 200,-19.5 246,-19.5 246,-0.5 200,-0.5"/>
<text text-anchor="middle" x="223" y="-7.5" font-family="Helvetica,sans-Serif" font-size="10.00">stdio.h</text>
</g>
<!-- Node1&#45;&gt;Node3 -->
<g id="edge2" class="edge"><title>Node1&#45;&gt;Node3</title>
<path fill="none" stroke="midnightblue" d="M166.228,-116.526C123.713,-105.995 76.3299,-86.8328 98,-56 118.553,-26.7569 160.028,-16.4282 189.564,-12.8304"/>
<polygon fill="midnightblue" stroke="midnightblue" points="190.249,-16.2789 199.844,-11.7868 189.542,-9.31468 190.249,-16.2789"/>
</g>
<!-- Node4 -->
<g id="node4" class="node"><title>Node4</title>
<g id="a_node4"><a xlink:href="crypt__mod_8h.html" target="_top" xlink:title="Register crypto modules. ">
<polygon fill="white" stroke="red" points="107.5,-56.5 107.5,-75.5 178.5,-75.5 178.5,-56.5 107.5,-56.5"/>
<text text-anchor="middle" x="143" y="-63.5" font-family="Helvetica,sans-Serif" font-size="10.00">crypt_mod.h</text>
</a>
</g>
</g>
<!-- Node1&#45;&gt;Node4 -->
<g id="edge3" class="edge"><title>Node1&#45;&gt;Node4</title>
<path fill="none" stroke="midnightblue" d="M204.041,-112.781C191.577,-103.433 175.303,-91.2273 162.693,-81.77"/>
<polygon fill="midnightblue" stroke="midnightblue" points="164.741,-78.9306 154.641,-75.7305 160.541,-84.5306 164.741,-78.9306"/>
</g>
<!-- Node5 -->
<g id="node5" class="node"><title>Node5</title>
<g id="a_node5"><a xlink:href="ncrypt_8h.html" target="_top" xlink:title="API for encryption/signing of emails. ">
<polygon fill="white" stroke="red" points="197,-56.5 197,-75.5 249,-75.5 249,-56.5 197,-56.5"/>
<text text-anchor="middle" x="223" y="-63.5" font-family="Helvetica,sans-Serif" font-size="10.00">ncrypt.h</text>
</a>
</g>
</g>
<!-- Node1&#45;&gt;Node5 -->
<g id="edge5" class="edge"><title>Node1&#45;&gt;Node5</title>
<path fill="none" stroke="midnightblue" d="M223,-112.781C223,-104.781 223,-94.6887 223,-86.0168"/>
<polygon fill="midnightblue" stroke="midnightblue" points="226.5,-85.7305 223,-75.7305 219.5,-85.7306 226.5,-85.7305"/>
</g>
<!-- Node6 -->
<g id="node6" class="node"><title>Node6</title>
<g id="a_node6"><a xlink:href="pgp_8h.html" target="_top" xlink:title="PGP sign, encrypt, check routines. ">
<polygon fill="white" stroke="red" points="267.5,-56.5 267.5,-75.5 308.5,-75.5 308.5,-56.5 267.5,-56.5"/>
<text text-anchor="middle" x="288" y="-63.5" font-family="Helvetica,sans-Serif" font-size="10.00">pgp.h</text>
</a>
</g>
</g>
<!-- Node1&#45;&gt;Node6 -->
<g id="edge7" class="edge"><title>Node1&#45;&gt;Node6</title>
<path fill="none" stroke="midnightblue" d="M238.404,-112.781C248.239,-103.703 260.993,-91.9291 271.105,-82.5951"/>
<polygon fill="midnightblue" stroke="midnightblue" points="273.568,-85.0852 278.542,-75.7305 268.82,-79.9415 273.568,-85.0852"/>
</g>
<!-- Node7 -->
<g id="node7" class="node"><title>Node7</title>
<g id="a_node7"><a xlink:href="pgpinvoke_8h.html" target="_top" xlink:title="Wrapper around calls to external PGP program. ">
<polygon fill="white" stroke="red" points="326.5,-56.5 326.5,-75.5 395.5,-75.5 395.5,-56.5 326.5,-56.5"/>
<text text-anchor="middle" x="361" y="-63.5" font-family="Helvetica,sans-Serif" font-size="10.00">pgpinvoke.h</text>
</a>
</g>
</g>
<!-- Node1&#45;&gt;Node7 -->
<g id="edge9" class="edge"><title>Node1&#45;&gt;Node7</title>
<path fill="none" stroke="midnightblue" d="M255.355,-112.933C278.533,-102.855 309.483,-89.3986 331.888,-79.6575"/>
<polygon fill="midnightblue" stroke="midnightblue" points="333.445,-82.7971 341.22,-75.6 330.654,-76.3776 333.445,-82.7971"/>
</g>
<!-- Node8 -->
<g id="node8" class="node"><title>Node8</title>
<g id="a_node8"><a xlink:href="pgpkey_8h.html" target="_top" xlink:title="PGP key management routines. ">
<polygon fill="white" stroke="red" points="364,-0.5 364,-19.5 420,-19.5 420,-0.5 364,-0.5"/>
<text text-anchor="middle" x="392" y="-7.5" font-family="Helvetica,sans-Serif" font-size="10.00">pgpkey.h</text>
</a>
</g>
</g>
<!-- Node1&#45;&gt;Node8 -->
<g id="edge12" class="edge"><title>Node1&#45;&gt;Node8</title>
<path fill="none" stroke="midnightblue" d="M279.539,-118.627C326.813,-110.333 388.874,-95.9764 404,-76 414.257,-62.4541 408.635,-42.8341 402.071,-28.6973"/>
<polygon fill="midnightblue" stroke="midnightblue" points="405.038,-26.8155 397.338,-19.5379 398.819,-30.0288 405.038,-26.8155"/>
</g>
<!-- Node4&#45;&gt;Node3 -->
<g id="edge4" class="edge"><title>Node4&#45;&gt;Node3</title>
<path fill="none" stroke="midnightblue" d="M155.853,-56.324C168.216,-47.979 187.13,-35.2122 201.737,-25.3524"/>
<polygon fill="midnightblue" stroke="midnightblue" points="203.848,-28.1503 210.179,-19.6545 199.932,-22.3483 203.848,-28.1503"/>
</g>
<!-- Node5&#45;&gt;Node3 -->
<g id="edge6" class="edge"><title>Node5&#45;&gt;Node3</title>
<path fill="none" stroke="midnightblue" d="M223,-56.083C223,-49.0059 223,-38.8611 223,-29.9865"/>
<polygon fill="midnightblue" stroke="midnightblue" points="226.5,-29.751 223,-19.7511 219.5,-29.7511 226.5,-29.751"/>
</g>
<!-- Node6&#45;&gt;Node3 -->
<g id="edge8" class="edge"><title>Node6&#45;&gt;Node3</title>
<path fill="none" stroke="midnightblue" d="M277.557,-56.324C267.854,-48.2631 253.185,-36.0765 241.5,-26.3695"/>
<polygon fill="midnightblue" stroke="midnightblue" points="243.562,-23.532 233.633,-19.8339 239.089,-28.9163 243.562,-23.532"/>
</g>
<!-- Node7&#45;&gt;Node3 -->
<g id="edge10" class="edge"><title>Node7&#45;&gt;Node3</title>
<path fill="none" stroke="midnightblue" d="M339.133,-56.4435C316.221,-47.4776 280.025,-33.314 254.134,-23.1827"/>
<polygon fill="midnightblue" stroke="midnightblue" points="255.352,-19.9011 244.764,-19.5164 252.801,-26.4198 255.352,-19.9011"/>
</g>
<!-- Node7&#45;&gt;Node8 -->
<g id="edge11" class="edge"><title>Node7&#45;&gt;Node8</title>
<path fill="none" stroke="midnightblue" d="M366.119,-56.083C370.408,-48.6127 376.658,-37.7244 381.942,-28.5199"/>
<polygon fill="midnightblue" stroke="midnightblue" points="385.033,-30.1662 386.976,-19.7511 378.962,-26.6811 385.033,-30.1662"/>
</g>
</g>
</svg>
