<?xml version="1.0" encoding="UTF-8" standalone="no"?>
<!DOCTYPE svg PUBLIC "-//W3C//DTD SVG 1.1//EN"
 "http://www.w3.org/Graphics/SVG/1.1/DTD/svg11.dtd">
<!-- Generated by graphviz version 2.36.0 (20140111.2315)
 -->
<!-- Title: crypt_format_str Pages: 1 -->
<svg width="378pt" height="198pt"
 viewBox="0.00 0.00 378.00 198.00" xmlns="http://www.w3.org/2000/svg" xmlns:xlink="http://www.w3.org/1999/xlink">
<g id="graph0" class="graph" transform="scale(1 1) rotate(0) translate(4 194)">
<title>crypt_format_str</title>
<polygon fill="white" stroke="none" points="-4,4 -4,-194 374,-194 374,4 -4,4"/>
<!-- Node1 -->
<g id="node1" class="node"><title>Node1</title>
<polygon fill="#bfbfbf" stroke="black" points="0,-94.5 0,-113.5 88,-113.5 88,-94.5 0,-94.5"/>
<text text-anchor="middle" x="44" y="-101.5" font-family="Helvetica,sans-Serif" font-size="10.00">crypt_format_str</text>
</g>
<!-- Node2 -->
<g id="node2" class="node"><title>Node2</title>
<g id="a_node2"><a xlink:href="crypt__gpgme_8c.html#a92d73426b3d725ec2a7b4c703263740a" target="_top" xlink:title="Parse key flags into a string. ">
<polygon fill="white" stroke="black" points="124,-170.5 124,-189.5 222,-189.5 222,-170.5 124,-170.5"/>
<text text-anchor="middle" x="173" y="-177.5" font-family="Helvetica,sans-Serif" font-size="10.00">crypt_key_abilities</text>
</a>
</g>
</g>
<!-- Node1&#45;&gt;Node2 -->
<g id="edge1" class="edge"><title>Node1&#45;&gt;Node2</title>
<path fill="none" stroke="midnightblue" d="M56.435,-113.658C71.2811,-125.857 98.3365,-146.948 124,-161 127.525,-162.93 131.288,-164.767 135.098,-166.485"/>
<polygon fill="midnightblue" stroke="midnightblue" points="133.98,-169.812 144.553,-170.491 136.711,-163.367 133.98,-169.812"/>
</g>
<!-- Node3 -->
<g id="node3" class="node"><title>Node3</title>
<g id="a_node3"><a xlink:href="crypt__gpgme_8c.html#aa10b4366118877ad3272c7d86c89095e" target="_top" xlink:title="Parse the key flags into a single character. ">
<polygon fill="white" stroke="black" points="140.5,-132.5 140.5,-151.5 205.5,-151.5 205.5,-132.5 140.5,-132.5"/>
<text text-anchor="middle" x="173" y="-139.5" font-family="Helvetica,sans-Serif" font-size="10.00">crypt_flags</text>
</a>
</g>
</g>
<!-- Node1&#45;&gt;Node3 -->
<g id="edge2" class="edge"><title>Node1&#45;&gt;Node3</title>
<path fill="none" stroke="midnightblue" d="M77.0475,-113.589C93.264,-118.441 113.142,-124.389 130.512,-129.586"/>
<polygon fill="midnightblue" stroke="midnightblue" points="129.819,-133.032 140.403,-132.546 131.826,-126.326 129.819,-133.032"/>
</g>
<!-- Node4 -->
<g id="node4" class="node"><title>Node4</title>
<g id="a_node4"><a xlink:href="crypt__gpgme_8c.html#a88b6f46bb4c16a7de6f9318e713c52db" target="_top" xlink:title="Find the ID for the key. ">
<polygon fill="white" stroke="black" points="139.5,-94.5 139.5,-113.5 206.5,-113.5 206.5,-94.5 139.5,-94.5"/>
<text text-anchor="middle" x="173" y="-101.5" font-family="Helvetica,sans-Serif" font-size="10.00">crypt_keyid</text>
</a>
</g>
</g>
<!-- Node1&#45;&gt;Node4 -->
<g id="edge3" class="edge"><title>Node1&#45;&gt;Node4</title>
<path fill="none" stroke="midnightblue" d="M88.351,-104C101.505,-104 115.947,-104 129.073,-104"/>
<polygon fill="midnightblue" stroke="midnightblue" points="129.269,-107.5 139.269,-104 129.269,-100.5 129.269,-107.5"/>
</g>
<!-- Node5 -->
<g id="node5" class="node"><title>Node5</title>
<g id="a_node5"><a xlink:href="muttlib_8c.html#a5efffe8bf1716c24b902f42e1d2166a0" target="_top" xlink:title="Expand expandos (x) in a string. ">
<polygon fill="white" stroke="red" points="258.5,-28.5 258.5,-47.5 369.5,-47.5 369.5,-28.5 258.5,-28.5"/>
<text text-anchor="middle" x="314" y="-35.5" font-family="Helvetica,sans-Serif" font-size="10.00">mutt_expando_format</text>
</a>
</g>
</g>
<!-- Node1&#45;&gt;Node5 -->
<g id="edge4" class="edge"><title>Node1&#45;&gt;Node5</title>
<path fill="none" stroke="midnightblue" d="M83.6833,-94.4735C131.383,-82.7266 212.492,-62.752 264.363,-49.9779"/>
<polygon fill="midnightblue" stroke="midnightblue" points="265.456,-53.3134 274.328,-47.5236 263.782,-46.5164 265.456,-53.3134"/>
</g>
<!-- Node6 -->
<g id="node6" class="node"><title>Node6</title>
<g id="a_node6"><a xlink:href="recvattach_8c.html#a98b2ae112e8353253ba30462bfef777b" target="_top" xlink:title="Format a string for the attachment menu &#45; Implements format_t. ">
<polygon fill="white" stroke="red" points="126.5,-0.5 126.5,-19.5 219.5,-19.5 219.5,-0.5 126.5,-0.5"/>
<text text-anchor="middle" x="173" y="-7.5" font-family="Helvetica,sans-Serif" font-size="10.00">attach_format_str</text>
</a>
</g>
</g>
<!-- Node1&#45;&gt;Node6 -->
<g id="edge6" class="edge"><title>Node1&#45;&gt;Node6</title>
<path fill="none" stroke="midnightblue" d="M58.1129,-94.2944C80.0913,-78.0269 124.546,-45.1235 150.945,-25.5837"/>
<polygon fill="midnightblue" stroke="midnightblue" points="153.192,-28.2753 159.148,-19.5128 149.028,-22.6489 153.192,-28.2753"/>
</g>
<!-- Node5&#45;&gt;Node5 -->
<g id="edge5" class="edge"><title>Node5&#45;&gt;Node5</title>
<path fill="none" stroke="midnightblue" d="M292.422,-47.7571C281.924,-56.5653 289.117,-66 314,-66 329.941,-66 338.621,-62.128 340.042,-57.0292"/>
<polygon fill="midnightblue" stroke="midnightblue" points="343.069,-55.2493 335.578,-47.7571 336.762,-58.2855 343.069,-55.2493"/>
</g>
<!-- Node6&#45;&gt;Node5 -->
<g id="edge7" class="edge"><title>Node6&#45;&gt;Node5</title>
<path fill="none" stroke="midnightblue" d="M219.514,-19.1682C231.019,-21.4859 243.524,-24.0048 255.534,-26.4242"/>
<polygon fill="midnightblue" stroke="midnightblue" points="254.98,-29.8827 265.474,-28.4264 256.362,-23.0205 254.98,-29.8827"/>
</g>
<!-- Node6&#45;&gt;Node6 -->
<g id="edge8" class="edge"><title>Node6&#45;&gt;Node6</title>
<path fill="none" stroke="midnightblue" d="M153.271,-19.7571C143.674,-28.5653 150.25,-38 173,-38 187.574,-38 195.511,-34.128 196.809,-29.0292"/>
<polygon fill="midnightblue" stroke="midnightblue" points="199.96,-27.4998 192.729,-19.7571 193.553,-30.3197 199.96,-27.4998"/>
</g>
</g>
</svg>
