<?xml version="1.0" encoding="UTF-8" standalone="no"?>
<!DOCTYPE svg PUBLIC "-//W3C//DTD SVG 1.1//EN"
 "http://www.w3.org/Graphics/SVG/1.1/DTD/svg11.dtd">
<!-- Generated by graphviz version 2.36.0 (20140111.2315)
 -->
<!-- Title: verify_sender Pages: 1 -->
<svg width="230pt" height="38pt"
 viewBox="0.00 0.00 230.00 38.00" xmlns="http://www.w3.org/2000/svg" xmlns:xlink="http://www.w3.org/1999/xlink">
<g id="graph0" class="graph" transform="scale(1 1) rotate(0) translate(4 34)">
<title>verify_sender</title>
<polygon fill="white" stroke="none" points="-4,4 -4,-34 226,-34 226,4 -4,4"/>
<!-- Node1 -->
<g id="node1" class="node"><title>Node1</title>
<polygon fill="#bfbfbf" stroke="black" points="0.5,-5.5 0.5,-24.5 75.5,-24.5 75.5,-5.5 0.5,-5.5"/>
<text text-anchor="middle" x="38" y="-12.5" font-family="Helvetica,sans-Serif" font-size="10.00">verify_sender</text>
</g>
<!-- Node2 -->
<g id="node2" class="node"><title>Node2</title>
<g id="a_node2"><a xlink:href="crypt__gpgme_8h.html#a5941e64faa9af4936948274f769973c8" target="_top" xlink:title="Implements CryptModuleSpecs::smime_verify_sender() ">
<polygon fill="white" stroke="black" points="112,-0 112,-30 222,-30 222,-0 112,-0"/>
<text text-anchor="start" x="120" y="-18" font-family="Helvetica,sans-Serif" font-size="10.00">smime_gpgme_verify</text>
<text text-anchor="middle" x="167" y="-7" font-family="Helvetica,sans-Serif" font-size="10.00">_sender</text>
</a>
</g>
</g>
<!-- Node1&#45;&gt;Node2 -->
<g id="edge1" class="edge"><title>Node1&#45;&gt;Node2</title>
<path fill="none" stroke="midnightblue" d="M85.8181,-15C94.2959,-15 103.201,-15 111.867,-15"/>
<polygon fill="midnightblue" stroke="midnightblue" points="85.7337,-11.5001 75.7337,-15 85.7336,-18.5001 85.7337,-11.5001"/>
</g>
</g>
</svg>
