<?xml version="1.0" encoding="UTF-8" standalone="no"?>
<!DOCTYPE svg PUBLIC "-//W3C//DTD SVG 1.1//EN"
 "http://www.w3.org/Graphics/SVG/1.1/DTD/svg11.dtd">
<!-- Generated by graphviz version 2.36.0 (20140111.2315)
 -->
<!-- Title: decrypt_part Pages: 1 -->
<svg width="392pt" height="332pt"
 viewBox="0.00 0.00 392.00 332.00" xmlns="http://www.w3.org/2000/svg" xmlns:xlink="http://www.w3.org/1999/xlink">
<g id="graph0" class="graph" transform="scale(1 1) rotate(0) translate(4 328)">
<title>decrypt_part</title>
<polygon fill="white" stroke="none" points="-4,4 -4,-328 388,-328 388,4 -4,4"/>
<!-- Node1 -->
<g id="node1" class="node"><title>Node1</title>
<polygon fill="#bfbfbf" stroke="black" points="0.5,-152.5 0.5,-171.5 71.5,-171.5 71.5,-152.5 0.5,-152.5"/>
<text text-anchor="middle" x="36" y="-159.5" font-family="Helvetica,sans-Serif" font-size="10.00">decrypt_part</text>
</g>
<!-- Node2 -->
<g id="node2" class="node"><title>Node2</title>
<g id="a_node2"><a xlink:href="crypt__gpgme_8c.html#a31d59710ce616d9e2acea30f70294362" target="_top" xlink:title="Create a new GPGME context. ">
<polygon fill="white" stroke="red" points="108,-304.5 108,-323.5 224,-323.5 224,-304.5 108,-304.5"/>
<text text-anchor="middle" x="166" y="-311.5" font-family="Helvetica,sans-Serif" font-size="10.00">create_gpgme_context</text>
</a>
</g>
</g>
<!-- Node1&#45;&gt;Node2 -->
<g id="edge1" class="edge"><title>Node1&#45;&gt;Node2</title>
<path fill="none" stroke="midnightblue" d="M39.449,-171.611C46.1347,-195.923 66.9985,-260.388 108,-295 110.023,-296.707 112.204,-298.263 114.494,-299.68"/>
<polygon fill="midnightblue" stroke="midnightblue" points="113.261,-302.984 123.748,-304.488 116.488,-296.772 113.261,-302.984"/>
</g>
<!-- Node3 -->
<g id="node3" class="node"><title>Node3</title>
<g id="a_node3"><a xlink:href="crypt__gpgme_8c.html#a9e4c3751a7e9290b83db346a58f9fc95" target="_top" xlink:title="Create GPGME data object from file. ">
<polygon fill="white" stroke="black" points="117,-266.5 117,-285.5 215,-285.5 215,-266.5 117,-266.5"/>
<text text-anchor="middle" x="166" y="-273.5" font-family="Helvetica,sans-Serif" font-size="10.00">file_to_data_object</text>
</a>
</g>
</g>
<!-- Node1&#45;&gt;Node3 -->
<g id="edge2" class="edge"><title>Node1&#45;&gt;Node3</title>
<path fill="none" stroke="midnightblue" d="M41.6278,-171.608C51.2914,-190.678 75.4475,-233.496 108,-257 110.664,-258.923 113.535,-260.661 116.523,-262.23"/>
<polygon fill="midnightblue" stroke="midnightblue" points="115.192,-265.47 125.742,-266.445 118.103,-259.104 115.192,-265.47"/>
</g>
<!-- Node4 -->
<g id="node4" class="node"><title>Node4</title>
<g id="a_node4"><a xlink:href="crypt__gpgme_8c.html#a433e35eb7b66902025d1a6eced7c17c8" target="_top" xlink:title="Create a new GPGME data object. ">
<polygon fill="white" stroke="red" points="115,-228.5 115,-247.5 217,-247.5 217,-228.5 115,-228.5"/>
<text text-anchor="middle" x="166" y="-235.5" font-family="Helvetica,sans-Serif" font-size="10.00">create_gpgme_data</text>
</a>
</g>
</g>
<!-- Node1&#45;&gt;Node4 -->
<g id="edge3" class="edge"><title>Node1&#45;&gt;Node4</title>
<path fill="none" stroke="midnightblue" d="M46.754,-171.746C59.7291,-184.234 83.8507,-205.835 108,-219 111.918,-221.136 116.119,-223.089 120.398,-224.86"/>
<polygon fill="midnightblue" stroke="midnightblue" points="119.22,-228.157 129.811,-228.447 121.713,-221.615 119.22,-228.157"/>
</g>
<!-- Node5 -->
<g id="node5" class="node"><title>Node5</title>
<g id="a_node5"><a xlink:href="crypt__gpgme_8c.html#acde3260a9e30d9ffd4fa5a62f19620a9" target="_top" xlink:title="accommodate for a redraw if needed ">
<polygon fill="white" stroke="red" points="119.5,-190.5 119.5,-209.5 212.5,-209.5 212.5,-190.5 119.5,-190.5"/>
<text text-anchor="middle" x="166" y="-197.5" font-family="Helvetica,sans-Serif" font-size="10.00">redraw_if_needed</text>
</a>
</g>
</g>
<!-- Node1&#45;&gt;Node5 -->
<g id="edge4" class="edge"><title>Node1&#45;&gt;Node5</title>
<path fill="none" stroke="midnightblue" d="M69.2998,-171.589C85.5202,-176.404 105.375,-182.299 122.787,-187.468"/>
<polygon fill="midnightblue" stroke="midnightblue" points="122.128,-190.923 132.711,-190.414 124.12,-184.213 122.128,-190.923"/>
</g>
<!-- Node6 -->
<g id="node6" class="node"><title>Node6</title>
<g id="a_node6"><a xlink:href="state_8c.html#aa1f339fabf8f144e719be0f686ee0e30" target="_top" xlink:title="Write a string to the state. ">
<polygon fill="white" stroke="red" points="118.5,-152.5 118.5,-171.5 213.5,-171.5 213.5,-152.5 118.5,-152.5"/>
<text text-anchor="middle" x="166" y="-159.5" font-family="Helvetica,sans-Serif" font-size="10.00">state_attach_puts</text>
</a>
</g>
</g>
<!-- Node1&#45;&gt;Node6 -->
<g id="edge5" class="edge"><title>Node1&#45;&gt;Node6</title>
<path fill="none" stroke="midnightblue" d="M71.6386,-162C82.8601,-162 95.6191,-162 108.022,-162"/>
<polygon fill="midnightblue" stroke="midnightblue" points="108.315,-165.5 118.315,-162 108.315,-158.5 108.315,-165.5"/>
</g>
<!-- Node7 -->
<g id="node7" class="node"><title>Node7</title>
<g id="a_node7"><a xlink:href="crypt__gpgme_8c.html#a85ea55200935f18e5e9f04190670038d" target="_top" xlink:title="Write a GPGME data object to a file. ">
<polygon fill="white" stroke="black" points="108,-114.5 108,-133.5 224,-133.5 224,-114.5 108,-114.5"/>
<text text-anchor="middle" x="166" y="-121.5" font-family="Helvetica,sans-Serif" font-size="10.00">data_object_to_stream</text>
</a>
</g>
</g>
<!-- Node1&#45;&gt;Node7 -->
<g id="edge6" class="edge"><title>Node1&#45;&gt;Node7</title>
<path fill="none" stroke="midnightblue" d="M69.2998,-152.411C85.5202,-147.596 105.375,-141.701 122.787,-136.532"/>
<polygon fill="midnightblue" stroke="midnightblue" points="124.12,-139.787 132.711,-133.586 122.128,-133.077 124.12,-139.787"/>
</g>
<!-- Node8 -->
<g id="node8" class="node"><title>Node8</title>
<g id="a_node8"><a xlink:href="crypt__gpgme_8c.html#a90bb1055f235c6de5186089f8795d443" target="_top" xlink:title="Show information about one signature. ">
<polygon fill="white" stroke="red" points="110.5,-76.5 110.5,-95.5 221.5,-95.5 221.5,-76.5 110.5,-76.5"/>
<text text-anchor="middle" x="166" y="-83.5" font-family="Helvetica,sans-Serif" font-size="10.00">show_one_sig_status</text>
</a>
</g>
</g>
<!-- Node1&#45;&gt;Node8 -->
<g id="edge7" class="edge"><title>Node1&#45;&gt;Node8</title>
<path fill="none" stroke="midnightblue" d="M46.754,-152.254C59.7291,-139.766 83.8507,-118.165 108,-105 111.918,-102.864 116.119,-100.911 120.398,-99.1404"/>
<polygon fill="midnightblue" stroke="midnightblue" points="121.713,-102.385 129.811,-95.5529 119.22,-95.8435 121.713,-102.385"/>
</g>
<!-- Node9 -->
<g id="node9" class="node"><title>Node9</title>
<g id="a_node9"><a xlink:href="parse_8c.html#ad373211d5d49e235c1aa9b818f0f10a1" target="_top" xlink:title="Parse a MIME header. ">
<polygon fill="white" stroke="red" points="260,-19.5 260,-38.5 384,-38.5 384,-19.5 260,-19.5"/>
<text text-anchor="middle" x="322" y="-26.5" font-family="Helvetica,sans-Serif" font-size="10.00">mutt_read_mime_header</text>
</a>
</g>
</g>
<!-- Node1&#45;&gt;Node9 -->
<g id="edge8" class="edge"><title>Node1&#45;&gt;Node9</title>
<path fill="none" stroke="midnightblue" d="M41.2121,-152.283C50.281,-132.62 73.6531,-88.1891 108,-67 150.412,-40.8354 206.069,-31.5839 249.853,-28.7427"/>
<polygon fill="midnightblue" stroke="midnightblue" points="250.065,-32.2364 259.857,-28.1905 249.679,-25.2471 250.065,-32.2364"/>
</g>
<!-- Node10 -->
<g id="node10" class="node"><title>Node10</title>
<g id="a_node10"><a xlink:href="parse_8c.html#a0b38ac4f44b3414d0e18d26324861369" target="_top" xlink:title="Parse a MIME part. ">
<polygon fill="white" stroke="red" points="122.5,-0.5 122.5,-19.5 209.5,-19.5 209.5,-0.5 122.5,-0.5"/>
<text text-anchor="middle" x="166" y="-7.5" font-family="Helvetica,sans-Serif" font-size="10.00">mutt_parse_part</text>
</a>
</g>
</g>
<!-- Node1&#45;&gt;Node10 -->
<g id="edge9" class="edge"><title>Node1&#45;&gt;Node10</title>
<path fill="none" stroke="midnightblue" d="M39.933,-152.243C47.4589,-128.754 69.6089,-68.4567 108,-34 112.402,-30.0487 117.55,-26.6866 122.918,-23.8431"/>
<polygon fill="midnightblue" stroke="midnightblue" points="124.511,-26.9614 132.067,-19.5347 121.529,-20.6284 124.511,-26.9614"/>
</g>
<!-- Node10&#45;&gt;Node9 -->
<g id="edge10" class="edge"><title>Node10&#45;&gt;Node9</title>
<path fill="none" stroke="midnightblue" d="M209.898,-15.2926C222.238,-16.8151 236.042,-18.5182 249.613,-20.1926"/>
<polygon fill="midnightblue" stroke="midnightblue" points="249.564,-23.7129 259.917,-21.4638 250.421,-16.7656 249.564,-23.7129"/>
</g>
</g>
</svg>
