<?xml version="1.0" encoding="UTF-8" standalone="no"?>
<!DOCTYPE svg PUBLIC "-//W3C//DTD SVG 1.1//EN"
 "http://www.w3.org/Graphics/SVG/1.1/DTD/svg11.dtd">
<!-- Generated by graphviz version 2.36.0 (20140111.2315)
 -->
<!-- Title: body_to_data_object Pages: 1 -->
<svg width="302pt" height="115pt"
 viewBox="0.00 0.00 302.00 115.00" xmlns="http://www.w3.org/2000/svg" xmlns:xlink="http://www.w3.org/1999/xlink">
<g id="graph0" class="graph" transform="scale(1 1) rotate(0) translate(4 111)">
<title>body_to_data_object</title>
<polygon fill="white" stroke="none" points="-4,4 -4,-111 298,-111 298,4 -4,4"/>
<!-- Node1 -->
<g id="node1" class="node"><title>Node1</title>
<polygon fill="#bfbfbf" stroke="black" points="0.5,-49.5 0.5,-68.5 107.5,-68.5 107.5,-49.5 0.5,-49.5"/>
<text text-anchor="middle" x="54" y="-56.5" font-family="Helvetica,sans-Serif" font-size="10.00">body_to_data_object</text>
</g>
<!-- Node2 -->
<g id="node2" class="node"><title>Node2</title>
<g id="a_node2"><a xlink:href="crypt__gpgme_8c.html#a4d07485b28aaf3e4ee49f3faf1fe9c1c" target="_top" xlink:title="Sign a message. ">
<polygon fill="white" stroke="red" points="179,-87.5 179,-106.5 259,-106.5 259,-87.5 179,-87.5"/>
<text text-anchor="middle" x="219" y="-94.5" font-family="Helvetica,sans-Serif" font-size="10.00">sign_message</text>
</a>
</g>
</g>
<!-- Node1&#45;&gt;Node2 -->
<g id="edge1" class="edge"><title>Node1&#45;&gt;Node2</title>
<path fill="none" stroke="midnightblue" d="M105.945,-70.8767C129.474,-76.3621 156.977,-82.7739 178.847,-87.8724"/>
<polygon fill="midnightblue" stroke="midnightblue" points="106.665,-67.4509 96.1318,-68.589 105.076,-74.2681 106.665,-67.4509"/>
</g>
<!-- Node3 -->
<g id="node3" class="node"><title>Node3</title>
<g id="a_node3"><a xlink:href="crypt__gpgme_8h.html#a2fb40c1e85c9d1f1c1a352ef687365ce" target="_top" xlink:title="Implements CryptModuleSpecs::pgp_encrypt_message() ">
<polygon fill="white" stroke="black" points="144.5,-49.5 144.5,-68.5 293.5,-68.5 293.5,-49.5 144.5,-49.5"/>
<text text-anchor="middle" x="219" y="-56.5" font-family="Helvetica,sans-Serif" font-size="10.00">pgp_gpgme_encrypt_message</text>
</a>
</g>
</g>
<!-- Node1&#45;&gt;Node3 -->
<g id="edge2" class="edge"><title>Node1&#45;&gt;Node3</title>
<path fill="none" stroke="midnightblue" d="M118.193,-59C126.752,-59 135.595,-59 144.317,-59"/>
<polygon fill="midnightblue" stroke="midnightblue" points="117.921,-55.5001 107.921,-59 117.921,-62.5001 117.921,-55.5001"/>
</g>
<!-- Node4 -->
<g id="node4" class="node"><title>Node4</title>
<g id="a_node4"><a xlink:href="crypt__gpgme_8h.html#a818613e3494585ba4b974d8d7e7befb3" target="_top" xlink:title="Implements CryptModuleSpecs::smime_build_smime_entity() ">
<polygon fill="white" stroke="black" points="149,-0 149,-30 289,-30 289,-0 149,-0"/>
<text text-anchor="start" x="157" y="-18" font-family="Helvetica,sans-Serif" font-size="10.00">smime_gpgme_build_smime</text>
<text text-anchor="middle" x="219" y="-7" font-family="Helvetica,sans-Serif" font-size="10.00">_entity</text>
</a>
</g>
</g>
<!-- Node1&#45;&gt;Node4 -->
<g id="edge3" class="edge"><title>Node1&#45;&gt;Node4</title>
<path fill="none" stroke="midnightblue" d="M100.08,-46.8313C119.301,-41.6426 141.926,-35.5354 162.19,-30.0654"/>
<polygon fill="midnightblue" stroke="midnightblue" points="99.1109,-43.4674 90.3686,-49.4527 100.935,-50.2255 99.1109,-43.4674"/>
</g>
</g>
</svg>
