<?xml version="1.0" encoding="UTF-8" standalone="no"?>
<!DOCTYPE svg PUBLIC "-//W3C//DTD SVG 1.1//EN"
 "http://www.w3.org/Graphics/SVG/1.1/DTD/svg11.dtd">
<!-- Generated by graphviz version 2.36.0 (20140111.2315)
 -->
<!-- Title: key_check_cap Pages: 1 -->
<svg width="214pt" height="66pt"
 viewBox="0.00 0.00 214.00 66.00" xmlns="http://www.w3.org/2000/svg" xmlns:xlink="http://www.w3.org/1999/xlink">
<g id="graph0" class="graph" transform="scale(1 1) rotate(0) translate(4 62)">
<title>key_check_cap</title>
<polygon fill="white" stroke="none" points="-4,4 -4,-62 210,-62 210,4 -4,4"/>
<!-- Node1 -->
<g id="node1" class="node"><title>Node1</title>
<polygon fill="#bfbfbf" stroke="black" points="0.5,-19.5 0.5,-38.5 85.5,-38.5 85.5,-19.5 0.5,-19.5"/>
<text text-anchor="middle" x="43" y="-26.5" font-family="Helvetica,sans-Serif" font-size="10.00">key_check_cap</text>
</g>
<!-- Node2 -->
<g id="node2" class="node"><title>Node2</title>
<g id="a_node2"><a xlink:href="crypt__gpgme_8c.html#a66639b373a3cc1f57f1526dad35085a7" target="_top" xlink:title="Verbose information about a key or certificate to a file. ">
<polygon fill="white" stroke="red" points="125.5,-38.5 125.5,-57.5 202.5,-57.5 202.5,-38.5 125.5,-38.5"/>
<text text-anchor="middle" x="164" y="-45.5" font-family="Helvetica,sans-Serif" font-size="10.00">print_key_info</text>
</a>
</g>
</g>
<!-- Node1&#45;&gt;Node2 -->
<g id="edge1" class="edge"><title>Node1&#45;&gt;Node2</title>
<path fill="none" stroke="midnightblue" d="M95.7719,-37.2661C105.659,-38.8447 115.835,-40.4695 125.184,-41.9622"/>
<polygon fill="midnightblue" stroke="midnightblue" points="96.0472,-33.7658 85.6204,-35.6453 94.9435,-40.6783 96.0472,-33.7658"/>
</g>
<!-- Node3 -->
<g id="node3" class="node"><title>Node3</title>
<g id="a_node3"><a xlink:href="crypt__gpgme_8c.html#a81e512c48b8feb36a6becb3669fcd5c1" target="_top" xlink:title="Get a list of keys which are candidates for the selection. ">
<polygon fill="white" stroke="red" points="122.5,-0.5 122.5,-19.5 205.5,-19.5 205.5,-0.5 122.5,-0.5"/>
<text text-anchor="middle" x="164" y="-7.5" font-family="Helvetica,sans-Serif" font-size="10.00">get_candidates</text>
</a>
</g>
</g>
<!-- Node1&#45;&gt;Node3 -->
<g id="edge2" class="edge"><title>Node1&#45;&gt;Node3</title>
<path fill="none" stroke="midnightblue" d="M95.5996,-20.7614C104.569,-19.3292 113.783,-17.8581 122.406,-16.4814"/>
<polygon fill="midnightblue" stroke="midnightblue" points="94.9435,-17.3217 85.6204,-22.3547 96.0472,-24.2342 94.9435,-17.3217"/>
</g>
</g>
</svg>
