<?xml version="1.0" encoding="UTF-8" standalone="no"?>
<!DOCTYPE svg PUBLIC "-//W3C//DTD SVG 1.1//EN"
 "http://www.w3.org/Graphics/SVG/1.1/DTD/svg11.dtd">
<!-- Generated by graphviz version 2.36.0 (20140111.2315)
 -->
<!-- Title: mutt_wstr_trunc Pages: 1 -->
<svg width="384pt" height="198pt"
 viewBox="0.00 0.00 384.00 198.00" xmlns="http://www.w3.org/2000/svg" xmlns:xlink="http://www.w3.org/1999/xlink">
<g id="graph0" class="graph" transform="scale(1 1) rotate(0) translate(4 194)">
<title>mutt_wstr_trunc</title>
<polygon fill="white" stroke="none" points="-4,4 -4,-194 380,-194 380,4 -4,4"/>
<!-- Node1 -->
<g id="node1" class="node"><title>Node1</title>
<polygon fill="#bfbfbf" stroke="black" points="0.5,-76.5 0.5,-95.5 87.5,-95.5 87.5,-76.5 0.5,-76.5"/>
<text text-anchor="middle" x="44" y="-83.5" font-family="Helvetica,sans-Serif" font-size="10.00">mutt_wstr_trunc</text>
</g>
<!-- Node2 -->
<g id="node2" class="node"><title>Node2</title>
<g id="a_node2"><a xlink:href="curs__lib_8h.html#a2ac481c92c3c888c1f658696909a3430" target="_top" xlink:title="Ask the user a Yes/No question. ">
<polygon fill="white" stroke="red" points="142,-170.5 142,-189.5 218,-189.5 218,-170.5 142,-170.5"/>
<text text-anchor="middle" x="180" y="-177.5" font-family="Helvetica,sans-Serif" font-size="10.00">mutt_yesorno</text>
</a>
</g>
</g>
<!-- Node1&#45;&gt;Node2 -->
<g id="edge1" class="edge"><title>Node1&#45;&gt;Node2</title>
<path fill="none" stroke="midnightblue" d="M59.5322,-103.612C74.2373,-120.428 98.4012,-145.445 124,-161 130.13,-164.725 137.09,-167.845 143.948,-170.409"/>
<polygon fill="midnightblue" stroke="midnightblue" points="61.9002,-100.995 52.747,-95.6589 56.5751,-105.538 61.9002,-100.995"/>
</g>
<!-- Node3 -->
<g id="node3" class="node"><title>Node3</title>
<g id="a_node3"><a xlink:href="curs__main_8h.html#a180d846161e904fbcde10154790e49c4" target="_top" xlink:title="Draw a highlighted status bar. ">
<polygon fill="white" stroke="red" points="125,-132.5 125,-151.5 235,-151.5 235,-132.5 125,-132.5"/>
<text text-anchor="middle" x="180" y="-139.5" font-family="Helvetica,sans-Serif" font-size="10.00">mutt_draw_statusline</text>
</a>
</g>
</g>
<!-- Node1&#45;&gt;Node3 -->
<g id="edge2" class="edge"><title>Node1&#45;&gt;Node3</title>
<path fill="none" stroke="midnightblue" d="M73.1184,-100.051C88.0637,-107.294 106.846,-116.043 124,-123 132.145,-126.303 141.106,-129.556 149.387,-132.411"/>
<polygon fill="midnightblue" stroke="midnightblue" points="74.4275,-96.7954 63.9069,-95.543 71.3502,-103.083 74.4275,-96.7954"/>
</g>
<!-- Node4 -->
<g id="node4" class="node"><title>Node4</title>
<g id="a_node4"><a xlink:href="muttlib_8h.html#a5efffe8bf1716c24b902f42e1d2166a0" target="_top" xlink:title="Expand expandos (x) in a string. ">
<polygon fill="white" stroke="red" points="124.5,-76.5 124.5,-95.5 235.5,-95.5 235.5,-76.5 124.5,-76.5"/>
<text text-anchor="middle" x="180" y="-83.5" font-family="Helvetica,sans-Serif" font-size="10.00">mutt_expando_format</text>
</a>
</g>
</g>
<!-- Node1&#45;&gt;Node4 -->
<g id="edge3" class="edge"><title>Node1&#45;&gt;Node4</title>
<path fill="none" stroke="midnightblue" d="M97.82,-86C106.548,-86 115.612,-86 124.382,-86"/>
<polygon fill="midnightblue" stroke="midnightblue" points="97.7669,-82.5001 87.7669,-86 97.7668,-89.5001 97.7669,-82.5001"/>
</g>
<!-- Node5 -->
<g id="node5" class="node"><title>Node5</title>
<g id="a_node5"><a xlink:href="sidebar_8c.html#a3830c13aded95a5b10971729a09f198e" target="_top" xlink:title="Turn mailbox data into a sidebar string. ">
<polygon fill="white" stroke="red" points="272,-57.5 272,-76.5 376,-76.5 376,-57.5 272,-57.5"/>
<text text-anchor="middle" x="324" y="-64.5" font-family="Helvetica,sans-Serif" font-size="10.00">make_sidebar_entry</text>
</a>
</g>
</g>
<!-- Node1&#45;&gt;Node5 -->
<g id="edge7" class="edge"><title>Node1&#45;&gt;Node5</title>
<path fill="none" stroke="midnightblue" d="M86.6908,-74.0305C98.6353,-71.1327 111.743,-68.4533 124,-67 173.919,-61.0815 231.377,-61.8907 271.68,-63.6919"/>
<polygon fill="midnightblue" stroke="midnightblue" points="85.8083,-70.6434 76.9751,-76.4937 87.5286,-77.4287 85.8083,-70.6434"/>
</g>
<!-- Node6 -->
<g id="node6" class="node"><title>Node6</title>
<g id="a_node6"><a xlink:href="progress_8c.html#abc66f33c51ec84b979ae2e452945cd1f" target="_top" xlink:title="Draw a colourful progress bar. ">
<polygon fill="white" stroke="red" points="142.5,-0.5 142.5,-19.5 217.5,-19.5 217.5,-0.5 142.5,-0.5"/>
<text text-anchor="middle" x="180" y="-7.5" font-family="Helvetica,sans-Serif" font-size="10.00">message_bar</text>
</a>
</g>
</g>
<!-- Node1&#45;&gt;Node6 -->
<g id="edge6" class="edge"><title>Node1&#45;&gt;Node6</title>
<path fill="none" stroke="midnightblue" d="M66.3681,-70.4964C81.9232,-59.5716 103.728,-44.9905 124,-34 133.8,-28.687 145.016,-23.6226 154.753,-19.5272"/>
<polygon fill="midnightblue" stroke="midnightblue" points="64.1133,-67.805 57.9905,-76.4514 68.1689,-73.5104 64.1133,-67.805"/>
</g>
<!-- Node4&#45;&gt;Node4 -->
<g id="edge4" class="edge"><title>Node4&#45;&gt;Node4</title>
<path fill="none" stroke="midnightblue" d="M154.702,-105.029C156.082,-110.128 164.515,-114 180,-114 204.172,-114 211.159,-104.565 200.962,-95.7571"/>
<polygon fill="midnightblue" stroke="midnightblue" points="157.973,-106.298 159.038,-95.7571 151.632,-103.333 157.973,-106.298"/>
</g>
<!-- Node4&#45;&gt;Node5 -->
<g id="edge5" class="edge"><title>Node4&#45;&gt;Node5</title>
<path fill="none" stroke="midnightblue" d="M246.029,-77.299C254.73,-76.1347 263.552,-74.9543 271.967,-73.8284"/>
<polygon fill="midnightblue" stroke="midnightblue" points="245.348,-73.8587 235.901,-78.6541 246.277,-80.7969 245.348,-73.8587"/>
</g>
</g>
</svg>
