<?xml version="1.0" encoding="UTF-8" standalone="no"?>
<!DOCTYPE svg PUBLIC "-//W3C//DTD SVG 1.1//EN"
 "http://www.w3.org/Graphics/SVG/1.1/DTD/svg11.dtd">
<!-- Generated by graphviz version 2.36.0 (20140111.2315)
 -->
<!-- Title: resort_index Pages: 1 -->
<svg width="228pt" height="104pt"
 viewBox="0.00 0.00 228.00 104.00" xmlns="http://www.w3.org/2000/svg" xmlns:xlink="http://www.w3.org/1999/xlink">
<g id="graph0" class="graph" transform="scale(1 1) rotate(0) translate(4 100)">
<title>resort_index</title>
<polygon fill="white" stroke="none" points="-4,4 -4,-100 224,-100 224,4 -4,4"/>
<!-- Node1 -->
<g id="node1" class="node"><title>Node1</title>
<polygon fill="#bfbfbf" stroke="black" points="0,-38.5 0,-57.5 70,-57.5 70,-38.5 0,-38.5"/>
<text text-anchor="middle" x="35" y="-45.5" font-family="Helvetica,sans-Serif" font-size="10.00">resort_index</text>
</g>
<!-- Node2 -->
<g id="node2" class="node"><title>Node2</title>
<g id="a_node2"><a xlink:href="sort_8c.html#aa99d4b590a29f24c0950934c15be6a83" target="_top" xlink:title="Sort emails by their headers. ">
<polygon fill="white" stroke="red" points="114,-76.5 114,-95.5 212,-95.5 212,-76.5 114,-76.5"/>
<text text-anchor="middle" x="163" y="-83.5" font-family="Helvetica,sans-Serif" font-size="10.00">mutt_sort_headers</text>
</a>
</g>
</g>
<!-- Node1&#45;&gt;Node2 -->
<g id="edge1" class="edge"><title>Node1&#45;&gt;Node2</title>
<path fill="none" stroke="midnightblue" d="M67.7951,-57.589C83.7621,-62.4044 103.307,-68.2988 120.447,-73.468"/>
<polygon fill="midnightblue" stroke="midnightblue" points="119.63,-76.8775 130.215,-76.4141 121.652,-70.1756 119.63,-76.8775"/>
</g>
<!-- Node3 -->
<g id="node3" class="node"><title>Node3</title>
<g id="a_node3"><a xlink:href="mutt__thread_8c.html#a9c62b9afa6b0f450951ee17e95dda1e3" target="_top" xlink:title="Find the parent of a message. ">
<polygon fill="white" stroke="red" points="106.5,-38.5 106.5,-57.5 219.5,-57.5 219.5,-38.5 106.5,-38.5"/>
<text text-anchor="middle" x="163" y="-45.5" font-family="Helvetica,sans-Serif" font-size="10.00">mutt_parent_message</text>
</a>
</g>
</g>
<!-- Node1&#45;&gt;Node3 -->
<g id="edge2" class="edge"><title>Node1&#45;&gt;Node3</title>
<path fill="none" stroke="midnightblue" d="M70.0974,-48C78.1463,-48 86.9987,-48 95.9336,-48"/>
<polygon fill="midnightblue" stroke="midnightblue" points="96.018,-51.5001 106.018,-48 96.018,-44.5001 96.018,-51.5001"/>
</g>
<!-- Node4 -->
<g id="node4" class="node"><title>Node4</title>
<g id="a_node4"><a xlink:href="curs__main_8c.html#a1cf256e918829025e13cc6269161a416" target="_top" xlink:title="Get index of first new message. ">
<polygon fill="white" stroke="black" points="117.5,-0.5 117.5,-19.5 208.5,-19.5 208.5,-0.5 117.5,-0.5"/>
<text text-anchor="middle" x="163" y="-7.5" font-family="Helvetica,sans-Serif" font-size="10.00">ci_first_message</text>
</a>
</g>
</g>
<!-- Node1&#45;&gt;Node4 -->
<g id="edge3" class="edge"><title>Node1&#45;&gt;Node4</title>
<path fill="none" stroke="midnightblue" d="M67.7951,-38.411C83.7621,-33.5956 103.307,-27.7012 120.447,-22.532"/>
<polygon fill="midnightblue" stroke="midnightblue" points="121.652,-25.8244 130.215,-19.5859 119.63,-19.1225 121.652,-25.8244"/>
</g>
</g>
</svg>
