<?xml version="1.0" encoding="UTF-8" standalone="no"?>
<!DOCTYPE svg PUBLIC "-//W3C//DTD SVG 1.1//EN"
 "http://www.w3.org/Graphics/SVG/1.1/DTD/svg11.dtd">
<!-- Generated by graphviz version 2.36.0 (20140111.2315)
 -->
<!-- Title: main_change_folder Pages: 1 -->
<svg width="542pt" height="578pt"
 viewBox="0.00 0.00 542.00 578.34" xmlns="http://www.w3.org/2000/svg" xmlns:xlink="http://www.w3.org/1999/xlink">
<g id="graph0" class="graph" transform="scale(1 1) rotate(0) translate(4 574.337)">
<title>main_change_folder</title>
<polygon fill="white" stroke="none" points="-4,4 -4,-574.337 538,-574.337 538,4 -4,4"/>
<!-- Node1 -->
<g id="node1" class="node"><title>Node1</title>
<polygon fill="#bfbfbf" stroke="black" points="0,-266.5 0,-285.5 104,-285.5 104,-266.5 0,-266.5"/>
<text text-anchor="middle" x="52" y="-273.5" font-family="Helvetica,sans-Serif" font-size="10.00">main_change_folder</text>
</g>
<!-- Node2 -->
<g id="node2" class="node"><title>Node2</title>
<g id="a_node2"><a xlink:href="newsrc_8c.html#ac454a554d68a50484415e36df9d365ef" target="_top" xlink:title="Make fully qualified url from newsgroup name. ">
<polygon fill="white" stroke="red" points="313,-512.5 313,-531.5 409,-531.5 409,-512.5 313,-512.5"/>
<text text-anchor="middle" x="361" y="-519.5" font-family="Helvetica,sans-Serif" font-size="10.00">nntp_expand_path</text>
</a>
</g>
</g>
<!-- Node1&#45;&gt;Node2 -->
<g id="edge1" class="edge"><title>Node1&#45;&gt;Node2</title>
<path fill="none" stroke="midnightblue" d="M53.6723,-285.65C56.6149,-319.883 71.4911,-436.328 140,-490 185.952,-526 254.395,-530.632 302.716,-528.395"/>
<polygon fill="midnightblue" stroke="midnightblue" points="302.923,-531.889 312.706,-527.822 302.522,-524.9 302.923,-531.889"/>
</g>
<!-- Node3 -->
<g id="node3" class="node"><title>Node3</title>
<g id="a_node3"><a xlink:href="mutt_2string_8c.html#ae48085384a6545e0fac589a88243ea31" target="_top" xlink:title="Copy a string, safely. ">
<polygon fill="white" stroke="red" points="447.5,-493.5 447.5,-512.5 532.5,-512.5 532.5,-493.5 447.5,-493.5"/>
<text text-anchor="middle" x="490" y="-500.5" font-family="Helvetica,sans-Serif" font-size="10.00">mutt_str_strdup</text>
</a>
</g>
</g>
<!-- Node1&#45;&gt;Node3 -->
<g id="edge5" class="edge"><title>Node1&#45;&gt;Node3</title>
<path fill="none" stroke="midnightblue" d="M53.0198,-285.603C53.6673,-323.155 61.4898,-461.029 140,-523 234.401,-597.514 292.743,-567.735 410,-541 429.784,-536.489 450.389,-526.37 465.593,-517.707"/>
<polygon fill="midnightblue" stroke="midnightblue" points="467.474,-520.662 474.307,-512.565 463.916,-514.633 467.474,-520.662"/>
</g>
<!-- Node4 -->
<g id="node4" class="node"><title>Node4</title>
<g id="a_node4"><a xlink:href="muttlib_8c.html#a483f037de523c624d449b4296a3ddfb2" target="_top" xlink:title="Create the canonical path. ">
<polygon fill="white" stroke="red" points="312.5,-304.5 312.5,-323.5 409.5,-323.5 409.5,-304.5 312.5,-304.5"/>
<text text-anchor="middle" x="361" y="-311.5" font-family="Helvetica,sans-Serif" font-size="10.00">mutt_expand_path</text>
</a>
</g>
</g>
<!-- Node1&#45;&gt;Node4 -->
<g id="edge3" class="edge"><title>Node1&#45;&gt;Node4</title>
<path fill="none" stroke="midnightblue" d="M104.46,-284.725C116.129,-286.58 128.478,-288.445 140,-290 194.93,-297.411 257.814,-304.091 302.245,-308.51"/>
<polygon fill="midnightblue" stroke="midnightblue" points="301.983,-312.001 312.279,-309.501 302.671,-305.035 301.983,-312.001"/>
</g>
<!-- Node5 -->
<g id="node5" class="node"><title>Node5</title>
<g id="a_node5"><a xlink:href="mx_8c.html#adf47b437bf62efa6dd4b940b8a5b791e" target="_top" xlink:title="Identify the type of mailbox. ">
<polygon fill="white" stroke="red" points="450,-417.5 450,-436.5 530,-436.5 530,-417.5 450,-417.5"/>
<text text-anchor="middle" x="490" y="-424.5" font-family="Helvetica,sans-Serif" font-size="10.00">mx_get_magic</text>
</a>
</g>
</g>
<!-- Node1&#45;&gt;Node5 -->
<g id="edge4" class="edge"><title>Node1&#45;&gt;Node5</title>
<path fill="none" stroke="midnightblue" d="M55.6422,-285.696C63.4139,-312.115 88.9266,-385.432 140,-416 235.065,-472.897 372.269,-454.161 442.993,-438.784"/>
<polygon fill="midnightblue" stroke="midnightblue" points="443.944,-442.158 452.933,-436.55 442.408,-435.329 443.944,-442.158"/>
</g>
<!-- Node6 -->
<g id="node6" class="node"><title>Node6</title>
<g id="a_node6"><a xlink:href="mx_8c.html#ad0127b193da0a2a0f4469565d4a11c56" target="_top" xlink:title="save changes and close mailbox ">
<polygon fill="white" stroke="red" points="164,-342.5 164,-361.5 252,-361.5 252,-342.5 164,-342.5"/>
<text text-anchor="middle" x="208" y="-349.5" font-family="Helvetica,sans-Serif" font-size="10.00">mx_mbox_close</text>
</a>
</g>
</g>
<!-- Node1&#45;&gt;Node6 -->
<g id="edge6" class="edge"><title>Node1&#45;&gt;Node6</title>
<path fill="none" stroke="midnightblue" d="M66.9981,-285.534C83.8091,-296.704 113.112,-315.297 140,-328 148.532,-332.031 157.937,-335.793 166.934,-339.088"/>
<polygon fill="midnightblue" stroke="midnightblue" points="165.882,-342.428 176.477,-342.47 168.22,-335.83 165.882,-342.428"/>
</g>
<!-- Node7 -->
<g id="node7" class="node"><title>Node7</title>
<g id="a_node7"><a xlink:href="mutt__logging_8c.html#af068b3f524a31fad293b2fb61dfc4534" target="_top" xlink:title="Clear the message line (bottom line of screen) ">
<polygon fill="white" stroke="red" points="446.5,-342.5 446.5,-361.5 533.5,-361.5 533.5,-342.5 446.5,-342.5"/>
<text text-anchor="middle" x="490" y="-349.5" font-family="Helvetica,sans-Serif" font-size="10.00">mutt_clear_error</text>
</a>
</g>
</g>
<!-- Node1&#45;&gt;Node7 -->
<g id="edge24" class="edge"><title>Node1&#45;&gt;Node7</title>
<path fill="none" stroke="midnightblue" d="M104.11,-269.899C175.026,-263.377 306.251,-258.406 410,-295 433.954,-303.449 456.992,-321.603 471.945,-335.166"/>
<polygon fill="midnightblue" stroke="midnightblue" points="469.687,-337.848 479.374,-342.139 474.477,-332.743 469.687,-337.848"/>
</g>
<!-- Node8 -->
<g id="node8" class="node"><title>Node8</title>
<g id="a_node8"><a xlink:href="mx_8c.html#ad33e3ff602855d7d00c86d46bc608b1d" target="_top" xlink:title="Open a mailbox and parse it. ">
<polygon fill="white" stroke="red" points="318,-398.5 318,-417.5 404,-417.5 404,-398.5 318,-398.5"/>
<text text-anchor="middle" x="361" y="-405.5" font-family="Helvetica,sans-Serif" font-size="10.00">mx_mbox_open</text>
</a>
</g>
</g>
<!-- Node1&#45;&gt;Node8 -->
<g id="edge20" class="edge"><title>Node1&#45;&gt;Node8</title>
<path fill="none" stroke="midnightblue" d="M57.1226,-285.76C67.3199,-308.521 96.1193,-365.004 140,-389 191.753,-417.301 260.768,-418.446 307.6,-414.855"/>
<polygon fill="midnightblue" stroke="midnightblue" points="308.167,-418.319 317.828,-413.968 307.563,-411.345 308.167,-418.319"/>
</g>
<!-- Node9 -->
<g id="node9" class="node"><title>Node9</title>
<g id="a_node9"><a xlink:href="curs__main_8c.html#a40e2ad7230ec2a26fba0da55e8987eed" target="_top" xlink:title="Update the index. ">
<polygon fill="white" stroke="red" points="171,-190.5 171,-209.5 245,-209.5 245,-190.5 171,-190.5"/>
<text text-anchor="middle" x="208" y="-197.5" font-family="Helvetica,sans-Serif" font-size="10.00">update_index</text>
</a>
</g>
</g>
<!-- Node1&#45;&gt;Node9 -->
<g id="edge14" class="edge"><title>Node1&#45;&gt;Node9</title>
<path fill="none" stroke="midnightblue" d="M66.9981,-266.466C83.8091,-255.296 113.112,-236.703 140,-224 148.532,-219.969 157.937,-216.207 166.934,-212.912"/>
<polygon fill="midnightblue" stroke="midnightblue" points="168.22,-216.17 176.477,-209.53 165.882,-209.572 168.22,-216.17"/>
</g>
<!-- Node10 -->
<g id="node10" class="node"><title>Node10</title>
<g id="a_node10"><a xlink:href="curs__main_8c.html#a1cf256e918829025e13cc6269161a416" target="_top" xlink:title="Get index of first new message. ">
<polygon fill="white" stroke="black" points="315.5,-209.5 315.5,-228.5 406.5,-228.5 406.5,-209.5 315.5,-209.5"/>
<text text-anchor="middle" x="361" y="-216.5" font-family="Helvetica,sans-Serif" font-size="10.00">ci_first_message</text>
</a>
</g>
</g>
<!-- Node1&#45;&gt;Node10 -->
<g id="edge21" class="edge"><title>Node1&#45;&gt;Node10</title>
<path fill="none" stroke="midnightblue" d="M104.039,-266.524C159.691,-256.191 248.412,-239.718 305.421,-229.134"/>
<polygon fill="midnightblue" stroke="midnightblue" points="306.14,-232.56 315.333,-227.293 304.862,-225.678 306.14,-232.56"/>
</g>
<!-- Node11 -->
<g id="node11" class="node"><title>Node11</title>
<g id="a_node11"><a xlink:href="mutt_2string_8c.html#ad5b66f8059a202f7bfa5fc4fa3047c67" target="_top" xlink:title="Replace one string with another. ">
<polygon fill="white" stroke="black" points="316.5,-474.5 316.5,-493.5 405.5,-493.5 405.5,-474.5 316.5,-474.5"/>
<text text-anchor="middle" x="361" y="-481.5" font-family="Helvetica,sans-Serif" font-size="10.00">mutt_str_replace</text>
</a>
</g>
</g>
<!-- Node1&#45;&gt;Node11 -->
<g id="edge16" class="edge"><title>Node1&#45;&gt;Node11</title>
<path fill="none" stroke="midnightblue" d="M54.2833,-285.69C58.9952,-317.028 78.4079,-416.132 140,-460 188.252,-494.367 258.187,-496.042 306.182,-491.939"/>
<polygon fill="midnightblue" stroke="midnightblue" points="306.758,-495.4 316.375,-490.953 306.084,-488.432 306.758,-495.4"/>
</g>
<!-- Node12 -->
<g id="node12" class="node"><title>Node12</title>
<g id="a_node12"><a xlink:href="muttlib_8c.html#a6fbcbe533be7c4e05d99b0eb9cdb2581" target="_top" xlink:title="Sleep for a while. ">
<polygon fill="white" stroke="black" points="175.5,-152.5 175.5,-171.5 240.5,-171.5 240.5,-152.5 175.5,-152.5"/>
<text text-anchor="middle" x="208" y="-159.5" font-family="Helvetica,sans-Serif" font-size="10.00">mutt_sleep</text>
</a>
</g>
</g>
<!-- Node1&#45;&gt;Node12 -->
<g id="edge18" class="edge"><title>Node1&#45;&gt;Node12</title>
<path fill="none" stroke="midnightblue" d="M59.1432,-266.289C71.834,-247.033 102.886,-203.899 140,-181 147.7,-176.249 156.624,-172.652 165.398,-169.94"/>
<polygon fill="midnightblue" stroke="midnightblue" points="166.461,-173.278 175.167,-167.241 164.596,-166.531 166.461,-173.278"/>
</g>
<!-- Node13 -->
<g id="node13" class="node"><title>Node13</title>
<g id="a_node13"><a xlink:href="hook_8c.html#a2b4fe2ff45ef95eef8cdebeb64c924e4" target="_top" xlink:title="Perform a folder hook. ">
<polygon fill="white" stroke="red" points="162,-114.5 162,-133.5 254,-133.5 254,-114.5 162,-114.5"/>
<text text-anchor="middle" x="208" y="-121.5" font-family="Helvetica,sans-Serif" font-size="10.00">mutt_folder_hook</text>
</a>
</g>
</g>
<!-- Node1&#45;&gt;Node13 -->
<g id="edge19" class="edge"><title>Node1&#45;&gt;Node13</title>
<path fill="none" stroke="midnightblue" d="M56.5567,-266.257C66.0531,-241.635 94.4268,-176.503 140,-143 143.717,-140.267 147.814,-137.927 152.096,-135.924"/>
<polygon fill="midnightblue" stroke="midnightblue" points="153.725,-139.04 161.688,-132.052 151.105,-132.549 153.725,-139.04"/>
</g>
<!-- Node14 -->
<g id="node14" class="node"><title>Node14</title>
<g id="a_node14"><a xlink:href="curs__main_8c.html#af741b4f2679d721b6d9ed376da98d12c" target="_top" xlink:title="Collapse/uncollapse all threads. ">
<polygon fill="white" stroke="red" points="174,-76.5 174,-95.5 242,-95.5 242,-76.5 174,-76.5"/>
<text text-anchor="middle" x="208" y="-83.5" font-family="Helvetica,sans-Serif" font-size="10.00">collapse_all</text>
</a>
</g>
</g>
<!-- Node1&#45;&gt;Node14 -->
<g id="edge22" class="edge"><title>Node1&#45;&gt;Node14</title>
<path fill="none" stroke="midnightblue" d="M55.0877,-266.145C61.8138,-236.861 85.7169,-149.642 140,-105 146.921,-99.3086 155.449,-95.3201 164.075,-92.5256"/>
<polygon fill="midnightblue" stroke="midnightblue" points="165.065,-95.8834 173.774,-89.8506 163.203,-89.1353 165.065,-95.8834"/>
</g>
<!-- Node15 -->
<g id="node15" class="node"><title>Node15</title>
<g id="a_node15"><a xlink:href="sidebar_8c.html#a5468a6fb6731c33f796928f35ebde3c7" target="_top" xlink:title="Set the OpnMailbox based on the global Context. ">
<polygon fill="white" stroke="red" points="140,-38.5 140,-57.5 276,-57.5 276,-38.5 140,-38.5"/>
<text text-anchor="middle" x="208" y="-45.5" font-family="Helvetica,sans-Serif" font-size="10.00">mutt_sb_set_open_mailbox</text>
</a>
</g>
</g>
<!-- Node1&#45;&gt;Node15 -->
<g id="edge23" class="edge"><title>Node1&#45;&gt;Node15</title>
<path fill="none" stroke="midnightblue" d="M54.0598,-266.416C58.2297,-233.409 76.532,-123.381 140,-67 141.763,-65.4342 143.645,-63.9967 145.62,-62.677"/>
<polygon fill="midnightblue" stroke="midnightblue" points="147.719,-65.5158 154.776,-57.6133 144.331,-59.3902 147.719,-65.5158"/>
</g>
<!-- Node16 -->
<g id="node16" class="node"><title>Node16</title>
<g id="a_node16"><a xlink:href="mailbox_8c.html#af6594b402b62d55a063bee915d458738" target="_top" xlink:title="Check all AllMailboxes for new mail. ">
<polygon fill="white" stroke="red" points="154.5,-0.5 154.5,-19.5 261.5,-19.5 261.5,-0.5 154.5,-0.5"/>
<text text-anchor="middle" x="208" y="-7.5" font-family="Helvetica,sans-Serif" font-size="10.00">mutt_mailbox_check</text>
</a>
</g>
</g>
<!-- Node1&#45;&gt;Node16 -->
<g id="edge25" class="edge"><title>Node1&#45;&gt;Node16</title>
<path fill="none" stroke="midnightblue" d="M53.3793,-266.285C55.3556,-229.468 67.4361,-97.1763 140,-29 141.682,-27.4193 143.487,-25.9686 145.385,-24.6375"/>
<polygon fill="midnightblue" stroke="midnightblue" points="147.316,-27.5642 154.227,-19.5335 143.816,-21.5017 147.316,-27.5642"/>
</g>
<!-- Node2&#45;&gt;Node3 -->
<g id="edge2" class="edge"><title>Node2&#45;&gt;Node3</title>
<path fill="none" stroke="midnightblue" d="M409.29,-514.925C418.308,-513.576 427.794,-512.157 436.951,-510.787"/>
<polygon fill="midnightblue" stroke="midnightblue" points="437.735,-514.209 447.108,-509.267 436.7,-507.286 437.735,-514.209"/>
</g>
<!-- Node6&#45;&gt;Node4 -->
<g id="edge7" class="edge"><title>Node6&#45;&gt;Node4</title>
<path fill="none" stroke="midnightblue" d="M247.104,-342.411C266.94,-337.419 291.384,-331.268 312.448,-325.967"/>
<polygon fill="midnightblue" stroke="midnightblue" points="313.327,-329.355 322.17,-323.52 311.618,-322.566 313.327,-329.355"/>
</g>
<!-- Node6&#45;&gt;Node6 -->
<g id="edge13" class="edge"><title>Node6&#45;&gt;Node6</title>
<path fill="none" stroke="midnightblue" d="M184.572,-361.757C173.175,-370.565 180.984,-380 208,-380 225.729,-380 235.186,-375.937 236.372,-370.654"/>
<polygon fill="midnightblue" stroke="midnightblue" points="239.345,-368.797 231.428,-361.757 233.226,-372.198 239.345,-368.797"/>
</g>
<!-- Node6&#45;&gt;Node7 -->
<g id="edge8" class="edge"><title>Node6&#45;&gt;Node7</title>
<path fill="none" stroke="midnightblue" d="M252.136,-352C301.609,-352 382.734,-352 436.008,-352"/>
<polygon fill="midnightblue" stroke="midnightblue" points="436.274,-355.5 446.274,-352 436.274,-348.5 436.274,-355.5"/>
</g>
<!-- Node6&#45;&gt;Node8 -->
<g id="edge9" class="edge"><title>Node6&#45;&gt;Node8</title>
<path fill="none" stroke="midnightblue" d="M234.958,-361.627C259.741,-370.818 297.275,-384.738 324.754,-394.929"/>
<polygon fill="midnightblue" stroke="midnightblue" points="323.788,-398.303 334.381,-398.499 326.222,-391.74 323.788,-398.303"/>
</g>
<!-- Node8&#45;&gt;Node3 -->
<g id="edge10" class="edge"><title>Node8&#45;&gt;Node3</title>
<path fill="none" stroke="midnightblue" d="M375.113,-417.809C397.091,-434.249 441.546,-467.503 467.945,-487.251"/>
<polygon fill="midnightblue" stroke="midnightblue" points="466.044,-490.199 476.148,-493.386 470.236,-484.593 466.044,-490.199"/>
</g>
<!-- Node8&#45;&gt;Node5 -->
<g id="edge11" class="edge"><title>Node8&#45;&gt;Node5</title>
<path fill="none" stroke="midnightblue" d="M404.289,-414.327C415.674,-416.03 428.087,-417.887 439.813,-419.641"/>
<polygon fill="midnightblue" stroke="midnightblue" points="439.49,-423.132 449.897,-421.15 440.525,-416.209 439.49,-423.132"/>
</g>
<!-- Node8&#45;&gt;Node7 -->
<g id="edge12" class="edge"><title>Node8&#45;&gt;Node7</title>
<path fill="none" stroke="midnightblue" d="M383.832,-398.373C404.31,-389.343 435.14,-375.749 458.132,-365.611"/>
<polygon fill="midnightblue" stroke="midnightblue" points="459.715,-368.738 467.453,-361.501 456.891,-362.333 459.715,-368.738"/>
</g>
<!-- Node9&#45;&gt;Node10 -->
<g id="edge15" class="edge"><title>Node9&#45;&gt;Node10</title>
<path fill="none" stroke="midnightblue" d="M245.168,-204.551C263.231,-206.824 285.461,-209.621 305.535,-212.147"/>
<polygon fill="midnightblue" stroke="midnightblue" points="305.135,-215.624 315.494,-213.4 306.009,-208.679 305.135,-215.624"/>
</g>
<!-- Node11&#45;&gt;Node3 -->
<g id="edge17" class="edge"><title>Node11&#45;&gt;Node3</title>
<path fill="none" stroke="midnightblue" d="M405.706,-490.539C415.928,-492.068 426.911,-493.711 437.44,-495.286"/>
<polygon fill="midnightblue" stroke="midnightblue" points="436.947,-498.751 447.355,-496.77 437.983,-491.828 436.947,-498.751"/>
</g>
</g>
</svg>
