<?xml version="1.0" encoding="UTF-8" standalone="no"?>
<!DOCTYPE svg PUBLIC "-//W3C//DTD SVG 1.1//EN"
 "http://www.w3.org/Graphics/SVG/1.1/DTD/svg11.dtd">
<!-- Generated by graphviz version 2.36.0 (20140111.2315)
 -->
<!-- Title: mutt_simple_format Pages: 1 -->
<svg width="254pt" height="218pt"
 viewBox="0.00 0.00 254.00 218.00" xmlns="http://www.w3.org/2000/svg" xmlns:xlink="http://www.w3.org/1999/xlink">
<g id="graph0" class="graph" transform="scale(1 1) rotate(0) translate(4 214)">
<title>mutt_simple_format</title>
<polygon fill="white" stroke="none" points="-4,4 -4,-214 250,-214 250,4 -4,4"/>
<!-- Node1 -->
<g id="node1" class="node"><title>Node1</title>
<polygon fill="#bfbfbf" stroke="black" points="0.5,-95.5 0.5,-114.5 103.5,-114.5 103.5,-95.5 0.5,-95.5"/>
<text text-anchor="middle" x="52" y="-102.5" font-family="Helvetica,sans-Serif" font-size="10.00">mutt_simple_format</text>
</g>
<!-- Node2 -->
<g id="node2" class="node"><title>Node2</title>
<g id="a_node2"><a xlink:href="commands_8h.html#a2815f046da32dd09b3c3f4f93a1537b4" target="_top" xlink:title="Bounce an email. ">
<polygon fill="white" stroke="red" points="140,-190.5 140,-209.5 246,-209.5 246,-190.5 140,-190.5"/>
<text text-anchor="middle" x="193" y="-197.5" font-family="Helvetica,sans-Serif" font-size="10.00">ci_bounce_message</text>
</a>
</g>
</g>
<!-- Node1&#45;&gt;Node2 -->
<g id="edge1" class="edge"><title>Node1&#45;&gt;Node2</title>
<path fill="none" stroke="midnightblue" d="M68.9238,-122.204C85.3544,-139.11 112.408,-164.679 140,-181 146.204,-184.67 153.237,-187.821 160.079,-190.441"/>
<polygon fill="midnightblue" stroke="midnightblue" points="71.1872,-119.506 61.7554,-114.68 66.1189,-124.334 71.1872,-119.506"/>
</g>
<!-- Node3 -->
<g id="node3" class="node"><title>Node3</title>
<g id="a_node3"><a xlink:href="curs__lib_8c.html#afc99a6480d811c4843fd413c44a23685" target="_top" xlink:title="Format a string like snprintf() ">
<polygon fill="white" stroke="red" points="160.5,-152.5 160.5,-171.5 225.5,-171.5 225.5,-152.5 160.5,-152.5"/>
<text text-anchor="middle" x="193" y="-159.5" font-family="Helvetica,sans-Serif" font-size="10.00">format_s_x</text>
</a>
</g>
</g>
<!-- Node1&#45;&gt;Node3 -->
<g id="edge2" class="edge"><title>Node1&#45;&gt;Node3</title>
<path fill="none" stroke="midnightblue" d="M83.1836,-118.728C99.8355,-126.164 120.943,-135.365 140,-143 148.03,-146.217 156.841,-149.521 164.891,-152.452"/>
<polygon fill="midnightblue" stroke="midnightblue" points="84.4996,-115.483 73.9433,-114.579 81.6323,-121.868 84.4996,-115.483"/>
</g>
<!-- Node4 -->
<g id="node4" class="node"><title>Node4</title>
<g id="a_node4"><a xlink:href="menu_8c.html#a817398faa8fdc8d02ddd64dc084a607a" target="_top" xlink:title="Pad a string with spaces for display in the Menu. ">
<polygon fill="white" stroke="red" points="147.5,-114.5 147.5,-133.5 238.5,-133.5 238.5,-114.5 147.5,-114.5"/>
<text text-anchor="middle" x="193" y="-121.5" font-family="Helvetica,sans-Serif" font-size="10.00">menu_pad_string</text>
</a>
</g>
</g>
<!-- Node1&#45;&gt;Node4 -->
<g id="edge3" class="edge"><title>Node1&#45;&gt;Node4</title>
<path fill="none" stroke="midnightblue" d="M113.774,-113.307C125.011,-114.843 136.557,-116.421 147.212,-117.878"/>
<polygon fill="midnightblue" stroke="midnightblue" points="113.957,-109.8 103.575,-111.913 113.009,-116.735 113.957,-109.8"/>
</g>
<!-- Node5 -->
<g id="node5" class="node"><title>Node5</title>
<g id="a_node5"><a xlink:href="mutt__logging_8h.html#a872aefc0304ef84d91e06b464d02d521" target="_top" xlink:title="Display a log line in the message line &#45; Implements log_dispatcher_t. ">
<polygon fill="white" stroke="red" points="149.5,-76.5 149.5,-95.5 236.5,-95.5 236.5,-76.5 149.5,-76.5"/>
<text text-anchor="middle" x="193" y="-83.5" font-family="Helvetica,sans-Serif" font-size="10.00">log_disp_curses</text>
</a>
</g>
</g>
<!-- Node1&#45;&gt;Node5 -->
<g id="edge4" class="edge"><title>Node1&#45;&gt;Node5</title>
<path fill="none" stroke="midnightblue" d="M113.609,-96.7153C125.696,-95.0632 138.147,-93.3613 149.468,-91.8138"/>
<polygon fill="midnightblue" stroke="midnightblue" points="113.009,-93.2647 103.575,-98.0868 113.957,-100.2 113.009,-93.2647"/>
</g>
<!-- Node6 -->
<g id="node6" class="node"><title>Node6</title>
<g id="a_node6"><a xlink:href="progress_8c.html#abc66f33c51ec84b979ae2e452945cd1f" target="_top" xlink:title="Draw a colourful progress bar. ">
<polygon fill="white" stroke="red" points="155.5,-38.5 155.5,-57.5 230.5,-57.5 230.5,-38.5 155.5,-38.5"/>
<text text-anchor="middle" x="193" y="-45.5" font-family="Helvetica,sans-Serif" font-size="10.00">message_bar</text>
</a>
</g>
</g>
<!-- Node1&#45;&gt;Node6 -->
<g id="edge5" class="edge"><title>Node1&#45;&gt;Node6</title>
<path fill="none" stroke="midnightblue" d="M83.1836,-91.2717C99.8355,-83.8359 120.943,-74.6349 140,-67 148.03,-63.7829 156.841,-60.4795 164.891,-57.5481"/>
<polygon fill="midnightblue" stroke="midnightblue" points="81.6323,-88.1315 73.9433,-95.4206 84.4996,-94.5174 81.6323,-88.1315"/>
</g>
<!-- Node7 -->
<g id="node7" class="node"><title>Node7</title>
<g id="a_node7"><a xlink:href="recvcmd_8h.html#a4894c4b5eb8d84ca5007940b13e5087e" target="_top" xlink:title="Bounce function, from the attachment menu. ">
<polygon fill="white" stroke="red" points="140.5,-0.5 140.5,-19.5 245.5,-19.5 245.5,-0.5 140.5,-0.5"/>
<text text-anchor="middle" x="193" y="-7.5" font-family="Helvetica,sans-Serif" font-size="10.00">mutt_attach_bounce</text>
</a>
</g>
</g>
<!-- Node1&#45;&gt;Node7 -->
<g id="edge6" class="edge"><title>Node1&#45;&gt;Node7</title>
<path fill="none" stroke="midnightblue" d="M68.9238,-87.7959C85.3544,-70.8904 112.408,-45.3213 140,-29 146.204,-25.3299 153.237,-22.1795 160.079,-19.5592"/>
<polygon fill="midnightblue" stroke="midnightblue" points="66.1189,-85.6659 61.7554,-95.3204 71.1872,-90.4942 66.1189,-85.6659"/>
</g>
</g>
</svg>
