<?xml version="1.0" encoding="UTF-8" standalone="no"?>
<!DOCTYPE svg PUBLIC "-//W3C//DTD SVG 1.1//EN"
 "http://www.w3.org/Graphics/SVG/1.1/DTD/svg11.dtd">
<!-- Generated by graphviz version 2.36.0 (20140111.2315)
 -->
<!-- Title: ci_first_message Pages: 1 -->
<svg width="480pt" height="142pt"
 viewBox="0.00 0.00 480.00 142.00" xmlns="http://www.w3.org/2000/svg" xmlns:xlink="http://www.w3.org/1999/xlink">
<g id="graph0" class="graph" transform="scale(1 1) rotate(0) translate(4 138)">
<title>ci_first_message</title>
<polygon fill="white" stroke="none" points="-4,4 -4,-138 476,-138 476,4 -4,4"/>
<!-- Node1 -->
<g id="node1" class="node"><title>Node1</title>
<polygon fill="#bfbfbf" stroke="black" points="0.5,-57.5 0.5,-76.5 91.5,-76.5 91.5,-57.5 0.5,-57.5"/>
<text text-anchor="middle" x="46" y="-64.5" font-family="Helvetica,sans-Serif" font-size="10.00">ci_first_message</text>
</g>
<!-- Node2 -->
<g id="node2" class="node"><title>Node2</title>
<g id="a_node2"><a xlink:href="curs__main_8c.html#a61c6ac636255fd2376eaee03cf174b5b" target="_top" xlink:title="Resort the index. ">
<polygon fill="white" stroke="black" points="255,-114.5 255,-133.5 325,-133.5 325,-114.5 255,-114.5"/>
<text text-anchor="middle" x="290" y="-121.5" font-family="Helvetica,sans-Serif" font-size="10.00">resort_index</text>
</a>
</g>
</g>
<!-- Node1&#45;&gt;Node2 -->
<g id="edge1" class="edge"><title>Node1&#45;&gt;Node2</title>
<path fill="none" stroke="midnightblue" d="M76.1912,-80.8704C91.3452,-87.5592 110.34,-95.1614 128,-100 170.928,-111.762 221.975,-118.135 254.902,-121.299"/>
<polygon fill="midnightblue" stroke="midnightblue" points="77.3943,-77.5734 66.8401,-76.6451 74.5118,-83.9524 77.3943,-77.5734"/>
</g>
<!-- Node3 -->
<g id="node3" class="node"><title>Node3</title>
<g id="a_node3"><a xlink:href="curs__main_8h.html#af7d9d8649ad205788c9af1bbf871207f" target="_top" xlink:title="Display a list of emails. ">
<polygon fill="white" stroke="red" points="378,-57.5 378,-76.5 472,-76.5 472,-57.5 378,-57.5"/>
<text text-anchor="middle" x="425" y="-64.5" font-family="Helvetica,sans-Serif" font-size="10.00">mutt_index_menu</text>
</a>
</g>
</g>
<!-- Node1&#45;&gt;Node3 -->
<g id="edge8" class="edge"><title>Node1&#45;&gt;Node3</title>
<path fill="none" stroke="midnightblue" d="M101.989,-68.9907C161.243,-70.8448 258.312,-73.0399 342,-71 353.542,-70.7187 365.989,-70.2149 377.613,-69.6577"/>
<polygon fill="midnightblue" stroke="midnightblue" points="101.843,-65.4844 91.7355,-68.6615 101.618,-72.4807 101.843,-65.4844"/>
</g>
<!-- Node4 -->
<g id="node4" class="node"><title>Node4</title>
<g id="a_node4"><a xlink:href="curs__main_8h.html#a40e2ad7230ec2a26fba0da55e8987eed" target="_top" xlink:title="Update the index. ">
<polygon fill="white" stroke="red" points="128,-38.5 128,-57.5 202,-57.5 202,-38.5 128,-38.5"/>
<text text-anchor="middle" x="165" y="-45.5" font-family="Helvetica,sans-Serif" font-size="10.00">update_index</text>
</a>
</g>
</g>
<!-- Node1&#45;&gt;Node4 -->
<g id="edge3" class="edge"><title>Node1&#45;&gt;Node4</title>
<path fill="none" stroke="midnightblue" d="M101.562,-58.1396C110.5,-56.688 119.562,-55.2164 127.908,-53.8611"/>
<polygon fill="midnightblue" stroke="midnightblue" points="100.876,-54.705 91.5664,-59.7627 101.998,-61.6144 100.876,-54.705"/>
</g>
<!-- Node5 -->
<g id="node5" class="node"><title>Node5</title>
<g id="a_node5"><a xlink:href="curs__main_8c.html#a844b442c9ee0ab05978a40172e08e468" target="_top" xlink:title="Change to a different mailbox. ">
<polygon fill="white" stroke="black" points="238,-0.5 238,-19.5 342,-19.5 342,-0.5 238,-0.5"/>
<text text-anchor="middle" x="290" y="-7.5" font-family="Helvetica,sans-Serif" font-size="10.00">main_change_folder</text>
</a>
</g>
</g>
<!-- Node1&#45;&gt;Node5 -->
<g id="edge7" class="edge"><title>Node1&#45;&gt;Node5</title>
<path fill="none" stroke="midnightblue" d="M72.4337,-52.4765C87.9933,-44.2577 108.58,-34.5435 128,-29 163.86,-18.7635 205.729,-14.0335 237.781,-11.8522"/>
<polygon fill="midnightblue" stroke="midnightblue" points="70.5716,-49.5048 63.4508,-57.3498 73.9096,-55.6576 70.5716,-49.5048"/>
</g>
<!-- Node2&#45;&gt;Node3 -->
<g id="edge2" class="edge"><title>Node2&#45;&gt;Node3</title>
<path fill="none" stroke="midnightblue" d="M322.776,-110.382C347.108,-99.9535 380.063,-85.8303 401.666,-76.5716"/>
<polygon fill="midnightblue" stroke="midnightblue" points="321.074,-107.303 313.261,-114.459 323.831,-113.737 321.074,-107.303"/>
</g>
<!-- Node4&#45;&gt;Node3 -->
<g id="edge6" class="edge"><title>Node4&#45;&gt;Node3</title>
<path fill="none" stroke="midnightblue" d="M212.302,-51.4098C259.054,-54.8528 330.861,-60.1409 377.636,-63.5856"/>
<polygon fill="midnightblue" stroke="midnightblue" points="212.376,-47.9059 202.145,-50.6619 211.861,-54.887 212.376,-47.9059"/>
</g>
<!-- Node4&#45;&gt;Node5 -->
<g id="edge4" class="edge"><title>Node4&#45;&gt;Node5</title>
<path fill="none" stroke="midnightblue" d="M207.045,-35.3196C223.664,-30.1852 242.532,-24.3559 257.972,-19.5859"/>
<polygon fill="midnightblue" stroke="midnightblue" points="205.559,-32.1151 197.038,-38.411 207.626,-38.8032 205.559,-32.1151"/>
</g>
<!-- Node5&#45;&gt;Node3 -->
<g id="edge5" class="edge"><title>Node5&#45;&gt;Node3</title>
<path fill="none" stroke="midnightblue" d="M322.776,-23.6181C347.108,-34.0465 380.063,-48.1697 401.666,-57.4284"/>
<polygon fill="midnightblue" stroke="midnightblue" points="323.831,-20.2628 313.261,-19.5405 321.074,-26.6968 323.831,-20.2628"/>
</g>
</g>
</svg>
