<?xml version="1.0" encoding="UTF-8" standalone="no"?>
<!DOCTYPE svg PUBLIC "-//W3C//DTD SVG 1.1//EN"
 "http://www.w3.org/Graphics/SVG/1.1/DTD/svg11.dtd">
<!-- Generated by graphviz version 2.36.0 (20140111.2315)
 -->
<!-- Title: mutt_getch Pages: 1 -->
<svg width="326pt" height="142pt"
 viewBox="0.00 0.00 326.00 142.00" xmlns="http://www.w3.org/2000/svg" xmlns:xlink="http://www.w3.org/1999/xlink">
<g id="graph0" class="graph" transform="scale(1 1) rotate(0) translate(4 138)">
<title>mutt_getch</title>
<polygon fill="white" stroke="none" points="-4,4 -4,-138 322,-138 322,4 -4,4"/>
<!-- Node1 -->
<g id="node1" class="node"><title>Node1</title>
<polygon fill="#bfbfbf" stroke="black" points="0.5,-57.5 0.5,-76.5 65.5,-76.5 65.5,-57.5 0.5,-57.5"/>
<text text-anchor="middle" x="33" y="-64.5" font-family="Helvetica,sans-Serif" font-size="10.00">mutt_getch</text>
</g>
<!-- Node2 -->
<g id="node2" class="node"><title>Node2</title>
<g id="a_node2"><a xlink:href="signal_8c.html#a6a07238a239c3dd372b5091cf7651add" target="_top" xlink:title="Allow/disallow Ctrl&#45;C (SIGINT) ">
<polygon fill="white" stroke="black" points="102,-114.5 102,-133.5 224,-133.5 224,-114.5 102,-114.5"/>
<text text-anchor="middle" x="163" y="-121.5" font-family="Helvetica,sans-Serif" font-size="10.00">mutt_sig_allow_interrupt</text>
</a>
</g>
</g>
<!-- Node1&#45;&gt;Node2 -->
<g id="edge1" class="edge"><title>Node1&#45;&gt;Node2</title>
<path fill="none" stroke="midnightblue" d="M48.9424,-76.5161C62.4283,-84.8182 83.0081,-96.7876 102,-105 107.077,-107.195 112.493,-109.266 117.914,-111.174"/>
<polygon fill="midnightblue" stroke="midnightblue" points="117.014,-114.564 127.607,-114.427 119.241,-107.927 117.014,-114.564"/>
</g>
<!-- Node3 -->
<g id="node3" class="node"><title>Node3</title>
<g id="a_node3"><a xlink:href="curs__lib_8c.html#ac7ca868e51ee14c92ab7a7b09487258e" target="_top" xlink:title="Ask the user if they want to leave NeoMutt. ">
<polygon fill="white" stroke="red" points="120,-76.5 120,-95.5 206,-95.5 206,-76.5 120,-76.5"/>
<text text-anchor="middle" x="163" y="-83.5" font-family="Helvetica,sans-Serif" font-size="10.00">mutt_query_exit</text>
</a>
</g>
</g>
<!-- Node1&#45;&gt;Node3 -->
<g id="edge2" class="edge"><title>Node1&#45;&gt;Node3</title>
<path fill="none" stroke="midnightblue" d="M65.6405,-71.6966C78.8737,-73.6609 94.6118,-75.9971 109.493,-78.206"/>
<polygon fill="midnightblue" stroke="midnightblue" points="109.211,-81.7024 119.617,-79.7087 110.239,-74.7783 109.211,-81.7024"/>
</g>
<!-- Node4 -->
<g id="node4" class="node"><title>Node4</title>
<g id="a_node4"><a xlink:href="main_8c.html#a65be75bf998d2462599b7d391676554c" target="_top" xlink:title="Leave NeoMutt NOW. ">
<polygon fill="white" stroke="black" points="260.5,-57.5 260.5,-76.5 317.5,-76.5 317.5,-57.5 260.5,-57.5"/>
<text text-anchor="middle" x="289" y="-64.5" font-family="Helvetica,sans-Serif" font-size="10.00">mutt_exit</text>
</a>
</g>
</g>
<!-- Node1&#45;&gt;Node4 -->
<g id="edge4" class="edge"><title>Node1&#45;&gt;Node4</title>
<path fill="none" stroke="midnightblue" d="M65.6557,-67C112.462,-67 199.988,-67 250.13,-67"/>
<polygon fill="midnightblue" stroke="midnightblue" points="250.234,-70.5001 260.234,-67 250.234,-63.5001 250.234,-70.5001"/>
</g>
<!-- Node5 -->
<g id="node5" class="node"><title>Node5</title>
<g id="a_node5"><a xlink:href="curs__lib_8c.html#a9a8c35513fca5be6bdd795e27db1991a" target="_top" xlink:title="Return a keystroke to the input buffer. ">
<polygon fill="white" stroke="red" points="115.5,-0.5 115.5,-19.5 210.5,-19.5 210.5,-0.5 115.5,-0.5"/>
<text text-anchor="middle" x="163" y="-7.5" font-family="Helvetica,sans-Serif" font-size="10.00">mutt_unget_event</text>
</a>
</g>
</g>
<!-- Node1&#45;&gt;Node5 -->
<g id="edge5" class="edge"><title>Node1&#45;&gt;Node5</title>
<path fill="none" stroke="midnightblue" d="M52.8826,-57.388C66.4352,-50.5997 85.1968,-41.4266 102,-34 110.187,-30.3817 119.098,-26.6876 127.487,-23.3165"/>
<polygon fill="midnightblue" stroke="midnightblue" points="129.018,-26.4745 137.021,-19.5314 126.435,-19.9685 129.018,-26.4745"/>
</g>
<!-- Node3&#45;&gt;Node4 -->
<g id="edge3" class="edge"><title>Node3&#45;&gt;Node4</title>
<path fill="none" stroke="midnightblue" d="M206.327,-79.5144C220.528,-77.3385 236.265,-74.9272 250.104,-72.8067"/>
<polygon fill="midnightblue" stroke="midnightblue" points="250.906,-76.2248 260.26,-71.2505 249.845,-69.3055 250.906,-76.2248"/>
</g>
</g>
</svg>
