<?xml version="1.0" encoding="UTF-8" standalone="no"?>
<!DOCTYPE svg PUBLIC "-//W3C//DTD SVG 1.1//EN"
 "http://www.w3.org/Graphics/SVG/1.1/DTD/svg11.dtd">
<!-- Generated by graphviz version 2.36.0 (20140111.2315)
 -->
<!-- Title: mutt_unget_event Pages: 1 -->
<svg width="670pt" height="408pt"
 viewBox="0.00 0.00 670.00 408.00" xmlns="http://www.w3.org/2000/svg" xmlns:xlink="http://www.w3.org/1999/xlink">
<g id="graph0" class="graph" transform="scale(1 1) rotate(0) translate(4 404)">
<title>mutt_unget_event</title>
<polygon fill="white" stroke="none" points="-4,4 -4,-404 666,-404 666,4 -4,4"/>
<!-- Node1 -->
<g id="node1" class="node"><title>Node1</title>
<polygon fill="#bfbfbf" stroke="black" points="0.5,-190.5 0.5,-209.5 95.5,-209.5 95.5,-190.5 0.5,-190.5"/>
<text text-anchor="middle" x="48" y="-197.5" font-family="Helvetica,sans-Serif" font-size="10.00">mutt_unget_event</text>
</g>
<!-- Node2 -->
<g id="node2" class="node"><title>Node2</title>
<g id="a_node2"><a xlink:href="browser_8h.html#ab036990112b8014c0b84c401e77f96d3" target="_top" xlink:title="Let the user select a file. ">
<polygon fill="white" stroke="red" points="137,-380.5 137,-399.5 223,-399.5 223,-380.5 137,-380.5"/>
<text text-anchor="middle" x="180" y="-387.5" font-family="Helvetica,sans-Serif" font-size="10.00">mutt_select_file</text>
</a>
</g>
</g>
<!-- Node1&#45;&gt;Node2 -->
<g id="edge1" class="edge"><title>Node1&#45;&gt;Node2</title>
<path fill="none" stroke="midnightblue" d="M54.4662,-219.932C64.6386,-253.791 89.3998,-323.037 132,-366 137.935,-371.985 145.674,-376.768 153.154,-380.44"/>
<polygon fill="midnightblue" stroke="midnightblue" points="57.7056,-218.534 51.571,-209.896 50.9798,-220.474 57.7056,-218.534"/>
</g>
<!-- Node3 -->
<g id="node3" class="node"><title>Node3</title>
<g id="a_node3"><a xlink:href="curs__lib_8h.html#a4070f68e1706543c636627bfd4edfcad" target="_top" xlink:title="Ask the user to select a file. ">
<polygon fill="white" stroke="red" points="264.5,-342.5 264.5,-361.5 377.5,-361.5 377.5,-342.5 264.5,-342.5"/>
<text text-anchor="middle" x="321" y="-349.5" font-family="Helvetica,sans-Serif" font-size="10.00">mutt_enter_fname_full</text>
</a>
</g>
</g>
<!-- Node1&#45;&gt;Node3 -->
<g id="edge15" class="edge"><title>Node1&#45;&gt;Node3</title>
<path fill="none" stroke="midnightblue" d="M55.4634,-219.196C66.2998,-248.13 91.062,-302.263 132,-328 171.416,-352.781 224.696,-357.499 264.471,-356.763"/>
<polygon fill="midnightblue" stroke="midnightblue" points="58.7581,-218.014 52.097,-209.775 52.1663,-220.37 58.7581,-218.014"/>
</g>
<!-- Node4 -->
<g id="node4" class="node"><title>Node4</title>
<g id="a_node4"><a xlink:href="commands_8h.html#a9be59878cc7204a7bad72685e83c5733" target="_top" xlink:title="Display a message in the pager. ">
<polygon fill="white" stroke="black" points="414.5,-266.5 414.5,-285.5 531.5,-285.5 531.5,-266.5 414.5,-266.5"/>
<text text-anchor="middle" x="473" y="-273.5" font-family="Helvetica,sans-Serif" font-size="10.00">mutt_display_message</text>
</a>
</g>
</g>
<!-- Node1&#45;&gt;Node4 -->
<g id="edge3" class="edge"><title>Node1&#45;&gt;Node4</title>
<path fill="none" stroke="midnightblue" d="M74.7883,-214.396C90.7785,-222.659 112.017,-232.462 132,-238 228.733,-264.805 345.922,-272.78 414.402,-275.104"/>
<polygon fill="midnightblue" stroke="midnightblue" points="76.0424,-211.099 65.5686,-209.503 72.7607,-217.283 76.0424,-211.099"/>
</g>
<!-- Node5 -->
<g id="node5" class="node"><title>Node5</title>
<g id="a_node5"><a xlink:href="curs__main_8h.html#af7d9d8649ad205788c9af1bbf871207f" target="_top" xlink:title="Display a list of emails. ">
<polygon fill="white" stroke="red" points="568,-247.5 568,-266.5 662,-266.5 662,-247.5 568,-247.5"/>
<text text-anchor="middle" x="615" y="-254.5" font-family="Helvetica,sans-Serif" font-size="10.00">mutt_index_menu</text>
</a>
</g>
</g>
<!-- Node1&#45;&gt;Node5 -->
<g id="edge18" class="edge"><title>Node1&#45;&gt;Node5</title>
<path fill="none" stroke="midnightblue" d="M66.149,-216.477C81.9473,-230.651 106.708,-250.432 132,-261 296.626,-329.786 357.765,-333.41 532,-295 556.669,-289.562 582.742,-275.934 598.696,-266.568"/>
<polygon fill="midnightblue" stroke="midnightblue" points="68.4739,-213.86 58.7492,-209.655 63.7292,-219.007 68.4739,-213.86"/>
</g>
<!-- Node6 -->
<g id="node6" class="node"><title>Node6</title>
<g id="a_node6"><a xlink:href="curs__lib_8h.html#aa922a0db5f9f56cdc3bedc5671bc35a7" target="_top" xlink:title="Read a character from the input buffer. ">
<polygon fill="white" stroke="red" points="147.5,-190.5 147.5,-209.5 212.5,-209.5 212.5,-190.5 147.5,-190.5"/>
<text text-anchor="middle" x="180" y="-197.5" font-family="Helvetica,sans-Serif" font-size="10.00">mutt_getch</text>
</a>
</g>
</g>
<!-- Node1&#45;&gt;Node6 -->
<g id="edge5" class="edge"><title>Node1&#45;&gt;Node6</title>
<path fill="none" stroke="midnightblue" d="M105.815,-200C120.075,-200 134.869,-200 147.393,-200"/>
<polygon fill="midnightblue" stroke="midnightblue" points="105.566,-196.5 95.5658,-200 105.566,-203.5 105.566,-196.5"/>
</g>
<!-- Node7 -->
<g id="node7" class="node"><title>Node7</title>
<g id="a_node7"><a xlink:href="keymap_8h.html#aca314ae9ad06348477629e6bc0bd28fc" target="_top" xlink:title="Determine what a keypress should do. ">
<polygon fill="white" stroke="red" points="290,-152.5 290,-171.5 352,-171.5 352,-152.5 290,-152.5"/>
<text text-anchor="middle" x="321" y="-159.5" font-family="Helvetica,sans-Serif" font-size="10.00">km_dokey</text>
</a>
</g>
</g>
<!-- Node1&#45;&gt;Node7 -->
<g id="edge20" class="edge"><title>Node1&#45;&gt;Node7</title>
<path fill="none" stroke="midnightblue" d="M58.5814,-181.557C71.6518,-158.655 97.453,-120.692 132,-105 170.847,-87.355 186.964,-93.3179 228,-105 260.528,-114.26 292.797,-138.678 309.09,-152.36"/>
<polygon fill="midnightblue" stroke="midnightblue" points="55.5042,-179.89 53.7709,-190.342 61.6439,-183.252 55.5042,-179.89"/>
</g>
<!-- Node8 -->
<g id="node8" class="node"><title>Node8</title>
<g id="a_node8"><a xlink:href="keymap_8c.html#ac8fef36efbe59f02426d3f6883e20772" target="_top" xlink:title="Try to find the key in the generic menu bindings. ">
<polygon fill="white" stroke="black" points="436.5,-152.5 436.5,-171.5 509.5,-171.5 509.5,-152.5 436.5,-152.5"/>
<text text-anchor="middle" x="473" y="-159.5" font-family="Helvetica,sans-Serif" font-size="10.00">retry_generic</text>
</a>
</g>
</g>
<!-- Node1&#45;&gt;Node8 -->
<g id="edge19" class="edge"><title>Node1&#45;&gt;Node8</title>
<path fill="none" stroke="midnightblue" d="M56.7396,-181.02C68.5529,-154.921 93.8137,-109.024 132,-90 247.843,-32.2886 408.259,-121.837 457.225,-152.387"/>
<polygon fill="midnightblue" stroke="midnightblue" points="53.5016,-179.69 52.7473,-190.258 59.9272,-182.467 53.5016,-179.69"/>
</g>
<!-- Node9 -->
<g id="node9" class="node"><title>Node9</title>
<g id="a_node9"><a xlink:href="keymap_8h.html#af6e5b850fe3902dc8378f9e1b4b5a457" target="_top" xlink:title="Handle an unbound key sequence. ">
<polygon fill="white" stroke="red" points="435,-228.5 435,-247.5 511,-247.5 511,-228.5 435,-228.5"/>
<text text-anchor="middle" x="473" y="-235.5" font-family="Helvetica,sans-Serif" font-size="10.00">km_error_key</text>
</a>
</g>
</g>
<!-- Node1&#45;&gt;Node9 -->
<g id="edge21" class="edge"><title>Node1&#45;&gt;Node9</title>
<path fill="none" stroke="midnightblue" d="M94.5813,-211.892C106.67,-214.644 119.764,-217.27 132,-219 241.319,-234.454 372.078,-237.472 434.82,-237.974"/>
<polygon fill="midnightblue" stroke="midnightblue" points="95.2407,-208.452 84.7048,-209.567 93.6367,-215.265 95.2407,-208.452"/>
</g>
<!-- Node10 -->
<g id="node10" class="node"><title>Node10</title>
<g id="a_node10"><a xlink:href="menu_8c.html#a344bdf02720f1c18c2e5ff5285e79424" target="_top" xlink:title="Check if there are any menu key events to process. ">
<polygon fill="white" stroke="red" points="269.5,-190.5 269.5,-209.5 372.5,-209.5 372.5,-190.5 269.5,-190.5"/>
<text text-anchor="middle" x="321" y="-197.5" font-family="Helvetica,sans-Serif" font-size="10.00">menu_dialog_dokey</text>
</a>
</g>
</g>
<!-- Node1&#45;&gt;Node10 -->
<g id="edge23" class="edge"><title>Node1&#45;&gt;Node10</title>
<path fill="none" stroke="midnightblue" d="M92.4581,-188.116C105.109,-185.185 119.019,-182.467 132,-181 174.397,-176.209 185.554,-176.663 228,-181 246.172,-182.857 266.053,-186.726 282.669,-190.491"/>
<polygon fill="midnightblue" stroke="midnightblue" points="91.5226,-184.742 82.6245,-190.493 93.1669,-191.546 91.5226,-184.742"/>
</g>
<!-- Node11 -->
<g id="node11" class="node"><title>Node11</title>
<g id="a_node11"><a xlink:href="curs__lib_8h.html#ac848a8289e998ff0eacf09e15414ca3f" target="_top" xlink:title="Return a string to the input buffer. ">
<polygon fill="white" stroke="black" points="132.5,-114.5 132.5,-133.5 227.5,-133.5 227.5,-114.5 132.5,-114.5"/>
<text text-anchor="middle" x="180" y="-121.5" font-family="Helvetica,sans-Serif" font-size="10.00">mutt_unget_string</text>
</a>
</g>
</g>
<!-- Node1&#45;&gt;Node11 -->
<g id="edge16" class="edge"><title>Node1&#45;&gt;Node11</title>
<path fill="none" stroke="midnightblue" d="M71.904,-184.894C88.3905,-174.208 111.283,-159.749 132,-148 140.767,-143.028 150.677,-137.898 159.13,-133.663"/>
<polygon fill="midnightblue" stroke="midnightblue" points="69.923,-182.007 63.4584,-190.401 73.7466,-187.87 69.923,-182.007"/>
</g>
<!-- Node12 -->
<g id="node12" class="node"><title>Node12</title>
<g id="a_node12"><a xlink:href="menu_8c.html#a0e8d3dd05e8b9a6dcc0dd98f89568e1e" target="_top" xlink:title="Jump to another item in the menu. ">
<polygon fill="white" stroke="red" points="146.5,-0.5 146.5,-19.5 213.5,-19.5 213.5,-0.5 146.5,-0.5"/>
<text text-anchor="middle" x="180" y="-7.5" font-family="Helvetica,sans-Serif" font-size="10.00">menu_jump</text>
</a>
</g>
</g>
<!-- Node1&#45;&gt;Node12 -->
<g id="edge22" class="edge"><title>Node1&#45;&gt;Node12</title>
<path fill="none" stroke="midnightblue" d="M54.4662,-180.068C64.6386,-146.209 89.3998,-76.9628 132,-34 137.935,-28.0146 145.674,-23.2316 153.154,-19.5597"/>
<polygon fill="midnightblue" stroke="midnightblue" points="50.9798,-179.526 51.571,-190.104 57.7056,-181.466 50.9798,-179.526"/>
</g>
<!-- Node2&#45;&gt;Node3 -->
<g id="edge2" class="edge"><title>Node2&#45;&gt;Node3</title>
<path fill="none" stroke="midnightblue" d="M225.795,-377.754C244.955,-372.516 266.994,-366.491 284.936,-361.586"/>
<polygon fill="midnightblue" stroke="midnightblue" points="224.799,-374.398 216.076,-380.411 226.645,-381.15 224.799,-374.398"/>
</g>
<!-- Node4&#45;&gt;Node5 -->
<g id="edge4" class="edge"><title>Node4&#45;&gt;Node5</title>
<path fill="none" stroke="midnightblue" d="M541.719,-266.81C550.593,-265.605 559.516,-264.394 567.916,-263.254"/>
<polygon fill="midnightblue" stroke="midnightblue" points="541.19,-263.349 531.752,-268.162 542.132,-270.286 541.19,-263.349"/>
</g>
<!-- Node6&#45;&gt;Node3 -->
<g id="edge6" class="edge"><title>Node6&#45;&gt;Node3</title>
<path fill="none" stroke="midnightblue" d="M196.73,-217.201C226.105,-249.324 288.397,-317.442 311.308,-342.495"/>
<polygon fill="midnightblue" stroke="midnightblue" points="199.026,-214.526 189.695,-209.508 193.861,-219.25 199.026,-214.526"/>
</g>
<!-- Node6&#45;&gt;Node7 -->
<g id="edge7" class="edge"><title>Node6&#45;&gt;Node7</title>
<path fill="none" stroke="midnightblue" d="M222.413,-188.679C243.963,-182.787 269.846,-175.711 289.539,-170.328"/>
<polygon fill="midnightblue" stroke="midnightblue" points="221.264,-185.364 212.541,-191.377 223.11,-192.116 221.264,-185.364"/>
</g>
<!-- Node6&#45;&gt;Node10 -->
<g id="edge14" class="edge"><title>Node6&#45;&gt;Node10</title>
<path fill="none" stroke="midnightblue" d="M222.789,-200C237.4,-200 253.966,-200 269.229,-200"/>
<polygon fill="midnightblue" stroke="midnightblue" points="222.541,-196.5 212.541,-200 222.541,-203.5 222.541,-196.5"/>
</g>
<!-- Node7&#45;&gt;Node4 -->
<g id="edge8" class="edge"><title>Node7&#45;&gt;Node4</title>
<path fill="none" stroke="midnightblue" d="M361.639,-170.941C367.57,-173.501 373.271,-176.787 378,-181 405.907,-205.862 385.962,-232.285 414,-257 418.372,-260.854 423.542,-263.928 428.966,-266.381"/>
<polygon fill="midnightblue" stroke="midnightblue" points="362.831,-167.65 352.237,-167.484 360.415,-174.22 362.831,-167.65"/>
</g>
<!-- Node7&#45;&gt;Node5 -->
<g id="edge9" class="edge"><title>Node7&#45;&gt;Node5</title>
<path fill="none" stroke="midnightblue" d="M362.057,-170.744C404.781,-180.56 474.126,-197.907 532,-219 554.555,-227.22 579.44,-239.188 595.813,-247.488"/>
<polygon fill="midnightblue" stroke="midnightblue" points="362.58,-167.273 352.054,-168.471 361.03,-174.099 362.58,-167.273"/>
</g>
<!-- Node7&#45;&gt;Node8 -->
<g id="edge10" class="edge"><title>Node7&#45;&gt;Node8</title>
<path fill="none" stroke="midnightblue" d="M362.519,-155.929C385.588,-154.953 414.22,-155.029 436.416,-156.158"/>
<polygon fill="midnightblue" stroke="midnightblue" points="362.162,-152.442 352.355,-156.451 362.521,-159.433 362.162,-152.442"/>
</g>
<!-- Node7&#45;&gt;Node9 -->
<g id="edge12" class="edge"><title>Node7&#45;&gt;Node9</title>
<path fill="none" stroke="midnightblue" d="M361.585,-173.112C367.267,-175.364 372.906,-177.985 378,-181 396.677,-192.057 395.693,-202.339 414,-214 423.008,-219.737 433.618,-224.599 443.285,-228.415"/>
<polygon fill="midnightblue" stroke="midnightblue" points="362.667,-169.782 352.073,-169.669 360.284,-176.364 362.667,-169.782"/>
</g>
<!-- Node8&#45;&gt;Node7 -->
<g id="edge11" class="edge"><title>Node8&#45;&gt;Node7</title>
<path fill="none" stroke="midnightblue" d="M426.131,-168.275C402.178,-169.095 373.533,-168.853 352.355,-167.549"/>
<polygon fill="midnightblue" stroke="midnightblue" points="426.573,-171.76 436.416,-167.842 426.278,-164.766 426.573,-171.76"/>
</g>
<!-- Node9&#45;&gt;Node5 -->
<g id="edge13" class="edge"><title>Node9&#45;&gt;Node5</title>
<path fill="none" stroke="midnightblue" d="M521.277,-244.416C536.325,-246.458 552.945,-248.714 567.908,-250.745"/>
<polygon fill="midnightblue" stroke="midnightblue" points="521.53,-240.918 511.15,-243.042 520.588,-247.855 521.53,-240.918"/>
</g>
<!-- Node11&#45;&gt;Node7 -->
<g id="edge17" class="edge"><title>Node11&#45;&gt;Node7</title>
<path fill="none" stroke="midnightblue" d="M225.993,-136.3C246.825,-141.995 271.027,-148.612 289.657,-153.705"/>
<polygon fill="midnightblue" stroke="midnightblue" points="226.645,-132.85 216.076,-133.589 224.799,-139.602 226.645,-132.85"/>
</g>
</g>
</svg>
