<?xml version="1.0" encoding="UTF-8" standalone="no"?>
<!DOCTYPE svg PUBLIC "-//W3C//DTD SVG 1.1//EN"
 "http://www.w3.org/Graphics/SVG/1.1/DTD/svg11.dtd">
<!-- Generated by graphviz version 2.36.0 (20140111.2315)
 -->
<!-- Title: mutt_multi_choice Pages: 1 -->
<svg width="270pt" height="218pt"
 viewBox="0.00 0.00 270.00 218.00" xmlns="http://www.w3.org/2000/svg" xmlns:xlink="http://www.w3.org/1999/xlink">
<g id="graph0" class="graph" transform="scale(1 1) rotate(0) translate(4 214)">
<title>mutt_multi_choice</title>
<polygon fill="white" stroke="none" points="-4,4 -4,-214 266,-214 266,4 -4,4"/>
<!-- Node1 -->
<g id="node1" class="node"><title>Node1</title>
<polygon fill="#bfbfbf" stroke="black" points="0,-95.5 0,-114.5 96,-114.5 96,-95.5 0,-95.5"/>
<text text-anchor="middle" x="48" y="-102.5" font-family="Helvetica,sans-Serif" font-size="10.00">mutt_multi_choice</text>
</g>
<!-- Node2 -->
<g id="node2" class="node"><title>Node2</title>
<g id="a_node2"><a xlink:href="browser_8h.html#ab036990112b8014c0b84c401e77f96d3" target="_top" xlink:title="Let the user select a file. ">
<polygon fill="white" stroke="red" points="154,-190.5 154,-209.5 240,-209.5 240,-190.5 154,-190.5"/>
<text text-anchor="middle" x="197" y="-197.5" font-family="Helvetica,sans-Serif" font-size="10.00">mutt_select_file</text>
</a>
</g>
</g>
<!-- Node1&#45;&gt;Node2 -->
<g id="edge1" class="edge"><title>Node1&#45;&gt;Node2</title>
<path fill="none" stroke="midnightblue" d="M63.5818,-122.325C78.9484,-139.538 104.674,-165.535 132,-181 138.758,-184.825 146.363,-187.949 153.908,-190.477"/>
<polygon fill="midnightblue" stroke="midnightblue" points="66.1167,-119.906 56.9088,-114.665 60.8387,-124.504 66.1167,-119.906"/>
</g>
<!-- Node3 -->
<g id="node3" class="node"><title>Node3</title>
<g id="a_node3"><a xlink:href="commands_8h.html#aa401d1f464e86b0914af3b111bae8c31" target="_top" xlink:title="Ask the user for a sort method. ">
<polygon fill="white" stroke="red" points="152.5,-152.5 152.5,-171.5 241.5,-171.5 241.5,-152.5 152.5,-152.5"/>
<text text-anchor="middle" x="197" y="-159.5" font-family="Helvetica,sans-Serif" font-size="10.00">mutt_select_sort</text>
</a>
</g>
</g>
<!-- Node1&#45;&gt;Node3 -->
<g id="edge2" class="edge"><title>Node1&#45;&gt;Node3</title>
<path fill="none" stroke="midnightblue" d="M77.0564,-119.041C92.9459,-126.688 113.323,-135.992 132,-143 141.115,-146.42 151.139,-149.642 160.494,-152.426"/>
<polygon fill="midnightblue" stroke="midnightblue" points="78.3208,-115.764 67.7982,-114.529 75.254,-122.056 78.3208,-115.764"/>
</g>
<!-- Node4 -->
<g id="node4" class="node"><title>Node4</title>
<g id="a_node4"><a xlink:href="muttlib_8h.html#afd093174cd5963b6dca62e043fcffaae" target="_top" xlink:title="Ask the user if overwriting is necessary. ">
<polygon fill="white" stroke="red" points="140.5,-114.5 140.5,-133.5 253.5,-133.5 253.5,-114.5 140.5,-114.5"/>
<text text-anchor="middle" x="197" y="-121.5" font-family="Helvetica,sans-Serif" font-size="10.00">mutt_check_overwrite</text>
</a>
</g>
</g>
<!-- Node1&#45;&gt;Node4 -->
<g id="edge3" class="edge"><title>Node1&#45;&gt;Node4</title>
<path fill="none" stroke="midnightblue" d="M106.386,-112.417C117.539,-113.859 129.212,-115.368 140.309,-116.802"/>
<polygon fill="midnightblue" stroke="midnightblue" points="106.687,-108.927 96.3209,-111.116 105.79,-115.869 106.687,-108.927"/>
</g>
<!-- Node5 -->
<g id="node5" class="node"><title>Node5</title>
<g id="a_node5"><a xlink:href="crypt__gpgme_8c.html#a8b575f75d1ff262dea594e65a309a33c" target="_top" xlink:title="Show the user the encryption/signing menu. ">
<polygon fill="white" stroke="red" points="146.5,-76.5 146.5,-95.5 247.5,-95.5 247.5,-76.5 146.5,-76.5"/>
<text text-anchor="middle" x="197" y="-83.5" font-family="Helvetica,sans-Serif" font-size="10.00">gpgme_send_menu</text>
</a>
</g>
</g>
<!-- Node1&#45;&gt;Node5 -->
<g id="edge4" class="edge"><title>Node1&#45;&gt;Node5</title>
<path fill="none" stroke="midnightblue" d="M106.296,-97.5944C119.569,-95.8789 133.584,-94.0674 146.49,-92.3992"/>
<polygon fill="midnightblue" stroke="midnightblue" points="105.79,-94.1306 96.3209,-98.8837 106.687,-101.073 105.79,-94.1306"/>
</g>
<!-- Node6 -->
<g id="node6" class="node"><title>Node6</title>
<g id="a_node6"><a xlink:href="pgp_8h.html#a5fd1e55c937bc3031ba941de0d62d319" target="_top" xlink:title="Implements CryptModuleSpecs::send_menu() ">
<polygon fill="white" stroke="black" points="139,-38.5 139,-57.5 255,-57.5 255,-38.5 139,-38.5"/>
<text text-anchor="middle" x="197" y="-45.5" font-family="Helvetica,sans-Serif" font-size="10.00">pgp_class_send_menu</text>
</a>
</g>
</g>
<!-- Node1&#45;&gt;Node6 -->
<g id="edge5" class="edge"><title>Node1&#45;&gt;Node6</title>
<path fill="none" stroke="midnightblue" d="M77.0564,-90.959C92.9459,-83.3117 113.323,-74.0082 132,-67 141.115,-63.5797 151.139,-60.3583 160.494,-57.5735"/>
<polygon fill="midnightblue" stroke="midnightblue" points="75.254,-87.9438 67.7982,-95.4712 78.3208,-94.2363 75.254,-87.9438"/>
</g>
<!-- Node7 -->
<g id="node7" class="node"><title>Node7</title>
<g id="a_node7"><a xlink:href="smime_8h.html#a5d8150aea2012e3072717d80cc4a965b" target="_top" xlink:title="Implements CryptModuleSpecs::send_menu() ">
<polygon fill="white" stroke="black" points="132,-0.5 132,-19.5 262,-19.5 262,-0.5 132,-0.5"/>
<text text-anchor="middle" x="197" y="-7.5" font-family="Helvetica,sans-Serif" font-size="10.00">smime_class_send_menu</text>
</a>
</g>
</g>
<!-- Node1&#45;&gt;Node7 -->
<g id="edge6" class="edge"><title>Node1&#45;&gt;Node7</title>
<path fill="none" stroke="midnightblue" d="M63.5818,-87.6751C78.9484,-70.4625 104.674,-44.4645 132,-29 138.758,-25.1752 146.363,-22.051 153.908,-19.5227"/>
<polygon fill="midnightblue" stroke="midnightblue" points="60.8387,-85.4956 56.9088,-95.3346 66.1167,-90.0938 60.8387,-85.4956"/>
</g>
</g>
</svg>
