<?xml version="1.0" encoding="UTF-8" standalone="no"?>
<!DOCTYPE svg PUBLIC "-//W3C//DTD SVG 1.1//EN"
 "http://www.w3.org/Graphics/SVG/1.1/DTD/svg11.dtd">
<!-- Generated by graphviz version 2.36.0 (20140111.2315)
 -->
<!-- Title: collapse_all Pages: 1 -->
<svg width="346pt" height="47pt"
 viewBox="0.00 0.00 346.00 47.00" xmlns="http://www.w3.org/2000/svg" xmlns:xlink="http://www.w3.org/1999/xlink">
<g id="graph0" class="graph" transform="scale(1 1) rotate(0) translate(4 43)">
<title>collapse_all</title>
<polygon fill="white" stroke="none" points="-4,4 -4,-43 342,-43 342,4 -4,4"/>
<!-- Node1 -->
<g id="node1" class="node"><title>Node1</title>
<polygon fill="#bfbfbf" stroke="black" points="0,-0.5 0,-19.5 68,-19.5 68,-0.5 0,-0.5"/>
<text text-anchor="middle" x="34" y="-7.5" font-family="Helvetica,sans-Serif" font-size="10.00">collapse_all</text>
</g>
<!-- Node2 -->
<g id="node2" class="node"><title>Node2</title>
<g id="a_node2"><a xlink:href="curs__main_8c.html#a844b442c9ee0ab05978a40172e08e468" target="_top" xlink:title="Change to a different mailbox. ">
<polygon fill="white" stroke="black" points="104,-19.5 104,-38.5 208,-38.5 208,-19.5 104,-19.5"/>
<text text-anchor="middle" x="156" y="-26.5" font-family="Helvetica,sans-Serif" font-size="10.00">main_change_folder</text>
</a>
</g>
</g>
<!-- Node1&#45;&gt;Node2 -->
<g id="edge1" class="edge"><title>Node1&#45;&gt;Node2</title>
<path fill="none" stroke="midnightblue" d="M78.2178,-16.8428C86.4327,-18.1435 95.1039,-19.5164 103.545,-20.8529"/>
<polygon fill="midnightblue" stroke="midnightblue" points="78.5325,-13.3491 68.1082,-15.2421 77.4378,-20.263 78.5325,-13.3491"/>
</g>
<!-- Node3 -->
<g id="node3" class="node"><title>Node3</title>
<g id="a_node3"><a xlink:href="curs__main_8h.html#af7d9d8649ad205788c9af1bbf871207f" target="_top" xlink:title="Display a list of emails. ">
<polygon fill="white" stroke="red" points="244,-0.5 244,-19.5 338,-19.5 338,-0.5 244,-0.5"/>
<text text-anchor="middle" x="291" y="-7.5" font-family="Helvetica,sans-Serif" font-size="10.00">mutt_index_menu</text>
</a>
</g>
</g>
<!-- Node1&#45;&gt;Node3 -->
<g id="edge3" class="edge"><title>Node1&#45;&gt;Node3</title>
<path fill="none" stroke="midnightblue" d="M78.3034,-10C124.229,-10 196.513,-10 243.588,-10"/>
<polygon fill="midnightblue" stroke="midnightblue" points="78.0754,-6.5001 68.0754,-10 78.0753,-13.5001 78.0754,-6.5001"/>
</g>
<!-- Node2&#45;&gt;Node3 -->
<g id="edge2" class="edge"><title>Node2&#45;&gt;Node3</title>
<path fill="none" stroke="midnightblue" d="M218.056,-20.2777C226.666,-19.0477 235.398,-17.8003 243.67,-16.6186"/>
<polygon fill="midnightblue" stroke="midnightblue" points="217.445,-16.8293 208.041,-21.7084 218.435,-23.759 217.445,-16.8293"/>
</g>
</g>
</svg>
