<?xml version="1.0" encoding="UTF-8" standalone="no"?>
<!DOCTYPE svg PUBLIC "-//W3C//DTD SVG 1.1//EN"
 "http://www.w3.org/Graphics/SVG/1.1/DTD/svg11.dtd">
<!-- Generated by graphviz version 2.36.0 (20140111.2315)
 -->
<!-- Title: mutt_need_hard_redraw Pages: 1 -->
<svg width="280pt" height="154pt"
 viewBox="0.00 0.00 280.00 154.00" xmlns="http://www.w3.org/2000/svg" xmlns:xlink="http://www.w3.org/1999/xlink">
<g id="graph0" class="graph" transform="scale(1 1) rotate(0) translate(4 150)">
<title>mutt_need_hard_redraw</title>
<polygon fill="white" stroke="none" points="-4,4 -4,-150 276,-150 276,4 -4,4"/>
<!-- Node1 -->
<g id="node1" class="node"><title>Node1</title>
<polygon fill="#bfbfbf" stroke="black" points="0.5,-60.5 0.5,-79.5 121.5,-79.5 121.5,-60.5 0.5,-60.5"/>
<text text-anchor="middle" x="61" y="-67.5" font-family="Helvetica,sans-Serif" font-size="10.00">mutt_need_hard_redraw</text>
</g>
<!-- Node2 -->
<g id="node2" class="node"><title>Node2</title>
<g id="a_node2"><a xlink:href="crypt__gpgme_8c.html#acde3260a9e30d9ffd4fa5a62f19620a9" target="_top" xlink:title="accommodate for a redraw if needed ">
<polygon fill="white" stroke="red" points="168.5,-126.5 168.5,-145.5 261.5,-145.5 261.5,-126.5 168.5,-126.5"/>
<text text-anchor="middle" x="215" y="-133.5" font-family="Helvetica,sans-Serif" font-size="10.00">redraw_if_needed</text>
</a>
</g>
</g>
<!-- Node1&#45;&gt;Node2 -->
<g id="edge1" class="edge"><title>Node1&#45;&gt;Node2</title>
<path fill="none" stroke="midnightblue" d="M89.4933,-84.1116C108.504,-93.6361 134.505,-106.207 158,-116 166.862,-119.694 176.676,-123.343 185.58,-126.493"/>
<polygon fill="midnightblue" stroke="midnightblue" points="91.0067,-80.955 80.5024,-79.573 87.8522,-87.2039 91.0067,-80.955"/>
</g>
<!-- Node3 -->
<g id="node3" class="node"><title>Node3</title>
<g id="a_node3"><a xlink:href="pgp_8h.html#aa55c76c8d08b0720d97cdb6360440f78" target="_top" xlink:title="Implements CryptModuleSpecs::application_handler() ">
<polygon fill="white" stroke="black" points="158.5,-77 158.5,-107 271.5,-107 271.5,-77 158.5,-77"/>
<text text-anchor="start" x="166.5" y="-95" font-family="Helvetica,sans-Serif" font-size="10.00">pgp_class_application</text>
<text text-anchor="middle" x="215" y="-84" font-family="Helvetica,sans-Serif" font-size="10.00">_handler</text>
</a>
</g>
</g>
<!-- Node1&#45;&gt;Node3 -->
<g id="edge2" class="edge"><title>Node1&#45;&gt;Node3</title>
<path fill="none" stroke="midnightblue" d="M131.565,-80.0685C140.424,-81.3508 149.4,-82.65 158.008,-83.8959"/>
<polygon fill="midnightblue" stroke="midnightblue" points="132.036,-76.6005 121.638,-78.6318 131.034,-83.5283 132.036,-76.6005"/>
</g>
<!-- Node4 -->
<g id="node4" class="node"><title>Node4</title>
<g id="a_node4"><a xlink:href="pgp_8c.html#a031ea9dee21fd00cd1aa6fb404f005d2" target="_top" xlink:title="Decrypt part of a PGP message. ">
<polygon fill="white" stroke="red" points="169,-38.5 169,-57.5 261,-57.5 261,-38.5 169,-38.5"/>
<text text-anchor="middle" x="215" y="-45.5" font-family="Helvetica,sans-Serif" font-size="10.00">pgp_decrypt_part</text>
</a>
</g>
</g>
<!-- Node1&#45;&gt;Node4 -->
<g id="edge3" class="edge"><title>Node1&#45;&gt;Node4</title>
<path fill="none" stroke="midnightblue" d="M131.636,-59.9211C144.198,-58.103 156.993,-56.251 168.636,-54.5658"/>
<polygon fill="midnightblue" stroke="midnightblue" points="131.034,-56.4717 121.638,-61.3682 132.036,-63.3995 131.034,-56.4717"/>
</g>
<!-- Node5 -->
<g id="node5" class="node"><title>Node5</title>
<g id="a_node5"><a xlink:href="sendlib_8h.html#ab4c0786d3bd0279716711f0b89bdb316" target="_top" xlink:title="Run sendmail. ">
<polygon fill="white" stroke="red" points="158,-0.5 158,-19.5 272,-19.5 272,-0.5 158,-0.5"/>
<text text-anchor="middle" x="215" y="-7.5" font-family="Helvetica,sans-Serif" font-size="10.00">mutt_invoke_sendmail</text>
</a>
</g>
</g>
<!-- Node1&#45;&gt;Node5 -->
<g id="edge4" class="edge"><title>Node1&#45;&gt;Node5</title>
<path fill="none" stroke="midnightblue" d="M92.3923,-56.3144C111.155,-48.0424 135.802,-37.4916 158,-29 166.534,-25.7353 175.903,-22.4442 184.494,-19.5396"/>
<polygon fill="midnightblue" stroke="midnightblue" points="90.883,-53.1549 83.1614,-60.4093 93.7216,-59.5535 90.883,-53.1549"/>
</g>
</g>
</svg>
