<?xml version="1.0" encoding="UTF-8" standalone="no"?>
<!DOCTYPE svg PUBLIC "-//W3C//DTD SVG 1.1//EN"
 "http://www.w3.org/Graphics/SVG/1.1/DTD/svg11.dtd">
<!-- Generated by graphviz version 2.36.0 (20140111.2315)
 -->
<!-- Title: mutt_flush_unget_to_endcond Pages: 1 -->
<svg width="226pt" height="38pt"
 viewBox="0.00 0.00 226.00 38.00" xmlns="http://www.w3.org/2000/svg" xmlns:xlink="http://www.w3.org/1999/xlink">
<g id="graph0" class="graph" transform="scale(1 1) rotate(0) translate(4 34)">
<title>mutt_flush_unget_to_endcond</title>
<polygon fill="white" stroke="none" points="-4,4 -4,-34 222,-34 222,4 -4,4"/>
<!-- Node1 -->
<g id="node1" class="node"><title>Node1</title>
<polygon fill="#bfbfbf" stroke="black" points="0.5,-0 0.5,-30 105.5,-30 105.5,-0 0.5,-0"/>
<text text-anchor="start" x="8.5" y="-18" font-family="Helvetica,sans-Serif" font-size="10.00">mutt_flush_unget_to</text>
<text text-anchor="middle" x="53" y="-7" font-family="Helvetica,sans-Serif" font-size="10.00">_endcond</text>
</g>
<!-- Node2 -->
<g id="node2" class="node"><title>Node2</title>
<g id="a_node2"><a xlink:href="keymap_8h.html#af6e5b850fe3902dc8378f9e1b4b5a457" target="_top" xlink:title="Handle an unbound key sequence. ">
<polygon fill="white" stroke="red" points="142,-5.5 142,-24.5 218,-24.5 218,-5.5 142,-5.5"/>
<text text-anchor="middle" x="180" y="-12.5" font-family="Helvetica,sans-Serif" font-size="10.00">km_error_key</text>
</a>
</g>
</g>
<!-- Node1&#45;&gt;Node2 -->
<g id="edge1" class="edge"><title>Node1&#45;&gt;Node2</title>
<path fill="none" stroke="midnightblue" d="M115.582,-15C124.499,-15 133.441,-15 141.681,-15"/>
<polygon fill="midnightblue" stroke="midnightblue" points="115.564,-11.5001 105.564,-15 115.564,-18.5001 115.564,-11.5001"/>
</g>
</g>
</svg>
