<?xml version="1.0" encoding="UTF-8" standalone="no"?>
<!DOCTYPE svg PUBLIC "-//W3C//DTD SVG 1.1//EN"
 "http://www.w3.org/Graphics/SVG/1.1/DTD/svg11.dtd">
<!-- Generated by graphviz version 2.36.0 (20140111.2315)
 -->
<!-- Title: mutt_edit_file Pages: 1 -->
<svg width="230pt" height="154pt"
 viewBox="0.00 0.00 230.00 154.00" xmlns="http://www.w3.org/2000/svg" xmlns:xlink="http://www.w3.org/1999/xlink">
<g id="graph0" class="graph" transform="scale(1 1) rotate(0) translate(4 150)">
<title>mutt_edit_file</title>
<polygon fill="white" stroke="none" points="-4,4 -4,-150 226,-150 226,4 -4,4"/>
<!-- Node1 -->
<g id="node1" class="node"><title>Node1</title>
<polygon fill="#bfbfbf" stroke="black" points="0.5,-60.5 0.5,-79.5 75.5,-79.5 75.5,-60.5 0.5,-60.5"/>
<text text-anchor="middle" x="38" y="-67.5" font-family="Helvetica,sans-Serif" font-size="10.00">mutt_edit_file</text>
</g>
<!-- Node2 -->
<g id="node2" class="node"><title>Node2</title>
<g id="a_node2"><a xlink:href="curs__lib_8c.html#acd14d074d8b9e6cb21e851dd573cdec2" target="_top" xlink:title="Shutdown curses/slang. ">
<polygon fill="white" stroke="red" points="131,-126.5 131,-145.5 203,-145.5 203,-126.5 131,-126.5"/>
<text text-anchor="middle" x="167" y="-133.5" font-family="Helvetica,sans-Serif" font-size="10.00">mutt_endwin</text>
</a>
</g>
</g>
<!-- Node1&#45;&gt;Node2 -->
<g id="edge1" class="edge"><title>Node1&#45;&gt;Node2</title>
<path fill="none" stroke="midnightblue" d="M52.2336,-79.5228C66.4966,-89.4991 90.1045,-105.193 112,-116 116.931,-118.434 122.235,-120.745 127.525,-122.874"/>
<polygon fill="midnightblue" stroke="midnightblue" points="126.358,-126.175 136.948,-126.496 128.87,-119.641 126.358,-126.175"/>
</g>
<!-- Node3 -->
<g id="node3" class="node"><title>Node3</title>
<g id="a_node3"><a xlink:href="file_8c.html#a8c1018a1e125f626710ba3679eb187fc" target="_top" xlink:title="Replace s in a string with a filename. ">
<polygon fill="white" stroke="red" points="112,-77 112,-107 222,-107 222,-77 112,-77"/>
<text text-anchor="start" x="120" y="-95" font-family="Helvetica,sans-Serif" font-size="10.00">mutt_file_expand_fmt</text>
<text text-anchor="middle" x="167" y="-84" font-family="Helvetica,sans-Serif" font-size="10.00">_quote</text>
</a>
</g>
</g>
<!-- Node1&#45;&gt;Node3 -->
<g id="edge2" class="edge"><title>Node1&#45;&gt;Node3</title>
<path fill="none" stroke="midnightblue" d="M75.7337,-76.3633C83.9305,-77.7832 92.8557,-79.3293 101.799,-80.8786"/>
<polygon fill="midnightblue" stroke="midnightblue" points="101.417,-84.3644 111.867,-82.6227 102.611,-77.4671 101.417,-84.3644"/>
</g>
<!-- Node4 -->
<g id="node4" class="node"><title>Node4</title>
<g id="a_node4"><a xlink:href="protos_8h.html#aa1d4ad04b000036513ca3f741059942c" target="_top" xlink:title="Run an external command. ">
<polygon fill="white" stroke="red" points="130,-38.5 130,-57.5 204,-57.5 204,-38.5 130,-38.5"/>
<text text-anchor="middle" x="167" y="-45.5" font-family="Helvetica,sans-Serif" font-size="10.00">mutt_system</text>
</a>
</g>
</g>
<!-- Node1&#45;&gt;Node4 -->
<g id="edge3" class="edge"><title>Node1&#45;&gt;Node4</title>
<path fill="none" stroke="midnightblue" d="M75.7337,-63.6367C89.41,-61.2676 105.114,-58.5472 119.548,-56.0467"/>
<polygon fill="midnightblue" stroke="midnightblue" points="120.532,-59.4286 129.787,-54.273 119.337,-52.5313 120.532,-59.4286"/>
</g>
<!-- Node5 -->
<g id="node5" class="node"><title>Node5</title>
<g id="a_node5"><a xlink:href="mutt__curses_8h.html#a1f18053a2fadd1f5c2f45382e3165dcb" target="_top" xlink:title="Update NeoMutt&#39;s opinion about the window size (CURSES) ">
<polygon fill="white" stroke="red" points="116,-0.5 116,-19.5 218,-19.5 218,-0.5 116,-0.5"/>
<text text-anchor="middle" x="167" y="-7.5" font-family="Helvetica,sans-Serif" font-size="10.00">mutt_resize_screen</text>
</a>
</g>
</g>
<!-- Node1&#45;&gt;Node5 -->
<g id="edge4" class="edge"><title>Node1&#45;&gt;Node5</title>
<path fill="none" stroke="midnightblue" d="M54.2579,-60.3995C68.7531,-51.5298 91.3418,-38.3503 112,-29 116.635,-26.9023 121.575,-24.8838 126.513,-22.9968"/>
<polygon fill="midnightblue" stroke="midnightblue" points="127.743,-26.2736 135.926,-19.5436 125.333,-19.7018 127.743,-26.2736"/>
</g>
</g>
</svg>
