<?xml version="1.0" encoding="UTF-8" standalone="no"?>
<!DOCTYPE svg PUBLIC "-//W3C//DTD SVG 1.1//EN"
 "http://www.w3.org/Graphics/SVG/1.1/DTD/svg11.dtd">
<!-- Generated by graphviz version 2.36.0 (20140111.2315)
 -->
<!-- Title: mutt_date_local_tz Pages: 1 -->
<svg width="418pt" height="164pt"
 viewBox="0.00 0.00 418.00 163.75" xmlns="http://www.w3.org/2000/svg" xmlns:xlink="http://www.w3.org/1999/xlink">
<g id="graph0" class="graph" transform="scale(1 1) rotate(0) translate(4 159.746)">
<title>mutt_date_local_tz</title>
<polygon fill="white" stroke="none" points="-4,4 -4,-159.746 414,-159.746 414,4 -4,4"/>
<!-- Node1 -->
<g id="node1" class="node"><title>Node1</title>
<polygon fill="#bfbfbf" stroke="black" points="0.5,-76.5 0.5,-95.5 99.5,-95.5 99.5,-76.5 0.5,-76.5"/>
<text text-anchor="middle" x="50" y="-83.5" font-family="Helvetica,sans-Serif" font-size="10.00">mutt_date_local_tz</text>
</g>
<!-- Node2 -->
<g id="node2" class="node"><title>Node2</title>
<g id="a_node2"><a xlink:href="parse_8h.html#ae50079838fa2a151db9ecfb0a149aaea" target="_top" xlink:title="parses an RFC822 header ">
<polygon fill="white" stroke="red" points="136.5,-114.5 136.5,-133.5 263.5,-133.5 263.5,-114.5 136.5,-114.5"/>
<text text-anchor="middle" x="200" y="-121.5" font-family="Helvetica,sans-Serif" font-size="10.00">mutt_rfc822_read_header</text>
</a>
</g>
</g>
<!-- Node1&#45;&gt;Node2 -->
<g id="edge1" class="edge"><title>Node1&#45;&gt;Node2</title>
<path fill="none" stroke="midnightblue" d="M98.1735,-98.1121C118.786,-103.404 142.609,-109.521 161.922,-114.48"/>
<polygon fill="midnightblue" stroke="midnightblue" points="98.9029,-94.6859 88.3466,-95.589 97.162,-101.466 98.9029,-94.6859"/>
</g>
<!-- Node3 -->
<g id="node3" class="node"><title>Node3</title>
<g id="a_node3"><a xlink:href="mbox_8c.html#ae1efd8707efa96b7e0b8daf0105024ee" target="_top" xlink:title="Read a mailbox in MMDF format. ">
<polygon fill="white" stroke="red" points="300,-133.5 300,-152.5 410,-152.5 410,-133.5 300,-133.5"/>
<text text-anchor="middle" x="355" y="-140.5" font-family="Helvetica,sans-Serif" font-size="10.00">mmdf_parse_mailbox</text>
</a>
</g>
</g>
<!-- Node1&#45;&gt;Node3 -->
<g id="edge4" class="edge"><title>Node1&#45;&gt;Node3</title>
<path fill="none" stroke="midnightblue" d="M68.4879,-102.337C84.6177,-116.203 109.945,-135.072 136,-143 189.95,-159.415 254.949,-156.722 299.859,-151.603"/>
<polygon fill="midnightblue" stroke="midnightblue" points="70.7363,-99.6531 60.9363,-95.6268 66.0865,-104.886 70.7363,-99.6531"/>
</g>
<!-- Node4 -->
<g id="node4" class="node"><title>Node4</title>
<g id="a_node4"><a xlink:href="mbox_8c.html#ad72dff92f5cf9ec13c2819dbcf9e0c9b" target="_top" xlink:title="Read a mailbox from disk. ">
<polygon fill="white" stroke="red" points="300.5,-86.5 300.5,-105.5 409.5,-105.5 409.5,-86.5 300.5,-86.5"/>
<text text-anchor="middle" x="355" y="-93.5" font-family="Helvetica,sans-Serif" font-size="10.00">mbox_parse_mailbox</text>
</a>
</g>
</g>
<!-- Node1&#45;&gt;Node4 -->
<g id="edge5" class="edge"><title>Node1&#45;&gt;Node4</title>
<path fill="none" stroke="midnightblue" d="M110.009,-87.9475C165.205,-89.7691 246.934,-92.4665 300.331,-94.2288"/>
<polygon fill="midnightblue" stroke="midnightblue" points="109.792,-84.4385 99.6822,-87.6067 109.561,-91.4347 109.792,-84.4385"/>
</g>
<!-- Node5 -->
<g id="node5" class="node"><title>Node5</title>
<g id="a_node5"><a xlink:href="date_8h.html#a808bc580b1cc9cb503d16dfb7ba3c128" target="_top" xlink:title="Write a date in RFC822 format to a buffer. ">
<polygon fill="white" stroke="red" points="143.5,-38.5 143.5,-57.5 256.5,-57.5 256.5,-38.5 143.5,-38.5"/>
<text text-anchor="middle" x="200" y="-45.5" font-family="Helvetica,sans-Serif" font-size="10.00">mutt_date_make_date</text>
</a>
</g>
</g>
<!-- Node1&#45;&gt;Node5 -->
<g id="edge6" class="edge"><title>Node1&#45;&gt;Node5</title>
<path fill="none" stroke="midnightblue" d="M98.1735,-73.8879C118.786,-68.5956 142.609,-62.4787 161.922,-57.5201"/>
<polygon fill="midnightblue" stroke="midnightblue" points="97.162,-70.534 88.3466,-76.411 98.9029,-77.3141 97.162,-70.534"/>
</g>
<!-- Node6 -->
<g id="node6" class="node"><title>Node6</title>
<g id="a_node6"><a xlink:href="date_8h.html#ab30120ea670e25b9f47ccc9c83eda66f" target="_top" xlink:title="Format date in IMAP style: DD&#45;MMM&#45;YYYY HH:MM:SS +ZZzz. ">
<polygon fill="white" stroke="red" points="142,-0.5 142,-19.5 258,-19.5 258,-0.5 142,-0.5"/>
<text text-anchor="middle" x="200" y="-7.5" font-family="Helvetica,sans-Serif" font-size="10.00">mutt_date_make_imap</text>
</a>
</g>
</g>
<!-- Node1&#45;&gt;Node6 -->
<g id="edge7" class="edge"><title>Node1&#45;&gt;Node6</title>
<path fill="none" stroke="midnightblue" d="M71.0436,-70.041C87.6482,-57.4576 112.284,-40.2176 136,-29 143.745,-25.3365 152.36,-22.1888 160.669,-19.5691"/>
<polygon fill="midnightblue" stroke="midnightblue" points="68.476,-67.6017 62.7019,-76.4848 72.7554,-73.1413 68.476,-67.6017"/>
</g>
<!-- Node2&#45;&gt;Node3 -->
<g id="edge2" class="edge"><title>Node2&#45;&gt;Node3</title>
<path fill="none" stroke="midnightblue" d="M273.637,-133.02C282.511,-134.122 291.455,-135.233 299.989,-136.293"/>
<polygon fill="midnightblue" stroke="midnightblue" points="274.028,-129.542 263.672,-131.783 273.165,-136.489 274.028,-129.542"/>
</g>
<!-- Node2&#45;&gt;Node4 -->
<g id="edge3" class="edge"><title>Node2&#45;&gt;Node4</title>
<path fill="none" stroke="midnightblue" d="M263.372,-112.586C276.206,-110.237 289.589,-107.788 302.009,-105.515"/>
<polygon fill="midnightblue" stroke="midnightblue" points="262.433,-109.199 253.226,-114.442 263.693,-116.085 262.433,-109.199"/>
</g>
</g>
</svg>
