<?xml version="1.0" encoding="UTF-8" standalone="no"?>
<!DOCTYPE svg PUBLIC "-//W3C//DTD SVG 1.1//EN"
 "http://www.w3.org/Graphics/SVG/1.1/DTD/svg11.dtd">
<!-- Generated by graphviz version 2.36.0 (20140111.2315)
 -->
<!-- Title: nntp Pages: 1 -->
<svg width="244pt" height="188pt"
 viewBox="0.00 0.00 244.00 188.00" xmlns="http://www.w3.org/2000/svg" xmlns:xlink="http://www.w3.org/1999/xlink">
<g id="graph0" class="graph" transform="scale(1 1) rotate(0) translate(4 184)">
<title>nntp</title>
<polygon fill="white" stroke="none" points="-4,4 -4,-184 240,-184 240,4 -4,4"/>
<!-- dir_3964b18c0581b4bf6bd3caf7ae7211c9 -->
<g id="node1" class="node"><title>dir_3964b18c0581b4bf6bd3caf7ae7211c9</title>
<g id="a_node1"><a xlink:href="dir_3964b18c0581b4bf6bd3caf7ae7211c9.html" target="_top" xlink:title="nntp">
<polygon fill="#eeeeff" stroke="black" points="136,-180 82,-180 82,-144 136,-144 136,-180"/>
<text text-anchor="middle" x="109" y="-159.5" font-family="Helvetica,sans-Serif" font-size="10.00">nntp</text>
</a>
</g>
</g>
<!-- dir_803ea0153ad76bee9f0b07478cfbff67 -->
<g id="node2" class="node"><title>dir_803ea0153ad76bee9f0b07478cfbff67</title>
<g id="a_node2"><a xlink:href="dir_803ea0153ad76bee9f0b07478cfbff67.html" target="_top" xlink:title="conn">
<polygon fill="none" stroke="black" points="54,-108 0,-108 0,-72 54,-72 54,-108"/>
<text text-anchor="middle" x="27" y="-87.5" font-family="Helvetica,sans-Serif" font-size="10.00">conn</text>
</a>
</g>
</g>
<!-- dir_3964b18c0581b4bf6bd3caf7ae7211c9&#45;&gt;dir_803ea0153ad76bee9f0b07478cfbff67 -->
<g id="edge4" class="edge"><title>dir_3964b18c0581b4bf6bd3caf7ae7211c9&#45;&gt;dir_803ea0153ad76bee9f0b07478cfbff67</title>
<path fill="none" stroke="black" d="M88.7303,-143.697C78.5024,-134.965 65.9389,-124.24 54.8218,-114.75"/>
<polygon fill="black" stroke="black" points="56.9146,-111.935 47.0365,-108.104 52.3697,-117.259 56.9146,-111.935"/>
<g id="a_edge4&#45;headlabel"><a xlink:href="dir_000011_000006.html" target="_top" xlink:title="2">
<text text-anchor="middle" x="61.4919" y="-109.609" font-family="Helvetica,sans-Serif" font-size="10.00">2</text>
</a>
</g>
</g>
<!-- dir_1ac69099273185b8416dca0dba1f5766 -->
<g id="node3" class="node"><title>dir_1ac69099273185b8416dca0dba1f5766</title>
<g id="a_node3"><a xlink:href="dir_1ac69099273185b8416dca0dba1f5766.html" target="_top" xlink:title="email">
<polygon fill="none" stroke="black" points="136,-36 82,-36 82,-0 136,-0 136,-36"/>
<text text-anchor="middle" x="109" y="-15.5" font-family="Helvetica,sans-Serif" font-size="10.00">email</text>
</a>
</g>
</g>
<!-- dir_3964b18c0581b4bf6bd3caf7ae7211c9&#45;&gt;dir_1ac69099273185b8416dca0dba1f5766 -->
<g id="edge5" class="edge"><title>dir_3964b18c0581b4bf6bd3caf7ae7211c9&#45;&gt;dir_1ac69099273185b8416dca0dba1f5766</title>
<path fill="none" stroke="black" d="M105.752,-143.888C103.954,-133.542 101.905,-120.063 101,-108 99.8026,-92.0449 99.8026,-87.9551 101,-72 101.637,-63.5179 102.838,-54.3361 104.121,-46.0356"/>
<polygon fill="black" stroke="black" points="107.584,-46.5472 105.752,-36.1119 100.676,-45.412 107.584,-46.5472"/>
<g id="a_edge5&#45;headlabel"><a xlink:href="dir_000011_000001.html" target="_top" xlink:title="2">
<text text-anchor="middle" x="109.802" y="-48.0546" font-family="Helvetica,sans-Serif" font-size="10.00">2</text>
</a>
</g>
</g>
<!-- dir_880caa4cc75494b45961a8ebdc8ca26e -->
<g id="node4" class="node"><title>dir_880caa4cc75494b45961a8ebdc8ca26e</title>
<g id="a_node4"><a xlink:href="dir_880caa4cc75494b45961a8ebdc8ca26e.html" target="_top" xlink:title="ncrypt">
<polygon fill="none" stroke="black" points="164,-108 110,-108 110,-72 164,-72 164,-108"/>
<text text-anchor="middle" x="137" y="-87.5" font-family="Helvetica,sans-Serif" font-size="10.00">ncrypt</text>
</a>
</g>
</g>
<!-- dir_3964b18c0581b4bf6bd3caf7ae7211c9&#45;&gt;dir_880caa4cc75494b45961a8ebdc8ca26e -->
<g id="edge6" class="edge"><title>dir_3964b18c0581b4bf6bd3caf7ae7211c9&#45;&gt;dir_880caa4cc75494b45961a8ebdc8ca26e</title>
<path fill="none" stroke="black" d="M115.921,-143.697C119.075,-135.813 122.878,-126.304 126.381,-117.546"/>
<polygon fill="black" stroke="black" points="129.694,-118.689 130.158,-108.104 123.195,-116.089 129.694,-118.689"/>
<g id="a_edge6&#45;headlabel"><a xlink:href="dir_000011_000010.html" target="_top" xlink:title="1">
<text text-anchor="middle" x="130.995" y="-120.581" font-family="Helvetica,sans-Serif" font-size="10.00">1</text>
</a>
</g>
</g>
<!-- dir_59c8f561077ed875efa8c337ec911444 -->
<g id="node5" class="node"><title>dir_59c8f561077ed875efa8c337ec911444</title>
<g id="a_node5"><a xlink:href="dir_59c8f561077ed875efa8c337ec911444.html" target="_top" xlink:title="hcache">
<polygon fill="none" stroke="black" points="236,-108 182,-108 182,-72 236,-72 236,-108"/>
<text text-anchor="middle" x="209" y="-87.5" font-family="Helvetica,sans-Serif" font-size="10.00">hcache</text>
</a>
</g>
</g>
<!-- dir_3964b18c0581b4bf6bd3caf7ae7211c9&#45;&gt;dir_59c8f561077ed875efa8c337ec911444 -->
<g id="edge7" class="edge"><title>dir_3964b18c0581b4bf6bd3caf7ae7211c9&#45;&gt;dir_59c8f561077ed875efa8c337ec911444</title>
<path fill="none" stroke="black" d="M133.463,-143.876C146.296,-134.893 162.196,-123.763 176.094,-114.034"/>
<polygon fill="black" stroke="black" points="178.258,-116.792 184.443,-108.19 174.244,-111.057 178.258,-116.792"/>
<g id="a_edge7&#45;headlabel"><a xlink:href="dir_000011_000007.html" target="_top" xlink:title="3">
<text text-anchor="middle" x="176.941" y="-118.679" font-family="Helvetica,sans-Serif" font-size="10.00">3</text>
</a>
</g>
</g>
<!-- dir_803ea0153ad76bee9f0b07478cfbff67&#45;&gt;dir_1ac69099273185b8416dca0dba1f5766 -->
<g id="edge1" class="edge"><title>dir_803ea0153ad76bee9f0b07478cfbff67&#45;&gt;dir_1ac69099273185b8416dca0dba1f5766</title>
<path fill="none" stroke="black" d="M47.2697,-71.6966C57.4976,-62.9655 70.0611,-52.2405 81.1782,-42.7503"/>
<polygon fill="black" stroke="black" points="83.6303,-45.259 88.9635,-36.1043 79.0854,-39.935 83.6303,-45.259"/>
<g id="a_edge1&#45;headlabel"><a xlink:href="dir_000006_000001.html" target="_top" xlink:title="2">
<text text-anchor="middle" x="82.7398" y="-47.2522" font-family="Helvetica,sans-Serif" font-size="10.00">2</text>
</a>
</g>
</g>
<!-- dir_880caa4cc75494b45961a8ebdc8ca26e&#45;&gt;dir_1ac69099273185b8416dca0dba1f5766 -->
<g id="edge2" class="edge"><title>dir_880caa4cc75494b45961a8ebdc8ca26e&#45;&gt;dir_1ac69099273185b8416dca0dba1f5766</title>
<path fill="none" stroke="black" d="M130.079,-71.6966C126.925,-63.8132 123.122,-54.3042 119.619,-45.5464"/>
<polygon fill="black" stroke="black" points="122.805,-44.0892 115.842,-36.1043 116.306,-46.689 122.805,-44.0892"/>
<g id="a_edge2&#45;headlabel"><a xlink:href="dir_000010_000001.html" target="_top" xlink:title="7">
<text text-anchor="middle" x="126.777" y="-43.8723" font-family="Helvetica,sans-Serif" font-size="10.00">7</text>
</a>
</g>
</g>
<!-- dir_59c8f561077ed875efa8c337ec911444&#45;&gt;dir_1ac69099273185b8416dca0dba1f5766 -->
<g id="edge3" class="edge"><title>dir_59c8f561077ed875efa8c337ec911444&#45;&gt;dir_1ac69099273185b8416dca0dba1f5766</title>
<path fill="none" stroke="black" d="M184.537,-71.8761C171.704,-62.8931 155.804,-51.7625 141.906,-42.0341"/>
<polygon fill="black" stroke="black" points="143.756,-39.0571 133.557,-36.1898 139.742,-44.7917 143.756,-39.0571"/>
<g id="a_edge3&#45;headlabel"><a xlink:href="dir_000007_000001.html" target="_top" xlink:title="2">
<text text-anchor="middle" x="148.329" y="-36.2924" font-family="Helvetica,sans-Serif" font-size="10.00">2</text>
</a>
</g>
</g>
</g>
</svg>
