<?xml version="1.0" encoding="UTF-8" standalone="no"?>
<!DOCTYPE svg PUBLIC "-//W3C//DTD SVG 1.1//EN"
 "http://www.w3.org/Graphics/SVG/1.1/DTD/svg11.dtd">
<!-- Generated by graphviz version 2.36.0 (20140111.2315)
 -->
<!-- Title: pretty_var Pages: 1 -->
<svg width="232pt" height="142pt"
 viewBox="0.00 0.00 232.00 142.00" xmlns="http://www.w3.org/2000/svg" xmlns:xlink="http://www.w3.org/1999/xlink">
<g id="graph0" class="graph" transform="scale(1 1) rotate(0) translate(4 138)">
<title>pretty_var</title>
<polygon fill="white" stroke="none" points="-4,4 -4,-138 228,-138 228,4 -4,4"/>
<!-- Node1 -->
<g id="node1" class="node"><title>Node1</title>
<polygon fill="#bfbfbf" stroke="black" points="0,-57.5 0,-76.5 60,-76.5 60,-57.5 0,-57.5"/>
<text text-anchor="middle" x="30" y="-64.5" font-family="Helvetica,sans-Serif" font-size="10.00">pretty_var</text>
</g>
<!-- Node2 -->
<g id="node2" class="node"><title>Node2</title>
<g id="a_node2"><a xlink:href="dump_8h.html#a451241afa496de8f83b1d537fd9ddd33" target="_top" xlink:title="Write all the config to stdout. ">
<polygon fill="white" stroke="red" points="124,-114.5 124,-133.5 196,-133.5 196,-114.5 124,-114.5"/>
<text text-anchor="middle" x="160" y="-121.5" font-family="Helvetica,sans-Serif" font-size="10.00">dump_config</text>
</a>
</g>
</g>
<!-- Node1&#45;&gt;Node2 -->
<g id="edge1" class="edge"><title>Node1&#45;&gt;Node2</title>
<path fill="none" stroke="midnightblue" d="M54.0291,-82.262C66.1544,-89.8281 81.4853,-98.6747 96,-105 104.797,-108.834 114.604,-112.197 123.811,-114.986"/>
<polygon fill="midnightblue" stroke="midnightblue" points="55.7614,-79.2156 45.4482,-76.7888 51.997,-85.1173 55.7614,-79.2156"/>
</g>
<!-- Node3 -->
<g id="node3" class="node"><title>Node3</title>
<g id="a_node3"><a xlink:href="init_8c.html#a8f0f3d5856d7f876c0dbf004faeeb8ad" target="_top" xlink:title="Parse the &#39;set&#39; family of commands &#45; Implements command_t. ">
<polygon fill="white" stroke="black" points="130.5,-76.5 130.5,-95.5 189.5,-95.5 189.5,-76.5 130.5,-76.5"/>
<text text-anchor="middle" x="160" y="-83.5" font-family="Helvetica,sans-Serif" font-size="10.00">parse_set</text>
</a>
</g>
</g>
<!-- Node1&#45;&gt;Node3 -->
<g id="edge2" class="edge"><title>Node1&#45;&gt;Node3</title>
<path fill="none" stroke="midnightblue" d="M70.0698,-72.7994C89.4038,-75.6693 112.335,-79.0732 130.07,-81.7057"/>
<polygon fill="midnightblue" stroke="midnightblue" points="70.4507,-69.3177 60.0452,-71.3114 69.4229,-76.2418 70.4507,-69.3177"/>
</g>
<!-- Node4 -->
<g id="node4" class="node"><title>Node4</title>
<g id="a_node4"><a xlink:href="mutt_8h.html#a10a5a62f5a2ac28b4b4954f7f1250267" target="_top" xlink:title="Implement the &#45;Q command line flag. ">
<polygon fill="white" stroke="red" points="105,-38.5 105,-57.5 215,-57.5 215,-38.5 105,-38.5"/>
<text text-anchor="middle" x="160" y="-45.5" font-family="Helvetica,sans-Serif" font-size="10.00">mutt_query_variables</text>
</a>
</g>
</g>
<!-- Node1&#45;&gt;Node4 -->
<g id="edge3" class="edge"><title>Node1&#45;&gt;Node4</title>
<path fill="none" stroke="midnightblue" d="M70.1489,-61.1888C81.1095,-59.5619 93.2215,-57.764 104.885,-56.0328"/>
<polygon fill="midnightblue" stroke="midnightblue" points="69.4229,-57.7582 60.0452,-62.6886 70.4507,-64.6823 69.4229,-57.7582"/>
</g>
<!-- Node5 -->
<g id="node5" class="node"><title>Node5</title>
<g id="a_node5"><a xlink:href="mutt_8h.html#a173ae67a86a1c7bfc88e98a0edbe514f" target="_top" xlink:title="Complete a variable/value. ">
<polygon fill="white" stroke="red" points="96,-0.5 96,-19.5 224,-19.5 224,-0.5 96,-0.5"/>
<text text-anchor="middle" x="160" y="-7.5" font-family="Helvetica,sans-Serif" font-size="10.00">mutt_var_value_complete</text>
</a>
</g>
</g>
<!-- Node1&#45;&gt;Node5 -->
<g id="edge4" class="edge"><title>Node1&#45;&gt;Node5</title>
<path fill="none" stroke="midnightblue" d="M54.0291,-51.738C66.1544,-44.1719 81.4853,-35.3253 96,-29 104.274,-25.3945 113.44,-22.2049 122.161,-19.5179"/>
<polygon fill="midnightblue" stroke="midnightblue" points="51.997,-48.8827 45.4482,-57.2112 55.7614,-54.7844 51.997,-48.8827"/>
</g>
</g>
</svg>
