<?xml version="1.0" encoding="UTF-8" standalone="no"?>
<!DOCTYPE svg PUBLIC "-//W3C//DTD SVG 1.1//EN"
 "http://www.w3.org/Graphics/SVG/1.1/DTD/svg11.dtd">
<!-- Generated by graphviz version 2.36.0 (20140111.2315)
 -->
<!-- Title: mutt_pretty_mailbox Pages: 1 -->
<svg width="684pt" height="768pt"
 viewBox="0.00 0.00 684.00 768.00" xmlns="http://www.w3.org/2000/svg" xmlns:xlink="http://www.w3.org/1999/xlink">
<g id="graph0" class="graph" transform="scale(1 1) rotate(0) translate(4 764)">
<title>mutt_pretty_mailbox</title>
<polygon fill="white" stroke="none" points="-4,4 -4,-764 680,-764 680,4 -4,4"/>
<!-- Node1 -->
<g id="node1" class="node"><title>Node1</title>
<polygon fill="#bfbfbf" stroke="black" points="0.5,-379.5 0.5,-398.5 105.5,-398.5 105.5,-379.5 0.5,-379.5"/>
<text text-anchor="middle" x="53" y="-386.5" font-family="Helvetica,sans-Serif" font-size="10.00">mutt_pretty_mailbox</text>
</g>
<!-- Node2 -->
<g id="node2" class="node"><title>Node2</title>
<g id="a_node2"><a xlink:href="browser_8c.html#aec34de9f81842bd3ef14d44809304c43" target="_top" xlink:title="Get list of mailboxes/subscribed newsgroups. ">
<polygon fill="white" stroke="red" points="145.5,-740.5 145.5,-759.5 248.5,-759.5 248.5,-740.5 145.5,-740.5"/>
<text text-anchor="middle" x="197" y="-747.5" font-family="Helvetica,sans-Serif" font-size="10.00">examine_mailboxes</text>
</a>
</g>
</g>
<!-- Node1&#45;&gt;Node2 -->
<g id="edge1" class="edge"><title>Node1&#45;&gt;Node2</title>
<path fill="none" stroke="midnightblue" d="M56.61,-408.691C65.6364,-474.049 97.4367,-682.406 142,-731 145.56,-734.882 149.961,-737.971 154.701,-740.429"/>
<polygon fill="midnightblue" stroke="midnightblue" points="60.0443,-407.969 55.2326,-398.53 53.1077,-408.91 60.0443,-407.969"/>
</g>
<!-- Node3 -->
<g id="node3" class="node"><title>Node3</title>
<g id="a_node3"><a xlink:href="browser_8c.html#a9c2f420fab462b5dc0f7cf74824b802b" target="_top" xlink:title="Set up a new menu. ">
<polygon fill="white" stroke="red" points="167.5,-702.5 167.5,-721.5 226.5,-721.5 226.5,-702.5 167.5,-702.5"/>
<text text-anchor="middle" x="197" y="-709.5" font-family="Helvetica,sans-Serif" font-size="10.00">init_menu</text>
</a>
</g>
</g>
<!-- Node1&#45;&gt;Node3 -->
<g id="edge2" class="edge"><title>Node1&#45;&gt;Node3</title>
<path fill="none" stroke="midnightblue" d="M54.3426,-408.869C56.2801,-461.097 68.4097,-603.994 142,-688 148.625,-695.563 158.091,-700.852 167.252,-704.501"/>
<polygon fill="midnightblue" stroke="midnightblue" points="57.8348,-408.538 54.0557,-398.64 50.8375,-408.734 57.8348,-408.538"/>
</g>
<!-- Node4 -->
<g id="node4" class="node"><title>Node4</title>
<g id="a_node4"><a xlink:href="commands_8h.html#aba91885b9f8d6c999aa5028baa845fa6" target="_top" xlink:title="Save an email. ">
<polygon fill="white" stroke="red" points="143.5,-550.5 143.5,-569.5 250.5,-569.5 250.5,-550.5 143.5,-550.5"/>
<text text-anchor="middle" x="197" y="-557.5" font-family="Helvetica,sans-Serif" font-size="10.00">mutt_save_message</text>
</a>
</g>
</g>
<!-- Node1&#45;&gt;Node4 -->
<g id="edge3" class="edge"><title>Node1&#45;&gt;Node4</title>
<path fill="none" stroke="midnightblue" d="M61.013,-408.147C73.1432,-438.886 100.768,-499.485 142,-536 148.836,-542.054 157.445,-546.799 165.769,-550.414"/>
<polygon fill="midnightblue" stroke="midnightblue" points="64.2079,-406.703 57.3717,-398.608 57.6682,-409.199 64.2079,-406.703"/>
</g>
<!-- Node5 -->
<g id="node5" class="node"><title>Node5</title>
<g id="a_node5"><a xlink:href="curs__main_8h.html#af7d9d8649ad205788c9af1bbf871207f" target="_top" xlink:title="Display a list of emails. ">
<polygon fill="white" stroke="red" points="296,-398.5 296,-417.5 390,-417.5 390,-398.5 296,-398.5"/>
<text text-anchor="middle" x="343" y="-405.5" font-family="Helvetica,sans-Serif" font-size="10.00">mutt_index_menu</text>
</a>
</g>
</g>
<!-- Node1&#45;&gt;Node5 -->
<g id="edge13" class="edge"><title>Node1&#45;&gt;Node5</title>
<path fill="none" stroke="midnightblue" d="M61.9819,-407.927C74.5103,-434.854 101.607,-483.153 142,-503 185.878,-524.56 207.089,-522.317 252,-503 293.323,-485.225 324.563,-438.116 336.598,-417.682"/>
<polygon fill="midnightblue" stroke="midnightblue" points="65.1632,-406.467 57.8963,-398.757 58.7692,-409.316 65.1632,-406.467"/>
</g>
<!-- Node6 -->
<g id="node6" class="node"><title>Node6</title>
<g id="a_node6"><a xlink:href="compose_8h.html#ad69c04d8ece089edb91f7b1178c2262c" target="_top" xlink:title="Allow the user to edit the message envelope. ">
<polygon fill="white" stroke="black" points="434,-398.5 434,-417.5 544,-417.5 544,-398.5 434,-398.5"/>
<text text-anchor="middle" x="489" y="-405.5" font-family="Helvetica,sans-Serif" font-size="10.00">mutt_compose_menu</text>
</a>
</g>
</g>
<!-- Node1&#45;&gt;Node6 -->
<g id="edge10" class="edge"><title>Node1&#45;&gt;Node6</title>
<path fill="none" stroke="midnightblue" d="M56.2941,-408.773C62.1662,-449.157 81.7971,-540.537 142,-579 269.893,-660.71 442.328,-463.971 480.37,-417.544"/>
<polygon fill="midnightblue" stroke="midnightblue" points="59.7591,-408.277 54.9804,-398.821 52.8193,-409.194 59.7591,-408.277"/>
</g>
<!-- Node7 -->
<g id="node7" class="node"><title>Node7</title>
<g id="a_node7"><a xlink:href="send_8h.html#a09c909ab2bb41101590ed2b13f65fc2d" target="_top" xlink:title="Send an email. ">
<polygon fill="white" stroke="red" points="580.5,-341.5 580.5,-360.5 675.5,-360.5 675.5,-341.5 580.5,-341.5"/>
<text text-anchor="middle" x="628" y="-348.5" font-family="Helvetica,sans-Serif" font-size="10.00">ci_send_message</text>
</a>
</g>
</g>
<!-- Node1&#45;&gt;Node7 -->
<g id="edge32" class="edge"><title>Node1&#45;&gt;Node7</title>
<path fill="none" stroke="midnightblue" d="M54.1552,-408.757C55.7146,-457.472 67.146,-583.613 142,-642 231.829,-712.068 296.049,-705.841 398,-655 530.751,-588.799 606.781,-404.918 623.481,-360.669"/>
<polygon fill="midnightblue" stroke="midnightblue" points="57.6514,-408.532 53.9429,-398.608 50.6529,-408.679 57.6514,-408.532"/>
</g>
<!-- Node8 -->
<g id="node8" class="node"><title>Node8</title>
<g id="a_node8"><a xlink:href="compose_8c.html#a5cb3264b408064773481f3d4c48ab95c" target="_top" xlink:title="Check if any attachments have changed or been deleted. ">
<polygon fill="white" stroke="black" points="292,-626.5 292,-645.5 394,-645.5 394,-626.5 292,-626.5"/>
<text text-anchor="middle" x="343" y="-633.5" font-family="Helvetica,sans-Serif" font-size="10.00">check_attachments</text>
</a>
</g>
</g>
<!-- Node1&#45;&gt;Node8 -->
<g id="edge8" class="edge"><title>Node1&#45;&gt;Node8</title>
<path fill="none" stroke="midnightblue" d="M55.2964,-408.682C59.3663,-453.06 75.9175,-561.011 142,-612 184.5,-644.793 247.94,-646.889 291.927,-643.31"/>
<polygon fill="midnightblue" stroke="midnightblue" points="58.7777,-408.308 54.4929,-398.618 51.7999,-408.865 58.7777,-408.308"/>
</g>
<!-- Node9 -->
<g id="node9" class="node"><title>Node9</title>
<g id="a_node9"><a xlink:href="dump_8h.html#a451241afa496de8f83b1d537fd9ddd33" target="_top" xlink:title="Write all the config to stdout. ">
<polygon fill="white" stroke="red" points="161,-474.5 161,-493.5 233,-493.5 233,-474.5 161,-474.5"/>
<text text-anchor="middle" x="197" y="-481.5" font-family="Helvetica,sans-Serif" font-size="10.00">dump_config</text>
</a>
</g>
</g>
<!-- Node1&#45;&gt;Node9 -->
<g id="edge11" class="edge"><title>Node1&#45;&gt;Node9</title>
<path fill="none" stroke="midnightblue" d="M70.1038,-406.263C86.721,-423.214 114.084,-448.818 142,-465 148.363,-468.688 155.559,-471.832 162.575,-474.437"/>
<polygon fill="midnightblue" stroke="midnightblue" points="72.3059,-403.503 62.8542,-398.716 67.2576,-408.352 72.3059,-403.503"/>
</g>
<!-- Node10 -->
<g id="node10" class="node"><title>Node10</title>
<g id="a_node10"><a xlink:href="copy_8h.html#abab1732612a46d6e72e452b7ffef1b82" target="_top" xlink:title="Copy email header. ">
<polygon fill="white" stroke="red" points="148.5,-436.5 148.5,-455.5 245.5,-455.5 245.5,-436.5 148.5,-436.5"/>
<text text-anchor="middle" x="197" y="-443.5" font-family="Helvetica,sans-Serif" font-size="10.00">mutt_copy_header</text>
</a>
</g>
</g>
<!-- Node1&#45;&gt;Node10 -->
<g id="edge12" class="edge"><title>Node1&#45;&gt;Node10</title>
<path fill="none" stroke="midnightblue" d="M84.5094,-402.793C101.346,-410.248 122.698,-419.447 142,-427 150.237,-430.223 159.273,-433.502 167.558,-436.407"/>
<polygon fill="midnightblue" stroke="midnightblue" points="85.7261,-399.504 75.1673,-398.631 82.8772,-405.898 85.7261,-399.504"/>
</g>
<!-- Node11 -->
<g id="node11" class="node"><title>Node11</title>
<g id="a_node11"><a xlink:href="protos_8h.html#a76d3af6aa66fa26ade9ea489243b5256" target="_top" xlink:title="Ask the user for a string. ">
<polygon fill="white" stroke="red" points="288,-360.5 288,-379.5 398,-379.5 398,-360.5 288,-360.5"/>
<text text-anchor="middle" x="343" y="-367.5" font-family="Helvetica,sans-Serif" font-size="10.00">mutt_enter_string_full</text>
</a>
</g>
</g>
<!-- Node1&#45;&gt;Node11 -->
<g id="edge14" class="edge"><title>Node1&#45;&gt;Node11</title>
<path fill="none" stroke="midnightblue" d="M61.9819,-370.073C74.5103,-343.146 101.607,-294.847 142,-275 185.878,-253.44 210.688,-248.857 252,-275 283.583,-294.987 260.233,-325.982 288,-351 292.282,-354.858 297.396,-357.944 302.745,-360.408"/>
<polygon fill="midnightblue" stroke="midnightblue" points="58.7692,-368.684 57.8963,-379.243 65.1632,-371.533 58.7692,-368.684"/>
</g>
<!-- Node12 -->
<g id="node12" class="node"><title>Node12</title>
<g id="a_node12"><a xlink:href="hook_8h.html#a3e2f965003435adb60965afeea91adfc" target="_top" xlink:title="Select the FCC path for an email. ">
<polygon fill="white" stroke="black" points="446,-208.5 446,-227.5 532,-227.5 532,-208.5 446,-208.5"/>
<text text-anchor="middle" x="489" y="-215.5" font-family="Helvetica,sans-Serif" font-size="10.00">mutt_select_fcc</text>
</a>
</g>
</g>
<!-- Node1&#45;&gt;Node12 -->
<g id="edge15" class="edge"><title>Node1&#45;&gt;Node12</title>
<path fill="none" stroke="midnightblue" d="M54.6648,-369.242C57.4073,-323.287 71.3602,-209.454 142,-161 249.938,-86.9618 420.621,-177.489 472.524,-208.385"/>
<polygon fill="midnightblue" stroke="midnightblue" points="51.1616,-369.227 54.1814,-379.382 58.1537,-369.56 51.1616,-369.227"/>
</g>
<!-- Node13 -->
<g id="node13" class="node"><title>Node13</title>
<g id="a_node13"><a xlink:href="imap_8h.html#ae99223085d505fb8b323fa031b5ee0fa" target="_top" xlink:title="Try to complete an IMAP folder path. ">
<polygon fill="white" stroke="red" points="155.5,-322.5 155.5,-341.5 238.5,-341.5 238.5,-322.5 155.5,-322.5"/>
<text text-anchor="middle" x="197" y="-329.5" font-family="Helvetica,sans-Serif" font-size="10.00">imap_complete</text>
</a>
</g>
</g>
<!-- Node1&#45;&gt;Node13 -->
<g id="edge17" class="edge"><title>Node1&#45;&gt;Node13</title>
<path fill="none" stroke="midnightblue" d="M84.5094,-375.207C101.346,-367.752 122.698,-358.553 142,-351 150.237,-347.777 159.273,-344.498 167.558,-341.593"/>
<polygon fill="midnightblue" stroke="midnightblue" points="82.8772,-372.102 75.1673,-379.369 85.7261,-378.496 82.8772,-372.102"/>
</g>
<!-- Node14 -->
<g id="node14" class="node"><title>Node14</title>
<g id="a_node14"><a xlink:href="mutt_8h.html#a10a5a62f5a2ac28b4b4954f7f1250267" target="_top" xlink:title="Implement the &#45;Q command line flag. ">
<polygon fill="white" stroke="red" points="142,-284.5 142,-303.5 252,-303.5 252,-284.5 142,-284.5"/>
<text text-anchor="middle" x="197" y="-291.5" font-family="Helvetica,sans-Serif" font-size="10.00">mutt_query_variables</text>
</a>
</g>
</g>
<!-- Node1&#45;&gt;Node14 -->
<g id="edge18" class="edge"><title>Node1&#45;&gt;Node14</title>
<path fill="none" stroke="midnightblue" d="M70.1038,-371.737C86.721,-354.786 114.084,-329.182 142,-313 148.363,-309.312 155.559,-306.168 162.575,-303.563"/>
<polygon fill="midnightblue" stroke="midnightblue" points="67.2576,-369.648 62.8542,-379.284 72.3059,-374.497 67.2576,-369.648"/>
</g>
<!-- Node15 -->
<g id="node15" class="node"><title>Node15</title>
<g id="a_node15"><a xlink:href="mailbox_8h.html#ab9927df6282aeabd032cfca3332f4907" target="_top" xlink:title="List the mailboxes with new mail. ">
<polygon fill="white" stroke="red" points="150.5,-398.5 150.5,-417.5 243.5,-417.5 243.5,-398.5 150.5,-398.5"/>
<text text-anchor="middle" x="197" y="-405.5" font-family="Helvetica,sans-Serif" font-size="10.00">mutt_mailbox_list</text>
</a>
</g>
</g>
<!-- Node1&#45;&gt;Node15 -->
<g id="edge19" class="edge"><title>Node1&#45;&gt;Node15</title>
<path fill="none" stroke="midnightblue" d="M115.734,-397.26C127.324,-398.811 139.249,-400.407 150.246,-401.878"/>
<polygon fill="midnightblue" stroke="midnightblue" points="116.043,-393.77 105.667,-395.913 115.114,-400.709 116.043,-393.77"/>
</g>
<!-- Node16 -->
<g id="node16" class="node"><title>Node16</title>
<g id="a_node16"><a xlink:href="mailbox_8h.html#aa871a502903abe160d30f8d706f1e207" target="_top" xlink:title="incoming folders completion routine ">
<polygon fill="white" stroke="red" points="159.5,-360.5 159.5,-379.5 234.5,-379.5 234.5,-360.5 159.5,-360.5"/>
<text text-anchor="middle" x="197" y="-367.5" font-family="Helvetica,sans-Serif" font-size="10.00">mutt_mailbox</text>
</a>
</g>
</g>
<!-- Node1&#45;&gt;Node16 -->
<g id="edge21" class="edge"><title>Node1&#45;&gt;Node16</title>
<path fill="none" stroke="midnightblue" d="M115.811,-380.73C130.635,-378.746 146.002,-376.69 159.27,-374.915"/>
<polygon fill="midnightblue" stroke="midnightblue" points="115.114,-377.291 105.667,-382.087 116.043,-384.23 115.114,-377.291"/>
</g>
<!-- Node17 -->
<g id="node17" class="node"><title>Node17</title>
<g id="a_node17"><a xlink:href="mbox_8c.html#ac3bd73b0ad1b3a39f62c9fd00544e4ce" target="_top" xlink:title="Implements MxOps::mbox_sync() ">
<polygon fill="white" stroke="black" points="149,-170.5 149,-189.5 245,-189.5 245,-170.5 149,-170.5"/>
<text text-anchor="middle" x="197" y="-177.5" font-family="Helvetica,sans-Serif" font-size="10.00">mbox_mbox_sync</text>
</a>
</g>
</g>
<!-- Node1&#45;&gt;Node17 -->
<g id="edge24" class="edge"><title>Node1&#45;&gt;Node17</title>
<path fill="none" stroke="midnightblue" d="M58.5618,-369.103C68.0149,-331.997 93.0631,-251.691 142,-204 148.319,-197.842 156.486,-193.113 164.547,-189.548"/>
<polygon fill="midnightblue" stroke="midnightblue" points="55.0813,-368.603 56.1196,-379.147 61.8832,-370.257 55.0813,-368.603"/>
</g>
<!-- Node18 -->
<g id="node18" class="node"><title>Node18</title>
<g id="a_node18"><a xlink:href="mutt__header_8h.html#ac62ee78bf6fa15d23c2066f7e31cc3e5" target="_top" xlink:title="Let the user edit the message header and body. ">
<polygon fill="white" stroke="red" points="294.5,-322.5 294.5,-341.5 391.5,-341.5 391.5,-322.5 294.5,-322.5"/>
<text text-anchor="middle" x="343" y="-329.5" font-family="Helvetica,sans-Serif" font-size="10.00">mutt_edit_headers</text>
</a>
</g>
</g>
<!-- Node1&#45;&gt;Node18 -->
<g id="edge25" class="edge"><title>Node1&#45;&gt;Node18</title>
<path fill="none" stroke="midnightblue" d="M59.8233,-369.694C70.3998,-338.505 96.0356,-278.006 142,-253 184.945,-229.637 206.248,-235.769 252,-253 289.356,-267.07 321.303,-304.472 334.942,-322.294"/>
<polygon fill="midnightblue" stroke="midnightblue" points="56.4324,-368.806 56.7017,-379.398 63.0961,-370.95 56.4324,-368.806"/>
</g>
<!-- Node19 -->
<g id="node19" class="node"><title>Node19</title>
<g id="a_node19"><a xlink:href="protos_8h.html#abcaa78621be0be0446d94e7bc17453da" target="_top" xlink:title="Recall a postponed message. ">
<polygon fill="white" stroke="black" points="436.5,-132.5 436.5,-151.5 541.5,-151.5 541.5,-132.5 436.5,-132.5"/>
<text text-anchor="middle" x="489" y="-139.5" font-family="Helvetica,sans-Serif" font-size="10.00">mutt_get_postponed</text>
</a>
</g>
</g>
<!-- Node1&#45;&gt;Node19 -->
<g id="edge28" class="edge"><title>Node1&#45;&gt;Node19</title>
<path fill="none" stroke="midnightblue" d="M53.6042,-369.224C53.8044,-318.79 62.185,-185.319 142,-128 242.592,-55.7601 405.336,-108.847 465.071,-132.339"/>
<polygon fill="midnightblue" stroke="midnightblue" points="50.1056,-369.448 53.6764,-379.423 57.1054,-369.399 50.1056,-369.448"/>
</g>
<!-- Node20 -->
<g id="node20" class="node"><title>Node20</title>
<g id="a_node20"><a xlink:href="recvattach_8h.html#a98b2ae112e8353253ba30462bfef777b" target="_top" xlink:title="Format a string for the attachment menu &#45; Implements format_t. ">
<polygon fill="white" stroke="red" points="150.5,-38.5 150.5,-57.5 243.5,-57.5 243.5,-38.5 150.5,-38.5"/>
<text text-anchor="middle" x="197" y="-45.5" font-family="Helvetica,sans-Serif" font-size="10.00">attach_format_str</text>
</a>
</g>
</g>
<!-- Node1&#45;&gt;Node20 -->
<g id="edge30" class="edge"><title>Node1&#45;&gt;Node20</title>
<path fill="none" stroke="midnightblue" d="M55.6483,-369.065C60.6818,-318.301 79.5402,-181.692 142,-90 151.361,-76.2579 166.633,-64.9852 178.552,-57.5908"/>
<polygon fill="midnightblue" stroke="midnightblue" points="52.1373,-369.026 54.7096,-379.304 59.1081,-369.665 52.1373,-369.026"/>
</g>
<!-- Node21 -->
<g id="node21" class="node"><title>Node21</title>
<g id="a_node21"><a xlink:href="status_8c.html#a92f5e92c0ed851b635ca764b9102059e" target="_top" xlink:title="Create the status bar string &#45; Implements format_t. ">
<polygon fill="white" stroke="red" points="150.5,-0.5 150.5,-19.5 243.5,-19.5 243.5,-0.5 150.5,-0.5"/>
<text text-anchor="middle" x="197" y="-7.5" font-family="Helvetica,sans-Serif" font-size="10.00">status_format_str</text>
</a>
</g>
</g>
<!-- Node1&#45;&gt;Node21 -->
<g id="edge33" class="edge"><title>Node1&#45;&gt;Node21</title>
<path fill="none" stroke="midnightblue" d="M56.3564,-369.155C64.7709,-301.39 95.3447,-80.4972 142,-29 145.537,-25.0964 149.923,-21.9948 154.657,-19.5304"/>
<polygon fill="midnightblue" stroke="midnightblue" points="52.8536,-368.966 55.1197,-379.316 59.8023,-369.812 52.8536,-368.966"/>
</g>
<!-- Node4&#45;&gt;Node5 -->
<g id="edge4" class="edge"><title>Node4&#45;&gt;Node5</title>
<path fill="none" stroke="midnightblue" d="M236.428,-546.057C241.947,-543.184 247.329,-539.84 252,-536 294.598,-500.978 326.23,-441.013 337.502,-417.684"/>
<polygon fill="midnightblue" stroke="midnightblue" points="234.665,-543.019 227.114,-550.451 237.651,-549.35 234.665,-543.019"/>
</g>
<!-- Node5&#45;&gt;Node6 -->
<g id="edge5" class="edge"><title>Node5&#45;&gt;Node6</title>
<path fill="none" stroke="midnightblue" d="M400.673,-408C411.631,-408 423.085,-408 433.956,-408"/>
<polygon fill="midnightblue" stroke="midnightblue" points="400.355,-404.5 390.355,-408 400.355,-411.5 400.355,-404.5"/>
</g>
<!-- Node6&#45;&gt;Node7 -->
<g id="edge6" class="edge"><title>Node6&#45;&gt;Node7</title>
<path fill="none" stroke="midnightblue" d="M522.398,-394.521C547.494,-384.079 581.642,-369.871 603.994,-360.572"/>
<polygon fill="midnightblue" stroke="midnightblue" points="520.819,-391.387 512.931,-398.459 523.508,-397.85 520.819,-391.387"/>
</g>
<!-- Node7&#45;&gt;Node5 -->
<g id="edge7" class="edge"><title>Node7&#45;&gt;Node5</title>
<path fill="none" stroke="midnightblue" d="M570.19,-361.974C531.723,-369.457 479.767,-379.664 434,-389 419.292,-392 403.25,-395.359 388.838,-398.408"/>
<polygon fill="midnightblue" stroke="midnightblue" points="571.016,-365.379 580.165,-360.036 569.681,-358.508 571.016,-365.379"/>
</g>
<!-- Node8&#45;&gt;Node6 -->
<g id="edge9" class="edge"><title>Node8&#45;&gt;Node6</title>
<path fill="none" stroke="midnightblue" d="M385.1,-621.732C389.803,-618.985 394.248,-615.763 398,-612 456.497,-553.343 480.085,-450.2 486.251,-417.935"/>
<polygon fill="midnightblue" stroke="midnightblue" points="383.172,-618.787 375.851,-626.446 386.35,-625.023 383.172,-618.787"/>
</g>
<!-- Node12&#45;&gt;Node7 -->
<g id="edge16" class="edge"><title>Node12&#45;&gt;Node7</title>
<path fill="none" stroke="midnightblue" d="M507.2,-234.697C536.118,-262.771 593.596,-318.572 616.867,-341.163"/>
<polygon fill="midnightblue" stroke="midnightblue" points="509.466,-232.019 499.853,-227.565 504.59,-237.042 509.466,-232.019"/>
</g>
<!-- Node15&#45;&gt;Node5 -->
<g id="edge20" class="edge"><title>Node15&#45;&gt;Node5</title>
<path fill="none" stroke="midnightblue" d="M253.94,-408C267.77,-408 282.433,-408 295.744,-408"/>
<polygon fill="midnightblue" stroke="midnightblue" points="253.563,-404.5 243.562,-408 253.562,-411.5 253.563,-404.5"/>
</g>
<!-- Node16&#45;&gt;Node5 -->
<g id="edge22" class="edge"><title>Node16&#45;&gt;Node5</title>
<path fill="none" stroke="midnightblue" d="M244.172,-382.184C264.164,-387.46 287.219,-393.544 305.924,-398.48"/>
<polygon fill="midnightblue" stroke="midnightblue" points="244.899,-378.756 234.337,-379.589 243.113,-385.525 244.899,-378.756"/>
</g>
<!-- Node16&#45;&gt;Node11 -->
<g id="edge23" class="edge"><title>Node16&#45;&gt;Node11</title>
<path fill="none" stroke="midnightblue" d="M244.912,-370C258.659,-370 273.802,-370 287.956,-370"/>
<polygon fill="midnightblue" stroke="midnightblue" points="244.71,-366.5 234.71,-370 244.71,-373.5 244.71,-366.5"/>
</g>
<!-- Node18&#45;&gt;Node6 -->
<g id="edge26" class="edge"><title>Node18&#45;&gt;Node6</title>
<path fill="none" stroke="midnightblue" d="M384.488,-345.114C389.108,-346.942 393.699,-348.915 398,-351 426.791,-364.959 457.77,-386.082 474.832,-398.312"/>
<polygon fill="midnightblue" stroke="midnightblue" points="385.64,-341.808 375.048,-341.574 383.182,-348.362 385.64,-341.808"/>
</g>
<!-- Node18&#45;&gt;Node7 -->
<g id="edge27" class="edge"><title>Node18&#45;&gt;Node7</title>
<path fill="none" stroke="midnightblue" d="M401.874,-335.886C454.49,-339.418 531.164,-344.566 580.061,-347.849"/>
<polygon fill="midnightblue" stroke="midnightblue" points="401.899,-332.379 391.687,-335.202 401.43,-339.364 401.899,-332.379"/>
</g>
<!-- Node19&#45;&gt;Node7 -->
<g id="edge29" class="edge"><title>Node19&#45;&gt;Node7</title>
<path fill="none" stroke="midnightblue" d="M508.29,-158.932C519.393,-169.758 533.415,-184.455 544,-199 580.268,-248.837 611.674,-316.327 622.748,-341.24"/>
<polygon fill="midnightblue" stroke="midnightblue" points="510.462,-156.166 500.813,-151.79 505.627,-161.228 510.462,-156.166"/>
</g>
<!-- Node20&#45;&gt;Node20 -->
<g id="edge31" class="edge"><title>Node20&#45;&gt;Node20</title>
<path fill="none" stroke="midnightblue" d="M170.121,-66.6539C171.244,-71.9368 180.204,-76 197,-76 222.594,-76 229.992,-66.5653 219.195,-57.7571"/>
<polygon fill="midnightblue" stroke="midnightblue" points="173.243,-68.2361 174.805,-57.7571 167.049,-64.9747 173.243,-68.2361"/>
</g>
</g>
</svg>
