<?xml version="1.0" encoding="UTF-8" standalone="no"?>
<!DOCTYPE svg PUBLIC "-//W3C//DTD SVG 1.1//EN"
 "http://www.w3.org/Graphics/SVG/1.1/DTD/svg11.dtd">
<!-- Generated by graphviz version 2.36.0 (20140111.2315)
 -->
<!-- Title: dump_config Pages: 1 -->
<svg width="228pt" height="484pt"
 viewBox="0.00 0.00 228.00 484.00" xmlns="http://www.w3.org/2000/svg" xmlns:xlink="http://www.w3.org/1999/xlink">
<g id="graph0" class="graph" transform="scale(1 1) rotate(0) translate(4 480)">
<title>dump_config</title>
<polygon fill="white" stroke="none" points="-4,4 -4,-480 224,-480 224,4 -4,4"/>
<!-- Node1 -->
<g id="node1" class="node"><title>Node1</title>
<polygon fill="#bfbfbf" stroke="black" points="0,-228.5 0,-247.5 72,-247.5 72,-228.5 0,-228.5"/>
<text text-anchor="middle" x="36" y="-235.5" font-family="Helvetica,sans-Serif" font-size="10.00">dump_config</text>
</g>
<!-- Node2 -->
<g id="node2" class="node"><title>Node2</title>
<g id="a_node2"><a xlink:href="dump_8c.html#a9bdb65f8631a84b67ded8d0fa1744e31" target="_top" xlink:title="Create a sorted list of all config items. ">
<polygon fill="white" stroke="red" points="127,-456.5 127,-475.5 201,-475.5 201,-456.5 127,-456.5"/>
<text text-anchor="middle" x="164" y="-463.5" font-family="Helvetica,sans-Serif" font-size="10.00">get_elem_list</text>
</a>
</g>
</g>
<!-- Node1&#45;&gt;Node2 -->
<g id="edge1" class="edge"><title>Node1&#45;&gt;Node2</title>
<path fill="none" stroke="midnightblue" d="M37.4086,-247.871C39.3079,-280.875 49.8908,-388.591 108,-447 110.844,-449.859 114.139,-452.289 117.675,-454.353"/>
<polygon fill="midnightblue" stroke="midnightblue" points="116.312,-457.581 126.84,-458.768 119.35,-451.275 116.312,-457.581"/>
</g>
<!-- Node3 -->
<g id="node3" class="node"><title>Node3</title>
<g id="a_node3"><a xlink:href="buffer_8c.html#a5928463d232a1bec2803510cb2798e2f" target="_top" xlink:title="Create a new Buffer. ">
<polygon fill="white" stroke="red" points="118,-418.5 118,-437.5 210,-437.5 210,-418.5 118,-418.5"/>
<text text-anchor="middle" x="164" y="-425.5" font-family="Helvetica,sans-Serif" font-size="10.00">mutt_buffer_alloc</text>
</a>
</g>
</g>
<!-- Node1&#45;&gt;Node3 -->
<g id="edge2" class="edge"><title>Node1&#45;&gt;Node3</title>
<path fill="none" stroke="midnightblue" d="M38.2311,-247.685C42.4005,-276.494 58.6016,-362.523 108,-409 109.674,-410.575 111.485,-412.02 113.395,-413.346"/>
<polygon fill="midnightblue" stroke="midnightblue" points="111.87,-416.505 122.289,-418.428 115.343,-410.428 111.87,-416.505"/>
</g>
<!-- Node4 -->
<g id="node4" class="node"><title>Node4</title>
<g id="a_node4"><a xlink:href="buffer_8c.html#a8da54c4ec8e1a4e21158f134441bdf2d" target="_top" xlink:title="Reset an existing Buffer. ">
<polygon fill="white" stroke="black" points="117.5,-380.5 117.5,-399.5 210.5,-399.5 210.5,-380.5 117.5,-380.5"/>
<text text-anchor="middle" x="164" y="-387.5" font-family="Helvetica,sans-Serif" font-size="10.00">mutt_buffer_reset</text>
</a>
</g>
</g>
<!-- Node1&#45;&gt;Node4 -->
<g id="edge3" class="edge"><title>Node1&#45;&gt;Node4</title>
<path fill="none" stroke="midnightblue" d="M39.4715,-247.585C46.2098,-271.834 67.1872,-336.165 108,-371 109.983,-372.693 112.126,-374.238 114.376,-375.647"/>
<polygon fill="midnightblue" stroke="midnightblue" points="112.993,-378.874 123.472,-380.437 116.254,-372.68 112.993,-378.874"/>
</g>
<!-- Node5 -->
<g id="node5" class="node"><title>Node5</title>
<g id="a_node5"><a xlink:href="config_2set_8c.html#aae8bc50e36b926998d926687f97c8b48" target="_top" xlink:title="Get a config item as a string. ">
<polygon fill="white" stroke="red" points="118.5,-342.5 118.5,-361.5 209.5,-361.5 209.5,-342.5 118.5,-342.5"/>
<text text-anchor="middle" x="164" y="-349.5" font-family="Helvetica,sans-Serif" font-size="10.00">cs_he_string_get</text>
</a>
</g>
</g>
<!-- Node1&#45;&gt;Node5 -->
<g id="edge4" class="edge"><title>Node1&#45;&gt;Node5</title>
<path fill="none" stroke="midnightblue" d="M41.6496,-247.578C51.3525,-266.594 75.5758,-309.319 108,-333 110.529,-334.847 113.252,-336.525 116.085,-338.049"/>
<polygon fill="midnightblue" stroke="midnightblue" points="114.863,-341.341 125.405,-342.404 117.827,-334.999 114.863,-341.341"/>
</g>
<!-- Node6 -->
<g id="node6" class="node"><title>Node6</title>
<g id="a_node6"><a xlink:href="buffer_8c.html#a2d7c4a32422377609be66b0f620c4971" target="_top" xlink:title="Is the Buffer empty? ">
<polygon fill="white" stroke="black" points="108.5,-304.5 108.5,-323.5 219.5,-323.5 219.5,-304.5 108.5,-304.5"/>
<text text-anchor="middle" x="164" y="-311.5" font-family="Helvetica,sans-Serif" font-size="10.00">mutt_buffer_is_empty</text>
</a>
</g>
</g>
<!-- Node1&#45;&gt;Node6 -->
<g id="edge5" class="edge"><title>Node1&#45;&gt;Node6</title>
<path fill="none" stroke="midnightblue" d="M46.7761,-247.706C59.7752,-260.15 83.9226,-281.704 108,-295 111.731,-297.06 115.726,-298.957 119.796,-300.689"/>
<polygon fill="midnightblue" stroke="midnightblue" points="118.755,-304.04 129.343,-304.43 121.309,-297.523 118.755,-304.04"/>
</g>
<!-- Node7 -->
<g id="node7" class="node"><title>Node7</title>
<g id="a_node7"><a xlink:href="buffer_8c.html#a958e87c1ae9de976eb76f759dbaaa601" target="_top" xlink:title="Add a string to a Buffer. ">
<polygon fill="white" stroke="red" points="115,-266.5 115,-285.5 213,-285.5 213,-266.5 115,-266.5"/>
<text text-anchor="middle" x="164" y="-273.5" font-family="Helvetica,sans-Serif" font-size="10.00">mutt_buffer_addstr</text>
</a>
</g>
</g>
<!-- Node1&#45;&gt;Node7 -->
<g id="edge6" class="edge"><title>Node1&#45;&gt;Node7</title>
<path fill="none" stroke="midnightblue" d="M68.7951,-247.589C84.7621,-252.404 104.307,-258.299 121.447,-263.468"/>
<polygon fill="midnightblue" stroke="midnightblue" points="120.63,-266.878 131.215,-266.414 122.652,-260.176 120.63,-266.878"/>
</g>
<!-- Node8 -->
<g id="node8" class="node"><title>Node8</title>
<g id="a_node8"><a xlink:href="dump_8c.html#abfd32209fdb0af78b7c00c3917440d1b" target="_top" xlink:title="Shorten a mailbox path using &#39;~&#39; or &#39;=&#39;. ">
<polygon fill="white" stroke="black" points="111.5,-228.5 111.5,-247.5 216.5,-247.5 216.5,-228.5 111.5,-228.5"/>
<text text-anchor="middle" x="164" y="-235.5" font-family="Helvetica,sans-Serif" font-size="10.00">mutt_pretty_mailbox</text>
</a>
</g>
</g>
<!-- Node1&#45;&gt;Node8 -->
<g id="edge7" class="edge"><title>Node1&#45;&gt;Node8</title>
<path fill="none" stroke="midnightblue" d="M72.098,-238C81.0693,-238 90.9866,-238 100.875,-238"/>
<polygon fill="midnightblue" stroke="midnightblue" points="101.129,-241.5 111.129,-238 101.129,-234.5 101.129,-241.5"/>
</g>
<!-- Node9 -->
<g id="node9" class="node"><title>Node9</title>
<g id="a_node9"><a xlink:href="dump_8c.html#a276cdae2ea9e186548c4a6f247cc0e58" target="_top" xlink:title="Escape and stringify a config item value. ">
<polygon fill="white" stroke="red" points="134,-190.5 134,-209.5 194,-209.5 194,-190.5 134,-190.5"/>
<text text-anchor="middle" x="164" y="-197.5" font-family="Helvetica,sans-Serif" font-size="10.00">pretty_var</text>
</a>
</g>
</g>
<!-- Node1&#45;&gt;Node9 -->
<g id="edge8" class="edge"><title>Node1&#45;&gt;Node9</title>
<path fill="none" stroke="midnightblue" d="M68.7951,-228.411C85.4934,-223.375 106.105,-217.159 123.786,-211.826"/>
<polygon fill="midnightblue" stroke="midnightblue" points="125.243,-215.043 133.806,-208.805 123.221,-208.341 125.243,-215.043"/>
</g>
<!-- Node10 -->
<g id="node10" class="node"><title>Node10</title>
<g id="a_node10"><a xlink:href="mutt_2string_8c.html#a3b8965b21d6e21536750f8883cd4333a" target="_top" xlink:title="Copy a string into a buffer (guaranteeing NUL&#45;termination) ">
<polygon fill="white" stroke="black" points="120,-152.5 120,-171.5 208,-171.5 208,-152.5 120,-152.5"/>
<text text-anchor="middle" x="164" y="-159.5" font-family="Helvetica,sans-Serif" font-size="10.00">mutt_str_strfcpy</text>
</a>
</g>
</g>
<!-- Node1&#45;&gt;Node10 -->
<g id="edge9" class="edge"><title>Node1&#45;&gt;Node10</title>
<path fill="none" stroke="midnightblue" d="M46.7761,-228.294C59.7752,-215.85 83.9226,-194.296 108,-181 111.731,-178.94 115.726,-177.043 119.796,-175.311"/>
<polygon fill="midnightblue" stroke="midnightblue" points="121.309,-178.477 129.343,-171.57 118.755,-171.96 121.309,-178.477"/>
</g>
<!-- Node11 -->
<g id="node11" class="node"><title>Node11</title>
<g id="a_node11"><a xlink:href="config_2set_8c.html#adcbe5a0a3dbd9fb44afaaeb1546e6a6f" target="_top" xlink:title="Get the initial, or parent, value of a config item. ">
<polygon fill="white" stroke="red" points="119.5,-114.5 119.5,-133.5 208.5,-133.5 208.5,-114.5 119.5,-114.5"/>
<text text-anchor="middle" x="164" y="-121.5" font-family="Helvetica,sans-Serif" font-size="10.00">cs_he_initial_get</text>
</a>
</g>
</g>
<!-- Node1&#45;&gt;Node11 -->
<g id="edge10" class="edge"><title>Node1&#45;&gt;Node11</title>
<path fill="none" stroke="midnightblue" d="M41.6496,-228.422C51.3525,-209.406 75.5758,-166.681 108,-143 110.529,-141.153 113.252,-139.475 116.085,-137.951"/>
<polygon fill="midnightblue" stroke="midnightblue" points="117.827,-141.001 125.405,-133.596 114.863,-134.659 117.827,-141.001"/>
</g>
<!-- Node12 -->
<g id="node12" class="node"><title>Node12</title>
<g id="a_node12"><a xlink:href="dump_8c.html#aaa82cbd417669c9a92592c600db33467" target="_top" xlink:title="Dump the config in the style of Mutt. ">
<polygon fill="white" stroke="black" points="115.5,-76.5 115.5,-95.5 212.5,-95.5 212.5,-76.5 115.5,-76.5"/>
<text text-anchor="middle" x="164" y="-83.5" font-family="Helvetica,sans-Serif" font-size="10.00">dump_config_mutt</text>
</a>
</g>
</g>
<!-- Node1&#45;&gt;Node12 -->
<g id="edge11" class="edge"><title>Node1&#45;&gt;Node12</title>
<path fill="none" stroke="midnightblue" d="M39.4715,-228.415C46.2098,-204.166 67.1872,-139.835 108,-105 109.983,-103.307 112.126,-101.762 114.376,-100.353"/>
<polygon fill="midnightblue" stroke="midnightblue" points="116.254,-103.32 123.472,-95.5633 112.993,-97.126 116.254,-103.32"/>
</g>
<!-- Node13 -->
<g id="node13" class="node"><title>Node13</title>
<g id="a_node13"><a xlink:href="dump_8c.html#a0b93e8a4e40b7bcd77950545494ac3be" target="_top" xlink:title="Dump the config in the style of NeoMutt. ">
<polygon fill="white" stroke="red" points="117.5,-38.5 117.5,-57.5 210.5,-57.5 210.5,-38.5 117.5,-38.5"/>
<text text-anchor="middle" x="164" y="-45.5" font-family="Helvetica,sans-Serif" font-size="10.00">dump_config_neo</text>
</a>
</g>
</g>
<!-- Node1&#45;&gt;Node13 -->
<g id="edge12" class="edge"><title>Node1&#45;&gt;Node13</title>
<path fill="none" stroke="midnightblue" d="M38.2311,-228.315C42.4005,-199.506 58.6016,-113.477 108,-67 109.674,-65.4251 111.485,-63.9801 113.395,-62.6543"/>
<polygon fill="midnightblue" stroke="midnightblue" points="115.343,-65.5723 122.289,-57.5719 111.87,-59.4946 115.343,-65.5723"/>
</g>
<!-- Node14 -->
<g id="node14" class="node"><title>Node14</title>
<g id="a_node14"><a xlink:href="buffer_8c.html#a4fe44d6951505adb974135817a85a3d1" target="_top" xlink:title="Release a Buffer and its contents. ">
<polygon fill="white" stroke="black" points="120,-0.5 120,-19.5 208,-19.5 208,-0.5 120,-0.5"/>
<text text-anchor="middle" x="164" y="-7.5" font-family="Helvetica,sans-Serif" font-size="10.00">mutt_buffer_free</text>
</a>
</g>
</g>
<!-- Node1&#45;&gt;Node14 -->
<g id="edge13" class="edge"><title>Node1&#45;&gt;Node14</title>
<path fill="none" stroke="midnightblue" d="M37.4086,-228.129C39.3079,-195.125 49.8908,-87.4086 108,-29 109.443,-27.5497 111.002,-26.21 112.649,-24.9725"/>
<polygon fill="midnightblue" stroke="midnightblue" points="114.767,-27.7807 121.496,-19.5968 111.132,-21.7985 114.767,-27.7807"/>
</g>
</g>
</svg>
