<?xml version="1.0" encoding="UTF-8" standalone="no"?>
<!DOCTYPE svg PUBLIC "-//W3C//DTD SVG 1.1//EN"
 "http://www.w3.org/Graphics/SVG/1.1/DTD/svg11.dtd">
<!-- Generated by graphviz version 2.36.0 (20140111.2315)
 -->
<!-- Title: mutt_builtin_editor Pages: 1 -->
<svg width="382pt" height="47pt"
 viewBox="0.00 0.00 382.00 47.00" xmlns="http://www.w3.org/2000/svg" xmlns:xlink="http://www.w3.org/1999/xlink">
<g id="graph0" class="graph" transform="scale(1 1) rotate(0) translate(4 43)">
<title>mutt_builtin_editor</title>
<polygon fill="white" stroke="none" points="-4,4 -4,-43 378,-43 378,4 -4,4"/>
<!-- Node1 -->
<g id="node1" class="node"><title>Node1</title>
<polygon fill="#bfbfbf" stroke="black" points="0,-0.5 0,-19.5 96,-19.5 96,-0.5 0,-0.5"/>
<text text-anchor="middle" x="48" y="-7.5" font-family="Helvetica,sans-Serif" font-size="10.00">mutt_builtin_editor</text>
</g>
<!-- Node2 -->
<g id="node2" class="node"><title>Node2</title>
<g id="a_node2"><a xlink:href="compose_8h.html#ad69c04d8ece089edb91f7b1178c2262c" target="_top" xlink:title="Allow the user to edit the message envelope. ">
<polygon fill="white" stroke="black" points="132,-19.5 132,-38.5 242,-38.5 242,-19.5 132,-19.5"/>
<text text-anchor="middle" x="187" y="-26.5" font-family="Helvetica,sans-Serif" font-size="10.00">mutt_compose_menu</text>
</a>
</g>
</g>
<!-- Node1&#45;&gt;Node2 -->
<g id="edge1" class="edge"><title>Node1&#45;&gt;Node2</title>
<path fill="none" stroke="midnightblue" d="M106.268,-17.9423C114.689,-19.1101 123.342,-20.3102 131.7,-21.4694"/>
<polygon fill="midnightblue" stroke="midnightblue" points="106.534,-14.4457 96.1476,-16.5387 105.572,-21.3793 106.534,-14.4457"/>
</g>
<!-- Node3 -->
<g id="node3" class="node"><title>Node3</title>
<g id="a_node3"><a xlink:href="send_8h.html#a09c909ab2bb41101590ed2b13f65fc2d" target="_top" xlink:title="Send an email. ">
<polygon fill="white" stroke="red" points="278.5,-0.5 278.5,-19.5 373.5,-19.5 373.5,-0.5 278.5,-0.5"/>
<text text-anchor="middle" x="326" y="-7.5" font-family="Helvetica,sans-Serif" font-size="10.00">ci_send_message</text>
</a>
</g>
</g>
<!-- Node1&#45;&gt;Node3 -->
<g id="edge3" class="edge"><title>Node1&#45;&gt;Node3</title>
<path fill="none" stroke="midnightblue" d="M106.309,-10C157.18,-10 230.6,-10 278.062,-10"/>
<polygon fill="midnightblue" stroke="midnightblue" points="106.133,-6.5001 96.1325,-10 106.132,-13.5001 106.133,-6.5001"/>
</g>
<!-- Node2&#45;&gt;Node3 -->
<g id="edge2" class="edge"><title>Node2&#45;&gt;Node3</title>
<path fill="none" stroke="midnightblue" d="M252.068,-20.1146C260.922,-18.8868 269.874,-17.6452 278.331,-16.4723"/>
<polygon fill="midnightblue" stroke="midnightblue" points="251.57,-16.6501 242.146,-21.4907 252.532,-23.5837 251.57,-16.6501"/>
</g>
</g>
</svg>
