<?xml version="1.0" encoding="UTF-8" standalone="no"?>
<!DOCTYPE svg PUBLIC "-//W3C//DTD SVG 1.1//EN"
 "http://www.w3.org/Graphics/SVG/1.1/DTD/svg11.dtd">
<!-- Generated by graphviz version 2.36.0 (20140111.2315)
 -->
<!-- Title: mutt_addr_write Pages: 1 -->
<svg width="562pt" height="746pt"
 viewBox="0.00 0.00 562.00 746.16" xmlns="http://www.w3.org/2000/svg" xmlns:xlink="http://www.w3.org/1999/xlink">
<g id="graph0" class="graph" transform="scale(1 1) rotate(0) translate(4 742.156)">
<title>mutt_addr_write</title>
<polygon fill="white" stroke="none" points="-4,4 -4,-742.156 558,-742.156 558,4 -4,4"/>
<!-- Node1 -->
<g id="node1" class="node"><title>Node1</title>
<polygon fill="#bfbfbf" stroke="black" points="0,-357.656 0,-376.656 86,-376.656 86,-357.656 0,-357.656"/>
<text text-anchor="middle" x="43" y="-364.656" font-family="Helvetica,sans-Serif" font-size="10.00">mutt_addr_write</text>
</g>
<!-- Node2 -->
<g id="node2" class="node"><title>Node2</title>
<g id="a_node2"><a xlink:href="addrbook_8c.html#a942addfe17c51ff4eecaf9ce71796f84" target="_top" xlink:title="Format a string for the alias list &#45; Implements format_t. ">
<polygon fill="white" stroke="red" points="139,-718.656 139,-737.656 225,-737.656 225,-718.656 139,-718.656"/>
<text text-anchor="middle" x="182" y="-725.656" font-family="Helvetica,sans-Serif" font-size="10.00">alias_format_str</text>
</a>
</g>
</g>
<!-- Node1&#45;&gt;Node2 -->
<g id="edge1" class="edge"><title>Node1&#45;&gt;Node2</title>
<path fill="none" stroke="midnightblue" d="M45.9497,-386.87C52.797,-452.302 77.7545,-660.868 122,-709.156 126.58,-714.154 132.479,-717.843 138.77,-720.564"/>
<polygon fill="midnightblue" stroke="midnightblue" points="49.4089,-386.291 44.9119,-376.697 42.445,-387.001 49.4089,-386.291"/>
</g>
<!-- Node3 -->
<g id="node3" class="node"><title>Node3</title>
<g id="a_node3"><a xlink:href="addrbook_8h.html#a59acdb82d3702665725f276de01d7e80" target="_top" xlink:title="Display a menu of Aliases. ">
<polygon fill="white" stroke="red" points="136.5,-680.656 136.5,-699.656 227.5,-699.656 227.5,-680.656 136.5,-680.656"/>
<text text-anchor="middle" x="182" y="-687.656" font-family="Helvetica,sans-Serif" font-size="10.00">mutt_alias_menu</text>
</a>
</g>
</g>
<!-- Node1&#45;&gt;Node3 -->
<g id="edge2" class="edge"><title>Node1&#45;&gt;Node3</title>
<path fill="none" stroke="midnightblue" d="M43.4288,-387.11C43.0112,-439.544 49.0063,-582.901 122,-666.156 127.54,-672.475 134.991,-677.157 142.73,-680.618"/>
<polygon fill="midnightblue" stroke="midnightblue" points="46.9329,-386.897 43.6073,-376.838 39.9339,-386.776 46.9329,-386.897"/>
</g>
<!-- Node4 -->
<g id="node4" class="node"><title>Node4</title>
<g id="a_node4"><a xlink:href="alias_8h.html#a95a1f5c567eca51458f60800bef47c84" target="_top" xlink:title="Create a new Alias from an Envelope or an Address. ">
<polygon fill="white" stroke="red" points="135,-566.656 135,-585.656 229,-585.656 229,-566.656 135,-566.656"/>
<text text-anchor="middle" x="182" y="-573.656" font-family="Helvetica,sans-Serif" font-size="10.00">mutt_alias_create</text>
</a>
</g>
</g>
<!-- Node1&#45;&gt;Node4 -->
<g id="edge3" class="edge"><title>Node1&#45;&gt;Node4</title>
<path fill="none" stroke="midnightblue" d="M47.2448,-387.172C54.2884,-424.477 74.348,-505.103 122,-552.156 128.295,-558.371 136.417,-563.046 144.61,-566.536"/>
<polygon fill="midnightblue" stroke="midnightblue" points="50.6467,-386.31 45.4606,-377.071 43.7534,-387.527 50.6467,-386.31"/>
</g>
<!-- Node5 -->
<g id="node5" class="node"><title>Node5</title>
<g id="a_node5"><a xlink:href="query_8c.html#a1ca9d237583501cf25a206723b5c15ec" target="_top" xlink:title="Get the user to enter an Address Query. ">
<polygon fill="white" stroke="red" points="308,-604.656 308,-623.656 378,-623.656 378,-604.656 308,-604.656"/>
<text text-anchor="middle" x="343" y="-611.656" font-family="Helvetica,sans-Serif" font-size="10.00">query_menu</text>
</a>
</g>
</g>
<!-- Node1&#45;&gt;Node5 -->
<g id="edge16" class="edge"><title>Node1&#45;&gt;Node5</title>
<path fill="none" stroke="midnightblue" d="M44.082,-387.054C45.4556,-432.377 55.7694,-543.364 122,-595.156 175.604,-637.073 260.639,-629.997 307.749,-621.716"/>
<polygon fill="midnightblue" stroke="midnightblue" points="47.5808,-386.955 43.8967,-377.022 40.582,-387.085 47.5808,-386.955"/>
</g>
<!-- Node6 -->
<g id="node6" class="node"><title>Node6</title>
<g id="a_node6"><a xlink:href="query_8h.html#a78b2d84a549146532bad0a1c33bad391" target="_top" xlink:title="Perform auto&#45;complete using an Address Query. ">
<polygon fill="white" stroke="red" points="444,-623.656 444,-642.656 554,-642.656 554,-623.656 444,-623.656"/>
<text text-anchor="middle" x="499" y="-630.656" font-family="Helvetica,sans-Serif" font-size="10.00">mutt_query_complete</text>
</a>
</g>
</g>
<!-- Node1&#45;&gt;Node6 -->
<g id="edge17" class="edge"><title>Node1&#45;&gt;Node6</title>
<path fill="none" stroke="midnightblue" d="M47.0127,-386.904C55.8405,-441.942 83.4736,-594.993 122,-625.156 226.493,-706.962 402.074,-663.912 469.996,-642.697"/>
<polygon fill="midnightblue" stroke="midnightblue" points="50.4238,-386.064 45.4172,-376.727 43.5083,-387.149 50.4238,-386.064"/>
</g>
<!-- Node7 -->
<g id="node7" class="node"><title>Node7</title>
<g id="a_node7"><a xlink:href="commands_8h.html#a2815f046da32dd09b3c3f4f93a1537b4" target="_top" xlink:title="Bounce an email. ">
<polygon fill="white" stroke="red" points="290,-338.656 290,-357.656 396,-357.656 396,-338.656 290,-338.656"/>
<text text-anchor="middle" x="343" y="-345.656" font-family="Helvetica,sans-Serif" font-size="10.00">ci_bounce_message</text>
</a>
</g>
</g>
<!-- Node1&#45;&gt;Node7 -->
<g id="edge6" class="edge"><title>Node1&#45;&gt;Node7</title>
<path fill="none" stroke="midnightblue" d="M47.4378,-387.113C54.5128,-421.25 74.2432,-489.985 122,-519.156 167.514,-546.957 195.738,-545.694 242,-519.156 305.541,-482.706 332.573,-388.531 339.862,-357.923"/>
<polygon fill="midnightblue" stroke="midnightblue" points="50.8146,-386.136 45.5015,-376.97 43.9388,-387.449 50.8146,-386.136"/>
</g>
<!-- Node8 -->
<g id="node8" class="node"><title>Node8</title>
<g id="a_node8"><a xlink:href="commands_8h.html#af74f4a746f477efa94a5e576e285bb71" target="_top" xlink:title="Display the address of a message. ">
<polygon fill="white" stroke="red" points="126,-490.656 126,-509.656 238,-509.656 238,-490.656 126,-490.656"/>
<text text-anchor="middle" x="182" y="-497.656" font-family="Helvetica,sans-Serif" font-size="10.00">mutt_display_address</text>
</a>
</g>
</g>
<!-- Node1&#45;&gt;Node8 -->
<g id="edge7" class="edge"><title>Node1&#45;&gt;Node8</title>
<path fill="none" stroke="midnightblue" d="M52.0488,-385.916C63.8111,-411.162 88.0484,-455.817 122,-481.156 127.174,-485.017 133.164,-488.113 139.303,-490.589"/>
<polygon fill="midnightblue" stroke="midnightblue" points="55.1943,-384.377 47.9048,-376.688 48.8086,-387.245 55.1943,-384.377"/>
</g>
<!-- Node9 -->
<g id="node9" class="node"><title>Node9</title>
<g id="a_node9"><a xlink:href="compose_8c.html#aa338e36c72dd41b00ff32b39ebe7a82b" target="_top" xlink:title="Write addresses to the compose window. ">
<polygon fill="white" stroke="red" points="129,-452.656 129,-471.656 235,-471.656 235,-452.656 129,-452.656"/>
<text text-anchor="middle" x="182" y="-459.656" font-family="Helvetica,sans-Serif" font-size="10.00">draw_envelope_addr</text>
</a>
</g>
</g>
<!-- Node1&#45;&gt;Node9 -->
<g id="edge8" class="edge"><title>Node1&#45;&gt;Node9</title>
<path fill="none" stroke="midnightblue" d="M57.951,-384.863C72.3218,-402.009 96.207,-427.625 122,-443.156 128.269,-446.93 135.37,-450.04 142.42,-452.572"/>
<polygon fill="midnightblue" stroke="midnightblue" points="60.3783,-382.302 51.3436,-376.768 54.9553,-386.728 60.3783,-382.302"/>
</g>
<!-- Node10 -->
<g id="node10" class="node"><title>Node10</title>
<g id="a_node10"><a xlink:href="compose_8c.html#a554b0789b26a5e33a8b93e929bd1a144" target="_top" xlink:title="Let the user edit the address list. ">
<polygon fill="white" stroke="red" points="137,-414.656 137,-433.656 227,-433.656 227,-414.656 137,-414.656"/>
<text text-anchor="middle" x="182" y="-421.656" font-family="Helvetica,sans-Serif" font-size="10.00">edit_address_list</text>
</a>
</g>
</g>
<!-- Node1&#45;&gt;Node10 -->
<g id="edge9" class="edge"><title>Node1&#45;&gt;Node10</title>
<path fill="none" stroke="midnightblue" d="M71.0535,-381.51C85.8696,-389.071 104.69,-398.192 122,-405.156 130.486,-408.569 139.841,-411.81 148.553,-414.618"/>
<polygon fill="midnightblue" stroke="midnightblue" points="72.442,-378.288 61.9515,-376.806 69.2277,-384.507 72.442,-378.288"/>
</g>
<!-- Node11 -->
<g id="node11" class="node"><title>Node11</title>
<g id="a_node11"><a xlink:href="config_2address_8c.html#ad491963060ee2cc61d5426b2367707d9" target="_top" xlink:title="Get an Address as a string &#45; Implements cst_string_get. ">
<polygon fill="white" stroke="red" points="132.5,-376.656 132.5,-395.656 231.5,-395.656 231.5,-376.656 132.5,-376.656"/>
<text text-anchor="middle" x="182" y="-383.656" font-family="Helvetica,sans-Serif" font-size="10.00">address_string_get</text>
</a>
</g>
</g>
<!-- Node1&#45;&gt;Node11 -->
<g id="edge10" class="edge"><title>Node1&#45;&gt;Node11</title>
<path fill="none" stroke="midnightblue" d="M96.4134,-374.425C108.253,-376.067 120.772,-377.803 132.444,-379.422"/>
<polygon fill="midnightblue" stroke="midnightblue" points="96.6084,-370.918 86.2224,-373.011 95.6468,-377.852 96.6084,-370.918"/>
</g>
<!-- Node12 -->
<g id="node12" class="node"><title>Node12</title>
<g id="a_node12"><a xlink:href="copy_8c.html#aac47146ece2e7182f6885034eaaa132b" target="_top" xlink:title="Write address headers to a buffer. ">
<polygon fill="white" stroke="red" points="122.5,-338.656 122.5,-357.656 241.5,-357.656 241.5,-338.656 122.5,-338.656"/>
<text text-anchor="middle" x="182" y="-345.656" font-family="Helvetica,sans-Serif" font-size="10.00">format_address_header</text>
</a>
</g>
</g>
<!-- Node1&#45;&gt;Node12 -->
<g id="edge11" class="edge"><title>Node1&#45;&gt;Node12</title>
<path fill="none" stroke="midnightblue" d="M96.3575,-359.894C104.84,-358.718 113.672,-357.493 122.293,-356.297"/>
<polygon fill="midnightblue" stroke="midnightblue" points="95.6468,-356.459 86.2224,-361.3 96.6084,-363.393 95.6468,-356.459"/>
</g>
<!-- Node13 -->
<g id="node13" class="node"><title>Node13</title>
<g id="a_node13"><a xlink:href="edit_8c.html#a53c366659eb7fb3c6fad4df4d0e41705" target="_top" xlink:title="Print a message Header. ">
<polygon fill="white" stroke="red" points="139,-300.656 139,-319.656 225,-319.656 225,-300.656 139,-300.656"/>
<text text-anchor="middle" x="182" y="-307.656" font-family="Helvetica,sans-Serif" font-size="10.00">be_print_header</text>
</a>
</g>
</g>
<!-- Node1&#45;&gt;Node13 -->
<g id="edge12" class="edge"><title>Node1&#45;&gt;Node13</title>
<path fill="none" stroke="midnightblue" d="M71.0535,-352.801C85.8696,-345.24 104.69,-336.119 122,-329.156 130.486,-325.742 139.841,-322.501 148.553,-319.693"/>
<polygon fill="midnightblue" stroke="midnightblue" points="69.2277,-349.804 61.9515,-357.505 72.442,-356.023 69.2277,-349.804"/>
</g>
<!-- Node14 -->
<g id="node14" class="node"><title>Node14</title>
<g id="a_node14"><a xlink:href="edit_8c.html#abf0e1a487bb4816d96e14ffe8e969833" target="_top" xlink:title="Edit the message headers. ">
<polygon fill="white" stroke="red" points="140.5,-262.656 140.5,-281.656 223.5,-281.656 223.5,-262.656 140.5,-262.656"/>
<text text-anchor="middle" x="182" y="-269.656" font-family="Helvetica,sans-Serif" font-size="10.00">be_edit_header</text>
</a>
</g>
</g>
<!-- Node1&#45;&gt;Node14 -->
<g id="edge13" class="edge"><title>Node1&#45;&gt;Node14</title>
<path fill="none" stroke="midnightblue" d="M57.951,-349.448C72.3218,-332.302 96.207,-306.686 122,-291.156 128.269,-287.381 135.37,-284.271 142.42,-281.739"/>
<polygon fill="midnightblue" stroke="midnightblue" points="54.9553,-347.583 51.3436,-357.543 60.3783,-352.009 54.9553,-347.583"/>
</g>
<!-- Node15 -->
<g id="node15" class="node"><title>Node15</title>
<g id="a_node15"><a xlink:href="hdrline_8c.html#afa4aeab4df484044d13f6fb7d7f08901" target="_top" xlink:title="Format a string for the index list &#45; Implements format_t. ">
<polygon fill="white" stroke="red" points="137.5,-224.656 137.5,-243.656 226.5,-243.656 226.5,-224.656 137.5,-224.656"/>
<text text-anchor="middle" x="182" y="-231.656" font-family="Helvetica,sans-Serif" font-size="10.00">index_format_str</text>
</a>
</g>
</g>
<!-- Node1&#45;&gt;Node15 -->
<g id="edge14" class="edge"><title>Node1&#45;&gt;Node15</title>
<path fill="none" stroke="midnightblue" d="M52.0488,-348.395C63.8111,-323.15 88.0484,-278.495 122,-253.156 127.174,-249.294 133.164,-246.198 139.303,-243.722"/>
<polygon fill="midnightblue" stroke="midnightblue" points="48.8086,-347.067 47.9048,-357.623 55.1943,-349.934 48.8086,-347.067"/>
</g>
<!-- Node16 -->
<g id="node16" class="node"><title>Node16</title>
<g id="a_node16"><a xlink:href="query_8c.html#a5f07bf1c28fa6b4d0a38b56138f068a1" target="_top" xlink:title="Format a string for the query menu &#45; Implements format_t. ">
<polygon fill="white" stroke="red" points="137,-186.656 137,-205.656 227,-205.656 227,-186.656 137,-186.656"/>
<text text-anchor="middle" x="182" y="-193.656" font-family="Helvetica,sans-Serif" font-size="10.00">query_format_str</text>
</a>
</g>
</g>
<!-- Node1&#45;&gt;Node16 -->
<g id="edge15" class="edge"><title>Node1&#45;&gt;Node16</title>
<path fill="none" stroke="midnightblue" d="M48.8657,-347.32C57.814,-314.969 79.937,-250.881 122,-215.156 126.593,-211.254 132,-208.151 137.645,-205.683"/>
<polygon fill="midnightblue" stroke="midnightblue" points="45.389,-346.78 46.2389,-357.34 52.1602,-348.555 45.389,-346.78"/>
</g>
<!-- Node17 -->
<g id="node17" class="node"><title>Node17</title>
<g id="a_node17"><a xlink:href="recvcmd_8h.html#a4894c4b5eb8d84ca5007940b13e5087e" target="_top" xlink:title="Bounce function, from the attachment menu. ">
<polygon fill="white" stroke="red" points="290.5,-81.6555 290.5,-100.656 395.5,-100.656 395.5,-81.6555 290.5,-81.6555"/>
<text text-anchor="middle" x="343" y="-88.6555" font-family="Helvetica,sans-Serif" font-size="10.00">mutt_attach_bounce</text>
</a>
</g>
</g>
<!-- Node1&#45;&gt;Node17 -->
<g id="edge18" class="edge"><title>Node1&#45;&gt;Node17</title>
<path fill="none" stroke="midnightblue" d="M46.7964,-347.523C55.2204,-291.409 82.2457,-132.36 122,-101.156 175.384,-59.2525 260.504,-70.6497 307.686,-81.5795"/>
<polygon fill="midnightblue" stroke="midnightblue" points="43.3097,-347.178 45.3222,-357.58 50.2357,-348.193 43.3097,-347.178"/>
</g>
<!-- Node18 -->
<g id="node18" class="node"><title>Node18</title>
<g id="a_node18"><a xlink:href="send_8c.html#aaab226dd1e48ef2ae0e5e7c49ed893d9" target="_top" xlink:title="Edit an email address. ">
<polygon fill="white" stroke="red" points="146,-110.656 146,-129.656 218,-129.656 218,-110.656 146,-110.656"/>
<text text-anchor="middle" x="182" y="-117.656" font-family="Helvetica,sans-Serif" font-size="10.00">edit_address</text>
</a>
</g>
</g>
<!-- Node1&#45;&gt;Node18 -->
<g id="edge19" class="edge"><title>Node1&#45;&gt;Node18</title>
<path fill="none" stroke="midnightblue" d="M45.0345,-347.087C48.3883,-303.116 62.5422,-197.548 122,-139.156 128.526,-132.746 137.223,-128.499 145.929,-125.684"/>
<polygon fill="midnightblue" stroke="midnightblue" points="41.5253,-347.116 44.3695,-357.322 48.5106,-347.57 41.5253,-347.116"/>
</g>
<!-- Node19 -->
<g id="node19" class="node"><title>Node19</title>
<g id="a_node19"><a xlink:href="sendlib_8h.html#aeeb18bfb6476338561d662eb3eeccd88" target="_top" xlink:title="wrapper around mutt_write_address() ">
<polygon fill="white" stroke="red" points="122,-34.6555 122,-53.6555 242,-53.6555 242,-34.6555 122,-34.6555"/>
<text text-anchor="middle" x="182" y="-41.6555" font-family="Helvetica,sans-Serif" font-size="10.00">mutt_write_address_list</text>
</a>
</g>
</g>
<!-- Node1&#45;&gt;Node19 -->
<g id="edge20" class="edge"><title>Node1&#45;&gt;Node19</title>
<path fill="none" stroke="midnightblue" d="M43.4288,-347.202C43.0112,-294.767 49.0063,-151.41 122,-68.1555 127.54,-61.8363 134.991,-57.1538 142.73,-53.6933"/>
<polygon fill="midnightblue" stroke="midnightblue" points="39.9339,-347.535 43.6073,-357.473 46.9329,-347.414 39.9339,-347.535"/>
</g>
<!-- Node20 -->
<g id="node20" class="node"><title>Node20</title>
<g id="a_node20"><a xlink:href="sendlib_8h.html#ae59a6b56ab028e4d7bcd8e16a945f6cc" target="_top" xlink:title="Write out one RFC822 header line. ">
<polygon fill="white" stroke="red" points="278.5,-24.6555 278.5,-43.6555 407.5,-43.6555 407.5,-24.6555 278.5,-24.6555"/>
<text text-anchor="middle" x="343" y="-31.6555" font-family="Helvetica,sans-Serif" font-size="10.00">mutt_rfc822_write_header</text>
</a>
</g>
</g>
<!-- Node1&#45;&gt;Node20 -->
<g id="edge22" class="edge"><title>Node1&#45;&gt;Node20</title>
<path fill="none" stroke="midnightblue" d="M45.3849,-347.286C50.49,-280.513 70.6926,-66.0787 122,-25.1555 179.827,20.9675 275.927,-7.77641 319.404,-24.5607"/>
<polygon fill="midnightblue" stroke="midnightblue" points="41.8891,-347.101 44.6473,-357.33 48.8703,-347.613 41.8891,-347.101"/>
</g>
<!-- Node21 -->
<g id="node21" class="node"><title>Node21</title>
<g id="a_node21"><a xlink:href="sendlib_8h.html#ae4568c8957cffa5c849f71e469dd42e6" target="_top" xlink:title="Bounce an email message. ">
<polygon fill="white" stroke="black" points="123,-148.656 123,-167.656 241,-167.656 241,-148.656 123,-148.656"/>
<text text-anchor="middle" x="182" y="-155.656" font-family="Helvetica,sans-Serif" font-size="10.00">mutt_bounce_message</text>
</a>
</g>
</g>
<!-- Node1&#45;&gt;Node21 -->
<g id="edge23" class="edge"><title>Node1&#45;&gt;Node21</title>
<path fill="none" stroke="midnightblue" d="M46.5857,-347.304C52.6336,-308.9 71.2512,-224.093 122,-177.156 126.187,-173.283 131.169,-170.199 136.438,-167.744"/>
<polygon fill="midnightblue" stroke="midnightblue" points="43.1164,-346.84 45.1433,-357.24 50.0438,-347.846 43.1164,-346.84"/>
</g>
<!-- Node4&#45;&gt;Node5 -->
<g id="edge4" class="edge"><title>Node4&#45;&gt;Node5</title>
<path fill="none" stroke="midnightblue" d="M232.919,-588.086C257.286,-593.909 285.977,-600.766 307.817,-605.986"/>
<polygon fill="midnightblue" stroke="midnightblue" points="233.662,-584.665 223.122,-585.745 232.035,-591.473 233.662,-584.665"/>
</g>
<!-- Node5&#45;&gt;Node6 -->
<g id="edge5" class="edge"><title>Node5&#45;&gt;Node6</title>
<path fill="none" stroke="midnightblue" d="M388.565,-619.654C405.868,-621.789 425.844,-624.253 443.956,-626.488"/>
<polygon fill="midnightblue" stroke="midnightblue" points="388.531,-616.123 378.178,-618.372 387.674,-623.07 388.531,-616.123"/>
</g>
<!-- Node19&#45;&gt;Node20 -->
<g id="edge21" class="edge"><title>Node19&#45;&gt;Node20</title>
<path fill="none" stroke="midnightblue" d="M252.315,-39.7961C261.014,-39.249 269.877,-38.6916 278.481,-38.1505"/>
<polygon fill="midnightblue" stroke="midnightblue" points="251.966,-36.311 242.206,-40.4319 252.406,-43.2972 251.966,-36.311"/>
</g>
<!-- Node21&#45;&gt;Node7 -->
<g id="edge24" class="edge"><title>Node21&#45;&gt;Node7</title>
<path fill="none" stroke="midnightblue" d="M234.678,-172.168C237.257,-173.667 239.719,-175.324 242,-177.156 298.58,-222.591 329.825,-309.296 339.061,-338.374"/>
<polygon fill="midnightblue" stroke="midnightblue" points="236.069,-168.951 225.553,-167.658 232.967,-175.227 236.069,-168.951"/>
</g>
<!-- Node21&#45;&gt;Node17 -->
<g id="edge25" class="edge"><title>Node21&#45;&gt;Node17</title>
<path fill="none" stroke="midnightblue" d="M225.007,-145.406C230.76,-143.434 236.557,-141.327 242,-139.156 271.335,-127.455 304.124,-111.046 323.903,-100.764"/>
<polygon fill="midnightblue" stroke="midnightblue" points="223.821,-142.111 215.434,-148.585 226.027,-148.755 223.821,-142.111"/>
</g>
</g>
</svg>
