<?xml version="1.0" encoding="UTF-8" standalone="no"?>
<!DOCTYPE svg PUBLIC "-//W3C//DTD SVG 1.1//EN"
 "http://www.w3.org/Graphics/SVG/1.1/DTD/svg11.dtd">
<!-- Generated by graphviz version 2.36.0 (20140111.2315)
 -->
<!-- Title: mutt_addrlist_to_intl Pages: 1 -->
<svg width="422pt" height="469pt"
 viewBox="0.00 0.00 422.00 469.14" xmlns="http://www.w3.org/2000/svg" xmlns:xlink="http://www.w3.org/1999/xlink">
<g id="graph0" class="graph" transform="scale(1 1) rotate(0) translate(4 465.144)">
<title>mutt_addrlist_to_intl</title>
<polygon fill="white" stroke="none" points="-4,4 -4,-465.144 418,-465.144 418,4 -4,4"/>
<!-- Node1 -->
<g id="node1" class="node"><title>Node1</title>
<polygon fill="#bfbfbf" stroke="black" points="0,-218.402 0,-237.402 104,-237.402 104,-218.402 0,-218.402"/>
<text text-anchor="middle" x="52" y="-225.402" font-family="Helvetica,sans-Serif" font-size="10.00">mutt_addrlist_to_intl</text>
</g>
<!-- Node2 -->
<g id="node2" class="node"><title>Node2</title>
<g id="a_node2"><a xlink:href="alias_8h.html#a95a1f5c567eca51458f60800bef47c84" target="_top" xlink:title="Create a new Alias from an Envelope or an Address. ">
<polygon fill="white" stroke="red" points="314,-427.402 314,-446.402 408,-446.402 408,-427.402 314,-427.402"/>
<text text-anchor="middle" x="361" y="-434.402" font-family="Helvetica,sans-Serif" font-size="10.00">mutt_alias_create</text>
</a>
</g>
</g>
<!-- Node1&#45;&gt;Node2 -->
<g id="edge1" class="edge"><title>Node1&#45;&gt;Node2</title>
<path fill="none" stroke="midnightblue" d="M54.3287,-247.788C58.4199,-291.082 74.8653,-393.463 140,-436.902 197.991,-475.577 285.107,-459.11 330.349,-446.466"/>
<polygon fill="midnightblue" stroke="midnightblue" points="57.8057,-247.362 53.5019,-237.681 50.829,-247.933 57.8057,-247.362"/>
</g>
<!-- Node3 -->
<g id="node3" class="node"><title>Node3</title>
<g id="a_node3"><a xlink:href="alias_8h.html#af897edddf49e2f9e8432b88763d47952" target="_top" xlink:title="Add an email address lookup for an Alias. ">
<polygon fill="white" stroke="black" points="146,-408.402 146,-427.402 266,-427.402 266,-408.402 146,-408.402"/>
<text text-anchor="middle" x="206" y="-415.402" font-family="Helvetica,sans-Serif" font-size="10.00">mutt_alias_add_reverse</text>
</a>
</g>
</g>
<!-- Node1&#45;&gt;Node3 -->
<g id="edge2" class="edge"><title>Node1&#45;&gt;Node3</title>
<path fill="none" stroke="midnightblue" d="M57.594,-247.862C66.8555,-283.569 91.1806,-358.423 140,-398.902 144.706,-402.804 150.182,-405.905 155.922,-408.369"/>
<polygon fill="midnightblue" stroke="midnightblue" points="60.8911,-246.612 55.1044,-237.737 54.0936,-248.284 60.8911,-246.612"/>
</g>
<!-- Node4 -->
<g id="node4" class="node"><title>Node4</title>
<g id="a_node4"><a xlink:href="init_8c.html#a0367e0b0cd983643eb9384a8c0242e18" target="_top" xlink:title="Parse the &#39;alias&#39; command &#45; Implements command_t. ">
<polygon fill="white" stroke="black" points="328,-370.402 328,-389.402 394,-389.402 394,-370.402 328,-370.402"/>
<text text-anchor="middle" x="361" y="-377.402" font-family="Helvetica,sans-Serif" font-size="10.00">parse_alias</text>
</a>
</g>
</g>
<!-- Node1&#45;&gt;Node4 -->
<g id="edge10" class="edge"><title>Node1&#45;&gt;Node4</title>
<path fill="none" stroke="midnightblue" d="M67.8484,-245.403C83.9553,-263.384 111.243,-291.057 140,-307.902 201.551,-343.957 283.512,-364.628 327.99,-373.914"/>
<polygon fill="midnightblue" stroke="midnightblue" points="70.1023,-242.664 60.8821,-237.445 64.8352,-247.275 70.1023,-242.664"/>
</g>
<!-- Node5 -->
<g id="node5" class="node"><title>Node5</title>
<g id="a_node5"><a xlink:href="alias_8h.html#a4dd6ae37df1048c70f0b9d0caaaab124" target="_top" xlink:title="Remove an email address lookup for an Alias. ">
<polygon fill="white" stroke="red" points="140.5,-370.402 140.5,-389.402 271.5,-389.402 271.5,-370.402 140.5,-370.402"/>
<text text-anchor="middle" x="206" y="-377.402" font-family="Helvetica,sans-Serif" font-size="10.00">mutt_alias_delete_reverse</text>
</a>
</g>
</g>
<!-- Node1&#45;&gt;Node5 -->
<g id="edge5" class="edge"><title>Node1&#45;&gt;Node5</title>
<path fill="none" stroke="midnightblue" d="M61.186,-246.759C74.0969,-274.422 101.716,-325.957 140,-355.902 147.959,-362.127 157.693,-366.851 167.181,-370.389"/>
<polygon fill="midnightblue" stroke="midnightblue" points="64.2736,-245.092 56.9663,-237.42 57.8946,-247.974 64.2736,-245.092"/>
</g>
<!-- Node6 -->
<g id="node6" class="node"><title>Node6</title>
<g id="a_node6"><a xlink:href="commands_8h.html#a2815f046da32dd09b3c3f4f93a1537b4" target="_top" xlink:title="Bounce an email. ">
<polygon fill="white" stroke="red" points="308,-94.4019 308,-113.402 414,-113.402 414,-94.4019 308,-94.4019"/>
<text text-anchor="middle" x="361" y="-101.402" font-family="Helvetica,sans-Serif" font-size="10.00">ci_bounce_message</text>
</a>
</g>
</g>
<!-- Node1&#45;&gt;Node6 -->
<g id="edge7" class="edge"><title>Node1&#45;&gt;Node6</title>
<path fill="none" stroke="midnightblue" d="M70.9698,-244.245C87.5257,-258.116 113.477,-276.987 140,-284.902 196.217,-301.678 222.267,-316.022 272,-284.902 335.386,-245.239 354.292,-145.406 358.79,-113.716"/>
<polygon fill="midnightblue" stroke="midnightblue" points="73.0668,-241.431 63.2154,-237.533 68.4853,-246.724 73.0668,-241.431"/>
</g>
<!-- Node7 -->
<g id="node7" class="node"><title>Node7</title>
<g id="a_node7"><a xlink:href="compose_8c.html#a554b0789b26a5e33a8b93e929bd1a144" target="_top" xlink:title="Let the user edit the address list. ">
<polygon fill="white" stroke="red" points="161,-256.402 161,-275.402 251,-275.402 251,-256.402 161,-256.402"/>
<text text-anchor="middle" x="206" y="-263.402" font-family="Helvetica,sans-Serif" font-size="10.00">edit_address_list</text>
</a>
</g>
</g>
<!-- Node1&#45;&gt;Node7 -->
<g id="edge8" class="edge"><title>Node1&#45;&gt;Node7</title>
<path fill="none" stroke="midnightblue" d="M101.16,-239.942C122.395,-245.251 146.995,-251.401 166.92,-256.382"/>
<polygon fill="midnightblue" stroke="midnightblue" points="101.906,-236.521 91.356,-237.491 100.209,-243.312 101.906,-236.521"/>
</g>
<!-- Node8 -->
<g id="node8" class="node"><title>Node8</title>
<g id="a_node8"><a xlink:href="edit_8c.html#abf0e1a487bb4816d96e14ffe8e969833" target="_top" xlink:title="Edit the message headers. ">
<polygon fill="white" stroke="red" points="164.5,-218.402 164.5,-237.402 247.5,-237.402 247.5,-218.402 164.5,-218.402"/>
<text text-anchor="middle" x="206" y="-225.402" font-family="Helvetica,sans-Serif" font-size="10.00">be_edit_header</text>
</a>
</g>
</g>
<!-- Node1&#45;&gt;Node8 -->
<g id="edge9" class="edge"><title>Node1&#45;&gt;Node8</title>
<path fill="none" stroke="midnightblue" d="M114.367,-227.902C131.215,-227.902 149.06,-227.902 164.42,-227.902"/>
<polygon fill="midnightblue" stroke="midnightblue" points="114.037,-224.402 104.037,-227.902 114.037,-231.402 114.037,-224.402"/>
</g>
<!-- Node9 -->
<g id="node9" class="node"><title>Node9</title>
<g id="a_node9"><a xlink:href="init_8c.html#a8a92bf6b38a79da880ee26193755c79a" target="_top" xlink:title="Parse the &#39;group&#39; and &#39;ungroup&#39; commands &#45; Implements command_t. ">
<polygon fill="white" stroke="black" points="171,-180.402 171,-199.402 241,-199.402 241,-180.402 171,-180.402"/>
<text text-anchor="middle" x="206" y="-187.402" font-family="Helvetica,sans-Serif" font-size="10.00">parse_group</text>
</a>
</g>
</g>
<!-- Node1&#45;&gt;Node9 -->
<g id="edge11" class="edge"><title>Node1&#45;&gt;Node9</title>
<path fill="none" stroke="midnightblue" d="M101.126,-215.87C123.772,-210.209 150.25,-203.589 170.805,-198.451"/>
<polygon fill="midnightblue" stroke="midnightblue" points="100.209,-212.492 91.356,-218.313 101.906,-219.283 100.209,-212.492"/>
</g>
<!-- Node10 -->
<g id="node10" class="node"><title>Node10</title>
<g id="a_node10"><a xlink:href="main_8c.html#adedb285b02c41bde2158ded9cc9fd7ac" target="_top" xlink:title="Start NeoMutt. ">
<polygon fill="white" stroke="black" points="187,-142.402 187,-161.402 225,-161.402 225,-142.402 187,-142.402"/>
<text text-anchor="middle" x="206" y="-149.402" font-family="Helvetica,sans-Serif" font-size="10.00">main</text>
</a>
</g>
</g>
<!-- Node1&#45;&gt;Node10 -->
<g id="edge12" class="edge"><title>Node1&#45;&gt;Node10</title>
<path fill="none" stroke="midnightblue" d="M73.0787,-212.265C90.0968,-199.637 115.565,-182.173 140,-170.902 155.16,-163.909 173.501,-158.828 186.829,-155.689"/>
<polygon fill="midnightblue" stroke="midnightblue" points="70.8685,-209.548 64.9997,-218.369 75.0883,-215.133 70.8685,-209.548"/>
</g>
<!-- Node11 -->
<g id="node11" class="node"><title>Node11</title>
<g id="a_node11"><a xlink:href="query_8c.html#a9901c228993d9357a8f53e935e8fe981" target="_top" xlink:title="Turn a Query into an Address. ">
<polygon fill="white" stroke="red" points="167,-104.402 167,-123.402 245,-123.402 245,-104.402 167,-104.402"/>
<text text-anchor="middle" x="206" y="-111.402" font-family="Helvetica,sans-Serif" font-size="10.00">result_to_addr</text>
</a>
</g>
</g>
<!-- Node1&#45;&gt;Node11 -->
<g id="edge13" class="edge"><title>Node1&#45;&gt;Node11</title>
<path fill="none" stroke="midnightblue" d="M64.9673,-209.693C79.9946,-188.239 107.751,-152.98 140,-132.902 148.084,-127.869 157.56,-124.119 166.738,-121.343"/>
<polygon fill="midnightblue" stroke="midnightblue" points="61.8979,-207.982 59.1589,-218.217 67.6825,-211.924 61.8979,-207.982"/>
</g>
<!-- Node12 -->
<g id="node12" class="node"><title>Node12</title>
<g id="a_node12"><a xlink:href="recvcmd_8h.html#a4894c4b5eb8d84ca5007940b13e5087e" target="_top" xlink:title="Bounce function, from the attachment menu. ">
<polygon fill="white" stroke="red" points="308.5,-37.4019 308.5,-56.4019 413.5,-56.4019 413.5,-37.4019 308.5,-37.4019"/>
<text text-anchor="middle" x="361" y="-44.4019" font-family="Helvetica,sans-Serif" font-size="10.00">mutt_attach_bounce</text>
</a>
</g>
</g>
<!-- Node1&#45;&gt;Node12 -->
<g id="edge14" class="edge"><title>Node1&#45;&gt;Node12</title>
<path fill="none" stroke="midnightblue" d="M54.3287,-208.016C58.4199,-164.722 74.8653,-62.3411 140,-18.9019 204.065,23.8237 302.306,-17.2993 342.22,-37.3351"/>
<polygon fill="midnightblue" stroke="midnightblue" points="50.829,-207.871 53.5019,-218.123 57.8057,-208.441 50.829,-207.871"/>
</g>
<!-- Node13 -->
<g id="node13" class="node"><title>Node13</title>
<g id="a_node13"><a xlink:href="send_8c.html#aaab226dd1e48ef2ae0e5e7c49ed893d9" target="_top" xlink:title="Edit an email address. ">
<polygon fill="white" stroke="red" points="170,-28.4019 170,-47.4019 242,-47.4019 242,-28.4019 170,-28.4019"/>
<text text-anchor="middle" x="206" y="-35.4019" font-family="Helvetica,sans-Serif" font-size="10.00">edit_address</text>
</a>
</g>
</g>
<!-- Node1&#45;&gt;Node13 -->
<g id="edge15" class="edge"><title>Node1&#45;&gt;Node13</title>
<path fill="none" stroke="midnightblue" d="M57.594,-207.942C66.8555,-172.235 91.1806,-97.381 140,-56.9019 148.417,-49.9229 159.297,-45.5071 169.739,-42.7132"/>
<polygon fill="midnightblue" stroke="midnightblue" points="54.0936,-207.52 55.1044,-218.067 60.8911,-209.192 54.0936,-207.52"/>
</g>
<!-- Node14 -->
<g id="node14" class="node"><title>Node14</title>
<g id="a_node14"><a xlink:href="sendlib_8h.html#ae4568c8957cffa5c849f71e469dd42e6" target="_top" xlink:title="Bounce an email message. ">
<polygon fill="white" stroke="black" points="147,-66.4019 147,-85.4019 265,-85.4019 265,-66.4019 147,-66.4019"/>
<text text-anchor="middle" x="206" y="-73.4019" font-family="Helvetica,sans-Serif" font-size="10.00">mutt_bounce_message</text>
</a>
</g>
</g>
<!-- Node1&#45;&gt;Node14 -->
<g id="edge16" class="edge"><title>Node1&#45;&gt;Node14</title>
<path fill="none" stroke="midnightblue" d="M60.3777,-208.76C72.5348,-179.761 99.5319,-124.904 140,-94.9019 145.195,-91.0509 151.157,-87.9776 157.318,-85.5256"/>
<polygon fill="midnightblue" stroke="midnightblue" points="57.0729,-207.597 56.5728,-218.18 63.5634,-210.219 57.0729,-207.597"/>
</g>
<!-- Node3&#45;&gt;Node2 -->
<g id="edge3" class="edge"><title>Node3&#45;&gt;Node2</title>
<path fill="none" stroke="midnightblue" d="M276.27,-426.504C288.99,-428.084 301.979,-429.697 313.813,-431.166"/>
<polygon fill="midnightblue" stroke="midnightblue" points="276.509,-423.007 266.154,-425.248 275.646,-429.954 276.509,-423.007"/>
</g>
<!-- Node3&#45;&gt;Node4 -->
<g id="edge4" class="edge"><title>Node3&#45;&gt;Node4</title>
<path fill="none" stroke="midnightblue" d="M255.454,-405.868C279.093,-399.996 306.879,-393.095 327.862,-387.884"/>
<polygon fill="midnightblue" stroke="midnightblue" points="254.47,-402.506 245.608,-408.313 256.157,-409.299 254.47,-402.506"/>
</g>
<!-- Node5&#45;&gt;Node4 -->
<g id="edge6" class="edge"><title>Node5&#45;&gt;Node4</title>
<path fill="none" stroke="midnightblue" d="M281.945,-379.902C298.162,-379.902 314.472,-379.902 327.958,-379.902"/>
<polygon fill="midnightblue" stroke="midnightblue" points="281.886,-376.402 271.886,-379.902 281.886,-383.402 281.886,-376.402"/>
</g>
<!-- Node14&#45;&gt;Node6 -->
<g id="edge17" class="edge"><title>Node14&#45;&gt;Node6</title>
<path fill="none" stroke="midnightblue" d="M269.372,-87.3164C282.206,-89.6651 295.589,-92.1144 308.009,-94.3873"/>
<polygon fill="midnightblue" stroke="midnightblue" points="269.693,-83.8171 259.226,-85.4596 268.433,-90.7027 269.693,-83.8171"/>
</g>
<!-- Node14&#45;&gt;Node12 -->
<g id="edge18" class="edge"><title>Node14&#45;&gt;Node12</title>
<path fill="none" stroke="midnightblue" d="M267.554,-64.4244C281.551,-61.7714 296.293,-58.9771 309.792,-56.4185"/>
<polygon fill="midnightblue" stroke="midnightblue" points="266.695,-61.0248 257.522,-66.3259 267.999,-67.9023 266.695,-61.0248"/>
</g>
</g>
</svg>
