<?xml version="1.0" encoding="UTF-8" standalone="no"?>
<!DOCTYPE svg PUBLIC "-//W3C//DTD SVG 1.1//EN"
 "http://www.w3.org/Graphics/SVG/1.1/DTD/svg11.dtd">
<!-- Generated by graphviz version 2.36.0 (20140111.2315)
 -->
<!-- Title: rfc2047_decode_addrlist Pages: 1 -->
<svg width="294pt" height="142pt"
 viewBox="0.00 0.00 294.00 142.00" xmlns="http://www.w3.org/2000/svg" xmlns:xlink="http://www.w3.org/1999/xlink">
<g id="graph0" class="graph" transform="scale(1 1) rotate(0) translate(4 138)">
<title>rfc2047_decode_addrlist</title>
<polygon fill="white" stroke="none" points="-4,4 -4,-138 290,-138 290,4 -4,4"/>
<!-- Node1 -->
<g id="node1" class="node"><title>Node1</title>
<polygon fill="#bfbfbf" stroke="black" points="0,-57.5 0,-76.5 122,-76.5 122,-57.5 0,-57.5"/>
<text text-anchor="middle" x="61" y="-64.5" font-family="Helvetica,sans-Serif" font-size="10.00">rfc2047_decode_addrlist</text>
</g>
<!-- Node2 -->
<g id="node2" class="node"><title>Node2</title>
<g id="a_node2"><a xlink:href="copy_8c.html#a240d006c7a7b579c5e6c82836fc7917c" target="_top" xlink:title="Parse an email&#39;s headers. ">
<polygon fill="white" stroke="red" points="161,-114.5 161,-133.5 283,-133.5 283,-114.5 161,-114.5"/>
<text text-anchor="middle" x="222" y="-121.5" font-family="Helvetica,sans-Serif" font-size="10.00">address_header_decode</text>
</a>
</g>
</g>
<!-- Node1&#45;&gt;Node2 -->
<g id="edge1" class="edge"><title>Node1&#45;&gt;Node2</title>
<path fill="none" stroke="midnightblue" d="M94.1198,-80.4963C112.65,-88.085 136.475,-97.5089 158,-105 167.495,-108.304 177.906,-111.582 187.482,-114.461"/>
<polygon fill="midnightblue" stroke="midnightblue" points="95.265,-77.1826 84.6859,-76.6043 92.5953,-83.6536 95.265,-77.1826"/>
</g>
<!-- Node3 -->
<g id="node3" class="node"><title>Node3</title>
<g id="a_node3"><a xlink:href="parse_8h.html#ae50079838fa2a151db9ecfb0a149aaea" target="_top" xlink:title="parses an RFC822 header ">
<polygon fill="white" stroke="red" points="158.5,-76.5 158.5,-95.5 285.5,-95.5 285.5,-76.5 158.5,-76.5"/>
<text text-anchor="middle" x="222" y="-83.5" font-family="Helvetica,sans-Serif" font-size="10.00">mutt_rfc822_read_header</text>
</a>
</g>
</g>
<!-- Node1&#45;&gt;Node3 -->
<g id="edge2" class="edge"><title>Node1&#45;&gt;Node3</title>
<path fill="none" stroke="midnightblue" d="M132.248,-75.3945C140.964,-76.436 149.831,-77.4955 158.421,-78.522"/>
<polygon fill="midnightblue" stroke="midnightblue" points="132.456,-71.8944 122.111,-74.1831 131.625,-78.845 132.456,-71.8944"/>
</g>
<!-- Node4 -->
<g id="node4" class="node"><title>Node4</title>
<g id="a_node4"><a xlink:href="protos_8h.html#afdde3fd7b63e3baeb62575594fd49aa8" target="_top" xlink:title="Parse a mailto:// url. ">
<polygon fill="white" stroke="red" points="178,-38.5 178,-57.5 266,-57.5 266,-38.5 178,-38.5"/>
<text text-anchor="middle" x="222" y="-45.5" font-family="Helvetica,sans-Serif" font-size="10.00">url_parse_mailto</text>
</a>
</g>
</g>
<!-- Node1&#45;&gt;Node4 -->
<g id="edge3" class="edge"><title>Node1&#45;&gt;Node4</title>
<path fill="none" stroke="midnightblue" d="M132.185,-58.6131C147.658,-56.7641 163.608,-54.8581 177.648,-53.1805"/>
<polygon fill="midnightblue" stroke="midnightblue" points="131.625,-55.155 122.111,-59.8169 132.456,-62.1056 131.625,-55.155"/>
</g>
<!-- Node5 -->
<g id="node5" class="node"><title>Node5</title>
<g id="a_node5"><a xlink:href="sendlib_8h.html#a99b5cff5076c9e25bce367f0bae45f4c" target="_top" xlink:title="Undo the encodings of mutt_prepare_envelope() ">
<polygon fill="white" stroke="red" points="158,-0.5 158,-19.5 286,-19.5 286,-0.5 158,-0.5"/>
<text text-anchor="middle" x="222" y="-7.5" font-family="Helvetica,sans-Serif" font-size="10.00">mutt_unprepare_envelope</text>
</a>
</g>
</g>
<!-- Node1&#45;&gt;Node5 -->
<g id="edge4" class="edge"><title>Node1&#45;&gt;Node5</title>
<path fill="none" stroke="midnightblue" d="M94.1198,-53.5037C112.65,-45.915 136.475,-36.4911 158,-29 167.495,-25.6957 177.906,-22.4179 187.482,-19.539"/>
<polygon fill="midnightblue" stroke="midnightblue" points="92.5953,-50.3464 84.6859,-57.3957 95.265,-56.8174 92.5953,-50.3464"/>
</g>
</g>
</svg>
