<?xml version="1.0" encoding="UTF-8" standalone="no"?>
<!DOCTYPE svg PUBLIC "-//W3C//DTD SVG 1.1//EN"
 "http://www.w3.org/Graphics/SVG/1.1/DTD/svg11.dtd">
<!-- Generated by graphviz version 2.36.0 (20140111.2315)
 -->
<!-- Title: rfc2047_encode Pages: 1 -->
<svg width="416pt" height="198pt"
 viewBox="0.00 0.00 416.00 198.00" xmlns="http://www.w3.org/2000/svg" xmlns:xlink="http://www.w3.org/1999/xlink">
<g id="graph0" class="graph" transform="scale(1 1) rotate(0) translate(4 194)">
<title>rfc2047_encode</title>
<polygon fill="white" stroke="none" points="-4,4 -4,-194 412,-194 412,4 -4,4"/>
<!-- Node1 -->
<g id="node1" class="node"><title>Node1</title>
<polygon fill="#bfbfbf" stroke="black" points="0,-94.5 0,-113.5 86,-113.5 86,-94.5 0,-94.5"/>
<text text-anchor="middle" x="43" y="-101.5" font-family="Helvetica,sans-Serif" font-size="10.00">rfc2047_encode</text>
</g>
<!-- Node2 -->
<g id="node2" class="node"><title>Node2</title>
<g id="a_node2"><a xlink:href="rfc2047_8h.html#a19b03a80b48367cf63a33b4ce7f092ad" target="_top" xlink:title="Encode any RFC2047 headers, where required, in an Address list. ">
<polygon fill="white" stroke="red" points="127,-170.5 127,-189.5 249,-189.5 249,-170.5 127,-170.5"/>
<text text-anchor="middle" x="188" y="-177.5" font-family="Helvetica,sans-Serif" font-size="10.00">rfc2047_encode_addrlist</text>
</a>
</g>
</g>
<!-- Node1&#45;&gt;Node2 -->
<g id="edge1" class="edge"><title>Node1&#45;&gt;Node2</title>
<path fill="none" stroke="midnightblue" d="M64.6096,-119.686C79.8805,-130.815 101.51,-145.57 122,-156 132.935,-161.566 145.475,-166.507 156.605,-170.437"/>
<polygon fill="midnightblue" stroke="midnightblue" points="66.5286,-116.752 56.4097,-113.612 62.362,-122.377 66.5286,-116.752"/>
</g>
<!-- Node3 -->
<g id="node3" class="node"><title>Node3</title>
<g id="a_node3"><a xlink:href="sendlib_8h.html#a2a7a91c90b4cefccdb1b9a91f1505a02" target="_top" xlink:title="Prepare an email header. ">
<polygon fill="white" stroke="red" points="290,-132.5 290,-151.5 408,-151.5 408,-132.5 290,-132.5"/>
<text text-anchor="middle" x="349" y="-139.5" font-family="Helvetica,sans-Serif" font-size="10.00">mutt_prepare_envelope</text>
</a>
</g>
</g>
<!-- Node1&#45;&gt;Node3 -->
<g id="edge8" class="edge"><title>Node1&#45;&gt;Node3</title>
<path fill="none" stroke="midnightblue" d="M88.1439,-116.014C99.136,-118.656 110.941,-121.199 122,-123 178.545,-132.207 243.82,-137.086 289.635,-139.582"/>
<polygon fill="midnightblue" stroke="midnightblue" points="88.8709,-112.588 78.3224,-113.578 87.1859,-119.382 88.8709,-112.588"/>
</g>
<!-- Node4 -->
<g id="node4" class="node"><title>Node4</title>
<g id="a_node4"><a xlink:href="test_2rfc2047_8c.html#a3b6f824883e721fc2b0ac9704d505cd8" target="_top" xlink:title="test_rfc2047">
<polygon fill="white" stroke="black" points="152.5,-94.5 152.5,-113.5 223.5,-113.5 223.5,-94.5 152.5,-94.5"/>
<text text-anchor="middle" x="188" y="-101.5" font-family="Helvetica,sans-Serif" font-size="10.00">test_rfc2047</text>
</a>
</g>
</g>
<!-- Node1&#45;&gt;Node4 -->
<g id="edge3" class="edge"><title>Node1&#45;&gt;Node4</title>
<path fill="none" stroke="midnightblue" d="M96.2839,-104C114.974,-104 135.556,-104 152.384,-104"/>
<polygon fill="midnightblue" stroke="midnightblue" points="96.1313,-100.5 86.1313,-104 96.1312,-107.5 96.1313,-100.5"/>
</g>
<!-- Node5 -->
<g id="node5" class="node"><title>Node5</title>
<g id="a_node5"><a xlink:href="send_8h.html#ad242f4b2f11d8b765d7a74c522a7f82b" target="_top" xlink:title="rfc2047 encode the content&#45;descriptions ">
<polygon fill="white" stroke="red" points="122.5,-38.5 122.5,-57.5 253.5,-57.5 253.5,-38.5 122.5,-38.5"/>
<text text-anchor="middle" x="188" y="-45.5" font-family="Helvetica,sans-Serif" font-size="10.00">mutt_encode_descriptions</text>
</a>
</g>
</g>
<!-- Node1&#45;&gt;Node5 -->
<g id="edge4" class="edge"><title>Node1&#45;&gt;Node5</title>
<path fill="none" stroke="midnightblue" d="M78.0798,-90.6541C104.157,-80.4419 139.481,-66.6086 162.738,-57.5011"/>
<polygon fill="midnightblue" stroke="midnightblue" points="76.6178,-87.4677 68.5826,-94.3733 79.1703,-93.9858 76.6178,-87.4677"/>
</g>
<!-- Node6 -->
<g id="node6" class="node"><title>Node6</title>
<g id="a_node6"><a xlink:href="sendlib_8c.html#a0838fb1249d52359a84298c9c27550c2" target="_top" xlink:title="RFC2047&#45;encode a list of headers. ">
<polygon fill="white" stroke="black" points="144,-0.5 144,-19.5 232,-19.5 232,-0.5 144,-0.5"/>
<text text-anchor="middle" x="188" y="-7.5" font-family="Helvetica,sans-Serif" font-size="10.00">encode_headers</text>
</a>
</g>
</g>
<!-- Node1&#45;&gt;Node6 -->
<g id="edge6" class="edge"><title>Node1&#45;&gt;Node6</title>
<path fill="none" stroke="midnightblue" d="M57.9115,-86.3837C72.252,-69.356 96.1148,-43.9963 122,-29 128.714,-25.1102 136.287,-21.9632 143.829,-19.4345"/>
<polygon fill="midnightblue" stroke="midnightblue" points="54.9499,-84.4759 51.32,-94.4295 60.3648,-88.912 54.9499,-84.4759"/>
</g>
<!-- Node2&#45;&gt;Node3 -->
<g id="edge2" class="edge"><title>Node2&#45;&gt;Node3</title>
<path fill="none" stroke="midnightblue" d="M239.077,-168.032C261.358,-162.707 287.229,-156.524 308.166,-151.52"/>
<polygon fill="midnightblue" stroke="midnightblue" points="238.035,-164.682 229.122,-170.411 239.662,-171.491 238.035,-164.682"/>
</g>
<!-- Node5&#45;&gt;Node5 -->
<g id="edge5" class="edge"><title>Node5&#45;&gt;Node5</title>
<path fill="none" stroke="midnightblue" d="M161.121,-66.6539C162.244,-71.9368 171.204,-76 188,-76 213.594,-76 220.992,-66.5653 210.195,-57.7571"/>
<polygon fill="midnightblue" stroke="midnightblue" points="164.243,-68.2361 165.805,-57.7571 158.049,-64.9747 164.243,-68.2361"/>
</g>
<!-- Node6&#45;&gt;Node3 -->
<g id="edge7" class="edge"><title>Node6&#45;&gt;Node3</title>
<path fill="none" stroke="midnightblue" d="M241.758,-22.4285C246.049,-24.3246 250.192,-26.5018 254,-29 296.885,-57.1375 330.376,-110.751 342.786,-132.49"/>
<polygon fill="midnightblue" stroke="midnightblue" points="242.793,-19.0754 232.204,-18.711 240.254,-25.599 242.793,-19.0754"/>
</g>
</g>
</svg>
