<?xml version="1.0" encoding="UTF-8" standalone="no"?>
<!DOCTYPE svg PUBLIC "-//W3C//DTD SVG 1.1//EN"
 "http://www.w3.org/Graphics/SVG/1.1/DTD/svg11.dtd">
<!-- Generated by graphviz version 2.36.0 (20140111.2315)
 -->
<!-- Title: mutt_addrlist_to_intl Pages: 1 -->
<svg width="416pt" height="180pt"
 viewBox="0.00 0.00 416.00 180.00" xmlns="http://www.w3.org/2000/svg" xmlns:xlink="http://www.w3.org/1999/xlink">
<g id="graph0" class="graph" transform="scale(1 1) rotate(0) translate(4 176)">
<title>mutt_addrlist_to_intl</title>
<polygon fill="white" stroke="none" points="-4,4 -4,-176 412,-176 412,4 -4,4"/>
<!-- Node1 -->
<g id="node1" class="node"><title>Node1</title>
<polygon fill="#bfbfbf" stroke="black" points="0,-76.5 0,-95.5 104,-95.5 104,-76.5 0,-76.5"/>
<text text-anchor="middle" x="52" y="-83.5" font-family="Helvetica,sans-Serif" font-size="10.00">mutt_addrlist_to_intl</text>
</g>
<!-- Node2 -->
<g id="node2" class="node"><title>Node2</title>
<g id="a_node2"><a xlink:href="email_2address_8c.html#aacf03fb2b0b256417294d4b98bef1180" target="_top" xlink:title="Does the Address have IDN components. ">
<polygon fill="white" stroke="black" points="167.5,-152.5 167.5,-171.5 258.5,-171.5 258.5,-152.5 167.5,-152.5"/>
<text text-anchor="middle" x="213" y="-159.5" font-family="Helvetica,sans-Serif" font-size="10.00">mutt_addr_is_intl</text>
</a>
</g>
</g>
<!-- Node1&#45;&gt;Node2 -->
<g id="edge1" class="edge"><title>Node1&#45;&gt;Node2</title>
<path fill="none" stroke="midnightblue" d="M64.948,-95.6469C81.0778,-108.228 111.133,-130.143 140,-143 145.658,-145.52 151.719,-147.762 157.835,-149.742"/>
<polygon fill="midnightblue" stroke="midnightblue" points="156.856,-153.102 167.441,-152.64 158.878,-146.401 156.856,-153.102"/>
</g>
<!-- Node3 -->
<g id="node3" class="node"><title>Node3</title>
<g id="a_node3"><a xlink:href="email_2address_8c.html#a20720b8547295ba2cac27bf0158918c0" target="_top" xlink:title="Split a mailbox name into user and domain. ">
<polygon fill="white" stroke="red" points="140.5,-114.5 140.5,-133.5 285.5,-133.5 285.5,-114.5 140.5,-114.5"/>
<text text-anchor="middle" x="213" y="-121.5" font-family="Helvetica,sans-Serif" font-size="10.00">mutt_addr_mbox_to_udomain</text>
</a>
</g>
</g>
<!-- Node1&#45;&gt;Node3 -->
<g id="edge2" class="edge"><title>Node1&#45;&gt;Node3</title>
<path fill="none" stroke="midnightblue" d="M93.1224,-95.589C114.104,-100.604 139.982,-106.788 162.23,-112.105"/>
<polygon fill="midnightblue" stroke="midnightblue" points="161.626,-115.56 172.166,-114.48 163.254,-108.751 161.626,-115.56"/>
</g>
<!-- Node4 -->
<g id="node4" class="node"><title>Node4</title>
<g id="a_node4"><a xlink:href="mutt_2string_8c.html#ae48085384a6545e0fac589a88243ea31" target="_top" xlink:title="Copy a string, safely. ">
<polygon fill="white" stroke="red" points="322.5,-76.5 322.5,-95.5 407.5,-95.5 407.5,-76.5 322.5,-76.5"/>
<text text-anchor="middle" x="365" y="-83.5" font-family="Helvetica,sans-Serif" font-size="10.00">mutt_str_strdup</text>
</a>
</g>
</g>
<!-- Node1&#45;&gt;Node4 -->
<g id="edge6" class="edge"><title>Node1&#45;&gt;Node4</title>
<path fill="none" stroke="midnightblue" d="M104.007,-86C161.555,-86 254.639,-86 312.421,-86"/>
<polygon fill="midnightblue" stroke="midnightblue" points="312.431,-89.5001 322.431,-86 312.431,-82.5001 312.431,-89.5001"/>
</g>
<!-- Node5 -->
<g id="node5" class="node"><title>Node5</title>
<g id="a_node5"><a xlink:href="idna_8c.html#a1cf366a66462d6448ba1de79c693bf4a" target="_top" xlink:title="Convert an email&#39;s domain to Punycode. ">
<polygon fill="white" stroke="red" points="155,-38.5 155,-57.5 271,-57.5 271,-38.5 155,-38.5"/>
<text text-anchor="middle" x="213" y="-45.5" font-family="Helvetica,sans-Serif" font-size="10.00">mutt_idna_local_to_intl</text>
</a>
</g>
</g>
<!-- Node1&#45;&gt;Node5 -->
<g id="edge4" class="edge"><title>Node1&#45;&gt;Node5</title>
<path fill="none" stroke="midnightblue" d="M93.1224,-76.411C114.104,-71.3965 139.982,-65.2119 162.23,-59.8947"/>
<polygon fill="midnightblue" stroke="midnightblue" points="163.254,-63.2487 172.166,-57.5201 161.626,-56.4405 163.254,-63.2487"/>
</g>
<!-- Node6 -->
<g id="node6" class="node"><title>Node6</title>
<g id="a_node6"><a xlink:href="email_2address_8c.html#a0f3cd31818bf7079e83116dabb0e69d7" target="_top" xlink:title="Mark an Address as having IDN components. ">
<polygon fill="white" stroke="black" points="164.5,-0.5 164.5,-19.5 261.5,-19.5 261.5,-0.5 164.5,-0.5"/>
<text text-anchor="middle" x="213" y="-7.5" font-family="Helvetica,sans-Serif" font-size="10.00">mutt_addr_set_intl</text>
</a>
</g>
</g>
<!-- Node1&#45;&gt;Node6 -->
<g id="edge7" class="edge"><title>Node1&#45;&gt;Node6</title>
<path fill="none" stroke="midnightblue" d="M64.948,-76.3531C81.0778,-63.7719 111.133,-41.8566 140,-29 145.372,-26.6076 151.107,-24.4656 156.908,-22.5605"/>
<polygon fill="midnightblue" stroke="midnightblue" points="158.138,-25.8445 166.679,-19.5755 156.093,-19.1499 158.138,-25.8445"/>
</g>
<!-- Node3&#45;&gt;Node4 -->
<g id="edge3" class="edge"><title>Node3&#45;&gt;Node4</title>
<path fill="none" stroke="midnightblue" d="M251.851,-114.411C271.467,-109.442 295.619,-103.323 316.479,-98.0387"/>
<polygon fill="midnightblue" stroke="midnightblue" points="317.587,-101.369 326.421,-95.5201 315.868,-94.5831 317.587,-101.369"/>
</g>
<!-- Node5&#45;&gt;Node4 -->
<g id="edge5" class="edge"><title>Node5&#45;&gt;Node4</title>
<path fill="none" stroke="midnightblue" d="M251.851,-57.589C271.467,-62.5583 295.619,-68.6767 316.479,-73.9613"/>
<polygon fill="midnightblue" stroke="midnightblue" points="315.868,-77.4169 326.421,-76.4799 317.587,-70.6313 315.868,-77.4169"/>
</g>
</g>
</svg>
