<?xml version="1.0" encoding="UTF-8" standalone="no"?>
<!DOCTYPE svg PUBLIC "-//W3C//DTD SVG 1.1//EN"
 "http://www.w3.org/Graphics/SVG/1.1/DTD/svg11.dtd">
<!-- Generated by graphviz version 2.36.0 (20140111.2315)
 -->
<!-- Title: mutt_addr_write Pages: 1 -->
<svg width="366pt" height="47pt"
 viewBox="0.00 0.00 366.00 47.00" xmlns="http://www.w3.org/2000/svg" xmlns:xlink="http://www.w3.org/1999/xlink">
<g id="graph0" class="graph" transform="scale(1 1) rotate(0) translate(4 43)">
<title>mutt_addr_write</title>
<polygon fill="white" stroke="none" points="-4,4 -4,-43 362,-43 362,4 -4,4"/>
<!-- Node1 -->
<g id="node1" class="node"><title>Node1</title>
<polygon fill="#bfbfbf" stroke="black" points="0,-19.5 0,-38.5 86,-38.5 86,-19.5 0,-19.5"/>
<text text-anchor="middle" x="43" y="-26.5" font-family="Helvetica,sans-Serif" font-size="10.00">mutt_addr_write</text>
</g>
<!-- Node2 -->
<g id="node2" class="node"><title>Node2</title>
<g id="a_node2"><a xlink:href="mutt_2string_8c.html#aca11f88d08a860c07419df3efb18f35a" target="_top" xlink:title="Calculate the length of a string, safely. ">
<polygon fill="white" stroke="black" points="276,-19.5 276,-38.5 358,-38.5 358,-19.5 276,-19.5"/>
<text text-anchor="middle" x="317" y="-26.5" font-family="Helvetica,sans-Serif" font-size="10.00">mutt_str_strlen</text>
</a>
</g>
</g>
<!-- Node1&#45;&gt;Node2 -->
<g id="edge1" class="edge"><title>Node1&#45;&gt;Node2</title>
<path fill="none" stroke="midnightblue" d="M86.2016,-29C134.643,-29 214.04,-29 265.663,-29"/>
<polygon fill="midnightblue" stroke="midnightblue" points="265.917,-32.5001 275.917,-29 265.917,-25.5001 265.917,-32.5001"/>
</g>
<!-- Node3 -->
<g id="node3" class="node"><title>Node3</title>
<g id="a_node3"><a xlink:href="email_2address_8c.html#a0d46a66b5683deedd449056aac4d7ab0" target="_top" xlink:title="Write a single Address to a buffer. ">
<polygon fill="white" stroke="red" points="122.5,-0.5 122.5,-19.5 239.5,-19.5 239.5,-0.5 122.5,-0.5"/>
<text text-anchor="middle" x="181" y="-7.5" font-family="Helvetica,sans-Serif" font-size="10.00">mutt_addr_write_single</text>
</a>
</g>
</g>
<!-- Node1&#45;&gt;Node3 -->
<g id="edge2" class="edge"><title>Node1&#45;&gt;Node3</title>
<path fill="none" stroke="midnightblue" d="M86.2858,-23.0924C94.5572,-21.9369 103.424,-20.6981 112.284,-19.4603"/>
<polygon fill="midnightblue" stroke="midnightblue" points="112.833,-22.9177 122.253,-18.0676 111.865,-15.985 112.833,-22.9177"/>
</g>
<!-- Node3&#45;&gt;Node2 -->
<g id="edge3" class="edge"><title>Node3&#45;&gt;Node2</title>
<path fill="none" stroke="midnightblue" d="M239.606,-18.168C248.28,-19.3979 257.168,-20.6582 265.673,-21.8642"/>
<polygon fill="midnightblue" stroke="midnightblue" points="265.426,-25.364 275.818,-23.3026 266.409,-18.4333 265.426,-25.364"/>
</g>
</g>
</svg>
