<?xml version="1.0" encoding="UTF-8" standalone="no"?>
<!DOCTYPE svg PUBLIC "-//W3C//DTD SVG 1.1//EN"
 "http://www.w3.org/Graphics/SVG/1.1/DTD/svg11.dtd">
<!-- Generated by graphviz version 2.36.0 (20140111.2315)
 -->
<!-- Title: mutt_addr_for_display Pages: 1 -->
<svg width="454pt" height="120pt"
 viewBox="0.00 0.00 454.00 119.98" xmlns="http://www.w3.org/2000/svg" xmlns:xlink="http://www.w3.org/1999/xlink">
<g id="graph0" class="graph" transform="scale(1 1) rotate(0) translate(4 115.978)">
<title>mutt_addr_for_display</title>
<polygon fill="white" stroke="none" points="-4,4 -4,-115.978 450,-115.978 450,4 -4,4"/>
<!-- Node1 -->
<g id="node1" class="node"><title>Node1</title>
<polygon fill="#bfbfbf" stroke="black" points="0.5,-35.4775 0.5,-54.4775 113.5,-54.4775 113.5,-35.4775 0.5,-35.4775"/>
<text text-anchor="middle" x="57" y="-42.4775" font-family="Helvetica,sans-Serif" font-size="10.00">mutt_addr_for_display</text>
</g>
<!-- Node2 -->
<g id="node2" class="node"><title>Node2</title>
<g id="a_node2"><a xlink:href="email_2address_8h.html#a0d46a66b5683deedd449056aac4d7ab0" target="_top" xlink:title="Write a single Address to a buffer. ">
<polygon fill="white" stroke="red" points="150.5,-92.4775 150.5,-111.478 267.5,-111.478 267.5,-92.4775 150.5,-92.4775"/>
<text text-anchor="middle" x="209" y="-99.4775" font-family="Helvetica,sans-Serif" font-size="10.00">mutt_addr_write_single</text>
</a>
</g>
</g>
<!-- Node1&#45;&gt;Node2 -->
<g id="edge1" class="edge"><title>Node1&#45;&gt;Node2</title>
<path fill="none" stroke="midnightblue" d="M92.7446,-58.1805C120.287,-68.6465 158.122,-83.0238 182.811,-92.4059"/>
<polygon fill="midnightblue" stroke="midnightblue" points="93.6978,-54.7985 83.1066,-54.518 91.2112,-61.342 93.6978,-54.7985"/>
</g>
<!-- Node3 -->
<g id="node3" class="node"><title>Node3</title>
<g id="a_node3"><a xlink:href="test_2address_8c.html#afc95ec3d94cd615735b2b7f414ab7e4d" target="_top" xlink:title="test_addr_mbox_to_udomain">
<polygon fill="white" stroke="black" points="304,-63.4775 304,-82.4775 446,-82.4775 446,-63.4775 304,-63.4775"/>
<text text-anchor="middle" x="375" y="-70.4775" font-family="Helvetica,sans-Serif" font-size="10.00">test_addr_mbox_to_udomain</text>
</a>
</g>
</g>
<!-- Node1&#45;&gt;Node3 -->
<g id="edge3" class="edge"><title>Node1&#45;&gt;Node3</title>
<path fill="none" stroke="midnightblue" d="M124.003,-50.8259C176.638,-55.4897 250.175,-62.0057 303.865,-66.763"/>
<polygon fill="midnightblue" stroke="midnightblue" points="124.037,-47.3153 113.767,-49.9189 123.419,-54.288 124.037,-47.3153"/>
</g>
<!-- Node4 -->
<g id="node4" class="node"><title>Node4</title>
<g id="a_node4"><a xlink:href="sort_8h.html#a454decb89368ace74106e17470e11113" target="_top" xlink:title="Pick the best name to display from an address. ">
<polygon fill="white" stroke="red" points="167,-16.4775 167,-35.4775 251,-35.4775 251,-16.4775 167,-16.4775"/>
<text text-anchor="middle" x="209" y="-23.4775" font-family="Helvetica,sans-Serif" font-size="10.00">mutt_get_name</text>
</a>
</g>
</g>
<!-- Node1&#45;&gt;Node4 -->
<g id="edge4" class="edge"><title>Node1&#45;&gt;Node4</title>
<path fill="none" stroke="midnightblue" d="M123.823,-36.6399C138.37,-34.7973 153.385,-32.8954 166.633,-31.2173"/>
<polygon fill="midnightblue" stroke="midnightblue" points="123.335,-33.1737 113.854,-37.9026 124.215,-40.1182 123.335,-33.1737"/>
</g>
<!-- Node5 -->
<g id="node5" class="node"><title>Node5</title>
<g id="a_node5"><a xlink:href="hdrline_8c.html#afa4aeab4df484044d13f6fb7d7f08901" target="_top" xlink:title="Format a string for the index list &#45; Implements format_t. ">
<polygon fill="white" stroke="red" points="330.5,-6.47752 330.5,-25.4775 419.5,-25.4775 419.5,-6.47752 330.5,-6.47752"/>
<text text-anchor="middle" x="375" y="-13.4775" font-family="Helvetica,sans-Serif" font-size="10.00">index_format_str</text>
</a>
</g>
</g>
<!-- Node1&#45;&gt;Node5 -->
<g id="edge6" class="edge"><title>Node1&#45;&gt;Node5</title>
<path fill="none" stroke="midnightblue" d="M84.5589,-30.741C102.479,-21.9659 126.974,-11.5458 150,-6.97752 211.655,5.25432 284.667,-1.52884 330.169,-8.20348"/>
<polygon fill="midnightblue" stroke="midnightblue" points="82.6805,-27.7685 75.3304,-35.3992 85.8348,-34.0175 82.6805,-27.7685"/>
</g>
<!-- Node2&#45;&gt;Node3 -->
<g id="edge2" class="edge"><title>Node2&#45;&gt;Node3</title>
<path fill="none" stroke="midnightblue" d="M274.034,-90.6544C289.296,-87.9556 305.432,-85.1024 320.182,-82.4941"/>
<polygon fill="midnightblue" stroke="midnightblue" points="273.392,-87.2136 264.154,-92.4015 274.611,-94.1066 273.392,-87.2136"/>
</g>
<!-- Node4&#45;&gt;Node5 -->
<g id="edge5" class="edge"><title>Node4&#45;&gt;Node5</title>
<path fill="none" stroke="midnightblue" d="M261.59,-22.8318C283.679,-21.4849 309.199,-19.9288 330.334,-18.6401"/>
<polygon fill="midnightblue" stroke="midnightblue" points="261.153,-19.3519 251.384,-23.4541 261.579,-26.3389 261.153,-19.3519"/>
</g>
</g>
</svg>
