<?xml version="1.0" encoding="UTF-8" standalone="no"?>
<!DOCTYPE svg PUBLIC "-//W3C//DTD SVG 1.1//EN"
 "http://www.w3.org/Graphics/SVG/1.1/DTD/svg11.dtd">
<!-- Generated by graphviz version 2.36.0 (20140111.2315)
 -->
<!-- Title: encode Pages: 1 -->
<svg width="370pt" height="85pt"
 viewBox="0.00 0.00 370.00 85.00" xmlns="http://www.w3.org/2000/svg" xmlns:xlink="http://www.w3.org/1999/xlink">
<g id="graph0" class="graph" transform="scale(1 1) rotate(0) translate(4 81)">
<title>encode</title>
<polygon fill="white" stroke="none" points="-4,4 -4,-81 366,-81 366,4 -4,4"/>
<!-- Node1 -->
<g id="node1" class="node"><title>Node1</title>
<polygon fill="#bfbfbf" stroke="black" points="0,-19.5 0,-38.5 48,-38.5 48,-19.5 0,-19.5"/>
<text text-anchor="middle" x="24" y="-26.5" font-family="Helvetica,sans-Serif" font-size="10.00">encode</text>
</g>
<!-- Node2 -->
<g id="node2" class="node"><title>Node2</title>
<g id="a_node2"><a xlink:href="rfc2047_8h.html#a3cc43939d840544876d40c8da1f99b7d" target="_top" xlink:title="RFC&#45;2047&#45;encode a string. ">
<polygon fill="white" stroke="red" points="99,-57.5 99,-76.5 185,-76.5 185,-57.5 99,-57.5"/>
<text text-anchor="middle" x="142" y="-64.5" font-family="Helvetica,sans-Serif" font-size="10.00">rfc2047_encode</text>
</a>
</g>
</g>
<!-- Node1&#45;&gt;Node2 -->
<g id="edge1" class="edge"><title>Node1&#45;&gt;Node2</title>
<path fill="none" stroke="midnightblue" d="M57.7079,-39.7147C74.6667,-45.2701 95.2131,-52.0008 111.656,-57.3872"/>
<polygon fill="midnightblue" stroke="midnightblue" points="58.7882,-36.3856 48.1955,-36.5985 56.609,-43.0378 58.7882,-36.3856"/>
</g>
<!-- Node3 -->
<g id="node3" class="node"><title>Node3</title>
<g id="a_node3"><a xlink:href="rfc2231_8h.html#ac1aa83c6f3742edd57f20505ab9b445e" target="_top" xlink:title="Encode a string to be suitable for an RFC2231 header. ">
<polygon fill="white" stroke="black" points="84.5,-19.5 84.5,-38.5 199.5,-38.5 199.5,-19.5 84.5,-19.5"/>
<text text-anchor="middle" x="142" y="-26.5" font-family="Helvetica,sans-Serif" font-size="10.00">rfc2231_encode_string</text>
</a>
</g>
</g>
<!-- Node1&#45;&gt;Node3 -->
<g id="edge2" class="edge"><title>Node1&#45;&gt;Node3</title>
<path fill="none" stroke="midnightblue" d="M58.3401,-29C66.457,-29 75.3657,-29 84.2358,-29"/>
<polygon fill="midnightblue" stroke="midnightblue" points="58.1956,-25.5001 48.1955,-29 58.1955,-32.5001 58.1956,-25.5001"/>
</g>
<!-- Node4 -->
<g id="node4" class="node"><title>Node4</title>
<g id="a_node4"><a xlink:href="sendlib_8h.html#aedba34745a31061e882b1333e918137c" target="_top" xlink:title="Create a MIME header. ">
<polygon fill="white" stroke="red" points="236,-0.5 236,-19.5 362,-19.5 362,-0.5 236,-0.5"/>
<text text-anchor="middle" x="299" y="-7.5" font-family="Helvetica,sans-Serif" font-size="10.00">mutt_write_mime_header</text>
</a>
</g>
</g>
<!-- Node1&#45;&gt;Node4 -->
<g id="edge4" class="edge"><title>Node1&#45;&gt;Node4</title>
<path fill="none" stroke="midnightblue" d="M57.6556,-16.4906C66.1106,-13.8067 75.2894,-11.368 84,-10 134.65,-2.04563 192.879,-2.66706 235.797,-4.92996"/>
<polygon fill="midnightblue" stroke="midnightblue" points="56.4897,-13.19 48.1342,-19.7044 58.7284,-19.8224 56.4897,-13.19"/>
</g>
<!-- Node3&#45;&gt;Node4 -->
<g id="edge3" class="edge"><title>Node3&#45;&gt;Node4</title>
<path fill="none" stroke="midnightblue" d="M209.886,-20.801C218.541,-19.7402 227.375,-18.6573 235.946,-17.6066"/>
<polygon fill="midnightblue" stroke="midnightblue" points="209.336,-17.3422 199.836,-22.033 210.188,-24.2902 209.336,-17.3422"/>
</g>
</g>
</svg>
