<?xml version="1.0" encoding="UTF-8" standalone="no"?>
<!DOCTYPE svg PUBLIC "-//W3C//DTD SVG 1.1//EN"
 "http://www.w3.org/Graphics/SVG/1.1/DTD/svg11.dtd">
<!-- Generated by graphviz version 2.36.0 (20140111.2315)
 -->
<!-- Title: enriched_wrap Pages: 1 -->
<svg width="204pt" height="28pt"
 viewBox="0.00 0.00 204.00 28.00" xmlns="http://www.w3.org/2000/svg" xmlns:xlink="http://www.w3.org/1999/xlink">
<g id="graph0" class="graph" transform="scale(1 1) rotate(0) translate(4 24)">
<title>enriched_wrap</title>
<polygon fill="white" stroke="none" points="-4,4 -4,-24 200,-24 200,4 -4,4"/>
<!-- Node1 -->
<g id="node1" class="node"><title>Node1</title>
<polygon fill="#bfbfbf" stroke="black" points="0,-0.5 0,-19.5 80,-19.5 80,-0.5 0,-0.5"/>
<text text-anchor="middle" x="40" y="-7.5" font-family="Helvetica,sans-Serif" font-size="10.00">enriched_wrap</text>
</g>
<!-- Node2 -->
<g id="node2" class="node"><title>Node2</title>
<g id="a_node2"><a xlink:href="enriched_8c.html#a418154b29b6bf2ba99e7d765a4799eac" target="_top" xlink:title="Write enriched text to the State. ">
<polygon fill="white" stroke="red" points="116,-0.5 116,-19.5 196,-19.5 196,-0.5 116,-0.5"/>
<text text-anchor="middle" x="156" y="-7.5" font-family="Helvetica,sans-Serif" font-size="10.00">enriched_flush</text>
</a>
</g>
</g>
<!-- Node1&#45;&gt;Node2 -->
<g id="edge1" class="edge"><title>Node1&#45;&gt;Node2</title>
<path fill="none" stroke="midnightblue" d="M90.3898,-10C98.8518,-10 107.542,-10 115.695,-10"/>
<polygon fill="midnightblue" stroke="midnightblue" points="90.2324,-6.5001 80.2323,-10 90.2323,-13.5001 90.2324,-6.5001"/>
</g>
</g>
</svg>
