<?xml version="1.0" encoding="UTF-8" standalone="no"?>
<!DOCTYPE svg PUBLIC "-//W3C//DTD SVG 1.1//EN"
 "http://www.w3.org/Graphics/SVG/1.1/DTD/svg11.dtd">
<!-- Generated by graphviz version 2.36.0 (20140111.2315)
 -->
<!-- Title: enriched_set_flags Pages: 1 -->
<svg width="222pt" height="104pt"
 viewBox="0.00 0.00 222.00 104.00" xmlns="http://www.w3.org/2000/svg" xmlns:xlink="http://www.w3.org/1999/xlink">
<g id="graph0" class="graph" transform="scale(1 1) rotate(0) translate(4 100)">
<title>enriched_set_flags</title>
<polygon fill="white" stroke="none" points="-4,4 -4,-100 218,-100 218,4 -4,4"/>
<!-- Node1 -->
<g id="node1" class="node"><title>Node1</title>
<polygon fill="#bfbfbf" stroke="black" points="0,-38.5 0,-57.5 98,-57.5 98,-38.5 0,-38.5"/>
<text text-anchor="middle" x="49" y="-45.5" font-family="Helvetica,sans-Serif" font-size="10.00">enriched_set_flags</text>
</g>
<!-- Node2 -->
<g id="node2" class="node"><title>Node2</title>
<g id="a_node2"><a xlink:href="protos_8h.html#aece8f8a0bf2359e8f8cfc6b7c9f6303f" target="_top" xlink:title="Compare two wide&#45;character strings, ignoring case. ">
<polygon fill="white" stroke="black" points="137,-76.5 137,-95.5 211,-95.5 211,-76.5 137,-76.5"/>
<text text-anchor="middle" x="174" y="-83.5" font-family="Helvetica,sans-Serif" font-size="10.00">wcscasecmp</text>
</a>
</g>
</g>
<!-- Node1&#45;&gt;Node2 -->
<g id="edge1" class="edge"><title>Node1&#45;&gt;Node2</title>
<path fill="none" stroke="midnightblue" d="M81.0381,-57.589C96.4792,-62.3594 115.348,-68.1888 131.966,-73.3229"/>
<polygon fill="midnightblue" stroke="midnightblue" points="131.384,-76.8063 141.972,-76.4141 133.451,-70.1182 131.384,-76.8063"/>
</g>
<!-- Node3 -->
<g id="node3" class="node"><title>Node3</title>
<g id="a_node3"><a xlink:href="enriched_8c.html#a418154b29b6bf2ba99e7d765a4799eac" target="_top" xlink:title="Write enriched text to the State. ">
<polygon fill="white" stroke="red" points="134,-38.5 134,-57.5 214,-57.5 214,-38.5 134,-38.5"/>
<text text-anchor="middle" x="174" y="-45.5" font-family="Helvetica,sans-Serif" font-size="10.00">enriched_flush</text>
</a>
</g>
</g>
<!-- Node1&#45;&gt;Node3 -->
<g id="edge2" class="edge"><title>Node1&#45;&gt;Node3</title>
<path fill="none" stroke="midnightblue" d="M98.2598,-48C106.681,-48 115.45,-48 123.894,-48"/>
<polygon fill="midnightblue" stroke="midnightblue" points="123.987,-51.5001 133.987,-48 123.987,-44.5001 123.987,-51.5001"/>
</g>
<!-- Node4 -->
<g id="node4" class="node"><title>Node4</title>
<g id="a_node4"><a xlink:href="enriched_8c.html#aad421831c176c6c4c3d39705b70c0480" target="_top" xlink:title="Write an enriched text string to the State. ">
<polygon fill="white" stroke="red" points="135.5,-0.5 135.5,-19.5 212.5,-19.5 212.5,-0.5 135.5,-0.5"/>
<text text-anchor="middle" x="174" y="-7.5" font-family="Helvetica,sans-Serif" font-size="10.00">enriched_puts</text>
</a>
</g>
</g>
<!-- Node1&#45;&gt;Node4 -->
<g id="edge3" class="edge"><title>Node1&#45;&gt;Node4</title>
<path fill="none" stroke="midnightblue" d="M81.0381,-38.411C96.4792,-33.6406 115.348,-27.8112 131.966,-22.6771"/>
<polygon fill="midnightblue" stroke="midnightblue" points="133.451,-25.8818 141.972,-19.5859 131.384,-19.1937 133.451,-25.8818"/>
</g>
</g>
</svg>
