<?xml version="1.0" encoding="UTF-8" standalone="no"?>
<!DOCTYPE svg PUBLIC "-//W3C//DTD SVG 1.1//EN"
 "http://www.w3.org/Graphics/SVG/1.1/DTD/svg11.dtd">
<!-- Generated by graphviz version 2.36.0 (20140111.2315)
 -->
<!-- Title: mutt_enter_string_full Pages: 1 -->
<svg width="560pt" height="1367pt"
 viewBox="0.00 0.00 560.00 1366.64" xmlns="http://www.w3.org/2000/svg" xmlns:xlink="http://www.w3.org/1999/xlink">
<g id="graph0" class="graph" transform="scale(1 1) rotate(0) translate(4 1362.64)">
<title>mutt_enter_string_full</title>
<polygon fill="white" stroke="none" points="-4,4 -4,-1362.64 556,-1362.64 556,4 -4,4"/>
<!-- Node1 -->
<g id="node1" class="node"><title>Node1</title>
<polygon fill="#bfbfbf" stroke="black" points="0,-665.5 0,-684.5 110,-684.5 110,-665.5 0,-665.5"/>
<text text-anchor="middle" x="55" y="-672.5" font-family="Helvetica,sans-Serif" font-size="10.00">mutt_enter_string_full</text>
</g>
<!-- Node2 -->
<g id="node2" class="node"><title>Node2</title>
<g id="a_node2"><a xlink:href="mbyte_8c.html#ae7c1447076d7115b3b0801918721ebf9" target="_top" xlink:title="Convert a string from multibyte to wide characters. ">
<polygon fill="white" stroke="black" points="312.5,-1292.5 312.5,-1311.5 417.5,-1311.5 417.5,-1292.5 312.5,-1292.5"/>
<text text-anchor="middle" x="365" y="-1299.5" font-family="Helvetica,sans-Serif" font-size="10.00">mutt_mb_mbstowcs</text>
</a>
</g>
</g>
<!-- Node1&#45;&gt;Node2 -->
<g id="edge1" class="edge"><title>Node1&#45;&gt;Node2</title>
<path fill="none" stroke="midnightblue" d="M55.8749,-684.867C55.1849,-756.556 54.7231,-1197.04 146,-1283 190.67,-1325.07 265.748,-1321.62 315.084,-1313.34"/>
<polygon fill="midnightblue" stroke="midnightblue" points="315.981,-1316.73 325.201,-1311.51 314.739,-1309.84 315.981,-1316.73"/>
</g>
<!-- Node3 -->
<g id="node3" class="node"><title>Node3</title>
<g id="a_node3"><a xlink:href="memory_8c.html#af778eb8166966fc0666c64849f6c7c5b" target="_top" xlink:title="Resize a block of memory on the heap. ">
<polygon fill="white" stroke="red" points="454.5,-1292.5 454.5,-1311.5 551.5,-1311.5 551.5,-1292.5 454.5,-1292.5"/>
<text text-anchor="middle" x="503" y="-1299.5" font-family="Helvetica,sans-Serif" font-size="10.00">mutt_mem_realloc</text>
</a>
</g>
</g>
<!-- Node1&#45;&gt;Node3 -->
<g id="edge36" class="edge"><title>Node1&#45;&gt;Node3</title>
<path fill="none" stroke="midnightblue" d="M55.7589,-684.932C54.1853,-759.051 48.2725,-1225.39 146,-1314 237.479,-1396.94 402.841,-1343.19 471.173,-1315.53"/>
<polygon fill="midnightblue" stroke="midnightblue" points="472.629,-1318.72 480.53,-1311.66 469.952,-1312.25 472.629,-1318.72"/>
</g>
<!-- Node4 -->
<g id="node4" class="node"><title>Node4</title>
<g id="a_node4"><a xlink:href="mbyte_8c.html#a6b9ecc962be914e12b3f35ef88dff1ad" target="_top" xlink:title="Keep the end of the string on&#45;screen. ">
<polygon fill="white" stroke="black" points="153,-836.5 153,-855.5 269,-855.5 269,-836.5 153,-836.5"/>
<text text-anchor="middle" x="211" y="-843.5" font-family="Helvetica,sans-Serif" font-size="10.00">mutt_mb_width_ceiling</text>
</a>
</g>
</g>
<!-- Node1&#45;&gt;Node4 -->
<g id="edge3" class="edge"><title>Node1&#45;&gt;Node4</title>
<path fill="none" stroke="midnightblue" d="M58.8762,-684.503C67.4553,-711.215 95.4591,-787.581 146,-827 148.313,-828.804 150.795,-830.438 153.389,-831.916"/>
<polygon fill="midnightblue" stroke="midnightblue" points="152.036,-835.15 162.56,-836.369 155.093,-828.853 152.036,-835.15"/>
</g>
<!-- Node5 -->
<g id="node5" class="node"><title>Node5</title>
<g id="a_node5"><a xlink:href="mbyte_8c.html#aecb9fe7c3a2b5e90b0aa4396c32e5a64" target="_top" xlink:title="Measure the screen width of a character. ">
<polygon fill="white" stroke="black" points="317,-836.5 317,-855.5 413,-855.5 413,-836.5 317,-836.5"/>
<text text-anchor="middle" x="365" y="-843.5" font-family="Helvetica,sans-Serif" font-size="10.00">mutt_mb_wcwidth</text>
</a>
</g>
</g>
<!-- Node1&#45;&gt;Node5 -->
<g id="edge8" class="edge"><title>Node1&#45;&gt;Node5</title>
<path fill="none" stroke="midnightblue" d="M57.0834,-684.83C61.2792,-717.544 79.6884,-823.036 146,-865 204.049,-901.735 288.858,-877.096 333.661,-859.456"/>
<polygon fill="midnightblue" stroke="midnightblue" points="335.173,-862.62 343.112,-855.604 332.53,-856.138 335.173,-862.62"/>
</g>
<!-- Node6 -->
<g id="node6" class="node"><title>Node6</title>
<g id="a_node6"><a xlink:href="mbyte_8c.html#ac1cd90aaff468feb7e744aaee372ac57" target="_top" xlink:title="Measure the screen width of a string. ">
<polygon fill="white" stroke="black" points="160.5,-798.5 160.5,-817.5 261.5,-817.5 261.5,-798.5 160.5,-798.5"/>
<text text-anchor="middle" x="211" y="-805.5" font-family="Helvetica,sans-Serif" font-size="10.00">mutt_mb_wcswidth</text>
</a>
</g>
</g>
<!-- Node1&#45;&gt;Node6 -->
<g id="edge5" class="edge"><title>Node1&#45;&gt;Node6</title>
<path fill="none" stroke="midnightblue" d="M60.8675,-684.588C72.4886,-706.506 104.041,-760.568 146,-789 148.919,-790.978 152.048,-792.754 155.296,-794.349"/>
<polygon fill="midnightblue" stroke="midnightblue" points="154.118,-797.652 164.688,-798.377 156.878,-791.219 154.118,-797.652"/>
</g>
<!-- Node7 -->
<g id="node7" class="node"><title>Node7</title>
<g id="a_node7"><a xlink:href="mutt__window_8c.html#a9d73d6b2ea4ab73d2e91b731d21089d7" target="_top" xlink:title="Move the cursor in a Window. ">
<polygon fill="white" stroke="black" points="159,-760.5 159,-779.5 263,-779.5 263,-760.5 159,-760.5"/>
<text text-anchor="middle" x="211" y="-767.5" font-family="Helvetica,sans-Serif" font-size="10.00">mutt_window_move</text>
</a>
</g>
</g>
<!-- Node1&#45;&gt;Node7 -->
<g id="edge7" class="edge"><title>Node1&#45;&gt;Node7</title>
<path fill="none" stroke="midnightblue" d="M64.7556,-684.629C79.8358,-700.656 112.346,-732.836 146,-751 150.179,-753.255 154.659,-755.275 159.237,-757.078"/>
<polygon fill="midnightblue" stroke="midnightblue" points="158.113,-760.393 168.708,-760.477 160.478,-753.804 158.113,-760.393"/>
</g>
<!-- Node8 -->
<g id="node8" class="node"><title>Node8</title>
<g id="a_node8"><a xlink:href="enter_8c.html#a4f7fa064a349e26567a8f3daf392c813" target="_top" xlink:title="Display one wide character on screen. ">
<polygon fill="white" stroke="red" points="176.5,-722.5 176.5,-741.5 245.5,-741.5 245.5,-722.5 176.5,-722.5"/>
<text text-anchor="middle" x="211" y="-729.5" font-family="Helvetica,sans-Serif" font-size="10.00">my_addwch</text>
</a>
</g>
</g>
<!-- Node1&#45;&gt;Node8 -->
<g id="edge9" class="edge"><title>Node1&#45;&gt;Node8</title>
<path fill="none" stroke="midnightblue" d="M76.8338,-684.574C94.9101,-692.693 121.89,-704.361 146,-713 152.525,-715.338 159.493,-717.62 166.342,-719.745"/>
<polygon fill="midnightblue" stroke="midnightblue" points="165.64,-723.19 176.225,-722.735 167.667,-716.489 165.64,-723.19"/>
</g>
<!-- Node9 -->
<g id="node9" class="node"><title>Node9</title>
<g id="a_node9"><a xlink:href="mutt__window_8c.html#ae2ba61d0bc2413c09e6a12f1fe345ab4" target="_top" xlink:title="Clear to the end of the line. ">
<polygon fill="white" stroke="black" points="155.5,-684.5 155.5,-703.5 266.5,-703.5 266.5,-684.5 155.5,-684.5"/>
<text text-anchor="middle" x="211" y="-691.5" font-family="Helvetica,sans-Serif" font-size="10.00">mutt_window_clrtoeol</text>
</a>
</g>
</g>
<!-- Node1&#45;&gt;Node9 -->
<g id="edge10" class="edge"><title>Node1&#45;&gt;Node9</title>
<path fill="none" stroke="midnightblue" d="M110.295,-681.699C121.614,-683.095 133.652,-684.58 145.304,-686.018"/>
<polygon fill="midnightblue" stroke="midnightblue" points="145.063,-689.515 155.417,-687.266 145.92,-682.567 145.063,-689.515"/>
</g>
<!-- Node10 -->
<g id="node10" class="node"><title>Node10</title>
<g id="a_node10"><a xlink:href="curs__lib_8c.html#a99dc8e687f3d5688695d0d7a1bab3c3f" target="_top" xlink:title="Force a refresh of the screen. ">
<polygon fill="white" stroke="black" points="175.5,-646.5 175.5,-665.5 246.5,-665.5 246.5,-646.5 175.5,-646.5"/>
<text text-anchor="middle" x="211" y="-653.5" font-family="Helvetica,sans-Serif" font-size="10.00">mutt_refresh</text>
</a>
</g>
</g>
<!-- Node1&#45;&gt;Node10 -->
<g id="edge11" class="edge"><title>Node1&#45;&gt;Node10</title>
<path fill="none" stroke="midnightblue" d="M110.295,-668.301C128.223,-666.089 147.955,-663.655 165.1,-661.54"/>
<polygon fill="midnightblue" stroke="midnightblue" points="165.906,-664.967 175.402,-660.269 165.049,-658.019 165.906,-664.967"/>
</g>
<!-- Node11 -->
<g id="node11" class="node"><title>Node11</title>
<g id="a_node11"><a xlink:href="keymap_8c.html#aca314ae9ad06348477629e6bc0bd28fc" target="_top" xlink:title="Determine what a keypress should do. ">
<polygon fill="white" stroke="red" points="180,-570.5 180,-589.5 242,-589.5 242,-570.5 180,-570.5"/>
<text text-anchor="middle" x="211" y="-577.5" font-family="Helvetica,sans-Serif" font-size="10.00">km_dokey</text>
</a>
</g>
</g>
<!-- Node1&#45;&gt;Node11 -->
<g id="edge12" class="edge"><title>Node1&#45;&gt;Node11</title>
<path fill="none" stroke="midnightblue" d="M66.0418,-665.336C81.9162,-650.482 114.274,-621.886 146,-604 153.578,-599.728 162.065,-595.934 170.318,-592.695"/>
<polygon fill="midnightblue" stroke="midnightblue" points="171.681,-595.923 179.831,-589.153 169.238,-589.363 171.681,-595.923"/>
</g>
<!-- Node12 -->
<g id="node12" class="node"><title>Node12</title>
<g id="a_node12"><a xlink:href="curs__lib_8c.html#aa922a0db5f9f56cdc3bedc5671bc35a7" target="_top" xlink:title="Read a character from the input buffer. ">
<polygon fill="white" stroke="red" points="332.5,-598.5 332.5,-617.5 397.5,-617.5 397.5,-598.5 332.5,-598.5"/>
<text text-anchor="middle" x="365" y="-605.5" font-family="Helvetica,sans-Serif" font-size="10.00">mutt_getch</text>
</a>
</g>
</g>
<!-- Node1&#45;&gt;Node12 -->
<g id="edge47" class="edge"><title>Node1&#45;&gt;Node12</title>
<path fill="none" stroke="midnightblue" d="M74.4416,-665.486C92.2782,-656.704 120.307,-643.997 146,-637 206.025,-620.653 277.953,-613.367 322.316,-610.23"/>
<polygon fill="midnightblue" stroke="midnightblue" points="322.69,-613.713 332.434,-609.553 322.222,-606.729 322.69,-613.713"/>
</g>
<!-- Node13 -->
<g id="node13" class="node"><title>Node13</title>
<g id="a_node13"><a xlink:href="curs__lib_8c.html#a31e6cf5a50bccf3cb75b6a7f2ecf1405" target="_top" xlink:title="Empty all the keyboard buffers. ">
<polygon fill="white" stroke="black" points="327.5,-551.5 327.5,-570.5 402.5,-570.5 402.5,-551.5 327.5,-551.5"/>
<text text-anchor="middle" x="365" y="-558.5" font-family="Helvetica,sans-Serif" font-size="10.00">mutt_flushinp</text>
</a>
</g>
</g>
<!-- Node1&#45;&gt;Node13 -->
<g id="edge51" class="edge"><title>Node1&#45;&gt;Node13</title>
<path fill="none" stroke="midnightblue" d="M60.0522,-665.235C70.3344,-641.926 99.9353,-583.323 146,-561 200.145,-534.761 271.112,-541.111 317.128,-549.693"/>
<polygon fill="midnightblue" stroke="midnightblue" points="316.633,-553.163 327.122,-551.666 317.989,-546.295 316.633,-553.163"/>
</g>
<!-- Node14 -->
<g id="node14" class="node"><title>Node14</title>
<g id="a_node14"><a xlink:href="history_8c.html#a493d2064e68bab2fe5cee4b4769c2d49" target="_top" xlink:title="Is the current History position at the &#39;scratch&#39; place? ">
<polygon fill="white" stroke="red" points="157,-494.5 157,-513.5 265,-513.5 265,-494.5 157,-494.5"/>
<text text-anchor="middle" x="211" y="-501.5" font-family="Helvetica,sans-Serif" font-size="10.00">mutt_hist_at_scratch</text>
</a>
</g>
</g>
<!-- Node1&#45;&gt;Node14 -->
<g id="edge15" class="edge"><title>Node1&#45;&gt;Node14</title>
<path fill="none" stroke="midnightblue" d="M59.3793,-665.239C68.8691,-639.208 98.2305,-567.434 146,-528 150.925,-523.935 156.607,-520.518 162.51,-517.657"/>
<polygon fill="midnightblue" stroke="midnightblue" points="164.1,-520.783 171.893,-513.605 161.325,-514.357 164.1,-520.783"/>
</g>
<!-- Node15 -->
<g id="node15" class="node"><title>Node15</title>
<g id="a_node15"><a xlink:href="mbyte_8c.html#a2357bee73a6c5acd9301c12ba3cdb1ff" target="_top" xlink:title="Convert a string from wide to multibyte characters. ">
<polygon fill="white" stroke="black" points="158.5,-456.5 158.5,-475.5 263.5,-475.5 263.5,-456.5 158.5,-456.5"/>
<text text-anchor="middle" x="211" y="-463.5" font-family="Helvetica,sans-Serif" font-size="10.00">mutt_mb_wcstombs</text>
</a>
</g>
</g>
<!-- Node1&#45;&gt;Node15 -->
<g id="edge16" class="edge"><title>Node1&#45;&gt;Node15</title>
<path fill="none" stroke="midnightblue" d="M57.6832,-665.44C63.6473,-634.448 86.6889,-535.826 146,-485 147.964,-483.317 150.071,-481.783 152.283,-480.385"/>
<polygon fill="midnightblue" stroke="midnightblue" points="154.045,-483.413 161.243,-475.639 150.768,-477.227 154.045,-483.413"/>
</g>
<!-- Node16 -->
<g id="node16" class="node"><title>Node16</title>
<g id="a_node16"><a xlink:href="history_8c.html#a2d26cab55cd51b83f6e2a45a8ce44799" target="_top" xlink:title="Save a temporary string to the History. ">
<polygon fill="white" stroke="red" points="150.5,-418.5 150.5,-437.5 271.5,-437.5 271.5,-418.5 150.5,-418.5"/>
<text text-anchor="middle" x="211" y="-425.5" font-family="Helvetica,sans-Serif" font-size="10.00">mutt_hist_save_scratch</text>
</a>
</g>
</g>
<!-- Node1&#45;&gt;Node16 -->
<g id="edge17" class="edge"><title>Node1&#45;&gt;Node16</title>
<path fill="none" stroke="midnightblue" d="M56.8892,-665.081C60.5876,-629.831 77.9123,-509.384 146,-447 147.736,-445.41 149.599,-443.952 151.559,-442.616"/>
<polygon fill="midnightblue" stroke="midnightblue" points="153.662,-445.449 160.671,-437.504 150.237,-439.344 153.662,-445.449"/>
</g>
<!-- Node17 -->
<g id="node17" class="node"><title>Node17</title>
<g id="a_node17"><a xlink:href="enter_8c.html#aee2885e93ba4e712c261b65bf587dbb3" target="_top" xlink:title="Search and replace on a buffer. ">
<polygon fill="white" stroke="black" points="176,-1254.5 176,-1273.5 246,-1273.5 246,-1254.5 176,-1254.5"/>
<text text-anchor="middle" x="211" y="-1261.5" font-family="Helvetica,sans-Serif" font-size="10.00">replace_part</text>
</a>
</g>
</g>
<!-- Node1&#45;&gt;Node17 -->
<g id="edge18" class="edge"><title>Node1&#45;&gt;Node17</title>
<path fill="none" stroke="midnightblue" d="M56.2508,-684.807C58.1671,-752.468 72.4759,-1150 146,-1240 151.284,-1246.47 158.5,-1251.19 166.187,-1254.65"/>
<polygon fill="midnightblue" stroke="midnightblue" points="165.106,-1257.98 175.698,-1258.26 167.591,-1251.44 165.106,-1257.98"/>
</g>
<!-- Node18 -->
<g id="node18" class="node"><title>Node18</title>
<g id="a_node18"><a xlink:href="memory_8c.html#a4c1612d209c7825d55e6a014df352f03" target="_top" xlink:title="Allocate zeroed memory on the heap. ">
<polygon fill="white" stroke="red" points="318,-1178.5 318,-1197.5 412,-1197.5 412,-1178.5 318,-1178.5"/>
<text text-anchor="middle" x="365" y="-1185.5" font-family="Helvetica,sans-Serif" font-size="10.00">mutt_mem_calloc</text>
</a>
</g>
</g>
<!-- Node1&#45;&gt;Node18 -->
<g id="edge48" class="edge"><title>Node1&#45;&gt;Node18</title>
<path fill="none" stroke="midnightblue" d="M56.0251,-684.544C56.4161,-750.35 62.2883,-1136.26 146,-1207 199.933,-1252.58 290.463,-1221.96 336.021,-1201.76"/>
<polygon fill="midnightblue" stroke="midnightblue" points="337.655,-1204.86 345.29,-1197.52 334.741,-1198.5 337.655,-1204.86"/>
</g>
<!-- Node19 -->
<g id="node19" class="node"><title>Node19</title>
<g id="a_node19"><a xlink:href="history_8c.html#a9c81cb82877d80de3874bc359c473d12" target="_top" xlink:title="Get the previous string in a History. ">
<polygon fill="white" stroke="red" points="170.5,-380.5 170.5,-399.5 251.5,-399.5 251.5,-380.5 170.5,-380.5"/>
<text text-anchor="middle" x="211" y="-387.5" font-family="Helvetica,sans-Serif" font-size="10.00">mutt_hist_prev</text>
</a>
</g>
</g>
<!-- Node1&#45;&gt;Node19 -->
<g id="edge22" class="edge"><title>Node1&#45;&gt;Node19</title>
<path fill="none" stroke="midnightblue" d="M56.2451,-665.375C57.7552,-627.023 68.5688,-483.568 146,-409 150.279,-404.88 155.409,-401.647 160.879,-399.113"/>
<polygon fill="midnightblue" stroke="midnightblue" points="162.244,-402.338 170.314,-395.473 159.725,-395.807 162.244,-402.338"/>
</g>
<!-- Node20 -->
<g id="node20" class="node"><title>Node20</title>
<g id="a_node20"><a xlink:href="history_8c.html#a3bd0e4a7ce28aae28736c86f577968b9" target="_top" xlink:title="Get the next string in a History. ">
<polygon fill="white" stroke="red" points="170.5,-342.5 170.5,-361.5 251.5,-361.5 251.5,-342.5 170.5,-342.5"/>
<text text-anchor="middle" x="211" y="-349.5" font-family="Helvetica,sans-Serif" font-size="10.00">mutt_hist_next</text>
</a>
</g>
</g>
<!-- Node1&#45;&gt;Node20 -->
<g id="edge23" class="edge"><title>Node1&#45;&gt;Node20</title>
<path fill="none" stroke="midnightblue" d="M55.7759,-665.476C55.3397,-624.061 59.2398,-457.826 146,-371 150.251,-366.746 155.408,-363.435 160.93,-360.861"/>
<polygon fill="midnightblue" stroke="midnightblue" points="162.396,-364.047 170.47,-357.187 159.88,-357.515 162.396,-364.047"/>
</g>
<!-- Node21 -->
<g id="node21" class="node"><title>Node21</title>
<g id="a_node21"><a xlink:href="mutt__history_8c.html#a9115fdadb99ef83565f9e4d5e436d3be" target="_top" xlink:title="Complete a string from a history list. ">
<polygon fill="white" stroke="red" points="160,-1178.5 160,-1197.5 262,-1197.5 262,-1178.5 160,-1178.5"/>
<text text-anchor="middle" x="211" y="-1185.5" font-family="Helvetica,sans-Serif" font-size="10.00">mutt_hist_complete</text>
</a>
</g>
</g>
<!-- Node1&#45;&gt;Node21 -->
<g id="edge24" class="edge"><title>Node1&#45;&gt;Node21</title>
<path fill="none" stroke="midnightblue" d="M56.4252,-684.817C59.3407,-747.683 78.3271,-1093.56 146,-1169 147.572,-1170.75 149.298,-1172.35 151.142,-1173.8"/>
<polygon fill="midnightblue" stroke="midnightblue" points="149.555,-1176.93 159.888,-1179.27 153.269,-1171 149.555,-1176.93"/>
</g>
<!-- Node22 -->
<g id="node22" class="node"><title>Node22</title>
<g id="a_node22"><a xlink:href="mailbox_8c.html#aa871a502903abe160d30f8d706f1e207" target="_top" xlink:title="incoming folders completion routine ">
<polygon fill="white" stroke="red" points="173.5,-950.5 173.5,-969.5 248.5,-969.5 248.5,-950.5 173.5,-950.5"/>
<text text-anchor="middle" x="211" y="-957.5" font-family="Helvetica,sans-Serif" font-size="10.00">mutt_mailbox</text>
</a>
</g>
</g>
<!-- Node1&#45;&gt;Node22 -->
<g id="edge26" class="edge"><title>Node1&#45;&gt;Node22</title>
<path fill="none" stroke="midnightblue" d="M56.4747,-684.55C58.8439,-721.996 72.4396,-860.448 146,-936 150.95,-941.084 157.08,-945.103 163.567,-948.276"/>
<polygon fill="midnightblue" stroke="midnightblue" points="162.659,-951.691 173.233,-952.346 165.375,-945.239 162.659,-951.691"/>
</g>
<!-- Node23 -->
<g id="node23" class="node"><title>Node23</title>
<g id="a_node23"><a xlink:href="muttlib_8c.html#a483f037de523c624d449b4296a3ddfb2" target="_top" xlink:title="Create the canonical path. ">
<polygon fill="white" stroke="red" points="316.5,-1007.5 316.5,-1026.5 413.5,-1026.5 413.5,-1007.5 316.5,-1007.5"/>
<text text-anchor="middle" x="365" y="-1014.5" font-family="Helvetica,sans-Serif" font-size="10.00">mutt_expand_path</text>
</a>
</g>
</g>
<!-- Node1&#45;&gt;Node23 -->
<g id="edge49" class="edge"><title>Node1&#45;&gt;Node23</title>
<path fill="none" stroke="midnightblue" d="M56.9693,-684.509C62.3619,-735.329 90.4455,-974.174 146,-1017 198.081,-1057.15 279.888,-1042.8 327.079,-1029.43"/>
<polygon fill="midnightblue" stroke="midnightblue" points="328.289,-1032.73 336.883,-1026.53 326.3,-1026.01 328.289,-1032.73"/>
</g>
<!-- Node24 -->
<g id="node24" class="node"><title>Node24</title>
<g id="a_node24"><a xlink:href="dump_8c.html#abfd32209fdb0af78b7c00c3917440d1b" target="_top" xlink:title="Shorten a mailbox path using &#39;~&#39; or &#39;=&#39;. ">
<polygon fill="white" stroke="black" points="312.5,-931.5 312.5,-950.5 417.5,-950.5 417.5,-931.5 312.5,-931.5"/>
<text text-anchor="middle" x="365" y="-938.5" font-family="Helvetica,sans-Serif" font-size="10.00">mutt_pretty_mailbox</text>
</a>
</g>
</g>
<!-- Node1&#45;&gt;Node24 -->
<g id="edge43" class="edge"><title>Node1&#45;&gt;Node24</title>
<path fill="none" stroke="midnightblue" d="M57.0671,-684.861C61.2855,-718.807 79.9448,-831.824 146,-888 189.399,-924.908 254.371,-936.943 302.097,-940.478"/>
<polygon fill="midnightblue" stroke="midnightblue" points="302.107,-943.986 312.309,-941.126 302.55,-937 302.107,-943.986"/>
</g>
<!-- Node25 -->
<g id="node25" class="node"><title>Node25</title>
<g id="a_node25"><a xlink:href="mbyte_8c.html#a277cca96e7362df5105c3d4d225b8421" target="_top" xlink:title="Is character not typically part of a pathname. ">
<polygon fill="white" stroke="black" points="152.5,-304.5 152.5,-323.5 269.5,-323.5 269.5,-304.5 152.5,-304.5"/>
<text text-anchor="middle" x="211" y="-311.5" font-family="Helvetica,sans-Serif" font-size="10.00">mutt_mb_is_shell_char</text>
</a>
</g>
</g>
<!-- Node1&#45;&gt;Node25 -->
<g id="edge29" class="edge"><title>Node1&#45;&gt;Node25</title>
<path fill="none" stroke="midnightblue" d="M57.2462,-665.425C63.9551,-615.273 97.2878,-383.259 146,-333 147.391,-331.564 148.886,-330.236 150.463,-329.007"/>
<polygon fill="midnightblue" stroke="midnightblue" points="152.359,-331.949 158.947,-323.651 148.623,-326.03 152.359,-331.949"/>
</g>
<!-- Node26 -->
<g id="node26" class="node"><title>Node26</title>
<g id="a_node26"><a xlink:href="browser_8c.html#ab036990112b8014c0b84c401e77f96d3" target="_top" xlink:title="Let the user select a file. ">
<polygon fill="white" stroke="red" points="168,-1102.5 168,-1121.5 254,-1121.5 254,-1102.5 168,-1102.5"/>
<text text-anchor="middle" x="211" y="-1109.5" font-family="Helvetica,sans-Serif" font-size="10.00">mutt_select_file</text>
</a>
</g>
</g>
<!-- Node1&#45;&gt;Node26 -->
<g id="edge30" class="edge"><title>Node1&#45;&gt;Node26</title>
<path fill="none" stroke="midnightblue" d="M56.8538,-684.573C62.0119,-740.438 90.66,-1024.04 146,-1088 149.64,-1092.21 154.092,-1095.68 158.938,-1098.54"/>
<polygon fill="midnightblue" stroke="midnightblue" points="157.484,-1101.73 167.994,-1103.07 160.614,-1095.46 157.484,-1101.73"/>
</g>
<!-- Node27 -->
<g id="node27" class="node"><title>Node27</title>
<g id="a_node27"><a xlink:href="mutt_2string_8c.html#ae48085384a6545e0fac589a88243ea31" target="_top" xlink:title="Copy a string, safely. ">
<polygon fill="white" stroke="red" points="322.5,-1083.5 322.5,-1102.5 407.5,-1102.5 407.5,-1083.5 322.5,-1083.5"/>
<text text-anchor="middle" x="365" y="-1090.5" font-family="Helvetica,sans-Serif" font-size="10.00">mutt_str_strdup</text>
</a>
</g>
</g>
<!-- Node1&#45;&gt;Node27 -->
<g id="edge50" class="edge"><title>Node1&#45;&gt;Node27</title>
<path fill="none" stroke="midnightblue" d="M56.9945,-684.683C62.6201,-737.572 92.1302,-991.098 146,-1044 169.189,-1066.77 255.426,-1080.73 312.236,-1087.65"/>
<polygon fill="midnightblue" stroke="midnightblue" points="312.137,-1091.16 322.479,-1088.86 312.959,-1084.21 312.137,-1091.16"/>
</g>
<!-- Node28 -->
<g id="node28" class="node"><title>Node28</title>
<g id="a_node28"><a xlink:href="complete_8c.html#a72b3c85bc14241321c26350fd4a26b37" target="_top" xlink:title="Attempt to complete a partial pathname. ">
<polygon fill="white" stroke="red" points="170.5,-988.5 170.5,-1007.5 251.5,-1007.5 251.5,-988.5 170.5,-988.5"/>
<text text-anchor="middle" x="211" y="-995.5" font-family="Helvetica,sans-Serif" font-size="10.00">mutt_complete</text>
</a>
</g>
</g>
<!-- Node1&#45;&gt;Node28 -->
<g id="edge34" class="edge"><title>Node1&#45;&gt;Node28</title>
<path fill="none" stroke="midnightblue" d="M55.7759,-684.524C55.3397,-725.939 59.2398,-892.174 146,-979 150.251,-983.254 155.408,-986.565 160.93,-989.139"/>
<polygon fill="midnightblue" stroke="midnightblue" points="159.88,-992.485 170.47,-992.813 162.396,-985.953 159.88,-992.485"/>
</g>
<!-- Node29 -->
<g id="node29" class="node"><title>Node29</title>
<g id="a_node29"><a xlink:href="alias_8c.html#a300d6d4b88787e97d446a714501a992f" target="_top" xlink:title="alias completion routine ">
<polygon fill="white" stroke="red" points="157.5,-1140.5 157.5,-1159.5 264.5,-1159.5 264.5,-1140.5 157.5,-1140.5"/>
<text text-anchor="middle" x="211" y="-1147.5" font-family="Helvetica,sans-Serif" font-size="10.00">mutt_alias_complete</text>
</a>
</g>
</g>
<!-- Node1&#45;&gt;Node29 -->
<g id="edge37" class="edge"><title>Node1&#45;&gt;Node29</title>
<path fill="none" stroke="midnightblue" d="M56.5874,-684.832C60.3667,-744.885 83.1204,-1061.93 146,-1131 147.207,-1132.33 148.502,-1133.56 149.869,-1134.71"/>
<polygon fill="midnightblue" stroke="midnightblue" points="148.136,-1137.76 158.393,-1140.41 152.029,-1131.94 148.136,-1137.76"/>
</g>
<!-- Node30 -->
<g id="node30" class="node"><title>Node30</title>
<g id="a_node30"><a xlink:href="init_8c.html#a5a8b0c83a6dcb7d57edae458041869ad" target="_top" xlink:title="Complete a label name. ">
<polygon fill="white" stroke="red" points="157.5,-266.5 157.5,-285.5 264.5,-285.5 264.5,-266.5 157.5,-266.5"/>
<text text-anchor="middle" x="211" y="-273.5" font-family="Helvetica,sans-Serif" font-size="10.00">mutt_label_complete</text>
</a>
</g>
</g>
<!-- Node1&#45;&gt;Node30 -->
<g id="edge39" class="edge"><title>Node1&#45;&gt;Node30</title>
<path fill="none" stroke="midnightblue" d="M56.9753,-665.445C62.6029,-612.104 92.5515,-351.53 146,-295 147.374,-293.547 148.853,-292.204 150.417,-290.962"/>
<polygon fill="midnightblue" stroke="midnightblue" points="152.318,-293.9 158.851,-285.559 148.543,-288.006 152.318,-293.9"/>
</g>
<!-- Node31 -->
<g id="node31" class="node"><title>Node31</title>
<g id="a_node31"><a xlink:href="query_8c.html#a78b2d84a549146532bad0a1c33bad391" target="_top" xlink:title="Perform auto&#45;complete using an Address Query. ">
<polygon fill="white" stroke="red" points="156,-228.5 156,-247.5 266,-247.5 266,-228.5 156,-228.5"/>
<text text-anchor="middle" x="211" y="-235.5" font-family="Helvetica,sans-Serif" font-size="10.00">mutt_query_complete</text>
</a>
</g>
</g>
<!-- Node1&#45;&gt;Node31 -->
<g id="edge40" class="edge"><title>Node1&#45;&gt;Node31</title>
<path fill="none" stroke="midnightblue" d="M56.7705,-665.252C61.4547,-608.378 87.863,-319.765 146,-257 147.218,-255.685 148.523,-254.459 149.899,-253.317"/>
<polygon fill="midnightblue" stroke="midnightblue" points="152.056,-256.087 158.461,-247.647 148.191,-250.25 152.056,-256.087"/>
</g>
<!-- Node32 -->
<g id="node32" class="node"><title>Node32</title>
<g id="a_node32"><a xlink:href="init_8c.html#a173ae67a86a1c7bfc88e98a0edbe514f" target="_top" xlink:title="Complete a variable/value. ">
<polygon fill="white" stroke="red" points="147,-190.5 147,-209.5 275,-209.5 275,-190.5 147,-190.5"/>
<text text-anchor="middle" x="211" y="-197.5" font-family="Helvetica,sans-Serif" font-size="10.00">mutt_var_value_complete</text>
</a>
</g>
</g>
<!-- Node1&#45;&gt;Node32 -->
<g id="edge41" class="edge"><title>Node1&#45;&gt;Node32</title>
<path fill="none" stroke="midnightblue" d="M56.5874,-665.168C60.3667,-605.115 83.1204,-288.067 146,-219 147.207,-217.674 148.502,-216.439 149.869,-215.289"/>
<polygon fill="midnightblue" stroke="midnightblue" points="152.029,-218.055 158.393,-209.585 148.136,-212.238 152.029,-218.055"/>
</g>
<!-- Node33 -->
<g id="node33" class="node"><title>Node33</title>
<g id="a_node33"><a xlink:href="init_8c.html#ad41f1b6fbd5aeeee1bfc56f620ff0f44" target="_top" xlink:title="Complete a command name. ">
<polygon fill="white" stroke="red" points="146.5,-152.5 146.5,-171.5 275.5,-171.5 275.5,-152.5 146.5,-152.5"/>
<text text-anchor="middle" x="211" y="-159.5" font-family="Helvetica,sans-Serif" font-size="10.00">mutt_command_complete</text>
</a>
</g>
</g>
<!-- Node1&#45;&gt;Node33 -->
<g id="edge42" class="edge"><title>Node1&#45;&gt;Node33</title>
<path fill="none" stroke="midnightblue" d="M56.4252,-665.183C59.3407,-602.317 78.3271,-256.435 146,-181 147.197,-179.665 148.483,-178.423 149.844,-177.266"/>
<polygon fill="midnightblue" stroke="midnightblue" points="152.006,-180.029 158.336,-171.533 148.089,-174.227 152.006,-180.029"/>
</g>
<!-- Node34 -->
<g id="node34" class="node"><title>Node34</title>
<g id="a_node34"><a xlink:href="history_8c.html#a541c9c8be36706c87b62c896a897f680" target="_top" xlink:title="Add a string to a history. ">
<polygon fill="white" stroke="red" points="172,-114.5 172,-133.5 250,-133.5 250,-114.5 172,-114.5"/>
<text text-anchor="middle" x="211" y="-121.5" font-family="Helvetica,sans-Serif" font-size="10.00">mutt_hist_add</text>
</a>
</g>
</g>
<!-- Node1&#45;&gt;Node34 -->
<g id="edge44" class="edge"><title>Node1&#45;&gt;Node34</title>
<path fill="none" stroke="midnightblue" d="M56.283,-665.291C58.3784,-599.984 73.4854,-224.866 146,-143 150.388,-138.046 156.002,-134.357 162.077,-131.615"/>
<polygon fill="midnightblue" stroke="midnightblue" points="163.694,-134.751 171.892,-128.04 161.298,-128.174 163.694,-134.751"/>
</g>
<!-- Node35 -->
<g id="node35" class="node"><title>Node35</title>
<g id="a_node35"><a xlink:href="init_8c.html#a17d5ac51e166d61b729ebdd66cd25c88" target="_top" xlink:title="Complete to the nearest notmuch tag. ">
<polygon fill="white" stroke="red" points="146.5,-76.5 146.5,-95.5 275.5,-95.5 275.5,-76.5 146.5,-76.5"/>
<text text-anchor="middle" x="211" y="-83.5" font-family="Helvetica,sans-Serif" font-size="10.00">mutt_nm_query_complete</text>
</a>
</g>
</g>
<!-- Node1&#45;&gt;Node35 -->
<g id="edge45" class="edge"><title>Node1&#45;&gt;Node35</title>
<path fill="none" stroke="midnightblue" d="M56.1599,-665.484C57.4811,-598.12 68.5972,-193.358 146,-105 147.155,-103.681 148.397,-102.452 149.712,-101.307"/>
<polygon fill="midnightblue" stroke="midnightblue" points="151.703,-104.185 157.936,-95.6169 147.721,-98.4283 151.703,-104.185"/>
</g>
<!-- Node36 -->
<g id="node36" class="node"><title>Node36</title>
<g id="a_node36"><a xlink:href="init_8c.html#a8f739fa0c68ded6e209f2ceccd9bcfdf" target="_top" xlink:title="Complete to the nearest notmuch tag. ">
<polygon fill="white" stroke="red" points="151.5,-38.5 151.5,-57.5 270.5,-57.5 270.5,-38.5 151.5,-38.5"/>
<text text-anchor="middle" x="211" y="-45.5" font-family="Helvetica,sans-Serif" font-size="10.00">mutt_nm_tag_complete</text>
</a>
</g>
</g>
<!-- Node1&#45;&gt;Node36 -->
<g id="edge46" class="edge"><title>Node1&#45;&gt;Node36</title>
<path fill="none" stroke="midnightblue" d="M56.0589,-665.309C56.6804,-594.879 63.8386,-161.707 146,-67 147.044,-65.7962 148.161,-64.6669 149.34,-63.6075"/>
<polygon fill="midnightblue" stroke="midnightblue" points="151.735,-66.2018 157.898,-57.5837 147.706,-60.4776 151.735,-66.2018"/>
</g>
<!-- Node37 -->
<g id="node37" class="node"><title>Node37</title>
<g id="a_node37"><a xlink:href="history_8c.html#a6197a536a3da0385551bac50a45d6a7a" target="_top" xlink:title="Move the &#39;current&#39; position to the end of the History. ">
<polygon fill="white" stroke="red" points="155.5,-0.5 155.5,-19.5 266.5,-19.5 266.5,-0.5 155.5,-0.5"/>
<text text-anchor="middle" x="211" y="-7.5" font-family="Helvetica,sans-Serif" font-size="10.00">mutt_hist_reset_state</text>
</a>
</g>
</g>
<!-- Node1&#45;&gt;Node37 -->
<g id="edge52" class="edge"><title>Node1&#45;&gt;Node37</title>
<path fill="none" stroke="midnightblue" d="M55.9663,-665.181C55.9122,-591.872 59.0553,-130.089 146,-29 147.039,-27.7917 148.151,-26.6585 149.326,-25.5956"/>
<polygon fill="midnightblue" stroke="midnightblue" points="151.722,-28.1876 157.864,-19.5544 147.679,-22.4734 151.722,-28.1876"/>
</g>
<!-- Node2&#45;&gt;Node3 -->
<g id="edge2" class="edge"><title>Node2&#45;&gt;Node3</title>
<path fill="none" stroke="midnightblue" d="M417.804,-1302C426.436,-1302 435.439,-1302 444.209,-1302"/>
<polygon fill="midnightblue" stroke="midnightblue" points="444.362,-1305.5 454.362,-1302 444.362,-1298.5 444.362,-1305.5"/>
</g>
<!-- Node4&#45;&gt;Node5 -->
<g id="edge4" class="edge"><title>Node4&#45;&gt;Node5</title>
<path fill="none" stroke="midnightblue" d="M269.032,-846C281.273,-846 294.215,-846 306.475,-846"/>
<polygon fill="midnightblue" stroke="midnightblue" points="306.582,-849.5 316.582,-846 306.582,-842.5 306.582,-849.5"/>
</g>
<!-- Node6&#45;&gt;Node5 -->
<g id="edge6" class="edge"><title>Node6&#45;&gt;Node5</title>
<path fill="none" stroke="midnightblue" d="M250.356,-817.589C270.324,-822.581 294.93,-828.732 316.133,-834.033"/>
<polygon fill="midnightblue" stroke="midnightblue" points="315.369,-837.45 325.92,-836.48 317.067,-830.659 315.369,-837.45"/>
</g>
<!-- Node11&#45;&gt;Node12 -->
<g id="edge13" class="edge"><title>Node11&#45;&gt;Node12</title>
<path fill="none" stroke="midnightblue" d="M242.03,-585.532C264.995,-589.762 296.929,-595.645 322.361,-600.33"/>
<polygon fill="midnightblue" stroke="midnightblue" points="321.994,-603.821 332.462,-602.19 323.262,-596.937 321.994,-603.821"/>
</g>
<!-- Node11&#45;&gt;Node13 -->
<g id="edge14" class="edge"><title>Node11&#45;&gt;Node13</title>
<path fill="none" stroke="midnightblue" d="M242.03,-576.246C263.454,-573.568 292.685,-569.914 317.16,-566.855"/>
<polygon fill="midnightblue" stroke="midnightblue" points="317.833,-570.298 327.322,-565.585 316.965,-563.352 317.833,-570.298"/>
</g>
<!-- Node17&#45;&gt;Node2 -->
<g id="edge20" class="edge"><title>Node17&#45;&gt;Node2</title>
<path fill="none" stroke="midnightblue" d="M246.112,-1272.53C266.774,-1277.69 293.444,-1284.36 316.189,-1290.05"/>
<polygon fill="midnightblue" stroke="midnightblue" points="315.447,-1293.47 325.997,-1292.5 317.145,-1286.68 315.447,-1293.47"/>
</g>
<!-- Node17&#45;&gt;Node3 -->
<g id="edge21" class="edge"><title>Node17&#45;&gt;Node3</title>
<path fill="none" stroke="midnightblue" d="M246.069,-1265.78C287.06,-1268.23 357.874,-1273.47 418,-1283 429.998,-1284.9 442.842,-1287.51 454.786,-1290.19"/>
<polygon fill="midnightblue" stroke="midnightblue" points="454.039,-1293.61 464.569,-1292.43 455.607,-1286.78 454.039,-1293.61"/>
</g>
<!-- Node17&#45;&gt;Node18 -->
<g id="edge19" class="edge"><title>Node17&#45;&gt;Node18</title>
<path fill="none" stroke="midnightblue" d="M240.801,-1254.41C251.974,-1250.38 264.76,-1245.38 276,-1240 298.691,-1229.14 323.234,-1214.37 340.621,-1203.34"/>
<polygon fill="midnightblue" stroke="midnightblue" points="342.963,-1206 349.487,-1197.65 339.181,-1200.11 342.963,-1206"/>
</g>
<!-- Node21&#45;&gt;Node18 -->
<g id="edge25" class="edge"><title>Node21&#45;&gt;Node18</title>
<path fill="none" stroke="midnightblue" d="M262.192,-1188C276.806,-1188 292.864,-1188 307.822,-1188"/>
<polygon fill="midnightblue" stroke="midnightblue" points="307.97,-1191.5 317.97,-1188 307.97,-1184.5 307.97,-1191.5"/>
</g>
<!-- Node22&#45;&gt;Node23 -->
<g id="edge27" class="edge"><title>Node22&#45;&gt;Node23</title>
<path fill="none" stroke="midnightblue" d="M246.789,-969.51C256.333,-972.34 266.63,-975.6 276,-979 295.746,-986.166 317.414,-995.503 334.308,-1003.13"/>
<polygon fill="midnightblue" stroke="midnightblue" points="333.102,-1006.43 343.653,-1007.39 336.008,-1000.06 333.102,-1006.43"/>
</g>
<!-- Node22&#45;&gt;Node24 -->
<g id="edge28" class="edge"><title>Node22&#45;&gt;Node24</title>
<path fill="none" stroke="midnightblue" d="M248.795,-955.401C264.882,-953.39 284.196,-950.976 302.371,-948.704"/>
<polygon fill="midnightblue" stroke="midnightblue" points="302.836,-952.173 312.324,-947.459 301.967,-945.227 302.836,-952.173"/>
</g>
<!-- Node26&#45;&gt;Node18 -->
<g id="edge32" class="edge"><title>Node26&#45;&gt;Node18</title>
<path fill="none" stroke="midnightblue" d="M250.561,-1121.5C259.108,-1124.14 267.999,-1127.31 276,-1131 300.638,-1142.35 326.411,-1159.8 343.65,-1172.4"/>
<polygon fill="midnightblue" stroke="midnightblue" points="341.723,-1175.33 351.835,-1178.49 345.902,-1169.72 341.723,-1175.33"/>
</g>
<!-- Node26&#45;&gt;Node23 -->
<g id="edge31" class="edge"><title>Node26&#45;&gt;Node23</title>
<path fill="none" stroke="midnightblue" d="M227.411,-1102.37C253.927,-1085.8 308.364,-1051.77 339.921,-1032.05"/>
<polygon fill="midnightblue" stroke="midnightblue" points="341.923,-1034.93 348.548,-1026.66 338.213,-1028.99 341.923,-1034.93"/>
</g>
<!-- Node26&#45;&gt;Node27 -->
<g id="edge33" class="edge"><title>Node26&#45;&gt;Node27</title>
<path fill="none" stroke="midnightblue" d="M254.34,-1106.71C272.36,-1104.46 293.543,-1101.81 312.462,-1099.44"/>
<polygon fill="midnightblue" stroke="midnightblue" points="312.923,-1102.91 322.412,-1098.2 312.055,-1095.97 312.923,-1102.91"/>
</g>
<!-- Node28&#45;&gt;Node23 -->
<g id="edge35" class="edge"><title>Node28&#45;&gt;Node23</title>
<path fill="none" stroke="midnightblue" d="M251.539,-1002.94C268.239,-1005.03 288.016,-1007.5 306.292,-1009.79"/>
<polygon fill="midnightblue" stroke="midnightblue" points="305.905,-1013.27 316.262,-1011.03 306.774,-1006.32 305.905,-1013.27"/>
</g>
<!-- Node29&#45;&gt;Node18 -->
<g id="edge38" class="edge"><title>Node29&#45;&gt;Node18</title>
<path fill="none" stroke="midnightblue" d="M250.356,-1159.59C270.324,-1164.58 294.93,-1170.73 316.133,-1176.03"/>
<polygon fill="midnightblue" stroke="midnightblue" points="315.369,-1179.45 325.92,-1178.48 317.067,-1172.66 315.369,-1179.45"/>
</g>
</g>
</svg>
