<?xml version="1.0" encoding="UTF-8" standalone="no"?>
<!DOCTYPE svg PUBLIC "-//W3C//DTD SVG 1.1//EN"
 "http://www.w3.org/Graphics/SVG/1.1/DTD/svg11.dtd">
<!-- Generated by graphviz version 2.36.0 (20140111.2315)
 -->
<!-- Title: mutt_enter_state_free Pages: 1 -->
<svg width="252pt" height="66pt"
 viewBox="0.00 0.00 252.00 66.00" xmlns="http://www.w3.org/2000/svg" xmlns:xlink="http://www.w3.org/1999/xlink">
<g id="graph0" class="graph" transform="scale(1 1) rotate(0) translate(4 62)">
<title>mutt_enter_state_free</title>
<polygon fill="white" stroke="none" points="-4,4 -4,-62 248,-62 248,4 -4,4"/>
<!-- Node1 -->
<g id="node1" class="node"><title>Node1</title>
<polygon fill="#bfbfbf" stroke="black" points="0,-19.5 0,-38.5 112,-38.5 112,-19.5 0,-19.5"/>
<text text-anchor="middle" x="56" y="-26.5" font-family="Helvetica,sans-Serif" font-size="10.00">mutt_enter_state_free</text>
</g>
<!-- Node2 -->
<g id="node2" class="node"><title>Node2</title>
<g id="a_node2"><a xlink:href="curs__lib_8h.html#a704f10745bab754036dc28ccf85a086b" target="_top" xlink:title="Ask the user for a string. ">
<polygon fill="white" stroke="red" points="148,-38.5 148,-57.5 244,-57.5 244,-38.5 148,-38.5"/>
<text text-anchor="middle" x="196" y="-45.5" font-family="Helvetica,sans-Serif" font-size="10.00">mutt_get_field_full</text>
</a>
</g>
</g>
<!-- Node1&#45;&gt;Node2 -->
<g id="edge1" class="edge"><title>Node1&#45;&gt;Node2</title>
<path fill="none" stroke="midnightblue" d="M122.303,-37.991C130.85,-39.1678 139.474,-40.3551 147.647,-41.4804"/>
<polygon fill="midnightblue" stroke="midnightblue" points="122.719,-34.5153 112.335,-36.6185 121.764,-41.4499 122.719,-34.5153"/>
</g>
<!-- Node3 -->
<g id="node3" class="node"><title>Node3</title>
<g id="a_node3"><a xlink:href="protos_8h.html#a2a8b6785cfa3536429d1deb6d9959e5c" target="_top" xlink:title="Ask the user for a string. ">
<polygon fill="white" stroke="red" points="150,-0.5 150,-19.5 242,-19.5 242,-0.5 150,-0.5"/>
<text text-anchor="middle" x="196" y="-7.5" font-family="Helvetica,sans-Serif" font-size="10.00">mutt_enter_string</text>
</a>
</g>
</g>
<!-- Node1&#45;&gt;Node3 -->
<g id="edge2" class="edge"><title>Node1&#45;&gt;Node3</title>
<path fill="none" stroke="midnightblue" d="M122.353,-20.0022C131.647,-18.7226 141.029,-17.4308 149.823,-16.2201"/>
<polygon fill="midnightblue" stroke="midnightblue" points="121.764,-16.5501 112.335,-21.3815 122.719,-23.4847 121.764,-16.5501"/>
</g>
</g>
</svg>
