<?xml version="1.0" encoding="UTF-8" standalone="no"?>
<!DOCTYPE svg PUBLIC "-//W3C//DTD SVG 1.1//EN"
 "http://www.w3.org/Graphics/SVG/1.1/DTD/svg11.dtd">
<!-- Generated by graphviz version 2.36.0 (20140111.2315)
 -->
<!-- Title: email/envelope.h Pages: 1 -->
<svg width="478pt" height="84pt"
 viewBox="0.00 0.00 478.00 84.00" xmlns="http://www.w3.org/2000/svg" xmlns:xlink="http://www.w3.org/1999/xlink">
<g id="graph0" class="graph" transform="scale(1 1) rotate(0) translate(4 80)">
<title>email/envelope.h</title>
<polygon fill="white" stroke="none" points="-4,4 -4,-80 474,-80 474,4 -4,4"/>
<!-- Node1 -->
<g id="node1" class="node"><title>Node1</title>
<polygon fill="#bfbfbf" stroke="black" points="195,-56.5 195,-75.5 285,-75.5 285,-56.5 195,-56.5"/>
<text text-anchor="middle" x="240" y="-63.5" font-family="Helvetica,sans-Serif" font-size="10.00">email/envelope.h</text>
</g>
<!-- Node2 -->
<g id="node2" class="node"><title>Node2</title>
<g id="a_node2"><a xlink:href="email_8h.html" target="_top" xlink:title="Structs that make up an email. ">
<polygon fill="white" stroke="red" points="0,-0.5 0,-19.5 74,-19.5 74,-0.5 0,-0.5"/>
<text text-anchor="middle" x="37" y="-7.5" font-family="Helvetica,sans-Serif" font-size="10.00">email/email.h</text>
</a>
</g>
</g>
<!-- Node1&#45;&gt;Node2 -->
<g id="edge1" class="edge"><title>Node1&#45;&gt;Node2</title>
<path fill="none" stroke="midnightblue" d="M198.006,-53.8291C159.677,-43.6333 103.848,-28.7823 69.0155,-19.5164"/>
<polygon fill="midnightblue" stroke="midnightblue" points="197.27,-57.2551 207.834,-56.4435 199.07,-50.4904 197.27,-57.2551"/>
</g>
<!-- Node3 -->
<g id="node3" class="node"><title>Node3</title>
<g id="a_node3"><a xlink:href="envelope_8c.html" target="_top" xlink:title="Representation of an email header (envelope) ">
<polygon fill="white" stroke="black" points="92,-0.5 92,-19.5 182,-19.5 182,-0.5 92,-0.5"/>
<text text-anchor="middle" x="137" y="-7.5" font-family="Helvetica,sans-Serif" font-size="10.00">email/envelope.c</text>
</a>
</g>
</g>
<!-- Node1&#45;&gt;Node3 -->
<g id="edge2" class="edge"><title>Node1&#45;&gt;Node3</title>
<path fill="none" stroke="midnightblue" d="M214.421,-51.5895C195.377,-41.6052 169.936,-28.2672 153.508,-19.6545"/>
<polygon fill="midnightblue" stroke="midnightblue" points="212.969,-54.7805 223.451,-56.324 216.22,-48.5808 212.969,-54.7805"/>
</g>
<!-- Node4 -->
<g id="node4" class="node"><title>Node4</title>
<g id="a_node4"><a xlink:href="header_8c.html" target="_top" xlink:title="Representation of the email&#39;s header. ">
<polygon fill="white" stroke="black" points="200,-0.5 200,-19.5 280,-19.5 280,-0.5 200,-0.5"/>
<text text-anchor="middle" x="240" y="-7.5" font-family="Helvetica,sans-Serif" font-size="10.00">email/header.c</text>
</a>
</g>
</g>
<!-- Node1&#45;&gt;Node4 -->
<g id="edge3" class="edge"><title>Node1&#45;&gt;Node4</title>
<path fill="none" stroke="midnightblue" d="M240,-45.8045C240,-36.9102 240,-26.7798 240,-19.7511"/>
<polygon fill="midnightblue" stroke="midnightblue" points="236.5,-46.083 240,-56.083 243.5,-46.083 236.5,-46.083"/>
</g>
<!-- Node5 -->
<g id="node5" class="node"><title>Node5</title>
<g id="a_node5"><a xlink:href="parse_8c.html" target="_top" xlink:title="Miscellaneous email parsing routines. ">
<polygon fill="white" stroke="black" points="298.5,-0.5 298.5,-19.5 373.5,-19.5 373.5,-0.5 298.5,-0.5"/>
<text text-anchor="middle" x="336" y="-7.5" font-family="Helvetica,sans-Serif" font-size="10.00">email/parse.c</text>
</a>
</g>
</g>
<!-- Node1&#45;&gt;Node5 -->
<g id="edge4" class="edge"><title>Node1&#45;&gt;Node5</title>
<path fill="none" stroke="midnightblue" d="M264.574,-51.1774C282.239,-41.2407 305.513,-28.1492 320.614,-19.6545"/>
<polygon fill="midnightblue" stroke="midnightblue" points="262.424,-48.3708 255.424,-56.324 265.856,-54.4718 262.424,-48.3708"/>
</g>
<!-- Node6 -->
<g id="node6" class="node"><title>Node6</title>
<g id="a_node6"><a xlink:href="thread_8c.html" target="_top" xlink:title="Create/manipulate threading in emails. ">
<polygon fill="white" stroke="black" points="392,-0.5 392,-19.5 470,-19.5 470,-0.5 392,-0.5"/>
<text text-anchor="middle" x="431" y="-7.5" font-family="Helvetica,sans-Serif" font-size="10.00">email/thread.c</text>
</a>
</g>
</g>
<!-- Node1&#45;&gt;Node6 -->
<g id="edge5" class="edge"><title>Node1&#45;&gt;Node6</title>
<path fill="none" stroke="midnightblue" d="M279.973,-53.6986C316.021,-43.507 368.243,-28.7429 400.877,-19.5164"/>
<polygon fill="midnightblue" stroke="midnightblue" points="278.935,-50.3549 270.265,-56.4435 280.84,-57.0909 278.935,-50.3549"/>
</g>
</g>
</svg>
