<?xml version="1.0" encoding="UTF-8" standalone="no"?>
<!DOCTYPE svg PUBLIC "-//W3C//DTD SVG 1.1//EN"
 "http://www.w3.org/Graphics/SVG/1.1/DTD/svg11.dtd">
<!-- Generated by graphviz version 2.36.0 (20140111.2315)
 -->
<!-- Title: mutt_env_merge Pages: 1 -->
<svg width="338pt" height="75pt"
 viewBox="0.00 0.00 338.00 75.00" xmlns="http://www.w3.org/2000/svg" xmlns:xlink="http://www.w3.org/1999/xlink">
<g id="graph0" class="graph" transform="scale(1 1) rotate(0) translate(4 71)">
<title>mutt_env_merge</title>
<polygon fill="white" stroke="none" points="-4,4 -4,-71 334,-71 334,4 -4,4"/>
<!-- Node1 -->
<g id="node1" class="node"><title>Node1</title>
<polygon fill="#bfbfbf" stroke="black" points="0.5,-28.5 0.5,-47.5 89.5,-47.5 89.5,-28.5 0.5,-28.5"/>
<text text-anchor="middle" x="45" y="-35.5" font-family="Helvetica,sans-Serif" font-size="10.00">mutt_env_merge</text>
</g>
<!-- Node2 -->
<g id="node2" class="node"><title>Node2</title>
<g id="a_node2"><a xlink:href="buffer_8c.html#a4fe44d6951505adb974135817a85a3d1" target="_top" xlink:title="Release a Buffer and its contents. ">
<polygon fill="white" stroke="black" points="242,-47.5 242,-66.5 330,-66.5 330,-47.5 242,-47.5"/>
<text text-anchor="middle" x="286" y="-54.5" font-family="Helvetica,sans-Serif" font-size="10.00">mutt_buffer_free</text>
</a>
</g>
</g>
<!-- Node1&#45;&gt;Node2 -->
<g id="edge1" class="edge"><title>Node1&#45;&gt;Node2</title>
<path fill="none" stroke="midnightblue" d="M78.3876,-47.5066C92.8228,-51.271 110.12,-55.1402 126,-57 161.101,-61.1111 200.86,-61.1102 231.84,-60.082"/>
<polygon fill="midnightblue" stroke="midnightblue" points="232.129,-63.5736 241.99,-59.6984 231.865,-56.5786 232.129,-63.5736"/>
</g>
<!-- Node3 -->
<g id="node3" class="node"><title>Node3</title>
<g id="a_node3"><a xlink:href="list_8c.html#ab5c53ce94cc2aafa4299dbc81a37f4a4" target="_top" xlink:title="Free a List AND its strings. ">
<polygon fill="white" stroke="black" points="248,-0.5 248,-19.5 324,-19.5 324,-0.5 248,-0.5"/>
<text text-anchor="middle" x="286" y="-7.5" font-family="Helvetica,sans-Serif" font-size="10.00">mutt_list_free</text>
</a>
</g>
</g>
<!-- Node1&#45;&gt;Node3 -->
<g id="edge2" class="edge"><title>Node1&#45;&gt;Node3</title>
<path fill="none" stroke="midnightblue" d="M80.3948,-28.4239C94.4299,-24.886 110.885,-21.205 126,-19 163.239,-13.5675 205.827,-11.3675 237.549,-10.4985"/>
<polygon fill="midnightblue" stroke="midnightblue" points="237.954,-13.9899 247.867,-10.252 237.786,-6.99189 237.954,-13.9899"/>
</g>
<!-- Node4 -->
<g id="node4" class="node"><title>Node4</title>
<g id="a_node4"><a xlink:href="envelope_8c.html#a95a982abab9f28dc46d9a5da0b64ae4c" target="_top" xlink:title="Free an Envelope. ">
<polygon fill="white" stroke="red" points="126.5,-28.5 126.5,-47.5 205.5,-47.5 205.5,-28.5 126.5,-28.5"/>
<text text-anchor="middle" x="166" y="-35.5" font-family="Helvetica,sans-Serif" font-size="10.00">mutt_env_free</text>
</a>
</g>
</g>
<!-- Node1&#45;&gt;Node4 -->
<g id="edge3" class="edge"><title>Node1&#45;&gt;Node4</title>
<path fill="none" stroke="midnightblue" d="M89.6355,-38C98.3127,-38 107.476,-38 116.309,-38"/>
<polygon fill="midnightblue" stroke="midnightblue" points="116.48,-41.5001 126.48,-38 116.48,-34.5001 116.48,-41.5001"/>
</g>
<!-- Node4&#45;&gt;Node2 -->
<g id="edge4" class="edge"><title>Node4&#45;&gt;Node2</title>
<path fill="none" stroke="midnightblue" d="M205.638,-44.2213C213.947,-45.5593 222.871,-46.9961 231.627,-48.4061"/>
<polygon fill="midnightblue" stroke="midnightblue" points="231.354,-51.9071 241.783,-50.0414 232.467,-44.9961 231.354,-51.9071"/>
</g>
<!-- Node4&#45;&gt;Node3 -->
<g id="edge5" class="edge"><title>Node4&#45;&gt;Node3</title>
<path fill="none" stroke="midnightblue" d="M205.638,-28.8318C215.927,-26.3903 227.157,-23.7254 237.847,-21.1888"/>
<polygon fill="midnightblue" stroke="midnightblue" points="238.96,-24.522 247.882,-18.8077 237.344,-17.7111 238.96,-24.522"/>
</g>
</g>
</svg>
