<?xml version="1.0" encoding="UTF-8" standalone="no"?>
<!DOCTYPE svg PUBLIC "-//W3C//DTD SVG 1.1//EN"
 "http://www.w3.org/Graphics/SVG/1.1/DTD/svg11.dtd">
<!-- Generated by graphviz version 2.36.0 (20140111.2315)
 -->
<!-- Title: mutt_envlist_set Pages: 1 -->
<svg width="240pt" height="104pt"
 viewBox="0.00 0.00 240.00 104.00" xmlns="http://www.w3.org/2000/svg" xmlns:xlink="http://www.w3.org/1999/xlink">
<g id="graph0" class="graph" transform="scale(1 1) rotate(0) translate(4 100)">
<title>mutt_envlist_set</title>
<polygon fill="white" stroke="none" points="-4,4 -4,-100 236,-100 236,4 -4,4"/>
<!-- Node1 -->
<g id="node1" class="node"><title>Node1</title>
<polygon fill="#bfbfbf" stroke="black" points="0.5,-38.5 0.5,-57.5 89.5,-57.5 89.5,-38.5 0.5,-38.5"/>
<text text-anchor="middle" x="45" y="-45.5" font-family="Helvetica,sans-Serif" font-size="10.00">mutt_envlist_set</text>
</g>
<!-- Node2 -->
<g id="node2" class="node"><title>Node2</title>
<g id="a_node2"><a xlink:href="filter_8h.html#ac11a676d3f214c21cf70e360002757ec" target="_top" xlink:title="Run a command on a pipe (optionally connect stdin/stdout) ">
<polygon fill="white" stroke="red" points="126,-76.5 126,-95.5 232,-95.5 232,-76.5 126,-76.5"/>
<text text-anchor="middle" x="179" y="-83.5" font-family="Helvetica,sans-Serif" font-size="10.00">mutt_create_filter_fd</text>
</a>
</g>
</g>
<!-- Node1&#45;&gt;Node2 -->
<g id="edge1" class="edge"><title>Node1&#45;&gt;Node2</title>
<path fill="none" stroke="midnightblue" d="M89.0409,-60.3906C107.118,-65.5945 127.819,-71.5541 144.701,-76.4141"/>
<polygon fill="midnightblue" stroke="midnightblue" points="89.8872,-56.9921 79.3092,-57.589 87.9506,-63.7189 89.8872,-56.9921"/>
</g>
<!-- Node3 -->
<g id="node3" class="node"><title>Node3</title>
<g id="a_node3"><a xlink:href="init_8c.html#ad3e4266858f061b87498c2c4538186eb" target="_top" xlink:title="Parse the &#39;setenv&#39; and &#39;unsetenv&#39; commands &#45; Implements command_t. ">
<polygon fill="white" stroke="black" points="141.5,-38.5 141.5,-57.5 216.5,-57.5 216.5,-38.5 141.5,-38.5"/>
<text text-anchor="middle" x="179" y="-45.5" font-family="Helvetica,sans-Serif" font-size="10.00">parse_setenv</text>
</a>
</g>
</g>
<!-- Node1&#45;&gt;Node3 -->
<g id="edge2" class="edge"><title>Node1&#45;&gt;Node3</title>
<path fill="none" stroke="midnightblue" d="M99.9725,-48C113.793,-48 128.342,-48 141.084,-48"/>
<polygon fill="midnightblue" stroke="midnightblue" points="99.5876,-44.5001 89.5876,-48 99.5875,-51.5001 99.5876,-44.5001"/>
</g>
<!-- Node4 -->
<g id="node4" class="node"><title>Node4</title>
<g id="a_node4"><a xlink:href="pgp_8h.html#ab97e1713bb20da422b5a71b68747edf9" target="_top" xlink:title="Does the user want to use the gpg agent? ">
<polygon fill="white" stroke="red" points="127,-0.5 127,-19.5 231,-19.5 231,-0.5 127,-0.5"/>
<text text-anchor="middle" x="179" y="-7.5" font-family="Helvetica,sans-Serif" font-size="10.00">pgp_use_gpg_agent</text>
</a>
</g>
</g>
<!-- Node1&#45;&gt;Node4 -->
<g id="edge3" class="edge"><title>Node1&#45;&gt;Node4</title>
<path fill="none" stroke="midnightblue" d="M89.0409,-35.6094C107.118,-30.4055 127.819,-24.4459 144.701,-19.5859"/>
<polygon fill="midnightblue" stroke="midnightblue" points="87.9506,-32.2811 79.3092,-38.411 89.8872,-39.0079 87.9506,-32.2811"/>
</g>
</g>
</svg>
