<?xml version="1.0" encoding="UTF-8" standalone="no"?>
<!DOCTYPE svg PUBLIC "-//W3C//DTD SVG 1.1//EN"
 "http://www.w3.org/Graphics/SVG/1.1/DTD/svg11.dtd">
<!-- Generated by graphviz version 2.36.0 (20140111.2315)
 -->
<!-- Title: mutt_file_chmod_rm_stat Pages: 1 -->
<svg width="310pt" height="66pt"
 viewBox="0.00 0.00 310.00 66.00" xmlns="http://www.w3.org/2000/svg" xmlns:xlink="http://www.w3.org/1999/xlink">
<g id="graph0" class="graph" transform="scale(1 1) rotate(0) translate(4 62)">
<title>mutt_file_chmod_rm_stat</title>
<polygon fill="white" stroke="none" points="-4,4 -4,-62 306,-62 306,4 -4,4"/>
<!-- Node1 -->
<g id="node1" class="node"><title>Node1</title>
<polygon fill="#bfbfbf" stroke="black" points="0.5,-19.5 0.5,-38.5 127.5,-38.5 127.5,-19.5 0.5,-19.5"/>
<text text-anchor="middle" x="64" y="-26.5" font-family="Helvetica,sans-Serif" font-size="10.00">mutt_file_chmod_rm_stat</text>
</g>
<!-- Node2 -->
<g id="node2" class="node"><title>Node2</title>
<g id="a_node2"><a xlink:href="editmsg_8c.html#a39310aed08cab0c0d9851b5c6216b9fc" target="_top" xlink:title="Edit an email or view it in an external editor. ">
<polygon fill="white" stroke="red" points="164.5,-38.5 164.5,-57.5 301.5,-57.5 301.5,-38.5 164.5,-38.5"/>
<text text-anchor="middle" x="233" y="-45.5" font-family="Helvetica,sans-Serif" font-size="10.00">edit_or_view_one_message</text>
</a>
</g>
</g>
<!-- Node1&#45;&gt;Node2 -->
<g id="edge1" class="edge"><title>Node1&#45;&gt;Node2</title>
<path fill="none" stroke="midnightblue" d="M137.854,-37.2888C146.62,-38.2862 155.546,-39.3016 164.236,-40.2903"/>
<polygon fill="midnightblue" stroke="midnightblue" points="137.991,-33.7819 127.66,-36.129 137.2,-40.737 137.991,-33.7819"/>
</g>
<!-- Node3 -->
<g id="node3" class="node"><title>Node3</title>
<g id="a_node3"><a xlink:href="file_8h.html#a58dc6ce9fcab65c54ae6af175d641e47" target="_top" xlink:title="Remove permissions from a file. ">
<polygon fill="white" stroke="black" points="180.5,-0.5 180.5,-19.5 285.5,-19.5 285.5,-0.5 180.5,-0.5"/>
<text text-anchor="middle" x="233" y="-7.5" font-family="Helvetica,sans-Serif" font-size="10.00">mutt_file_chmod_rm</text>
</a>
</g>
</g>
<!-- Node1&#45;&gt;Node3 -->
<g id="edge2" class="edge"><title>Node1&#45;&gt;Node3</title>
<path fill="none" stroke="midnightblue" d="M137.978,-20.6971C152.284,-19.0695 167.008,-17.3943 180.436,-15.8666"/>
<polygon fill="midnightblue" stroke="midnightblue" points="137.2,-17.263 127.66,-21.871 137.991,-24.2181 137.2,-17.263"/>
</g>
</g>
</svg>
