<?xml version="1.0" encoding="UTF-8" standalone="no"?>
<!DOCTYPE svg PUBLIC "-//W3C//DTD SVG 1.1//EN"
 "http://www.w3.org/Graphics/SVG/1.1/DTD/svg11.dtd">
<!-- Generated by graphviz version 2.36.0 (20140111.2315)
 -->
<!-- Title: mutt_file_copy_bytes Pages: 1 -->
<svg width="424pt" height="361pt"
 viewBox="0.00 0.00 424.00 361.44" xmlns="http://www.w3.org/2000/svg" xmlns:xlink="http://www.w3.org/1999/xlink">
<g id="graph0" class="graph" transform="scale(1 1) rotate(0) translate(4 357.442)">
<title>mutt_file_copy_bytes</title>
<polygon fill="white" stroke="none" points="-4,4 -4,-357.442 420,-357.442 420,4 -4,4"/>
<!-- Node1 -->
<g id="node1" class="node"><title>Node1</title>
<polygon fill="#bfbfbf" stroke="black" points="0,-171.5 0,-190.5 110,-190.5 110,-171.5 0,-171.5"/>
<text text-anchor="middle" x="55" y="-178.5" font-family="Helvetica,sans-Serif" font-size="10.00">mutt_file_copy_bytes</text>
</g>
<!-- Node2 -->
<g id="node2" class="node"><title>Node2</title>
<g id="a_node2"><a xlink:href="copy_8h.html#a83d41783f47bc19055f396db29a6ceb6" target="_top" xlink:title="make a copy of a message from a FILE pointer ">
<polygon fill="white" stroke="red" points="294.5,-323.5 294.5,-342.5 415.5,-342.5 415.5,-323.5 294.5,-323.5"/>
<text text-anchor="middle" x="355" y="-330.5" font-family="Helvetica,sans-Serif" font-size="10.00">mutt_copy_message_fp</text>
</a>
</g>
</g>
<!-- Node1&#45;&gt;Node2 -->
<g id="edge1" class="edge"><title>Node1&#45;&gt;Node2</title>
<path fill="none" stroke="midnightblue" d="M60.8446,-200.619C70.4565,-234.765 95.5136,-304.221 146,-333 200.587,-364.117 277.061,-352.934 320.451,-342.578"/>
<polygon fill="midnightblue" stroke="midnightblue" points="64.2047,-199.636 58.2538,-190.87 57.4395,-201.434 64.2047,-199.636"/>
</g>
<!-- Node3 -->
<g id="node3" class="node"><title>Node3</title>
<g id="a_node3"><a xlink:href="copy_8c.html#aa5b76471bef983984dc3182977c995e4" target="_top" xlink:title="Copy a message, deleting marked attachments. ">
<polygon fill="white" stroke="black" points="151.5,-304.5 151.5,-323.5 252.5,-323.5 252.5,-304.5 151.5,-304.5"/>
<text text-anchor="middle" x="202" y="-311.5" font-family="Helvetica,sans-Serif" font-size="10.00">copy_delete_attach</text>
</a>
</g>
</g>
<!-- Node1&#45;&gt;Node3 -->
<g id="edge2" class="edge"><title>Node1&#45;&gt;Node3</title>
<path fill="none" stroke="midnightblue" d="M66.1343,-199.671C80.6615,-224.773 109.701,-269.219 146,-295 151.354,-298.802 157.534,-301.899 163.777,-304.402"/>
<polygon fill="midnightblue" stroke="midnightblue" points="69.0885,-197.784 61.1332,-190.786 62.9884,-201.218 69.0885,-197.784"/>
</g>
<!-- Node4 -->
<g id="node4" class="node"><title>Node4</title>
<g id="a_node4"><a xlink:href="handler_8c.html#ab1907ff091d1c3753fd6f81374849aba" target="_top" xlink:title="Decode xbit&#45;encoded text. ">
<polygon fill="white" stroke="red" points="167.5,-266.5 167.5,-285.5 236.5,-285.5 236.5,-266.5 167.5,-266.5"/>
<text text-anchor="middle" x="202" y="-273.5" font-family="Helvetica,sans-Serif" font-size="10.00">decode_xbit</text>
</a>
</g>
</g>
<!-- Node1&#45;&gt;Node4 -->
<g id="edge4" class="edge"><title>Node1&#45;&gt;Node4</title>
<path fill="none" stroke="midnightblue" d="M72.526,-198.274C89.5642,-215.234 117.582,-240.844 146,-257 152.587,-260.745 160.035,-263.926 167.274,-266.552"/>
<polygon fill="midnightblue" stroke="midnightblue" points="74.6003,-195.392 65.0901,-190.723 69.6125,-200.304 74.6003,-195.392"/>
</g>
<!-- Node5 -->
<g id="node5" class="node"><title>Node5</title>
<g id="a_node5"><a xlink:href="handler_8c.html#a4019b110ff53c32c7779c33209b7ebb1" target="_top" xlink:title="Handler for autoviewable attachments &#45; Implements handler_t. ">
<polygon fill="white" stroke="red" points="156,-228.5 156,-247.5 248,-247.5 248,-228.5 156,-228.5"/>
<text text-anchor="middle" x="202" y="-235.5" font-family="Helvetica,sans-Serif" font-size="10.00">autoview_handler</text>
</a>
</g>
</g>
<!-- Node1&#45;&gt;Node5 -->
<g id="edge5" class="edge"><title>Node1&#45;&gt;Node5</title>
<path fill="none" stroke="midnightblue" d="M87.2151,-194.786C104.438,-202.239 126.274,-211.438 146,-219 154.49,-222.254 163.808,-225.569 172.323,-228.499"/>
<polygon fill="midnightblue" stroke="midnightblue" points="88.224,-191.408 77.6581,-190.625 85.4297,-197.826 88.224,-191.408"/>
</g>
<!-- Node6 -->
<g id="node6" class="node"><title>Node6</title>
<g id="a_node6"><a xlink:href="handler_8c.html#aab3262f62a3d18119e23b733fa09164c" target="_top" xlink:title="Handler for multipart alternative emails &#45; Implements handler_t. ">
<polygon fill="white" stroke="red" points="153,-190.5 153,-209.5 251,-209.5 251,-190.5 153,-190.5"/>
<text text-anchor="middle" x="202" y="-197.5" font-family="Helvetica,sans-Serif" font-size="10.00">alternative_handler</text>
</a>
</g>
</g>
<!-- Node1&#45;&gt;Node6 -->
<g id="edge6" class="edge"><title>Node1&#45;&gt;Node6</title>
<path fill="none" stroke="midnightblue" d="M120.366,-189.434C131.32,-190.87 142.525,-192.338 152.964,-193.706"/>
<polygon fill="midnightblue" stroke="midnightblue" points="120.775,-185.958 110.405,-188.129 119.866,-192.899 120.775,-185.958"/>
</g>
<!-- Node7 -->
<g id="node7" class="node"><title>Node7</title>
<g id="a_node7"><a xlink:href="handler_8c.html#a057547777eaf6251138ef699cd0796dc" target="_top" xlink:title="Handler for multipart emails &#45; Implements handler_t. ">
<polygon fill="white" stroke="red" points="156.5,-152.5 156.5,-171.5 247.5,-171.5 247.5,-152.5 156.5,-152.5"/>
<text text-anchor="middle" x="202" y="-159.5" font-family="Helvetica,sans-Serif" font-size="10.00">multipart_handler</text>
</a>
</g>
</g>
<!-- Node1&#45;&gt;Node7 -->
<g id="edge7" class="edge"><title>Node1&#45;&gt;Node7</title>
<path fill="none" stroke="midnightblue" d="M120.45,-172.555C132.529,-170.972 144.91,-169.35 156.229,-167.867"/>
<polygon fill="midnightblue" stroke="midnightblue" points="119.866,-169.101 110.405,-173.871 120.775,-176.042 119.866,-169.101"/>
</g>
<!-- Node8 -->
<g id="node8" class="node"><title>Node8</title>
<g id="a_node8"><a xlink:href="pgp_8h.html#a2d07667a924f2576457cb64e4ec2bc64" target="_top" xlink:title="Implements CryptModuleSpecs::verify_one() ">
<polygon fill="white" stroke="black" points="146.5,-114.5 146.5,-133.5 257.5,-133.5 257.5,-114.5 146.5,-114.5"/>
<text text-anchor="middle" x="202" y="-121.5" font-family="Helvetica,sans-Serif" font-size="10.00">pgp_class_verify_one</text>
</a>
</g>
</g>
<!-- Node1&#45;&gt;Node8 -->
<g id="edge8" class="edge"><title>Node1&#45;&gt;Node8</title>
<path fill="none" stroke="midnightblue" d="M87.2151,-167.214C104.438,-159.761 126.274,-150.562 146,-143 154.49,-139.746 163.808,-136.431 172.323,-133.501"/>
<polygon fill="midnightblue" stroke="midnightblue" points="85.4297,-164.174 77.6581,-171.375 88.224,-170.592 85.4297,-164.174"/>
</g>
<!-- Node9 -->
<g id="node9" class="node"><title>Node9</title>
<g id="a_node9"><a xlink:href="pgp_8c.html#a031ea9dee21fd00cd1aa6fb404f005d2" target="_top" xlink:title="Decrypt part of a PGP message. ">
<polygon fill="white" stroke="red" points="156,-76.5 156,-95.5 248,-95.5 248,-76.5 156,-76.5"/>
<text text-anchor="middle" x="202" y="-83.5" font-family="Helvetica,sans-Serif" font-size="10.00">pgp_decrypt_part</text>
</a>
</g>
</g>
<!-- Node1&#45;&gt;Node9 -->
<g id="edge9" class="edge"><title>Node1&#45;&gt;Node9</title>
<path fill="none" stroke="midnightblue" d="M72.526,-163.726C89.5642,-146.766 117.582,-121.156 146,-105 152.499,-101.305 159.836,-98.1591 166.984,-95.5529"/>
<polygon fill="midnightblue" stroke="midnightblue" points="69.6125,-161.696 65.0901,-171.277 74.6003,-166.608 69.6125,-161.696"/>
</g>
<!-- Node10 -->
<g id="node10" class="node"><title>Node10</title>
<g id="a_node10"><a xlink:href="smime_8c.html#a9a688bb9dd47be9db4698008c5e0be50" target="_top" xlink:title="Handle type application/pkcs7&#45;mime. ">
<polygon fill="white" stroke="red" points="147.5,-38.5 147.5,-57.5 256.5,-57.5 256.5,-38.5 147.5,-38.5"/>
<text text-anchor="middle" x="202" y="-45.5" font-family="Helvetica,sans-Serif" font-size="10.00">smime_handle_entity</text>
</a>
</g>
</g>
<!-- Node1&#45;&gt;Node10 -->
<g id="edge10" class="edge"><title>Node1&#45;&gt;Node10</title>
<path fill="none" stroke="midnightblue" d="M66.1343,-162.329C80.6615,-137.227 109.701,-92.7806 146,-67 151.354,-63.1977 157.534,-60.1013 163.777,-57.5975"/>
<polygon fill="midnightblue" stroke="midnightblue" points="62.9884,-160.782 61.1332,-171.214 69.0885,-164.216 62.9884,-160.782"/>
</g>
<!-- Node11 -->
<g id="node11" class="node"><title>Node11</title>
<g id="a_node11"><a xlink:href="sendlib_8c.html#a9a653a3e76847d5e165a910082e246cf" target="_top" xlink:title="Bounce an email message. ">
<polygon fill="white" stroke="red" points="155.5,-0.5 155.5,-19.5 248.5,-19.5 248.5,-0.5 155.5,-0.5"/>
<text text-anchor="middle" x="202" y="-7.5" font-family="Helvetica,sans-Serif" font-size="10.00">bounce_message</text>
</a>
</g>
</g>
<!-- Node1&#45;&gt;Node11 -->
<g id="edge11" class="edge"><title>Node1&#45;&gt;Node11</title>
<path fill="none" stroke="midnightblue" d="M62.4297,-161.663C74.0619,-129.563 101.596,-65.2326 146,-29 150.696,-25.1679 156.212,-22.0884 161.906,-19.6192"/>
<polygon fill="midnightblue" stroke="midnightblue" points="59.0828,-160.631 59.0931,-171.226 65.692,-162.937 59.0828,-160.631"/>
</g>
<!-- Node3&#45;&gt;Node2 -->
<g id="edge3" class="edge"><title>Node3&#45;&gt;Node2</title>
<path fill="none" stroke="midnightblue" d="M263.044,-321.555C273.391,-322.857 284.144,-324.21 294.477,-325.51"/>
<polygon fill="midnightblue" stroke="midnightblue" points="263.22,-318.05 252.862,-320.274 262.346,-324.995 263.22,-318.05"/>
</g>
</g>
</svg>
