<?xml version="1.0" encoding="UTF-8" standalone="no"?>
<!DOCTYPE svg PUBLIC "-//W3C//DTD SVG 1.1//EN"
 "http://www.w3.org/Graphics/SVG/1.1/DTD/svg11.dtd">
<!-- Generated by graphviz version 2.36.0 (20140111.2315)
 -->
<!-- Title: mutt_file_expand_fmt_quote Pages: 1 -->
<svg width="280pt" height="66pt"
 viewBox="0.00 0.00 280.00 66.00" xmlns="http://www.w3.org/2000/svg" xmlns:xlink="http://www.w3.org/1999/xlink">
<g id="graph0" class="graph" transform="scale(1 1) rotate(0) translate(4 62)">
<title>mutt_file_expand_fmt_quote</title>
<polygon fill="white" stroke="none" points="-4,4 -4,-62 276,-62 276,4 -4,4"/>
<!-- Node1 -->
<g id="node1" class="node"><title>Node1</title>
<polygon fill="#bfbfbf" stroke="black" points="0,-14 0,-44 110,-44 110,-14 0,-14"/>
<text text-anchor="start" x="8" y="-32" font-family="Helvetica,sans-Serif" font-size="10.00">mutt_file_expand_fmt</text>
<text text-anchor="middle" x="55" y="-21" font-family="Helvetica,sans-Serif" font-size="10.00">_quote</text>
</g>
<!-- Node2 -->
<g id="node2" class="node"><title>Node2</title>
<g id="a_node2"><a xlink:href="file_8c.html#acec2e9d722d748720d061972d701efa4" target="_top" xlink:title="Quote a filename to survive the shell&#39;s quoting rules. ">
<polygon fill="white" stroke="black" points="146.5,-38.5 146.5,-57.5 271.5,-57.5 271.5,-38.5 146.5,-38.5"/>
<text text-anchor="middle" x="209" y="-45.5" font-family="Helvetica,sans-Serif" font-size="10.00">mutt_file_quote_filename</text>
</a>
</g>
</g>
<!-- Node1&#45;&gt;Node2 -->
<g id="edge1" class="edge"><title>Node1&#45;&gt;Node2</title>
<path fill="none" stroke="midnightblue" d="M110.017,-35.7522C118.573,-36.8217 127.536,-37.9419 136.417,-39.0522"/>
<polygon fill="midnightblue" stroke="midnightblue" points="136.028,-42.5306 146.385,-40.2981 136.896,-35.5847 136.028,-42.5306"/>
</g>
<!-- Node3 -->
<g id="node3" class="node"><title>Node3</title>
<g id="a_node3"><a xlink:href="file_8c.html#a49f4e640f29cebb58f329c438d32b038" target="_top" xlink:title="Replace s in a string with a filename. ">
<polygon fill="white" stroke="red" points="154,-0.5 154,-19.5 264,-19.5 264,-0.5 154,-0.5"/>
<text text-anchor="middle" x="209" y="-7.5" font-family="Helvetica,sans-Serif" font-size="10.00">mutt_file_expand_fmt</text>
</a>
</g>
</g>
<!-- Node1&#45;&gt;Node3 -->
<g id="edge2" class="edge"><title>Node1&#45;&gt;Node3</title>
<path fill="none" stroke="midnightblue" d="M110.017,-22.2478C120.928,-20.884 132.499,-19.4376 143.722,-18.0348"/>
<polygon fill="midnightblue" stroke="midnightblue" points="144.412,-21.4758 153.901,-16.7624 143.544,-14.5299 144.412,-21.4758"/>
</g>
</g>
</svg>
