<?xml version="1.0" encoding="UTF-8" standalone="no"?>
<!DOCTYPE svg PUBLIC "-//W3C//DTD SVG 1.1//EN"
 "http://www.w3.org/Graphics/SVG/1.1/DTD/svg11.dtd">
<!-- Generated by graphviz version 2.36.0 (20140111.2315)
 -->
<!-- Title: mutt_file_decrease_mtime Pages: 1 -->
<svg width="414pt" height="85pt"
 viewBox="0.00 0.00 414.00 85.00" xmlns="http://www.w3.org/2000/svg" xmlns:xlink="http://www.w3.org/1999/xlink">
<g id="graph0" class="graph" transform="scale(1 1) rotate(0) translate(4 81)">
<title>mutt_file_decrease_mtime</title>
<polygon fill="white" stroke="none" points="-4,4 -4,-81 410,-81 410,4 -4,4"/>
<!-- Node1 -->
<g id="node1" class="node"><title>Node1</title>
<polygon fill="#bfbfbf" stroke="black" points="0.5,-14 0.5,-44 99.5,-44 99.5,-14 0.5,-14"/>
<text text-anchor="start" x="8.5" y="-32" font-family="Helvetica,sans-Serif" font-size="10.00">mutt_file_decrease</text>
<text text-anchor="middle" x="50" y="-21" font-family="Helvetica,sans-Serif" font-size="10.00">_mtime</text>
</g>
<!-- Node2 -->
<g id="node2" class="node"><title>Node2</title>
<g id="a_node2"><a xlink:href="editmsg_8c.html#a39310aed08cab0c0d9851b5c6216b9fc" target="_top" xlink:title="Edit an email or view it in an external editor. ">
<polygon fill="white" stroke="red" points="136.5,-57.5 136.5,-76.5 273.5,-76.5 273.5,-57.5 136.5,-57.5"/>
<text text-anchor="middle" x="205" y="-64.5" font-family="Helvetica,sans-Serif" font-size="10.00">edit_or_view_one_message</text>
</a>
</g>
</g>
<!-- Node1&#45;&gt;Node2 -->
<g id="edge1" class="edge"><title>Node1&#45;&gt;Node2</title>
<path fill="none" stroke="midnightblue" d="M109.703,-43.5799C128.332,-48.2067 148.452,-53.2039 165.304,-57.3891"/>
<polygon fill="midnightblue" stroke="midnightblue" points="110.38,-40.1416 99.8308,-41.1279 108.692,-46.9352 110.38,-40.1416"/>
</g>
<!-- Node3 -->
<g id="node3" class="node"><title>Node3</title>
<g id="a_node3"><a xlink:href="mutt__header_8h.html#ac62ee78bf6fa15d23c2066f7e31cc3e5" target="_top" xlink:title="Let the user edit the message header and body. ">
<polygon fill="white" stroke="red" points="156.5,-19.5 156.5,-38.5 253.5,-38.5 253.5,-19.5 156.5,-19.5"/>
<text text-anchor="middle" x="205" y="-26.5" font-family="Helvetica,sans-Serif" font-size="10.00">mutt_edit_headers</text>
</a>
</g>
</g>
<!-- Node1&#45;&gt;Node3 -->
<g id="edge2" class="edge"><title>Node1&#45;&gt;Node3</title>
<path fill="none" stroke="midnightblue" d="M110.233,-29C125.53,-29 141.799,-29 156.416,-29"/>
<polygon fill="midnightblue" stroke="midnightblue" points="109.831,-25.5001 99.8308,-29 109.831,-32.5001 109.831,-25.5001"/>
</g>
<!-- Node4 -->
<g id="node4" class="node"><title>Node4</title>
<g id="a_node4"><a xlink:href="send_8h.html#a09c909ab2bb41101590ed2b13f65fc2d" target="_top" xlink:title="Send an email. ">
<polygon fill="white" stroke="red" points="310.5,-0.5 310.5,-19.5 405.5,-19.5 405.5,-0.5 310.5,-0.5"/>
<text text-anchor="middle" x="358" y="-7.5" font-family="Helvetica,sans-Serif" font-size="10.00">ci_send_message</text>
</a>
</g>
</g>
<!-- Node1&#45;&gt;Node4 -->
<g id="edge4" class="edge"><title>Node1&#45;&gt;Node4</title>
<path fill="none" stroke="midnightblue" d="M109.521,-14.1568C118.342,-12.4329 127.373,-10.9524 136,-10 195.874,-3.38976 265.43,-4.88739 310.273,-7.03429"/>
<polygon fill="midnightblue" stroke="midnightblue" points="108.768,-10.7384 99.684,-16.1913 110.186,-17.5933 108.768,-10.7384"/>
</g>
<!-- Node3&#45;&gt;Node4 -->
<g id="edge3" class="edge"><title>Node3&#45;&gt;Node4</title>
<path fill="none" stroke="midnightblue" d="M263.721,-21.7371C279.126,-19.7988 295.578,-17.7286 310.308,-15.8751"/>
<polygon fill="midnightblue" stroke="midnightblue" points="263.262,-18.2671 253.777,-22.9883 264.136,-25.2124 263.262,-18.2671"/>
</g>
</g>
</svg>
