<?xml version="1.0" encoding="UTF-8" standalone="no"?>
<!DOCTYPE svg PUBLIC "-//W3C//DTD SVG 1.1//EN"
 "http://www.w3.org/Graphics/SVG/1.1/DTD/svg11.dtd">
<!-- Generated by graphviz version 2.36.0 (20140111.2315)
 -->
<!-- Title: mutt_file_rename Pages: 1 -->
<svg width="418pt" height="85pt"
 viewBox="0.00 0.00 418.00 85.00" xmlns="http://www.w3.org/2000/svg" xmlns:xlink="http://www.w3.org/1999/xlink">
<g id="graph0" class="graph" transform="scale(1 1) rotate(0) translate(4 81)">
<title>mutt_file_rename</title>
<polygon fill="white" stroke="none" points="-4,4 -4,-81 414,-81 414,4 -4,4"/>
<!-- Node1 -->
<g id="node1" class="node"><title>Node1</title>
<polygon fill="#bfbfbf" stroke="black" points="0,-38.5 0,-57.5 92,-57.5 92,-38.5 0,-38.5"/>
<text text-anchor="middle" x="46" y="-45.5" font-family="Helvetica,sans-Serif" font-size="10.00">mutt_file_rename</text>
</g>
<!-- Node2 -->
<g id="node2" class="node"><title>Node2</title>
<g id="a_node2"><a xlink:href="compose_8h.html#ad69c04d8ece089edb91f7b1178c2262c" target="_top" xlink:title="Allow the user to edit the message envelope. ">
<polygon fill="white" stroke="red" points="300,-57.5 300,-76.5 410,-76.5 410,-57.5 300,-57.5"/>
<text text-anchor="middle" x="355" y="-64.5" font-family="Helvetica,sans-Serif" font-size="10.00">mutt_compose_menu</text>
</a>
</g>
</g>
<!-- Node1&#45;&gt;Node2 -->
<g id="edge1" class="edge"><title>Node1&#45;&gt;Node2</title>
<path fill="none" stroke="midnightblue" d="M89.7627,-59.9702C102.01,-62.8679 115.445,-65.5472 128,-67 186.464,-73.7651 254.006,-72.6023 299.917,-70.4796"/>
<polygon fill="midnightblue" stroke="midnightblue" points="90.3478,-56.5095 79.8,-57.5069 88.6676,-63.3049 90.3478,-56.5095"/>
</g>
<!-- Node3 -->
<g id="node3" class="node"><title>Node3</title>
<g id="a_node3"><a xlink:href="mutt__attach_8h.html#acf4b24753bffc9e93f0ec9c157c850fe" target="_top" xlink:title="Create an attachment. ">
<polygon fill="white" stroke="black" points="128.5,-38.5 128.5,-57.5 263.5,-57.5 263.5,-38.5 128.5,-38.5"/>
<text text-anchor="middle" x="196" y="-45.5" font-family="Helvetica,sans-Serif" font-size="10.00">mutt_compose_attachment</text>
</a>
</g>
</g>
<!-- Node1&#45;&gt;Node3 -->
<g id="edge2" class="edge"><title>Node1&#45;&gt;Node3</title>
<path fill="none" stroke="midnightblue" d="M102.325,-48C110.787,-48 119.597,-48 128.273,-48"/>
<polygon fill="midnightblue" stroke="midnightblue" points="102.209,-44.5001 92.2091,-48 102.209,-51.5001 102.209,-44.5001"/>
</g>
<!-- Node4 -->
<g id="node4" class="node"><title>Node4</title>
<g id="a_node4"><a xlink:href="recvattach_8c.html#af9a91b1708bff64bf5e3d46c6b3efce1" target="_top" xlink:title="Ask the user if we should pipe the attachment. ">
<polygon fill="white" stroke="red" points="137,-0.5 137,-19.5 255,-19.5 255,-0.5 137,-0.5"/>
<text text-anchor="middle" x="196" y="-7.5" font-family="Helvetica,sans-Serif" font-size="10.00">query_pipe_attachment</text>
</a>
</g>
</g>
<!-- Node1&#45;&gt;Node4 -->
<g id="edge4" class="edge"><title>Node1&#45;&gt;Node4</title>
<path fill="none" stroke="midnightblue" d="M94.1735,-35.8879C114.786,-30.5956 138.609,-24.4787 157.922,-19.5201"/>
<polygon fill="midnightblue" stroke="midnightblue" points="93.162,-32.534 84.3466,-38.411 94.9029,-39.3141 93.162,-32.534"/>
</g>
<!-- Node3&#45;&gt;Node2 -->
<g id="edge3" class="edge"><title>Node3&#45;&gt;Node2</title>
<path fill="none" stroke="midnightblue" d="M273.516,-57.2599C282.349,-58.3289 291.215,-59.4018 299.667,-60.4247"/>
<polygon fill="midnightblue" stroke="midnightblue" points="273.93,-53.7846 263.582,-56.0577 273.089,-60.7339 273.93,-53.7846"/>
</g>
</g>
</svg>
