<?xml version="1.0" encoding="UTF-8" standalone="no"?>
<!DOCTYPE svg PUBLIC "-//W3C//DTD SVG 1.1//EN"
 "http://www.w3.org/Graphics/SVG/1.1/DTD/svg11.dtd">
<!-- Generated by graphviz version 2.36.0 (20140111.2315)
 -->
<!-- Title: filter.c Pages: 1 -->
<svg width="554pt" height="140pt"
 viewBox="0.00 0.00 554.00 140.00" xmlns="http://www.w3.org/2000/svg" xmlns:xlink="http://www.w3.org/1999/xlink">
<g id="graph0" class="graph" transform="scale(1 1) rotate(0) translate(4 136)">
<title>filter.c</title>
<polygon fill="white" stroke="none" points="-4,4 -4,-136 550,-136 550,4 -4,4"/>
<!-- Node1 -->
<g id="node1" class="node"><title>Node1</title>
<polygon fill="#bfbfbf" stroke="black" points="234,-112.5 234,-131.5 278,-131.5 278,-112.5 234,-112.5"/>
<text text-anchor="middle" x="256" y="-119.5" font-family="Helvetica,sans-Serif" font-size="10.00">filter.c</text>
</g>
<!-- Node2 -->
<g id="node2" class="node"><title>Node2</title>
<polygon fill="white" stroke="#bfbfbf" points="-0.5,-56.5 -0.5,-75.5 50.5,-75.5 50.5,-56.5 -0.5,-56.5"/>
<text text-anchor="middle" x="25" y="-63.5" font-family="Helvetica,sans-Serif" font-size="10.00">config.h</text>
</g>
<!-- Node1&#45;&gt;Node2 -->
<g id="edge1" class="edge"><title>Node1&#45;&gt;Node2</title>
<path fill="none" stroke="midnightblue" d="M233.911,-116.125C199.203,-108.423 129.557,-92.7991 60.3533,-76.0356"/>
<polygon fill="midnightblue" stroke="midnightblue" points="61.1388,-72.6247 50.595,-73.6634 59.4852,-79.4266 61.1388,-72.6247"/>
</g>
<!-- Node3 -->
<g id="node3" class="node"><title>Node3</title>
<polygon fill="white" stroke="#bfbfbf" points="69,-56.5 69,-75.5 117,-75.5 117,-56.5 69,-56.5"/>
<text text-anchor="middle" x="93" y="-63.5" font-family="Helvetica,sans-Serif" font-size="10.00">stdlib.h</text>
</g>
<!-- Node1&#45;&gt;Node3 -->
<g id="edge2" class="edge"><title>Node1&#45;&gt;Node3</title>
<path fill="none" stroke="midnightblue" d="M233.677,-113.605C206.141,-104.482 159.049,-88.8814 127.005,-78.2654"/>
<polygon fill="midnightblue" stroke="midnightblue" points="127.767,-74.8307 117.173,-75.0083 125.565,-81.4756 127.767,-74.8307"/>
</g>
<!-- Node4 -->
<g id="node4" class="node"><title>Node4</title>
<polygon fill="white" stroke="#bfbfbf" points="135,-56.5 135,-75.5 197,-75.5 197,-56.5 135,-56.5"/>
<text text-anchor="middle" x="166" y="-63.5" font-family="Helvetica,sans-Serif" font-size="10.00">sys/wait.h</text>
</g>
<!-- Node1&#45;&gt;Node4 -->
<g id="edge3" class="edge"><title>Node1&#45;&gt;Node4</title>
<path fill="none" stroke="midnightblue" d="M241.54,-112.324C227.5,-103.9 205.952,-90.9709 189.457,-81.0741"/>
<polygon fill="midnightblue" stroke="midnightblue" points="190.8,-77.7983 180.424,-75.6545 187.198,-83.8007 190.8,-77.7983"/>
</g>
<!-- Node5 -->
<g id="node5" class="node"><title>Node5</title>
<polygon fill="white" stroke="#bfbfbf" points="298.5,-0.5 298.5,-19.5 349.5,-19.5 349.5,-0.5 298.5,-0.5"/>
<text text-anchor="middle" x="324" y="-7.5" font-family="Helvetica,sans-Serif" font-size="10.00">unistd.h</text>
</g>
<!-- Node1&#45;&gt;Node5 -->
<g id="edge4" class="edge"><title>Node1&#45;&gt;Node5</title>
<path fill="none" stroke="midnightblue" d="M251.15,-112.361C244.508,-99.2646 234.532,-74.0091 245,-56 254.548,-39.5729 272.584,-28.6448 289.014,-21.6762"/>
<polygon fill="midnightblue" stroke="midnightblue" points="290.373,-24.9033 298.426,-18.0192 287.838,-18.3785 290.373,-24.9033"/>
</g>
<!-- Node6 -->
<g id="node6" class="node"><title>Node6</title>
<g id="a_node6"><a xlink:href="mutt_2mutt_8h.html" target="_top" xlink:title="Convenience wrapper for the library headers. ">
<polygon fill="white" stroke="red" points="253.5,-56.5 253.5,-75.5 320.5,-75.5 320.5,-56.5 253.5,-56.5"/>
<text text-anchor="middle" x="287" y="-63.5" font-family="Helvetica,sans-Serif" font-size="10.00">mutt/mutt.h</text>
</a>
</g>
</g>
<!-- Node1&#45;&gt;Node6 -->
<g id="edge5" class="edge"><title>Node1&#45;&gt;Node6</title>
<path fill="none" stroke="midnightblue" d="M261.119,-112.083C265.408,-104.613 271.658,-93.7244 276.942,-84.5199"/>
<polygon fill="midnightblue" stroke="midnightblue" points="280.033,-86.1662 281.976,-75.7511 273.962,-82.6811 280.033,-86.1662"/>
</g>
<!-- Node7 -->
<g id="node7" class="node"><title>Node7</title>
<g id="a_node7"><a xlink:href="mutt_8h.html" target="_top" xlink:title="Many unsorted constants and some structs. ">
<polygon fill="white" stroke="red" points="339,-56.5 339,-75.5 383,-75.5 383,-56.5 339,-56.5"/>
<text text-anchor="middle" x="361" y="-63.5" font-family="Helvetica,sans-Serif" font-size="10.00">mutt.h</text>
</a>
</g>
</g>
<!-- Node1&#45;&gt;Node7 -->
<g id="edge6" class="edge"><title>Node1&#45;&gt;Node7</title>
<path fill="none" stroke="midnightblue" d="M272.87,-112.324C289.709,-103.664 315.807,-90.2424 335.238,-80.249"/>
<polygon fill="midnightblue" stroke="midnightblue" points="336.88,-83.3405 344.172,-75.6545 333.678,-77.1155 336.88,-83.3405"/>
</g>
<!-- Node8 -->
<g id="node8" class="node"><title>Node8</title>
<g id="a_node8"><a xlink:href="filter_8h.html" target="_top" xlink:title="Pass files through external commands (filters) ">
<polygon fill="white" stroke="red" points="401,-56.5 401,-75.5 445,-75.5 445,-56.5 401,-56.5"/>
<text text-anchor="middle" x="423" y="-63.5" font-family="Helvetica,sans-Serif" font-size="10.00">filter.h</text>
</a>
</g>
</g>
<!-- Node1&#45;&gt;Node8 -->
<g id="edge7" class="edge"><title>Node1&#45;&gt;Node8</title>
<path fill="none" stroke="midnightblue" d="M278.176,-113.829C307.203,-104.443 358.265,-87.9321 391.351,-77.2337"/>
<polygon fill="midnightblue" stroke="midnightblue" points="392.56,-80.5214 400.998,-74.1144 390.406,-73.861 392.56,-80.5214"/>
</g>
<!-- Node9 -->
<g id="node9" class="node"><title>Node9</title>
<g id="a_node9"><a xlink:href="mutt__window_8h.html" target="_top" xlink:title="Window management. ">
<polygon fill="white" stroke="red" points="463.5,-56.5 463.5,-75.5 546.5,-75.5 546.5,-56.5 463.5,-56.5"/>
<text text-anchor="middle" x="505" y="-63.5" font-family="Helvetica,sans-Serif" font-size="10.00">mutt_window.h</text>
</a>
</g>
</g>
<!-- Node1&#45;&gt;Node9 -->
<g id="edge9" class="edge"><title>Node1&#45;&gt;Node9</title>
<path fill="none" stroke="midnightblue" d="M278.097,-116.208C317.68,-107.624 401.573,-89.4299 455.513,-77.732"/>
<polygon fill="midnightblue" stroke="midnightblue" points="456.518,-81.0955 465.55,-75.5555 455.035,-74.2545 456.518,-81.0955"/>
</g>
<!-- Node8&#45;&gt;Node5 -->
<g id="edge8" class="edge"><title>Node8&#45;&gt;Node5</title>
<path fill="none" stroke="midnightblue" d="M407.094,-56.324C391.362,-47.7428 367.058,-34.486 348.791,-24.5224"/>
<polygon fill="midnightblue" stroke="midnightblue" points="350.322,-21.3704 339.867,-19.6545 346.97,-27.5157 350.322,-21.3704"/>
</g>
</g>
</svg>
