<?xml version="1.0" encoding="UTF-8" standalone="no"?>
<!DOCTYPE svg PUBLIC "-//W3C//DTD SVG 1.1//EN"
 "http://www.w3.org/Graphics/SVG/1.1/DTD/svg11.dtd">
<!-- Generated by graphviz version 2.36.0 (20140111.2315)
 -->
<!-- Title: mutt_tag_set_flag Pages: 1 -->
<svg width="364pt" height="47pt"
 viewBox="0.00 0.00 364.00 47.00" xmlns="http://www.w3.org/2000/svg" xmlns:xlink="http://www.w3.org/1999/xlink">
<g id="graph0" class="graph" transform="scale(1 1) rotate(0) translate(4 43)">
<title>mutt_tag_set_flag</title>
<polygon fill="white" stroke="none" points="-4,4 -4,-43 360,-43 360,4 -4,4"/>
<!-- Node1 -->
<g id="node1" class="node"><title>Node1</title>
<polygon fill="#bfbfbf" stroke="black" points="0.5,-19.5 0.5,-38.5 95.5,-38.5 95.5,-19.5 0.5,-19.5"/>
<text text-anchor="middle" x="48" y="-26.5" font-family="Helvetica,sans-Serif" font-size="10.00">mutt_tag_set_flag</text>
</g>
<!-- Node2 -->
<g id="node2" class="node"><title>Node2</title>
<g id="a_node2"><a xlink:href="curs__main_8h.html#af7d9d8649ad205788c9af1bbf871207f" target="_top" xlink:title="Display a list of emails. ">
<polygon fill="white" stroke="red" points="262,-19.5 262,-38.5 356,-38.5 356,-19.5 262,-19.5"/>
<text text-anchor="middle" x="309" y="-26.5" font-family="Helvetica,sans-Serif" font-size="10.00">mutt_index_menu</text>
</a>
</g>
</g>
<!-- Node1&#45;&gt;Node2 -->
<g id="edge1" class="edge"><title>Node1&#45;&gt;Node2</title>
<path fill="none" stroke="midnightblue" d="M105.882,-29C152.676,-29 218.162,-29 261.771,-29"/>
<polygon fill="midnightblue" stroke="midnightblue" points="105.603,-25.5001 95.6031,-29 105.603,-32.5001 105.603,-25.5001"/>
</g>
<!-- Node3 -->
<g id="node3" class="node"><title>Node3</title>
<g id="a_node3"><a xlink:href="protos_8h.html#a30d905c7406b5cda5857aec3fe9a7813" target="_top" xlink:title="Change the flag on a Message. ">
<polygon fill="white" stroke="red" points="132,-0.5 132,-19.5 226,-19.5 226,-0.5 132,-0.5"/>
<text text-anchor="middle" x="179" y="-7.5" font-family="Helvetica,sans-Serif" font-size="10.00">mutt_change_flag</text>
</a>
</g>
</g>
<!-- Node1&#45;&gt;Node3 -->
<g id="edge2" class="edge"><title>Node1&#45;&gt;Node3</title>
<path fill="none" stroke="midnightblue" d="M105.726,-20.6449C114.486,-19.3547 123.44,-18.036 131.929,-16.7857"/>
<polygon fill="midnightblue" stroke="midnightblue" points="104.955,-17.2207 95.572,-22.1406 105.975,-24.146 104.955,-17.2207"/>
</g>
<!-- Node3&#45;&gt;Node2 -->
<g id="edge3" class="edge"><title>Node3&#45;&gt;Node2</title>
<path fill="none" stroke="midnightblue" d="M236.162,-18.3366C244.746,-19.6108 253.521,-20.9133 261.857,-22.1506"/>
<polygon fill="midnightblue" stroke="midnightblue" points="236.616,-14.8657 226.211,-16.8594 235.589,-21.7899 236.616,-14.8657"/>
</g>
</g>
</svg>
