<?xml version="1.0" encoding="UTF-8" standalone="no"?>
<!DOCTYPE svg PUBLIC "-//W3C//DTD SVG 1.1//EN"
 "http://www.w3.org/Graphics/SVG/1.1/DTD/svg11.dtd">
<!-- Generated by graphviz version 2.36.0 (20140111.2315)
 -->
<!-- Title: is_from Pages: 1 -->
<svg width="368pt" height="218pt"
 viewBox="0.00 0.00 368.00 218.00" xmlns="http://www.w3.org/2000/svg" xmlns:xlink="http://www.w3.org/1999/xlink">
<g id="graph0" class="graph" transform="scale(1 1) rotate(0) translate(4 214)">
<title>is_from</title>
<polygon fill="white" stroke="none" points="-4,4 -4,-214 364,-214 364,4 -4,4"/>
<!-- Node1 -->
<g id="node1" class="node"><title>Node1</title>
<polygon fill="#bfbfbf" stroke="black" points="0.5,-95.5 0.5,-114.5 49.5,-114.5 49.5,-95.5 0.5,-95.5"/>
<text text-anchor="middle" x="25" y="-102.5" font-family="Helvetica,sans-Serif" font-size="10.00">is_from</text>
</g>
<!-- Node2 -->
<g id="node2" class="node"><title>Node2</title>
<g id="a_node2"><a xlink:href="mutt_2string_8c.html#a0f37dc8085c127cb48df9b47a21236a6" target="_top" xlink:title="Compare two strings (to a maximum), safely. ">
<polygon fill="white" stroke="black" points="101.5,-190.5 101.5,-209.5 194.5,-209.5 194.5,-190.5 101.5,-190.5"/>
<text text-anchor="middle" x="148" y="-197.5" font-family="Helvetica,sans-Serif" font-size="10.00">mutt_str_strncmp</text>
</a>
</g>
</g>
<!-- Node1&#45;&gt;Node2 -->
<g id="edge1" class="edge"><title>Node1&#45;&gt;Node2</title>
<path fill="none" stroke="midnightblue" d="M31.0809,-114.706C40.0202,-130.848 60.0943,-163.192 86,-181 88.875,-182.976 91.9644,-184.754 95.1721,-186.352"/>
<polygon fill="midnightblue" stroke="midnightblue" points="93.8799,-189.606 104.445,-190.394 96.6771,-183.189 93.8799,-189.606"/>
</g>
<!-- Node3 -->
<g id="node3" class="node"><title>Node3</title>
<g id="a_node3"><a xlink:href="mutt_2string_8c.html#a891421f33ea26bdc48c1fee4911a9ef8" target="_top" xlink:title="Find the next word in a string. ">
<polygon fill="white" stroke="black" points="96.5,-152.5 96.5,-171.5 199.5,-171.5 199.5,-152.5 96.5,-152.5"/>
<text text-anchor="middle" x="148" y="-159.5" font-family="Helvetica,sans-Serif" font-size="10.00">mutt_str_next_word</text>
</a>
</g>
</g>
<!-- Node1&#45;&gt;Node3 -->
<g id="edge2" class="edge"><title>Node1&#45;&gt;Node3</title>
<path fill="none" stroke="midnightblue" d="M39.2394,-114.823C51.027,-123.21 68.99,-135.132 86,-143 90.9078,-145.27 96.1584,-147.365 101.443,-149.268"/>
<polygon fill="midnightblue" stroke="midnightblue" points="100.333,-152.587 110.927,-152.485 102.581,-145.958 100.333,-152.587"/>
</g>
<!-- Node4 -->
<g id="node4" class="node"><title>Node4</title>
<g id="a_node4"><a xlink:href="date_8c.html#a223e9dbc53993a6ce0f3f11e4e01bed2" target="_top" xlink:title="Is the string a valid day name. ">
<polygon fill="white" stroke="black" points="86.5,-114.5 86.5,-133.5 209.5,-133.5 209.5,-114.5 86.5,-114.5"/>
<text text-anchor="middle" x="148" y="-121.5" font-family="Helvetica,sans-Serif" font-size="10.00">mutt_date_is_day_name</text>
</a>
</g>
</g>
<!-- Node1&#45;&gt;Node4 -->
<g id="edge3" class="edge"><title>Node1&#45;&gt;Node4</title>
<path fill="none" stroke="midnightblue" d="M49.6173,-108.708C57.4781,-109.943 66.6823,-111.388 76.2384,-112.889"/>
<polygon fill="midnightblue" stroke="midnightblue" points="75.8607,-116.372 86.2826,-114.466 76.9466,-109.457 75.8607,-116.372"/>
</g>
<!-- Node5 -->
<g id="node5" class="node"><title>Node5</title>
<g id="a_node5"><a xlink:href="mutt_2string_8c.html#a0ab98e8f251c9db11831b77a1681edc3" target="_top" xlink:title="Compare two strings ignoring case (to a maximum), safely. ">
<polygon fill="white" stroke="black" points="246,-76.5 246,-95.5 360,-95.5 360,-76.5 246,-76.5"/>
<text text-anchor="middle" x="303" y="-83.5" font-family="Helvetica,sans-Serif" font-size="10.00">mutt_str_strncasecmp</text>
</a>
</g>
</g>
<!-- Node1&#45;&gt;Node5 -->
<g id="edge5" class="edge"><title>Node1&#45;&gt;Node5</title>
<path fill="none" stroke="midnightblue" d="M49.5316,-103.38C90.3212,-100.572 175.547,-94.7051 235.663,-90.5667"/>
<polygon fill="midnightblue" stroke="midnightblue" points="236.094,-94.0454 245.83,-89.8668 235.613,-87.0619 236.094,-94.0454"/>
</g>
<!-- Node6 -->
<g id="node6" class="node"><title>Node6</title>
<g id="a_node6"><a xlink:href="date_8c.html#a58c8238ef7c9cc33ee04f5a88dbe5559" target="_top" xlink:title="Is the string a valid month name. ">
<polygon fill="white" stroke="black" points="86,-38.5 86,-57.5 210,-57.5 210,-38.5 86,-38.5"/>
<text text-anchor="middle" x="148" y="-45.5" font-family="Helvetica,sans-Serif" font-size="10.00">mutt_date_check_month</text>
</a>
</g>
</g>
<!-- Node1&#45;&gt;Node6 -->
<g id="edge6" class="edge"><title>Node1&#45;&gt;Node6</title>
<path fill="none" stroke="midnightblue" d="M42.0065,-95.4634C53.929,-88.5416 70.7183,-79.1727 86,-72 93.997,-68.2465 102.753,-64.5626 111.072,-61.2512"/>
<polygon fill="midnightblue" stroke="midnightblue" points="112.518,-64.4442 120.566,-57.5533 109.977,-57.9215 112.518,-64.4442"/>
</g>
<!-- Node7 -->
<g id="node7" class="node"><title>Node7</title>
<g id="a_node7"><a xlink:href="date_8c.html#a86eb3b4dc434a26bb3eb4c9437bbde2b" target="_top" xlink:title="Convert struct tm to time_t ">
<polygon fill="white" stroke="red" points="91.5,-0.5 91.5,-19.5 204.5,-19.5 204.5,-0.5 91.5,-0.5"/>
<text text-anchor="middle" x="148" y="-7.5" font-family="Helvetica,sans-Serif" font-size="10.00">mutt_date_make_time</text>
</a>
</g>
</g>
<!-- Node1&#45;&gt;Node7 -->
<g id="edge8" class="edge"><title>Node1&#45;&gt;Node7</title>
<path fill="none" stroke="midnightblue" d="M31.0809,-95.2938C40.0202,-79.152 60.0943,-46.8079 86,-29 88.875,-27.0237 91.9644,-25.2461 95.1721,-23.6484"/>
<polygon fill="midnightblue" stroke="midnightblue" points="96.6771,-26.8105 104.445,-19.606 93.8799,-20.3937 96.6771,-26.8105"/>
</g>
<!-- Node4&#45;&gt;Node5 -->
<g id="edge4" class="edge"><title>Node4&#45;&gt;Node5</title>
<path fill="none" stroke="midnightblue" d="M187.608,-114.411C207.707,-109.419 232.475,-103.268 253.819,-97.9666"/>
<polygon fill="midnightblue" stroke="midnightblue" points="254.808,-101.327 263.669,-95.5201 253.12,-94.5338 254.808,-101.327"/>
</g>
<!-- Node6&#45;&gt;Node5 -->
<g id="edge7" class="edge"><title>Node6&#45;&gt;Node5</title>
<path fill="none" stroke="midnightblue" d="M187.608,-57.589C207.707,-62.5809 232.475,-68.7324 253.819,-74.0334"/>
<polygon fill="midnightblue" stroke="midnightblue" points="253.12,-77.4662 263.669,-76.4799 254.808,-70.6726 253.12,-77.4662"/>
</g>
</g>
</svg>
