<?xml version="1.0" encoding="UTF-8" standalone="no"?>
<!DOCTYPE svg PUBLIC "-//W3C//DTD SVG 1.1//EN"
 "http://www.w3.org/Graphics/SVG/1.1/DTD/svg11.dtd">
<!-- Generated by graphviz version 2.36.0 (20140111.2315)
 -->
<!-- Title: ncrypt/gnupgparse.c Pages: 1 -->
<svg width="1015pt" height="196pt"
 viewBox="0.00 0.00 1015.00 196.00" xmlns="http://www.w3.org/2000/svg" xmlns:xlink="http://www.w3.org/1999/xlink">
<g id="graph0" class="graph" transform="scale(1 1) rotate(0) translate(4 192)">
<title>ncrypt/gnupgparse.c</title>
<polygon fill="white" stroke="none" points="-4,4 -4,-192 1011,-192 1011,4 -4,4"/>
<!-- Node1 -->
<g id="node1" class="node"><title>Node1</title>
<polygon fill="#bfbfbf" stroke="black" points="403.5,-168.5 403.5,-187.5 508.5,-187.5 508.5,-168.5 403.5,-168.5"/>
<text text-anchor="middle" x="456" y="-175.5" font-family="Helvetica,sans-Serif" font-size="10.00">ncrypt/gnupgparse.c</text>
</g>
<!-- Node2 -->
<g id="node2" class="node"><title>Node2</title>
<polygon fill="white" stroke="#bfbfbf" points="-0.5,-112.5 -0.5,-131.5 50.5,-131.5 50.5,-112.5 -0.5,-112.5"/>
<text text-anchor="middle" x="25" y="-119.5" font-family="Helvetica,sans-Serif" font-size="10.00">config.h</text>
</g>
<!-- Node1&#45;&gt;Node2 -->
<g id="edge1" class="edge"><title>Node1&#45;&gt;Node2</title>
<path fill="none" stroke="midnightblue" d="M403.296,-173.485C328.848,-167.98 188.551,-155.62 60.5095,-132.05"/>
<polygon fill="midnightblue" stroke="midnightblue" points="61.0013,-128.582 50.5286,-130.185 59.7155,-135.462 61.0013,-128.582"/>
</g>
<!-- Node3 -->
<g id="node3" class="node"><title>Node3</title>
<polygon fill="white" stroke="#bfbfbf" points="68.5,-112.5 68.5,-131.5 117.5,-131.5 117.5,-112.5 68.5,-112.5"/>
<text text-anchor="middle" x="93" y="-119.5" font-family="Helvetica,sans-Serif" font-size="10.00">ctype.h</text>
</g>
<!-- Node1&#45;&gt;Node3 -->
<g id="edge2" class="edge"><title>Node1&#45;&gt;Node3</title>
<path fill="none" stroke="midnightblue" d="M403.246,-171.804C340.027,-165.129 230.765,-152.172 127.748,-131.924"/>
<polygon fill="midnightblue" stroke="midnightblue" points="128.291,-128.463 117.8,-129.941 126.923,-135.328 128.291,-128.463"/>
</g>
<!-- Node4 -->
<g id="node4" class="node"><title>Node4</title>
<polygon fill="white" stroke="#bfbfbf" points="136,-112.5 136,-131.5 180,-131.5 180,-112.5 136,-112.5"/>
<text text-anchor="middle" x="158" y="-119.5" font-family="Helvetica,sans-Serif" font-size="10.00">fcntl.h</text>
</g>
<!-- Node1&#45;&gt;Node4 -->
<g id="edge3" class="edge"><title>Node1&#45;&gt;Node4</title>
<path fill="none" stroke="midnightblue" d="M403.464,-169.977C351.582,-162.632 269.827,-149.961 190.441,-132.117"/>
<polygon fill="midnightblue" stroke="midnightblue" points="190.798,-128.609 180.271,-129.8 189.243,-135.434 190.798,-128.609"/>
</g>
<!-- Node5 -->
<g id="node5" class="node"><title>Node5</title>
<polygon fill="white" stroke="#bfbfbf" points="198,-112.5 198,-131.5 246,-131.5 246,-112.5 198,-112.5"/>
<text text-anchor="middle" x="222" y="-119.5" font-family="Helvetica,sans-Serif" font-size="10.00">iconv.h</text>
</g>
<!-- Node1&#45;&gt;Node5 -->
<g id="edge4" class="edge"><title>Node1&#45;&gt;Node5</title>
<path fill="none" stroke="midnightblue" d="M418.408,-168.45C378.939,-159.454 315.081,-144.846 260,-132 258.737,-131.706 257.451,-131.405 256.152,-131.1"/>
<polygon fill="midnightblue" stroke="midnightblue" points="256.653,-127.623 246.117,-128.738 255.049,-134.436 256.653,-127.623"/>
</g>
<!-- Node6 -->
<g id="node6" class="node"><title>Node6</title>
<polygon fill="white" stroke="#bfbfbf" points="439,-0.5 439,-19.5 495,-19.5 495,-0.5 439,-0.5"/>
<text text-anchor="middle" x="467" y="-7.5" font-family="Helvetica,sans-Serif" font-size="10.00">stdbool.h</text>
</g>
<!-- Node1&#45;&gt;Node6 -->
<g id="edge5" class="edge"><title>Node1&#45;&gt;Node6</title>
<path fill="none" stroke="midnightblue" d="M445.295,-168.39C421.812,-148.423 369.669,-97.4948 393,-56 401.221,-41.3782 416.331,-30.9543 430.763,-23.8465"/>
<polygon fill="midnightblue" stroke="midnightblue" points="432.397,-26.9491 440.071,-19.6437 429.516,-20.5693 432.397,-26.9491"/>
</g>
<!-- Node7 -->
<g id="node7" class="node"><title>Node7</title>
<polygon fill="white" stroke="#bfbfbf" points="626,-56.5 626,-75.5 672,-75.5 672,-56.5 626,-56.5"/>
<text text-anchor="middle" x="649" y="-63.5" font-family="Helvetica,sans-Serif" font-size="10.00">stdio.h</text>
</g>
<!-- Node1&#45;&gt;Node7 -->
<g id="edge6" class="edge"><title>Node1&#45;&gt;Node7</title>
<path fill="none" stroke="midnightblue" d="M508.831,-169.658C554.455,-162.259 615.691,-149.441 633,-132 644.886,-120.024 648.436,-100.725 649.283,-86.2613"/>
<polygon fill="midnightblue" stroke="midnightblue" points="652.788,-85.999 649.49,-75.9309 645.79,-85.8587 652.788,-85.999"/>
</g>
<!-- Node8 -->
<g id="node8" class="node"><title>Node8</title>
<polygon fill="white" stroke="#bfbfbf" points="780.5,-112.5 780.5,-131.5 829.5,-131.5 829.5,-112.5 780.5,-112.5"/>
<text text-anchor="middle" x="805" y="-119.5" font-family="Helvetica,sans-Serif" font-size="10.00">string.h</text>
</g>
<!-- Node1&#45;&gt;Node8 -->
<g id="edge7" class="edge"><title>Node1&#45;&gt;Node8</title>
<path fill="none" stroke="midnightblue" d="M508.6,-170.711C570.445,-163.006 676.069,-148.874 766,-132 767.451,-131.728 768.93,-131.439 770.423,-131.137"/>
<polygon fill="midnightblue" stroke="midnightblue" points="771.261,-134.537 780.307,-129.022 769.796,-127.692 771.261,-134.537"/>
</g>
<!-- Node9 -->
<g id="node9" class="node"><title>Node9</title>
<polygon fill="white" stroke="#bfbfbf" points="258,-56.5 258,-75.5 302,-75.5 302,-56.5 258,-56.5"/>
<text text-anchor="middle" x="280" y="-63.5" font-family="Helvetica,sans-Serif" font-size="10.00">time.h</text>
</g>
<!-- Node1&#45;&gt;Node9 -->
<g id="edge8" class="edge"><title>Node1&#45;&gt;Node9</title>
<path fill="none" stroke="midnightblue" d="M403.173,-176.189C367.122,-172.726 320.998,-162.089 293,-132 281.618,-119.768 278.965,-100.503 278.801,-86.1176"/>
<polygon fill="midnightblue" stroke="midnightblue" points="282.307,-85.9466 279.083,-75.8539 275.309,-85.7538 282.307,-85.9466"/>
</g>
<!-- Node10 -->
<g id="node10" class="node"><title>Node10</title>
<polygon fill="white" stroke="#bfbfbf" points="690.5,-56.5 690.5,-75.5 741.5,-75.5 741.5,-56.5 690.5,-56.5"/>
<text text-anchor="middle" x="716" y="-63.5" font-family="Helvetica,sans-Serif" font-size="10.00">unistd.h</text>
</g>
<!-- Node1&#45;&gt;Node10 -->
<g id="edge9" class="edge"><title>Node1&#45;&gt;Node10</title>
<path fill="none" stroke="midnightblue" d="M508.551,-176.211C580.476,-173.891 703.895,-165.059 732,-132 743.254,-118.763 735.907,-98.8189 727.846,-84.5157"/>
<polygon fill="midnightblue" stroke="midnightblue" points="730.609,-82.3293 722.372,-75.6665 724.656,-86.0121 730.609,-82.3293"/>
</g>
<!-- Node11 -->
<g id="node11" class="node"><title>Node11</title>
<polygon fill="white" stroke="#bfbfbf" points="847.5,-112.5 847.5,-131.5 914.5,-131.5 914.5,-112.5 847.5,-112.5"/>
<text text-anchor="middle" x="881" y="-119.5" font-family="Helvetica,sans-Serif" font-size="10.00">mutt/mutt.h</text>
</g>
<!-- Node1&#45;&gt;Node11 -->
<g id="edge10" class="edge"><title>Node1&#45;&gt;Node11</title>
<path fill="none" stroke="midnightblue" d="M508.729,-172.287C580.663,-165.527 713.763,-151.84 837.243,-131.986"/>
<polygon fill="midnightblue" stroke="midnightblue" points="837.943,-135.419 847.252,-130.36 836.82,-128.509 837.943,-135.419"/>
</g>
<!-- Node12 -->
<g id="node12" class="node"><title>Node12</title>
<g id="a_node12"><a xlink:href="email_8h.html" target="_top" xlink:title="Structs that make up an email. ">
<polygon fill="white" stroke="red" points="933,-112.5 933,-131.5 1007,-131.5 1007,-112.5 933,-112.5"/>
<text text-anchor="middle" x="970" y="-119.5" font-family="Helvetica,sans-Serif" font-size="10.00">email/email.h</text>
</a>
</g>
</g>
<!-- Node1&#45;&gt;Node12 -->
<g id="edge11" class="edge"><title>Node1&#45;&gt;Node12</title>
<path fill="none" stroke="midnightblue" d="M508.717,-173.528C593.56,-167.588 765.834,-154.075 922.554,-131.916"/>
<polygon fill="midnightblue" stroke="midnightblue" points="923.449,-135.324 932.853,-130.444 922.459,-128.394 923.449,-135.324"/>
</g>
<!-- Node13 -->
<g id="node13" class="node"><title>Node13</title>
<g id="a_node13"><a xlink:href="filter_8h.html" target="_top" xlink:title="Pass files through external commands (filters) ">
<polygon fill="white" stroke="black" points="680,-112.5 680,-131.5 724,-131.5 724,-112.5 680,-112.5"/>
<text text-anchor="middle" x="702" y="-119.5" font-family="Helvetica,sans-Serif" font-size="10.00">filter.h</text>
</a>
</g>
</g>
<!-- Node1&#45;&gt;Node13 -->
<g id="edge12" class="edge"><title>Node1&#45;&gt;Node13</title>
<path fill="none" stroke="midnightblue" d="M497.929,-168.451C540.384,-159.693 607.887,-145.486 666,-132 667.271,-131.705 668.566,-131.401 669.873,-131.09"/>
<polygon fill="midnightblue" stroke="midnightblue" points="671.055,-134.404 679.944,-128.64 669.4,-127.603 671.055,-134.404"/>
</g>
<!-- Node14 -->
<g id="node14" class="node"><title>Node14</title>
<g id="a_node14"><a xlink:href="globals_8h.html" target="_top" xlink:title="Hundreds of global variables to back the user variables. ">
<polygon fill="white" stroke="red" points="402,-56.5 402,-75.5 458,-75.5 458,-56.5 402,-56.5"/>
<text text-anchor="middle" x="430" y="-63.5" font-family="Helvetica,sans-Serif" font-size="10.00">globals.h</text>
</a>
</g>
</g>
<!-- Node1&#45;&gt;Node14 -->
<g id="edge15" class="edge"><title>Node1&#45;&gt;Node14</title>
<path fill="none" stroke="midnightblue" d="M453.009,-168.459C449.94,-159.47 445.178,-144.868 442,-132 438.213,-116.662 435.028,-99.0227 432.894,-85.9928"/>
<polygon fill="midnightblue" stroke="midnightblue" points="436.317,-85.2339 431.299,-75.9027 429.403,-86.3265 436.317,-85.2339"/>
</g>
<!-- Node15 -->
<g id="node15" class="node"><title>Node15</title>
<g id="a_node15"><a xlink:href="ncrypt_8h.html" target="_top" xlink:title="API for encryption/signing of emails. ">
<polygon fill="white" stroke="black" points="572,-112.5 572,-131.5 624,-131.5 624,-112.5 572,-112.5"/>
<text text-anchor="middle" x="598" y="-119.5" font-family="Helvetica,sans-Serif" font-size="10.00">ncrypt.h</text>
</a>
</g>
</g>
<!-- Node1&#45;&gt;Node15 -->
<g id="edge17" class="edge"><title>Node1&#45;&gt;Node15</title>
<path fill="none" stroke="midnightblue" d="M478.5,-168.444C502.077,-159.478 539.322,-145.314 565.964,-135.183"/>
<polygon fill="midnightblue" stroke="midnightblue" points="567.502,-138.342 575.605,-131.516 565.014,-131.8 567.502,-138.342"/>
</g>
<!-- Node16 -->
<g id="node16" class="node"><title>Node16</title>
<g id="a_node16"><a xlink:href="pgpinvoke_8h.html" target="_top" xlink:title="Wrapper around calls to external PGP program. ">
<polygon fill="white" stroke="black" points="484.5,-112.5 484.5,-131.5 553.5,-131.5 553.5,-112.5 484.5,-112.5"/>
<text text-anchor="middle" x="519" y="-119.5" font-family="Helvetica,sans-Serif" font-size="10.00">pgpinvoke.h</text>
</a>
</g>
</g>
<!-- Node1&#45;&gt;Node16 -->
<g id="edge20" class="edge"><title>Node1&#45;&gt;Node16</title>
<path fill="none" stroke="midnightblue" d="M466.122,-168.324C475.526,-160.263 489.744,-148.077 501.069,-138.369"/>
<polygon fill="midnightblue" stroke="midnightblue" points="503.379,-140.999 508.694,-131.834 498.823,-135.684 503.379,-140.999"/>
</g>
<!-- Node17 -->
<g id="node17" class="node"><title>Node17</title>
<g id="a_node17"><a xlink:href="pgpkey_8h.html" target="_top" xlink:title="PGP key management routines. ">
<polygon fill="white" stroke="black" points="476,-56.5 476,-75.5 532,-75.5 532,-56.5 476,-56.5"/>
<text text-anchor="middle" x="504" y="-63.5" font-family="Helvetica,sans-Serif" font-size="10.00">pgpkey.h</text>
</a>
</g>
</g>
<!-- Node1&#45;&gt;Node17 -->
<g id="edge26" class="edge"><title>Node1&#45;&gt;Node17</title>
<path fill="none" stroke="midnightblue" d="M457.912,-168.329C460.88,-155.618 467.188,-131.339 476,-112 480.435,-102.266 486.616,-92.0933 492.043,-83.8873"/>
<polygon fill="midnightblue" stroke="midnightblue" points="494.963,-85.8174 497.716,-75.5864 489.184,-81.8677 494.963,-85.8174"/>
</g>
<!-- Node18 -->
<g id="node18" class="node"><title>Node18</title>
<g id="a_node18"><a xlink:href="pgplib_8h.html" target="_top" xlink:title="Misc PGP helper routines. ">
<polygon fill="white" stroke="black" points="302,-112.5 302,-131.5 352,-131.5 352,-112.5 302,-112.5"/>
<text text-anchor="middle" x="327" y="-119.5" font-family="Helvetica,sans-Serif" font-size="10.00">pgplib.h</text>
</a>
</g>
</g>
<!-- Node1&#45;&gt;Node18 -->
<g id="edge27" class="edge"><title>Node1&#45;&gt;Node18</title>
<path fill="none" stroke="midnightblue" d="M435.56,-168.444C414.33,-159.557 380.901,-145.563 356.745,-135.451"/>
<polygon fill="midnightblue" stroke="midnightblue" points="357.921,-132.149 347.345,-131.516 355.218,-138.606 357.921,-132.149"/>
</g>
<!-- Node13&#45;&gt;Node7 -->
<g id="edge13" class="edge"><title>Node13&#45;&gt;Node7</title>
<path fill="none" stroke="midnightblue" d="M693.248,-112.083C685.53,-104.22 674.095,-92.5688 664.783,-83.0813"/>
<polygon fill="midnightblue" stroke="midnightblue" points="667.092,-80.4363 657.589,-75.7511 662.096,-85.3396 667.092,-80.4363"/>
</g>
<!-- Node13&#45;&gt;Node10 -->
<g id="edge14" class="edge"><title>Node13&#45;&gt;Node10</title>
<path fill="none" stroke="midnightblue" d="M704.312,-112.083C706.167,-104.927 708.835,-94.6353 711.154,-85.6911"/>
<polygon fill="midnightblue" stroke="midnightblue" points="714.609,-86.3094 713.731,-75.7511 707.834,-84.5527 714.609,-86.3094"/>
</g>
<!-- Node14&#45;&gt;Node6 -->
<g id="edge16" class="edge"><title>Node14&#45;&gt;Node6</title>
<path fill="none" stroke="midnightblue" d="M436.11,-56.083C441.282,-48.5341 448.846,-37.4948 455.194,-28.2298"/>
<polygon fill="midnightblue" stroke="midnightblue" points="458.239,-29.9787 461.004,-19.7511 452.464,-26.0221 458.239,-29.9787"/>
</g>
<!-- Node15&#45;&gt;Node6 -->
<g id="edge18" class="edge"><title>Node15&#45;&gt;Node6</title>
<path fill="none" stroke="midnightblue" d="M594.114,-112.405C587.654,-98.9131 573.56,-72.5937 555,-56 539.242,-41.911 518.272,-30.9614 500.756,-23.3921"/>
<polygon fill="midnightblue" stroke="midnightblue" points="502.014,-20.1247 491.435,-19.5362 499.338,-26.5931 502.014,-20.1247"/>
</g>
<!-- Node15&#45;&gt;Node7 -->
<g id="edge19" class="edge"><title>Node15&#45;&gt;Node7</title>
<path fill="none" stroke="midnightblue" d="M606.422,-112.083C613.848,-104.22 624.852,-92.5688 633.812,-83.0813"/>
<polygon fill="midnightblue" stroke="midnightblue" points="636.413,-85.4244 640.735,-75.7511 631.324,-80.618 636.413,-85.4244"/>
</g>
<!-- Node16&#45;&gt;Node6 -->
<g id="edge21" class="edge"><title>Node16&#45;&gt;Node6</title>
<path fill="none" stroke="midnightblue" d="M526.205,-112.143C535.796,-99.2015 550.406,-74.6383 540,-56 531.844,-41.3909 516.78,-30.9362 502.446,-23.8038"/>
<polygon fill="midnightblue" stroke="midnightblue" points="503.762,-20.557 493.211,-19.5863 500.854,-26.9244 503.762,-20.557"/>
</g>
<!-- Node16&#45;&gt;Node7 -->
<g id="edge22" class="edge"><title>Node16&#45;&gt;Node7</title>
<path fill="none" stroke="midnightblue" d="M539.599,-112.444C560.993,-103.557 594.681,-89.5632 619.024,-79.4514"/>
<polygon fill="midnightblue" stroke="midnightblue" points="620.605,-82.5848 628.497,-75.5164 617.92,-76.1203 620.605,-82.5848"/>
</g>
<!-- Node16&#45;&gt;Node10 -->
<g id="edge23" class="edge"><title>Node16&#45;&gt;Node10</title>
<path fill="none" stroke="midnightblue" d="M550.215,-112.444C585.619,-102.739 643.237,-86.9452 680.372,-76.7661"/>
<polygon fill="midnightblue" stroke="midnightblue" points="681.548,-80.0729 690.267,-74.0537 679.697,-73.3219 681.548,-80.0729"/>
</g>
<!-- Node16&#45;&gt;Node17 -->
<g id="edge24" class="edge"><title>Node16&#45;&gt;Node17</title>
<path fill="none" stroke="midnightblue" d="M516.523,-112.083C514.514,-104.849 511.614,-94.4087 509.11,-85.3968"/>
<polygon fill="midnightblue" stroke="midnightblue" points="512.48,-84.4495 506.431,-75.7511 505.735,-86.323 512.48,-84.4495"/>
</g>
<!-- Node17&#45;&gt;Node6 -->
<g id="edge25" class="edge"><title>Node17&#45;&gt;Node6</title>
<path fill="none" stroke="midnightblue" d="M497.89,-56.083C492.718,-48.5341 485.154,-37.4948 478.806,-28.2298"/>
<polygon fill="midnightblue" stroke="midnightblue" points="481.536,-26.0221 472.996,-19.7511 475.761,-29.9787 481.536,-26.0221"/>
</g>
<!-- Node18&#45;&gt;Node6 -->
<g id="edge28" class="edge"><title>Node18&#45;&gt;Node6</title>
<path fill="none" stroke="midnightblue" d="M329.318,-112.232C333.364,-98.5035 342.954,-71.8655 360,-56 379.188,-38.1401 406.502,-26.8118 428.73,-19.9886"/>
<polygon fill="midnightblue" stroke="midnightblue" points="429.898,-23.2948 438.538,-17.1633 427.96,-16.5683 429.898,-23.2948"/>
</g>
<!-- Node18&#45;&gt;Node9 -->
<g id="edge29" class="edge"><title>Node18&#45;&gt;Node9</title>
<path fill="none" stroke="midnightblue" d="M319.239,-112.083C312.463,-104.298 302.457,-92.8015 294.245,-83.3665"/>
<polygon fill="midnightblue" stroke="midnightblue" points="296.822,-80.9963 287.617,-75.7511 291.542,-85.592 296.822,-80.9963"/>
</g>
</g>
</svg>
