<?xml version="1.0" encoding="UTF-8" standalone="no"?>
<!DOCTYPE svg PUBLIC "-//W3C//DTD SVG 1.1//EN"
 "http://www.w3.org/Graphics/SVG/1.1/DTD/svg11.dtd">
<!-- Generated by graphviz version 2.36.0 (20140111.2315)
 -->
<!-- Title: pgp_get_candidates Pages: 1 -->
<svg width="384pt" height="199pt"
 viewBox="0.00 0.00 384.00 199.08" xmlns="http://www.w3.org/2000/svg" xmlns:xlink="http://www.w3.org/1999/xlink">
<g id="graph0" class="graph" transform="scale(1 1) rotate(0) translate(4 195.083)">
<title>pgp_get_candidates</title>
<polygon fill="white" stroke="none" points="-4,4 -4,-195.083 380,-195.083 380,4 -4,4"/>
<!-- Node1 -->
<g id="node1" class="node"><title>Node1</title>
<polygon fill="#bfbfbf" stroke="black" points="0,-95.5 0,-114.5 104,-114.5 104,-95.5 0,-95.5"/>
<text text-anchor="middle" x="52" y="-102.5" font-family="Helvetica,sans-Serif" font-size="10.00">pgp_get_candidates</text>
</g>
<!-- Node2 -->
<g id="node2" class="node"><title>Node2</title>
<g id="a_node2"><a xlink:href="mutt_2string_8c.html#ad5b66f8059a202f7bfa5fc4fa3047c67" target="_top" xlink:title="Replace one string with another. ">
<polygon fill="white" stroke="red" points="286.5,-152.5 286.5,-171.5 375.5,-171.5 375.5,-152.5 286.5,-152.5"/>
<text text-anchor="middle" x="331" y="-159.5" font-family="Helvetica,sans-Serif" font-size="10.00">mutt_str_replace</text>
</a>
</g>
</g>
<!-- Node1&#45;&gt;Node2 -->
<g id="edge1" class="edge"><title>Node1&#45;&gt;Node2</title>
<path fill="none" stroke="midnightblue" d="M60.0418,-114.608C73.3587,-131.86 104.136,-167.541 140,-181 191.393,-200.286 255.794,-186.674 294.873,-174.653"/>
<polygon fill="midnightblue" stroke="midnightblue" points="296.024,-177.959 304.477,-171.573 293.886,-171.294 296.024,-177.959"/>
</g>
<!-- Node3 -->
<g id="node3" class="node"><title>Node3</title>
<g id="a_node3"><a xlink:href="pgpinvoke_8c.html#a2f4928cea0d6e74a965615c57c6b6cbc" target="_top" xlink:title="Find matching PGP Keys. ">
<polygon fill="white" stroke="red" points="140,-152.5 140,-171.5 250,-171.5 250,-152.5 140,-152.5"/>
<text text-anchor="middle" x="195" y="-159.5" font-family="Helvetica,sans-Serif" font-size="10.00">pgp_invoke_list_keys</text>
</a>
</g>
</g>
<!-- Node1&#45;&gt;Node3 -->
<g id="edge2" class="edge"><title>Node1&#45;&gt;Node3</title>
<path fill="none" stroke="midnightblue" d="M73.9149,-114.651C91.4258,-122.607 117.149,-134.003 140,-143 145.144,-145.025 150.602,-147.067 155.995,-149.023"/>
<polygon fill="midnightblue" stroke="midnightblue" points="154.955,-152.368 165.549,-152.429 157.305,-145.775 154.955,-152.368"/>
</g>
<!-- Node4 -->
<g id="node4" class="node"><title>Node4</title>
<g id="a_node4"><a xlink:href="gnupgparse_8c.html#a1d739ceef45ddc22179dd35c9599cce0" target="_top" xlink:title="Parse the &#39;pub&#39; line from the pgp output. ">
<polygon fill="white" stroke="red" points="154,-114.5 154,-133.5 236,-133.5 236,-114.5 154,-114.5"/>
<text text-anchor="middle" x="195" y="-121.5" font-family="Helvetica,sans-Serif" font-size="10.00">parse_pub_line</text>
</a>
</g>
</g>
<!-- Node1&#45;&gt;Node4 -->
<g id="edge3" class="edge"><title>Node1&#45;&gt;Node4</title>
<path fill="none" stroke="midnightblue" d="M104.303,-111.913C117.102,-113.638 130.815,-115.486 143.572,-117.205"/>
<polygon fill="midnightblue" stroke="midnightblue" points="143.183,-120.684 153.561,-118.551 144.118,-113.747 143.183,-120.684"/>
</g>
<!-- Node5 -->
<g id="node5" class="node"><title>Node5</title>
<g id="a_node5"><a xlink:href="pgplib_8c.html#a32f7eec84948b7d944ffeabc2ab208ef" target="_top" xlink:title="Copy a list of PGP UIDs. ">
<polygon fill="white" stroke="red" points="154,-76.5 154,-95.5 236,-95.5 236,-76.5 154,-76.5"/>
<text text-anchor="middle" x="195" y="-83.5" font-family="Helvetica,sans-Serif" font-size="10.00">pgp_copy_uids</text>
</a>
</g>
</g>
<!-- Node1&#45;&gt;Node5 -->
<g id="edge5" class="edge"><title>Node1&#45;&gt;Node5</title>
<path fill="none" stroke="midnightblue" d="M104.303,-98.0868C117.102,-96.3621 130.815,-94.5143 143.572,-92.7953"/>
<polygon fill="midnightblue" stroke="midnightblue" points="144.118,-96.2534 153.561,-91.4492 143.183,-89.3161 144.118,-96.2534"/>
</g>
<!-- Node6 -->
<g id="node6" class="node"><title>Node6</title>
<g id="a_node6"><a xlink:href="file_8c.html#a4982d9040dfaf38e847729be2af83ed6" target="_top" xlink:title="Close a FILE handle (and NULL the pointer) ">
<polygon fill="white" stroke="black" points="152,-38.5 152,-57.5 238,-57.5 238,-38.5 152,-38.5"/>
<text text-anchor="middle" x="195" y="-45.5" font-family="Helvetica,sans-Serif" font-size="10.00">mutt_file_fclose</text>
</a>
</g>
</g>
<!-- Node1&#45;&gt;Node6 -->
<g id="edge6" class="edge"><title>Node1&#45;&gt;Node6</title>
<path fill="none" stroke="midnightblue" d="M73.9149,-95.3489C91.4258,-87.3934 117.149,-75.9965 140,-67 145.144,-64.9748 150.602,-62.9327 155.995,-60.9766"/>
<polygon fill="midnightblue" stroke="midnightblue" points="157.305,-64.2253 165.549,-57.5707 154.955,-57.6317 157.305,-64.2253"/>
</g>
<!-- Node7 -->
<g id="node7" class="node"><title>Node7</title>
<g id="a_node7"><a xlink:href="filter_8c.html#a2d652b11c7d2ea31208315aaf61537d2" target="_top" xlink:title="Wait for the exit of a process and return its status. ">
<polygon fill="white" stroke="red" points="153.5,-0.5 153.5,-19.5 236.5,-19.5 236.5,-0.5 153.5,-0.5"/>
<text text-anchor="middle" x="195" y="-7.5" font-family="Helvetica,sans-Serif" font-size="10.00">mutt_wait_filter</text>
</a>
</g>
</g>
<!-- Node1&#45;&gt;Node7 -->
<g id="edge7" class="edge"><title>Node1&#45;&gt;Node7</title>
<path fill="none" stroke="midnightblue" d="M61.73,-95.2772C76.4529,-79.4007 107.78,-47.7992 140,-29 143.474,-26.9731 147.199,-25.1123 151.009,-23.4156"/>
<polygon fill="midnightblue" stroke="midnightblue" points="152.612,-26.542 160.56,-19.5353 149.978,-20.0568 152.612,-26.542"/>
</g>
<!-- Node4&#45;&gt;Node2 -->
<g id="edge4" class="edge"><title>Node4&#45;&gt;Node2</title>
<path fill="none" stroke="midnightblue" d="M229.814,-133.589C247.033,-138.472 268.164,-144.464 286.573,-149.685"/>
<polygon fill="midnightblue" stroke="midnightblue" points="285.621,-153.053 296.197,-152.414 287.531,-146.319 285.621,-153.053"/>
</g>
</g>
</svg>
