<?xml version="1.0" encoding="UTF-8" standalone="no"?>
<!DOCTYPE svg PUBLIC "-//W3C//DTD SVG 1.1//EN"
 "http://www.w3.org/Graphics/SVG/1.1/DTD/svg11.dtd">
<!-- Generated by graphviz version 2.36.0 (20140111.2315)
 -->
<!-- Title: fix_uid Pages: 1 -->
<svg width="172pt" height="28pt"
 viewBox="0.00 0.00 172.00 28.00" xmlns="http://www.w3.org/2000/svg" xmlns:xlink="http://www.w3.org/1999/xlink">
<g id="graph0" class="graph" transform="scale(1 1) rotate(0) translate(4 24)">
<title>fix_uid</title>
<polygon fill="white" stroke="none" points="-4,4 -4,-24 168,-24 168,4 -4,4"/>
<!-- Node1 -->
<g id="node1" class="node"><title>Node1</title>
<polygon fill="#bfbfbf" stroke="black" points="0.5,-0.5 0.5,-19.5 45.5,-19.5 45.5,-0.5 0.5,-0.5"/>
<text text-anchor="middle" x="23" y="-7.5" font-family="Helvetica,sans-Serif" font-size="10.00">fix_uid</text>
</g>
<!-- Node2 -->
<g id="node2" class="node"><title>Node2</title>
<g id="a_node2"><a xlink:href="gnupgparse_8c.html#a1d739ceef45ddc22179dd35c9599cce0" target="_top" xlink:title="Parse the &#39;pub&#39; line from the pgp output. ">
<polygon fill="white" stroke="red" points="82,-0.5 82,-19.5 164,-19.5 164,-0.5 82,-0.5"/>
<text text-anchor="middle" x="123" y="-7.5" font-family="Helvetica,sans-Serif" font-size="10.00">parse_pub_line</text>
</a>
</g>
</g>
<!-- Node1&#45;&gt;Node2 -->
<g id="edge1" class="edge"><title>Node1&#45;&gt;Node2</title>
<path fill="none" stroke="midnightblue" d="M55.7656,-10C64.0592,-10 73.1077,-10 81.7773,-10"/>
<polygon fill="midnightblue" stroke="midnightblue" points="55.7494,-6.5001 45.7494,-10 55.7493,-13.5001 55.7494,-6.5001"/>
</g>
</g>
</svg>
