<?xml version="1.0" encoding="UTF-8" standalone="no"?>
<!DOCTYPE svg PUBLIC "-//W3C//DTD SVG 1.1//EN"
 "http://www.w3.org/Graphics/SVG/1.1/DTD/svg11.dtd">
<!-- Generated by graphviz version 2.36.0 (20140111.2315)
 -->
<!-- Title: group_add_addrlist Pages: 1 -->
<svg width="246pt" height="66pt"
 viewBox="0.00 0.00 246.00 66.00" xmlns="http://www.w3.org/2000/svg" xmlns:xlink="http://www.w3.org/1999/xlink">
<g id="graph0" class="graph" transform="scale(1 1) rotate(0) translate(4 62)">
<title>group_add_addrlist</title>
<polygon fill="white" stroke="none" points="-4,4 -4,-62 242,-62 242,4 -4,4"/>
<!-- Node1 -->
<g id="node1" class="node"><title>Node1</title>
<polygon fill="#bfbfbf" stroke="black" points="0,-19.5 0,-38.5 98,-38.5 98,-19.5 0,-19.5"/>
<text text-anchor="middle" x="49" y="-26.5" font-family="Helvetica,sans-Serif" font-size="10.00">group_add_addrlist</text>
</g>
<!-- Node2 -->
<g id="node2" class="node"><title>Node2</title>
<g id="a_node2"><a xlink:href="email_2address_8c.html#a6b3fad2ce581da1efea393b53d7940fb" target="_top" xlink:title="Copy a list of addresses. ">
<polygon fill="white" stroke="red" points="134,-38.5 134,-57.5 238,-57.5 238,-38.5 134,-38.5"/>
<text text-anchor="middle" x="186" y="-45.5" font-family="Helvetica,sans-Serif" font-size="10.00">mutt_addr_copy_list</text>
</a>
</g>
</g>
<!-- Node1&#45;&gt;Node2 -->
<g id="edge1" class="edge"><title>Node1&#45;&gt;Node2</title>
<path fill="none" stroke="midnightblue" d="M98.3568,-35.8058C106.622,-36.9691 115.306,-38.1911 123.852,-39.3939"/>
<polygon fill="midnightblue" stroke="midnightblue" points="123.398,-42.8644 133.788,-40.7924 124.373,-35.9328 123.398,-42.8644"/>
</g>
<!-- Node3 -->
<g id="node3" class="node"><title>Node3</title>
<g id="a_node3"><a xlink:href="send_8c.html#abf823e2372ec4bb456d9e6e34d787356" target="_top" xlink:title="Remove cross&#45;references. ">
<polygon fill="white" stroke="red" points="135.5,-0.5 135.5,-19.5 236.5,-19.5 236.5,-0.5 135.5,-0.5"/>
<text text-anchor="middle" x="186" y="-7.5" font-family="Helvetica,sans-Serif" font-size="10.00">mutt_remove_xrefs</text>
</a>
</g>
</g>
<!-- Node1&#45;&gt;Node3 -->
<g id="edge2" class="edge"><title>Node1&#45;&gt;Node3</title>
<path fill="none" stroke="midnightblue" d="M98.3568,-22.1942C107.042,-20.9719 116.188,-19.6846 125.152,-18.423"/>
<polygon fill="midnightblue" stroke="midnightblue" points="125.746,-21.874 135.161,-17.0144 124.771,-14.9423 125.746,-21.874"/>
</g>
</g>
</svg>
