<?xml version="1.0" encoding="UTF-8" standalone="no"?>
<!DOCTYPE svg PUBLIC "-//W3C//DTD SVG 1.1//EN"
 "http://www.w3.org/Graphics/SVG/1.1/DTD/svg11.dtd">
<!-- Generated by graphviz version 2.36.0 (20140111.2315)
 -->
<!-- Title: mutt_group_context_add_regex Pages: 1 -->
<svg width="238pt" height="142pt"
 viewBox="0.00 0.00 238.00 142.00" xmlns="http://www.w3.org/2000/svg" xmlns:xlink="http://www.w3.org/1999/xlink">
<g id="graph0" class="graph" transform="scale(1 1) rotate(0) translate(4 138)">
<title>mutt_group_context_add_regex</title>
<polygon fill="white" stroke="none" points="-4,4 -4,-138 234,-138 234,4 -4,4"/>
<!-- Node1 -->
<g id="node1" class="node"><title>Node1</title>
<polygon fill="#bfbfbf" stroke="black" points="0.5,-52 0.5,-82 103.5,-82 103.5,-52 0.5,-52"/>
<text text-anchor="start" x="8.5" y="-70" font-family="Helvetica,sans-Serif" font-size="10.00">mutt_group_context</text>
<text text-anchor="middle" x="52" y="-59" font-family="Helvetica,sans-Serif" font-size="10.00">_add_regex</text>
</g>
<!-- Node2 -->
<g id="node2" class="node"><title>Node2</title>
<g id="a_node2"><a xlink:href="init_8c.html#aa4a39513213c0af9653fd8a48d60a749" target="_top" xlink:title="Parse the &#39;alternates&#39; command &#45; Implements command_t. ">
<polygon fill="white" stroke="black" points="140.5,-114.5 140.5,-133.5 229.5,-133.5 229.5,-114.5 140.5,-114.5"/>
<text text-anchor="middle" x="185" y="-121.5" font-family="Helvetica,sans-Serif" font-size="10.00">parse_alternates</text>
</a>
</g>
</g>
<!-- Node1&#45;&gt;Node2 -->
<g id="edge1" class="edge"><title>Node1&#45;&gt;Node2</title>
<path fill="none" stroke="midnightblue" d="M96.6024,-86.0872C110.47,-92.1464 125.874,-98.8652 140,-105 147.021,-108.049 154.679,-111.361 161.608,-114.352"/>
<polygon fill="midnightblue" stroke="midnightblue" points="97.8466,-82.8113 87.2819,-82.013 95.0429,-89.2253 97.8466,-82.8113"/>
</g>
<!-- Node3 -->
<g id="node3" class="node"><title>Node3</title>
<g id="a_node3"><a xlink:href="init_8c.html#a8a92bf6b38a79da880ee26193755c79a" target="_top" xlink:title="Parse the &#39;group&#39; and &#39;ungroup&#39; commands &#45; Implements command_t. ">
<polygon fill="white" stroke="black" points="150,-76.5 150,-95.5 220,-95.5 220,-76.5 150,-76.5"/>
<text text-anchor="middle" x="185" y="-83.5" font-family="Helvetica,sans-Serif" font-size="10.00">parse_group</text>
</a>
</g>
</g>
<!-- Node1&#45;&gt;Node3 -->
<g id="edge2" class="edge"><title>Node1&#45;&gt;Node3</title>
<path fill="none" stroke="midnightblue" d="M113.887,-75.831C126.183,-77.6144 138.697,-79.4294 149.684,-81.0229"/>
<polygon fill="midnightblue" stroke="midnightblue" points="114.047,-72.3176 103.648,-74.3459 113.042,-79.2451 114.047,-72.3176"/>
</g>
<!-- Node4 -->
<g id="node4" class="node"><title>Node4</title>
<g id="a_node4"><a xlink:href="init_8c.html#a651f6d3c15001ba8a41a3e68e5672681" target="_top" xlink:title="Parse the &#39;lists&#39; command &#45; Implements command_t. ">
<polygon fill="white" stroke="black" points="153,-38.5 153,-57.5 217,-57.5 217,-38.5 153,-38.5"/>
<text text-anchor="middle" x="185" y="-45.5" font-family="Helvetica,sans-Serif" font-size="10.00">parse_lists</text>
</a>
</g>
</g>
<!-- Node1&#45;&gt;Node4 -->
<g id="edge3" class="edge"><title>Node1&#45;&gt;Node4</title>
<path fill="none" stroke="midnightblue" d="M113.867,-58.172C127.346,-56.217 141.088,-54.2238 152.795,-52.5259"/>
<polygon fill="midnightblue" stroke="midnightblue" points="113.042,-54.7549 103.648,-59.6541 114.047,-61.6824 113.042,-54.7549"/>
</g>
<!-- Node5 -->
<g id="node5" class="node"><title>Node5</title>
<g id="a_node5"><a xlink:href="init_8c.html#accb404f874e2b58f3409203b95524d16" target="_top" xlink:title="Parse the &#39;subscribe&#39; command &#45; Implements command_t. ">
<polygon fill="white" stroke="black" points="141,-0.5 141,-19.5 229,-19.5 229,-0.5 141,-0.5"/>
<text text-anchor="middle" x="185" y="-7.5" font-family="Helvetica,sans-Serif" font-size="10.00">parse_subscribe</text>
</a>
</g>
</g>
<!-- Node1&#45;&gt;Node5 -->
<g id="edge4" class="edge"><title>Node1&#45;&gt;Node5</title>
<path fill="none" stroke="midnightblue" d="M96.6024,-47.9128C110.47,-41.8536 125.874,-35.1348 140,-29 147.021,-25.9506 154.679,-22.6391 161.608,-19.6477"/>
<polygon fill="midnightblue" stroke="midnightblue" points="95.0429,-44.7747 87.2819,-51.987 97.8466,-51.1887 95.0429,-44.7747"/>
</g>
</g>
</svg>
