<?xml version="1.0" encoding="UTF-8" standalone="no"?>
<!DOCTYPE svg PUBLIC "-//W3C//DTD SVG 1.1//EN"
 "http://www.w3.org/Graphics/SVG/1.1/DTD/svg11.dtd">
<!-- Generated by graphviz version 2.36.0 (20140111.2315)
 -->
<!-- Title: mutt_group_context_clear Pages: 1 -->
<svg width="218pt" height="38pt"
 viewBox="0.00 0.00 218.00 38.00" xmlns="http://www.w3.org/2000/svg" xmlns:xlink="http://www.w3.org/1999/xlink">
<g id="graph0" class="graph" transform="scale(1 1) rotate(0) translate(4 34)">
<title>mutt_group_context_clear</title>
<polygon fill="white" stroke="none" points="-4,4 -4,-34 214,-34 214,4 -4,4"/>
<!-- Node1 -->
<g id="node1" class="node"><title>Node1</title>
<polygon fill="#bfbfbf" stroke="black" points="0.5,-0 0.5,-30 103.5,-30 103.5,-0 0.5,-0"/>
<text text-anchor="start" x="8.5" y="-18" font-family="Helvetica,sans-Serif" font-size="10.00">mutt_group_context</text>
<text text-anchor="middle" x="52" y="-7" font-family="Helvetica,sans-Serif" font-size="10.00">_clear</text>
</g>
<!-- Node2 -->
<g id="node2" class="node"><title>Node2</title>
<g id="a_node2"><a xlink:href="init_8c.html#a8a92bf6b38a79da880ee26193755c79a" target="_top" xlink:title="Parse the &#39;group&#39; and &#39;ungroup&#39; commands &#45; Implements command_t. ">
<polygon fill="white" stroke="black" points="140,-5.5 140,-24.5 210,-24.5 210,-5.5 140,-5.5"/>
<text text-anchor="middle" x="175" y="-12.5" font-family="Helvetica,sans-Serif" font-size="10.00">parse_group</text>
</a>
</g>
</g>
<!-- Node1&#45;&gt;Node2 -->
<g id="edge1" class="edge"><title>Node1&#45;&gt;Node2</title>
<path fill="none" stroke="midnightblue" d="M113.682,-15C122.635,-15 131.583,-15 139.741,-15"/>
<polygon fill="midnightblue" stroke="midnightblue" points="113.614,-11.5001 103.614,-15 113.614,-18.5001 113.614,-11.5001"/>
</g>
</g>
</svg>
