<?xml version="1.0" encoding="UTF-8" standalone="no"?>
<!DOCTYPE svg PUBLIC "-//W3C//DTD SVG 1.1//EN"
 "http://www.w3.org/Graphics/SVG/1.1/DTD/svg11.dtd">
<!-- Generated by graphviz version 2.36.0 (20140111.2315)
 -->
<!-- Title: mutt_group_context_add_regex Pages: 1 -->
<svg width="240pt" height="38pt"
 viewBox="0.00 0.00 240.00 38.00" xmlns="http://www.w3.org/2000/svg" xmlns:xlink="http://www.w3.org/1999/xlink">
<g id="graph0" class="graph" transform="scale(1 1) rotate(0) translate(4 34)">
<title>mutt_group_context_add_regex</title>
<polygon fill="white" stroke="none" points="-4,4 -4,-34 236,-34 236,4 -4,4"/>
<!-- Node1 -->
<g id="node1" class="node"><title>Node1</title>
<polygon fill="#bfbfbf" stroke="black" points="0.5,-0 0.5,-30 103.5,-30 103.5,-0 0.5,-0"/>
<text text-anchor="start" x="8.5" y="-18" font-family="Helvetica,sans-Serif" font-size="10.00">mutt_group_context</text>
<text text-anchor="middle" x="52" y="-7" font-family="Helvetica,sans-Serif" font-size="10.00">_add_regex</text>
</g>
<!-- Node2 -->
<g id="node2" class="node"><title>Node2</title>
<g id="a_node2"><a xlink:href="group_8c.html#a3dec0dc31400b69197ffd45839e4b0df" target="_top" xlink:title="Add a Regex to a Group. ">
<polygon fill="white" stroke="red" points="140.5,-5.5 140.5,-24.5 231.5,-24.5 231.5,-5.5 140.5,-5.5"/>
<text text-anchor="middle" x="186" y="-12.5" font-family="Helvetica,sans-Serif" font-size="10.00">group_add_regex</text>
</a>
</g>
</g>
<!-- Node1&#45;&gt;Node2 -->
<g id="edge1" class="edge"><title>Node1&#45;&gt;Node2</title>
<path fill="none" stroke="midnightblue" d="M103.657,-15C112.332,-15 121.381,-15 130.158,-15"/>
<polygon fill="midnightblue" stroke="midnightblue" points="130.299,-18.5001 140.299,-15 130.299,-11.5001 130.299,-18.5001"/>
</g>
</g>
</svg>
