<?xml version="1.0" encoding="UTF-8" standalone="no"?>
<!DOCTYPE svg PUBLIC "-//W3C//DTD SVG 1.1//EN"
 "http://www.w3.org/Graphics/SVG/1.1/DTD/svg11.dtd">
<!-- Generated by graphviz version 2.36.0 (20140111.2315)
 -->
<!-- Title: mutt_group_context_remove_regex Pages: 1 -->
<svg width="256pt" height="104pt"
 viewBox="0.00 0.00 256.00 104.00" xmlns="http://www.w3.org/2000/svg" xmlns:xlink="http://www.w3.org/1999/xlink">
<g id="graph0" class="graph" transform="scale(1 1) rotate(0) translate(4 100)">
<title>mutt_group_context_remove_regex</title>
<polygon fill="white" stroke="none" points="-4,4 -4,-100 252,-100 252,4 -4,4"/>
<!-- Node1 -->
<g id="node1" class="node"><title>Node1</title>
<polygon fill="#bfbfbf" stroke="black" points="0.5,-33 0.5,-63 103.5,-63 103.5,-33 0.5,-33"/>
<text text-anchor="start" x="8.5" y="-51" font-family="Helvetica,sans-Serif" font-size="10.00">mutt_group_context</text>
<text text-anchor="middle" x="52" y="-40" font-family="Helvetica,sans-Serif" font-size="10.00">_remove_regex</text>
</g>
<!-- Node2 -->
<g id="node2" class="node"><title>Node2</title>
<g id="a_node2"><a xlink:href="group_8c.html#a9ce5c79bfae1e6c071f44f4770177fad" target="_top" xlink:title="Remove a Regex from a Group. ">
<polygon fill="white" stroke="red" points="140.5,-76.5 140.5,-95.5 247.5,-95.5 247.5,-76.5 140.5,-76.5"/>
<text text-anchor="middle" x="194" y="-83.5" font-family="Helvetica,sans-Serif" font-size="10.00">group_remove_regex</text>
</a>
</g>
</g>
<!-- Node1&#45;&gt;Node2 -->
<g id="edge1" class="edge"><title>Node1&#45;&gt;Node2</title>
<path fill="none" stroke="midnightblue" d="M103.543,-61.7189C118.039,-65.6535 133.744,-69.9163 147.89,-73.7559"/>
<polygon fill="midnightblue" stroke="midnightblue" points="147.308,-77.2244 157.875,-76.4662 149.141,-70.4688 147.308,-77.2244"/>
</g>
<!-- Node3 -->
<g id="node3" class="node"><title>Node3</title>
<g id="a_node3"><a xlink:href="group_8c.html#a09783c5a45915df055e9e126ad9a8d7f" target="_top" xlink:title="Is a Group empty? ">
<polygon fill="white" stroke="black" points="157.5,-38.5 157.5,-57.5 230.5,-57.5 230.5,-38.5 157.5,-38.5"/>
<text text-anchor="middle" x="194" y="-45.5" font-family="Helvetica,sans-Serif" font-size="10.00">empty_group</text>
</a>
</g>
</g>
<!-- Node1&#45;&gt;Node3 -->
<g id="edge2" class="edge"><title>Node1&#45;&gt;Node3</title>
<path fill="none" stroke="midnightblue" d="M103.543,-48C117.774,-48 133.169,-48 147.111,-48"/>
<polygon fill="midnightblue" stroke="midnightblue" points="147.446,-51.5001 157.446,-48 147.446,-44.5001 147.446,-51.5001"/>
</g>
<!-- Node4 -->
<g id="node4" class="node"><title>Node4</title>
<g id="a_node4"><a xlink:href="group_8c.html#a3ad7cc65031fa1174d8fddb060095661" target="_top" xlink:title="Remove a Group from the Hash Table. ">
<polygon fill="white" stroke="red" points="155,-0.5 155,-19.5 233,-19.5 233,-0.5 155,-0.5"/>
<text text-anchor="middle" x="194" y="-7.5" font-family="Helvetica,sans-Serif" font-size="10.00">group_remove</text>
</a>
</g>
</g>
<!-- Node1&#45;&gt;Node4 -->
<g id="edge3" class="edge"><title>Node1&#45;&gt;Node4</title>
<path fill="none" stroke="midnightblue" d="M103.543,-34.2811C118.039,-30.3465 133.744,-26.0837 147.89,-22.2441"/>
<polygon fill="midnightblue" stroke="midnightblue" points="149.141,-25.5312 157.875,-19.5338 147.308,-18.7756 149.141,-25.5312"/>
</g>
</g>
</svg>
