<?xml version="1.0" encoding="UTF-8" standalone="no"?>
<!DOCTYPE svg PUBLIC "-//W3C//DTD SVG 1.1//EN"
 "http://www.w3.org/Graphics/SVG/1.1/DTD/svg11.dtd">
<!-- Generated by graphviz version 2.36.0 (20140111.2315)
 -->
<!-- Title: group.c Pages: 1 -->
<svg width="498pt" height="140pt"
 viewBox="0.00 0.00 498.00 140.00" xmlns="http://www.w3.org/2000/svg" xmlns:xlink="http://www.w3.org/1999/xlink">
<g id="graph0" class="graph" transform="scale(1 1) rotate(0) translate(4 136)">
<title>group.c</title>
<polygon fill="white" stroke="none" points="-4,4 -4,-136 494,-136 494,4 -4,4"/>
<!-- Node1 -->
<g id="node1" class="node"><title>Node1</title>
<polygon fill="#bfbfbf" stroke="black" points="217.5,-112.5 217.5,-131.5 266.5,-131.5 266.5,-112.5 217.5,-112.5"/>
<text text-anchor="middle" x="242" y="-119.5" font-family="Helvetica,sans-Serif" font-size="10.00">group.c</text>
</g>
<!-- Node2 -->
<g id="node2" class="node"><title>Node2</title>
<polygon fill="white" stroke="#bfbfbf" points="-0.5,-56.5 -0.5,-75.5 50.5,-75.5 50.5,-56.5 -0.5,-56.5"/>
<text text-anchor="middle" x="25" y="-63.5" font-family="Helvetica,sans-Serif" font-size="10.00">config.h</text>
</g>
<!-- Node1&#45;&gt;Node2 -->
<g id="edge1" class="edge"><title>Node1&#45;&gt;Node2</title>
<path fill="none" stroke="midnightblue" d="M217.107,-114.806C178.584,-105.219 104.379,-86.7534 60.323,-75.7901"/>
<polygon fill="midnightblue" stroke="midnightblue" points="61.1569,-72.3909 50.6076,-73.3724 59.4665,-79.1837 61.1569,-72.3909"/>
</g>
<!-- Node3 -->
<g id="node3" class="node"><title>Node3</title>
<polygon fill="white" stroke="#bfbfbf" points="359,-0.5 359,-19.5 415,-19.5 415,-0.5 359,-0.5"/>
<text text-anchor="middle" x="387" y="-7.5" font-family="Helvetica,sans-Serif" font-size="10.00">stdbool.h</text>
</g>
<!-- Node1&#45;&gt;Node3 -->
<g id="edge2" class="edge"><title>Node1&#45;&gt;Node3</title>
<path fill="none" stroke="midnightblue" d="M266.689,-121.95C301.603,-121.779 364.44,-115.58 394,-76 403.958,-62.6664 400.213,-43.2834 395.195,-29.1548"/>
<polygon fill="midnightblue" stroke="midnightblue" points="398.309,-27.5203 391.315,-19.562 391.82,-30.1448 398.309,-27.5203"/>
</g>
<!-- Node4 -->
<g id="node4" class="node"><title>Node4</title>
<polygon fill="white" stroke="#bfbfbf" points="107,-56.5 107,-75.5 155,-75.5 155,-56.5 107,-56.5"/>
<text text-anchor="middle" x="131" y="-63.5" font-family="Helvetica,sans-Serif" font-size="10.00">stdlib.h</text>
</g>
<!-- Node1&#45;&gt;Node4 -->
<g id="edge3" class="edge"><title>Node1&#45;&gt;Node4</title>
<path fill="none" stroke="midnightblue" d="M224.166,-112.324C206.284,-103.625 178.525,-90.1202 157.954,-80.113"/>
<polygon fill="midnightblue" stroke="midnightblue" points="159.313,-76.8819 148.79,-75.6545 156.251,-83.1765 159.313,-76.8819"/>
</g>
<!-- Node5 -->
<g id="node5" class="node"><title>Node5</title>
<g id="a_node5"><a xlink:href="mutt_2mutt_8h.html" target="_top" xlink:title="Convenience wrapper for the library headers. ">
<polygon fill="white" stroke="red" points="106.5,-0.5 106.5,-19.5 173.5,-19.5 173.5,-0.5 106.5,-0.5"/>
<text text-anchor="middle" x="140" y="-7.5" font-family="Helvetica,sans-Serif" font-size="10.00">mutt/mutt.h</text>
</a>
</g>
</g>
<!-- Node1&#45;&gt;Node5 -->
<g id="edge4" class="edge"><title>Node1&#45;&gt;Node5</title>
<path fill="none" stroke="midnightblue" d="M217.452,-121.467C184.116,-120.606 125.538,-113.458 98,-76 85.8013,-59.4075 103.268,-39.3817 119.249,-25.9825"/>
<polygon fill="midnightblue" stroke="midnightblue" points="121.618,-28.5718 127.305,-19.633 117.285,-23.0741 121.618,-28.5718"/>
</g>
<!-- Node6 -->
<g id="node6" class="node"><title>Node6</title>
<g id="a_node6"><a xlink:href="email_8h.html" target="_top" xlink:title="Structs that make up an email. ">
<polygon fill="white" stroke="red" points="247,-56.5 247,-75.5 321,-75.5 321,-56.5 247,-56.5"/>
<text text-anchor="middle" x="284" y="-63.5" font-family="Helvetica,sans-Serif" font-size="10.00">email/email.h</text>
</a>
</g>
</g>
<!-- Node1&#45;&gt;Node6 -->
<g id="edge5" class="edge"><title>Node1&#45;&gt;Node6</title>
<path fill="none" stroke="midnightblue" d="M248.935,-112.083C254.929,-104.377 263.752,-93.0333 271.048,-83.6531"/>
<polygon fill="midnightblue" stroke="midnightblue" points="273.817,-85.7934 277.194,-75.7511 268.291,-81.4958 273.817,-85.7934"/>
</g>
<!-- Node7 -->
<g id="node7" class="node"><title>Node7</title>
<g id="a_node7"><a xlink:href="group_8h.html" target="_top" xlink:title="Handling for email address groups. ">
<polygon fill="white" stroke="black" points="441.5,-56.5 441.5,-75.5 490.5,-75.5 490.5,-56.5 441.5,-56.5"/>
<text text-anchor="middle" x="466" y="-63.5" font-family="Helvetica,sans-Serif" font-size="10.00">group.h</text>
</a>
</g>
</g>
<!-- Node1&#45;&gt;Node7 -->
<g id="edge6" class="edge"><title>Node1&#45;&gt;Node7</title>
<path fill="none" stroke="midnightblue" d="M266.828,-115.015C306.879,-105.359 385.853,-86.3212 431.401,-75.3408"/>
<polygon fill="midnightblue" stroke="midnightblue" points="432.501,-78.676 441.402,-72.9298 430.861,-71.8709 432.501,-78.676"/>
</g>
<!-- Node8 -->
<g id="node8" class="node"><title>Node8</title>
<g id="a_node8"><a xlink:href="globals_8h.html" target="_top" xlink:title="Hundreds of global variables to back the user variables. ">
<polygon fill="white" stroke="red" points="173,-56.5 173,-75.5 229,-75.5 229,-56.5 173,-56.5"/>
<text text-anchor="middle" x="201" y="-63.5" font-family="Helvetica,sans-Serif" font-size="10.00">globals.h</text>
</a>
</g>
</g>
<!-- Node1&#45;&gt;Node8 -->
<g id="edge8" class="edge"><title>Node1&#45;&gt;Node8</title>
<path fill="none" stroke="midnightblue" d="M235.23,-112.083C229.438,-104.455 220.942,-93.2645 213.862,-83.9408"/>
<polygon fill="midnightblue" stroke="midnightblue" points="216.479,-81.5991 207.644,-75.7511 210.904,-85.8321 216.479,-81.5991"/>
</g>
<!-- Node9 -->
<g id="node9" class="node"><title>Node9</title>
<g id="a_node9"><a xlink:href="send_8h.html" target="_top" xlink:title="Prepare and send an email. ">
<polygon fill="white" stroke="red" points="339,-56.5 339,-75.5 385,-75.5 385,-56.5 339,-56.5"/>
<text text-anchor="middle" x="362" y="-63.5" font-family="Helvetica,sans-Serif" font-size="10.00">send.h</text>
</a>
</g>
</g>
<!-- Node1&#45;&gt;Node9 -->
<g id="edge11" class="edge"><title>Node1&#45;&gt;Node9</title>
<path fill="none" stroke="midnightblue" d="M261.014,-112.444C280.588,-103.636 311.308,-89.8116 333.729,-79.722"/>
<polygon fill="midnightblue" stroke="midnightblue" points="335.392,-82.8119 343.075,-75.5164 332.519,-76.4284 335.392,-82.8119"/>
</g>
<!-- Node7&#45;&gt;Node3 -->
<g id="edge7" class="edge"><title>Node7&#45;&gt;Node3</title>
<path fill="none" stroke="midnightblue" d="M453.307,-56.324C441.099,-47.979 422.422,-35.2122 407.997,-25.3524"/>
<polygon fill="midnightblue" stroke="midnightblue" points="409.892,-22.4082 399.661,-19.6545 405.942,-28.1871 409.892,-22.4082"/>
</g>
<!-- Node8&#45;&gt;Node3 -->
<g id="edge9" class="edge"><title>Node8&#45;&gt;Node3</title>
<path fill="none" stroke="midnightblue" d="M229.249,-56.7986C261.161,-47.534 313.264,-32.4073 348.79,-22.0933"/>
<polygon fill="midnightblue" stroke="midnightblue" points="350.162,-25.3394 358.79,-19.19 348.211,-18.6169 350.162,-25.3394"/>
</g>
<!-- Node8&#45;&gt;Node5 -->
<g id="edge10" class="edge"><title>Node8&#45;&gt;Node5</title>
<path fill="none" stroke="midnightblue" d="M191.199,-56.324C182.182,-48.3414 168.594,-36.3128 157.682,-26.6529"/>
<polygon fill="midnightblue" stroke="midnightblue" points="159.787,-23.8416 149.979,-19.8339 155.147,-29.083 159.787,-23.8416"/>
</g>
<!-- Node9&#45;&gt;Node3 -->
<g id="edge12" class="edge"><title>Node9&#45;&gt;Node3</title>
<path fill="none" stroke="midnightblue" d="M366.128,-56.083C369.514,-48.77 374.416,-38.1814 378.619,-29.1034"/>
<polygon fill="midnightblue" stroke="midnightblue" points="381.923,-30.2962 382.949,-19.7511 375.571,-27.3553 381.923,-30.2962"/>
</g>
</g>
</svg>
