<?xml version="1.0" encoding="UTF-8" standalone="no"?>
<!DOCTYPE svg PUBLIC "-//W3C//DTD SVG 1.1//EN"
 "http://www.w3.org/Graphics/SVG/1.1/DTD/svg11.dtd">
<!-- Generated by graphviz version 2.36.0 (20140111.2315)
 -->
<!-- Title: mutt_decode_base64 Pages: 1 -->
<svg width="282pt" height="66pt"
 viewBox="0.00 0.00 282.00 66.00" xmlns="http://www.w3.org/2000/svg" xmlns:xlink="http://www.w3.org/1999/xlink">
<g id="graph0" class="graph" transform="scale(1 1) rotate(0) translate(4 62)">
<title>mutt_decode_base64</title>
<polygon fill="white" stroke="none" points="-4,4 -4,-62 278,-62 278,4 -4,4"/>
<!-- Node1 -->
<g id="node1" class="node"><title>Node1</title>
<polygon fill="#bfbfbf" stroke="black" points="0,-19.5 0,-38.5 110,-38.5 110,-19.5 0,-19.5"/>
<text text-anchor="middle" x="55" y="-26.5" font-family="Helvetica,sans-Serif" font-size="10.00">mutt_decode_base64</text>
</g>
<!-- Node2 -->
<g id="node2" class="node"><title>Node2</title>
<g id="a_node2"><a xlink:href="handler_8h.html#a8dc0c14a81bb73f86986adc9745dd192" target="_top" xlink:title="Decode an email&#39;s attachment. ">
<polygon fill="white" stroke="red" points="146.5,-38.5 146.5,-57.5 273.5,-57.5 273.5,-38.5 146.5,-38.5"/>
<text text-anchor="middle" x="210" y="-45.5" font-family="Helvetica,sans-Serif" font-size="10.00">mutt_decode_attachment</text>
</a>
</g>
</g>
<!-- Node1&#45;&gt;Node2 -->
<g id="edge1" class="edge"><title>Node1&#45;&gt;Node2</title>
<path fill="none" stroke="midnightblue" d="M120.38,-36.995C129.011,-38.0668 137.853,-39.1648 146.452,-40.2326"/>
<polygon fill="midnightblue" stroke="midnightblue" points="120.728,-33.5113 110.373,-35.7522 119.865,-40.458 120.728,-33.5113"/>
</g>
<!-- Node3 -->
<g id="node3" class="node"><title>Node3</title>
<g id="a_node3"><a xlink:href="pgpmicalg_8c.html#ac43821593321e40f72c7765c7fe2bd00" target="_top" xlink:title="Unwrap an armoured PGP block. ">
<polygon fill="white" stroke="red" points="173.5,-0.5 173.5,-19.5 246.5,-19.5 246.5,-0.5 173.5,-0.5"/>
<text text-anchor="middle" x="210" y="-7.5" font-family="Helvetica,sans-Serif" font-size="10.00">pgp_dearmor</text>
</a>
</g>
</g>
<!-- Node1&#45;&gt;Node3 -->
<g id="edge2" class="edge"><title>Node1&#45;&gt;Node3</title>
<path fill="none" stroke="midnightblue" d="M120.347,-21.0092C138.524,-18.7519 157.64,-16.3781 173.448,-14.415"/>
<polygon fill="midnightblue" stroke="midnightblue" points="119.865,-17.542 110.373,-22.2478 120.728,-24.4887 119.865,-17.542"/>
</g>
</g>
</svg>
