<?xml version="1.0" encoding="UTF-8" standalone="no"?>
<!DOCTYPE svg PUBLIC "-//W3C//DTD SVG 1.1//EN"
 "http://www.w3.org/Graphics/SVG/1.1/DTD/svg11.dtd">
<!-- Generated by graphviz version 2.36.0 (20140111.2315)
 -->
<!-- Title: mutt_can_decode Pages: 1 -->
<svg width="572pt" height="427pt"
 viewBox="0.00 0.00 572.00 426.73" xmlns="http://www.w3.org/2000/svg" xmlns:xlink="http://www.w3.org/1999/xlink">
<g id="graph0" class="graph" transform="scale(1 1) rotate(0) translate(4 422.732)">
<title>mutt_can_decode</title>
<polygon fill="white" stroke="none" points="-4,4 -4,-422.732 568,-422.732 568,4 -4,4"/>
<!-- Node1 -->
<g id="node1" class="node"><title>Node1</title>
<polygon fill="#bfbfbf" stroke="black" points="0,-190.133 0,-209.133 94,-209.133 94,-190.133 0,-190.133"/>
<text text-anchor="middle" x="47" y="-197.133" font-family="Helvetica,sans-Serif" font-size="10.00">mutt_can_decode</text>
</g>
<!-- Node2 -->
<g id="node2" class="node"><title>Node2</title>
<g id="a_node2"><a xlink:href="handler_8c.html#aab3262f62a3d18119e23b733fa09164c" target="_top" xlink:title="Handler for multipart alternative emails &#45; Implements handler_t. ">
<polygon fill="white" stroke="red" points="287,-375.133 287,-394.133 385,-394.133 385,-375.133 287,-375.133"/>
<text text-anchor="middle" x="336" y="-382.133" font-family="Helvetica,sans-Serif" font-size="10.00">alternative_handler</text>
</a>
</g>
</g>
<!-- Node1&#45;&gt;Node2 -->
<g id="edge1" class="edge"><title>Node1&#45;&gt;Node2</title>
<path fill="none" stroke="midnightblue" d="M56.0802,-218.877C68.2705,-245.661 93.8446,-293.993 130,-321.633 176.145,-356.908 242.175,-372.586 286.72,-379.452"/>
<polygon fill="midnightblue" stroke="midnightblue" points="59.1652,-217.197 51.9396,-209.448 52.756,-220.012 59.1652,-217.197"/>
</g>
<!-- Node3 -->
<g id="node3" class="node"><title>Node3</title>
<g id="a_node3"><a xlink:href="handler_8c.html#aa5d200d8ce365cf1ece6cc11da5a9de2" target="_top" xlink:title="Handler for multi&#45;lingual emails &#45; Implements handler_t. ">
<polygon fill="white" stroke="red" points="285,-337.133 285,-356.133 387,-356.133 387,-337.133 285,-337.133"/>
<text text-anchor="middle" x="336" y="-344.133" font-family="Helvetica,sans-Serif" font-size="10.00">multilingual_handler</text>
</a>
</g>
</g>
<!-- Node1&#45;&gt;Node3 -->
<g id="edge2" class="edge"><title>Node1&#45;&gt;Node3</title>
<path fill="none" stroke="midnightblue" d="M59.8902,-217.789C74.1715,-238.191 99.9909,-270.896 130,-289.633 177.629,-319.369 240.969,-333.889 284.572,-340.778"/>
<polygon fill="midnightblue" stroke="midnightblue" points="62.6854,-215.676 54.1668,-209.376 56.8976,-219.613 62.6854,-215.676"/>
</g>
<!-- Node4 -->
<g id="node4" class="node"><title>Node4</title>
<g id="a_node4"><a xlink:href="handler_8h.html#ad8ffd2d9dd15e18644b821ec35c7ce52" target="_top" xlink:title="Will decoding the attachment produce any output. ">
<polygon fill="white" stroke="black" points="130,-214.133 130,-233.133 224,-233.133 224,-214.133 130,-214.133"/>
<text text-anchor="middle" x="177" y="-221.133" font-family="Helvetica,sans-Serif" font-size="10.00">mutt_can_decode</text>
</a>
</g>
</g>
<!-- Node1&#45;&gt;Node4 -->
<g id="edge3" class="edge"><title>Node1&#45;&gt;Node4</title>
<path fill="none" stroke="midnightblue" d="M104.162,-210.163C112.746,-211.773 121.521,-213.418 129.857,-214.981"/>
<polygon fill="midnightblue" stroke="midnightblue" points="104.685,-206.7 94.2109,-208.297 103.395,-213.58 104.685,-206.7"/>
</g>
<!-- Node5 -->
<g id="node5" class="node"><title>Node5</title>
<g id="a_node5"><a xlink:href="mutt__attach_8h.html#a55e06a71a4e4180b7279d5eb5439d9d5" target="_top" xlink:title="Print out an attachment. ">
<polygon fill="white" stroke="black" points="279,-299.133 279,-318.133 393,-318.133 393,-299.133 279,-299.133"/>
<text text-anchor="middle" x="336" y="-306.133" font-family="Helvetica,sans-Serif" font-size="10.00">mutt_print_attachment</text>
</a>
</g>
</g>
<!-- Node1&#45;&gt;Node5 -->
<g id="edge19" class="edge"><title>Node1&#45;&gt;Node5</title>
<path fill="none" stroke="midnightblue" d="M66.0593,-216.529C81.7979,-230.358 105.831,-249.408 130,-260.633 177.573,-282.727 236.226,-295.134 278.589,-301.771"/>
<polygon fill="midnightblue" stroke="midnightblue" points="67.9928,-213.56 58.2209,-209.465 63.3068,-218.76 67.9928,-213.56"/>
</g>
<!-- Node6 -->
<g id="node6" class="node"><title>Node6</title>
<g id="a_node6"><a xlink:href="recvattach_8c.html#a54f776fcfc922681ca8c99d4aa497198" target="_top" xlink:title="Print a list of Attachments. ">
<polygon fill="white" stroke="red" points="452.5,-299.133 452.5,-318.133 559.5,-318.133 559.5,-299.133 452.5,-299.133"/>
<text text-anchor="middle" x="506" y="-306.133" font-family="Helvetica,sans-Serif" font-size="10.00">print_attachment_list</text>
</a>
</g>
</g>
<!-- Node1&#45;&gt;Node6 -->
<g id="edge21" class="edge"><title>Node1&#45;&gt;Node6</title>
<path fill="none" stroke="midnightblue" d="M53.1037,-219.047C62.7081,-251.913 86.5208,-318.637 130,-356.633 176.262,-397.06 199.484,-393.029 260,-403.633 326.542,-415.292 349.725,-429.817 412,-403.633 454.127,-385.92 486.722,-338.777 499.329,-318.325"/>
<polygon fill="midnightblue" stroke="midnightblue" points="56.4403,-217.982 50.3833,-209.289 49.6975,-219.861 56.4403,-217.982"/>
</g>
<!-- Node7 -->
<g id="node7" class="node"><title>Node7</title>
<g id="a_node7"><a xlink:href="recvattach_8c.html#aa65ac63b4bb9d0b83b6f4128736ad190" target="_top" xlink:title="Do we know how to print this attachment type? ">
<polygon fill="white" stroke="red" points="308,-147.133 308,-166.133 364,-166.133 364,-147.133 308,-147.133"/>
<text text-anchor="middle" x="336" y="-154.133" font-family="Helvetica,sans-Serif" font-size="10.00">can_print</text>
</a>
</g>
</g>
<!-- Node1&#45;&gt;Node7 -->
<g id="edge20" class="edge"><title>Node1&#45;&gt;Node7</title>
<path fill="none" stroke="midnightblue" d="M104.011,-191.241C165.29,-182.06 260.991,-167.721 307.617,-160.735"/>
<polygon fill="midnightblue" stroke="midnightblue" points="103.483,-187.781 94.1115,-192.724 104.52,-194.703 103.483,-187.781"/>
</g>
<!-- Node8 -->
<g id="node8" class="node"><title>Node8</title>
<g id="a_node8"><a xlink:href="recvcmd_8c.html#a803384ce9ee1cf1bef751ff4808584ef" target="_top" xlink:title="Can we decode all tagged attachments? ">
<polygon fill="white" stroke="black" points="285.5,-71.1326 285.5,-90.1326 386.5,-90.1326 386.5,-71.1326 285.5,-71.1326"/>
<text text-anchor="middle" x="336" y="-78.1326" font-family="Helvetica,sans-Serif" font-size="10.00">check_can_decode</text>
</a>
</g>
</g>
<!-- Node1&#45;&gt;Node8 -->
<g id="edge22" class="edge"><title>Node1&#45;&gt;Node8</title>
<path fill="none" stroke="midnightblue" d="M58.0902,-181.178C71.3754,-158.871 96.9695,-122.15 130,-104.633 178.277,-79.0293 241.783,-75.4132 285.243,-76.6743"/>
<polygon fill="midnightblue" stroke="midnightblue" points="54.9551,-179.609 53.0167,-190.025 61.0275,-183.091 54.9551,-179.609"/>
</g>
<!-- Node9 -->
<g id="node9" class="node"><title>Node9</title>
<g id="a_node9"><a xlink:href="recvcmd_8c.html#ad985f78448cd381d34cb45b710eddc90" target="_top" xlink:title="forward one or several MIME bodies ">
<polygon fill="white" stroke="red" points="448.5,-42.1326 448.5,-61.1326 563.5,-61.1326 563.5,-42.1326 448.5,-42.1326"/>
<text text-anchor="middle" x="506" y="-49.1326" font-family="Helvetica,sans-Serif" font-size="10.00">attach_forward_bodies</text>
</a>
</g>
</g>
<!-- Node1&#45;&gt;Node9 -->
<g id="edge24" class="edge"><title>Node1&#45;&gt;Node9</title>
<path fill="none" stroke="midnightblue" d="M51.7975,-180.2C59.674,-145.579 81.2838,-73.669 130,-39.6326 240.53,37.591 417.496,-17.9163 481.192,-41.9944"/>
<polygon fill="midnightblue" stroke="midnightblue" points="48.3627,-179.526 49.7058,-190.036 55.2095,-180.983 48.3627,-179.526"/>
</g>
<!-- Node10 -->
<g id="node10" class="node"><title>Node10</title>
<g id="a_node10"><a xlink:href="recvcmd_8h.html#a40682fa92a787a3a065716d851677599" target="_top" xlink:title="Attach a reply. ">
<polygon fill="white" stroke="red" points="458.5,-90.1326 458.5,-109.133 553.5,-109.133 553.5,-90.1326 458.5,-90.1326"/>
<text text-anchor="middle" x="506" y="-97.1326" font-family="Helvetica,sans-Serif" font-size="10.00">mutt_attach_reply</text>
</a>
</g>
</g>
<!-- Node1&#45;&gt;Node10 -->
<g id="edge25" class="edge"><title>Node1&#45;&gt;Node10</title>
<path fill="none" stroke="midnightblue" d="M81.829,-186.311C96.5098,-180.777 113.978,-174.519 130,-169.633 245.451,-134.419 386.578,-113.866 458.309,-104.947"/>
<polygon fill="midnightblue" stroke="midnightblue" points="80.2567,-183.165 72.1627,-190.002 82.7533,-189.705 80.2567,-183.165"/>
</g>
<!-- Node11 -->
<g id="node11" class="node"><title>Node11</title>
<g id="a_node11"><a xlink:href="recvcmd_8c.html#a3ece8162f54f872f718dc0b8a7efcd83" target="_top" xlink:title="Attach the body parts which can&#39;t be decoded. ">
<polygon fill="white" stroke="black" points="260,-33.1326 260,-52.1326 412,-52.1326 412,-33.1326 260,-33.1326"/>
<text text-anchor="middle" x="336" y="-40.1326" font-family="Helvetica,sans-Serif" font-size="10.00">copy_problematic_attachments</text>
</a>
</g>
</g>
<!-- Node1&#45;&gt;Node11 -->
<g id="edge23" class="edge"><title>Node1&#45;&gt;Node11</title>
<path fill="none" stroke="midnightblue" d="M54.8433,-180.235C65.9024,-151.969 90.5382,-100.068 130,-74.6326 168.149,-50.0438 218.406,-41.9076 259.611,-39.9852"/>
<polygon fill="midnightblue" stroke="midnightblue" points="51.4885,-179.213 51.2669,-189.806 58.0457,-181.664 51.4885,-179.213"/>
</g>
<!-- Node4&#45;&gt;Node2 -->
<g id="edge4" class="edge"><title>Node4&#45;&gt;Node2</title>
<path fill="none" stroke="midnightblue" d="M183.704,-242.926C193.835,-273.743 217.96,-333.831 260,-365.633 267.82,-371.548 277.279,-375.635 286.806,-378.455"/>
<polygon fill="midnightblue" stroke="midnightblue" points="187.03,-241.835 180.697,-233.341 180.35,-243.93 187.03,-241.835"/>
</g>
<!-- Node4&#45;&gt;Node3 -->
<g id="edge5" class="edge"><title>Node4&#45;&gt;Node3</title>
<path fill="none" stroke="midnightblue" d="M187.69,-242.41C200.841,-265.982 226.584,-305.948 260,-327.633 267.437,-332.458 276.024,-336.059 284.674,-338.745"/>
<polygon fill="midnightblue" stroke="midnightblue" points="190.666,-240.554 182.839,-233.413 184.504,-243.876 190.666,-240.554"/>
</g>
<!-- Node4&#45;&gt;Node4 -->
<g id="edge6" class="edge"><title>Node4&#45;&gt;Node4</title>
<path fill="none" stroke="midnightblue" d="M152.819,-242.662C154.138,-247.761 162.198,-251.633 177,-251.633 200.105,-251.633 206.784,-242.198 197.037,-233.39"/>
<polygon fill="midnightblue" stroke="midnightblue" points="156.078,-243.947 156.963,-233.39 149.687,-241.091 156.078,-243.947"/>
</g>
<!-- Node4&#45;&gt;Node5 -->
<g id="edge7" class="edge"><title>Node4&#45;&gt;Node5</title>
<path fill="none" stroke="midnightblue" d="M196.298,-240.04C212.183,-253.57 236.298,-272.454 260,-284.633 271.43,-290.506 284.579,-295.302 296.642,-299.02"/>
<polygon fill="midnightblue" stroke="midnightblue" points="198.218,-237.071 188.375,-233.151 193.625,-242.353 198.218,-237.071"/>
</g>
<!-- Node4&#45;&gt;Node6 -->
<g id="edge10" class="edge"><title>Node4&#45;&gt;Node6</title>
<path fill="none" stroke="midnightblue" d="M221.191,-235.971C233.694,-239.482 247.375,-243.265 260,-246.633 332.493,-265.968 417.454,-287.136 465.882,-299.061"/>
<polygon fill="midnightblue" stroke="midnightblue" points="222.034,-232.572 211.46,-233.227 220.134,-239.309 222.034,-232.572"/>
</g>
<!-- Node4&#45;&gt;Node7 -->
<g id="edge9" class="edge"><title>Node4&#45;&gt;Node7</title>
<path fill="none" stroke="midnightblue" d="M202.971,-209.09C218.943,-200.155 240.291,-188.881 260,-180.633 275.512,-174.141 293.432,-168.347 307.865,-164.079"/>
<polygon fill="midnightblue" stroke="midnightblue" points="201.214,-206.063 194.242,-214.04 204.667,-212.152 201.214,-206.063"/>
</g>
<!-- Node4&#45;&gt;Node8 -->
<g id="edge11" class="edge"><title>Node4&#45;&gt;Node8</title>
<path fill="none" stroke="midnightblue" d="M193.1,-206.227C209.008,-188.276 235.153,-159.848 260,-137.633 280.117,-119.646 305.458,-101.167 320.933,-90.3013"/>
<polygon fill="midnightblue" stroke="midnightblue" points="190.133,-204.301 186.163,-214.124 195.392,-208.921 190.133,-204.301"/>
</g>
<!-- Node4&#45;&gt;Node9 -->
<g id="edge17" class="edge"><title>Node4&#45;&gt;Node9</title>
<path fill="none" stroke="midnightblue" d="M234.352,-212.765C302.494,-199.523 408.579,-178.546 412,-175.633 446.375,-146.357 417.849,-114.243 448,-80.6326 455.637,-72.1198 466.355,-65.7627 476.44,-61.2045"/>
<polygon fill="midnightblue" stroke="midnightblue" points="233.327,-209.398 224.176,-214.739 234.66,-216.27 233.327,-209.398"/>
</g>
<!-- Node4&#45;&gt;Node10 -->
<g id="edge18" class="edge"><title>Node4&#45;&gt;Node10</title>
<path fill="none" stroke="midnightblue" d="M234.459,-231.877C283.942,-236.431 356.438,-236.454 412,-208.633 456.931,-186.135 488.859,-131.276 500.329,-109.133"/>
<polygon fill="midnightblue" stroke="midnightblue" points="234.566,-228.37 224.264,-230.845 233.861,-235.334 234.566,-228.37"/>
</g>
<!-- Node4&#45;&gt;Node11 -->
<g id="edge14" class="edge"><title>Node4&#45;&gt;Node11</title>
<path fill="none" stroke="midnightblue" d="M182.287,-204.071C190.845,-169.792 213.372,-98.9675 260,-61.6326 264.823,-57.7707 270.335,-54.6832 276.131,-52.2165"/>
<polygon fill="midnightblue" stroke="midnightblue" points="178.874,-203.292 179.986,-213.828 185.688,-204.898 178.874,-203.292"/>
</g>
<!-- Node5&#45;&gt;Node6 -->
<g id="edge8" class="edge"><title>Node5&#45;&gt;Node6</title>
<path fill="none" stroke="midnightblue" d="M403.866,-308.633C420.013,-308.633 437.042,-308.633 452.427,-308.633"/>
<polygon fill="midnightblue" stroke="midnightblue" points="403.409,-305.133 393.409,-308.633 403.409,-312.133 403.409,-305.133"/>
</g>
<!-- Node8&#45;&gt;Node9 -->
<g id="edge12" class="edge"><title>Node8&#45;&gt;Node9</title>
<path fill="none" stroke="midnightblue" d="M396.931,-70.2874C414.215,-67.3038 432.985,-64.0638 449.957,-61.1341"/>
<polygon fill="midnightblue" stroke="midnightblue" points="396.21,-66.8601 386.951,-72.0102 397.4,-73.758 396.21,-66.8601"/>
</g>
<!-- Node8&#45;&gt;Node10 -->
<g id="edge13" class="edge"><title>Node8&#45;&gt;Node10</title>
<path fill="none" stroke="midnightblue" d="M396.988,-87.4169C417.182,-89.7008 439.398,-92.2133 458.403,-94.3627"/>
<polygon fill="midnightblue" stroke="midnightblue" points="397.281,-83.9278 386.951,-86.2818 396.494,-90.8835 397.281,-83.9278"/>
</g>
<!-- Node11&#45;&gt;Node9 -->
<g id="edge15" class="edge"><title>Node11&#45;&gt;Node9</title>
<path fill="none" stroke="midnightblue" d="M422.152,-47.1943C431.018,-47.6693 439.867,-48.1433 448.304,-48.5953"/>
<polygon fill="midnightblue" stroke="midnightblue" points="422.328,-43.6988 412.155,-46.6588 421.954,-50.6888 422.328,-43.6988"/>
</g>
<!-- Node11&#45;&gt;Node10 -->
<g id="edge16" class="edge"><title>Node11&#45;&gt;Node10</title>
<path fill="none" stroke="midnightblue" d="M388.77,-54.7379C396.605,-56.8607 404.554,-59.1816 412,-61.6326 437.182,-69.922 465.247,-81.7642 483.893,-90.018"/>
<polygon fill="midnightblue" stroke="midnightblue" points="389.513,-51.3145 378.952,-52.1601 387.736,-58.085 389.513,-51.3145"/>
</g>
</g>
</svg>
