<?xml version="1.0" encoding="UTF-8" standalone="no"?>
<!DOCTYPE svg PUBLIC "-//W3C//DTD SVG 1.1//EN"
 "http://www.w3.org/Graphics/SVG/1.1/DTD/svg11.dtd">
<!-- Generated by graphviz version 2.36.0 (20140111.2315)
 -->
<!-- Title: qp_decode_triple Pages: 1 -->
<svg width="218pt" height="28pt"
 viewBox="0.00 0.00 218.00 28.00" xmlns="http://www.w3.org/2000/svg" xmlns:xlink="http://www.w3.org/1999/xlink">
<g id="graph0" class="graph" transform="scale(1 1) rotate(0) translate(4 24)">
<title>qp_decode_triple</title>
<polygon fill="white" stroke="none" points="-4,4 -4,-24 214,-24 214,4 -4,4"/>
<!-- Node1 -->
<g id="node1" class="node"><title>Node1</title>
<polygon fill="#bfbfbf" stroke="black" points="0,-0.5 0,-19.5 90,-19.5 90,-0.5 0,-0.5"/>
<text text-anchor="middle" x="45" y="-7.5" font-family="Helvetica,sans-Serif" font-size="10.00">qp_decode_triple</text>
</g>
<!-- Node2 -->
<g id="node2" class="node"><title>Node2</title>
<g id="a_node2"><a xlink:href="handler_8c.html#ad9dfa15d279adb0b36f48b69960b73f0" target="_top" xlink:title="Decode a line of quoted&#45;printable text. ">
<polygon fill="white" stroke="red" points="126,-0.5 126,-19.5 210,-19.5 210,-0.5 126,-0.5"/>
<text text-anchor="middle" x="168" y="-7.5" font-family="Helvetica,sans-Serif" font-size="10.00">qp_decode_line</text>
</a>
</g>
</g>
<!-- Node1&#45;&gt;Node2 -->
<g id="edge1" class="edge"><title>Node1&#45;&gt;Node2</title>
<path fill="none" stroke="midnightblue" d="M100.279,-10C108.79,-10 117.466,-10 125.626,-10"/>
<polygon fill="midnightblue" stroke="midnightblue" points="100.026,-6.5001 90.0261,-10 100.026,-13.5001 100.026,-6.5001"/>
</g>
</g>
</svg>
