<?xml version="1.0" encoding="UTF-8" standalone="no"?>
<!DOCTYPE svg PUBLIC "-//W3C//DTD SVG 1.1//EN"
 "http://www.w3.org/Graphics/SVG/1.1/DTD/svg11.dtd">
<!-- Generated by graphviz version 2.36.0 (20140111.2315)
 -->
<!-- Title: is_mmnoask Pages: 1 -->
<svg width="230pt" height="218pt"
 viewBox="0.00 0.00 230.00 218.00" xmlns="http://www.w3.org/2000/svg" xmlns:xlink="http://www.w3.org/1999/xlink">
<g id="graph0" class="graph" transform="scale(1 1) rotate(0) translate(4 214)">
<title>is_mmnoask</title>
<polygon fill="white" stroke="none" points="-4,4 -4,-214 226,-214 226,4 -4,4"/>
<!-- Node1 -->
<g id="node1" class="node"><title>Node1</title>
<polygon fill="#bfbfbf" stroke="black" points="0,-95.5 0,-114.5 72,-114.5 72,-95.5 0,-95.5"/>
<text text-anchor="middle" x="36" y="-102.5" font-family="Helvetica,sans-Serif" font-size="10.00">is_mmnoask</text>
</g>
<!-- Node2 -->
<g id="node2" class="node"><title>Node2</title>
<g id="a_node2"><a xlink:href="mutt_2string_8c.html#ad000586e39822e85693adda33c02e485" target="_top" xlink:title="Get an environment variable. ">
<polygon fill="white" stroke="black" points="121.5,-190.5 121.5,-209.5 208.5,-209.5 208.5,-190.5 121.5,-190.5"/>
<text text-anchor="middle" x="165" y="-197.5" font-family="Helvetica,sans-Serif" font-size="10.00">mutt_str_getenv</text>
</a>
</g>
</g>
<!-- Node1&#45;&gt;Node2 -->
<g id="edge1" class="edge"><title>Node1&#45;&gt;Node2</title>
<path fill="none" stroke="midnightblue" d="M43.5109,-114.596C54.8235,-130.576 79.6322,-162.687 108,-181 111.116,-183.012 114.468,-184.834 117.926,-186.48"/>
<polygon fill="midnightblue" stroke="midnightblue" points="116.671,-189.749 127.244,-190.436 119.407,-183.306 116.671,-189.749"/>
</g>
<!-- Node3 -->
<g id="node3" class="node"><title>Node3</title>
<g id="a_node3"><a xlink:href="mutt_2string_8c.html#ab4aaf8bd2ce3982651f0f949d6c665e2" target="_top" xlink:title="Compare two strings, safely. ">
<polygon fill="white" stroke="black" points="121,-152.5 121,-171.5 209,-171.5 209,-152.5 121,-152.5"/>
<text text-anchor="middle" x="165" y="-159.5" font-family="Helvetica,sans-Serif" font-size="10.00">mutt_str_strcmp</text>
</a>
</g>
</g>
<!-- Node1&#45;&gt;Node3 -->
<g id="edge2" class="edge"><title>Node1&#45;&gt;Node3</title>
<path fill="none" stroke="midnightblue" d="M52.9799,-114.532C67.1293,-122.733 88.5041,-134.544 108,-143 112.821,-145.091 117.953,-147.106 123.079,-148.991"/>
<polygon fill="midnightblue" stroke="midnightblue" points="122.251,-152.41 132.846,-152.442 124.583,-145.81 122.251,-152.41"/>
</g>
<!-- Node4 -->
<g id="node4" class="node"><title>Node4</title>
<g id="a_node4"><a xlink:href="mutt_2string_8c.html#a3b8965b21d6e21536750f8883cd4333a" target="_top" xlink:title="Copy a string into a buffer (guaranteeing NUL&#45;termination) ">
<polygon fill="white" stroke="black" points="121,-114.5 121,-133.5 209,-133.5 209,-114.5 121,-114.5"/>
<text text-anchor="middle" x="165" y="-121.5" font-family="Helvetica,sans-Serif" font-size="10.00">mutt_str_strfcpy</text>
</a>
</g>
</g>
<!-- Node1&#45;&gt;Node4 -->
<g id="edge3" class="edge"><title>Node1&#45;&gt;Node4</title>
<path fill="none" stroke="midnightblue" d="M72.0395,-110.242C84.0919,-112.045 97.869,-114.106 111.026,-116.075"/>
<polygon fill="midnightblue" stroke="midnightblue" points="110.52,-119.538 120.927,-117.556 111.555,-112.615 110.52,-119.538"/>
</g>
<!-- Node5 -->
<g id="node5" class="node"><title>Node5</title>
<g id="a_node5"><a xlink:href="mutt_2string_8c.html#a0ab98e8f251c9db11831b77a1681edc3" target="_top" xlink:title="Compare two strings ignoring case (to a maximum), safely. ">
<polygon fill="white" stroke="black" points="108,-76.5 108,-95.5 222,-95.5 222,-76.5 108,-76.5"/>
<text text-anchor="middle" x="165" y="-83.5" font-family="Helvetica,sans-Serif" font-size="10.00">mutt_str_strncasecmp</text>
</a>
</g>
</g>
<!-- Node1&#45;&gt;Node5 -->
<g id="edge4" class="edge"><title>Node1&#45;&gt;Node5</title>
<path fill="none" stroke="midnightblue" d="M72.0395,-99.7579C80.0412,-98.5608 88.8031,-97.2499 97.6389,-95.928"/>
<polygon fill="midnightblue" stroke="midnightblue" points="98.2378,-99.3775 107.61,-94.4363 97.202,-92.4545 98.2378,-99.3775"/>
</g>
<!-- Node6 -->
<g id="node6" class="node"><title>Node6</title>
<g id="a_node6"><a xlink:href="mutt_2string_8c.html#a011e5b6fad43bc608584d585987cf9c1" target="_top" xlink:title="Compare two strings ignoring case, safely. ">
<polygon fill="white" stroke="black" points="110.5,-38.5 110.5,-57.5 219.5,-57.5 219.5,-38.5 110.5,-38.5"/>
<text text-anchor="middle" x="165" y="-45.5" font-family="Helvetica,sans-Serif" font-size="10.00">mutt_str_strcasecmp</text>
</a>
</g>
</g>
<!-- Node1&#45;&gt;Node6 -->
<g id="edge5" class="edge"><title>Node1&#45;&gt;Node6</title>
<path fill="none" stroke="midnightblue" d="M52.9799,-95.468C67.1293,-87.2672 88.5041,-75.4563 108,-67 112.821,-64.9088 117.953,-62.8943 123.079,-61.0093"/>
<polygon fill="midnightblue" stroke="midnightblue" points="124.583,-64.19 132.846,-57.5581 122.251,-57.59 124.583,-64.19"/>
</g>
<!-- Node7 -->
<g id="node7" class="node"><title>Node7</title>
<g id="a_node7"><a xlink:href="mutt_2string_8c.html#aca11f88d08a860c07419df3efb18f35a" target="_top" xlink:title="Calculate the length of a string, safely. ">
<polygon fill="white" stroke="black" points="124,-0.5 124,-19.5 206,-19.5 206,-0.5 124,-0.5"/>
<text text-anchor="middle" x="165" y="-7.5" font-family="Helvetica,sans-Serif" font-size="10.00">mutt_str_strlen</text>
</a>
</g>
</g>
<!-- Node1&#45;&gt;Node7 -->
<g id="edge6" class="edge"><title>Node1&#45;&gt;Node7</title>
<path fill="none" stroke="midnightblue" d="M43.5109,-95.4039C54.8235,-79.4244 79.6322,-47.3132 108,-29 111.116,-26.9885 114.468,-25.1663 117.926,-23.5201"/>
<polygon fill="midnightblue" stroke="midnightblue" points="119.407,-26.694 127.244,-19.5644 116.671,-20.2506 119.407,-26.694"/>
</g>
</g>
</svg>
