<?xml version="1.0" encoding="UTF-8" standalone="no"?>
<!DOCTYPE svg PUBLIC "-//W3C//DTD SVG 1.1//EN"
 "http://www.w3.org/Graphics/SVG/1.1/DTD/svg11.dtd">
<!-- Generated by graphviz version 2.36.0 (20140111.2315)
 -->
<!-- Title: multipart_handler Pages: 1 -->
<svg width="526pt" height="356pt"
 viewBox="0.00 0.00 526.00 356.47" xmlns="http://www.w3.org/2000/svg" xmlns:xlink="http://www.w3.org/1999/xlink">
<g id="graph0" class="graph" transform="scale(1 1) rotate(0) translate(4 352.471)">
<title>multipart_handler</title>
<polygon fill="white" stroke="none" points="-4,4 -4,-352.471 522,-352.471 522,4 -4,4"/>
<!-- Node1 -->
<g id="node1" class="node"><title>Node1</title>
<polygon fill="#bfbfbf" stroke="black" points="0.5,-138.971 0.5,-157.971 91.5,-157.971 91.5,-138.971 0.5,-138.971"/>
<text text-anchor="middle" x="46" y="-145.971" font-family="Helvetica,sans-Serif" font-size="10.00">multipart_handler</text>
</g>
<!-- Node2 -->
<g id="node2" class="node"><title>Node2</title>
<g id="a_node2"><a xlink:href="body_8c.html#aee001296b775e82e3988b5a81e53e30c" target="_top" xlink:title="Create a new Body. ">
<polygon fill="white" stroke="red" points="140,-328.971 140,-347.971 226,-347.971 226,-328.971 140,-328.971"/>
<text text-anchor="middle" x="183" y="-335.971" font-family="Helvetica,sans-Serif" font-size="10.00">mutt_body_new</text>
</a>
</g>
</g>
<!-- Node1&#45;&gt;Node2 -->
<g id="edge1" class="edge"><title>Node1&#45;&gt;Node2</title>
<path fill="none" stroke="midnightblue" d="M49.212,-158.094C56.0785,-185.963 79.5392,-267.711 128,-314.471 131.968,-318.299 136.651,-321.579 141.572,-324.37"/>
<polygon fill="midnightblue" stroke="midnightblue" points="140.078,-327.536 150.588,-328.881 143.211,-321.276 140.078,-327.536"/>
</g>
<!-- Node3 -->
<g id="node3" class="node"><title>Node3</title>
<g id="a_node3"><a xlink:href="parse_8c.html#ad5c83c39801d48f7bb7af082d599a687" target="_top" xlink:title="parse a multipart structure ">
<polygon fill="white" stroke="red" points="129,-214.971 129,-233.971 237,-233.971 237,-214.971 129,-214.971"/>
<text text-anchor="middle" x="183" y="-221.971" font-family="Helvetica,sans-Serif" font-size="10.00">mutt_parse_multipart</text>
</a>
</g>
</g>
<!-- Node1&#45;&gt;Node3 -->
<g id="edge2" class="edge"><title>Node1&#45;&gt;Node3</title>
<path fill="none" stroke="midnightblue" d="M60.6561,-158.153C76.4502,-169.133 103.435,-187.227 128,-200.471 134.705,-204.085 142.063,-207.622 149.132,-210.823"/>
<polygon fill="midnightblue" stroke="midnightblue" points="147.94,-214.122 158.502,-214.953 150.764,-207.717 147.94,-214.122"/>
</g>
<!-- Node4 -->
<g id="node4" class="node"><title>Node4</title>
<g id="a_node4"><a xlink:href="parameter_8c.html#a4e936faaaa08c332e3414247583a0ffa" target="_top" xlink:title="Find a matching Parameter. ">
<polygon fill="white" stroke="black" points="279.5,-166.971 279.5,-185.971 366.5,-185.971 366.5,-166.971 279.5,-166.971"/>
<text text-anchor="middle" x="323" y="-173.971" font-family="Helvetica,sans-Serif" font-size="10.00">mutt_param_get</text>
</a>
</g>
</g>
<!-- Node1&#45;&gt;Node4 -->
<g id="edge7" class="edge"><title>Node1&#45;&gt;Node4</title>
<path fill="none" stroke="midnightblue" d="M91.8693,-157.041C103.594,-159.057 116.243,-161.034 128,-162.471 175.692,-168.298 230.299,-171.973 269.402,-174.087"/>
<polygon fill="midnightblue" stroke="midnightblue" points="269.327,-177.588 279.497,-174.617 269.694,-170.598 269.327,-177.588"/>
</g>
<!-- Node5 -->
<g id="node5" class="node"><title>Node5</title>
<g id="a_node5"><a xlink:href="mutt_2string_8c.html#a011e5b6fad43bc608584d585987cf9c1" target="_top" xlink:title="Compare two strings ignoring case, safely. ">
<polygon fill="white" stroke="black" points="408.5,-166.971 408.5,-185.971 517.5,-185.971 517.5,-166.971 408.5,-166.971"/>
<text text-anchor="middle" x="463" y="-173.971" font-family="Helvetica,sans-Serif" font-size="10.00">mutt_str_strcasecmp</text>
</a>
</g>
</g>
<!-- Node1&#45;&gt;Node5 -->
<g id="edge8" class="edge"><title>Node1&#45;&gt;Node5</title>
<path fill="none" stroke="midnightblue" d="M50.3653,-158.228C58.994,-181.549 84.3513,-240.366 128,-264.471 222.969,-316.917 272.339,-314.338 372,-271.471 408.158,-255.918 436.596,-217.906 451.202,-194.957"/>
<polygon fill="midnightblue" stroke="midnightblue" points="454.356,-196.508 456.598,-186.153 448.388,-192.85 454.356,-196.508"/>
</g>
<!-- Node6 -->
<g id="node6" class="node"><title>Node6</title>
<g id="a_node6"><a xlink:href="body_8c.html#a43826190bac1662a61f5b08d915ee000" target="_top" xlink:title="Free a Body. ">
<polygon fill="white" stroke="red" points="281,-224.971 281,-243.971 365,-243.971 365,-224.971 281,-224.971"/>
<text text-anchor="middle" x="323" y="-231.971" font-family="Helvetica,sans-Serif" font-size="10.00">mutt_body_free</text>
</a>
</g>
</g>
<!-- Node1&#45;&gt;Node6 -->
<g id="edge22" class="edge"><title>Node1&#45;&gt;Node6</title>
<path fill="none" stroke="midnightblue" d="M51.589,-158.121C61.8891,-178.492 89.0345,-225.487 128,-243.471 177.389,-266.264 241.574,-256.755 282.292,-246.604"/>
<polygon fill="midnightblue" stroke="midnightblue" points="283.329,-249.951 292.115,-244.029 281.554,-243.18 283.329,-249.951"/>
</g>
<!-- Node7 -->
<g id="node7" class="node"><title>Node7</title>
<g id="a_node7"><a xlink:href="state_8c.html#a6c4ef22b21b511fab506f66b908dae21" target="_top" xlink:title="Write a unique marker around content. ">
<polygon fill="white" stroke="red" points="274,-109.971 274,-128.971 372,-128.971 372,-109.971 274,-109.971"/>
<text text-anchor="middle" x="323" y="-116.971" font-family="Helvetica,sans-Serif" font-size="10.00">state_mark_attach</text>
</a>
</g>
</g>
<!-- Node1&#45;&gt;Node7 -->
<g id="edge9" class="edge"><title>Node1&#45;&gt;Node7</title>
<path fill="none" stroke="midnightblue" d="M91.7921,-144.262C130.516,-140.564 187.979,-134.935 238,-129.471 246.29,-128.565 255.035,-127.569 263.625,-126.567"/>
<polygon fill="midnightblue" stroke="midnightblue" points="264.079,-130.038 273.601,-125.394 263.261,-123.086 264.079,-130.038"/>
</g>
<!-- Node8 -->
<g id="node8" class="node"><title>Node8</title>
<g id="a_node8"><a xlink:href="state_8c.html#a274bd2d5df990d61848a6be9b18840f7" target="_top" xlink:title="Write a formatted string to the State. ">
<polygon fill="white" stroke="black" points="290.5,-71.9705 290.5,-90.9705 355.5,-90.9705 355.5,-71.9705 290.5,-71.9705"/>
<text text-anchor="middle" x="323" y="-78.9705" font-family="Helvetica,sans-Serif" font-size="10.00">state_printf</text>
</a>
</g>
</g>
<!-- Node1&#45;&gt;Node8 -->
<g id="edge10" class="edge"><title>Node1&#45;&gt;Node8</title>
<path fill="none" stroke="midnightblue" d="M49.4041,-138.731C56.3628,-112.923 79.2099,-42.8825 128,-15.4705 170.622,8.47631 191.797,0.509573 238,-15.4705 265.762,-25.0724 291.326,-48.0579 306.785,-64.19"/>
<polygon fill="midnightblue" stroke="midnightblue" points="304.548,-66.9262 313.906,-71.8943 309.688,-62.1749 304.548,-66.9262"/>
</g>
<!-- Node9 -->
<g id="node9" class="node"><title>Node9</title>
<g id="a_node9"><a xlink:href="handler_8c.html#a65fb47883fc038b1b14a50c8064d5407" target="_top" xlink:title="Print a separator for the Mime part. ">
<polygon fill="white" stroke="red" points="144.5,-100.971 144.5,-119.971 221.5,-119.971 221.5,-100.971 144.5,-100.971"/>
<text text-anchor="middle" x="183" y="-107.971" font-family="Helvetica,sans-Serif" font-size="10.00">print_part_line</text>
</a>
</g>
</g>
<!-- Node1&#45;&gt;Node9 -->
<g id="edge11" class="edge"><title>Node1&#45;&gt;Node9</title>
<path fill="none" stroke="midnightblue" d="M81.0662,-138.881C98.4135,-133.999 119.702,-128.006 138.249,-122.786"/>
<polygon fill="midnightblue" stroke="midnightblue" points="139.267,-126.135 147.945,-120.056 137.37,-119.397 139.267,-126.135"/>
</g>
<!-- Node10 -->
<g id="node10" class="node"><title>Node10</title>
<g id="a_node10"><a xlink:href="file_8c.html#aea32dff0f06cb42cf6acfce282df1c95" target="_top" xlink:title="Copy some content from one file to another. ">
<polygon fill="white" stroke="black" points="128,-24.9705 128,-43.9705 238,-43.9705 238,-24.9705 128,-24.9705"/>
<text text-anchor="middle" x="183" y="-31.9705" font-family="Helvetica,sans-Serif" font-size="10.00">mutt_file_copy_bytes</text>
</a>
</g>
</g>
<!-- Node1&#45;&gt;Node10 -->
<g id="edge15" class="edge"><title>Node1&#45;&gt;Node10</title>
<path fill="none" stroke="midnightblue" d="M52.6699,-138.933C64.3964,-119.99 93.1543,-77.3891 128,-53.4705 130.873,-51.4985 133.972,-49.7102 137.181,-48.0924"/>
<polygon fill="midnightblue" stroke="midnightblue" points="138.712,-51.2418 146.421,-43.9731 135.862,-44.8483 138.712,-51.2418"/>
</g>
<!-- Node11 -->
<g id="node11" class="node"><title>Node11</title>
<g id="a_node11"><a xlink:href="handler_8c.html#adae8bf0eec9bee0bd62f639bbcf8599f" target="_top" xlink:title="Handler for the Body of an email. ">
<polygon fill="white" stroke="red" points="133.5,-62.9705 133.5,-81.9705 232.5,-81.9705 232.5,-62.9705 133.5,-62.9705"/>
<text text-anchor="middle" x="183" y="-69.9705" font-family="Helvetica,sans-Serif" font-size="10.00">mutt_body_handler</text>
</a>
</g>
</g>
<!-- Node1&#45;&gt;Node11 -->
<g id="edge16" class="edge"><title>Node1&#45;&gt;Node11</title>
<path fill="none" stroke="midnightblue" d="M52.9287,-138.584C64.7224,-124.919 92.3913,-102.381 124.33,-84.6776"/>
<polygon fill="midnightblue" stroke="midnightblue" points="126.262,-87.6144 133.442,-79.8239 122.971,-81.4362 126.262,-87.6144"/>
</g>
<!-- Node3&#45;&gt;Node4 -->
<g id="edge3" class="edge"><title>Node3&#45;&gt;Node4</title>
<path fill="none" stroke="midnightblue" d="M211.595,-214.872C232.655,-207.547 261.881,-197.381 284.974,-189.349"/>
<polygon fill="midnightblue" stroke="midnightblue" points="286.158,-192.643 294.453,-186.052 283.858,-186.032 286.158,-192.643"/>
</g>
<!-- Node3&#45;&gt;Node6 -->
<g id="edge5" class="edge"><title>Node3&#45;&gt;Node6</title>
<path fill="none" stroke="midnightblue" d="M237.354,-228.337C248.275,-229.128 259.748,-229.959 270.598,-230.746"/>
<polygon fill="midnightblue" stroke="midnightblue" points="270.545,-234.251 280.772,-231.483 271.051,-227.269 270.545,-234.251"/>
</g>
<!-- Node4&#45;&gt;Node5 -->
<g id="edge4" class="edge"><title>Node4&#45;&gt;Node5</title>
<path fill="none" stroke="midnightblue" d="M366.531,-176.471C376.493,-176.471 387.323,-176.471 397.993,-176.471"/>
<polygon fill="midnightblue" stroke="midnightblue" points="398.141,-179.971 408.141,-176.471 398.141,-172.971 398.141,-179.971"/>
</g>
<!-- Node6&#45;&gt;Node6 -->
<g id="edge6" class="edge"><title>Node6&#45;&gt;Node6</title>
<path fill="none" stroke="midnightblue" d="M301.422,-244.228C290.924,-253.036 298.117,-262.471 323,-262.471 338.941,-262.471 347.621,-258.598 349.042,-253.5"/>
<polygon fill="midnightblue" stroke="midnightblue" points="352.069,-251.72 344.578,-244.228 345.762,-254.756 352.069,-251.72"/>
</g>
<!-- Node9&#45;&gt;Node4 -->
<g id="edge13" class="edge"><title>Node9&#45;&gt;Node4</title>
<path fill="none" stroke="midnightblue" d="M204.066,-120.067C227.369,-131.212 266.011,-149.693 292.677,-162.447"/>
<polygon fill="midnightblue" stroke="midnightblue" points="291.378,-165.705 301.909,-166.862 294.398,-159.39 291.378,-165.705"/>
</g>
<!-- Node9&#45;&gt;Node7 -->
<g id="edge12" class="edge"><title>Node9&#45;&gt;Node7</title>
<path fill="none" stroke="midnightblue" d="M221.709,-112.93C234.681,-113.776 249.525,-114.744 263.744,-115.671"/>
<polygon fill="midnightblue" stroke="midnightblue" points="263.746,-119.179 273.952,-116.337 264.201,-112.193 263.746,-119.179"/>
</g>
<!-- Node9&#45;&gt;Node8 -->
<g id="edge14" class="edge"><title>Node9&#45;&gt;Node8</title>
<path fill="none" stroke="midnightblue" d="M221.709,-102.546C239.889,-98.7257 261.746,-94.1325 280.409,-90.2106"/>
<polygon fill="midnightblue" stroke="midnightblue" points="281.338,-93.5918 290.405,-88.11 279.899,-86.7415 281.338,-93.5918"/>
</g>
<!-- Node11&#45;&gt;Node1 -->
<g id="edge19" class="edge"><title>Node11&#45;&gt;Node1</title>
<path fill="none" stroke="midnightblue" d="M171.294,-82.011C160.135,-87.4465 142.312,-93.0963 128,-100.471 109.855,-109.819 91.1223,-122.754 76.2476,-133.041"/>
<polygon fill="midnightblue" stroke="midnightblue" points="74.2178,-130.189 67.969,-138.745 78.1895,-135.953 74.2178,-130.189"/>
</g>
<!-- Node11&#45;&gt;Node4 -->
<g id="edge18" class="edge"><title>Node11&#45;&gt;Node4</title>
<path fill="none" stroke="midnightblue" d="M220.593,-82.0819C226.717,-84.5842 232.772,-87.6765 238,-91.4705 259.296,-106.924 255.544,-119.717 274,-138.471 281.746,-146.342 291.112,-154.084 299.507,-160.504"/>
<polygon fill="midnightblue" stroke="midnightblue" points="297.681,-163.509 307.794,-166.667 301.858,-157.891 297.681,-163.509"/>
</g>
<!-- Node11&#45;&gt;Node5 -->
<g id="edge17" class="edge"><title>Node11&#45;&gt;Node5</title>
<path fill="none" stroke="midnightblue" d="M212.111,-62.8977C250.391,-51.5986 320.086,-37.3126 372,-62.4705 412.846,-82.2648 440.748,-130.585 453.714,-157.529"/>
<polygon fill="midnightblue" stroke="midnightblue" points="450.58,-159.092 457.948,-166.705 456.936,-156.159 450.58,-159.092"/>
</g>
<!-- Node11&#45;&gt;Node7 -->
<g id="edge20" class="edge"><title>Node11&#45;&gt;Node7</title>
<path fill="none" stroke="midnightblue" d="M211.926,-81.9817C232.645,-89.0381 261.132,-98.7402 283.935,-106.506"/>
<polygon fill="midnightblue" stroke="midnightblue" points="283.047,-109.901 293.642,-109.812 285.304,-103.275 283.047,-109.901"/>
</g>
<!-- Node11&#45;&gt;Node8 -->
<g id="edge21" class="edge"><title>Node11&#45;&gt;Node8</title>
<path fill="none" stroke="midnightblue" d="M232.654,-75.6436C248.164,-76.6551 265.18,-77.7649 280.164,-78.742"/>
<polygon fill="midnightblue" stroke="midnightblue" points="279.961,-82.2362 290.168,-79.3945 280.417,-75.251 279.961,-82.2362"/>
</g>
</g>
</svg>
