<?xml version="1.0" encoding="UTF-8" standalone="no"?>
<!DOCTYPE svg PUBLIC "-//W3C//DTD SVG 1.1//EN"
 "http://www.w3.org/Graphics/SVG/1.1/DTD/svg11.dtd">
<!-- Generated by graphviz version 2.36.0 (20140111.2315)
 -->
<!-- Title: mutt_hash_int_find Pages: 1 -->
<svg width="256pt" height="66pt"
 viewBox="0.00 0.00 256.00 66.00" xmlns="http://www.w3.org/2000/svg" xmlns:xlink="http://www.w3.org/1999/xlink">
<g id="graph0" class="graph" transform="scale(1 1) rotate(0) translate(4 62)">
<title>mutt_hash_int_find</title>
<polygon fill="white" stroke="none" points="-4,4 -4,-62 252,-62 252,4 -4,4"/>
<!-- Node1 -->
<g id="node1" class="node"><title>Node1</title>
<polygon fill="#bfbfbf" stroke="black" points="0.5,-19.5 0.5,-38.5 99.5,-38.5 99.5,-19.5 0.5,-19.5"/>
<text text-anchor="middle" x="50" y="-26.5" font-family="Helvetica,sans-Serif" font-size="10.00">mutt_hash_int_find</text>
</g>
<!-- Node2 -->
<g id="node2" class="node"><title>Node2</title>
<g id="a_node2"><a xlink:href="imap_2command_8c.html#a8f58f4424fce81a244f64125d44b61b1" target="_top" xlink:title="store SEARCH response for later use ">
<polygon fill="white" stroke="red" points="142.5,-38.5 142.5,-57.5 241.5,-57.5 241.5,-38.5 142.5,-38.5"/>
<text text-anchor="middle" x="192" y="-45.5" font-family="Helvetica,sans-Serif" font-size="10.00">cmd_parse_search</text>
</a>
</g>
</g>
<!-- Node1&#45;&gt;Node2 -->
<g id="edge1" class="edge"><title>Node1&#45;&gt;Node2</title>
<path fill="none" stroke="midnightblue" d="M109.737,-36.9714C120.491,-38.4309 131.609,-39.9397 142.039,-41.3553"/>
<polygon fill="midnightblue" stroke="midnightblue" points="109.952,-33.4686 99.5723,-35.592 109.011,-40.4051 109.952,-33.4686"/>
</g>
<!-- Node3 -->
<g id="node3" class="node"><title>Node3</title>
<g id="a_node3"><a xlink:href="message_8c.html#a2cbef6ffe1a41695a2f341a4678203ba" target="_top" xlink:title="Delete an entry from the message cache &#45; Implements bcache_list_t. ">
<polygon fill="white" stroke="red" points="136.5,-0.5 136.5,-19.5 247.5,-19.5 247.5,-0.5 136.5,-0.5"/>
<text text-anchor="middle" x="192" y="-7.5" font-family="Helvetica,sans-Serif" font-size="10.00">msg_cache_clean_cb</text>
</a>
</g>
</g>
<!-- Node1&#45;&gt;Node3 -->
<g id="edge2" class="edge"><title>Node1&#45;&gt;Node3</title>
<path fill="none" stroke="midnightblue" d="M109.748,-21.027C118.541,-19.8337 127.577,-18.6074 136.282,-17.426"/>
<polygon fill="midnightblue" stroke="midnightblue" points="109.011,-17.5949 99.5723,-22.408 109.952,-24.5314 109.011,-17.5949"/>
</g>
</g>
</svg>
