<?xml version="1.0" encoding="UTF-8" standalone="no"?>
<!DOCTYPE svg PUBLIC "-//W3C//DTD SVG 1.1//EN"
 "http://www.w3.org/Graphics/SVG/1.1/DTD/svg11.dtd">
<!-- Generated by graphviz version 2.36.0 (20140111.2315)
 -->
<!-- Title: mutt_hash_typed_insert Pages: 1 -->
<svg width="370pt" height="142pt"
 viewBox="0.00 0.00 370.00 142.00" xmlns="http://www.w3.org/2000/svg" xmlns:xlink="http://www.w3.org/1999/xlink">
<g id="graph0" class="graph" transform="scale(1 1) rotate(0) translate(4 138)">
<title>mutt_hash_typed_insert</title>
<polygon fill="white" stroke="none" points="-4,4 -4,-138 366,-138 366,4 -4,4"/>
<!-- Node1 -->
<g id="node1" class="node"><title>Node1</title>
<polygon fill="#bfbfbf" stroke="black" points="0.5,-57.5 0.5,-76.5 121.5,-76.5 121.5,-57.5 0.5,-57.5"/>
<text text-anchor="middle" x="61" y="-64.5" font-family="Helvetica,sans-Serif" font-size="10.00">mutt_hash_typed_insert</text>
</g>
<!-- Node2 -->
<g id="node2" class="node"><title>Node2</title>
<g id="a_node2"><a xlink:href="config_2set_8c.html#a94c832681c45e7cde02f1856b83fe038" target="_top" xlink:title="Create an alternative name for a config item. ">
<polygon fill="white" stroke="black" points="162.5,-114.5 162.5,-133.5 251.5,-133.5 251.5,-114.5 162.5,-114.5"/>
<text text-anchor="middle" x="207" y="-121.5" font-family="Helvetica,sans-Serif" font-size="10.00">create_synonym</text>
</a>
</g>
</g>
<!-- Node1&#45;&gt;Node2 -->
<g id="edge1" class="edge"><title>Node1&#45;&gt;Node2</title>
<path fill="none" stroke="midnightblue" d="M95.7033,-80.3409C122.114,-90.795 158.221,-105.087 181.819,-114.428"/>
<polygon fill="midnightblue" stroke="midnightblue" points="96.6886,-76.9667 86.1024,-76.5405 94.1122,-83.4754 96.6886,-76.9667"/>
</g>
<!-- Node3 -->
<g id="node3" class="node"><title>Node3</title>
<g id="a_node3"><a xlink:href="config_2set_8c.html#a12b0e4cd101b1dd514242c109d324e19" target="_top" xlink:title="Register one config item. ">
<polygon fill="white" stroke="red" points="292,-95.5 292,-114.5 362,-114.5 362,-95.5 292,-95.5"/>
<text text-anchor="middle" x="327" y="-102.5" font-family="Helvetica,sans-Serif" font-size="10.00">reg_one_var</text>
</a>
</g>
</g>
<!-- Node1&#45;&gt;Node3 -->
<g id="edge3" class="edge"><title>Node1&#45;&gt;Node3</title>
<path fill="none" stroke="midnightblue" d="M131.66,-77.0267C183.242,-84.4515 251.312,-94.2494 291.688,-100.061"/>
<polygon fill="midnightblue" stroke="midnightblue" points="131.973,-73.5358 121.576,-75.5753 130.975,-80.4644 131.973,-73.5358"/>
</g>
<!-- Node4 -->
<g id="node4" class="node"><title>Node4</title>
<g id="a_node4"><a xlink:href="config_2set_8h.html#a02909ed6e22b4c2c4cb5e588bec0941e" target="_top" xlink:title="Create in inherited config item. ">
<polygon fill="white" stroke="red" points="158,-38.5 158,-57.5 256,-57.5 256,-38.5 158,-38.5"/>
<text text-anchor="middle" x="207" y="-45.5" font-family="Helvetica,sans-Serif" font-size="10.00">cs_inherit_variable</text>
</a>
</g>
</g>
<!-- Node1&#45;&gt;Node4 -->
<g id="edge4" class="edge"><title>Node1&#45;&gt;Node4</title>
<path fill="none" stroke="midnightblue" d="M131.783,-57.7925C140.652,-56.6224 149.565,-55.4463 157.984,-54.3354"/>
<polygon fill="midnightblue" stroke="midnightblue" points="131.274,-54.3292 121.818,-59.1074 132.19,-61.2691 131.274,-54.3292"/>
</g>
<!-- Node5 -->
<g id="node5" class="node"><title>Node5</title>
<g id="a_node5"><a xlink:href="hash_8h.html#a9b87f06a415a57b428ec196857a03e9e" target="_top" xlink:title="Add a new element to the Hash table (with string keys) ">
<polygon fill="white" stroke="red" points="161,-0.5 161,-19.5 253,-19.5 253,-0.5 161,-0.5"/>
<text text-anchor="middle" x="207" y="-7.5" font-family="Helvetica,sans-Serif" font-size="10.00">mutt_hash_insert</text>
</a>
</g>
</g>
<!-- Node1&#45;&gt;Node5 -->
<g id="edge5" class="edge"><title>Node1&#45;&gt;Node5</title>
<path fill="none" stroke="midnightblue" d="M95.7033,-53.6591C122.114,-43.205 158.221,-28.9126 181.819,-19.5716"/>
<polygon fill="midnightblue" stroke="midnightblue" points="94.1122,-50.5246 86.1024,-57.4595 96.6886,-57.0333 94.1122,-50.5246"/>
</g>
<!-- Node2&#45;&gt;Node3 -->
<g id="edge2" class="edge"><title>Node2&#45;&gt;Node3</title>
<path fill="none" stroke="midnightblue" d="M261.713,-115.351C271.94,-113.705 282.38,-112.024 291.792,-110.508"/>
<polygon fill="midnightblue" stroke="midnightblue" points="260.92,-111.934 251.604,-116.979 262.033,-118.845 260.92,-111.934"/>
</g>
</g>
</svg>
