<?xml version="1.0" encoding="UTF-8" standalone="no"?>
<!DOCTYPE svg PUBLIC "-//W3C//DTD SVG 1.1//EN"
 "http://www.w3.org/Graphics/SVG/1.1/DTD/svg11.dtd">
<!-- Generated by graphviz version 2.36.0 (20140111.2315)
 -->
<!-- Title: mutt_hash_find_elem Pages: 1 -->
<svg width="234pt" height="180pt"
 viewBox="0.00 0.00 234.00 180.00" xmlns="http://www.w3.org/2000/svg" xmlns:xlink="http://www.w3.org/1999/xlink">
<g id="graph0" class="graph" transform="scale(1 1) rotate(0) translate(4 176)">
<title>mutt_hash_find_elem</title>
<polygon fill="white" stroke="none" points="-4,4 -4,-176 230,-176 230,4 -4,4"/>
<!-- Node1 -->
<g id="node1" class="node"><title>Node1</title>
<polygon fill="#bfbfbf" stroke="black" points="0,-76.5 0,-95.5 110,-95.5 110,-76.5 0,-76.5"/>
<text text-anchor="middle" x="55" y="-83.5" font-family="Helvetica,sans-Serif" font-size="10.00">mutt_hash_find_elem</text>
</g>
<!-- Node2 -->
<g id="node2" class="node"><title>Node2</title>
<g id="a_node2"><a xlink:href="config_2set_8h.html#a6a48e8c12db6f64a6da6b219c3d987d9" target="_top" xlink:title="Get the HashElem representing a config item. ">
<polygon fill="white" stroke="red" points="150,-152.5 150,-171.5 222,-171.5 222,-152.5 150,-152.5"/>
<text text-anchor="middle" x="186" y="-159.5" font-family="Helvetica,sans-Serif" font-size="10.00">cs_get_elem</text>
</a>
</g>
</g>
<!-- Node1&#45;&gt;Node2 -->
<g id="edge1" class="edge"><title>Node1&#45;&gt;Node2</title>
<path fill="none" stroke="midnightblue" d="M78.6508,-101.334C96.5987,-113.241 122.481,-129.877 146,-143 151.788,-146.229 158.205,-149.484 164.135,-152.364"/>
<polygon fill="midnightblue" stroke="midnightblue" points="80.3022,-98.2279 70.043,-95.5821 76.4131,-104.048 80.3022,-98.2279"/>
</g>
<!-- Node3 -->
<g id="node3" class="node"><title>Node3</title>
<g id="a_node3"><a xlink:href="history_8c.html#a1eab49a9aec29422588e5c65406491d9" target="_top" xlink:title="Decrease the refcount of a history string. ">
<polygon fill="white" stroke="red" points="146,-114.5 146,-133.5 226,-133.5 226,-114.5 146,-114.5"/>
<text text-anchor="middle" x="186" y="-121.5" font-family="Helvetica,sans-Serif" font-size="10.00">dup_hash_dec</text>
</a>
</g>
</g>
<!-- Node1&#45;&gt;Node3 -->
<g id="edge2" class="edge"><title>Node1&#45;&gt;Node3</title>
<path fill="none" stroke="midnightblue" d="M98.554,-98.5353C116.103,-103.705 136.113,-109.599 152.458,-114.414"/>
<polygon fill="midnightblue" stroke="midnightblue" points="99.1336,-95.0574 88.5521,-95.589 97.1556,-101.772 99.1336,-95.0574"/>
</g>
<!-- Node4 -->
<g id="node4" class="node"><title>Node4</title>
<g id="a_node4"><a xlink:href="history_8c.html#a922c9ee80c05548351ffc211b937d7f8" target="_top" xlink:title="Increase the refcount of a history string. ">
<polygon fill="white" stroke="red" points="147.5,-76.5 147.5,-95.5 224.5,-95.5 224.5,-76.5 147.5,-76.5"/>
<text text-anchor="middle" x="186" y="-83.5" font-family="Helvetica,sans-Serif" font-size="10.00">dup_hash_inc</text>
</a>
</g>
</g>
<!-- Node1&#45;&gt;Node4 -->
<g id="edge3" class="edge"><title>Node1&#45;&gt;Node4</title>
<path fill="none" stroke="midnightblue" d="M120.577,-86C129.684,-86 138.788,-86 147.165,-86"/>
<polygon fill="midnightblue" stroke="midnightblue" points="120.334,-82.5001 110.334,-86 120.334,-89.5001 120.334,-82.5001"/>
</g>
<!-- Node5 -->
<g id="node5" class="node"><title>Node5</title>
<g id="a_node5"><a xlink:href="mutt__header_8c.html#ad284c1e2d898e1ec17f83597b5eba1a0" target="_top" xlink:title="Decrease the refcount of a label. ">
<polygon fill="white" stroke="red" points="149,-38.5 149,-57.5 223,-57.5 223,-38.5 149,-38.5"/>
<text text-anchor="middle" x="186" y="-45.5" font-family="Helvetica,sans-Serif" font-size="10.00">label_ref_dec</text>
</a>
</g>
</g>
<!-- Node1&#45;&gt;Node5 -->
<g id="edge4" class="edge"><title>Node1&#45;&gt;Node5</title>
<path fill="none" stroke="midnightblue" d="M98.554,-73.4647C116.103,-68.2952 136.113,-62.4009 152.458,-57.5859"/>
<polygon fill="midnightblue" stroke="midnightblue" points="97.1556,-70.2279 88.5521,-76.411 99.1336,-76.9426 97.1556,-70.2279"/>
</g>
<!-- Node6 -->
<g id="node6" class="node"><title>Node6</title>
<g id="a_node6"><a xlink:href="mutt__header_8c.html#a003cf36d33890cd37ecb84aa8c6da54a" target="_top" xlink:title="Increase the refcount of a label. ">
<polygon fill="white" stroke="red" points="150.5,-0.5 150.5,-19.5 221.5,-19.5 221.5,-0.5 150.5,-0.5"/>
<text text-anchor="middle" x="186" y="-7.5" font-family="Helvetica,sans-Serif" font-size="10.00">label_ref_inc</text>
</a>
</g>
</g>
<!-- Node1&#45;&gt;Node6 -->
<g id="edge5" class="edge"><title>Node1&#45;&gt;Node6</title>
<path fill="none" stroke="midnightblue" d="M78.6508,-70.6661C96.5987,-58.7593 122.481,-42.123 146,-29 151.788,-25.7705 158.205,-22.5162 164.135,-19.6357"/>
<polygon fill="midnightblue" stroke="midnightblue" points="76.4131,-67.9519 70.043,-76.4179 80.3022,-73.7721 76.4131,-67.9519"/>
</g>
</g>
</svg>
