<?xml version="1.0" encoding="UTF-8" standalone="no"?>
<!DOCTYPE svg PUBLIC "-//W3C//DTD SVG 1.1//EN"
 "http://www.w3.org/Graphics/SVG/1.1/DTD/svg11.dtd">
<!-- Generated by graphviz version 2.36.0 (20140111.2315)
 -->
<!-- Title: mutt_hash_destroy Pages: 1 -->
<svg width="400pt" height="408pt"
 viewBox="0.00 0.00 400.00 408.00" xmlns="http://www.w3.org/2000/svg" xmlns:xlink="http://www.w3.org/1999/xlink">
<g id="graph0" class="graph" transform="scale(1 1) rotate(0) translate(4 404)">
<title>mutt_hash_destroy</title>
<polygon fill="white" stroke="none" points="-4,4 -4,-404 396,-404 396,4 -4,4"/>
<!-- Node1 -->
<g id="node1" class="node"><title>Node1</title>
<polygon fill="#bfbfbf" stroke="black" points="0,-190.5 0,-209.5 100,-209.5 100,-190.5 0,-190.5"/>
<text text-anchor="middle" x="50" y="-197.5" font-family="Helvetica,sans-Serif" font-size="10.00">mutt_hash_destroy</text>
</g>
<!-- Node2 -->
<g id="node2" class="node"><title>Node2</title>
<g id="a_node2"><a xlink:href="config_2set_8h.html#aca4db85cd890b405fd32257c756a0463" target="_top" xlink:title="Free a Config Set. ">
<polygon fill="white" stroke="red" points="164.5,-380.5 164.5,-399.5 213.5,-399.5 213.5,-380.5 164.5,-380.5"/>
<text text-anchor="middle" x="189" y="-387.5" font-family="Helvetica,sans-Serif" font-size="10.00">cs_free</text>
</a>
</g>
</g>
<!-- Node1&#45;&gt;Node2 -->
<g id="edge1" class="edge"><title>Node1&#45;&gt;Node2</title>
<path fill="none" stroke="midnightblue" d="M55.6178,-219.643C64.8735,-254.842 88.9595,-328.911 136,-371 143.879,-378.05 154.588,-382.549 164.24,-385.388"/>
<polygon fill="midnightblue" stroke="midnightblue" points="58.9453,-218.522 53.1235,-209.67 52.1545,-220.22 58.9453,-218.522"/>
</g>
<!-- Node3 -->
<g id="node3" class="node"><title>Node3</title>
<g id="a_node3"><a xlink:href="imap_8c.html#abd3cf0fe6d88652e04347cf565e40ff9" target="_top" xlink:title="Implements MxOps::mbox_close() ">
<polygon fill="white" stroke="black" points="141.5,-342.5 141.5,-361.5 236.5,-361.5 236.5,-342.5 141.5,-342.5"/>
<text text-anchor="middle" x="189" y="-349.5" font-family="Helvetica,sans-Serif" font-size="10.00">imap_mbox_close</text>
</a>
</g>
</g>
<!-- Node1&#45;&gt;Node3 -->
<g id="edge2" class="edge"><title>Node1&#45;&gt;Node3</title>
<path fill="none" stroke="midnightblue" d="M58.3354,-218.818C70.3814,-247.389 96.9778,-301.688 136,-333 140.798,-336.85 146.447,-339.962 152.221,-342.465"/>
<polygon fill="midnightblue" stroke="midnightblue" points="61.5728,-217.488 54.5596,-209.546 55.0897,-220.128 61.5728,-217.488"/>
</g>
<!-- Node4 -->
<g id="node4" class="node"><title>Node4</title>
<g id="a_node4"><a xlink:href="mutt_8h.html#a266a35135fe5e41df8fc4d042d545e38" target="_top" xlink:title="clean up before quitting ">
<polygon fill="white" stroke="red" points="148,-304.5 148,-323.5 230,-323.5 230,-304.5 148,-304.5"/>
<text text-anchor="middle" x="189" y="-311.5" font-family="Helvetica,sans-Serif" font-size="10.00">mutt_free_opts</text>
</a>
</g>
</g>
<!-- Node1&#45;&gt;Node4 -->
<g id="edge3" class="edge"><title>Node1&#45;&gt;Node4</title>
<path fill="none" stroke="midnightblue" d="M63.0529,-218.191C77.9149,-239.34 105.04,-274.018 136,-295 141.57,-298.775 147.981,-301.905 154.358,-304.463"/>
<polygon fill="midnightblue" stroke="midnightblue" points="65.8283,-216.049 57.288,-209.779 60.0541,-220.007 65.8283,-216.049"/>
</g>
<!-- Node5 -->
<g id="node5" class="node"><title>Node5</title>
<g id="a_node5"><a xlink:href="mh_8c.html#a5b46ceb633c03f9bd7c9cf2bf01745bf" target="_top" xlink:title="Implements MxOps::mbox_check() ">
<polygon fill="white" stroke="red" points="136,-266.5 136,-285.5 242,-285.5 242,-266.5 136,-266.5"/>
<text text-anchor="middle" x="189" y="-273.5" font-family="Helvetica,sans-Serif" font-size="10.00">maildir_mbox_check</text>
</a>
</g>
</g>
<!-- Node1&#45;&gt;Node5 -->
<g id="edge4" class="edge"><title>Node1&#45;&gt;Node5</title>
<path fill="none" stroke="midnightblue" d="M71.7978,-216.022C88.4931,-228.361 112.883,-245.242 136,-257 142.939,-260.529 150.693,-263.728 158.052,-266.451"/>
<polygon fill="midnightblue" stroke="midnightblue" points="73.4696,-212.9 63.3711,-209.695 69.2668,-218.498 73.4696,-212.9"/>
</g>
<!-- Node6 -->
<g id="node6" class="node"><title>Node6</title>
<g id="a_node6"><a xlink:href="mh_8c.html#af91621ad4b7746d00442c35c09436375" target="_top" xlink:title="Implements MxOps::mbox_check() ">
<polygon fill="white" stroke="red" points="143.5,-228.5 143.5,-247.5 234.5,-247.5 234.5,-228.5 143.5,-228.5"/>
<text text-anchor="middle" x="189" y="-235.5" font-family="Helvetica,sans-Serif" font-size="10.00">mh_mbox_check</text>
</a>
</g>
</g>
<!-- Node1&#45;&gt;Node6 -->
<g id="edge5" class="edge"><title>Node1&#45;&gt;Node6</title>
<path fill="none" stroke="midnightblue" d="M95.4108,-212.318C114.234,-217.539 135.838,-223.532 153.44,-228.414"/>
<polygon fill="midnightblue" stroke="midnightblue" points="96.1426,-208.889 85.5709,-209.589 94.2716,-215.635 96.1426,-208.889"/>
</g>
<!-- Node7 -->
<g id="node7" class="node"><title>Node7</title>
<g id="a_node7"><a xlink:href="mbox_8c.html#a0f186f813b5573085e88e111de1c46a0" target="_top" xlink:title="Close and reopen a mailbox. ">
<polygon fill="white" stroke="red" points="292.5,-180.5 292.5,-199.5 377.5,-199.5 377.5,-180.5 292.5,-180.5"/>
<text text-anchor="middle" x="335" y="-187.5" font-family="Helvetica,sans-Serif" font-size="10.00">reopen_mailbox</text>
</a>
</g>
</g>
<!-- Node1&#45;&gt;Node7 -->
<g id="edge6" class="edge"><title>Node1&#45;&gt;Node7</title>
<path fill="none" stroke="midnightblue" d="M110.499,-197.898C164.949,-195.974 244.135,-193.175 292.176,-191.478"/>
<polygon fill="midnightblue" stroke="midnightblue" points="110.165,-194.407 100.295,-198.258 110.412,-201.403 110.165,-194.407"/>
</g>
<!-- Node8 -->
<g id="node8" class="node"><title>Node8</title>
<g id="a_node8"><a xlink:href="history_8c.html#aad9bcbc1882ab91a90f84be0543b13ff" target="_top" xlink:title="Read, de&#45;dupe and write the history file. ">
<polygon fill="white" stroke="red" points="150.5,-38.5 150.5,-57.5 227.5,-57.5 227.5,-38.5 150.5,-38.5"/>
<text text-anchor="middle" x="189" y="-45.5" font-family="Helvetica,sans-Serif" font-size="10.00">shrink_histfile</text>
</a>
</g>
</g>
<!-- Node1&#45;&gt;Node8 -->
<g id="edge7" class="edge"><title>Node1&#45;&gt;Node8</title>
<path fill="none" stroke="midnightblue" d="M59.3851,-181.117C72.3277,-153.835 99.5387,-103.245 136,-72 142.946,-66.0477 151.615,-61.2741 159.872,-57.6006"/>
<polygon fill="midnightblue" stroke="midnightblue" points="56.1401,-179.797 55.1339,-190.344 62.4976,-182.726 56.1401,-179.797"/>
</g>
<!-- Node9 -->
<g id="node9" class="node"><title>Node9</title>
<g id="a_node9"><a xlink:href="mutt__thread_8h.html#a372a1638fdd1bf6f418cc99954ab0b42" target="_top" xlink:title="Clear the threading of message in a mailbox. ">
<polygon fill="white" stroke="red" points="139,-114.5 139,-133.5 239,-133.5 239,-114.5 139,-114.5"/>
<text text-anchor="middle" x="189" y="-121.5" font-family="Helvetica,sans-Serif" font-size="10.00">mutt_clear_threads</text>
</a>
</g>
</g>
<!-- Node1&#45;&gt;Node9 -->
<g id="edge8" class="edge"><title>Node1&#45;&gt;Node9</title>
<path fill="none" stroke="midnightblue" d="M74.057,-184.885C90.917,-174.083 114.501,-159.487 136,-148 145.559,-142.893 156.405,-137.784 165.709,-133.6"/>
<polygon fill="midnightblue" stroke="midnightblue" points="71.9392,-182.086 65.438,-190.452 75.7372,-187.966 71.9392,-182.086"/>
</g>
<!-- Node10 -->
<g id="node10" class="node"><title>Node10</title>
<g id="a_node10"><a xlink:href="mx_8h.html#a17c27b6cca2086956266b12d6ad241bf" target="_top" xlink:title="free up memory associated with the mailbox context ">
<polygon fill="white" stroke="red" points="278,-123.5 278,-142.5 392,-142.5 392,-123.5 278,-123.5"/>
<text text-anchor="middle" x="335" y="-130.5" font-family="Helvetica,sans-Serif" font-size="10.00">mx_fastclose_mailbox</text>
</a>
</g>
</g>
<!-- Node1&#45;&gt;Node10 -->
<g id="edge12" class="edge"><title>Node1&#45;&gt;Node10</title>
<path fill="none" stroke="midnightblue" d="M101.093,-188.14C155.907,-175.163 242.714,-154.612 293.434,-142.604"/>
<polygon fill="midnightblue" stroke="midnightblue" points="100.171,-184.762 91.2465,-190.472 101.784,-191.574 100.171,-184.762"/>
</g>
<!-- Node11 -->
<g id="node11" class="node"><title>Node11</title>
<g id="a_node11"><a xlink:href="nntp_8c.html#a7e2d3f32389db957efa45387884208e4" target="_top" xlink:title="Check current newsgroup for new articles. ">
<polygon fill="white" stroke="red" points="294,-85.5 294,-104.5 376,-104.5 376,-85.5 294,-85.5"/>
<text text-anchor="middle" x="335" y="-92.5" font-family="Helvetica,sans-Serif" font-size="10.00">check_mailbox</text>
</a>
</g>
</g>
<!-- Node1&#45;&gt;Node11 -->
<g id="edge14" class="edge"><title>Node1&#45;&gt;Node11</title>
<path fill="none" stroke="midnightblue" d="M61.0576,-181.82C74.7036,-159.195 101.403,-121.528 136,-105 186.312,-80.9641 252.237,-83.3441 293.868,-88.3326"/>
<polygon fill="midnightblue" stroke="midnightblue" points="58.0182,-180.084 56.0235,-190.489 64.0718,-183.599 58.0182,-180.084"/>
</g>
<!-- Node12 -->
<g id="node12" class="node"><title>Node12</title>
<g id="a_node12"><a xlink:href="nntp_8h.html#ac501636e969731011da557bad742f426" target="_top" xlink:title="Open a connection to an NNTP server. ">
<polygon fill="white" stroke="red" points="139.5,-0.5 139.5,-19.5 238.5,-19.5 238.5,-0.5 139.5,-0.5"/>
<text text-anchor="middle" x="189" y="-7.5" font-family="Helvetica,sans-Serif" font-size="10.00">nntp_select_server</text>
</a>
</g>
</g>
<!-- Node1&#45;&gt;Node12 -->
<g id="edge13" class="edge"><title>Node1&#45;&gt;Node12</title>
<path fill="none" stroke="midnightblue" d="M55.6178,-180.357C64.8735,-145.158 88.9595,-71.0891 136,-29 140.298,-25.1546 145.437,-22.0681 150.788,-19.5959"/>
<polygon fill="midnightblue" stroke="midnightblue" points="52.1545,-179.78 53.1235,-190.33 58.9453,-181.478 52.1545,-179.78"/>
</g>
<!-- Node9&#45;&gt;Node7 -->
<g id="edge9" class="edge"><title>Node9&#45;&gt;Node7</title>
<path fill="none" stroke="midnightblue" d="M220.203,-137.843C248.032,-150.598 288.603,-169.193 313.036,-180.391"/>
<polygon fill="midnightblue" stroke="midnightblue" points="221.488,-134.582 210.939,-133.597 218.571,-140.945 221.488,-134.582"/>
</g>
<!-- Node9&#45;&gt;Node10 -->
<g id="edge10" class="edge"><title>Node9&#45;&gt;Node10</title>
<path fill="none" stroke="midnightblue" d="M249.271,-127.704C258.734,-128.296 268.5,-128.906 277.887,-129.493"/>
<polygon fill="midnightblue" stroke="midnightblue" points="249.353,-124.203 239.154,-127.072 248.916,-131.189 249.353,-124.203"/>
</g>
<!-- Node9&#45;&gt;Node11 -->
<g id="edge11" class="edge"><title>Node9&#45;&gt;Node11</title>
<path fill="none" stroke="midnightblue" d="M247.551,-112.41C263.021,-109.294 279.419,-105.992 293.728,-103.11"/>
<polygon fill="midnightblue" stroke="midnightblue" points="246.662,-109.019 237.55,-114.424 248.044,-115.881 246.662,-109.019"/>
</g>
</g>
</svg>
