<?xml version="1.0" encoding="UTF-8" standalone="no"?>
<!DOCTYPE svg PUBLIC "-//W3C//DTD SVG 1.1//EN"
 "http://www.w3.org/Graphics/SVG/1.1/DTD/svg11.dtd">
<!-- Generated by graphviz version 2.36.0 (20140111.2315)
 -->
<!-- Title: mutt_hcache_free Pages: 1 -->
<svg width="672pt" height="468pt"
 viewBox="0.00 0.00 672.00 468.07" xmlns="http://www.w3.org/2000/svg" xmlns:xlink="http://www.w3.org/1999/xlink">
<g id="graph0" class="graph" transform="scale(1 1) rotate(0) translate(4 464.067)">
<title>mutt_hcache_free</title>
<polygon fill="white" stroke="none" points="-4,4 -4,-464.067 668,-464.067 668,4 -4,4"/>
<!-- Node1 -->
<g id="node1" class="node"><title>Node1</title>
<polygon fill="#bfbfbf" stroke="black" points="0.5,-198.5 0.5,-217.5 95.5,-217.5 95.5,-198.5 0.5,-198.5"/>
<text text-anchor="middle" x="48" y="-205.5" font-family="Helvetica,sans-Serif" font-size="10.00">mutt_hcache_free</text>
</g>
<!-- Node2 -->
<g id="node2" class="node"><title>Node2</title>
<g id="a_node2"><a xlink:href="hcache_8h.html#a328c1cf43151360a9001b2423ffd6ab8" target="_top" xlink:title="fetch and validate a message&#39;s header from the cache ">
<polygon fill="white" stroke="black" points="138,-198.5 138,-217.5 238,-217.5 238,-198.5 138,-198.5"/>
<text text-anchor="middle" x="188" y="-205.5" font-family="Helvetica,sans-Serif" font-size="10.00">mutt_hcache_fetch</text>
</a>
</g>
</g>
<!-- Node1&#45;&gt;Node2 -->
<g id="edge1" class="edge"><title>Node1&#45;&gt;Node2</title>
<path fill="none" stroke="midnightblue" d="M105.799,-208C116.476,-208 127.555,-208 137.97,-208"/>
<polygon fill="midnightblue" stroke="midnightblue" points="105.721,-204.5 95.7205,-208 105.72,-211.5 105.721,-204.5"/>
</g>
<!-- Node3 -->
<g id="node3" class="node"><title>Node3</title>
<g id="a_node3"><a xlink:href="util_8c.html#ac8babf62bae19cce171bb44d50178277" target="_top" xlink:title="Get a header cache entry by its UID. ">
<polygon fill="white" stroke="black" points="294.5,-304.5 294.5,-323.5 387.5,-323.5 387.5,-304.5 294.5,-304.5"/>
<text text-anchor="middle" x="341" y="-311.5" font-family="Helvetica,sans-Serif" font-size="10.00">imap_hcache_get</text>
</a>
</g>
</g>
<!-- Node1&#45;&gt;Node3 -->
<g id="edge15" class="edge"><title>Node1&#45;&gt;Node3</title>
<path fill="none" stroke="midnightblue" d="M72.5839,-222.949C88.8188,-232.764 111.14,-245.341 132,-254 187.018,-276.838 253.642,-294.396 296.41,-304.458"/>
<polygon fill="midnightblue" stroke="midnightblue" points="74.1372,-219.795 63.7853,-217.539 70.471,-225.758 74.1372,-219.795"/>
</g>
<!-- Node4 -->
<g id="node4" class="node"><title>Node4</title>
<g id="a_node4"><a xlink:href="message_8c.html#a5dae54814b2746142369bbdef40b1b0f" target="_top" xlink:title="Read headers from the server. ">
<polygon fill="white" stroke="red" points="441.5,-380.5 441.5,-399.5 542.5,-399.5 542.5,-380.5 441.5,-380.5"/>
<text text-anchor="middle" x="492" y="-387.5" font-family="Helvetica,sans-Serif" font-size="10.00">imap_read_headers</text>
</a>
</g>
</g>
<!-- Node1&#45;&gt;Node4 -->
<g id="edge14" class="edge"><title>Node1&#45;&gt;Node4</title>
<path fill="none" stroke="midnightblue" d="M49.5507,-227.857C51.9932,-272.534 64.8987,-380.672 132,-427 241.31,-502.469 415.774,-427.568 472.517,-399.592"/>
<polygon fill="midnightblue" stroke="midnightblue" points="53.0413,-227.558 49.1219,-217.715 46.0476,-227.854 53.0413,-227.558"/>
</g>
<!-- Node5 -->
<g id="node5" class="node"><title>Node5</title>
<g id="a_node5"><a xlink:href="mh_8c.html#a9d7bb5e8d059ea54e3630245aee0a89a" target="_top" xlink:title="This function does the second parsing pass. ">
<polygon fill="white" stroke="red" points="280.5,-266.5 280.5,-285.5 401.5,-285.5 401.5,-266.5 280.5,-266.5"/>
<text text-anchor="middle" x="341" y="-273.5" font-family="Helvetica,sans-Serif" font-size="10.00">maildir_delayed_parsing</text>
</a>
</g>
</g>
<!-- Node1&#45;&gt;Node5 -->
<g id="edge16" class="edge"><title>Node1&#45;&gt;Node5</title>
<path fill="none" stroke="midnightblue" d="M99.5765,-219.819C156.153,-233.039 246.707,-254.2 299.038,-266.428"/>
<polygon fill="midnightblue" stroke="midnightblue" points="100.303,-216.394 89.7687,-217.527 98.7099,-223.21 100.303,-216.394"/>
</g>
<!-- Node6 -->
<g id="node6" class="node"><title>Node6</title>
<g id="a_node6"><a xlink:href="nntp_8c.html#a5e39d9fec82ed686b26efe2aef42d906" target="_top" xlink:title="Parse overview line. ">
<polygon fill="white" stroke="black" points="288.5,-152.5 288.5,-171.5 393.5,-171.5 393.5,-152.5 288.5,-152.5"/>
<text text-anchor="middle" x="341" y="-159.5" font-family="Helvetica,sans-Serif" font-size="10.00">parse_overview_line</text>
</a>
</g>
</g>
<!-- Node1&#45;&gt;Node6 -->
<g id="edge20" class="edge"><title>Node1&#45;&gt;Node6</title>
<path fill="none" stroke="midnightblue" d="M97.0664,-196.174C108.475,-193.596 120.633,-191.034 132,-189 184.871,-179.539 245.867,-172.017 288.073,-167.341"/>
<polygon fill="midnightblue" stroke="midnightblue" points="96.2314,-192.775 87.2728,-198.431 97.8035,-199.596 96.2314,-192.775"/>
</g>
<!-- Node7 -->
<g id="node7" class="node"><title>Node7</title>
<g id="a_node7"><a xlink:href="nntp_8c.html#a6437065331602c01b06ab900ba7eb9e4" target="_top" xlink:title="Fetch headers. ">
<polygon fill="white" stroke="red" points="441,-171.5 441,-190.5 543,-190.5 543,-171.5 441,-171.5"/>
<text text-anchor="middle" x="492" y="-178.5" font-family="Helvetica,sans-Serif" font-size="10.00">nntp_fetch_headers</text>
</a>
</g>
</g>
<!-- Node1&#45;&gt;Node7 -->
<g id="edge21" class="edge"><title>Node1&#45;&gt;Node7</title>
<path fill="none" stroke="midnightblue" d="M64.193,-190.436C79.5866,-173.802 104.933,-149.427 132,-136 192.204,-106.134 213.153,-111.926 280,-105 333.934,-99.4122 351.128,-86.2349 402,-105 438.41,-118.431 470.032,-154.126 483.743,-171.387"/>
<polygon fill="midnightblue" stroke="midnightblue" points="61.178,-188.555 57.094,-198.331 66.383,-193.235 61.178,-188.555"/>
</g>
<!-- Node8 -->
<g id="node8" class="node"><title>Node8</title>
<g id="a_node8"><a xlink:href="nntp_8c.html#a7e2d3f32389db957efa45387884208e4" target="_top" xlink:title="Check current newsgroup for new articles. ">
<polygon fill="white" stroke="red" points="582,-199.5 582,-218.5 664,-218.5 664,-199.5 582,-199.5"/>
<text text-anchor="middle" x="623" y="-206.5" font-family="Helvetica,sans-Serif" font-size="10.00">check_mailbox</text>
</a>
</g>
</g>
<!-- Node1&#45;&gt;Node8 -->
<g id="edge22" class="edge"><title>Node1&#45;&gt;Node8</title>
<path fill="none" stroke="midnightblue" d="M63.3044,-225.408C78.6158,-242.999 104.45,-269.824 132,-286 237.037,-347.673 284.184,-363.916 402,-333 489.36,-310.076 578.58,-243.752 610.099,-218.719"/>
<polygon fill="midnightblue" stroke="midnightblue" points="65.8141,-222.957 56.6718,-217.602 60.4796,-227.489 65.8141,-222.957"/>
</g>
<!-- Node9 -->
<g id="node9" class="node"><title>Node9</title>
<g id="a_node9"><a xlink:href="pop_8c.html#a9eb930464bca4758e5fa653790f32214" target="_top" xlink:title="Read headers. ">
<polygon fill="white" stroke="red" points="291.5,-114.5 291.5,-133.5 390.5,-133.5 390.5,-114.5 291.5,-114.5"/>
<text text-anchor="middle" x="341" y="-121.5" font-family="Helvetica,sans-Serif" font-size="10.00">pop_fetch_headers</text>
</a>
</g>
</g>
<!-- Node1&#45;&gt;Node9 -->
<g id="edge23" class="edge"><title>Node1&#45;&gt;Node9</title>
<path fill="none" stroke="midnightblue" d="M75.5795,-193.623C91.5602,-185.461 112.516,-175.59 132,-169 185.198,-151.006 248.552,-138.516 291.246,-131.337"/>
<polygon fill="midnightblue" stroke="midnightblue" points="73.5829,-190.716 66.3299,-198.439 76.816,-196.925 73.5829,-190.716"/>
</g>
<!-- Node10 -->
<g id="node10" class="node"><title>Node10</title>
<g id="a_node10"><a xlink:href="imap__private_8h.html#a925749e5d4a304b8219da7ac44c31f75" target="_top" xlink:title="Open an hcache for a mailbox. ">
<polygon fill="white" stroke="red" points="132,-380.5 132,-399.5 244,-399.5 244,-380.5 132,-380.5"/>
<text text-anchor="middle" x="188" y="-387.5" font-family="Helvetica,sans-Serif" font-size="10.00">imap_mboxcache_get</text>
</a>
</g>
</g>
<!-- Node1&#45;&gt;Node10 -->
<g id="edge11" class="edge"><title>Node1&#45;&gt;Node10</title>
<path fill="none" stroke="midnightblue" d="M54.4663,-227.241C64.639,-259.872 89.4005,-326.372 132,-366 138.56,-372.102 146.92,-376.813 155.129,-380.379"/>
<polygon fill="midnightblue" stroke="midnightblue" points="57.7899,-226.139 51.5711,-217.561 51.0835,-228.145 57.7899,-226.139"/>
</g>
<!-- Node11 -->
<g id="node11" class="node"><title>Node11</title>
<g id="a_node11"><a xlink:href="nntp__private_8h.html#a842977310a0307ba3a754ee049d1d77f" target="_top" xlink:title="Remove stale cached headers. ">
<polygon fill="white" stroke="red" points="438.5,-95.5 438.5,-114.5 545.5,-114.5 545.5,-95.5 438.5,-95.5"/>
<text text-anchor="middle" x="492" y="-102.5" font-family="Helvetica,sans-Serif" font-size="10.00">nntp_hcache_update</text>
</a>
</g>
</g>
<!-- Node1&#45;&gt;Node11 -->
<g id="edge17" class="edge"><title>Node1&#45;&gt;Node11</title>
<path fill="none" stroke="midnightblue" d="M57.8015,-189.419C70.4419,-165.065 96.2177,-123.197 132,-104 239.921,-46.1001 393.681,-77.6748 459.325,-95.4798"/>
<polygon fill="midnightblue" stroke="midnightblue" points="54.6621,-187.872 53.333,-198.383 60.9268,-190.995 54.6621,-187.872"/>
</g>
<!-- Node12 -->
<g id="node12" class="node"><title>Node12</title>
<g id="a_node12"><a xlink:href="nntp_8h.html#ac501636e969731011da557bad742f426" target="_top" xlink:title="Open a connection to an NNTP server. ">
<polygon fill="white" stroke="red" points="138.5,-0.5 138.5,-19.5 237.5,-19.5 237.5,-0.5 138.5,-0.5"/>
<text text-anchor="middle" x="188" y="-7.5" font-family="Helvetica,sans-Serif" font-size="10.00">nntp_select_server</text>
</a>
</g>
</g>
<!-- Node1&#45;&gt;Node12 -->
<g id="edge19" class="edge"><title>Node1&#45;&gt;Node12</title>
<path fill="none" stroke="midnightblue" d="M53.5334,-188.302C62.6101,-152.948 86.1894,-78.2952 132,-34 138.366,-27.8445 146.568,-23.1307 154.685,-19.5799"/>
<polygon fill="midnightblue" stroke="midnightblue" points="50.0614,-187.766 51.0862,-198.311 56.8611,-189.429 50.0614,-187.766"/>
</g>
<!-- Node2&#45;&gt;Node3 -->
<g id="edge2" class="edge"><title>Node2&#45;&gt;Node3</title>
<path fill="none" stroke="midnightblue" d="M202.888,-225.401C219.351,-244.948 248.548,-276.368 280,-295 286.393,-298.787 293.622,-301.903 300.794,-304.436"/>
<polygon fill="midnightblue" stroke="midnightblue" points="205.508,-223.077 196.449,-217.583 200.105,-227.528 205.508,-223.077"/>
</g>
<!-- Node2&#45;&gt;Node5 -->
<g id="edge4" class="edge"><title>Node2&#45;&gt;Node5</title>
<path fill="none" stroke="midnightblue" d="M217.261,-222.295C235.107,-231.164 258.731,-242.618 280,-252 291.394,-257.026 304.187,-262.206 315.025,-266.461"/>
<polygon fill="midnightblue" stroke="midnightblue" points="218.502,-219.002 207.992,-217.663 215.373,-225.264 218.502,-219.002"/>
</g>
<!-- Node2&#45;&gt;Node6 -->
<g id="edge5" class="edge"><title>Node2&#45;&gt;Node6</title>
<path fill="none" stroke="midnightblue" d="M230.136,-195.469C254.92,-187.918 285.985,-178.455 308.753,-171.519"/>
<polygon fill="midnightblue" stroke="midnightblue" points="228.833,-192.206 220.287,-198.469 230.873,-198.903 228.833,-192.206"/>
</g>
<!-- Node2&#45;&gt;Node7 -->
<g id="edge8" class="edge"><title>Node2&#45;&gt;Node7</title>
<path fill="none" stroke="midnightblue" d="M248.351,-202.694C304.514,-197.673 387.886,-190.219 440.821,-185.486"/>
<polygon fill="midnightblue" stroke="midnightblue" points="247.842,-199.225 238.194,-203.602 248.466,-206.197 247.842,-199.225"/>
</g>
<!-- Node2&#45;&gt;Node8 -->
<g id="edge9" class="edge"><title>Node2&#45;&gt;Node8</title>
<path fill="none" stroke="midnightblue" d="M248.512,-208.137C338.067,-208.344 505.138,-208.73 581.743,-208.907"/>
<polygon fill="midnightblue" stroke="midnightblue" points="248.257,-204.637 238.249,-208.114 248.241,-211.637 248.257,-204.637"/>
</g>
<!-- Node2&#45;&gt;Node9 -->
<g id="edge10" class="edge"><title>Node2&#45;&gt;Node9</title>
<path fill="none" stroke="midnightblue" d="M207.854,-191.825C225.511,-177.359 253.136,-156.426 280,-143 287.33,-139.337 295.515,-136.189 303.425,-133.569"/>
<polygon fill="midnightblue" stroke="midnightblue" points="205.472,-189.254 200.033,-198.346 209.955,-194.63 205.472,-189.254"/>
</g>
<!-- Node3&#45;&gt;Node4 -->
<g id="edge3" class="edge"><title>Node3&#45;&gt;Node4</title>
<path fill="none" stroke="midnightblue" d="M369.95,-328.256C399.87,-343.517 446.503,-367.303 472.282,-380.453"/>
<polygon fill="midnightblue" stroke="midnightblue" points="371.369,-325.051 360.871,-323.625 368.189,-331.287 371.369,-325.051"/>
</g>
<!-- Node6&#45;&gt;Node7 -->
<g id="edge6" class="edge"><title>Node6&#45;&gt;Node7</title>
<path fill="none" stroke="midnightblue" d="M403.907,-169.894C416.233,-171.466 429.033,-173.098 440.904,-174.612"/>
<polygon fill="midnightblue" stroke="midnightblue" points="404.057,-166.385 393.695,-168.592 403.172,-173.329 404.057,-166.385"/>
</g>
<!-- Node7&#45;&gt;Node8 -->
<g id="edge7" class="edge"><title>Node7&#45;&gt;Node8</title>
<path fill="none" stroke="midnightblue" d="M547.053,-192.732C558.634,-195.246 570.676,-197.86 581.633,-200.238"/>
<polygon fill="midnightblue" stroke="midnightblue" points="547.549,-189.259 537.034,-190.558 546.064,-196.099 547.549,-189.259"/>
</g>
<!-- Node10&#45;&gt;Node4 -->
<g id="edge13" class="edge"><title>Node10&#45;&gt;Node4</title>
<path fill="none" stroke="midnightblue" d="M254.24,-390C310.404,-390 390.251,-390 441.344,-390"/>
<polygon fill="midnightblue" stroke="midnightblue" points="254.04,-386.5 244.04,-390 254.04,-393.5 254.04,-386.5"/>
</g>
<!-- Node10&#45;&gt;Node10 -->
<g id="edge12" class="edge"><title>Node10&#45;&gt;Node10</title>
<path fill="none" stroke="midnightblue" d="M161.958,-409.029C163.379,-414.128 172.059,-418 188,-418 212.883,-418 220.076,-408.565 209.578,-399.757"/>
<polygon fill="midnightblue" stroke="midnightblue" points="165.238,-410.286 166.422,-399.757 158.931,-407.249 165.238,-410.286"/>
</g>
<!-- Node11&#45;&gt;Node8 -->
<g id="edge18" class="edge"><title>Node11&#45;&gt;Node8</title>
<path fill="none" stroke="midnightblue" d="M512.948,-121.082C540.135,-143 587.971,-181.566 610.124,-199.426"/>
<polygon fill="midnightblue" stroke="midnightblue" points="514.887,-118.149 504.905,-114.598 510.493,-123.599 514.887,-118.149"/>
</g>
</g>
</svg>
