<?xml version="1.0" encoding="UTF-8" standalone="no"?>
<!DOCTYPE svg PUBLIC "-//W3C//DTD SVG 1.1//EN"
 "http://www.w3.org/Graphics/SVG/1.1/DTD/svg11.dtd">
<!-- Generated by graphviz version 2.36.0 (20140111.2315)
 -->
<!-- Title: mutt_hcache_is_valid_backend Pages: 1 -->
<svg width="246pt" height="38pt"
 viewBox="0.00 0.00 246.00 38.00" xmlns="http://www.w3.org/2000/svg" xmlns:xlink="http://www.w3.org/1999/xlink">
<g id="graph0" class="graph" transform="scale(1 1) rotate(0) translate(4 34)">
<title>mutt_hcache_is_valid_backend</title>
<polygon fill="white" stroke="none" points="-4,4 -4,-34 242,-34 242,4 -4,4"/>
<!-- Node1 -->
<g id="node1" class="node"><title>Node1</title>
<polygon fill="#bfbfbf" stroke="black" points="0.5,-0 0.5,-30 111.5,-30 111.5,-0 0.5,-0"/>
<text text-anchor="start" x="8.5" y="-18" font-family="Helvetica,sans-Serif" font-size="10.00">mutt_hcache_is_valid</text>
<text text-anchor="middle" x="56" y="-7" font-family="Helvetica,sans-Serif" font-size="10.00">_backend</text>
</g>
<!-- Node2 -->
<g id="node2" class="node"><title>Node2</title>
<g id="a_node2"><a xlink:href="init_8h.html#ae29b82f804730e46d47261bd6d4a3604" target="_top" xlink:title="Validate the &quot;header_cache_backend&quot; config variable &#45; Implements cs_validator. ">
<polygon fill="white" stroke="black" points="148,-5.5 148,-24.5 238,-24.5 238,-5.5 148,-5.5"/>
<text text-anchor="middle" x="193" y="-12.5" font-family="Helvetica,sans-Serif" font-size="10.00">hcache_validator</text>
</a>
</g>
</g>
<!-- Node1&#45;&gt;Node2 -->
<g id="edge1" class="edge"><title>Node1&#45;&gt;Node2</title>
<path fill="none" stroke="midnightblue" d="M121.746,-15C130.511,-15 139.339,-15 147.635,-15"/>
<polygon fill="midnightblue" stroke="midnightblue" points="121.521,-11.5001 111.521,-15 121.521,-18.5001 121.521,-11.5001"/>
</g>
</g>
</svg>
