<?xml version="1.0" encoding="UTF-8" standalone="no"?>
<!DOCTYPE svg PUBLIC "-//W3C//DTD SVG 1.1//EN"
 "http://www.w3.org/Graphics/SVG/1.1/DTD/svg11.dtd">
<!-- Generated by graphviz version 2.36.0 (20140111.2315)
 -->
<!-- Title: mutt_hcache_fetch Pages: 1 -->
<svg width="266pt" height="104pt"
 viewBox="0.00 0.00 266.00 104.00" xmlns="http://www.w3.org/2000/svg" xmlns:xlink="http://www.w3.org/1999/xlink">
<g id="graph0" class="graph" transform="scale(1 1) rotate(0) translate(4 100)">
<title>mutt_hcache_fetch</title>
<polygon fill="white" stroke="none" points="-4,4 -4,-100 262,-100 262,4 -4,4"/>
<!-- Node1 -->
<g id="node1" class="node"><title>Node1</title>
<polygon fill="#bfbfbf" stroke="black" points="0,-38.5 0,-57.5 100,-57.5 100,-38.5 0,-38.5"/>
<text text-anchor="middle" x="50" y="-45.5" font-family="Helvetica,sans-Serif" font-size="10.00">mutt_hcache_fetch</text>
</g>
<!-- Node2 -->
<g id="node2" class="node"><title>Node2</title>
<g id="a_node2"><a xlink:href="hcache_8c.html#ae65c9e1141287d9e21e541475df3f7bf" target="_top" xlink:title="Find the data for a key in a database backend. ">
<polygon fill="white" stroke="black" points="136.5,-76.5 136.5,-95.5 257.5,-95.5 257.5,-76.5 136.5,-76.5"/>
<text text-anchor="middle" x="197" y="-83.5" font-family="Helvetica,sans-Serif" font-size="10.00">mutt_hcache_fetch_raw</text>
</a>
</g>
</g>
<!-- Node1&#45;&gt;Node2 -->
<g id="edge1" class="edge"><title>Node1&#45;&gt;Node2</title>
<path fill="none" stroke="midnightblue" d="M87.5896,-57.589C106.465,-62.5358 129.686,-68.6211 149.788,-73.8892"/>
<polygon fill="midnightblue" stroke="midnightblue" points="149.113,-77.3305 159.673,-76.4799 150.887,-70.5591 149.113,-77.3305"/>
</g>
<!-- Node3 -->
<g id="node3" class="node"><title>Node3</title>
<g id="a_node3"><a xlink:href="hcache_8c.html#aa36d7ffb56dd4652348e2e75bed65137" target="_top" xlink:title="Is the CRC number correct? ">
<polygon fill="white" stroke="black" points="160.5,-38.5 160.5,-57.5 233.5,-57.5 233.5,-38.5 160.5,-38.5"/>
<text text-anchor="middle" x="197" y="-45.5" font-family="Helvetica,sans-Serif" font-size="10.00">crc_matches</text>
</a>
</g>
</g>
<!-- Node1&#45;&gt;Node3 -->
<g id="edge2" class="edge"><title>Node1&#45;&gt;Node3</title>
<path fill="none" stroke="midnightblue" d="M100.09,-48C116.266,-48 134.182,-48 150.109,-48"/>
<polygon fill="midnightblue" stroke="midnightblue" points="150.25,-51.5001 160.25,-48 150.25,-44.5001 150.25,-51.5001"/>
</g>
<!-- Node4 -->
<g id="node4" class="node"><title>Node4</title>
<g id="a_node4"><a xlink:href="hcache_8c.html#a51e16ac36abe59d7df4b6be113efe90c" target="_top" xlink:title="Multiplexor for HcacheOps::free. ">
<polygon fill="white" stroke="black" points="149.5,-0.5 149.5,-19.5 244.5,-19.5 244.5,-0.5 149.5,-0.5"/>
<text text-anchor="middle" x="197" y="-7.5" font-family="Helvetica,sans-Serif" font-size="10.00">mutt_hcache_free</text>
</a>
</g>
</g>
<!-- Node1&#45;&gt;Node4 -->
<g id="edge3" class="edge"><title>Node1&#45;&gt;Node4</title>
<path fill="none" stroke="midnightblue" d="M87.5896,-38.411C106.465,-33.4642 129.686,-27.3789 149.788,-22.1108"/>
<polygon fill="midnightblue" stroke="midnightblue" points="150.887,-25.4409 159.673,-19.5201 149.113,-18.6695 150.887,-25.4409"/>
</g>
</g>
</svg>
