<?xml version="1.0" encoding="UTF-8" standalone="no"?>
<!DOCTYPE svg PUBLIC "-//W3C//DTD SVG 1.1//EN"
 "http://www.w3.org/Graphics/SVG/1.1/DTD/svg11.dtd">
<!-- Generated by graphviz version 2.36.0 (20140111.2315)
 -->
<!-- Title: check_for_mailing_list Pages: 1 -->
<svg width="374pt" height="104pt"
 viewBox="0.00 0.00 374.00 104.00" xmlns="http://www.w3.org/2000/svg" xmlns:xlink="http://www.w3.org/1999/xlink">
<g id="graph0" class="graph" transform="scale(1 1) rotate(0) translate(4 100)">
<title>check_for_mailing_list</title>
<polygon fill="white" stroke="none" points="-4,4 -4,-100 370,-100 370,4 -4,4"/>
<!-- Node1 -->
<g id="node1" class="node"><title>Node1</title>
<polygon fill="#bfbfbf" stroke="black" points="0.5,-38.5 0.5,-57.5 113.5,-57.5 113.5,-38.5 0.5,-38.5"/>
<text text-anchor="middle" x="57" y="-45.5" font-family="Helvetica,sans-Serif" font-size="10.00">check_for_mailing_list</text>
</g>
<!-- Node2 -->
<g id="node2" class="node"><title>Node2</title>
<g id="a_node2"><a xlink:href="hdrline_8c.html#a4df982424a1a487d00ff8179528e5151" target="_top" xlink:title="Generate a From: field (with optional prefix) ">
<polygon fill="white" stroke="black" points="162.5,-76.5 162.5,-95.5 227.5,-95.5 227.5,-76.5 162.5,-76.5"/>
<text text-anchor="middle" x="195" y="-83.5" font-family="Helvetica,sans-Serif" font-size="10.00">make_from</text>
</a>
</g>
</g>
<!-- Node1&#45;&gt;Node2 -->
<g id="edge1" class="edge"><title>Node1&#45;&gt;Node2</title>
<path fill="none" stroke="midnightblue" d="M102.008,-60.2963C121.721,-65.8044 144.52,-72.1747 162.489,-77.1955"/>
<polygon fill="midnightblue" stroke="midnightblue" points="102.892,-56.9092 92.3185,-57.589 101.008,-63.651 102.892,-56.9092"/>
</g>
<!-- Node3 -->
<g id="node3" class="node"><title>Node3</title>
<g id="a_node3"><a xlink:href="hdrline_8c.html#afa4aeab4df484044d13f6fb7d7f08901" target="_top" xlink:title="Format a string for the index list &#45; Implements format_t. ">
<polygon fill="white" stroke="red" points="276.5,-38.5 276.5,-57.5 365.5,-57.5 365.5,-38.5 276.5,-38.5"/>
<text text-anchor="middle" x="321" y="-45.5" font-family="Helvetica,sans-Serif" font-size="10.00">index_format_str</text>
</a>
</g>
</g>
<!-- Node1&#45;&gt;Node3 -->
<g id="edge5" class="edge"><title>Node1&#45;&gt;Node3</title>
<path fill="none" stroke="midnightblue" d="M123.792,-48C171.462,-48 234.595,-48 276.212,-48"/>
<polygon fill="midnightblue" stroke="midnightblue" points="123.563,-44.5001 113.563,-48 123.563,-51.5001 123.563,-44.5001"/>
</g>
<!-- Node4 -->
<g id="node4" class="node"><title>Node4</title>
<g id="a_node4"><a xlink:href="hdrline_8c.html#acc7bbf28d0b54c0f1b2289f4dad99083" target="_top" xlink:title="Is the user a recipient of the message. ">
<polygon fill="white" stroke="black" points="150,-0.5 150,-19.5 240,-19.5 240,-0.5 150,-0.5"/>
<text text-anchor="middle" x="195" y="-7.5" font-family="Helvetica,sans-Serif" font-size="10.00">user_is_recipient</text>
</a>
</g>
</g>
<!-- Node1&#45;&gt;Node4 -->
<g id="edge3" class="edge"><title>Node1&#45;&gt;Node4</title>
<path fill="none" stroke="midnightblue" d="M102.087,-35.6817C120.772,-30.4607 142.218,-24.4684 159.692,-19.5859"/>
<polygon fill="midnightblue" stroke="midnightblue" points="101.008,-32.349 92.3185,-38.411 102.892,-39.0908 101.008,-32.349"/>
</g>
<!-- Node2&#45;&gt;Node3 -->
<g id="edge2" class="edge"><title>Node2&#45;&gt;Node3</title>
<path fill="none" stroke="midnightblue" d="M236.905,-73.4647C253.773,-68.2952 273.008,-62.4009 288.72,-57.5859"/>
<polygon fill="midnightblue" stroke="midnightblue" points="235.826,-70.1345 227.29,-76.411 237.877,-76.8273 235.826,-70.1345"/>
</g>
<!-- Node4&#45;&gt;Node3 -->
<g id="edge4" class="edge"><title>Node4&#45;&gt;Node3</title>
<path fill="none" stroke="midnightblue" d="M236.905,-22.5353C253.773,-27.7048 273.008,-33.5991 288.72,-38.4141"/>
<polygon fill="midnightblue" stroke="midnightblue" points="237.877,-19.1727 227.29,-19.589 235.826,-25.8655 237.877,-19.1727"/>
</g>
</g>
</svg>
