<?xml version="1.0" encoding="UTF-8" standalone="no"?>
<!DOCTYPE svg PUBLIC "-//W3C//DTD SVG 1.1//EN"
 "http://www.w3.org/Graphics/SVG/1.1/DTD/svg11.dtd">
<!-- Generated by graphviz version 2.36.0 (20140111.2315)
 -->
<!-- Title: first_mailing_list Pages: 1 -->
<svg width="252pt" height="66pt"
 viewBox="0.00 0.00 252.00 66.00" xmlns="http://www.w3.org/2000/svg" xmlns:xlink="http://www.w3.org/1999/xlink">
<g id="graph0" class="graph" transform="scale(1 1) rotate(0) translate(4 62)">
<title>first_mailing_list</title>
<polygon fill="white" stroke="none" points="-4,4 -4,-62 248,-62 248,4 -4,4"/>
<!-- Node1 -->
<g id="node1" class="node"><title>Node1</title>
<polygon fill="#bfbfbf" stroke="black" points="0.5,-19.5 0.5,-38.5 87.5,-38.5 87.5,-19.5 0.5,-19.5"/>
<text text-anchor="middle" x="44" y="-26.5" font-family="Helvetica,sans-Serif" font-size="10.00">first_mailing_list</text>
</g>
<!-- Node2 -->
<g id="node2" class="node"><title>Node2</title>
<g id="a_node2"><a xlink:href="hdrline_8c.html#a643450005e6bb0522c8ea4db46cfe39e" target="_top" xlink:title="Is this the email address of a user&#45;subscribed mailing list? ">
<polygon fill="white" stroke="red" points="124.5,-38.5 124.5,-57.5 243.5,-57.5 243.5,-38.5 124.5,-38.5"/>
<text text-anchor="middle" x="184" y="-45.5" font-family="Helvetica,sans-Serif" font-size="10.00">mutt_is_subscribed_list</text>
</a>
</g>
</g>
<!-- Node1&#45;&gt;Node2 -->
<g id="edge1" class="edge"><title>Node1&#45;&gt;Node2</title>
<path fill="none" stroke="midnightblue" d="M87.5306,-34.8557C96.0799,-36.0327 105.268,-37.2978 114.446,-38.5614"/>
<polygon fill="midnightblue" stroke="midnightblue" points="113.986,-42.031 124.37,-39.9278 114.941,-35.0964 113.986,-42.031"/>
</g>
<!-- Node3 -->
<g id="node3" class="node"><title>Node3</title>
<g id="a_node3"><a xlink:href="muttlib_8c.html#a1d969e22eb0b0c3c85773418409f1eef" target="_top" xlink:title="Turn an email address into a filename (for saving) ">
<polygon fill="white" stroke="red" points="141,-0.5 141,-19.5 227,-19.5 227,-0.5 141,-0.5"/>
<text text-anchor="middle" x="184" y="-7.5" font-family="Helvetica,sans-Serif" font-size="10.00">mutt_save_path</text>
</a>
</g>
</g>
<!-- Node1&#45;&gt;Node3 -->
<g id="edge2" class="edge"><title>Node1&#45;&gt;Node3</title>
<path fill="none" stroke="midnightblue" d="M87.5306,-23.1443C101.168,-21.2667 116.432,-19.1652 130.685,-17.2028"/>
<polygon fill="midnightblue" stroke="midnightblue" points="131.418,-20.635 140.847,-15.8037 130.463,-13.7004 131.418,-20.635"/>
</g>
</g>
</svg>
