<?xml version="1.0" encoding="UTF-8" standalone="no"?>
<!DOCTYPE svg PUBLIC "-//W3C//DTD SVG 1.1//EN"
 "http://www.w3.org/Graphics/SVG/1.1/DTD/svg11.dtd">
<!-- Generated by graphviz version 2.36.0 (20140111.2315)
 -->
<!-- Title: mutt_make_string_flags Pages: 1 -->
<svg width="404pt" height="65pt"
 viewBox="0.00 0.00 404.00 65.00" xmlns="http://www.w3.org/2000/svg" xmlns:xlink="http://www.w3.org/1999/xlink">
<g id="graph0" class="graph" transform="scale(1 1) rotate(0) translate(4 61)">
<title>mutt_make_string_flags</title>
<polygon fill="white" stroke="none" points="-4,4 -4,-61 400,-61 400,4 -4,4"/>
<!-- Node1 -->
<g id="node1" class="node"><title>Node1</title>
<polygon fill="#bfbfbf" stroke="black" points="0.5,-19.5 0.5,-38.5 121.5,-38.5 121.5,-19.5 0.5,-19.5"/>
<text text-anchor="middle" x="61" y="-26.5" font-family="Helvetica,sans-Serif" font-size="10.00">mutt_make_string_flags</text>
</g>
<!-- Node2 -->
<g id="node2" class="node"><title>Node2</title>
<g id="a_node2"><a xlink:href="muttlib_8c.html#a5efffe8bf1716c24b902f42e1d2166a0" target="_top" xlink:title="Expand expandos (x) in a string. ">
<polygon fill="white" stroke="red" points="284.5,-19.5 284.5,-38.5 395.5,-38.5 395.5,-19.5 284.5,-19.5"/>
<text text-anchor="middle" x="340" y="-26.5" font-family="Helvetica,sans-Serif" font-size="10.00">mutt_expando_format</text>
</a>
</g>
</g>
<!-- Node1&#45;&gt;Node2 -->
<g id="edge1" class="edge"><title>Node1&#45;&gt;Node2</title>
<path fill="none" stroke="midnightblue" d="M121.764,-29C166.566,-29 227.827,-29 273.875,-29"/>
<polygon fill="midnightblue" stroke="midnightblue" points="274.048,-32.5001 284.048,-29 274.048,-25.5001 274.048,-32.5001"/>
</g>
<!-- Node3 -->
<g id="node3" class="node"><title>Node3</title>
<g id="a_node3"><a xlink:href="hdrline_8c.html#afa4aeab4df484044d13f6fb7d7f08901" target="_top" xlink:title="Format a string for the index list &#45; Implements format_t. ">
<polygon fill="white" stroke="red" points="158.5,-0.5 158.5,-19.5 247.5,-19.5 247.5,-0.5 158.5,-0.5"/>
<text text-anchor="middle" x="203" y="-7.5" font-family="Helvetica,sans-Serif" font-size="10.00">index_format_str</text>
</a>
</g>
</g>
<!-- Node1&#45;&gt;Node3 -->
<g id="edge3" class="edge"><title>Node1&#45;&gt;Node3</title>
<path fill="none" stroke="midnightblue" d="M121.779,-20.8872C130.539,-19.6983 139.518,-18.4797 148.15,-17.3082"/>
<polygon fill="midnightblue" stroke="midnightblue" points="148.652,-20.7723 158.09,-15.9592 147.71,-13.8359 148.652,-20.7723"/>
</g>
<!-- Node2&#45;&gt;Node2 -->
<g id="edge2" class="edge"><title>Node2&#45;&gt;Node2</title>
<path fill="none" stroke="midnightblue" d="M319.038,-38.7571C308.841,-47.5653 315.828,-57 340,-57 355.485,-57 363.918,-53.128 365.298,-48.0292"/>
<polygon fill="midnightblue" stroke="midnightblue" points="368.368,-46.3329 360.962,-38.7571 362.027,-49.2982 368.368,-46.3329"/>
</g>
<!-- Node3&#45;&gt;Node2 -->
<g id="edge4" class="edge"><title>Node3&#45;&gt;Node2</title>
<path fill="none" stroke="midnightblue" d="M247.831,-16.1688C256.221,-17.3497 265.171,-18.6092 274.061,-19.8604"/>
<polygon fill="midnightblue" stroke="midnightblue" points="273.65,-23.337 284.04,-21.2649 274.626,-16.4053 273.65,-23.337"/>
</g>
</g>
</svg>
