<?xml version="1.0" encoding="UTF-8" standalone="no"?>
<!DOCTYPE svg PUBLIC "-//W3C//DTD SVG 1.1//EN"
 "http://www.w3.org/Graphics/SVG/1.1/DTD/svg11.dtd">
<!-- Generated by graphviz version 2.36.0 (20140111.2315)
 -->
<!-- Title: mutt_make_string_info Pages: 1 -->
<svg width="398pt" height="65pt"
 viewBox="0.00 0.00 398.00 65.00" xmlns="http://www.w3.org/2000/svg" xmlns:xlink="http://www.w3.org/1999/xlink">
<g id="graph0" class="graph" transform="scale(1 1) rotate(0) translate(4 61)">
<title>mutt_make_string_info</title>
<polygon fill="white" stroke="none" points="-4,4 -4,-61 394,-61 394,4 -4,4"/>
<!-- Node1 -->
<g id="node1" class="node"><title>Node1</title>
<polygon fill="#bfbfbf" stroke="black" points="0,-19.5 0,-38.5 116,-38.5 116,-19.5 0,-19.5"/>
<text text-anchor="middle" x="58" y="-26.5" font-family="Helvetica,sans-Serif" font-size="10.00">mutt_make_string_info</text>
</g>
<!-- Node2 -->
<g id="node2" class="node"><title>Node2</title>
<g id="a_node2"><a xlink:href="muttlib_8c.html#a5efffe8bf1716c24b902f42e1d2166a0" target="_top" xlink:title="Expand expandos (x) in a string. ">
<polygon fill="white" stroke="red" points="278.5,-19.5 278.5,-38.5 389.5,-38.5 389.5,-19.5 278.5,-19.5"/>
<text text-anchor="middle" x="334" y="-26.5" font-family="Helvetica,sans-Serif" font-size="10.00">mutt_expando_format</text>
</a>
</g>
</g>
<!-- Node1&#45;&gt;Node2 -->
<g id="edge1" class="edge"><title>Node1&#45;&gt;Node2</title>
<path fill="none" stroke="midnightblue" d="M116.106,-29C160.432,-29 221.911,-29 268.1,-29"/>
<polygon fill="midnightblue" stroke="midnightblue" points="268.303,-32.5001 278.303,-29 268.303,-25.5001 268.303,-32.5001"/>
</g>
<!-- Node3 -->
<g id="node3" class="node"><title>Node3</title>
<g id="a_node3"><a xlink:href="hdrline_8c.html#afa4aeab4df484044d13f6fb7d7f08901" target="_top" xlink:title="Format a string for the index list &#45; Implements format_t. ">
<polygon fill="white" stroke="red" points="152.5,-0.5 152.5,-19.5 241.5,-19.5 241.5,-0.5 152.5,-0.5"/>
<text text-anchor="middle" x="197" y="-7.5" font-family="Helvetica,sans-Serif" font-size="10.00">index_format_str</text>
</a>
</g>
</g>
<!-- Node1&#45;&gt;Node3 -->
<g id="edge3" class="edge"><title>Node1&#45;&gt;Node3</title>
<path fill="none" stroke="midnightblue" d="M116.307,-21.0524C124.856,-19.8667 133.644,-18.648 142.119,-17.4726"/>
<polygon fill="midnightblue" stroke="midnightblue" points="142.84,-20.9062 152.264,-16.0656 141.878,-13.9726 142.84,-20.9062"/>
</g>
<!-- Node2&#45;&gt;Node2 -->
<g id="edge2" class="edge"><title>Node2&#45;&gt;Node2</title>
<path fill="none" stroke="midnightblue" d="M313.038,-38.7571C302.841,-47.5653 309.828,-57 334,-57 349.485,-57 357.918,-53.128 359.298,-48.0292"/>
<polygon fill="midnightblue" stroke="midnightblue" points="362.368,-46.3329 354.962,-38.7571 356.027,-49.2982 362.368,-46.3329"/>
</g>
<!-- Node3&#45;&gt;Node2 -->
<g id="edge4" class="edge"><title>Node3&#45;&gt;Node2</title>
<path fill="none" stroke="midnightblue" d="M241.831,-16.1688C250.221,-17.3497 259.171,-18.6092 268.061,-19.8604"/>
<polygon fill="midnightblue" stroke="midnightblue" points="267.65,-23.337 278.04,-21.2649 268.626,-16.4053 267.65,-23.337"/>
</g>
</g>
</svg>
