<?xml version="1.0" encoding="UTF-8" standalone="no"?>
<!DOCTYPE svg PUBLIC "-//W3C//DTD SVG 1.1//EN"
 "http://www.w3.org/Graphics/SVG/1.1/DTD/svg11.dtd">
<!-- Generated by graphviz version 2.36.0 (20140111.2315)
 -->
<!-- Title: mutt_make_string_flags Pages: 1 -->
<svg width="440pt" height="265pt"
 viewBox="0.00 0.00 440.00 264.85" xmlns="http://www.w3.org/2000/svg" xmlns:xlink="http://www.w3.org/1999/xlink">
<g id="graph0" class="graph" transform="scale(1 1) rotate(0) translate(4 260.848)">
<title>mutt_make_string_flags</title>
<polygon fill="white" stroke="none" points="-4,4 -4,-260.848 436,-260.848 436,4 -4,4"/>
<!-- Node1 -->
<g id="node1" class="node"><title>Node1</title>
<polygon fill="#bfbfbf" stroke="black" points="0.5,-105.348 0.5,-124.348 121.5,-124.348 121.5,-105.348 0.5,-105.348"/>
<text text-anchor="middle" x="61" y="-112.348" font-family="Helvetica,sans-Serif" font-size="10.00">mutt_make_string_flags</text>
</g>
<!-- Node2 -->
<g id="node2" class="node"><title>Node2</title>
<g id="a_node2"><a xlink:href="copy_8h.html#a83d41783f47bc19055f396db29a6ceb6" target="_top" xlink:title="make a copy of a message from a FILE pointer ">
<polygon fill="white" stroke="red" points="158.5,-237.348 158.5,-256.348 279.5,-256.348 279.5,-237.348 158.5,-237.348"/>
<text text-anchor="middle" x="219" y="-244.348" font-family="Helvetica,sans-Serif" font-size="10.00">mutt_copy_message_fp</text>
</a>
</g>
</g>
<!-- Node1&#45;&gt;Node2 -->
<g id="edge1" class="edge"><title>Node1&#45;&gt;Node2</title>
<path fill="none" stroke="midnightblue" d="M72.8516,-133.138C88.5664,-158.09 119.98,-202.577 158,-227.848 163.733,-231.658 170.278,-234.744 176.888,-237.231"/>
<polygon fill="midnightblue" stroke="midnightblue" points="75.8317,-131.303 67.6163,-124.613 69.8665,-134.966 75.8317,-131.303"/>
</g>
<!-- Node3 -->
<g id="node3" class="node"><title>Node3</title>
<g id="a_node3"><a xlink:href="curs__main_8h.html#ae7ea32a946bde627b935602e2948023b" target="_top" xlink:title="Format a menu item for the index list. ">
<polygon fill="white" stroke="red" points="171,-199.348 171,-218.348 267,-218.348 267,-199.348 171,-199.348"/>
<text text-anchor="middle" x="219" y="-206.348" font-family="Helvetica,sans-Serif" font-size="10.00">index_make_entry</text>
</a>
</g>
</g>
<!-- Node1&#45;&gt;Node3 -->
<g id="edge2" class="edge"><title>Node1&#45;&gt;Node3</title>
<path fill="none" stroke="midnightblue" d="M79.3021,-131.517C97.5597,-148.308 127.819,-173.945 158,-189.848 165.057,-193.566 172.968,-196.709 180.672,-199.302"/>
<polygon fill="midnightblue" stroke="midnightblue" points="81.4924,-128.773 71.8014,-124.491 76.7069,-133.881 81.4924,-128.773"/>
</g>
<!-- Node4 -->
<g id="node4" class="node"><title>Node4</title>
<g id="a_node4"><a xlink:href="postpone_8c.html#a092862dd7ebf63ee3f788751a7ae478a" target="_top" xlink:title="Format a menu item for the email list. ">
<polygon fill="white" stroke="red" points="188,-161.348 188,-180.348 250,-180.348 250,-161.348 188,-161.348"/>
<text text-anchor="middle" x="219" y="-168.348" font-family="Helvetica,sans-Serif" font-size="10.00">post_entry</text>
</a>
</g>
</g>
<!-- Node1&#45;&gt;Node4 -->
<g id="edge3" class="edge"><title>Node1&#45;&gt;Node4</title>
<path fill="none" stroke="midnightblue" d="M94.9358,-128.115C113.379,-135.4 136.854,-144.433 158,-151.848 167.692,-155.247 178.356,-158.711 187.972,-161.735"/>
<polygon fill="midnightblue" stroke="midnightblue" points="96.1078,-124.815 85.522,-124.376 93.524,-131.32 96.1078,-124.815"/>
</g>
<!-- Node5 -->
<g id="node5" class="node"><title>Node5</title>
<g id="a_node5"><a xlink:href="recvattach_8h.html#a98b2ae112e8353253ba30462bfef777b" target="_top" xlink:title="Format a string for the attachment menu &#45; Implements format_t. ">
<polygon fill="white" stroke="red" points="172.5,-105.348 172.5,-124.348 265.5,-124.348 265.5,-105.348 172.5,-105.348"/>
<text text-anchor="middle" x="219" y="-112.348" font-family="Helvetica,sans-Serif" font-size="10.00">attach_format_str</text>
</a>
</g>
</g>
<!-- Node1&#45;&gt;Node5 -->
<g id="edge4" class="edge"><title>Node1&#45;&gt;Node5</title>
<path fill="none" stroke="midnightblue" d="M132.143,-114.848C145.697,-114.848 159.57,-114.848 172.104,-114.848"/>
<polygon fill="midnightblue" stroke="midnightblue" points="131.868,-111.348 121.868,-114.848 131.867,-118.348 131.868,-111.348"/>
</g>
<!-- Node6 -->
<g id="node6" class="node"><title>Node6</title>
<g id="a_node6"><a xlink:href="recvcmd_8c.html#adfb04a6c8b5a04730eb551224096b9ff" target="_top" xlink:title="Write an email header to a file, optionally quoting it. ">
<polygon fill="white" stroke="black" points="178,-29.3478 178,-48.3478 260,-48.3478 260,-29.3478 178,-29.3478"/>
<text text-anchor="middle" x="219" y="-36.3478" font-family="Helvetica,sans-Serif" font-size="10.00">include_header</text>
</a>
</g>
</g>
<!-- Node1&#45;&gt;Node6 -->
<g id="edge6" class="edge"><title>Node1&#45;&gt;Node6</title>
<path fill="none" stroke="midnightblue" d="M87.0498,-100.241C106.185,-89.3395 133.37,-74.3968 158,-62.8478 169.072,-57.6561 181.593,-52.5345 192.322,-48.3645"/>
<polygon fill="midnightblue" stroke="midnightblue" points="85.2795,-97.2217 78.3494,-105.236 88.7645,-103.293 85.2795,-97.2217"/>
</g>
<!-- Node7 -->
<g id="node7" class="node"><title>Node7</title>
<g id="a_node7"><a xlink:href="recvcmd_8c.html#ad985f78448cd381d34cb45b710eddc90" target="_top" xlink:title="forward one or several MIME bodies ">
<polygon fill="white" stroke="red" points="316.5,-48.3478 316.5,-67.3478 431.5,-67.3478 431.5,-48.3478 316.5,-48.3478"/>
<text text-anchor="middle" x="374" y="-55.3478" font-family="Helvetica,sans-Serif" font-size="10.00">attach_forward_bodies</text>
</a>
</g>
</g>
<!-- Node1&#45;&gt;Node7 -->
<g id="edge9" class="edge"><title>Node1&#45;&gt;Node7</title>
<path fill="none" stroke="midnightblue" d="M119.346,-103.299C132.064,-100.793 145.482,-98.1926 158,-95.8478 212.023,-85.7289 273.823,-74.8818 317.259,-67.3777"/>
<polygon fill="midnightblue" stroke="midnightblue" points="118.457,-99.9068 109.327,-105.281 119.816,-106.774 118.457,-99.9068"/>
</g>
<!-- Node8 -->
<g id="node8" class="node"><title>Node8</title>
<g id="a_node8"><a xlink:href="recvcmd_8h.html#a40682fa92a787a3a065716d851677599" target="_top" xlink:title="Attach a reply. ">
<polygon fill="white" stroke="red" points="326.5,-1.34784 326.5,-20.3478 421.5,-20.3478 421.5,-1.34784 326.5,-1.34784"/>
<text text-anchor="middle" x="374" y="-8.34784" font-family="Helvetica,sans-Serif" font-size="10.00">mutt_attach_reply</text>
</a>
</g>
</g>
<!-- Node1&#45;&gt;Node8 -->
<g id="edge10" class="edge"><title>Node1&#45;&gt;Node8</title>
<path fill="none" stroke="midnightblue" d="M73.7203,-96.8774C89.6817,-74.1881 120.593,-36.1503 158,-19.8478 212.112,3.7351 281.327,1.63613 326.39,-3.42686"/>
<polygon fill="midnightblue" stroke="midnightblue" points="70.7311,-95.0488 67.9964,-105.285 76.5174,-98.9883 70.7311,-95.0488"/>
</g>
<!-- Node5&#45;&gt;Node5 -->
<g id="edge5" class="edge"><title>Node5&#45;&gt;Node5</title>
<path fill="none" stroke="midnightblue" d="M190.254,-133.502C191.456,-138.785 201.038,-142.848 219,-142.848 246.371,-142.848 254.283,-133.413 242.736,-124.605"/>
<polygon fill="midnightblue" stroke="midnightblue" points="193.407,-135.036 195.264,-124.605 187.308,-131.601 193.407,-135.036"/>
</g>
<!-- Node6&#45;&gt;Node7 -->
<g id="edge7" class="edge"><title>Node6&#45;&gt;Node7</title>
<path fill="none" stroke="midnightblue" d="M270.164,-45.0773C284.949,-46.9134 301.228,-48.935 316.388,-50.8176"/>
<polygon fill="midnightblue" stroke="midnightblue" points="270.554,-41.599 260.199,-43.8399 269.691,-48.5456 270.554,-41.599"/>
</g>
<!-- Node6&#45;&gt;Node8 -->
<g id="edge8" class="edge"><title>Node6&#45;&gt;Node8</title>
<path fill="none" stroke="midnightblue" d="M270.248,-29.6521C288.295,-26.3494 308.56,-22.6408 326.293,-19.3955"/>
<polygon fill="midnightblue" stroke="midnightblue" points="269.405,-26.2481 260.199,-31.4912 270.666,-33.1337 269.405,-26.2481"/>
</g>
</g>
</svg>
