<?xml version="1.0" encoding="UTF-8" standalone="no"?>
<!DOCTYPE svg PUBLIC "-//W3C//DTD SVG 1.1//EN"
 "http://www.w3.org/Graphics/SVG/1.1/DTD/svg11.dtd">
<!-- Generated by graphviz version 2.36.0 (20140111.2315)
 -->
<!-- Title: mutt_header_cmp_strict Pages: 1 -->
<svg width="258pt" height="66pt"
 viewBox="0.00 0.00 258.00 66.00" xmlns="http://www.w3.org/2000/svg" xmlns:xlink="http://www.w3.org/1999/xlink">
<g id="graph0" class="graph" transform="scale(1 1) rotate(0) translate(4 62)">
<title>mutt_header_cmp_strict</title>
<polygon fill="white" stroke="none" points="-4,4 -4,-62 254,-62 254,4 -4,4"/>
<!-- Node1 -->
<g id="node1" class="node"><title>Node1</title>
<polygon fill="#bfbfbf" stroke="black" points="0,-19.5 0,-38.5 122,-38.5 122,-19.5 0,-19.5"/>
<text text-anchor="middle" x="61" y="-26.5" font-family="Helvetica,sans-Serif" font-size="10.00">mutt_header_cmp_strict</text>
</g>
<!-- Node2 -->
<g id="node2" class="node"><title>Node2</title>
<g id="a_node2"><a xlink:href="mh_8c.html#af91621ad4b7746d00442c35c09436375" target="_top" xlink:title="Implements MxOps::mbox_check() ">
<polygon fill="white" stroke="red" points="158.5,-38.5 158.5,-57.5 249.5,-57.5 249.5,-38.5 158.5,-38.5"/>
<text text-anchor="middle" x="204" y="-45.5" font-family="Helvetica,sans-Serif" font-size="10.00">mh_mbox_check</text>
</a>
</g>
</g>
<!-- Node1&#45;&gt;Node2 -->
<g id="edge1" class="edge"><title>Node1&#45;&gt;Node2</title>
<path fill="none" stroke="midnightblue" d="M132.216,-38.4617C141.11,-39.6603 150.011,-40.8597 158.352,-41.9836"/>
<polygon fill="midnightblue" stroke="midnightblue" points="132.584,-34.9797 122.206,-37.1128 131.649,-41.917 132.584,-34.9797"/>
</g>
<!-- Node3 -->
<g id="node3" class="node"><title>Node3</title>
<g id="a_node3"><a xlink:href="mbox_8c.html#a0f186f813b5573085e88e111de1c46a0" target="_top" xlink:title="Close and reopen a mailbox. ">
<polygon fill="white" stroke="red" points="161.5,-0.5 161.5,-19.5 246.5,-19.5 246.5,-0.5 161.5,-0.5"/>
<text text-anchor="middle" x="204" y="-7.5" font-family="Helvetica,sans-Serif" font-size="10.00">reopen_mailbox</text>
</a>
</g>
</g>
<!-- Node1&#45;&gt;Node3 -->
<g id="edge2" class="edge"><title>Node1&#45;&gt;Node3</title>
<path fill="none" stroke="midnightblue" d="M132.148,-19.5474C142.124,-18.2032 152.108,-16.8578 161.303,-15.6187"/>
<polygon fill="midnightblue" stroke="midnightblue" points="131.649,-16.083 122.206,-20.8872 132.584,-23.0203 131.649,-16.083"/>
</g>
</g>
</svg>
