<?xml version="1.0" encoding="UTF-8" standalone="no"?>
<!DOCTYPE svg PUBLIC "-//W3C//DTD SVG 1.1//EN"
 "http://www.w3.org/Graphics/SVG/1.1/DTD/svg11.dtd">
<!-- Generated by graphviz version 2.36.0 (20140111.2315)
 -->
<!-- Title: mutt_header_free Pages: 1 -->
<svg width="598pt" height="929pt"
 viewBox="0.00 0.00 598.00 929.04" xmlns="http://www.w3.org/2000/svg" xmlns:xlink="http://www.w3.org/1999/xlink">
<g id="graph0" class="graph" transform="scale(1 1) rotate(0) translate(4 925.038)">
<title>mutt_header_free</title>
<polygon fill="white" stroke="none" points="-4,4 -4,-925.038 594,-925.038 594,4 -4,4"/>
<!-- Node1 -->
<g id="node1" class="node"><title>Node1</title>
<polygon fill="#bfbfbf" stroke="black" points="0,-456.5 0,-475.5 92,-475.5 92,-456.5 0,-456.5"/>
<text text-anchor="middle" x="46" y="-463.5" font-family="Helvetica,sans-Serif" font-size="10.00">mutt_header_free</text>
</g>
<!-- Node2 -->
<g id="node2" class="node"><title>Node2</title>
<g id="a_node2"><a xlink:href="commands_8h.html#a87652bbb3f4fb04d3341434ab719398b" target="_top" xlink:title="Edit the content type of an attachment. ">
<polygon fill="white" stroke="red" points="318.5,-722.5 318.5,-741.5 437.5,-741.5 437.5,-722.5 318.5,-722.5"/>
<text text-anchor="middle" x="378" y="-729.5" font-family="Helvetica,sans-Serif" font-size="10.00">mutt_edit_content_type</text>
</a>
</g>
</g>
<!-- Node1&#45;&gt;Node2 -->
<g id="edge1" class="edge"><title>Node1&#45;&gt;Node2</title>
<path fill="none" stroke="midnightblue" d="M46.9304,-485.777C47.9436,-532.906 57.6891,-652.073 128,-708 185.101,-753.419 274.492,-749.562 329.201,-741.543"/>
<polygon fill="midnightblue" stroke="midnightblue" points="50.4292,-485.628 46.8288,-475.664 43.4295,-485.698 50.4292,-485.628"/>
</g>
<!-- Node3 -->
<g id="node3" class="node"><title>Node3</title>
<g id="a_node3"><a xlink:href="body_8h.html#a43826190bac1662a61f5b08d915ee000" target="_top" xlink:title="Free a Body. ">
<polygon fill="white" stroke="red" points="163,-760.5 163,-779.5 247,-779.5 247,-760.5 163,-760.5"/>
<text text-anchor="middle" x="205" y="-767.5" font-family="Helvetica,sans-Serif" font-size="10.00">mutt_body_free</text>
</a>
</g>
</g>
<!-- Node1&#45;&gt;Node3 -->
<g id="edge2" class="edge"><title>Node1&#45;&gt;Node3</title>
<path fill="none" stroke="midnightblue" d="M46.7912,-485.626C47.6865,-535.113 57.4986,-664.766 128,-737 141.24,-750.566 162.075,-756.485 178.584,-760.437"/>
<polygon fill="midnightblue" stroke="midnightblue" points="50.2909,-485.56 46.7198,-475.585 43.2911,-485.61 50.2909,-485.56"/>
</g>
<!-- Node4 -->
<g id="node4" class="node"><title>Node4</title>
<g id="a_node4"><a xlink:href="send_8h.html#a09c909ab2bb41101590ed2b13f65fc2d" target="_top" xlink:title="Send an email. ">
<polygon fill="white" stroke="red" points="330.5,-760.5 330.5,-779.5 425.5,-779.5 425.5,-760.5 330.5,-760.5"/>
<text text-anchor="middle" x="378" y="-767.5" font-family="Helvetica,sans-Serif" font-size="10.00">ci_send_message</text>
</a>
</g>
</g>
<!-- Node1&#45;&gt;Node4 -->
<g id="edge37" class="edge"><title>Node1&#45;&gt;Node4</title>
<path fill="none" stroke="midnightblue" d="M48.5756,-485.822C54.3192,-552.435 76.5525,-766.342 128,-807 199.149,-863.228 318.548,-803.997 361.236,-779.535"/>
<polygon fill="midnightblue" stroke="midnightblue" points="52.0591,-485.477 47.7418,-475.802 45.0832,-486.058 52.0591,-485.477"/>
</g>
<!-- Node5 -->
<g id="node5" class="node"><title>Node5</title>
<g id="a_node5"><a xlink:href="main_8c.html#adedb285b02c41bde2158ded9cc9fd7ac" target="_top" xlink:title="Start NeoMutt. ">
<polygon fill="white" stroke="black" points="513,-868.5 513,-887.5 551,-887.5 551,-868.5 513,-868.5"/>
<text text-anchor="middle" x="532" y="-875.5" font-family="Helvetica,sans-Serif" font-size="10.00">main</text>
</a>
</g>
</g>
<!-- Node1&#45;&gt;Node5 -->
<g id="edge19" class="edge"><title>Node1&#45;&gt;Node5</title>
<path fill="none" stroke="midnightblue" d="M47.8799,-485.725C51.6066,-559.296 68.7343,-816.042 128,-866 243.333,-963.219 450.067,-905.264 512.592,-884.494"/>
<polygon fill="midnightblue" stroke="midnightblue" points="51.367,-485.37 47.3925,-475.549 44.3751,-485.705 51.367,-485.37"/>
</g>
<!-- Node6 -->
<g id="node6" class="node"><title>Node6</title>
<g id="a_node6"><a xlink:href="recvcmd_8c.html#ad985f78448cd381d34cb45b710eddc90" target="_top" xlink:title="forward one or several MIME bodies ">
<polygon fill="white" stroke="red" points="474.5,-783.5 474.5,-802.5 589.5,-802.5 589.5,-783.5 474.5,-783.5"/>
<text text-anchor="middle" x="532" y="-790.5" font-family="Helvetica,sans-Serif" font-size="10.00">attach_forward_bodies</text>
</a>
</g>
</g>
<!-- Node1&#45;&gt;Node6 -->
<g id="edge33" class="edge"><title>Node1&#45;&gt;Node6</title>
<path fill="none" stroke="midnightblue" d="M48.2383,-485.89C53.0376,-555.715 72.9591,-787.808 128,-832 246.393,-927.056 451.899,-833.94 513.229,-802.521"/>
<polygon fill="midnightblue" stroke="midnightblue" points="51.7234,-485.547 47.574,-475.798 44.7385,-486.007 51.7234,-485.547"/>
</g>
<!-- Node7 -->
<g id="node7" class="node"><title>Node7</title>
<g id="a_node7"><a xlink:href="recvcmd_8c.html#ab5979027a0a9e06fb96e3e54ad77b9a7" target="_top" xlink:title="Forward one or several message&#45;type attachments. ">
<polygon fill="white" stroke="red" points="477,-714.5 477,-733.5 587,-733.5 587,-714.5 477,-714.5"/>
<text text-anchor="middle" x="532" y="-721.5" font-family="Helvetica,sans-Serif" font-size="10.00">attach_forward_msgs</text>
</a>
</g>
</g>
<!-- Node1&#45;&gt;Node7 -->
<g id="edge34" class="edge"><title>Node1&#45;&gt;Node7</title>
<path fill="none" stroke="midnightblue" d="M49.1478,-485.959C54.5515,-525.627 72.5157,-614.317 128,-658 141.63,-668.731 370.045,-701.641 476.805,-716.537"/>
<polygon fill="midnightblue" stroke="midnightblue" points="52.6102,-485.438 47.9133,-475.941 45.6627,-486.294 52.6102,-485.438"/>
</g>
<!-- Node8 -->
<g id="node8" class="node"><title>Node8</title>
<g id="a_node8"><a xlink:href="recvcmd_8h.html#a40682fa92a787a3a065716d851677599" target="_top" xlink:title="Attach a reply. ">
<polygon fill="white" stroke="red" points="484.5,-661.5 484.5,-680.5 579.5,-680.5 579.5,-661.5 484.5,-661.5"/>
<text text-anchor="middle" x="532" y="-668.5" font-family="Helvetica,sans-Serif" font-size="10.00">mutt_attach_reply</text>
</a>
</g>
</g>
<!-- Node1&#45;&gt;Node8 -->
<g id="edge35" class="edge"><title>Node1&#45;&gt;Node8</title>
<path fill="none" stroke="midnightblue" d="M50.5898,-485.609C58.1117,-520.536 79.0586,-593.033 128,-627 184.664,-666.326 390.792,-671.226 484.302,-671.363"/>
<polygon fill="midnightblue" stroke="midnightblue" points="53.9979,-484.803 48.6009,-475.686 47.1344,-486.179 53.9979,-484.803"/>
</g>
<!-- Node9 -->
<g id="node9" class="node"><title>Node9</title>
<g id="a_node9"><a xlink:href="send_8h.html#a9e554a8b485b628ccfeaa97810043c85" target="_top" xlink:title="Resend an email. ">
<polygon fill="white" stroke="red" points="474,-615.5 474,-634.5 590,-634.5 590,-615.5 474,-615.5"/>
<text text-anchor="middle" x="532" y="-622.5" font-family="Helvetica,sans-Serif" font-size="10.00">mutt_resend_message</text>
</a>
</g>
</g>
<!-- Node1&#45;&gt;Node9 -->
<g id="edge36" class="edge"><title>Node1&#45;&gt;Node9</title>
<path fill="none" stroke="midnightblue" d="M52.4609,-485.356C62.1237,-515.583 85.3551,-573.199 128,-599 184.612,-633.251 376.822,-631.129 473.9,-627.651"/>
<polygon fill="midnightblue" stroke="midnightblue" points="55.7465,-484.129 49.504,-475.569 49.0456,-486.154 55.7465,-484.129"/>
</g>
<!-- Node10 -->
<g id="node10" class="node"><title>Node10</title>
<g id="a_node10"><a xlink:href="mailbox_8c.html#a1df8bd2fac7fff14fef8a06a055799d6" target="_top" xlink:title="Is the last message new. ">
<polygon fill="white" stroke="red" points="150,-570.5 150,-589.5 260,-589.5 260,-570.5 150,-570.5"/>
<text text-anchor="middle" x="205" y="-577.5" font-family="Helvetica,sans-Serif" font-size="10.00">test_last_status_new</text>
</a>
</g>
</g>
<!-- Node1&#45;&gt;Node10 -->
<g id="edge12" class="edge"><title>Node1&#45;&gt;Node10</title>
<path fill="none" stroke="midnightblue" d="M57.5036,-484.108C71.0192,-505.757 96.5467,-541.504 128,-561 134.705,-565.156 142.273,-568.404 149.968,-570.942"/>
<polygon fill="midnightblue" stroke="midnightblue" points="60.4812,-482.268 52.3123,-475.521 54.4909,-485.89 60.4812,-482.268"/>
</g>
<!-- Node11 -->
<g id="node11" class="node"><title>Node11</title>
<g id="a_node11"><a xlink:href="mh_8c.html#a392059b329d00df9f412d550f7681527" target="_top" xlink:title="Free a Maildir object. ">
<polygon fill="white" stroke="red" points="158,-532.5 158,-551.5 252,-551.5 252,-532.5 158,-532.5"/>
<text text-anchor="middle" x="205" y="-539.5" font-family="Helvetica,sans-Serif" font-size="10.00">maildir_free_entry</text>
</a>
</g>
</g>
<!-- Node1&#45;&gt;Node11 -->
<g id="edge13" class="edge"><title>Node1&#45;&gt;Node11</title>
<path fill="none" stroke="midnightblue" d="M68.0628,-481.734C83.9069,-493.009 106.497,-507.922 128,-518 140.278,-523.755 154.293,-528.621 166.916,-532.435"/>
<polygon fill="midnightblue" stroke="midnightblue" points="69.7238,-478.615 59.5729,-475.581 65.6157,-484.283 69.7238,-478.615"/>
</g>
<!-- Node12 -->
<g id="node12" class="node"><title>Node12</title>
<g id="a_node12"><a xlink:href="mh_8c.html#a9d7bb5e8d059ea54e3630245aee0a89a" target="_top" xlink:title="This function does the second parsing pass. ">
<polygon fill="white" stroke="red" points="144.5,-456.5 144.5,-475.5 265.5,-475.5 265.5,-456.5 144.5,-456.5"/>
<text text-anchor="middle" x="205" y="-463.5" font-family="Helvetica,sans-Serif" font-size="10.00">maildir_delayed_parsing</text>
</a>
</g>
</g>
<!-- Node1&#45;&gt;Node12 -->
<g id="edge14" class="edge"><title>Node1&#45;&gt;Node12</title>
<path fill="none" stroke="midnightblue" d="M102.544,-466C116.09,-466 130.636,-466 144.363,-466"/>
<polygon fill="midnightblue" stroke="midnightblue" points="102.411,-462.5 92.4109,-466 102.411,-469.5 102.411,-462.5"/>
</g>
<!-- Node13 -->
<g id="node13" class="node"><title>Node13</title>
<g id="a_node13"><a xlink:href="mh_8c.html#a5b46ceb633c03f9bd7c9cf2bf01745bf" target="_top" xlink:title="Implements MxOps::mbox_check() ">
<polygon fill="white" stroke="red" points="325,-485.5 325,-504.5 431,-504.5 431,-485.5 325,-485.5"/>
<text text-anchor="middle" x="378" y="-492.5" font-family="Helvetica,sans-Serif" font-size="10.00">maildir_mbox_check</text>
</a>
</g>
</g>
<!-- Node1&#45;&gt;Node13 -->
<g id="edge17" class="edge"><title>Node1&#45;&gt;Node13</title>
<path fill="none" stroke="midnightblue" d="M91.4775,-478.036C103.268,-480.785 116.045,-483.373 128,-485 195.518,-494.189 274.207,-495.857 324.765,-495.779"/>
<polygon fill="midnightblue" stroke="midnightblue" points="91.9591,-474.551 81.4162,-475.599 90.3113,-481.355 91.9591,-474.551"/>
</g>
<!-- Node14 -->
<g id="node14" class="node"><title>Node14</title>
<g id="a_node14"><a xlink:href="mh_8c.html#af91621ad4b7746d00442c35c09436375" target="_top" xlink:title="Implements MxOps::mbox_check() ">
<polygon fill="white" stroke="red" points="332.5,-428.5 332.5,-447.5 423.5,-447.5 423.5,-428.5 332.5,-428.5"/>
<text text-anchor="middle" x="378" y="-435.5" font-family="Helvetica,sans-Serif" font-size="10.00">mh_mbox_check</text>
</a>
</g>
</g>
<!-- Node1&#45;&gt;Node14 -->
<g id="edge18" class="edge"><title>Node1&#45;&gt;Node14</title>
<path fill="none" stroke="midnightblue" d="M90.7862,-454.092C102.766,-451.284 115.809,-448.634 128,-447 198.956,-437.488 282.236,-436.513 332.249,-437.013"/>
<polygon fill="midnightblue" stroke="midnightblue" points="89.9045,-450.704 81.0156,-456.47 91.5596,-457.506 89.9045,-450.704"/>
</g>
<!-- Node15 -->
<g id="node15" class="node"><title>Node15</title>
<g id="a_node15"><a xlink:href="mbox_8c.html#a0f186f813b5573085e88e111de1c46a0" target="_top" xlink:title="Close and reopen a mailbox. ">
<polygon fill="white" stroke="red" points="162.5,-380.5 162.5,-399.5 247.5,-399.5 247.5,-380.5 162.5,-380.5"/>
<text text-anchor="middle" x="205" y="-387.5" font-family="Helvetica,sans-Serif" font-size="10.00">reopen_mailbox</text>
</a>
</g>
</g>
<!-- Node1&#45;&gt;Node15 -->
<g id="edge20" class="edge"><title>Node1&#45;&gt;Node15</title>
<path fill="none" stroke="midnightblue" d="M68.0628,-450.266C83.9069,-438.991 106.497,-424.078 128,-414 140.278,-408.245 154.293,-403.379 166.916,-399.565"/>
<polygon fill="midnightblue" stroke="midnightblue" points="65.6157,-447.717 59.5729,-456.419 69.7238,-453.385 65.6157,-447.717"/>
</g>
<!-- Node16 -->
<g id="node16" class="node"><title>Node16</title>
<g id="a_node16"><a xlink:href="mutt__attach_8h.html#a786920bfa92274d3dfce23347a0442eb" target="_top" xlink:title="Decode, then save an attachment. ">
<polygon fill="white" stroke="red" points="128.5,-342.5 128.5,-361.5 281.5,-361.5 281.5,-342.5 128.5,-342.5"/>
<text text-anchor="middle" x="205" y="-349.5" font-family="Helvetica,sans-Serif" font-size="10.00">mutt_decode_save_attachment</text>
</a>
</g>
</g>
<!-- Node1&#45;&gt;Node16 -->
<g id="edge21" class="edge"><title>Node1&#45;&gt;Node16</title>
<path fill="none" stroke="midnightblue" d="M57.5036,-447.892C71.0192,-426.243 96.5467,-390.496 128,-371 134.242,-367.131 141.233,-364.048 148.378,-361.593"/>
<polygon fill="midnightblue" stroke="midnightblue" points="54.4909,-446.11 52.3123,-456.479 60.4812,-449.732 54.4909,-446.11"/>
</g>
<!-- Node17 -->
<g id="node17" class="node"><title>Node17</title>
<g id="a_node17"><a xlink:href="muttlib_8h.html#a36f68a4f2032e52581c54a5f444f05bf" target="_top" xlink:title="Create the canonical path (with regex char escaping) ">
<polygon fill="white" stroke="red" points="142,-304.5 142,-323.5 268,-323.5 268,-304.5 142,-304.5"/>
<text text-anchor="middle" x="205" y="-311.5" font-family="Helvetica,sans-Serif" font-size="10.00">mutt_expand_path_regex</text>
</a>
</g>
</g>
<!-- Node1&#45;&gt;Node17 -->
<g id="edge22" class="edge"><title>Node1&#45;&gt;Node17</title>
<path fill="none" stroke="midnightblue" d="M53.3556,-446.674C63.9944,-417.431 88.2427,-362.255 128,-333 133.258,-329.131 139.216,-326.045 145.427,-323.584"/>
<polygon fill="midnightblue" stroke="midnightblue" points="50.0293,-445.584 50.0483,-456.179 56.6404,-447.884 50.0293,-445.584"/>
</g>
<!-- Node18 -->
<g id="node18" class="node"><title>Node18</title>
<g id="a_node18"><a xlink:href="mx_8h.html#a17c27b6cca2086956266b12d6ad241bf" target="_top" xlink:title="free up memory associated with the mailbox context ">
<polygon fill="white" stroke="red" points="148,-266.5 148,-285.5 262,-285.5 262,-266.5 148,-266.5"/>
<text text-anchor="middle" x="205" y="-273.5" font-family="Helvetica,sans-Serif" font-size="10.00">mx_fastclose_mailbox</text>
</a>
</g>
</g>
<!-- Node1&#45;&gt;Node18 -->
<g id="edge23" class="edge"><title>Node1&#45;&gt;Node18</title>
<path fill="none" stroke="midnightblue" d="M50.5942,-446.386C58.2051,-410.623 79.4029,-334.84 128,-295 133.785,-290.258 140.592,-286.676 147.715,-283.975"/>
<polygon fill="midnightblue" stroke="midnightblue" points="47.1016,-446.004 48.583,-456.495 53.9671,-447.37 47.1016,-446.004"/>
</g>
<!-- Node19 -->
<g id="node19" class="node"><title>Node19</title>
<g id="a_node19"><a xlink:href="mx_8h.html#a650f15b54caff8e416c6ad5100a41546" target="_top" xlink:title="Update a Context structure&#39;s internal tables. ">
<polygon fill="white" stroke="red" points="157,-228.5 157,-247.5 253,-247.5 253,-228.5 157,-228.5"/>
<text text-anchor="middle" x="205" y="-235.5" font-family="Helvetica,sans-Serif" font-size="10.00">mx_update_tables</text>
</a>
</g>
</g>
<!-- Node1&#45;&gt;Node19 -->
<g id="edge24" class="edge"><title>Node1&#45;&gt;Node19</title>
<path fill="none" stroke="midnightblue" d="M48.7328,-446.173C53.4629,-404.574 70.3907,-307.836 128,-257 136.056,-249.891 146.378,-245.36 156.799,-242.493"/>
<polygon fill="midnightblue" stroke="midnightblue" points="45.2266,-446.058 47.6985,-456.36 52.1908,-446.765 45.2266,-446.058"/>
</g>
<!-- Node20 -->
<g id="node20" class="node"><title>Node20</title>
<g id="a_node20"><a xlink:href="nntp_8c.html#a5e39d9fec82ed686b26efe2aef42d906" target="_top" xlink:title="Parse overview line. ">
<polygon fill="white" stroke="black" points="152.5,-114.5 152.5,-133.5 257.5,-133.5 257.5,-114.5 152.5,-114.5"/>
<text text-anchor="middle" x="205" y="-121.5" font-family="Helvetica,sans-Serif" font-size="10.00">parse_overview_line</text>
</a>
</g>
</g>
<!-- Node1&#45;&gt;Node20 -->
<g id="edge25" class="edge"><title>Node1&#45;&gt;Node20</title>
<path fill="none" stroke="midnightblue" d="M49.479,-446.446C57.7391,-384.212 86.1882,-192.242 128,-148 134.653,-140.961 143.35,-135.976 152.475,-132.45"/>
<polygon fill="midnightblue" stroke="midnightblue" points="45.9916,-446.124 48.173,-456.491 52.9331,-447.026 45.9916,-446.124"/>
</g>
<!-- Node21 -->
<g id="node21" class="node"><title>Node21</title>
<g id="a_node21"><a xlink:href="nntp_8c.html#a6437065331602c01b06ab900ba7eb9e4" target="_top" xlink:title="Fetch headers. ">
<polygon fill="white" stroke="red" points="327,-152.5 327,-171.5 429,-171.5 429,-152.5 327,-152.5"/>
<text text-anchor="middle" x="378" y="-159.5" font-family="Helvetica,sans-Serif" font-size="10.00">nntp_fetch_headers</text>
</a>
</g>
</g>
<!-- Node1&#45;&gt;Node21 -->
<g id="edge28" class="edge"><title>Node1&#45;&gt;Node21</title>
<path fill="none" stroke="midnightblue" d="M49.8279,-446.195C58.5466,-388.1 86.9272,-220.082 128,-186 185.151,-138.577 277.051,-143.8 331.778,-152.496"/>
<polygon fill="midnightblue" stroke="midnightblue" points="46.3376,-445.874 48.3483,-456.276 53.2634,-446.89 46.3376,-445.874"/>
</g>
<!-- Node22 -->
<g id="node22" class="node"><title>Node22</title>
<g id="a_node22"><a xlink:href="nntp_8c.html#a7e2d3f32389db957efa45387884208e4" target="_top" xlink:title="Check current newsgroup for new articles. ">
<polygon fill="white" stroke="red" points="491,-171.5 491,-190.5 573,-190.5 573,-171.5 491,-171.5"/>
<text text-anchor="middle" x="532" y="-178.5" font-family="Helvetica,sans-Serif" font-size="10.00">check_mailbox</text>
</a>
</g>
</g>
<!-- Node1&#45;&gt;Node22 -->
<g id="edge29" class="edge"><title>Node1&#45;&gt;Node22</title>
<path fill="none" stroke="midnightblue" d="M46.7713,-446.146C47.4068,-398.278 56.3335,-276.242 128,-219 155.97,-196.66 394.699,-185.809 490.984,-182.311"/>
<polygon fill="midnightblue" stroke="midnightblue" points="43.2709,-446.39 46.7526,-456.396 50.2709,-446.403 43.2709,-446.39"/>
</g>
<!-- Node23 -->
<g id="node23" class="node"><title>Node23</title>
<g id="a_node23"><a xlink:href="nntp_8h.html#a95d1bde908ca9d70a12fe5fa2b5ce0af" target="_top" xlink:title="Fetch article by Message&#45;ID. ">
<polygon fill="white" stroke="red" points="156,-76.5 156,-95.5 254,-95.5 254,-76.5 156,-76.5"/>
<text text-anchor="middle" x="205" y="-83.5" font-family="Helvetica,sans-Serif" font-size="10.00">nntp_check_msgid</text>
</a>
</g>
</g>
<!-- Node1&#45;&gt;Node23 -->
<g id="edge30" class="edge"><title>Node1&#45;&gt;Node23</title>
<path fill="none" stroke="midnightblue" d="M48.7654,-445.954C55.1923,-377.523 79.5454,-154.645 128,-105 135.41,-97.4083 145.36,-92.6789 155.614,-89.7724"/>
<polygon fill="midnightblue" stroke="midnightblue" points="45.2523,-445.939 47.8288,-456.216 52.2233,-446.575 45.2523,-445.939"/>
</g>
<!-- Node24 -->
<g id="node24" class="node"><title>Node24</title>
<g id="a_node24"><a xlink:href="mutt__notmuch_8c.html#ab829d343fdc673fe2a1a82157ed5fcc8" target="_top" xlink:title="Associate a message. ">
<polygon fill="white" stroke="red" points="158.5,-38.5 158.5,-57.5 251.5,-57.5 251.5,-38.5 158.5,-38.5"/>
<text text-anchor="middle" x="205" y="-45.5" font-family="Helvetica,sans-Serif" font-size="10.00">append_message</text>
</a>
</g>
</g>
<!-- Node1&#45;&gt;Node24 -->
<g id="edge31" class="edge"><title>Node1&#45;&gt;Node24</title>
<path fill="none" stroke="midnightblue" d="M48.282,-446.237C53.3915,-373.605 74.6734,-122.765 128,-67 135.99,-58.6449 147.052,-53.7435 158.267,-50.9234"/>
<polygon fill="midnightblue" stroke="midnightblue" points="44.7838,-446.093 47.5984,-456.307 51.7677,-446.567 44.7838,-446.093"/>
</g>
<!-- Node25 -->
<g id="node25" class="node"><title>Node25</title>
<g id="a_node25"><a xlink:href="pop_8c.html#a9eb930464bca4758e5fa653790f32214" target="_top" xlink:title="Read headers. ">
<polygon fill="white" stroke="red" points="155.5,-0.5 155.5,-19.5 254.5,-19.5 254.5,-0.5 155.5,-0.5"/>
<text text-anchor="middle" x="205" y="-7.5" font-family="Helvetica,sans-Serif" font-size="10.00">pop_fetch_headers</text>
</a>
</g>
</g>
<!-- Node1&#45;&gt;Node25 -->
<g id="edge32" class="edge"><title>Node1&#45;&gt;Node25</title>
<path fill="none" stroke="midnightblue" d="M47.9209,-445.879C51.8743,-368.422 69.9371,-90.7609 128,-29 135.266,-21.2709 145.16,-16.4879 155.406,-13.5732"/>
<polygon fill="midnightblue" stroke="midnightblue" points="44.4104,-446.011 47.4201,-456.169 51.4022,-446.351 44.4104,-446.011"/>
</g>
<!-- Node3&#45;&gt;Node1 -->
<g id="edge5" class="edge"><title>Node3&#45;&gt;Node1</title>
<path fill="none" stroke="midnightblue" d="M153.143,-770.372C143.826,-767.042 134.886,-762.055 128,-755 47.7655,-672.793 46.134,-516.219 46.794,-475.526"/>
<polygon fill="midnightblue" stroke="midnightblue" points="152.338,-773.783 162.919,-773.259 154.32,-767.07 152.338,-773.783"/>
</g>
<!-- Node3&#45;&gt;Node2 -->
<g id="edge3" class="edge"><title>Node3&#45;&gt;Node2</title>
<path fill="none" stroke="midnightblue" d="M257.256,-758.61C281.802,-753.155 310.858,-746.698 334.201,-741.511"/>
<polygon fill="midnightblue" stroke="midnightblue" points="256.397,-755.215 247.394,-760.801 257.915,-762.049 256.397,-755.215"/>
</g>
<!-- Node3&#45;&gt;Node3 -->
<g id="edge4" class="edge"><title>Node3&#45;&gt;Node3</title>
<path fill="none" stroke="midnightblue" d="M175.508,-788.654C176.74,-793.937 186.571,-798 205,-798 233.082,-798 241.199,-788.565 229.352,-779.757"/>
<polygon fill="midnightblue" stroke="midnightblue" points="178.676,-790.167 180.648,-779.757 172.614,-786.665 178.676,-790.167"/>
</g>
<!-- Node3&#45;&gt;Node4 -->
<g id="edge6" class="edge"><title>Node3&#45;&gt;Node4</title>
<path fill="none" stroke="midnightblue" d="M257.695,-770C280.779,-770 307.783,-770 330.256,-770"/>
<polygon fill="midnightblue" stroke="midnightblue" points="257.394,-766.5 247.394,-770 257.394,-773.5 257.394,-766.5"/>
</g>
<!-- Node4&#45;&gt;Node5 -->
<g id="edge7" class="edge"><title>Node4&#45;&gt;Node5</title>
<path fill="none" stroke="midnightblue" d="M400.708,-785.424C432.516,-808.024 490.871,-849.487 517.323,-868.282"/>
<polygon fill="midnightblue" stroke="midnightblue" points="402.668,-782.523 392.489,-779.584 398.614,-788.23 402.668,-782.523"/>
</g>
<!-- Node4&#45;&gt;Node6 -->
<g id="edge8" class="edge"><title>Node4&#45;&gt;Node6</title>
<path fill="none" stroke="midnightblue" d="M435.781,-778.592C448.409,-780.503 461.794,-782.528 474.414,-784.438"/>
<polygon fill="midnightblue" stroke="midnightblue" points="436.256,-775.124 425.845,-777.088 435.209,-782.045 436.256,-775.124"/>
</g>
<!-- Node4&#45;&gt;Node7 -->
<g id="edge9" class="edge"><title>Node4&#45;&gt;Node7</title>
<path fill="none" stroke="midnightblue" d="M420.076,-757.569C445.079,-750.002 476.526,-740.486 499.546,-733.519"/>
<polygon fill="midnightblue" stroke="midnightblue" points="419.052,-754.222 410.494,-760.469 421.08,-760.922 419.052,-754.222"/>
</g>
<!-- Node4&#45;&gt;Node8 -->
<g id="edge10" class="edge"><title>Node4&#45;&gt;Node8</title>
<path fill="none" stroke="midnightblue" d="M428.835,-756.414C432.044,-754.799 435.133,-753 438,-751 459.292,-736.146 454.522,-722.163 474,-705 485.152,-695.173 499.539,-686.617 511.068,-680.545"/>
<polygon fill="midnightblue" stroke="midnightblue" points="427.299,-753.266 419.559,-760.5 430.121,-759.672 427.299,-753.266"/>
</g>
<!-- Node4&#45;&gt;Node9 -->
<g id="edge11" class="edge"><title>Node4&#45;&gt;Node9</title>
<path fill="none" stroke="midnightblue" d="M432.727,-755.35C434.594,-754.024 436.363,-752.577 438,-751 471.716,-718.516 442.479,-686.618 474,-652 480.93,-644.389 490.456,-638.727 499.737,-634.609"/>
<polygon fill="midnightblue" stroke="midnightblue" points="430.887,-752.371 424.009,-760.43 434.411,-758.419 430.887,-752.371"/>
</g>
<!-- Node12&#45;&gt;Node13 -->
<g id="edge15" class="edge"><title>Node12&#45;&gt;Node13</title>
<path fill="none" stroke="midnightblue" d="M272.551,-477.286C289.935,-480.235 308.419,-483.369 324.93,-486.169"/>
<polygon fill="midnightblue" stroke="midnightblue" points="272.91,-473.797 262.466,-475.576 271.74,-480.699 272.91,-473.797"/>
</g>
<!-- Node12&#45;&gt;Node14 -->
<g id="edge16" class="edge"><title>Node12&#45;&gt;Node14</title>
<path fill="none" stroke="midnightblue" d="M274.438,-454.794C293.949,-451.599 314.696,-448.202 332.388,-445.305"/>
<polygon fill="midnightblue" stroke="midnightblue" points="273.673,-451.372 264.37,-456.442 274.804,-458.28 273.673,-451.372"/>
</g>
<!-- Node20&#45;&gt;Node21 -->
<g id="edge26" class="edge"><title>Node20&#45;&gt;Node21</title>
<path fill="none" stroke="midnightblue" d="M259.209,-135.824C283.317,-141.182 311.44,-147.431 334.16,-152.48"/>
<polygon fill="midnightblue" stroke="midnightblue" points="259.672,-132.342 249.151,-133.589 258.153,-139.175 259.672,-132.342"/>
</g>
<!-- Node21&#45;&gt;Node22 -->
<g id="edge27" class="edge"><title>Node21&#45;&gt;Node22</title>
<path fill="none" stroke="midnightblue" d="M439.257,-169.532C456.626,-171.703 475.142,-174.018 490.958,-175.995"/>
<polygon fill="midnightblue" stroke="midnightblue" points="439.549,-166.041 429.192,-168.274 438.68,-172.987 439.549,-166.041"/>
</g>
</g>
</svg>
