<?xml version="1.0" encoding="UTF-8" standalone="no"?>
<!DOCTYPE svg PUBLIC "-//W3C//DTD SVG 1.1//EN"
 "http://www.w3.org/Graphics/SVG/1.1/DTD/svg11.dtd">
<!-- Generated by graphviz version 2.36.0 (20140111.2315)
 -->
<!-- Title: mutt_header_new Pages: 1 -->
<svg width="448pt" height="826pt"
 viewBox="0.00 0.00 448.00 826.00" xmlns="http://www.w3.org/2000/svg" xmlns:xlink="http://www.w3.org/1999/xlink">
<g id="graph0" class="graph" transform="scale(1 1) rotate(0) translate(4 822)">
<title>mutt_header_new</title>
<polygon fill="white" stroke="none" points="-4,4 -4,-822 444,-822 444,4 -4,4"/>
<!-- Node1 -->
<g id="node1" class="node"><title>Node1</title>
<polygon fill="#bfbfbf" stroke="black" points="0,-399.5 0,-418.5 94,-418.5 94,-399.5 0,-399.5"/>
<text text-anchor="middle" x="47" y="-406.5" font-family="Helvetica,sans-Serif" font-size="10.00">mutt_header_new</text>
</g>
<!-- Node2 -->
<g id="node2" class="node"><title>Node2</title>
<g id="a_node2"><a xlink:href="parse_8h.html#ad06e310e34e4b864ba64ee9301c57664" target="_top" xlink:title="parse a Message/RFC822 body ">
<polygon fill="white" stroke="red" points="130.5,-798.5 130.5,-817.5 273.5,-817.5 273.5,-798.5 130.5,-798.5"/>
<text text-anchor="middle" x="202" y="-805.5" font-family="Helvetica,sans-Serif" font-size="10.00">mutt_rfc822_parse_message</text>
</a>
</g>
</g>
<!-- Node1&#45;&gt;Node2 -->
<g id="edge1" class="edge"><title>Node1&#45;&gt;Node2</title>
<path fill="none" stroke="midnightblue" d="M49.5803,-428.691C55.6083,-498.938 79.4105,-735.872 130,-789 133.608,-792.789 137.881,-795.851 142.514,-798.323"/>
<polygon fill="midnightblue" stroke="midnightblue" points="53.0553,-428.245 48.7373,-418.57 46.0795,-428.826 53.0553,-428.245"/>
</g>
<!-- Node3 -->
<g id="node3" class="node"><title>Node3</title>
<g id="a_node3"><a xlink:href="serialize_8h.html#a556940057108b6e02ff298c2aabe4e6a" target="_top" xlink:title="Deserialise a Header object. ">
<polygon fill="white" stroke="black" points="148,-760.5 148,-779.5 256,-779.5 256,-760.5 148,-760.5"/>
<text text-anchor="middle" x="202" y="-767.5" font-family="Helvetica,sans-Serif" font-size="10.00">mutt_hcache_restore</text>
</a>
</g>
</g>
<!-- Node1&#45;&gt;Node3 -->
<g id="edge2" class="edge"><title>Node1&#45;&gt;Node3</title>
<path fill="none" stroke="midnightblue" d="M50.1029,-428.81C57.4702,-494.548 84.1801,-703.966 130,-751 134.986,-756.118 141.188,-759.907 147.836,-762.702"/>
<polygon fill="midnightblue" stroke="midnightblue" points="53.5516,-428.15 48.9851,-418.59 46.5931,-428.911 53.5516,-428.15"/>
</g>
<!-- Node4 -->
<g id="node4" class="node"><title>Node4</title>
<g id="a_node4"><a xlink:href="message_8c.html#a5dae54814b2746142369bbdef40b1b0f" target="_top" xlink:title="Read headers from the server. ">
<polygon fill="white" stroke="red" points="151.5,-722.5 151.5,-741.5 252.5,-741.5 252.5,-722.5 151.5,-722.5"/>
<text text-anchor="middle" x="202" y="-729.5" font-family="Helvetica,sans-Serif" font-size="10.00">imap_read_headers</text>
</a>
</g>
</g>
<!-- Node1&#45;&gt;Node4 -->
<g id="edge3" class="edge"><title>Node1&#45;&gt;Node4</title>
<path fill="none" stroke="midnightblue" d="M50.7601,-428.954C59.5793,-489.907 88.9256,-672.007 130,-713 135.871,-718.859 143.337,-722.968 151.211,-725.837"/>
<polygon fill="midnightblue" stroke="midnightblue" points="54.1824,-428.158 49.3131,-418.748 47.2517,-429.141 54.1824,-428.158"/>
</g>
<!-- Node5 -->
<g id="node5" class="node"><title>Node5</title>
<g id="a_node5"><a xlink:href="mailbox_8c.html#a1df8bd2fac7fff14fef8a06a055799d6" target="_top" xlink:title="Is the last message new. ">
<polygon fill="white" stroke="red" points="147,-684.5 147,-703.5 257,-703.5 257,-684.5 147,-684.5"/>
<text text-anchor="middle" x="202" y="-691.5" font-family="Helvetica,sans-Serif" font-size="10.00">test_last_status_new</text>
</a>
</g>
</g>
<!-- Node1&#45;&gt;Node5 -->
<g id="edge4" class="edge"><title>Node1&#45;&gt;Node5</title>
<path fill="none" stroke="midnightblue" d="M47.9843,-428.904C49.0703,-478.135 58.9479,-606.567 130,-675 134.779,-679.603 140.546,-683.12 146.703,-685.802"/>
<polygon fill="midnightblue" stroke="midnightblue" points="51.4814,-428.621 47.8656,-418.662 44.4818,-428.702 51.4814,-428.621"/>
</g>
<!-- Node6 -->
<g id="node6" class="node"><title>Node6</title>
<g id="a_node6"><a xlink:href="mh_8c.html#a265e3c2a1e6e4faa7a7036fd5543f9f4" target="_top" xlink:title="Parse a Maildir message. ">
<polygon fill="white" stroke="red" points="147,-646.5 147,-665.5 257,-665.5 257,-646.5 147,-646.5"/>
<text text-anchor="middle" x="202" y="-653.5" font-family="Helvetica,sans-Serif" font-size="10.00">maildir_parse_stream</text>
</a>
</g>
</g>
<!-- Node1&#45;&gt;Node6 -->
<g id="edge5" class="edge"><title>Node1&#45;&gt;Node6</title>
<path fill="none" stroke="midnightblue" d="M49.1857,-429.033C52.915,-473.329 68.1884,-580.161 130,-637 134.884,-641.491 140.714,-644.942 146.903,-647.589"/>
<polygon fill="midnightblue" stroke="midnightblue" points="52.6693,-428.679 48.4512,-418.96 45.6879,-429.189 52.6693,-428.679"/>
</g>
<!-- Node7 -->
<g id="node7" class="node"><title>Node7</title>
<g id="a_node7"><a xlink:href="mh_8c.html#aa8bb577bac75fec130c55fe1c5ff3543" target="_top" xlink:title="Read a Maildir mailbox. ">
<polygon fill="white" stroke="red" points="157,-608.5 157,-627.5 247,-627.5 247,-608.5 157,-608.5"/>
<text text-anchor="middle" x="202" y="-615.5" font-family="Helvetica,sans-Serif" font-size="10.00">maildir_parse_dir</text>
</a>
</g>
</g>
<!-- Node1&#45;&gt;Node7 -->
<g id="edge6" class="edge"><title>Node1&#45;&gt;Node7</title>
<path fill="none" stroke="midnightblue" d="M51.3513,-428.775C58.7369,-466.327 79.9102,-548.284 130,-594 137.592,-600.929 147.26,-605.868 156.999,-609.384"/>
<polygon fill="midnightblue" stroke="midnightblue" points="54.7375,-427.837 49.4851,-418.635 47.8531,-429.104 54.7375,-427.837"/>
</g>
<!-- Node8 -->
<g id="node8" class="node"><title>Node8</title>
<g id="a_node8"><a xlink:href="main_8c.html#adedb285b02c41bde2158ded9cc9fd7ac" target="_top" xlink:title="Start NeoMutt. ">
<polygon fill="white" stroke="black" points="356,-568.5 356,-587.5 394,-587.5 394,-568.5 356,-568.5"/>
<text text-anchor="middle" x="375" y="-575.5" font-family="Helvetica,sans-Serif" font-size="10.00">main</text>
</a>
</g>
</g>
<!-- Node1&#45;&gt;Node8 -->
<g id="edge7" class="edge"><title>Node1&#45;&gt;Node8</title>
<path fill="none" stroke="midnightblue" d="M54.3314,-428.325C64.9654,-457.484 89.3357,-512.167 130,-539 202.507,-586.845 312.978,-583.4 355.985,-579.871"/>
<polygon fill="midnightblue" stroke="midnightblue" points="57.6217,-427.13 51.0303,-418.835 51.0103,-429.43 57.6217,-427.13"/>
</g>
<!-- Node9 -->
<g id="node9" class="node"><title>Node9</title>
<g id="a_node9"><a xlink:href="mbox_8c.html#ae1efd8707efa96b7e0b8daf0105024ee" target="_top" xlink:title="Read a mailbox in MMDF format. ">
<polygon fill="white" stroke="red" points="147,-266.5 147,-285.5 257,-285.5 257,-266.5 147,-266.5"/>
<text text-anchor="middle" x="202" y="-273.5" font-family="Helvetica,sans-Serif" font-size="10.00">mmdf_parse_mailbox</text>
</a>
</g>
</g>
<!-- Node1&#45;&gt;Node9 -->
<g id="edge8" class="edge"><title>Node1&#45;&gt;Node9</title>
<path fill="none" stroke="midnightblue" d="M57.3678,-390.419C70.4572,-366.252 96.4334,-324.264 130,-300 138.647,-293.75 149.039,-289.041 159.171,-285.528"/>
<polygon fill="midnightblue" stroke="midnightblue" points="54.2545,-388.82 52.7053,-399.301 60.4524,-392.074 54.2545,-388.82"/>
</g>
<!-- Node10 -->
<g id="node10" class="node"><title>Node10</title>
<g id="a_node10"><a xlink:href="mbox_8c.html#ad72dff92f5cf9ec13c2819dbcf9e0c9b" target="_top" xlink:title="Read a mailbox from disk. ">
<polygon fill="white" stroke="red" points="147.5,-228.5 147.5,-247.5 256.5,-247.5 256.5,-228.5 147.5,-228.5"/>
<text text-anchor="middle" x="202" y="-235.5" font-family="Helvetica,sans-Serif" font-size="10.00">mbox_parse_mailbox</text>
</a>
</g>
</g>
<!-- Node1&#45;&gt;Node10 -->
<g id="edge9" class="edge"><title>Node1&#45;&gt;Node10</title>
<path fill="none" stroke="midnightblue" d="M53.0789,-389.38C62.5426,-356.815 86.0185,-291.757 130,-257 135.106,-252.965 140.995,-249.784 147.153,-247.276"/>
<polygon fill="midnightblue" stroke="midnightblue" points="49.5891,-388.869 50.3052,-399.44 56.3373,-390.73 49.5891,-388.869"/>
</g>
<!-- Node11 -->
<g id="node11" class="node"><title>Node11</title>
<g id="a_node11"><a xlink:href="muttlib_8h.html#a36f68a4f2032e52581c54a5f444f05bf" target="_top" xlink:title="Create the canonical path (with regex char escaping) ">
<polygon fill="white" stroke="red" points="139,-190.5 139,-209.5 265,-209.5 265,-190.5 139,-190.5"/>
<text text-anchor="middle" x="202" y="-197.5" font-family="Helvetica,sans-Serif" font-size="10.00">mutt_expand_path_regex</text>
</a>
</g>
</g>
<!-- Node1&#45;&gt;Node11 -->
<g id="edge10" class="edge"><title>Node1&#45;&gt;Node11</title>
<path fill="none" stroke="midnightblue" d="M50.7403,-389.444C57.2019,-350.864 77.0433,-264.741 130,-219 134.442,-215.163 139.58,-212.092 145.021,-209.635"/>
<polygon fill="midnightblue" stroke="midnightblue" points="47.2711,-388.976 49.1989,-399.394 54.1886,-390.048 47.2711,-388.976"/>
</g>
<!-- Node12 -->
<g id="node12" class="node"><title>Node12</title>
<g id="a_node12"><a xlink:href="nntp_8c.html#a5e39d9fec82ed686b26efe2aef42d906" target="_top" xlink:title="Parse overview line. ">
<polygon fill="white" stroke="black" points="149.5,-114.5 149.5,-133.5 254.5,-133.5 254.5,-114.5 149.5,-114.5"/>
<text text-anchor="middle" x="202" y="-121.5" font-family="Helvetica,sans-Serif" font-size="10.00">parse_overview_line</text>
</a>
</g>
</g>
<!-- Node1&#45;&gt;Node12 -->
<g id="edge11" class="edge"><title>Node1&#45;&gt;Node12</title>
<path fill="none" stroke="midnightblue" d="M48.4096,-389.104C50.486,-340.944 62.4811,-216.99 130,-148 136.189,-141.677 144.099,-137.019 152.38,-133.589"/>
<polygon fill="midnightblue" stroke="midnightblue" points="44.9018,-389.289 48.0728,-399.398 51.8981,-389.518 44.9018,-389.289"/>
</g>
<!-- Node13 -->
<g id="node13" class="node"><title>Node13</title>
<g id="a_node13"><a xlink:href="nntp_8c.html#a6437065331602c01b06ab900ba7eb9e4" target="_top" xlink:title="Fetch headers. ">
<polygon fill="white" stroke="red" points="324,-133.5 324,-152.5 426,-152.5 426,-133.5 324,-133.5"/>
<text text-anchor="middle" x="375" y="-140.5" font-family="Helvetica,sans-Serif" font-size="10.00">nntp_fetch_headers</text>
</a>
</g>
</g>
<!-- Node1&#45;&gt;Node13 -->
<g id="edge13" class="edge"><title>Node1&#45;&gt;Node13</title>
<path fill="none" stroke="midnightblue" d="M48.7176,-389.097C51.491,-344.183 64.9394,-234.699 130,-181 158.766,-157.257 261.15,-148.235 323.788,-144.891"/>
<polygon fill="midnightblue" stroke="midnightblue" points="45.2123,-389.117 48.209,-399.279 52.2036,-389.466 45.2123,-389.117"/>
</g>
<!-- Node14 -->
<g id="node14" class="node"><title>Node14</title>
<g id="a_node14"><a xlink:href="nntp_8h.html#a95d1bde908ca9d70a12fe5fa2b5ce0af" target="_top" xlink:title="Fetch article by Message&#45;ID. ">
<polygon fill="white" stroke="red" points="153,-76.5 153,-95.5 251,-95.5 251,-76.5 153,-76.5"/>
<text text-anchor="middle" x="202" y="-83.5" font-family="Helvetica,sans-Serif" font-size="10.00">nntp_check_msgid</text>
</a>
</g>
</g>
<!-- Node1&#45;&gt;Node14 -->
<g id="edge14" class="edge"><title>Node1&#45;&gt;Node14</title>
<path fill="none" stroke="midnightblue" d="M50.7601,-389.046C59.5793,-328.093 88.9256,-145.993 130,-105 136.232,-98.7805 144.262,-94.5334 152.669,-91.6473"/>
<polygon fill="midnightblue" stroke="midnightblue" points="47.2517,-388.859 49.3131,-399.252 54.1824,-389.842 47.2517,-388.859"/>
</g>
<!-- Node15 -->
<g id="node15" class="node"><title>Node15</title>
<g id="a_node15"><a xlink:href="pop_8c.html#a9e05d2231acde9488345aa63e125372a" target="_top" xlink:title="parse UIDL ">
<polygon fill="white" stroke="red" points="172.5,-38.5 172.5,-57.5 231.5,-57.5 231.5,-38.5 172.5,-38.5"/>
<text text-anchor="middle" x="202" y="-45.5" font-family="Helvetica,sans-Serif" font-size="10.00">fetch_uidl</text>
</a>
</g>
</g>
<!-- Node1&#45;&gt;Node15 -->
<g id="edge15" class="edge"><title>Node1&#45;&gt;Node15</title>
<path fill="none" stroke="midnightblue" d="M50.1029,-389.19C57.4702,-323.452 84.1801,-114.034 130,-67 140.952,-55.7578 157.77,-50.9325 172.289,-48.9531"/>
<polygon fill="midnightblue" stroke="midnightblue" points="46.5931,-389.089 48.9851,-399.41 53.5516,-389.85 46.5931,-389.089"/>
</g>
<!-- Node16 -->
<g id="node16" class="node"><title>Node16</title>
<g id="a_node16"><a xlink:href="query_8c.html#a1ca9d237583501cf25a206723b5c15ec" target="_top" xlink:title="Get the user to enter an Address Query. ">
<polygon fill="white" stroke="red" points="340,-528.5 340,-547.5 410,-547.5 410,-528.5 340,-528.5"/>
<text text-anchor="middle" x="375" y="-535.5" font-family="Helvetica,sans-Serif" font-size="10.00">query_menu</text>
</a>
</g>
</g>
<!-- Node1&#45;&gt;Node16 -->
<g id="edge16" class="edge"><title>Node1&#45;&gt;Node16</title>
<path fill="none" stroke="midnightblue" d="M57.4711,-427.733C70.3894,-451.119 95.8855,-490.313 130,-509 197.158,-545.788 290.098,-545.244 339.647,-541.634"/>
<polygon fill="midnightblue" stroke="midnightblue" points="60.4993,-425.973 52.7162,-418.784 54.3177,-429.258 60.4993,-425.973"/>
</g>
<!-- Node17 -->
<g id="node17" class="node"><title>Node17</title>
<g id="a_node17"><a xlink:href="recvcmd_8c.html#ad985f78448cd381d34cb45b710eddc90" target="_top" xlink:title="forward one or several MIME bodies ">
<polygon fill="white" stroke="red" points="317.5,-485.5 317.5,-504.5 432.5,-504.5 432.5,-485.5 317.5,-485.5"/>
<text text-anchor="middle" x="375" y="-492.5" font-family="Helvetica,sans-Serif" font-size="10.00">attach_forward_bodies</text>
</a>
</g>
</g>
<!-- Node1&#45;&gt;Node17 -->
<g id="edge17" class="edge"><title>Node1&#45;&gt;Node17</title>
<path fill="none" stroke="midnightblue" d="M60.9621,-426.896C75.4447,-445.265 100.737,-472.827 130,-485 190.283,-510.076 266.336,-508.601 317.371,-503.445"/>
<polygon fill="midnightblue" stroke="midnightblue" points="63.5888,-424.568 54.7508,-418.725 58.0161,-428.805 63.5888,-424.568"/>
</g>
<!-- Node18 -->
<g id="node18" class="node"><title>Node18</title>
<g id="a_node18"><a xlink:href="recvcmd_8c.html#ab5979027a0a9e06fb96e3e54ad77b9a7" target="_top" xlink:title="Forward one or several message&#45;type attachments. ">
<polygon fill="white" stroke="red" points="320,-438.5 320,-457.5 430,-457.5 430,-438.5 320,-438.5"/>
<text text-anchor="middle" x="375" y="-445.5" font-family="Helvetica,sans-Serif" font-size="10.00">attach_forward_msgs</text>
</a>
</g>
</g>
<!-- Node1&#45;&gt;Node18 -->
<g id="edge18" class="edge"><title>Node1&#45;&gt;Node18</title>
<path fill="none" stroke="midnightblue" d="M104.143,-415.716C164.598,-422.949 260.114,-434.376 319.804,-441.516"/>
<polygon fill="midnightblue" stroke="midnightblue" points="104.361,-412.218 94.0164,-414.505 103.53,-419.168 104.361,-412.218"/>
</g>
<!-- Node19 -->
<g id="node19" class="node"><title>Node19</title>
<g id="a_node19"><a xlink:href="recvcmd_8h.html#a40682fa92a787a3a065716d851677599" target="_top" xlink:title="Attach a reply. ">
<polygon fill="white" stroke="red" points="327.5,-381.5 327.5,-400.5 422.5,-400.5 422.5,-381.5 327.5,-381.5"/>
<text text-anchor="middle" x="375" y="-388.5" font-family="Helvetica,sans-Serif" font-size="10.00">mutt_attach_reply</text>
</a>
</g>
</g>
<!-- Node1&#45;&gt;Node19 -->
<g id="edge19" class="edge"><title>Node1&#45;&gt;Node19</title>
<path fill="none" stroke="midnightblue" d="M104.187,-405.898C167.29,-402.413 268.553,-396.822 327.427,-393.572"/>
<polygon fill="midnightblue" stroke="midnightblue" points="103.808,-402.413 94.0164,-406.459 104.194,-409.402 103.808,-402.413"/>
</g>
<!-- Node20 -->
<g id="node20" class="node"><title>Node20</title>
<g id="a_node20"><a xlink:href="send_8h.html#af73a105695bcdd42869729b39deeae3e" target="_top" xlink:title="Compose an email to the sender. ">
<polygon fill="white" stroke="red" points="310.5,-342.5 310.5,-361.5 439.5,-361.5 439.5,-342.5 310.5,-342.5"/>
<text text-anchor="middle" x="375" y="-349.5" font-family="Helvetica,sans-Serif" font-size="10.00">mutt_compose_to_sender</text>
</a>
</g>
</g>
<!-- Node1&#45;&gt;Node20 -->
<g id="edge20" class="edge"><title>Node1&#45;&gt;Node20</title>
<path fill="none" stroke="midnightblue" d="M102.121,-397.445C111.408,-395.558 120.972,-393.675 130,-392 191.516,-380.586 262.076,-369.203 311.442,-361.516"/>
<polygon fill="midnightblue" stroke="midnightblue" points="101.283,-394.044 92.1918,-399.484 102.692,-400.901 101.283,-394.044"/>
</g>
<!-- Node21 -->
<g id="node21" class="node"><title>Node21</title>
<g id="a_node21"><a xlink:href="send_8h.html#a9e554a8b485b628ccfeaa97810043c85" target="_top" xlink:title="Resend an email. ">
<polygon fill="white" stroke="red" points="317,-304.5 317,-323.5 433,-323.5 433,-304.5 317,-304.5"/>
<text text-anchor="middle" x="375" y="-311.5" font-family="Helvetica,sans-Serif" font-size="10.00">mutt_resend_message</text>
</a>
</g>
</g>
<!-- Node1&#45;&gt;Node21 -->
<g id="edge21" class="edge"><title>Node1&#45;&gt;Node21</title>
<path fill="none" stroke="midnightblue" d="M70.8217,-394.041C86.8022,-384.187 108.975,-371.723 130,-364 191.899,-341.264 266.638,-327.872 316.953,-320.761"/>
<polygon fill="midnightblue" stroke="midnightblue" points="68.7768,-391.193 62.1836,-399.486 72.5096,-397.114 68.7768,-391.193"/>
</g>
<!-- Node22 -->
<g id="node22" class="node"><title>Node22</title>
<g id="a_node22"><a xlink:href="send_8h.html#a09c909ab2bb41101590ed2b13f65fc2d" target="_top" xlink:title="Send an email. ">
<polygon fill="white" stroke="red" points="154.5,-456.5 154.5,-475.5 249.5,-475.5 249.5,-456.5 154.5,-456.5"/>
<text text-anchor="middle" x="202" y="-463.5" font-family="Helvetica,sans-Serif" font-size="10.00">ci_send_message</text>
</a>
</g>
</g>
<!-- Node1&#45;&gt;Node22 -->
<g id="edge22" class="edge"><title>Node1&#45;&gt;Node22</title>
<path fill="none" stroke="midnightblue" d="M80.2228,-422.458C95.2696,-428.616 113.471,-435.886 130,-442 143.546,-447.011 158.693,-452.188 171.506,-456.446"/>
<polygon fill="midnightblue" stroke="midnightblue" points="81.4192,-419.166 70.8397,-418.596 78.7544,-425.639 81.4192,-419.166"/>
</g>
<!-- Node23 -->
<g id="node23" class="node"><title>Node23</title>
<g id="a_node23"><a xlink:href="sendlib_8h.html#a008bb984b452b640a543a70b0ff2599d" target="_top" xlink:title="Create a message attachment. ">
<polygon fill="white" stroke="red" points="130.5,-0.5 130.5,-19.5 273.5,-19.5 273.5,-0.5 130.5,-0.5"/>
<text text-anchor="middle" x="202" y="-7.5" font-family="Helvetica,sans-Serif" font-size="10.00">mutt_make_message_attach</text>
</a>
</g>
</g>
<!-- Node1&#45;&gt;Node23 -->
<g id="edge30" class="edge"><title>Node1&#45;&gt;Node23</title>
<path fill="none" stroke="midnightblue" d="M49.5803,-389.309C55.6083,-319.062 79.4105,-82.1284 130,-29 133.608,-25.2112 137.881,-22.1487 142.514,-19.677"/>
<polygon fill="midnightblue" stroke="midnightblue" points="46.0795,-389.174 48.7373,-399.43 53.0553,-389.755 46.0795,-389.174"/>
</g>
<!-- Node12&#45;&gt;Node13 -->
<g id="edge12" class="edge"><title>Node12&#45;&gt;Node13</title>
<path fill="none" stroke="midnightblue" d="M264.741,-130.86C284.163,-133.018 305.361,-135.373 323.874,-137.43"/>
<polygon fill="midnightblue" stroke="midnightblue" points="265.095,-127.378 254.77,-129.752 264.322,-134.335 265.095,-127.378"/>
</g>
<!-- Node22&#45;&gt;Node8 -->
<g id="edge23" class="edge"><title>Node22&#45;&gt;Node8</title>
<path fill="none" stroke="midnightblue" d="M218.737,-482.91C238.36,-503.101 273.756,-536.683 310,-557 324.485,-565.12 342.592,-570.693 355.846,-574.046"/>
<polygon fill="midnightblue" stroke="midnightblue" points="221.23,-480.453 211.792,-475.64 216.169,-485.288 221.23,-480.453"/>
</g>
<!-- Node22&#45;&gt;Node16 -->
<g id="edge24" class="edge"><title>Node22&#45;&gt;Node16</title>
<path fill="none" stroke="midnightblue" d="M232.54,-479.854C253.905,-489.726 283.548,-503.12 310,-514 322.182,-519.011 335.832,-524.188 347.387,-528.446"/>
<polygon fill="midnightblue" stroke="midnightblue" points="233.891,-476.622 223.347,-475.587 230.944,-482.972 233.891,-476.622"/>
</g>
<!-- Node22&#45;&gt;Node17 -->
<g id="edge25" class="edge"><title>Node22&#45;&gt;Node17</title>
<path fill="none" stroke="midnightblue" d="M259.606,-475.6C278.351,-478.779 299.197,-482.314 317.905,-485.487"/>
<polygon fill="midnightblue" stroke="midnightblue" points="260.171,-472.146 249.727,-473.924 259,-479.047 260.171,-472.146"/>
</g>
<!-- Node22&#45;&gt;Node18 -->
<g id="edge26" class="edge"><title>Node22&#45;&gt;Node18</title>
<path fill="none" stroke="midnightblue" d="M259.89,-460.012C279.186,-457.98 300.679,-455.718 319.762,-453.709"/>
<polygon fill="midnightblue" stroke="midnightblue" points="259.305,-456.554 249.727,-461.081 260.038,-463.515 259.305,-456.554"/>
</g>
<!-- Node22&#45;&gt;Node19 -->
<g id="edge27" class="edge"><title>Node22&#45;&gt;Node19</title>
<path fill="none" stroke="midnightblue" d="M234.507,-452.181C268.651,-437.206 322.24,-413.702 352.079,-400.614"/>
<polygon fill="midnightblue" stroke="midnightblue" points="232.757,-449.127 225.005,-456.349 235.569,-455.537 232.757,-449.127"/>
</g>
<!-- Node22&#45;&gt;Node20 -->
<g id="edge28" class="edge"><title>Node22&#45;&gt;Node20</title>
<path fill="none" stroke="midnightblue" d="M218.273,-448.74C237.669,-427.802 273.079,-392.742 310,-372 317.51,-367.781 326.026,-364.33 334.339,-361.555"/>
<polygon fill="midnightblue" stroke="midnightblue" points="215.568,-446.511 211.429,-456.264 220.747,-451.221 215.568,-446.511"/>
</g>
<!-- Node22&#45;&gt;Node21 -->
<g id="edge29" class="edge"><title>Node22&#45;&gt;Node21</title>
<path fill="none" stroke="midnightblue" d="M213.052,-447.273C229.492,-418.423 264.872,-363.278 310,-333 315.775,-329.125 322.358,-326.023 329.054,-323.545"/>
<polygon fill="midnightblue" stroke="midnightblue" points="209.835,-445.856 208.041,-456.298 215.955,-449.254 209.835,-445.856"/>
</g>
</g>
</svg>
