<?xml version="1.0" encoding="UTF-8" standalone="no"?>
<!DOCTYPE svg PUBLIC "-//W3C//DTD SVG 1.1//EN"
 "http://www.w3.org/Graphics/SVG/1.1/DTD/svg11.dtd">
<!-- Generated by graphviz version 2.36.0 (20140111.2315)
 -->
<!-- Title: mutt_header_free Pages: 1 -->
<svg width="334pt" height="160pt"
 viewBox="0.00 0.00 334.00 160.00" xmlns="http://www.w3.org/2000/svg" xmlns:xlink="http://www.w3.org/1999/xlink">
<g id="graph0" class="graph" transform="scale(1 1) rotate(0) translate(4 156)">
<title>mutt_header_free</title>
<polygon fill="white" stroke="none" points="-4,4 -4,-156 330,-156 330,4 -4,4"/>
<!-- Node1 -->
<g id="node1" class="node"><title>Node1</title>
<polygon fill="#bfbfbf" stroke="black" points="0,-66.5 0,-85.5 92,-85.5 92,-66.5 0,-66.5"/>
<text text-anchor="middle" x="46" y="-73.5" font-family="Helvetica,sans-Serif" font-size="10.00">mutt_header_free</text>
</g>
<!-- Node2 -->
<g id="node2" class="node"><title>Node2</title>
<g id="a_node2"><a xlink:href="envelope_8c.html#a95a982abab9f28dc46d9a5da0b64ae4c" target="_top" xlink:title="Free an Envelope. ">
<polygon fill="white" stroke="red" points="131.5,-132.5 131.5,-151.5 210.5,-151.5 210.5,-132.5 131.5,-132.5"/>
<text text-anchor="middle" x="171" y="-139.5" font-family="Helvetica,sans-Serif" font-size="10.00">mutt_env_free</text>
</a>
</g>
</g>
<!-- Node1&#45;&gt;Node2 -->
<g id="edge1" class="edge"><title>Node1&#45;&gt;Node2</title>
<path fill="none" stroke="midnightblue" d="M64.8853,-85.597C85.4724,-96.6437 119.494,-114.899 143.237,-127.639"/>
<polygon fill="midnightblue" stroke="midnightblue" points="141.627,-130.747 152.093,-132.391 144.936,-124.579 141.627,-130.747"/>
</g>
<!-- Node3 -->
<g id="node3" class="node"><title>Node3</title>
<g id="a_node3"><a xlink:href="list_8c.html#ab5c53ce94cc2aafa4299dbc81a37f4a4" target="_top" xlink:title="Free a List AND its strings. ">
<polygon fill="white" stroke="black" points="250,-113.5 250,-132.5 326,-132.5 326,-113.5 250,-113.5"/>
<text text-anchor="middle" x="288" y="-120.5" font-family="Helvetica,sans-Serif" font-size="10.00">mutt_list_free</text>
</a>
</g>
</g>
<!-- Node1&#45;&gt;Node3 -->
<g id="edge5" class="edge"><title>Node1&#45;&gt;Node3</title>
<path fill="none" stroke="midnightblue" d="M92.1422,-84.8403C134.38,-93.1119 197.219,-105.418 240.037,-113.803"/>
<polygon fill="midnightblue" stroke="midnightblue" points="239.441,-117.253 249.928,-115.74 240.787,-110.383 239.441,-117.253"/>
</g>
<!-- Node4 -->
<g id="node4" class="node"><title>Node4</title>
<g id="a_node4"><a xlink:href="body_8c.html#a43826190bac1662a61f5b08d915ee000" target="_top" xlink:title="Free a Body. ">
<polygon fill="white" stroke="red" points="129,-38.5 129,-57.5 213,-57.5 213,-38.5 129,-38.5"/>
<text text-anchor="middle" x="171" y="-45.5" font-family="Helvetica,sans-Serif" font-size="10.00">mutt_body_free</text>
</a>
</g>
</g>
<!-- Node1&#45;&gt;Node4 -->
<g id="edge3" class="edge"><title>Node1&#45;&gt;Node4</title>
<path fill="none" stroke="midnightblue" d="M88.9856,-66.4423C98.5896,-64.256 108.902,-61.9085 118.843,-59.6455"/>
<polygon fill="midnightblue" stroke="midnightblue" points="119.647,-63.0522 128.62,-57.4198 118.093,-56.2268 119.647,-63.0522"/>
</g>
<!-- Node5 -->
<g id="node5" class="node"><title>Node5</title>
<g id="a_node5"><a xlink:href="tags_8c.html#a825bfe477d7a38a6619cdb4b0bbd93c8" target="_top" xlink:title="Free tags from a header. ">
<polygon fill="white" stroke="black" points="128,-0.5 128,-19.5 214,-19.5 214,-0.5 128,-0.5"/>
<text text-anchor="middle" x="171" y="-7.5" font-family="Helvetica,sans-Serif" font-size="10.00">driver_tags_free</text>
</a>
</g>
</g>
<!-- Node1&#45;&gt;Node5 -->
<g id="edge6" class="edge"><title>Node1&#45;&gt;Node5</title>
<path fill="none" stroke="midnightblue" d="M62.5695,-66.3351C78.6886,-56.4797 104.725,-40.9783 128,-29 131.327,-27.2879 134.839,-25.5675 138.358,-23.8989"/>
<polygon fill="midnightblue" stroke="midnightblue" points="139.957,-27.0158 147.567,-19.6444 137.021,-20.6612 139.957,-27.0158"/>
</g>
<!-- Node2&#45;&gt;Node3 -->
<g id="edge2" class="edge"><title>Node2&#45;&gt;Node3</title>
<path fill="none" stroke="midnightblue" d="M210.613,-135.62C220.008,-134.068 230.16,-132.391 239.9,-130.782"/>
<polygon fill="midnightblue" stroke="midnightblue" points="240.557,-134.221 249.853,-129.137 239.416,-127.314 240.557,-134.221"/>
</g>
<!-- Node4&#45;&gt;Node4 -->
<g id="edge4" class="edge"><title>Node4&#45;&gt;Node4</title>
<path fill="none" stroke="midnightblue" d="M153.121,-57.7571C144.423,-66.5653 150.383,-76 171,-76 183.886,-76 191.046,-72.3146 192.48,-67.4"/>
<polygon fill="midnightblue" stroke="midnightblue" points="195.657,-65.9004 188.879,-57.7571 189.099,-68.3496 195.657,-65.9004"/>
</g>
</g>
</svg>
