<?xml version="1.0" encoding="UTF-8" standalone="no"?>
<!DOCTYPE svg PUBLIC "-//W3C//DTD SVG 1.1//EN"
 "http://www.w3.org/Graphics/SVG/1.1/DTD/svg11.dtd">
<!-- Generated by graphviz version 2.36.0 (20140111.2315)
 -->
<!-- Title: mutt_header_cmp_strict Pages: 1 -->
<svg width="280pt" height="66pt"
 viewBox="0.00 0.00 280.00 66.00" xmlns="http://www.w3.org/2000/svg" xmlns:xlink="http://www.w3.org/1999/xlink">
<g id="graph0" class="graph" transform="scale(1 1) rotate(0) translate(4 62)">
<title>mutt_header_cmp_strict</title>
<polygon fill="white" stroke="none" points="-4,4 -4,-62 276,-62 276,4 -4,4"/>
<!-- Node1 -->
<g id="node1" class="node"><title>Node1</title>
<polygon fill="#bfbfbf" stroke="black" points="0,-19.5 0,-38.5 122,-38.5 122,-19.5 0,-19.5"/>
<text text-anchor="middle" x="61" y="-26.5" font-family="Helvetica,sans-Serif" font-size="10.00">mutt_header_cmp_strict</text>
</g>
<!-- Node2 -->
<g id="node2" class="node"><title>Node2</title>
<g id="a_node2"><a xlink:href="envelope_8c.html#ae2a0adc41fba1815de39e238ed9c129a" target="_top" xlink:title="Strictly compare two Envelopes. ">
<polygon fill="white" stroke="red" points="161,-38.5 161,-57.5 269,-57.5 269,-38.5 161,-38.5"/>
<text text-anchor="middle" x="215" y="-45.5" font-family="Helvetica,sans-Serif" font-size="10.00">mutt_env_cmp_strict</text>
</a>
</g>
</g>
<!-- Node1&#45;&gt;Node2 -->
<g id="edge1" class="edge"><title>Node1&#45;&gt;Node2</title>
<path fill="none" stroke="midnightblue" d="M122.074,-36.5093C131.459,-37.6824 141.183,-38.8979 150.638,-40.0798"/>
<polygon fill="midnightblue" stroke="midnightblue" points="150.407,-43.5781 160.764,-41.3455 151.276,-36.6321 150.407,-43.5781"/>
</g>
<!-- Node3 -->
<g id="node3" class="node"><title>Node3</title>
<g id="a_node3"><a xlink:href="body_8c.html#af8bf716dc11fb780a1d2492fe722e1ae" target="_top" xlink:title="Strictly compare two email Body&#39;s. ">
<polygon fill="white" stroke="red" points="158.5,-0.5 158.5,-19.5 271.5,-19.5 271.5,-0.5 158.5,-0.5"/>
<text text-anchor="middle" x="215" y="-7.5" font-family="Helvetica,sans-Serif" font-size="10.00">mutt_body_cmp_strict</text>
</a>
</g>
</g>
<!-- Node1&#45;&gt;Node3 -->
<g id="edge2" class="edge"><title>Node1&#45;&gt;Node3</title>
<path fill="none" stroke="midnightblue" d="M122.074,-21.4907C130.663,-20.4171 139.536,-19.308 148.227,-18.2217"/>
<polygon fill="midnightblue" stroke="midnightblue" points="148.829,-21.6737 158.318,-16.9603 147.961,-14.7277 148.829,-21.6737"/>
</g>
</g>
</svg>
