<?xml version="1.0" encoding="UTF-8" standalone="no"?>
<!DOCTYPE svg PUBLIC "-//W3C//DTD SVG 1.1//EN"
 "http://www.w3.org/Graphics/SVG/1.1/DTD/svg11.dtd">
<!-- Generated by graphviz version 2.36.0 (20140111.2315)
 -->
<!-- Title: mutt_make_help Pages: 1 -->
<svg width="222pt" height="66pt"
 viewBox="0.00 0.00 222.00 66.00" xmlns="http://www.w3.org/2000/svg" xmlns:xlink="http://www.w3.org/1999/xlink">
<g id="graph0" class="graph" transform="scale(1 1) rotate(0) translate(4 62)">
<title>mutt_make_help</title>
<polygon fill="white" stroke="none" points="-4,4 -4,-62 218,-62 218,4 -4,4"/>
<!-- Node1 -->
<g id="node1" class="node"><title>Node1</title>
<polygon fill="#bfbfbf" stroke="black" points="0.5,-19.5 0.5,-38.5 89.5,-38.5 89.5,-19.5 0.5,-19.5"/>
<text text-anchor="middle" x="45" y="-26.5" font-family="Helvetica,sans-Serif" font-size="10.00">mutt_make_help</text>
</g>
<!-- Node2 -->
<g id="node2" class="node"><title>Node2</title>
<g id="a_node2"><a xlink:href="keymap_8c.html#a830fff42df69ae5c6e256eb03ce18892" target="_top" xlink:title="Get the key string bound to a Keymap. ">
<polygon fill="white" stroke="red" points="126,-38.5 126,-57.5 214,-57.5 214,-38.5 126,-38.5"/>
<text text-anchor="middle" x="170" y="-45.5" font-family="Helvetica,sans-Serif" font-size="10.00">km_expand_key</text>
</a>
</g>
</g>
<!-- Node1&#45;&gt;Node2 -->
<g id="edge1" class="edge"><title>Node1&#45;&gt;Node2</title>
<path fill="none" stroke="midnightblue" d="M89.7115,-35.7522C98.1486,-37.0555 107.074,-38.4343 115.775,-39.7783"/>
<polygon fill="midnightblue" stroke="midnightblue" points="115.426,-43.2657 125.843,-41.3335 116.494,-36.3478 115.426,-43.2657"/>
</g>
<!-- Node3 -->
<g id="node3" class="node"><title>Node3</title>
<g id="a_node3"><a xlink:href="keymap_8c.html#a5b1af7a128e8b7c8806fd5e947269041" target="_top" xlink:title="Find a function&#39;s mapping in a Menu. ">
<polygon fill="white" stroke="black" points="132.5,-0.5 132.5,-19.5 207.5,-19.5 207.5,-0.5 132.5,-0.5"/>
<text text-anchor="middle" x="170" y="-7.5" font-family="Helvetica,sans-Serif" font-size="10.00">km_find_func</text>
</a>
</g>
</g>
<!-- Node1&#45;&gt;Node3 -->
<g id="edge2" class="edge"><title>Node1&#45;&gt;Node3</title>
<path fill="none" stroke="midnightblue" d="M89.7115,-22.2478C100.282,-20.615 111.619,-18.8638 122.319,-17.2108"/>
<polygon fill="midnightblue" stroke="midnightblue" points="122.99,-20.6489 132.338,-15.6632 121.921,-13.731 122.99,-20.6489"/>
</g>
</g>
</svg>
