<?xml version="1.0" encoding="UTF-8" standalone="no"?>
<!DOCTYPE svg PUBLIC "-//W3C//DTD SVG 1.1//EN"
 "http://www.w3.org/Graphics/SVG/1.1/DTD/svg11.dtd">
<!-- Generated by graphviz version 2.36.0 (20140111.2315)
 -->
<!-- Title: dump_unbound Pages: 1 -->
<svg width="194pt" height="66pt"
 viewBox="0.00 0.00 194.00 66.00" xmlns="http://www.w3.org/2000/svg" xmlns:xlink="http://www.w3.org/1999/xlink">
<g id="graph0" class="graph" transform="scale(1 1) rotate(0) translate(4 62)">
<title>dump_unbound</title>
<polygon fill="white" stroke="none" points="-4,4 -4,-62 190,-62 190,4 -4,4"/>
<!-- Node1 -->
<g id="node1" class="node"><title>Node1</title>
<polygon fill="#bfbfbf" stroke="black" points="0.5,-19.5 0.5,-38.5 83.5,-38.5 83.5,-19.5 0.5,-19.5"/>
<text text-anchor="middle" x="42" y="-26.5" font-family="Helvetica,sans-Serif" font-size="10.00">dump_unbound</text>
</g>
<!-- Node2 -->
<g id="node2" class="node"><title>Node2</title>
<g id="a_node2"><a xlink:href="help_8c.html#a1eaef1827a839c5c77b4d75c3a07605c" target="_top" xlink:title="Does a function have a keybinding? ">
<polygon fill="white" stroke="black" points="125,-38.5 125,-57.5 181,-57.5 181,-38.5 125,-38.5"/>
<text text-anchor="middle" x="153" y="-45.5" font-family="Helvetica,sans-Serif" font-size="10.00">is_bound</text>
</a>
</g>
</g>
<!-- Node1&#45;&gt;Node2 -->
<g id="edge1" class="edge"><title>Node1&#45;&gt;Node2</title>
<path fill="none" stroke="midnightblue" d="M83.5876,-36.0749C93.83,-37.8603 104.775,-39.7681 114.839,-41.5225"/>
<polygon fill="midnightblue" stroke="midnightblue" points="114.49,-45.0142 124.942,-43.2835 115.692,-38.1182 114.49,-45.0142"/>
</g>
<!-- Node3 -->
<g id="node3" class="node"><title>Node3</title>
<g id="a_node3"><a xlink:href="help_8c.html#a9e1608cd2b9e1d46e3cdb8b2bb65c3bc" target="_top" xlink:title="Write a formatted line to a file. ">
<polygon fill="white" stroke="red" points="120.5,-0.5 120.5,-19.5 185.5,-19.5 185.5,-0.5 120.5,-0.5"/>
<text text-anchor="middle" x="153" y="-7.5" font-family="Helvetica,sans-Serif" font-size="10.00">format_line</text>
</a>
</g>
</g>
<!-- Node1&#45;&gt;Node3 -->
<g id="edge2" class="edge"><title>Node1&#45;&gt;Node3</title>
<path fill="none" stroke="midnightblue" d="M83.5876,-21.9251C92.2885,-20.4084 101.496,-18.8034 110.241,-17.2791"/>
<polygon fill="midnightblue" stroke="midnightblue" points="110.984,-20.7024 120.235,-15.5371 109.782,-13.8064 110.984,-20.7024"/>
</g>
</g>
</svg>
