<?xml version="1.0" encoding="UTF-8" standalone="no"?>
<!DOCTYPE svg PUBLIC "-//W3C//DTD SVG 1.1//EN"
 "http://www.w3.org/Graphics/SVG/1.1/DTD/svg11.dtd">
<!-- Generated by graphviz version 2.36.0 (20140111.2315)
 -->
<!-- Title: get_history Pages: 1 -->
<svg width="346pt" height="294pt"
 viewBox="0.00 0.00 346.00 294.00" xmlns="http://www.w3.org/2000/svg" xmlns:xlink="http://www.w3.org/1999/xlink">
<g id="graph0" class="graph" transform="scale(1 1) rotate(0) translate(4 290)">
<title>get_history</title>
<polygon fill="white" stroke="none" points="-4,4 -4,-290 342,-290 342,4 -4,4"/>
<!-- Node1 -->
<g id="node1" class="node"><title>Node1</title>
<polygon fill="#bfbfbf" stroke="black" points="0.5,-133.5 0.5,-152.5 65.5,-152.5 65.5,-133.5 0.5,-133.5"/>
<text text-anchor="middle" x="33" y="-140.5" font-family="Helvetica,sans-Serif" font-size="10.00">get_history</text>
</g>
<!-- Node2 -->
<g id="node2" class="node"><title>Node2</title>
<g id="a_node2"><a xlink:href="history_8c.html#a115238984c7cbc554e1526f7ce460f60" target="_top" xlink:title="De&#45;dupe the history. ">
<polygon fill="white" stroke="black" points="108,-266.5 108,-285.5 218,-285.5 218,-266.5 108,-266.5"/>
<text text-anchor="middle" x="163" y="-273.5" font-family="Helvetica,sans-Serif" font-size="10.00">remove_history_dups</text>
</a>
</g>
</g>
<!-- Node1&#45;&gt;Node2 -->
<g id="edge1" class="edge"><title>Node1&#45;&gt;Node2</title>
<path fill="none" stroke="midnightblue" d="M41.415,-161.99C51.6738,-186 72.3479,-227.188 102,-252 109.4,-258.192 118.599,-262.932 127.553,-266.497"/>
<polygon fill="midnightblue" stroke="midnightblue" points="44.5834,-160.492 37.5496,-152.569 38.1072,-163.149 44.5834,-160.492"/>
</g>
<!-- Node3 -->
<g id="node3" class="node"><title>Node3</title>
<g id="a_node3"><a xlink:href="history_8h.html#a541c9c8be36706c87b62c896a897f680" target="_top" xlink:title="Add a string to a history. ">
<polygon fill="white" stroke="red" points="260,-247.5 260,-266.5 338,-266.5 338,-247.5 260,-247.5"/>
<text text-anchor="middle" x="299" y="-254.5" font-family="Helvetica,sans-Serif" font-size="10.00">mutt_hist_add</text>
</a>
</g>
</g>
<!-- Node1&#45;&gt;Node3 -->
<g id="edge4" class="edge"><title>Node1&#45;&gt;Node3</title>
<path fill="none" stroke="midnightblue" d="M45.4291,-161.606C57.3109,-179.275 77.5749,-205.138 102,-219 151.589,-247.143 218.378,-254.808 259.787,-256.692"/>
<polygon fill="midnightblue" stroke="midnightblue" points="48.0823,-159.263 39.7172,-152.761 42.2018,-163.06 48.0823,-159.263"/>
</g>
<!-- Node4 -->
<g id="node4" class="node"><title>Node4</title>
<g id="a_node4"><a xlink:href="history_8h.html#a005f30de35d49e92f06bfb4289722dce" target="_top" xlink:title="Find matches in a history list. ">
<polygon fill="white" stroke="red" points="117,-190.5 117,-209.5 209,-209.5 209,-190.5 117,-190.5"/>
<text text-anchor="middle" x="163" y="-197.5" font-family="Helvetica,sans-Serif" font-size="10.00">mutt_hist_search</text>
</a>
</g>
</g>
<!-- Node1&#45;&gt;Node4 -->
<g id="edge3" class="edge"><title>Node1&#45;&gt;Node4</title>
<path fill="none" stroke="midnightblue" d="M57.5915,-157.745C70.4067,-165.35 86.7174,-174.392 102,-181 110.123,-184.513 119.113,-187.705 127.607,-190.427"/>
<polygon fill="midnightblue" stroke="midnightblue" points="59.3109,-154.695 48.9424,-152.516 55.6893,-160.685 59.3109,-154.695"/>
</g>
<!-- Node5 -->
<g id="node5" class="node"><title>Node5</title>
<g id="a_node5"><a xlink:href="history_8h.html#a3bd0e4a7ce28aae28736c86f577968b9" target="_top" xlink:title="Get the next string in a History. ">
<polygon fill="white" stroke="red" points="122.5,-152.5 122.5,-171.5 203.5,-171.5 203.5,-152.5 122.5,-152.5"/>
<text text-anchor="middle" x="163" y="-159.5" font-family="Helvetica,sans-Serif" font-size="10.00">mutt_hist_next</text>
</a>
</g>
</g>
<!-- Node1&#45;&gt;Node5 -->
<g id="edge5" class="edge"><title>Node1&#45;&gt;Node5</title>
<path fill="none" stroke="midnightblue" d="M75.6982,-149.19C90.729,-151.421 107.635,-153.93 122.475,-156.133"/>
<polygon fill="midnightblue" stroke="midnightblue" points="76.046,-145.703 65.6405,-147.697 75.0181,-152.627 76.046,-145.703"/>
</g>
<!-- Node6 -->
<g id="node6" class="node"><title>Node6</title>
<g id="a_node6"><a xlink:href="history_8h.html#a9c81cb82877d80de3874bc359c473d12" target="_top" xlink:title="Get the previous string in a History. ">
<polygon fill="white" stroke="red" points="122.5,-114.5 122.5,-133.5 203.5,-133.5 203.5,-114.5 122.5,-114.5"/>
<text text-anchor="middle" x="163" y="-121.5" font-family="Helvetica,sans-Serif" font-size="10.00">mutt_hist_prev</text>
</a>
</g>
</g>
<!-- Node1&#45;&gt;Node6 -->
<g id="edge6" class="edge"><title>Node1&#45;&gt;Node6</title>
<path fill="none" stroke="midnightblue" d="M75.6982,-136.81C90.729,-134.579 107.635,-132.07 122.475,-129.867"/>
<polygon fill="midnightblue" stroke="midnightblue" points="75.0181,-133.373 65.6405,-138.303 76.046,-140.297 75.0181,-133.373"/>
</g>
<!-- Node7 -->
<g id="node7" class="node"><title>Node7</title>
<g id="a_node7"><a xlink:href="history_8h.html#a6197a536a3da0385551bac50a45d6a7a" target="_top" xlink:title="Move the &#39;current&#39; position to the end of the History. ">
<polygon fill="white" stroke="red" points="107.5,-76.5 107.5,-95.5 218.5,-95.5 218.5,-76.5 107.5,-76.5"/>
<text text-anchor="middle" x="163" y="-83.5" font-family="Helvetica,sans-Serif" font-size="10.00">mutt_hist_reset_state</text>
</a>
</g>
</g>
<!-- Node1&#45;&gt;Node7 -->
<g id="edge7" class="edge"><title>Node1&#45;&gt;Node7</title>
<path fill="none" stroke="midnightblue" d="M57.5915,-128.255C70.4067,-120.65 86.7174,-111.608 102,-105 110.123,-101.487 119.113,-98.2953 127.607,-95.5728"/>
<polygon fill="midnightblue" stroke="midnightblue" points="55.6893,-125.315 48.9424,-133.484 59.3109,-131.305 55.6893,-125.315"/>
</g>
<!-- Node8 -->
<g id="node8" class="node"><title>Node8</title>
<g id="a_node8"><a xlink:href="history_8h.html#a493d2064e68bab2fe5cee4b4769c2d49" target="_top" xlink:title="Is the current History position at the &#39;scratch&#39; place? ">
<polygon fill="white" stroke="red" points="109,-38.5 109,-57.5 217,-57.5 217,-38.5 109,-38.5"/>
<text text-anchor="middle" x="163" y="-45.5" font-family="Helvetica,sans-Serif" font-size="10.00">mutt_hist_at_scratch</text>
</a>
</g>
</g>
<!-- Node1&#45;&gt;Node8 -->
<g id="edge8" class="edge"><title>Node1&#45;&gt;Node8</title>
<path fill="none" stroke="midnightblue" d="M45.9876,-124.719C58.1664,-107.505 78.5387,-82.1636 102,-67 107.965,-63.1448 114.769,-60.0224 121.601,-57.5093"/>
<polygon fill="midnightblue" stroke="midnightblue" points="42.8546,-123.1 40.097,-133.329 48.632,-127.052 42.8546,-123.1"/>
</g>
<!-- Node9 -->
<g id="node9" class="node"><title>Node9</title>
<g id="a_node9"><a xlink:href="history_8h.html#a2d26cab55cd51b83f6e2a45a8ce44799" target="_top" xlink:title="Save a temporary string to the History. ">
<polygon fill="white" stroke="red" points="102.5,-0.5 102.5,-19.5 223.5,-19.5 223.5,-0.5 102.5,-0.5"/>
<text text-anchor="middle" x="163" y="-7.5" font-family="Helvetica,sans-Serif" font-size="10.00">mutt_hist_save_scratch</text>
</a>
</g>
</g>
<!-- Node1&#45;&gt;Node9 -->
<g id="edge9" class="edge"><title>Node1&#45;&gt;Node9</title>
<path fill="none" stroke="midnightblue" d="M40.4766,-123.883C50.0156,-98.5579 70.2266,-54.1633 102,-29 106.882,-25.1333 112.565,-22.0466 118.45,-19.5842"/>
<polygon fill="midnightblue" stroke="midnightblue" points="37.1241,-122.863 37.0392,-133.457 43.7124,-125.228 37.1241,-122.863"/>
</g>
<!-- Node2&#45;&gt;Node3 -->
<g id="edge2" class="edge"><title>Node2&#45;&gt;Node3</title>
<path fill="none" stroke="midnightblue" d="M228.35,-266.876C239.089,-265.353 249.92,-263.817 259.735,-262.426"/>
<polygon fill="midnightblue" stroke="midnightblue" points="227.526,-263.457 218.117,-268.327 228.509,-270.388 227.526,-263.457"/>
</g>
</g>
</svg>
