<?xml version="1.0" encoding="UTF-8" standalone="no"?>
<!DOCTYPE svg PUBLIC "-//W3C//DTD SVG 1.1//EN"
 "http://www.w3.org/Graphics/SVG/1.1/DTD/svg11.dtd">
<!-- Generated by graphviz version 2.36.0 (20140111.2315)
 -->
<!-- Title: mutt_hist_read_file Pages: 1 -->
<svg width="264pt" height="180pt"
 viewBox="0.00 0.00 264.00 180.00" xmlns="http://www.w3.org/2000/svg" xmlns:xlink="http://www.w3.org/1999/xlink">
<g id="graph0" class="graph" transform="scale(1 1) rotate(0) translate(4 176)">
<title>mutt_hist_read_file</title>
<polygon fill="white" stroke="none" points="-4,4 -4,-176 260,-176 260,4 -4,4"/>
<!-- Node1 -->
<g id="node1" class="node"><title>Node1</title>
<polygon fill="#bfbfbf" stroke="black" points="0.5,-76.5 0.5,-95.5 99.5,-95.5 99.5,-76.5 0.5,-76.5"/>
<text text-anchor="middle" x="50" y="-83.5" font-family="Helvetica,sans-Serif" font-size="10.00">mutt_hist_read_file</text>
</g>
<!-- Node2 -->
<g id="node2" class="node"><title>Node2</title>
<g id="a_node2"><a xlink:href="file_8c.html#a925820fb917e9a6a0542baa02ec7ed2c" target="_top" xlink:title="Read a line from a file. ">
<polygon fill="white" stroke="red" points="147,-152.5 147,-171.5 245,-171.5 245,-152.5 147,-152.5"/>
<text text-anchor="middle" x="196" y="-159.5" font-family="Helvetica,sans-Serif" font-size="10.00">mutt_file_read_line</text>
</a>
</g>
</g>
<!-- Node1&#45;&gt;Node2 -->
<g id="edge1" class="edge"><title>Node1&#45;&gt;Node2</title>
<path fill="none" stroke="midnightblue" d="M63.0122,-95.6493C78.908,-108.033 108.177,-129.521 136,-143 140.428,-145.145 145.156,-147.13 149.935,-148.943"/>
<polygon fill="midnightblue" stroke="midnightblue" points="149.145,-152.376 159.74,-152.421 151.485,-145.779 149.145,-152.376"/>
</g>
<!-- Node3 -->
<g id="node3" class="node"><title>Node3</title>
<g id="a_node3"><a xlink:href="mutt_2string_8c.html#ae48085384a6545e0fac589a88243ea31" target="_top" xlink:title="Copy a string, safely. ">
<polygon fill="white" stroke="red" points="153.5,-114.5 153.5,-133.5 238.5,-133.5 238.5,-114.5 153.5,-114.5"/>
<text text-anchor="middle" x="196" y="-121.5" font-family="Helvetica,sans-Serif" font-size="10.00">mutt_str_strdup</text>
</a>
</g>
</g>
<!-- Node1&#45;&gt;Node3 -->
<g id="edge2" class="edge"><title>Node1&#45;&gt;Node3</title>
<path fill="none" stroke="midnightblue" d="M87.3373,-95.589C106.083,-100.536 129.143,-106.621 149.107,-111.889"/>
<polygon fill="midnightblue" stroke="midnightblue" points="148.362,-115.312 158.924,-114.48 150.148,-108.544 148.362,-115.312"/>
</g>
<!-- Node4 -->
<g id="node4" class="node"><title>Node4</title>
<g id="a_node4"><a xlink:href="charset_8c.html#ab7e77d77daee2304cbdabeb54bdb3e97" target="_top" xlink:title="Convert a string between encodings. ">
<polygon fill="white" stroke="red" points="136.5,-76.5 136.5,-95.5 255.5,-95.5 255.5,-76.5 136.5,-76.5"/>
<text text-anchor="middle" x="196" y="-83.5" font-family="Helvetica,sans-Serif" font-size="10.00">mutt_ch_convert_string</text>
</a>
</g>
</g>
<!-- Node1&#45;&gt;Node4 -->
<g id="edge3" class="edge"><title>Node1&#45;&gt;Node4</title>
<path fill="none" stroke="midnightblue" d="M99.7518,-86C108.288,-86 117.314,-86 126.271,-86"/>
<polygon fill="midnightblue" stroke="midnightblue" points="126.326,-89.5001 136.326,-86 126.326,-82.5001 126.326,-89.5001"/>
</g>
<!-- Node5 -->
<g id="node5" class="node"><title>Node5</title>
<g id="a_node5"><a xlink:href="history_8c.html#a541c9c8be36706c87b62c896a897f680" target="_top" xlink:title="Add a string to a history. ">
<polygon fill="white" stroke="red" points="157,-38.5 157,-57.5 235,-57.5 235,-38.5 157,-38.5"/>
<text text-anchor="middle" x="196" y="-45.5" font-family="Helvetica,sans-Serif" font-size="10.00">mutt_hist_add</text>
</a>
</g>
</g>
<!-- Node1&#45;&gt;Node5 -->
<g id="edge4" class="edge"><title>Node1&#45;&gt;Node5</title>
<path fill="none" stroke="midnightblue" d="M87.3373,-76.411C106.083,-71.4642 129.143,-65.3789 149.107,-60.1108"/>
<polygon fill="midnightblue" stroke="midnightblue" points="150.148,-63.4558 158.924,-57.5201 148.362,-56.6875 150.148,-63.4558"/>
</g>
<!-- Node6 -->
<g id="node6" class="node"><title>Node6</title>
<g id="a_node6"><a xlink:href="file_8c.html#a4982d9040dfaf38e847729be2af83ed6" target="_top" xlink:title="Close a FILE handle (and NULL the pointer) ">
<polygon fill="white" stroke="black" points="153,-0.5 153,-19.5 239,-19.5 239,-0.5 153,-0.5"/>
<text text-anchor="middle" x="196" y="-7.5" font-family="Helvetica,sans-Serif" font-size="10.00">mutt_file_fclose</text>
</a>
</g>
</g>
<!-- Node1&#45;&gt;Node6 -->
<g id="edge5" class="edge"><title>Node1&#45;&gt;Node6</title>
<path fill="none" stroke="midnightblue" d="M63.0122,-76.3507C78.908,-63.9675 108.177,-42.4788 136,-29 140.428,-26.855 145.156,-24.8702 149.935,-23.0568"/>
<polygon fill="midnightblue" stroke="midnightblue" points="151.485,-26.2207 159.74,-19.5787 149.145,-19.6235 151.485,-26.2207"/>
</g>
</g>
</svg>
