<?xml version="1.0" encoding="UTF-8" standalone="no"?>
<!DOCTYPE svg PUBLIC "-//W3C//DTD SVG 1.1//EN"
 "http://www.w3.org/Graphics/SVG/1.1/DTD/svg11.dtd">
<!-- Generated by graphviz version 2.36.0 (20140111.2315)
 -->
<!-- Title: mutt_hist_read_file Pages: 1 -->
<svg width="198pt" height="28pt"
 viewBox="0.00 0.00 198.00 28.00" xmlns="http://www.w3.org/2000/svg" xmlns:xlink="http://www.w3.org/1999/xlink">
<g id="graph0" class="graph" transform="scale(1 1) rotate(0) translate(4 24)">
<title>mutt_hist_read_file</title>
<polygon fill="white" stroke="none" points="-4,4 -4,-24 194,-24 194,4 -4,4"/>
<!-- Node1 -->
<g id="node1" class="node"><title>Node1</title>
<polygon fill="#bfbfbf" stroke="black" points="0.5,-0.5 0.5,-19.5 99.5,-19.5 99.5,-0.5 0.5,-0.5"/>
<text text-anchor="middle" x="50" y="-7.5" font-family="Helvetica,sans-Serif" font-size="10.00">mutt_hist_read_file</text>
</g>
<!-- Node2 -->
<g id="node2" class="node"><title>Node2</title>
<g id="a_node2"><a xlink:href="mutt_8h.html#a81fd8c287cd99179a455c6809855953c" target="_top" xlink:title="Initialise NeoMutt. ">
<polygon fill="white" stroke="red" points="136,-0.5 136,-19.5 190,-19.5 190,-0.5 136,-0.5"/>
<text text-anchor="middle" x="163" y="-7.5" font-family="Helvetica,sans-Serif" font-size="10.00">mutt_init</text>
</a>
</g>
</g>
<!-- Node1&#45;&gt;Node2 -->
<g id="edge1" class="edge"><title>Node1&#45;&gt;Node2</title>
<path fill="none" stroke="midnightblue" d="M109.964,-10C119.067,-10 128.044,-10 135.913,-10"/>
<polygon fill="midnightblue" stroke="midnightblue" points="109.686,-6.5001 99.6862,-10 109.686,-13.5001 109.686,-6.5001"/>
</g>
</g>
</svg>
