<?xml version="1.0" encoding="UTF-8" standalone="no"?>
<!DOCTYPE svg PUBLIC "-//W3C//DTD SVG 1.1//EN"
 "http://www.w3.org/Graphics/SVG/1.1/DTD/svg11.dtd">
<!-- Generated by graphviz version 2.36.0 (20140111.2315)
 -->
<!-- Title: dup_hash_dec Pages: 1 -->
<svg width="234pt" height="66pt"
 viewBox="0.00 0.00 234.00 66.00" xmlns="http://www.w3.org/2000/svg" xmlns:xlink="http://www.w3.org/1999/xlink">
<g id="graph0" class="graph" transform="scale(1 1) rotate(0) translate(4 62)">
<title>dup_hash_dec</title>
<polygon fill="white" stroke="none" points="-4,4 -4,-62 230,-62 230,4 -4,4"/>
<!-- Node1 -->
<g id="node1" class="node"><title>Node1</title>
<polygon fill="#bfbfbf" stroke="black" points="0,-19.5 0,-38.5 80,-38.5 80,-19.5 0,-19.5"/>
<text text-anchor="middle" x="40" y="-26.5" font-family="Helvetica,sans-Serif" font-size="10.00">dup_hash_dec</text>
</g>
<!-- Node2 -->
<g id="node2" class="node"><title>Node2</title>
<g id="a_node2"><a xlink:href="hash_8c.html#a52d93f5c8599840506599d361cb5496a" target="_top" xlink:title="Find the HashElem in a Hash table element using a key. ">
<polygon fill="white" stroke="red" points="116,-38.5 116,-57.5 226,-57.5 226,-38.5 116,-38.5"/>
<text text-anchor="middle" x="171" y="-45.5" font-family="Helvetica,sans-Serif" font-size="10.00">mutt_hash_find_elem</text>
</a>
</g>
</g>
<!-- Node1&#45;&gt;Node2 -->
<g id="edge1" class="edge"><title>Node1&#45;&gt;Node2</title>
<path fill="none" stroke="midnightblue" d="M80.0543,-34.7522C88.244,-35.9584 97.0854,-37.2606 105.916,-38.5613"/>
<polygon fill="midnightblue" stroke="midnightblue" points="105.444,-42.0294 115.847,-40.024 106.464,-35.1041 105.444,-42.0294"/>
</g>
<!-- Node3 -->
<g id="node3" class="node"><title>Node3</title>
<g id="a_node3"><a xlink:href="hash_8c.html#a7f96b39770975621a4b07a4d1b1300b8" target="_top" xlink:title="Remove an element from a Hash table. ">
<polygon fill="white" stroke="red" points="124,-0.5 124,-19.5 218,-19.5 218,-0.5 124,-0.5"/>
<text text-anchor="middle" x="171" y="-7.5" font-family="Helvetica,sans-Serif" font-size="10.00">mutt_hash_delete</text>
</a>
</g>
</g>
<!-- Node1&#45;&gt;Node3 -->
<g id="edge2" class="edge"><title>Node1&#45;&gt;Node3</title>
<path fill="none" stroke="midnightblue" d="M80.0543,-23.2478C90.7224,-21.6765 102.497,-19.9424 113.913,-18.2609"/>
<polygon fill="midnightblue" stroke="midnightblue" points="114.433,-21.7221 123.817,-16.8022 113.413,-14.7968 114.433,-21.7221"/>
</g>
</g>
</svg>
