<?xml version="1.0" encoding="UTF-8" standalone="no"?>
<!DOCTYPE svg PUBLIC "-//W3C//DTD SVG 1.1//EN"
 "http://www.w3.org/Graphics/SVG/1.1/DTD/svg11.dtd">
<!-- Generated by graphviz version 2.36.0 (20140111.2315)
 -->
<!-- Title: mutt_timeout_hook Pages: 1 -->
<svg width="364pt" height="85pt"
 viewBox="0.00 0.00 364.00 85.00" xmlns="http://www.w3.org/2000/svg" xmlns:xlink="http://www.w3.org/1999/xlink">
<g id="graph0" class="graph" transform="scale(1 1) rotate(0) translate(4 81)">
<title>mutt_timeout_hook</title>
<polygon fill="white" stroke="none" points="-4,4 -4,-81 360,-81 360,4 -4,4"/>
<!-- Node1 -->
<g id="node1" class="node"><title>Node1</title>
<polygon fill="#bfbfbf" stroke="black" points="0,-38.5 0,-57.5 100,-57.5 100,-38.5 0,-38.5"/>
<text text-anchor="middle" x="50" y="-45.5" font-family="Helvetica,sans-Serif" font-size="10.00">mutt_timeout_hook</text>
</g>
<!-- Node2 -->
<g id="node2" class="node"><title>Node2</title>
<g id="a_node2"><a xlink:href="buffer_8c.html#ab31dc6030636f826c60c65d143cb249d" target="_top" xlink:title="Initialise a new Buffer. ">
<polygon fill="white" stroke="black" points="272,-57.5 272,-76.5 356,-76.5 356,-57.5 272,-57.5"/>
<text text-anchor="middle" x="314" y="-64.5" font-family="Helvetica,sans-Serif" font-size="10.00">mutt_buffer_init</text>
</a>
</g>
</g>
<!-- Node1&#45;&gt;Node2 -->
<g id="edge1" class="edge"><title>Node1&#45;&gt;Node2</title>
<path fill="none" stroke="midnightblue" d="M85.4487,-57.5079C100.793,-61.2725 119.167,-65.1416 136,-67 178.116,-71.6497 226.214,-71.2905 261.63,-69.9693"/>
<polygon fill="midnightblue" stroke="midnightblue" points="261.882,-73.462 271.73,-69.5538 261.594,-66.4679 261.882,-73.462"/>
</g>
<!-- Node3 -->
<g id="node3" class="node"><title>Node3</title>
<g id="a_node3"><a xlink:href="init_8c.html#a5fe0bea7c92d757966c8278e2ce85714" target="_top" xlink:title="Parse a line of user config. ">
<polygon fill="white" stroke="red" points="136.5,-38.5 136.5,-57.5 235.5,-57.5 235.5,-38.5 136.5,-38.5"/>
<text text-anchor="middle" x="186" y="-45.5" font-family="Helvetica,sans-Serif" font-size="10.00">mutt_parse_rc_line</text>
</a>
</g>
</g>
<!-- Node1&#45;&gt;Node3 -->
<g id="edge2" class="edge"><title>Node1&#45;&gt;Node3</title>
<path fill="none" stroke="midnightblue" d="M100.136,-48C108.618,-48 117.513,-48 126.219,-48"/>
<polygon fill="midnightblue" stroke="midnightblue" points="126.318,-51.5001 136.318,-48 126.318,-44.5001 126.318,-51.5001"/>
</g>
<!-- Node4 -->
<g id="node4" class="node"><title>Node4</title>
<g id="a_node4"><a xlink:href="buffer_8c.html#a8da54c4ec8e1a4e21158f134441bdf2d" target="_top" xlink:title="Reset an existing Buffer. ">
<polygon fill="white" stroke="black" points="139.5,-0.5 139.5,-19.5 232.5,-19.5 232.5,-0.5 139.5,-0.5"/>
<text text-anchor="middle" x="186" y="-7.5" font-family="Helvetica,sans-Serif" font-size="10.00">mutt_buffer_reset</text>
</a>
</g>
</g>
<!-- Node1&#45;&gt;Node4 -->
<g id="edge4" class="edge"><title>Node1&#45;&gt;Node4</title>
<path fill="none" stroke="midnightblue" d="M84.8139,-38.411C102.033,-33.5281 123.164,-27.5357 141.573,-22.315"/>
<polygon fill="midnightblue" stroke="midnightblue" points="142.531,-25.6815 151.197,-19.5859 140.621,-18.947 142.531,-25.6815"/>
</g>
<!-- Node3&#45;&gt;Node2 -->
<g id="edge3" class="edge"><title>Node3&#45;&gt;Node2</title>
<path fill="none" stroke="midnightblue" d="M235.715,-55.3459C244.276,-56.6369 253.209,-57.9838 261.834,-59.2845"/>
<polygon fill="midnightblue" stroke="midnightblue" points="261.368,-62.7537 271.778,-60.784 262.412,-55.832 261.368,-62.7537"/>
</g>
</g>
</svg>
