<?xml version="1.0" encoding="UTF-8" standalone="no"?>
<!DOCTYPE svg PUBLIC "-//W3C//DTD SVG 1.1//EN"
 "http://www.w3.org/Graphics/SVG/1.1/DTD/svg11.dtd">
<!-- Generated by graphviz version 2.36.0 (20140111.2315)
 -->
<!-- Title: mutt_message_hook Pages: 1 -->
<svg width="406pt" height="294pt"
 viewBox="0.00 0.00 406.00 294.00" xmlns="http://www.w3.org/2000/svg" xmlns:xlink="http://www.w3.org/1999/xlink">
<g id="graph0" class="graph" transform="scale(1 1) rotate(0) translate(4 290)">
<title>mutt_message_hook</title>
<polygon fill="white" stroke="none" points="-4,4 -4,-290 402,-290 402,4 -4,4"/>
<!-- Node1 -->
<g id="node1" class="node"><title>Node1</title>
<polygon fill="#bfbfbf" stroke="black" points="0.5,-133.5 0.5,-152.5 107.5,-152.5 107.5,-133.5 0.5,-133.5"/>
<text text-anchor="middle" x="54" y="-140.5" font-family="Helvetica,sans-Serif" font-size="10.00">mutt_message_hook</text>
</g>
<!-- Node2 -->
<g id="node2" class="node"><title>Node2</title>
<g id="a_node2"><a xlink:href="commands_8h.html#a9be59878cc7204a7bad72685e83c5733" target="_top" xlink:title="Display a message in the pager. ">
<polygon fill="white" stroke="red" points="146.5,-266.5 146.5,-285.5 263.5,-285.5 263.5,-266.5 146.5,-266.5"/>
<text text-anchor="middle" x="205" y="-273.5" font-family="Helvetica,sans-Serif" font-size="10.00">mutt_display_message</text>
</a>
</g>
</g>
<!-- Node1&#45;&gt;Node2 -->
<g id="edge1" class="edge"><title>Node1&#45;&gt;Node2</title>
<path fill="none" stroke="midnightblue" d="M64.6624,-161.433C78.7857,-186.625 107.412,-231.575 144,-257 149.563,-260.866 155.951,-263.974 162.437,-266.464"/>
<polygon fill="midnightblue" stroke="midnightblue" points="67.6751,-159.647 59.82,-152.537 61.5269,-162.993 67.6751,-159.647"/>
</g>
<!-- Node3 -->
<g id="node3" class="node"><title>Node3</title>
<g id="a_node3"><a xlink:href="commands_8c.html#aac6beb55deb8072b189d20d8b24f6f34" target="_top" xlink:title="Pipe message to a command. ">
<polygon fill="white" stroke="red" points="165,-228.5 165,-247.5 245,-247.5 245,-228.5 165,-228.5"/>
<text text-anchor="middle" x="205" y="-235.5" font-family="Helvetica,sans-Serif" font-size="10.00">pipe_message</text>
</a>
</g>
</g>
<!-- Node1&#45;&gt;Node3 -->
<g id="edge2" class="edge"><title>Node1&#45;&gt;Node3</title>
<path fill="none" stroke="midnightblue" d="M70.9485,-160.166C87.6731,-177.253 115.451,-203.153 144,-219 150.783,-222.765 158.419,-225.903 165.912,-228.472"/>
<polygon fill="midnightblue" stroke="midnightblue" points="73.116,-157.369 63.6712,-152.568 68.0609,-162.211 73.116,-157.369"/>
</g>
<!-- Node4 -->
<g id="node4" class="node"><title>Node4</title>
<g id="a_node4"><a xlink:href="commands_8h.html#aba91885b9f8d6c999aa5028baa845fa6" target="_top" xlink:title="Save an email. ">
<polygon fill="white" stroke="red" points="151.5,-190.5 151.5,-209.5 258.5,-209.5 258.5,-190.5 151.5,-190.5"/>
<text text-anchor="middle" x="205" y="-197.5" font-family="Helvetica,sans-Serif" font-size="10.00">mutt_save_message</text>
</a>
</g>
</g>
<!-- Node1&#45;&gt;Node4 -->
<g id="edge3" class="edge"><title>Node1&#45;&gt;Node4</title>
<path fill="none" stroke="midnightblue" d="M85.4361,-156.861C102.493,-164.409 124.248,-173.675 144,-181 152.913,-184.305 162.698,-187.558 171.732,-190.413"/>
<polygon fill="midnightblue" stroke="midnightblue" points="86.5451,-153.523 75.9869,-152.643 83.6917,-159.915 86.5451,-153.523"/>
</g>
<!-- Node5 -->
<g id="node5" class="node"><title>Node5</title>
<g id="a_node5"><a xlink:href="compose_8h.html#ad69c04d8ece089edb91f7b1178c2262c" target="_top" xlink:title="Allow the user to edit the message envelope. ">
<polygon fill="white" stroke="black" points="150,-152.5 150,-171.5 260,-171.5 260,-152.5 150,-152.5"/>
<text text-anchor="middle" x="205" y="-159.5" font-family="Helvetica,sans-Serif" font-size="10.00">mutt_compose_menu</text>
</a>
</g>
</g>
<!-- Node1&#45;&gt;Node5 -->
<g id="edge4" class="edge"><title>Node1&#45;&gt;Node5</title>
<path fill="none" stroke="midnightblue" d="M117.678,-150.993C128.399,-152.36 139.455,-153.769 149.928,-155.105"/>
<polygon fill="midnightblue" stroke="midnightblue" points="117.894,-147.492 107.532,-149.699 117.009,-154.436 117.894,-147.492"/>
</g>
<!-- Node6 -->
<g id="node6" class="node"><title>Node6</title>
<g id="a_node6"><a xlink:href="send_8h.html#a09c909ab2bb41101590ed2b13f65fc2d" target="_top" xlink:title="Send an email. ">
<polygon fill="white" stroke="red" points="302.5,-133.5 302.5,-152.5 397.5,-152.5 397.5,-133.5 302.5,-133.5"/>
<text text-anchor="middle" x="350" y="-140.5" font-family="Helvetica,sans-Serif" font-size="10.00">ci_send_message</text>
</a>
</g>
</g>
<!-- Node1&#45;&gt;Node6 -->
<g id="edge9" class="edge"><title>Node1&#45;&gt;Node6</title>
<path fill="none" stroke="midnightblue" d="M117.593,-143C172.889,-143 252.286,-143 302.224,-143"/>
<polygon fill="midnightblue" stroke="midnightblue" points="117.561,-139.5 107.561,-143 117.561,-146.5 117.561,-139.5"/>
</g>
<!-- Node7 -->
<g id="node7" class="node"><title>Node7</title>
<g id="a_node7"><a xlink:href="recvattach_8h.html#a513215b1fd88e123dc01f6fa2b264594" target="_top" xlink:title="Show the attachments in a Menu. ">
<polygon fill="white" stroke="red" points="144.5,-76.5 144.5,-95.5 265.5,-95.5 265.5,-76.5 144.5,-76.5"/>
<text text-anchor="middle" x="205" y="-83.5" font-family="Helvetica,sans-Serif" font-size="10.00">mutt_view_attachments</text>
</a>
</g>
</g>
<!-- Node1&#45;&gt;Node7 -->
<g id="edge6" class="edge"><title>Node1&#45;&gt;Node7</title>
<path fill="none" stroke="midnightblue" d="M89.513,-129.797C116.872,-119.331 154.454,-104.954 178.979,-95.5716"/>
<polygon fill="midnightblue" stroke="midnightblue" points="88.0286,-126.617 79.9392,-133.459 90.5297,-133.155 88.0286,-126.617"/>
</g>
<!-- Node8 -->
<g id="node8" class="node"><title>Node8</title>
<g id="a_node8"><a xlink:href="send_8c.html#a0a0be08e79d9956ae69693f80c2ea54f" target="_top" xlink:title="Write out a forwarded message. ">
<polygon fill="white" stroke="red" points="162.5,-38.5 162.5,-57.5 247.5,-57.5 247.5,-38.5 162.5,-38.5"/>
<text text-anchor="middle" x="205" y="-45.5" font-family="Helvetica,sans-Serif" font-size="10.00">include_forward</text>
</a>
</g>
</g>
<!-- Node1&#45;&gt;Node8 -->
<g id="edge7" class="edge"><title>Node1&#45;&gt;Node8</title>
<path fill="none" stroke="midnightblue" d="M70.9485,-125.834C87.6731,-108.747 115.451,-82.8467 144,-67 150.783,-63.235 158.419,-60.097 165.912,-57.5277"/>
<polygon fill="midnightblue" stroke="midnightblue" points="68.0609,-123.789 63.6712,-133.432 73.116,-128.631 68.0609,-123.789"/>
</g>
<!-- Node9 -->
<g id="node9" class="node"><title>Node9</title>
<g id="a_node9"><a xlink:href="send_8c.html#a41e3fbbc7857aef9878e86e6a26ec064" target="_top" xlink:title="Generate the reply text for an email. ">
<polygon fill="white" stroke="red" points="168,-0.5 168,-19.5 242,-19.5 242,-0.5 168,-0.5"/>
<text text-anchor="middle" x="205" y="-7.5" font-family="Helvetica,sans-Serif" font-size="10.00">include_reply</text>
</a>
</g>
</g>
<!-- Node1&#45;&gt;Node9 -->
<g id="edge8" class="edge"><title>Node1&#45;&gt;Node9</title>
<path fill="none" stroke="midnightblue" d="M64.6624,-124.567C78.7857,-99.3752 107.412,-54.4253 144,-29 151.088,-24.0741 159.516,-20.3791 167.781,-17.6243"/>
<polygon fill="midnightblue" stroke="midnightblue" points="61.5269,-123.007 59.82,-133.463 67.6751,-126.353 61.5269,-123.007"/>
</g>
<!-- Node5&#45;&gt;Node6 -->
<g id="edge5" class="edge"><title>Node5&#45;&gt;Node6</title>
<path fill="none" stroke="midnightblue" d="M269.975,-153.5C280.873,-152.052 292.008,-150.572 302.35,-149.198"/>
<polygon fill="midnightblue" stroke="midnightblue" points="269.514,-150.03 260.062,-154.817 270.436,-156.969 269.514,-150.03"/>
</g>
</g>
</svg>
