<?xml version="1.0" encoding="UTF-8" standalone="no"?>
<!DOCTYPE svg PUBLIC "-//W3C//DTD SVG 1.1//EN"
 "http://www.w3.org/Graphics/SVG/1.1/DTD/svg11.dtd">
<!-- Generated by graphviz version 2.36.0 (20140111.2315)
 -->
<!-- Title: mutt_idna_intl_to_local Pages: 1 -->
<svg width="560pt" height="199pt"
 viewBox="0.00 0.00 560.00 199.48" xmlns="http://www.w3.org/2000/svg" xmlns:xlink="http://www.w3.org/1999/xlink">
<g id="graph0" class="graph" transform="scale(1 1) rotate(0) translate(4 195.481)">
<title>mutt_idna_intl_to_local</title>
<polygon fill="white" stroke="none" points="-4,4 -4,-195.481 556,-195.481 556,4 -4,4"/>
<!-- Node1 -->
<g id="node1" class="node"><title>Node1</title>
<polygon fill="#bfbfbf" stroke="black" points="0,-95.5 0,-114.5 116,-114.5 116,-95.5 0,-95.5"/>
<text text-anchor="middle" x="58" y="-102.5" font-family="Helvetica,sans-Serif" font-size="10.00">mutt_idna_intl_to_local</text>
</g>
<!-- Node2 -->
<g id="node2" class="node"><title>Node2</title>
<g id="a_node2"><a xlink:href="mutt_2string_8c.html#ae48085384a6545e0fac589a88243ea31" target="_top" xlink:title="Copy a string, safely. ">
<polygon fill="white" stroke="black" points="315.5,-152.5 315.5,-171.5 400.5,-171.5 400.5,-152.5 315.5,-152.5"/>
<text text-anchor="middle" x="358" y="-159.5" font-family="Helvetica,sans-Serif" font-size="10.00">mutt_str_strdup</text>
</a>
</g>
</g>
<!-- Node1&#45;&gt;Node2 -->
<g id="edge1" class="edge"><title>Node1&#45;&gt;Node2</title>
<path fill="none" stroke="midnightblue" d="M66.687,-114.623C81.1819,-131.901 114.488,-167.622 152,-181 208.294,-201.076 278.509,-186.82 320.442,-174.516"/>
<polygon fill="midnightblue" stroke="midnightblue" points="321.672,-177.8 330.214,-171.533 319.628,-171.105 321.672,-177.8"/>
</g>
<!-- Node3 -->
<g id="node3" class="node"><title>Node3</title>
<g id="a_node3"><a xlink:href="memory_8c.html#a264da4dc58e6dc8983285bd1f538f24d" target="_top" xlink:title="Allocate memory on the heap. ">
<polygon fill="white" stroke="red" points="454.5,-114.5 454.5,-133.5 551.5,-133.5 551.5,-114.5 454.5,-114.5"/>
<text text-anchor="middle" x="503" y="-121.5" font-family="Helvetica,sans-Serif" font-size="10.00">mutt_mem_malloc</text>
</a>
</g>
</g>
<!-- Node1&#45;&gt;Node3 -->
<g id="edge8" class="edge"><title>Node1&#45;&gt;Node3</title>
<path fill="none" stroke="midnightblue" d="M116.052,-107.455C127.933,-107.966 140.375,-108.501 152,-109 254.878,-113.417 374.767,-118.552 444.167,-121.524"/>
<polygon fill="midnightblue" stroke="midnightblue" points="444.306,-125.033 454.446,-121.964 444.605,-118.04 444.306,-125.033"/>
</g>
<!-- Node4 -->
<g id="node4" class="node"><title>Node4</title>
<g id="a_node4"><a xlink:href="mutt_2string_8c.html#ad5b66f8059a202f7bfa5fc4fa3047c67" target="_top" xlink:title="Replace one string with another. ">
<polygon fill="white" stroke="black" points="162.5,-152.5 162.5,-171.5 251.5,-171.5 251.5,-152.5 162.5,-152.5"/>
<text text-anchor="middle" x="207" y="-159.5" font-family="Helvetica,sans-Serif" font-size="10.00">mutt_str_replace</text>
</a>
</g>
</g>
<!-- Node1&#45;&gt;Node4 -->
<g id="edge3" class="edge"><title>Node1&#45;&gt;Node4</title>
<path fill="none" stroke="midnightblue" d="M83.6045,-114.541C107.772,-123.912 144.847,-138.288 171.861,-148.762"/>
<polygon fill="midnightblue" stroke="midnightblue" points="170.726,-152.076 181.315,-152.428 173.257,-145.55 170.726,-152.076"/>
</g>
<!-- Node5 -->
<g id="node5" class="node"><title>Node5</title>
<g id="a_node5"><a xlink:href="charset_8c.html#ab7e77d77daee2304cbdabeb54bdb3e97" target="_top" xlink:title="Convert a string between encodings. ">
<polygon fill="white" stroke="red" points="298.5,-76.5 298.5,-95.5 417.5,-95.5 417.5,-76.5 298.5,-76.5"/>
<text text-anchor="middle" x="358" y="-83.5" font-family="Helvetica,sans-Serif" font-size="10.00">mutt_ch_convert_string</text>
</a>
</g>
</g>
<!-- Node1&#45;&gt;Node5 -->
<g id="edge5" class="edge"><title>Node1&#45;&gt;Node5</title>
<path fill="none" stroke="midnightblue" d="M116.105,-101.359C165.142,-98.2326 235.966,-93.717 288.134,-90.3908"/>
<polygon fill="midnightblue" stroke="midnightblue" points="288.549,-93.8715 298.306,-89.7422 288.104,-86.8857 288.549,-93.8715"/>
</g>
<!-- Node6 -->
<g id="node6" class="node"><title>Node6</title>
<g id="a_node6"><a xlink:href="mutt_2string_8c.html#a011e5b6fad43bc608584d585987cf9c1" target="_top" xlink:title="Compare two strings ignoring case, safely. ">
<polygon fill="white" stroke="black" points="152.5,-38.5 152.5,-57.5 261.5,-57.5 261.5,-38.5 152.5,-38.5"/>
<text text-anchor="middle" x="207" y="-45.5" font-family="Helvetica,sans-Serif" font-size="10.00">mutt_str_strcasecmp</text>
</a>
</g>
</g>
<!-- Node1&#45;&gt;Node6 -->
<g id="edge7" class="edge"><title>Node1&#45;&gt;Node6</title>
<path fill="none" stroke="midnightblue" d="M83.6045,-95.4595C107.772,-86.0884 144.847,-71.7124 171.861,-61.2377"/>
<polygon fill="midnightblue" stroke="midnightblue" points="173.257,-64.4503 181.315,-57.5716 170.726,-57.9237 173.257,-64.4503"/>
</g>
<!-- Node7 -->
<g id="node7" class="node"><title>Node7</title>
<g id="a_node7"><a xlink:href="mutt_2string_8c.html#aca11f88d08a860c07419df3efb18f35a" target="_top" xlink:title="Calculate the length of a string, safely. ">
<polygon fill="white" stroke="black" points="166,-0.5 166,-19.5 248,-19.5 248,-0.5 166,-0.5"/>
<text text-anchor="middle" x="207" y="-7.5" font-family="Helvetica,sans-Serif" font-size="10.00">mutt_str_strlen</text>
</a>
</g>
</g>
<!-- Node1&#45;&gt;Node7 -->
<g id="edge9" class="edge"><title>Node1&#45;&gt;Node7</title>
<path fill="none" stroke="midnightblue" d="M68.4727,-95.3204C84.4132,-79.5061 118.185,-47.9919 152,-29 155.656,-26.9469 159.573,-25.0544 163.566,-23.3255"/>
<polygon fill="midnightblue" stroke="midnightblue" points="164.943,-26.5446 172.935,-19.5893 162.35,-20.0425 164.943,-26.5446"/>
</g>
<!-- Node2&#45;&gt;Node3 -->
<g id="edge2" class="edge"><title>Node2&#45;&gt;Node3</title>
<path fill="none" stroke="midnightblue" d="M395.085,-152.411C413.63,-147.483 436.426,-141.425 456.199,-136.171"/>
<polygon fill="midnightblue" stroke="midnightblue" points="457.161,-139.537 465.927,-133.586 455.363,-132.772 457.161,-139.537"/>
</g>
<!-- Node4&#45;&gt;Node2 -->
<g id="edge4" class="edge"><title>Node4&#45;&gt;Node2</title>
<path fill="none" stroke="midnightblue" d="M251.899,-162C268.691,-162 287.992,-162 305.436,-162"/>
<polygon fill="midnightblue" stroke="midnightblue" points="305.458,-165.5 315.458,-162 305.458,-158.5 305.458,-165.5"/>
</g>
<!-- Node5&#45;&gt;Node3 -->
<g id="edge6" class="edge"><title>Node5&#45;&gt;Node3</title>
<path fill="none" stroke="midnightblue" d="M395.085,-95.589C413.63,-100.517 436.426,-106.575 456.199,-111.829"/>
<polygon fill="midnightblue" stroke="midnightblue" points="455.363,-115.228 465.927,-114.414 457.161,-108.463 455.363,-115.228"/>
</g>
</g>
</svg>
