<?xml version="1.0" encoding="UTF-8" standalone="no"?>
<!DOCTYPE svg PUBLIC "-//W3C//DTD SVG 1.1//EN"
 "http://www.w3.org/Graphics/SVG/1.1/DTD/svg11.dtd">
<!-- Generated by graphviz version 2.36.0 (20140111.2315)
 -->
<!-- Title: email/idna.c Pages: 1 -->
<svg width="380pt" height="140pt"
 viewBox="0.00 0.00 380.00 140.00" xmlns="http://www.w3.org/2000/svg" xmlns:xlink="http://www.w3.org/1999/xlink">
<g id="graph0" class="graph" transform="scale(1 1) rotate(0) translate(4 136)">
<title>email/idna.c</title>
<polygon fill="white" stroke="none" points="-4,4 -4,-136 376,-136 376,4 -4,4"/>
<!-- Node1 -->
<g id="node1" class="node"><title>Node1</title>
<polygon fill="#bfbfbf" stroke="black" points="128.5,-112.5 128.5,-131.5 197.5,-131.5 197.5,-112.5 128.5,-112.5"/>
<text text-anchor="middle" x="163" y="-119.5" font-family="Helvetica,sans-Serif" font-size="10.00">email/idna.c</text>
</g>
<!-- Node2 -->
<g id="node2" class="node"><title>Node2</title>
<polygon fill="white" stroke="#bfbfbf" points="-0.5,-56.5 -0.5,-75.5 50.5,-75.5 50.5,-56.5 -0.5,-56.5"/>
<text text-anchor="middle" x="25" y="-63.5" font-family="Helvetica,sans-Serif" font-size="10.00">config.h</text>
</g>
<!-- Node1&#45;&gt;Node2 -->
<g id="edge1" class="edge"><title>Node1&#45;&gt;Node2</title>
<path fill="none" stroke="midnightblue" d="M141.133,-112.444C118.221,-103.478 82.0247,-89.314 56.1335,-79.1827"/>
<polygon fill="midnightblue" stroke="midnightblue" points="57.3521,-75.9011 46.7642,-75.5164 54.8012,-82.4198 57.3521,-75.9011"/>
</g>
<!-- Node3 -->
<g id="node3" class="node"><title>Node3</title>
<polygon fill="white" stroke="#bfbfbf" points="185,-0.5 185,-19.5 241,-19.5 241,-0.5 185,-0.5"/>
<text text-anchor="middle" x="213" y="-7.5" font-family="Helvetica,sans-Serif" font-size="10.00">stdbool.h</text>
</g>
<!-- Node1&#45;&gt;Node3 -->
<g id="edge2" class="edge"><title>Node1&#45;&gt;Node3</title>
<path fill="none" stroke="midnightblue" d="M142.447,-112.325C118,-100.722 82.3457,-78.9356 98,-56 115.072,-30.9875 148.315,-19.8771 174.687,-14.9422"/>
<polygon fill="midnightblue" stroke="midnightblue" points="175.471,-18.3603 184.771,-13.2854 174.336,-11.4529 175.471,-18.3603"/>
</g>
<!-- Node4 -->
<g id="node4" class="node"><title>Node4</title>
<polygon fill="white" stroke="#bfbfbf" points="107,-56.5 107,-75.5 153,-75.5 153,-56.5 107,-56.5"/>
<text text-anchor="middle" x="130" y="-63.5" font-family="Helvetica,sans-Serif" font-size="10.00">stdio.h</text>
</g>
<!-- Node1&#45;&gt;Node4 -->
<g id="edge3" class="edge"><title>Node1&#45;&gt;Node4</title>
<path fill="none" stroke="midnightblue" d="M157.551,-112.083C152.986,-104.613 146.332,-93.7244 140.707,-84.5199"/>
<polygon fill="midnightblue" stroke="midnightblue" points="143.549,-82.4588 135.348,-75.7511 137.576,-86.109 143.549,-82.4588"/>
</g>
<!-- Node5 -->
<g id="node5" class="node"><title>Node5</title>
<polygon fill="white" stroke="#bfbfbf" points="171.5,-56.5 171.5,-75.5 220.5,-75.5 220.5,-56.5 171.5,-56.5"/>
<text text-anchor="middle" x="196" y="-63.5" font-family="Helvetica,sans-Serif" font-size="10.00">string.h</text>
</g>
<!-- Node1&#45;&gt;Node5 -->
<g id="edge4" class="edge"><title>Node1&#45;&gt;Node5</title>
<path fill="none" stroke="midnightblue" d="M168.449,-112.083C173.014,-104.613 179.668,-93.7244 185.293,-84.5199"/>
<polygon fill="midnightblue" stroke="midnightblue" points="188.424,-86.109 190.652,-75.7511 182.451,-82.4588 188.424,-86.109"/>
</g>
<!-- Node6 -->
<g id="node6" class="node"><title>Node6</title>
<polygon fill="white" stroke="#bfbfbf" points="238.5,-56.5 238.5,-75.5 305.5,-75.5 305.5,-56.5 238.5,-56.5"/>
<text text-anchor="middle" x="272" y="-63.5" font-family="Helvetica,sans-Serif" font-size="10.00">mutt/mutt.h</text>
</g>
<!-- Node1&#45;&gt;Node6 -->
<g id="edge5" class="edge"><title>Node1&#45;&gt;Node6</title>
<path fill="none" stroke="midnightblue" d="M180.513,-112.324C198.072,-103.625 225.331,-90.1202 245.531,-80.113"/>
<polygon fill="midnightblue" stroke="midnightblue" points="247.124,-83.23 254.531,-75.6545 244.016,-76.9575 247.124,-83.23"/>
</g>
<!-- Node7 -->
<g id="node7" class="node"><title>Node7</title>
<g id="a_node7"><a xlink:href="idna2_8h.html" target="_top" xlink:title="Handling of international domain names. ">
<polygon fill="white" stroke="black" points="324,-56.5 324,-75.5 372,-75.5 372,-56.5 324,-56.5"/>
<text text-anchor="middle" x="348" y="-63.5" font-family="Helvetica,sans-Serif" font-size="10.00">idna2.h</text>
</a>
</g>
</g>
<!-- Node1&#45;&gt;Node7 -->
<g id="edge6" class="edge"><title>Node1&#45;&gt;Node7</title>
<path fill="none" stroke="midnightblue" d="M192.314,-112.444C225.419,-102.78 279.207,-87.0801 314.094,-76.8969"/>
<polygon fill="midnightblue" stroke="midnightblue" points="315.216,-80.2156 323.835,-74.0537 313.254,-73.496 315.216,-80.2156"/>
</g>
<!-- Node7&#45;&gt;Node3 -->
<g id="edge7" class="edge"><title>Node7&#45;&gt;Node3</title>
<path fill="none" stroke="midnightblue" d="M326.609,-56.4435C304.293,-47.5171 269.097,-33.4387 243.792,-23.3168"/>
<polygon fill="midnightblue" stroke="midnightblue" points="244.876,-19.9807 234.291,-19.5164 242.276,-26.4801 244.876,-19.9807"/>
</g>
</g>
</svg>
