<?xml version="1.0" encoding="UTF-8" standalone="no"?>
<!DOCTYPE svg PUBLIC "-//W3C//DTD SVG 1.1//EN"
 "http://www.w3.org/Graphics/SVG/1.1/DTD/svg11.dtd">
<!-- Generated by graphviz version 2.36.0 (20140111.2315)
 -->
<!-- Title: imap_logout_all Pages: 1 -->
<svg width="226pt" height="142pt"
 viewBox="0.00 0.00 226.00 142.00" xmlns="http://www.w3.org/2000/svg" xmlns:xlink="http://www.w3.org/1999/xlink">
<g id="graph0" class="graph" transform="scale(1 1) rotate(0) translate(4 138)">
<title>imap_logout_all</title>
<polygon fill="white" stroke="none" points="-4,4 -4,-138 222,-138 222,4 -4,4"/>
<!-- Node1 -->
<g id="node1" class="node"><title>Node1</title>
<polygon fill="#bfbfbf" stroke="black" points="0,-57.5 0,-76.5 84,-76.5 84,-57.5 0,-57.5"/>
<text text-anchor="middle" x="42" y="-64.5" font-family="Helvetica,sans-Serif" font-size="10.00">imap_logout_all</text>
</g>
<!-- Node2 -->
<g id="node2" class="node"><title>Node2</title>
<g id="a_node2"><a xlink:href="socket_8c.html#ad5ecccfa77b2a38711422cbff3cf868a" target="_top" xlink:title="Get the first socket. ">
<polygon fill="white" stroke="black" points="120.5,-114.5 120.5,-133.5 217.5,-133.5 217.5,-114.5 120.5,-114.5"/>
<text text-anchor="middle" x="169" y="-121.5" font-family="Helvetica,sans-Serif" font-size="10.00">mutt_socket_head</text>
</a>
</g>
</g>
<!-- Node1&#45;&gt;Node2 -->
<g id="edge1" class="edge"><title>Node1&#45;&gt;Node2</title>
<path fill="none" stroke="midnightblue" d="M61.47,-76.6441C76.9439,-84.5954 99.6975,-95.9901 120,-105 124.168,-106.85 128.575,-108.714 132.961,-110.515"/>
<polygon fill="midnightblue" stroke="midnightblue" points="131.846,-113.84 142.43,-114.325 134.459,-107.345 131.846,-113.84"/>
</g>
<!-- Node3 -->
<g id="node3" class="node"><title>Node3</title>
<g id="a_node3"><a xlink:href="imap_8c.html#a367d8a660b66c39a998bead9cfca657b" target="_top" xlink:title="Gracefully log out of server. ">
<polygon fill="white" stroke="red" points="134.5,-76.5 134.5,-95.5 203.5,-95.5 203.5,-76.5 134.5,-76.5"/>
<text text-anchor="middle" x="169" y="-83.5" font-family="Helvetica,sans-Serif" font-size="10.00">imap_logout</text>
</a>
</g>
</g>
<!-- Node1&#45;&gt;Node3 -->
<g id="edge2" class="edge"><title>Node1&#45;&gt;Node3</title>
<path fill="none" stroke="midnightblue" d="M84.2761,-73.274C97.0697,-75.2186 111.21,-77.3679 124.17,-79.3379"/>
<polygon fill="midnightblue" stroke="midnightblue" points="123.851,-82.8295 134.263,-80.872 124.903,-75.9089 123.851,-82.8295"/>
</g>
<!-- Node4 -->
<g id="node4" class="node"><title>Node4</title>
<g id="a_node4"><a xlink:href="mutt__logging_8c.html#af068b3f524a31fad293b2fb61dfc4534" target="_top" xlink:title="Clear the message line (bottom line of screen) ">
<polygon fill="white" stroke="red" points="125.5,-38.5 125.5,-57.5 212.5,-57.5 212.5,-38.5 125.5,-38.5"/>
<text text-anchor="middle" x="169" y="-45.5" font-family="Helvetica,sans-Serif" font-size="10.00">mutt_clear_error</text>
</a>
</g>
</g>
<!-- Node1&#45;&gt;Node4 -->
<g id="edge3" class="edge"><title>Node1&#45;&gt;Node4</title>
<path fill="none" stroke="midnightblue" d="M84.2761,-60.726C94.1963,-59.2182 104.926,-57.5872 115.288,-56.0123"/>
<polygon fill="midnightblue" stroke="midnightblue" points="116.123,-59.4256 125.483,-54.4626 115.071,-52.5051 116.123,-59.4256"/>
</g>
<!-- Node5 -->
<g id="node5" class="node"><title>Node5</title>
<g id="a_node5"><a xlink:href="socket_8c.html#a399ed98618b6d28dd9f20d535a48d308" target="_top" xlink:title="remove connection from connection list and free it ">
<polygon fill="white" stroke="black" points="123,-0.5 123,-19.5 215,-19.5 215,-0.5 123,-0.5"/>
<text text-anchor="middle" x="169" y="-7.5" font-family="Helvetica,sans-Serif" font-size="10.00">mutt_socket_free</text>
</a>
</g>
</g>
<!-- Node1&#45;&gt;Node5 -->
<g id="edge4" class="edge"><title>Node1&#45;&gt;Node5</title>
<path fill="none" stroke="midnightblue" d="M61.47,-57.3559C76.9439,-49.4046 99.6975,-38.0099 120,-29 124.168,-27.1504 128.575,-25.2856 132.961,-23.4847"/>
<polygon fill="midnightblue" stroke="midnightblue" points="134.459,-26.6546 142.43,-19.6748 131.846,-20.1605 134.459,-26.6546"/>
</g>
</g>
</svg>
