<?xml version="1.0" encoding="UTF-8" standalone="no"?>
<!DOCTYPE svg PUBLIC "-//W3C//DTD SVG 1.1//EN"
 "http://www.w3.org/Graphics/SVG/1.1/DTD/svg11.dtd">
<!-- Generated by graphviz version 2.36.0 (20140111.2315)
 -->
<!-- Title: imap_create_mailbox Pages: 1 -->
<svg width="284pt" height="142pt"
 viewBox="0.00 0.00 284.00 142.00" xmlns="http://www.w3.org/2000/svg" xmlns:xlink="http://www.w3.org/1999/xlink">
<g id="graph0" class="graph" transform="scale(1 1) rotate(0) translate(4 138)">
<title>imap_create_mailbox</title>
<polygon fill="white" stroke="none" points="-4,4 -4,-138 280,-138 280,4 -4,4"/>
<!-- Node1 -->
<g id="node1" class="node"><title>Node1</title>
<polygon fill="#bfbfbf" stroke="black" points="0.5,-57.5 0.5,-76.5 109.5,-76.5 109.5,-57.5 0.5,-57.5"/>
<text text-anchor="middle" x="55" y="-64.5" font-family="Helvetica,sans-Serif" font-size="10.00">imap_create_mailbox</text>
</g>
<!-- Node2 -->
<g id="node2" class="node"><title>Node2</title>
<g id="a_node2"><a xlink:href="imap_8h.html#ad29c8310856c366b81a118ff231ed35c" target="_top" xlink:title="Create a new IMAP mailbox. ">
<polygon fill="white" stroke="red" points="156.5,-114.5 156.5,-133.5 265.5,-133.5 265.5,-114.5 156.5,-114.5"/>
<text text-anchor="middle" x="211" y="-121.5" font-family="Helvetica,sans-Serif" font-size="10.00">imap_mailbox_create</text>
</a>
</g>
</g>
<!-- Node1&#45;&gt;Node2 -->
<g id="edge1" class="edge"><title>Node1&#45;&gt;Node2</title>
<path fill="none" stroke="midnightblue" d="M86.3977,-80.8278C103.686,-88.4401 125.846,-97.7787 146,-105 155.384,-108.362 165.685,-111.61 175.229,-114.44"/>
<polygon fill="midnightblue" stroke="midnightblue" points="87.3932,-77.44 76.8338,-76.5743 84.5486,-83.836 87.3932,-77.44"/>
</g>
<!-- Node3 -->
<g id="node3" class="node"><title>Node3</title>
<g id="a_node3"><a xlink:href="imap_8h.html#ab8df632acf50bdb33e067b4cdbb2c99d" target="_top" xlink:title="Use server COPY command to copy deleted messages to trash. ">
<polygon fill="white" stroke="red" points="168,-76.5 168,-95.5 254,-95.5 254,-76.5 168,-76.5"/>
<text text-anchor="middle" x="211" y="-83.5" font-family="Helvetica,sans-Serif" font-size="10.00">imap_fast_trash</text>
</a>
</g>
</g>
<!-- Node1&#45;&gt;Node3 -->
<g id="edge2" class="edge"><title>Node1&#45;&gt;Node3</title>
<path fill="none" stroke="midnightblue" d="M120.223,-74.9237C136.202,-76.8951 152.936,-78.9597 167.569,-80.765"/>
<polygon fill="midnightblue" stroke="midnightblue" points="120.215,-71.3962 109.862,-73.6453 119.358,-78.3435 120.215,-71.3962"/>
</g>
<!-- Node4 -->
<g id="node4" class="node"><title>Node4</title>
<g id="a_node4"><a xlink:href="imap_8c.html#af4baf631aed2a0c50afde3c753aa4017" target="_top" xlink:title="Implements MxOps::mbox_open_append() ">
<polygon fill="white" stroke="black" points="146,-38.5 146,-57.5 276,-57.5 276,-38.5 146,-38.5"/>
<text text-anchor="middle" x="211" y="-45.5" font-family="Helvetica,sans-Serif" font-size="10.00">imap_mbox_open_append</text>
</a>
</g>
</g>
<!-- Node1&#45;&gt;Node4 -->
<g id="edge3" class="edge"><title>Node1&#45;&gt;Node4</title>
<path fill="none" stroke="midnightblue" d="M119.826,-59.1254C128.425,-58.0645 137.25,-56.9757 145.854,-55.9141"/>
<polygon fill="midnightblue" stroke="midnightblue" points="119.358,-55.6565 109.862,-60.3547 120.215,-62.6038 119.358,-55.6565"/>
</g>
<!-- Node5 -->
<g id="node5" class="node"><title>Node5</title>
<g id="a_node5"><a xlink:href="message_8c.html#ac8b081db1e42feedcb823b54157fcd79" target="_top" xlink:title="Server COPY messages to another folder. ">
<polygon fill="white" stroke="red" points="154,-0.5 154,-19.5 268,-19.5 268,-0.5 154,-0.5"/>
<text text-anchor="middle" x="211" y="-7.5" font-family="Helvetica,sans-Serif" font-size="10.00">imap_copy_messages</text>
</a>
</g>
</g>
<!-- Node1&#45;&gt;Node5 -->
<g id="edge4" class="edge"><title>Node1&#45;&gt;Node5</title>
<path fill="none" stroke="midnightblue" d="M86.3977,-53.1722C103.686,-45.5599 125.846,-36.2213 146,-29 155.384,-25.6378 165.685,-22.3904 175.229,-19.56"/>
<polygon fill="midnightblue" stroke="midnightblue" points="84.5486,-50.164 76.8338,-57.4257 87.3932,-56.56 84.5486,-50.164"/>
</g>
</g>
</svg>
