<?xml version="1.0" encoding="UTF-8" standalone="no"?>
<!DOCTYPE svg PUBLIC "-//W3C//DTD SVG 1.1//EN"
 "http://www.w3.org/Graphics/SVG/1.1/DTD/svg11.dtd">
<!-- Generated by graphviz version 2.36.0 (20140111.2315)
 -->
<!-- Title: cmd_new Pages: 1 -->
<svg width="190pt" height="28pt"
 viewBox="0.00 0.00 190.00 28.00" xmlns="http://www.w3.org/2000/svg" xmlns:xlink="http://www.w3.org/1999/xlink">
<g id="graph0" class="graph" transform="scale(1 1) rotate(0) translate(4 24)">
<title>cmd_new</title>
<polygon fill="white" stroke="none" points="-4,4 -4,-24 186,-24 186,4 -4,4"/>
<!-- Node1 -->
<g id="node1" class="node"><title>Node1</title>
<polygon fill="#bfbfbf" stroke="black" points="0.5,-0.5 0.5,-19.5 59.5,-19.5 59.5,-0.5 0.5,-0.5"/>
<text text-anchor="middle" x="30" y="-7.5" font-family="Helvetica,sans-Serif" font-size="10.00">cmd_new</text>
</g>
<!-- Node2 -->
<g id="node2" class="node"><title>Node2</title>
<g id="a_node2"><a xlink:href="imap_2command_8c.html#a959bf21bb55d41cde2faf19eacf0fc35" target="_top" xlink:title="Is the IMAP command queue full? ">
<polygon fill="white" stroke="black" points="96.5,-0.5 96.5,-19.5 181.5,-19.5 181.5,-0.5 96.5,-0.5"/>
<text text-anchor="middle" x="139" y="-7.5" font-family="Helvetica,sans-Serif" font-size="10.00">cmd_queue_full</text>
</a>
</g>
</g>
<!-- Node1&#45;&gt;Node2 -->
<g id="edge1" class="edge"><title>Node1&#45;&gt;Node2</title>
<path fill="none" stroke="midnightblue" d="M59.674,-10C67.8598,-10 77.042,-10 86.1597,-10"/>
<polygon fill="midnightblue" stroke="midnightblue" points="86.3702,-13.5001 96.3701,-10 86.3701,-6.5001 86.3702,-13.5001"/>
</g>
</g>
</svg>
