<?xml version="1.0" encoding="UTF-8" standalone="no"?>
<!DOCTYPE svg PUBLIC "-//W3C//DTD SVG 1.1//EN"
 "http://www.w3.org/Graphics/SVG/1.1/DTD/svg11.dtd">
<!-- Generated by graphviz version 2.36.0 (20140111.2315)
 -->
<!-- Title: imap_cmd_start Pages: 1 -->
<svg width="380pt" height="484pt"
 viewBox="0.00 0.00 380.00 484.00" xmlns="http://www.w3.org/2000/svg" xmlns:xlink="http://www.w3.org/1999/xlink">
<g id="graph0" class="graph" transform="scale(1 1) rotate(0) translate(4 480)">
<title>imap_cmd_start</title>
<polygon fill="white" stroke="none" points="-4,4 -4,-480 376,-480 376,4 -4,4"/>
<!-- Node1 -->
<g id="node1" class="node"><title>Node1</title>
<polygon fill="#bfbfbf" stroke="black" points="0,-228.5 0,-247.5 86,-247.5 86,-228.5 0,-228.5"/>
<text text-anchor="middle" x="43" y="-235.5" font-family="Helvetica,sans-Serif" font-size="10.00">imap_cmd_start</text>
</g>
<!-- Node2 -->
<g id="node2" class="node"><title>Node2</title>
<g id="a_node2"><a xlink:href="auth__anon_8c.html#abf7c86a7705f1b21eb39aa3a473fe5c4" target="_top" xlink:title="Authenticate anonymously. ">
<polygon fill="white" stroke="black" points="138,-456.5 138,-475.5 226,-475.5 226,-456.5 138,-456.5"/>
<text text-anchor="middle" x="182" y="-463.5" font-family="Helvetica,sans-Serif" font-size="10.00">imap_auth_anon</text>
</a>
</g>
</g>
<!-- Node1&#45;&gt;Node2 -->
<g id="edge1" class="edge"><title>Node1&#45;&gt;Node2</title>
<path fill="none" stroke="midnightblue" d="M45.7627,-258.088C50.4613,-299.402 66.9663,-394.423 122,-447 126.513,-451.311 132.009,-454.645 137.812,-457.221"/>
<polygon fill="midnightblue" stroke="midnightblue" points="49.2243,-257.533 44.7283,-247.939 42.2604,-258.243 49.2243,-257.533"/>
</g>
<!-- Node3 -->
<g id="node3" class="node"><title>Node3</title>
<g id="a_node3"><a xlink:href="auth__cram_8c.html#ae0a74c9fa9b26bf0b6b9678776777587" target="_top" xlink:title="Authenticate using CRAM&#45;MD5. ">
<polygon fill="white" stroke="black" points="125.5,-418.5 125.5,-437.5 238.5,-437.5 238.5,-418.5 125.5,-418.5"/>
<text text-anchor="middle" x="182" y="-425.5" font-family="Helvetica,sans-Serif" font-size="10.00">imap_auth_cram_md5</text>
</a>
</g>
</g>
<!-- Node1&#45;&gt;Node3 -->
<g id="edge2" class="edge"><title>Node1&#45;&gt;Node3</title>
<path fill="none" stroke="midnightblue" d="M47.5983,-257.798C55.0683,-293.246 75.5894,-367.7 122,-409 126.341,-412.863 131.476,-415.942 136.877,-418.395"/>
<polygon fill="midnightblue" stroke="midnightblue" points="50.9855,-256.884 45.6153,-247.751 44.118,-258.239 50.9855,-256.884"/>
</g>
<!-- Node4 -->
<g id="node4" class="node"><title>Node4</title>
<g id="a_node4"><a xlink:href="auth__gss_8c.html#a013a06b2578393579585808f9763e83b" target="_top" xlink:title="GSS Authentication support. ">
<polygon fill="white" stroke="black" points="140.5,-380.5 140.5,-399.5 223.5,-399.5 223.5,-380.5 140.5,-380.5"/>
<text text-anchor="middle" x="182" y="-387.5" font-family="Helvetica,sans-Serif" font-size="10.00">imap_auth_gss</text>
</a>
</g>
</g>
<!-- Node1&#45;&gt;Node4 -->
<g id="edge3" class="edge"><title>Node1&#45;&gt;Node4</title>
<path fill="none" stroke="midnightblue" d="M50.2957,-257.38C60.6618,-286.289 84.0414,-340.557 122,-371 127.373,-375.309 133.746,-378.651 140.285,-381.24"/>
<polygon fill="midnightblue" stroke="midnightblue" points="53.5117,-255.968 46.9567,-247.645 46.8903,-258.239 53.5117,-255.968"/>
</g>
<!-- Node5 -->
<g id="node5" class="node"><title>Node5</title>
<g id="a_node5"><a xlink:href="auth__plain_8c.html#a29a95145f0e0e5c19d2d8e085cff9aba" target="_top" xlink:title="SASL PLAIN support. ">
<polygon fill="white" stroke="black" points="138.5,-342.5 138.5,-361.5 225.5,-361.5 225.5,-342.5 138.5,-342.5"/>
<text text-anchor="middle" x="182" y="-349.5" font-family="Helvetica,sans-Serif" font-size="10.00">imap_auth_plain</text>
</a>
</g>
</g>
<!-- Node1&#45;&gt;Node5 -->
<g id="edge4" class="edge"><title>Node1&#45;&gt;Node5</title>
<path fill="none" stroke="midnightblue" d="M54.5477,-256.39C67.7113,-277.767 92.1647,-312.7 122,-333 127.605,-336.814 134.025,-339.901 140.518,-342.389"/>
<polygon fill="midnightblue" stroke="midnightblue" points="57.4458,-254.417 49.3152,-247.624 51.4351,-258.004 57.4458,-254.417"/>
</g>
<!-- Node6 -->
<g id="node6" class="node"><title>Node6</title>
<g id="a_node6"><a xlink:href="auth__sasl_8c.html#a20df19153f0a84479482001b8f911099" target="_top" xlink:title="Default authenticator if available. ">
<polygon fill="white" stroke="black" points="139.5,-304.5 139.5,-323.5 224.5,-323.5 224.5,-304.5 139.5,-304.5"/>
<text text-anchor="middle" x="182" y="-311.5" font-family="Helvetica,sans-Serif" font-size="10.00">imap_auth_sasl</text>
</a>
</g>
</g>
<!-- Node1&#45;&gt;Node6 -->
<g id="edge5" class="edge"><title>Node1&#45;&gt;Node6</title>
<path fill="none" stroke="midnightblue" d="M62.6532,-254.295C77.7923,-266.838 100.139,-283.859 122,-295 129.191,-298.665 137.232,-301.813 145.009,-304.433"/>
<polygon fill="midnightblue" stroke="midnightblue" points="64.5251,-251.294 54.6307,-247.506 60.003,-256.637 64.5251,-251.294"/>
</g>
<!-- Node7 -->
<g id="node7" class="node"><title>Node7</title>
<g id="a_node7"><a xlink:href="browse_8c.html#a6bfd4825ca7b7eef1468f4bee6c27cab" target="_top" xlink:title="Add entries to the folder browser. ">
<polygon fill="white" stroke="black" points="124,-266.5 124,-285.5 240,-285.5 240,-266.5 124,-266.5"/>
<text text-anchor="middle" x="182" y="-273.5" font-family="Helvetica,sans-Serif" font-size="10.00">browse_add_list_result</text>
</a>
</g>
</g>
<!-- Node1&#45;&gt;Node7 -->
<g id="edge6" class="edge"><title>Node1&#45;&gt;Node7</title>
<path fill="none" stroke="midnightblue" d="M88.4108,-250.318C107.234,-255.539 128.838,-261.532 146.44,-266.414"/>
<polygon fill="midnightblue" stroke="midnightblue" points="89.1426,-246.889 78.5709,-247.589 87.2716,-253.635 89.1426,-246.889"/>
</g>
<!-- Node8 -->
<g id="node8" class="node"><title>Node8</title>
<g id="a_node8"><a xlink:href="imap_8h.html#a3bd0d7473a0b702dfff8db25461f0caf" target="_top" xlink:title="IMAP hook into the folder browser. ">
<polygon fill="white" stroke="red" points="288,-247.5 288,-266.5 362,-266.5 362,-247.5 288,-247.5"/>
<text text-anchor="middle" x="325" y="-254.5" font-family="Helvetica,sans-Serif" font-size="10.00">imap_browse</text>
</a>
</g>
</g>
<!-- Node1&#45;&gt;Node8 -->
<g id="edge8" class="edge"><title>Node1&#45;&gt;Node8</title>
<path fill="none" stroke="midnightblue" d="M96.2581,-241.546C152.034,-245.331 238.937,-251.228 287.684,-254.536"/>
<polygon fill="midnightblue" stroke="midnightblue" points="96.436,-238.05 86.222,-240.865 95.9621,-245.034 96.436,-238.05"/>
</g>
<!-- Node9 -->
<g id="node9" class="node"><title>Node9</title>
<g id="a_node9"><a xlink:href="imap__private_8h.html#a367d8a660b66c39a998bead9cfca657b" target="_top" xlink:title="Gracefully log out of server. ">
<polygon fill="white" stroke="red" points="147.5,-190.5 147.5,-209.5 216.5,-209.5 216.5,-190.5 147.5,-190.5"/>
<text text-anchor="middle" x="182" y="-197.5" font-family="Helvetica,sans-Serif" font-size="10.00">imap_logout</text>
</a>
</g>
</g>
<!-- Node1&#45;&gt;Node9 -->
<g id="edge9" class="edge"><title>Node1&#45;&gt;Node9</title>
<path fill="none" stroke="midnightblue" d="M88.3016,-225.712C107.489,-220.39 129.583,-214.262 147.387,-209.323"/>
<polygon fill="midnightblue" stroke="midnightblue" points="87.2716,-222.365 78.5709,-228.411 89.1426,-229.111 87.2716,-222.365"/>
</g>
<!-- Node10 -->
<g id="node10" class="node"><title>Node10</title>
<g id="a_node10"><a xlink:href="imap_8h.html#ae99223085d505fb8b323fa031b5ee0fa" target="_top" xlink:title="Try to complete an IMAP folder path. ">
<polygon fill="white" stroke="red" points="140.5,-152.5 140.5,-171.5 223.5,-171.5 223.5,-152.5 140.5,-152.5"/>
<text text-anchor="middle" x="182" y="-159.5" font-family="Helvetica,sans-Serif" font-size="10.00">imap_complete</text>
</a>
</g>
</g>
<!-- Node1&#45;&gt;Node10 -->
<g id="edge10" class="edge"><title>Node1&#45;&gt;Node10</title>
<path fill="none" stroke="midnightblue" d="M62.6532,-221.705C77.7923,-209.162 100.139,-192.141 122,-181 129.191,-177.335 137.232,-174.187 145.009,-171.567"/>
<polygon fill="midnightblue" stroke="midnightblue" points="60.003,-219.363 54.6307,-228.494 64.5251,-224.706 60.003,-219.363"/>
</g>
<!-- Node11 -->
<g id="node11" class="node"><title>Node11</title>
<g id="a_node11"><a xlink:href="imap_8c.html#a6aa69e15f9108427a470d8f679ebe0f3" target="_top" xlink:title="Implements MxOps::mbox_open() ">
<polygon fill="white" stroke="black" points="278.5,-95.5 278.5,-114.5 371.5,-114.5 371.5,-95.5 278.5,-95.5"/>
<text text-anchor="middle" x="325" y="-102.5" font-family="Helvetica,sans-Serif" font-size="10.00">imap_mbox_open</text>
</a>
</g>
</g>
<!-- Node1&#45;&gt;Node11 -->
<g id="edge11" class="edge"><title>Node1&#45;&gt;Node11</title>
<path fill="none" stroke="midnightblue" d="M53.9322,-219.286C66.6397,-197.299 90.7903,-161.482 122,-143 170.206,-114.453 235.26,-106.629 278.365,-104.846"/>
<polygon fill="midnightblue" stroke="midnightblue" points="50.7189,-217.863 48.9147,-228.303 56.8356,-221.267 50.7189,-217.863"/>
</g>
<!-- Node12 -->
<g id="node12" class="node"><title>Node12</title>
<g id="a_node12"><a xlink:href="message_8c.html#a5dae54814b2746142369bbdef40b1b0f" target="_top" xlink:title="Read headers from the server. ">
<polygon fill="white" stroke="red" points="131.5,-76.5 131.5,-95.5 232.5,-95.5 232.5,-76.5 131.5,-76.5"/>
<text text-anchor="middle" x="182" y="-83.5" font-family="Helvetica,sans-Serif" font-size="10.00">imap_read_headers</text>
</a>
</g>
</g>
<!-- Node1&#45;&gt;Node12 -->
<g id="edge12" class="edge"><title>Node1&#45;&gt;Node12</title>
<path fill="none" stroke="midnightblue" d="M51.1078,-218.882C62.2535,-191.305 86.3218,-140.353 122,-110 129.243,-103.838 138.278,-99.1073 147.084,-95.542"/>
<polygon fill="midnightblue" stroke="midnightblue" points="47.8408,-217.626 47.4716,-228.214 54.3632,-220.167 47.8408,-217.626"/>
</g>
<!-- Node13 -->
<g id="node13" class="node"><title>Node13</title>
<g id="a_node13"><a xlink:href="message_8c.html#ac66dd57350d26393d54331847edf4a19" target="_top" xlink:title="Implements MxOps::msg_open() ">
<polygon fill="white" stroke="black" points="138,-38.5 138,-57.5 226,-57.5 226,-38.5 138,-38.5"/>
<text text-anchor="middle" x="182" y="-45.5" font-family="Helvetica,sans-Serif" font-size="10.00">imap_msg_open</text>
</a>
</g>
</g>
<!-- Node1&#45;&gt;Node13 -->
<g id="edge14" class="edge"><title>Node1&#45;&gt;Node13</title>
<path fill="none" stroke="midnightblue" d="M47.5983,-218.202C55.0683,-182.754 75.5894,-108.3 122,-67 126.582,-62.9224 132.049,-59.7186 137.779,-57.2017"/>
<polygon fill="midnightblue" stroke="midnightblue" points="44.118,-217.761 45.6153,-228.249 50.9855,-219.116 44.118,-217.761"/>
</g>
<!-- Node14 -->
<g id="node14" class="node"><title>Node14</title>
<g id="a_node14"><a xlink:href="message_8c.html#a98f190c0228d94863c21dfd71e4022d1" target="_top" xlink:title="Write an email back to the server. ">
<polygon fill="white" stroke="red" points="122.5,-0.5 122.5,-19.5 241.5,-19.5 241.5,-0.5 122.5,-0.5"/>
<text text-anchor="middle" x="182" y="-7.5" font-family="Helvetica,sans-Serif" font-size="10.00">imap_append_message</text>
</a>
</g>
</g>
<!-- Node1&#45;&gt;Node14 -->
<g id="edge15" class="edge"><title>Node1&#45;&gt;Node14</title>
<path fill="none" stroke="midnightblue" d="M45.7627,-217.912C50.4613,-176.598 66.9663,-81.5771 122,-29 126.046,-25.1345 130.883,-22.0555 136.022,-19.6028"/>
<polygon fill="midnightblue" stroke="midnightblue" points="42.2604,-217.757 44.7283,-228.061 49.2243,-218.467 42.2604,-217.757"/>
</g>
<!-- Node7&#45;&gt;Node8 -->
<g id="edge7" class="edge"><title>Node7&#45;&gt;Node8</title>
<path fill="none" stroke="midnightblue" d="M250.575,-266.894C263.399,-265.166 276.353,-263.421 287.735,-261.887"/>
<polygon fill="midnightblue" stroke="midnightblue" points="249.793,-263.468 240.35,-268.272 250.728,-270.405 249.793,-263.468"/>
</g>
<!-- Node12&#45;&gt;Node11 -->
<g id="edge13" class="edge"><title>Node12&#45;&gt;Node11</title>
<path fill="none" stroke="midnightblue" d="M242.906,-94.0725C254.664,-95.6568 266.824,-97.2954 278.037,-98.8064"/>
<polygon fill="midnightblue" stroke="midnightblue" points="243.089,-90.5656 232.711,-92.6987 242.154,-97.5029 243.089,-90.5656"/>
</g>
</g>
</svg>
