<?xml version="1.0" encoding="UTF-8" standalone="no"?>
<!DOCTYPE svg PUBLIC "-//W3C//DTD SVG 1.1//EN"
 "http://www.w3.org/Graphics/SVG/1.1/DTD/svg11.dtd">
<!-- Generated by graphviz version 2.36.0 (20140111.2315)
 -->
<!-- Title: imap_tags_commit Pages: 1 -->
<svg width="252pt" height="229pt"
 viewBox="0.00 0.00 252.00 229.00" xmlns="http://www.w3.org/2000/svg" xmlns:xlink="http://www.w3.org/1999/xlink">
<g id="graph0" class="graph" transform="scale(1 1) rotate(0) translate(4 225)">
<title>imap_tags_commit</title>
<polygon fill="white" stroke="none" points="-4,4 -4,-225 248,-225 248,4 -4,4"/>
<!-- Node1 -->
<g id="node1" class="node"><title>Node1</title>
<polygon fill="#bfbfbf" stroke="black" points="0.5,-106.5 0.5,-125.5 99.5,-125.5 99.5,-106.5 0.5,-106.5"/>
<text text-anchor="middle" x="50" y="-113.5" font-family="Helvetica,sans-Serif" font-size="10.00">imap_tags_commit</text>
</g>
<!-- Node2 -->
<g id="node2" class="node"><title>Node2</title>
<g id="a_node2"><a xlink:href="buffer_8c.html#a8e45cf675c7eeedae5b614402f2e84b5" target="_top" xlink:title="Create and initialise a Buffer. ">
<polygon fill="white" stroke="red" points="145.5,-201.5 145.5,-220.5 234.5,-220.5 234.5,-201.5 145.5,-201.5"/>
<text text-anchor="middle" x="190" y="-208.5" font-family="Helvetica,sans-Serif" font-size="10.00">mutt_buffer_new</text>
</a>
</g>
</g>
<!-- Node1&#45;&gt;Node2 -->
<g id="edge1" class="edge"><title>Node1&#45;&gt;Node2</title>
<path fill="none" stroke="midnightblue" d="M59.4935,-125.716C73.8264,-141.581 104.361,-173.168 136,-192 139.399,-194.023 143.048,-195.882 146.783,-197.577"/>
<polygon fill="midnightblue" stroke="midnightblue" points="145.572,-200.863 156.15,-201.455 148.249,-194.396 145.572,-200.863"/>
</g>
<!-- Node3 -->
<g id="node3" class="node"><title>Node3</title>
<g id="a_node3"><a xlink:href="buffer_8c.html#a958e87c1ae9de976eb76f759dbaaa601" target="_top" xlink:title="Add a string to a Buffer. ">
<polygon fill="white" stroke="red" points="141,-163.5 141,-182.5 239,-182.5 239,-163.5 141,-163.5"/>
<text text-anchor="middle" x="190" y="-170.5" font-family="Helvetica,sans-Serif" font-size="10.00">mutt_buffer_addstr</text>
</a>
</g>
</g>
<!-- Node1&#45;&gt;Node3 -->
<g id="edge2" class="edge"><title>Node1&#45;&gt;Node3</title>
<path fill="none" stroke="midnightblue" d="M71.4233,-125.657C88.5253,-133.616 113.654,-145.015 136,-154 140.919,-155.978 146.132,-157.97 151.294,-159.883"/>
<polygon fill="midnightblue" stroke="midnightblue" points="150.474,-163.308 161.068,-163.436 152.866,-156.73 150.474,-163.308"/>
</g>
<!-- Node4 -->
<g id="node4" class="node"><title>Node4</title>
<g id="a_node4"><a xlink:href="imap_2command_8c.html#a97ce60ff4a8b54b3e2bc178e2969d3fc" target="_top" xlink:title="Execute a command and wait for the response from the server. ">
<polygon fill="white" stroke="red" points="158,-125.5 158,-144.5 222,-144.5 222,-125.5 158,-125.5"/>
<text text-anchor="middle" x="190" y="-132.5" font-family="Helvetica,sans-Serif" font-size="10.00">imap_exec</text>
</a>
</g>
</g>
<!-- Node1&#45;&gt;Node4 -->
<g id="edge3" class="edge"><title>Node1&#45;&gt;Node4</title>
<path fill="none" stroke="midnightblue" d="M99.6536,-122.699C115.416,-124.869 132.734,-127.253 147.893,-129.34"/>
<polygon fill="midnightblue" stroke="midnightblue" points="147.613,-132.835 157.997,-130.731 148.567,-125.9 147.613,-132.835"/>
</g>
<!-- Node5 -->
<g id="node5" class="node"><title>Node5</title>
<g id="a_node5"><a xlink:href="buffer_8c.html#a4fe44d6951505adb974135817a85a3d1" target="_top" xlink:title="Release a Buffer and its contents. ">
<polygon fill="white" stroke="black" points="146,-87.5 146,-106.5 234,-106.5 234,-87.5 146,-87.5"/>
<text text-anchor="middle" x="190" y="-94.5" font-family="Helvetica,sans-Serif" font-size="10.00">mutt_buffer_free</text>
</a>
</g>
</g>
<!-- Node1&#45;&gt;Node5 -->
<g id="edge4" class="edge"><title>Node1&#45;&gt;Node5</title>
<path fill="none" stroke="midnightblue" d="M99.6536,-109.301C111.297,-107.698 123.79,-105.978 135.634,-104.348"/>
<polygon fill="midnightblue" stroke="midnightblue" points="136.408,-107.774 145.837,-102.943 135.453,-100.839 136.408,-107.774"/>
</g>
<!-- Node6 -->
<g id="node6" class="node"><title>Node6</title>
<g id="a_node6"><a xlink:href="tags_8c.html#ae366e8246a8491af8abed2544643e54b" target="_top" xlink:title="Replace all tags. ">
<polygon fill="white" stroke="red" points="139.5,-49.5 139.5,-68.5 240.5,-68.5 240.5,-49.5 139.5,-49.5"/>
<text text-anchor="middle" x="190" y="-56.5" font-family="Helvetica,sans-Serif" font-size="10.00">driver_tags_replace</text>
</a>
</g>
</g>
<!-- Node1&#45;&gt;Node6 -->
<g id="edge5" class="edge"><title>Node1&#45;&gt;Node6</title>
<path fill="none" stroke="midnightblue" d="M71.4233,-106.343C88.5253,-98.3841 113.654,-86.9853 136,-78 140.919,-76.0223 146.132,-74.0298 151.294,-72.1175"/>
<polygon fill="midnightblue" stroke="midnightblue" points="152.866,-75.2703 161.068,-68.564 150.474,-68.6916 152.866,-75.2703"/>
</g>
<!-- Node7 -->
<g id="node7" class="node"><title>Node7</title>
<g id="a_node7"><a xlink:href="tags_8c.html#a344c0367ea282a452ca71a8ca7bef6ea" target="_top" xlink:title="Get tags with hiddens. ">
<polygon fill="white" stroke="red" points="136.5,-0 136.5,-30 243.5,-30 243.5,-0 136.5,-0"/>
<text text-anchor="start" x="144.5" y="-18" font-family="Helvetica,sans-Serif" font-size="10.00">driver_tags_get_with</text>
<text text-anchor="middle" x="190" y="-7" font-family="Helvetica,sans-Serif" font-size="10.00">_hidden</text>
</a>
</g>
</g>
<!-- Node1&#45;&gt;Node7 -->
<g id="edge6" class="edge"><title>Node1&#45;&gt;Node7</title>
<path fill="none" stroke="midnightblue" d="M60.1834,-106.12C75.0092,-90.578 105.636,-60.1178 136,-40 138.714,-38.2019 141.578,-36.4626 144.511,-34.7957"/>
<polygon fill="midnightblue" stroke="midnightblue" points="146.27,-37.8242 153.441,-30.025 142.971,-31.6501 146.27,-37.8242"/>
</g>
</g>
</svg>
