<?xml version="1.0" encoding="UTF-8" standalone="no"?>
<!DOCTYPE svg PUBLIC "-//W3C//DTD SVG 1.1//EN"
 "http://www.w3.org/Graphics/SVG/1.1/DTD/svg11.dtd">
<!-- Generated by graphviz version 2.36.0 (20140111.2315)
 -->
<!-- Title: imap_clean_path Pages: 1 -->
<svg width="230pt" height="142pt"
 viewBox="0.00 0.00 230.00 142.00" xmlns="http://www.w3.org/2000/svg" xmlns:xlink="http://www.w3.org/1999/xlink">
<g id="graph0" class="graph" transform="scale(1 1) rotate(0) translate(4 138)">
<title>imap_clean_path</title>
<polygon fill="white" stroke="none" points="-4,4 -4,-138 226,-138 226,4 -4,4"/>
<!-- Node1 -->
<g id="node1" class="node"><title>Node1</title>
<polygon fill="#bfbfbf" stroke="black" points="0,-57.5 0,-76.5 90,-76.5 90,-57.5 0,-57.5"/>
<text text-anchor="middle" x="45" y="-64.5" font-family="Helvetica,sans-Serif" font-size="10.00">imap_clean_path</text>
</g>
<!-- Node2 -->
<g id="node2" class="node"><title>Node2</title>
<g id="a_node2"><a xlink:href="util_8c.html#aebbdfebd6d7aff8e41739a4a8f7f74b4" target="_top" xlink:title="Parse an IMAP mailbox name into name,host,port. ">
<polygon fill="white" stroke="red" points="128.5,-114.5 128.5,-133.5 219.5,-133.5 219.5,-114.5 128.5,-114.5"/>
<text text-anchor="middle" x="174" y="-121.5" font-family="Helvetica,sans-Serif" font-size="10.00">imap_parse_path</text>
</a>
</g>
</g>
<!-- Node1&#45;&gt;Node2 -->
<g id="edge1" class="edge"><title>Node1&#45;&gt;Node2</title>
<path fill="none" stroke="midnightblue" d="M65.2508,-76.5381C81.364,-84.4262 105.023,-95.7877 126,-105 130.193,-106.841 134.623,-108.719 139.021,-110.542"/>
<polygon fill="midnightblue" stroke="midnightblue" points="137.91,-113.87 148.491,-114.412 140.558,-107.389 137.91,-113.87"/>
</g>
<!-- Node3 -->
<g id="node3" class="node"><title>Node3</title>
<g id="a_node3"><a xlink:href="imap_8c.html#a6710cdbfe7ff868fb47f3e6164878856" target="_top" xlink:title="Find an open IMAP connection. ">
<polygon fill="white" stroke="red" points="131.5,-76.5 131.5,-95.5 216.5,-95.5 216.5,-76.5 131.5,-76.5"/>
<text text-anchor="middle" x="174" y="-83.5" font-family="Helvetica,sans-Serif" font-size="10.00">imap_conn_find</text>
</a>
</g>
</g>
<!-- Node1&#45;&gt;Node3 -->
<g id="edge2" class="edge"><title>Node1&#45;&gt;Node3</title>
<path fill="none" stroke="midnightblue" d="M90.062,-73.592C100.056,-75.0871 110.761,-76.6887 121.048,-78.2276"/>
<polygon fill="midnightblue" stroke="midnightblue" points="120.745,-81.7212 131.153,-79.7394 121.781,-74.7983 120.745,-81.7212"/>
</g>
<!-- Node4 -->
<g id="node4" class="node"><title>Node4</title>
<g id="a_node4"><a xlink:href="util_8c.html#a0ad581214978f22f29cf3f818c7428ac" target="_top" xlink:title="Fix up the imap path. ">
<polygon fill="white" stroke="black" points="135.5,-38.5 135.5,-57.5 212.5,-57.5 212.5,-38.5 135.5,-38.5"/>
<text text-anchor="middle" x="174" y="-45.5" font-family="Helvetica,sans-Serif" font-size="10.00">imap_fix_path</text>
</a>
</g>
</g>
<!-- Node1&#45;&gt;Node4 -->
<g id="edge3" class="edge"><title>Node1&#45;&gt;Node4</title>
<path fill="none" stroke="midnightblue" d="M90.062,-60.408C101.477,-58.7004 113.819,-56.8539 125.405,-55.1205"/>
<polygon fill="midnightblue" stroke="midnightblue" points="125.979,-58.5737 135.351,-53.6325 124.943,-51.6507 125.979,-58.5737"/>
</g>
<!-- Node5 -->
<g id="node5" class="node"><title>Node5</title>
<g id="a_node5"><a xlink:href="util_8c.html#af03d107135c5d9b9f87294dbf025e20b" target="_top" xlink:title="Make an absolute IMAP folder target. ">
<polygon fill="white" stroke="red" points="126.5,-0.5 126.5,-19.5 221.5,-19.5 221.5,-0.5 126.5,-0.5"/>
<text text-anchor="middle" x="174" y="-7.5" font-family="Helvetica,sans-Serif" font-size="10.00">imap_qualify_path</text>
</a>
</g>
</g>
<!-- Node1&#45;&gt;Node5 -->
<g id="edge4" class="edge"><title>Node1&#45;&gt;Node5</title>
<path fill="none" stroke="midnightblue" d="M65.2508,-57.4619C81.364,-49.5738 105.023,-38.2123 126,-29 130.193,-27.1586 134.623,-25.2809 139.021,-23.4576"/>
<polygon fill="midnightblue" stroke="midnightblue" points="140.558,-26.6106 148.491,-19.5885 137.91,-20.1305 140.558,-26.6106"/>
</g>
</g>
</svg>
