<?xml version="1.0" encoding="UTF-8" standalone="no"?>
<!DOCTYPE svg PUBLIC "-//W3C//DTD SVG 1.1//EN"
 "http://www.w3.org/Graphics/SVG/1.1/DTD/svg11.dtd">
<!-- Generated by graphviz version 2.36.0 (20140111.2315)
 -->
<!-- Title: imap_get_parent_path Pages: 1 -->
<svg width="378pt" height="218pt"
 viewBox="0.00 0.00 378.00 218.00" xmlns="http://www.w3.org/2000/svg" xmlns:xlink="http://www.w3.org/1999/xlink">
<g id="graph0" class="graph" transform="scale(1 1) rotate(0) translate(4 214)">
<title>imap_get_parent_path</title>
<polygon fill="white" stroke="none" points="-4,4 -4,-214 374,-214 374,4 -4,4"/>
<!-- Node1 -->
<g id="node1" class="node"><title>Node1</title>
<polygon fill="#bfbfbf" stroke="black" points="0.5,-95.5 0.5,-114.5 113.5,-114.5 113.5,-95.5 0.5,-95.5"/>
<text text-anchor="middle" x="57" y="-102.5" font-family="Helvetica,sans-Serif" font-size="10.00">imap_get_parent_path</text>
</g>
<!-- Node2 -->
<g id="node2" class="node"><title>Node2</title>
<g id="a_node2"><a xlink:href="util_8c.html#aebbdfebd6d7aff8e41739a4a8f7f74b4" target="_top" xlink:title="Parse an IMAP mailbox name into name,host,port. ">
<polygon fill="white" stroke="red" points="152.5,-190.5 152.5,-209.5 243.5,-209.5 243.5,-190.5 152.5,-190.5"/>
<text text-anchor="middle" x="198" y="-197.5" font-family="Helvetica,sans-Serif" font-size="10.00">imap_parse_path</text>
</a>
</g>
</g>
<!-- Node1&#45;&gt;Node2 -->
<g id="edge1" class="edge"><title>Node1&#45;&gt;Node2</title>
<path fill="none" stroke="midnightblue" d="M69.1192,-114.679C85.9346,-129.057 119.152,-156.457 150,-176 155.256,-179.33 161.03,-182.581 166.678,-185.562"/>
<polygon fill="midnightblue" stroke="midnightblue" points="165.452,-188.866 175.951,-190.29 168.632,-182.63 165.452,-188.866"/>
</g>
<!-- Node3 -->
<g id="node3" class="node"><title>Node3</title>
<g id="a_node3"><a xlink:href="mutt_2string_8c.html#a3b8965b21d6e21536750f8883cd4333a" target="_top" xlink:title="Copy a string into a buffer (guaranteeing NUL&#45;termination) ">
<polygon fill="white" stroke="black" points="282,-152.5 282,-171.5 370,-171.5 370,-152.5 282,-152.5"/>
<text text-anchor="middle" x="326" y="-159.5" font-family="Helvetica,sans-Serif" font-size="10.00">mutt_str_strfcpy</text>
</a>
</g>
</g>
<!-- Node1&#45;&gt;Node3 -->
<g id="edge3" class="edge"><title>Node1&#45;&gt;Node3</title>
<path fill="none" stroke="midnightblue" d="M76.8403,-114.643C95.0651,-123.518 123.712,-136.29 150,-143 190.156,-153.25 236.877,-157.973 271.939,-160.147"/>
<polygon fill="midnightblue" stroke="midnightblue" points="271.78,-163.644 281.963,-160.719 272.179,-156.655 271.78,-163.644"/>
</g>
<!-- Node4 -->
<g id="node4" class="node"><title>Node4</title>
<g id="a_node4"><a xlink:href="imap_8c.html#a6710cdbfe7ff868fb47f3e6164878856" target="_top" xlink:title="Find an open IMAP connection. ">
<polygon fill="white" stroke="red" points="155.5,-114.5 155.5,-133.5 240.5,-133.5 240.5,-114.5 155.5,-114.5"/>
<text text-anchor="middle" x="198" y="-121.5" font-family="Helvetica,sans-Serif" font-size="10.00">imap_conn_find</text>
</a>
</g>
</g>
<!-- Node1&#45;&gt;Node4 -->
<g id="edge4" class="edge"><title>Node1&#45;&gt;Node4</title>
<path fill="none" stroke="midnightblue" d="M113.736,-112.619C124.159,-114.043 135.012,-115.527 145.306,-116.934"/>
<polygon fill="midnightblue" stroke="midnightblue" points="144.996,-120.424 155.378,-118.311 145.944,-113.488 144.996,-120.424"/>
</g>
<!-- Node5 -->
<g id="node5" class="node"><title>Node5</title>
<g id="a_node5"><a xlink:href="util_8c.html#a0ad581214978f22f29cf3f818c7428ac" target="_top" xlink:title="Fix up the imap path. ">
<polygon fill="white" stroke="black" points="159.5,-76.5 159.5,-95.5 236.5,-95.5 236.5,-76.5 159.5,-76.5"/>
<text text-anchor="middle" x="198" y="-83.5" font-family="Helvetica,sans-Serif" font-size="10.00">imap_fix_path</text>
</a>
</g>
</g>
<!-- Node1&#45;&gt;Node5 -->
<g id="edge5" class="edge"><title>Node1&#45;&gt;Node5</title>
<path fill="none" stroke="midnightblue" d="M113.736,-97.3815C125.417,-95.7848 137.638,-94.1142 149.008,-92.5601"/>
<polygon fill="midnightblue" stroke="midnightblue" points="149.736,-95.9932 159.17,-91.171 148.788,-89.0577 149.736,-95.9932"/>
</g>
<!-- Node6 -->
<g id="node6" class="node"><title>Node6</title>
<g id="a_node6"><a xlink:href="util_8c.html#a6d3fbbbb0a6ebe597d8682e3b6b0195f" target="_top" xlink:title="Get an IMAP folder&#39;s parent. ">
<polygon fill="white" stroke="red" points="153.5,-38.5 153.5,-57.5 242.5,-57.5 242.5,-38.5 153.5,-38.5"/>
<text text-anchor="middle" x="198" y="-45.5" font-family="Helvetica,sans-Serif" font-size="10.00">imap_get_parent</text>
</a>
</g>
</g>
<!-- Node1&#45;&gt;Node6 -->
<g id="edge6" class="edge"><title>Node1&#45;&gt;Node6</title>
<path fill="none" stroke="midnightblue" d="M81.0437,-95.4257C99.6402,-87.7127 126.484,-76.6094 150,-67 154.45,-65.1814 159.142,-63.2738 163.768,-61.398"/>
<polygon fill="midnightblue" stroke="midnightblue" points="165.119,-64.627 173.076,-57.631 162.493,-58.1382 165.119,-64.627"/>
</g>
<!-- Node7 -->
<g id="node7" class="node"><title>Node7</title>
<g id="a_node7"><a xlink:href="util_8c.html#af03d107135c5d9b9f87294dbf025e20b" target="_top" xlink:title="Make an absolute IMAP folder target. ">
<polygon fill="white" stroke="red" points="150.5,-0.5 150.5,-19.5 245.5,-19.5 245.5,-0.5 150.5,-0.5"/>
<text text-anchor="middle" x="198" y="-7.5" font-family="Helvetica,sans-Serif" font-size="10.00">imap_qualify_path</text>
</a>
</g>
</g>
<!-- Node1&#45;&gt;Node7 -->
<g id="edge8" class="edge"><title>Node1&#45;&gt;Node7</title>
<path fill="none" stroke="midnightblue" d="M67.4488,-95.4843C83.3299,-79.9057 116.896,-48.7227 150,-29 153.041,-27.1883 156.286,-25.4768 159.597,-23.8789"/>
<polygon fill="midnightblue" stroke="midnightblue" points="161.281,-26.9604 168.985,-19.6871 158.427,-20.5686 161.281,-26.9604"/>
</g>
<!-- Node2&#45;&gt;Node3 -->
<g id="edge2" class="edge"><title>Node2&#45;&gt;Node3</title>
<path fill="none" stroke="midnightblue" d="M230.795,-190.411C246.762,-185.596 266.307,-179.701 283.447,-174.532"/>
<polygon fill="midnightblue" stroke="midnightblue" points="284.652,-177.824 293.215,-171.586 282.63,-171.122 284.652,-177.824"/>
</g>
<!-- Node6&#45;&gt;Node3 -->
<g id="edge7" class="edge"><title>Node6&#45;&gt;Node3</title>
<path fill="none" stroke="midnightblue" d="M229.006,-57.5456C234.925,-60.1257 240.882,-63.2634 246,-67 275.146,-88.2791 300.102,-122.618 313.788,-143.662"/>
<polygon fill="midnightblue" stroke="midnightblue" points="310.951,-145.724 319.257,-152.3 316.865,-141.979 310.951,-145.724"/>
</g>
</g>
</svg>
