<?xml version="1.0" encoding="UTF-8" standalone="no"?>
<!DOCTYPE svg PUBLIC "-//W3C//DTD SVG 1.1//EN"
 "http://www.w3.org/Graphics/SVG/1.1/DTD/svg11.dtd">
<!-- Generated by graphviz version 2.36.0 (20140111.2315)
 -->
<!-- Title: imap_cmd_idle Pages: 1 -->
<svg width="196pt" height="28pt"
 viewBox="0.00 0.00 196.00 28.00" xmlns="http://www.w3.org/2000/svg" xmlns:xlink="http://www.w3.org/1999/xlink">
<g id="graph0" class="graph" transform="scale(1 1) rotate(0) translate(4 24)">
<title>imap_cmd_idle</title>
<polygon fill="white" stroke="none" points="-4,4 -4,-24 192,-24 192,4 -4,4"/>
<!-- Node1 -->
<g id="node1" class="node"><title>Node1</title>
<polygon fill="#bfbfbf" stroke="black" points="0,-0.5 0,-19.5 82,-19.5 82,-0.5 0,-0.5"/>
<text text-anchor="middle" x="41" y="-7.5" font-family="Helvetica,sans-Serif" font-size="10.00">imap_cmd_idle</text>
</g>
<!-- Node2 -->
<g id="node2" class="node"><title>Node2</title>
<g id="a_node2"><a xlink:href="imap__private_8h.html#ab79a9fbdc070836d98421d54c604558d" target="_top" xlink:title="Check for new mail. ">
<polygon fill="white" stroke="red" points="118.5,-0.5 118.5,-19.5 187.5,-19.5 187.5,-0.5 118.5,-0.5"/>
<text text-anchor="middle" x="153" y="-7.5" font-family="Helvetica,sans-Serif" font-size="10.00">imap_check</text>
</a>
</g>
</g>
<!-- Node1&#45;&gt;Node2 -->
<g id="edge1" class="edge"><title>Node1&#45;&gt;Node2</title>
<path fill="none" stroke="midnightblue" d="M92.2647,-10C101.1,-10 110.099,-10 118.341,-10"/>
<polygon fill="midnightblue" stroke="midnightblue" points="92.0237,-6.5001 82.0237,-10 92.0237,-13.5001 92.0237,-6.5001"/>
</g>
</g>
</svg>
