<?xml version="1.0" encoding="UTF-8" standalone="no"?>
<!DOCTYPE svg PUBLIC "-//W3C//DTD SVG 1.1//EN"
 "http://www.w3.org/Graphics/SVG/1.1/DTD/svg11.dtd">
<!-- Generated by graphviz version 2.36.0 (20140111.2315)
 -->
<!-- Title: imap_read_literal Pages: 1 -->
<svg width="248pt" height="180pt"
 viewBox="0.00 0.00 248.00 180.00" xmlns="http://www.w3.org/2000/svg" xmlns:xlink="http://www.w3.org/1999/xlink">
<g id="graph0" class="graph" transform="scale(1 1) rotate(0) translate(4 176)">
<title>imap_read_literal</title>
<polygon fill="white" stroke="none" points="-4,4 -4,-176 244,-176 244,4 -4,4"/>
<!-- Node1 -->
<g id="node1" class="node"><title>Node1</title>
<polygon fill="#bfbfbf" stroke="black" points="0,-76.5 0,-95.5 90,-95.5 90,-76.5 0,-76.5"/>
<text text-anchor="middle" x="45" y="-83.5" font-family="Helvetica,sans-Serif" font-size="10.00">imap_read_literal</text>
</g>
<!-- Node2 -->
<g id="node2" class="node"><title>Node2</title>
<g id="a_node2"><a xlink:href="buffer_8c.html#a5928463d232a1bec2803510cb2798e2f" target="_top" xlink:title="Create a new Buffer. ">
<polygon fill="white" stroke="red" points="137,-152.5 137,-171.5 229,-171.5 229,-152.5 137,-152.5"/>
<text text-anchor="middle" x="183" y="-159.5" font-family="Helvetica,sans-Serif" font-size="10.00">mutt_buffer_alloc</text>
</a>
</g>
</g>
<!-- Node1&#45;&gt;Node2 -->
<g id="edge1" class="edge"><title>Node1&#45;&gt;Node2</title>
<path fill="none" stroke="midnightblue" d="M57.2354,-95.6366C72.1203,-108.006 99.5856,-129.48 126,-143 130.068,-145.082 134.415,-147.015 138.82,-148.787"/>
<polygon fill="midnightblue" stroke="midnightblue" points="137.88,-152.172 148.472,-152.406 140.338,-145.618 137.88,-152.172"/>
</g>
<!-- Node3 -->
<g id="node3" class="node"><title>Node3</title>
<g id="a_node3"><a xlink:href="socket_8c.html#a8c8e2c0db6bc26a505c9a5d8c46c139e" target="_top" xlink:title="simple read buffering to speed things up ">
<polygon fill="white" stroke="red" points="126.5,-114.5 126.5,-133.5 239.5,-133.5 239.5,-114.5 126.5,-114.5"/>
<text text-anchor="middle" x="183" y="-121.5" font-family="Helvetica,sans-Serif" font-size="10.00">mutt_socket_readchar</text>
</a>
</g>
</g>
<!-- Node1&#45;&gt;Node3 -->
<g id="edge2" class="edge"><title>Node1&#45;&gt;Node3</title>
<path fill="none" stroke="midnightblue" d="M80.3185,-95.589C97.7943,-100.472 119.241,-106.464 137.925,-111.685"/>
<polygon fill="midnightblue" stroke="midnightblue" points="137.119,-115.094 147.692,-114.414 139.003,-108.352 137.119,-115.094"/>
</g>
<!-- Node4 -->
<g id="node4" class="node"><title>Node4</title>
<g id="a_node4"><a xlink:href="buffer_8c.html#a4fe44d6951505adb974135817a85a3d1" target="_top" xlink:title="Release a Buffer and its contents. ">
<polygon fill="white" stroke="black" points="139,-76.5 139,-95.5 227,-95.5 227,-76.5 139,-76.5"/>
<text text-anchor="middle" x="183" y="-83.5" font-family="Helvetica,sans-Serif" font-size="10.00">mutt_buffer_free</text>
</a>
</g>
</g>
<!-- Node1&#45;&gt;Node4 -->
<g id="edge3" class="edge"><title>Node1&#45;&gt;Node4</title>
<path fill="none" stroke="midnightblue" d="M90.1553,-86C102.518,-86 116.084,-86 128.907,-86"/>
<polygon fill="midnightblue" stroke="midnightblue" points="128.994,-89.5001 138.994,-86 128.994,-82.5001 128.994,-89.5001"/>
</g>
<!-- Node5 -->
<g id="node5" class="node"><title>Node5</title>
<g id="a_node5"><a xlink:href="progress_8c.html#a8aa58d901a100a3ab7886418500e2385" target="_top" xlink:title="Update the state of the progress bar. ">
<polygon fill="white" stroke="red" points="126.5,-38.5 126.5,-57.5 239.5,-57.5 239.5,-38.5 126.5,-38.5"/>
<text text-anchor="middle" x="183" y="-45.5" font-family="Helvetica,sans-Serif" font-size="10.00">mutt_progress_update</text>
</a>
</g>
</g>
<!-- Node1&#45;&gt;Node5 -->
<g id="edge4" class="edge"><title>Node1&#45;&gt;Node5</title>
<path fill="none" stroke="midnightblue" d="M80.3185,-76.411C97.7943,-71.5281 119.241,-65.5357 137.925,-60.315"/>
<polygon fill="midnightblue" stroke="midnightblue" points="139.003,-63.6479 147.692,-57.5859 137.119,-56.9062 139.003,-63.6479"/>
</g>
<!-- Node6 -->
<g id="node6" class="node"><title>Node6</title>
<g id="a_node6"><a xlink:href="buffer_8c.html#a819a9cb669c1a7e8e2218c672b794492" target="_top" xlink:title="Add a single character to a Buffer. ">
<polygon fill="white" stroke="red" points="134,-0.5 134,-19.5 232,-19.5 232,-0.5 134,-0.5"/>
<text text-anchor="middle" x="183" y="-7.5" font-family="Helvetica,sans-Serif" font-size="10.00">mutt_buffer_addch</text>
</a>
</g>
</g>
<!-- Node1&#45;&gt;Node6 -->
<g id="edge5" class="edge"><title>Node1&#45;&gt;Node6</title>
<path fill="none" stroke="midnightblue" d="M57.2354,-76.3634C72.1203,-63.9939 99.5856,-42.5202 126,-29 130.068,-26.9177 134.415,-24.985 138.82,-23.2129"/>
<polygon fill="midnightblue" stroke="midnightblue" points="140.338,-26.3821 148.472,-19.5943 137.88,-19.8275 140.338,-26.3821"/>
</g>
</g>
</svg>
