<?xml version="1.0" encoding="UTF-8" standalone="no"?>
<!DOCTYPE svg PUBLIC "-//W3C//DTD SVG 1.1//EN"
 "http://www.w3.org/Graphics/SVG/1.1/DTD/svg11.dtd">
<!-- Generated by graphviz version 2.36.0 (20140111.2315)
 -->
<!-- Title: imap_keepalive Pages: 1 -->
<svg width="236pt" height="66pt"
 viewBox="0.00 0.00 236.00 66.00" xmlns="http://www.w3.org/2000/svg" xmlns:xlink="http://www.w3.org/1999/xlink">
<g id="graph0" class="graph" transform="scale(1 1) rotate(0) translate(4 62)">
<title>imap_keepalive</title>
<polygon fill="white" stroke="none" points="-4,4 -4,-62 232,-62 232,4 -4,4"/>
<!-- Node1 -->
<g id="node1" class="node"><title>Node1</title>
<polygon fill="#bfbfbf" stroke="black" points="0,-19.5 0,-38.5 84,-38.5 84,-19.5 0,-19.5"/>
<text text-anchor="middle" x="42" y="-26.5" font-family="Helvetica,sans-Serif" font-size="10.00">imap_keepalive</text>
</g>
<!-- Node2 -->
<g id="node2" class="node"><title>Node2</title>
<g id="a_node2"><a xlink:href="util_8c.html#a6a2f8aba182b573c023386320bd3593f" target="_top" xlink:title="Wait for a process to change state. ">
<polygon fill="white" stroke="red" points="120.5,-38.5 120.5,-57.5 227.5,-57.5 227.5,-38.5 120.5,-38.5"/>
<text text-anchor="middle" x="174" y="-45.5" font-family="Helvetica,sans-Serif" font-size="10.00">imap_wait_keepalive</text>
</a>
</g>
</g>
<!-- Node1&#45;&gt;Node2 -->
<g id="edge1" class="edge"><title>Node1&#45;&gt;Node2</title>
<path fill="none" stroke="midnightblue" d="M94.0325,-36.4586C102.632,-37.7155 111.575,-39.0224 120.218,-40.2857"/>
<polygon fill="midnightblue" stroke="midnightblue" points="94.5339,-32.9948 84.1328,-35.0117 93.5215,-39.9212 94.5339,-32.9948"/>
</g>
<!-- Node3 -->
<g id="node3" class="node"><title>Node3</title>
<g id="a_node3"><a xlink:href="keymap_8h.html#aca314ae9ad06348477629e6bc0bd28fc" target="_top" xlink:title="Determine what a keypress should do. ">
<polygon fill="white" stroke="red" points="143,-0.5 143,-19.5 205,-19.5 205,-0.5 143,-0.5"/>
<text text-anchor="middle" x="174" y="-7.5" font-family="Helvetica,sans-Serif" font-size="10.00">km_dokey</text>
</a>
</g>
</g>
<!-- Node1&#45;&gt;Node3 -->
<g id="edge2" class="edge"><title>Node1&#45;&gt;Node3</title>
<path fill="none" stroke="midnightblue" d="M94.1928,-21.518C110.672,-19.1095 128.393,-16.5195 142.849,-14.4067"/>
<polygon fill="midnightblue" stroke="midnightblue" points="93.5215,-18.0788 84.1328,-22.9883 94.5339,-25.0052 93.5215,-18.0788"/>
</g>
</g>
</svg>
