<?xml version="1.0" encoding="UTF-8" standalone="no"?>
<!DOCTYPE svg PUBLIC "-//W3C//DTD SVG 1.1//EN"
 "http://www.w3.org/Graphics/SVG/1.1/DTD/svg11.dtd">
<!-- Generated by graphviz version 2.36.0 (20140111.2315)
 -->
<!-- Title: imap_search Pages: 1 -->
<svg width="236pt" height="66pt"
 viewBox="0.00 0.00 236.00 66.00" xmlns="http://www.w3.org/2000/svg" xmlns:xlink="http://www.w3.org/1999/xlink">
<g id="graph0" class="graph" transform="scale(1 1) rotate(0) translate(4 62)">
<title>imap_search</title>
<polygon fill="white" stroke="none" points="-4,4 -4,-62 232,-62 232,4 -4,4"/>
<!-- Node1 -->
<g id="node1" class="node"><title>Node1</title>
<polygon fill="#bfbfbf" stroke="black" points="0,-19.5 0,-38.5 72,-38.5 72,-19.5 0,-19.5"/>
<text text-anchor="middle" x="36" y="-26.5" font-family="Helvetica,sans-Serif" font-size="10.00">imap_search</text>
</g>
<!-- Node2 -->
<g id="node2" class="node"><title>Node2</title>
<g id="a_node2"><a xlink:href="pattern_8h.html#a828247b3a5ea339163835205d56d8f52" target="_top" xlink:title="Perform some Pattern matching. ">
<polygon fill="white" stroke="red" points="120.5,-38.5 120.5,-57.5 215.5,-57.5 215.5,-38.5 120.5,-38.5"/>
<text text-anchor="middle" x="168" y="-45.5" font-family="Helvetica,sans-Serif" font-size="10.00">mutt_pattern_func</text>
</a>
</g>
</g>
<!-- Node1&#45;&gt;Node2 -->
<g id="edge1" class="edge"><title>Node1&#45;&gt;Node2</title>
<path fill="none" stroke="midnightblue" d="M82.1832,-35.6037C94.4346,-37.3943 107.725,-39.3367 120.07,-41.141"/>
<polygon fill="midnightblue" stroke="midnightblue" points="82.5809,-32.1247 72.1799,-34.1417 81.5686,-39.0511 82.5809,-32.1247"/>
</g>
<!-- Node3 -->
<g id="node3" class="node"><title>Node3</title>
<g id="a_node3"><a xlink:href="pattern_8h.html#aab00543a18eef2429dc8e306c663074f" target="_top" xlink:title="Perform a search. ">
<polygon fill="white" stroke="red" points="108.5,-0.5 108.5,-19.5 227.5,-19.5 227.5,-0.5 108.5,-0.5"/>
<text text-anchor="middle" x="168" y="-7.5" font-family="Helvetica,sans-Serif" font-size="10.00">mutt_search_command</text>
</a>
</g>
</g>
<!-- Node1&#45;&gt;Node3 -->
<g id="edge2" class="edge"><title>Node1&#45;&gt;Node3</title>
<path fill="none" stroke="midnightblue" d="M82.1607,-22.3996C90.5783,-21.1693 99.4868,-19.8673 108.243,-18.5876"/>
<polygon fill="midnightblue" stroke="midnightblue" points="81.5686,-18.9489 72.1799,-23.8583 82.5809,-25.8753 81.5686,-18.9489"/>
</g>
</g>
</svg>
