<?xml version="1.0" encoding="UTF-8" standalone="no"?>
<!DOCTYPE svg PUBLIC "-//W3C//DTD SVG 1.1//EN"
 "http://www.w3.org/Graphics/SVG/1.1/DTD/svg11.dtd">
<!-- Generated by graphviz version 2.36.0 (20140111.2315)
 -->
<!-- Title: imap_conn_find Pages: 1 -->
<svg width="356pt" height="256pt"
 viewBox="0.00 0.00 356.00 256.00" xmlns="http://www.w3.org/2000/svg" xmlns:xlink="http://www.w3.org/1999/xlink">
<g id="graph0" class="graph" transform="scale(1 1) rotate(0) translate(4 252)">
<title>imap_conn_find</title>
<polygon fill="white" stroke="none" points="-4,4 -4,-252 352,-252 352,4 -4,4"/>
<!-- Node1 -->
<g id="node1" class="node"><title>Node1</title>
<polygon fill="#bfbfbf" stroke="black" points="0.5,-114.5 0.5,-133.5 85.5,-133.5 85.5,-114.5 0.5,-114.5"/>
<text text-anchor="middle" x="43" y="-121.5" font-family="Helvetica,sans-Serif" font-size="10.00">imap_conn_find</text>
</g>
<!-- Node2 -->
<g id="node2" class="node"><title>Node2</title>
<g id="a_node2"><a xlink:href="mutt__socket_8c.html#a1562d6bd9d3bfb8dfbae3e2efc81344e" target="_top" xlink:title="Find a connection from a list. ">
<polygon fill="white" stroke="red" points="143.5,-228.5 143.5,-247.5 226.5,-247.5 226.5,-228.5 143.5,-228.5"/>
<text text-anchor="middle" x="185" y="-235.5" font-family="Helvetica,sans-Serif" font-size="10.00">mutt_conn_find</text>
</a>
</g>
</g>
<!-- Node1&#45;&gt;Node2 -->
<g id="edge1" class="edge"><title>Node1&#45;&gt;Node2</title>
<path fill="none" stroke="midnightblue" d="M49.2871,-133.666C60.2686,-152.84 87.4303,-195.836 122,-219 125.731,-221.5 129.804,-223.682 134.023,-225.585"/>
<polygon fill="midnightblue" stroke="midnightblue" points="132.829,-228.876 143.414,-229.319 135.415,-222.372 132.829,-228.876"/>
</g>
<!-- Node3 -->
<g id="node3" class="node"><title>Node3</title>
<g id="a_node3"><a xlink:href="socket_8c.html#a399ed98618b6d28dd9f20d535a48d308" target="_top" xlink:title="remove connection from connection list and free it ">
<polygon fill="white" stroke="black" points="139,-190.5 139,-209.5 231,-209.5 231,-190.5 139,-190.5"/>
<text text-anchor="middle" x="185" y="-197.5" font-family="Helvetica,sans-Serif" font-size="10.00">mutt_socket_free</text>
</a>
</g>
</g>
<!-- Node1&#45;&gt;Node3 -->
<g id="edge2" class="edge"><title>Node1&#45;&gt;Node3</title>
<path fill="none" stroke="midnightblue" d="M54.6025,-133.561C68.9424,-146.048 95.755,-167.859 122,-181 126.363,-183.185 131.026,-185.174 135.763,-186.972"/>
<polygon fill="midnightblue" stroke="midnightblue" points="134.92,-190.386 145.515,-190.395 137.238,-183.781 134.92,-190.386"/>
</g>
<!-- Node4 -->
<g id="node4" class="node"><title>Node4</title>
<g id="a_node4"><a xlink:href="imap__private_8h.html#ad6e7c6a1193a6c4c74e52f833f862a04" target="_top" xlink:title="Allocate and initialise a new ImapData structure. ">
<polygon fill="white" stroke="red" points="141.5,-152.5 141.5,-171.5 228.5,-171.5 228.5,-152.5 141.5,-152.5"/>
<text text-anchor="middle" x="185" y="-159.5" font-family="Helvetica,sans-Serif" font-size="10.00">imap_new_idata</text>
</a>
</g>
</g>
<!-- Node1&#45;&gt;Node4 -->
<g id="edge3" class="edge"><title>Node1&#45;&gt;Node4</title>
<path fill="none" stroke="midnightblue" d="M79.3279,-133.589C97.4006,-138.494 119.598,-144.52 138.895,-149.757"/>
<polygon fill="midnightblue" stroke="midnightblue" points="138.116,-153.172 148.683,-152.414 139.949,-146.417 138.116,-153.172"/>
</g>
<!-- Node5 -->
<g id="node5" class="node"><title>Node5</title>
<g id="a_node5"><a xlink:href="imap_8c.html#ab37d302c150ffd48994b7f88c735e020" target="_top" xlink:title="Open an IMAP connection. ">
<polygon fill="white" stroke="red" points="127,-114.5 127,-133.5 243,-133.5 243,-114.5 127,-114.5"/>
<text text-anchor="middle" x="185" y="-121.5" font-family="Helvetica,sans-Serif" font-size="10.00">imap_open_connection</text>
</a>
</g>
</g>
<!-- Node1&#45;&gt;Node5 -->
<g id="edge4" class="edge"><title>Node1&#45;&gt;Node5</title>
<path fill="none" stroke="midnightblue" d="M85.6256,-124C95.4596,-124 106.193,-124 116.839,-124"/>
<polygon fill="midnightblue" stroke="midnightblue" points="116.986,-127.5 126.986,-124 116.986,-120.5 116.986,-127.5"/>
</g>
<!-- Node6 -->
<g id="node6" class="node"><title>Node6</title>
<g id="a_node6"><a xlink:href="imap_2command_8c.html#a97ce60ff4a8b54b3e2bc178e2969d3fc" target="_top" xlink:title="Execute a command and wait for the response from the server. ">
<polygon fill="white" stroke="red" points="284,-95.5 284,-114.5 348,-114.5 348,-95.5 284,-95.5"/>
<text text-anchor="middle" x="316" y="-102.5" font-family="Helvetica,sans-Serif" font-size="10.00">imap_exec</text>
</a>
</g>
</g>
<!-- Node1&#45;&gt;Node6 -->
<g id="edge8" class="edge"><title>Node1&#45;&gt;Node6</title>
<path fill="none" stroke="midnightblue" d="M75.5626,-114.494C89.6341,-110.73 106.501,-106.86 122,-105 173.958,-98.7629 234.353,-100.136 273.552,-102.155"/>
<polygon fill="midnightblue" stroke="midnightblue" points="273.598,-105.663 283.777,-102.721 273.986,-98.6737 273.598,-105.663"/>
</g>
<!-- Node7 -->
<g id="node7" class="node"><title>Node7</title>
<g id="a_node7"><a xlink:href="auth_8c.html#a6d8c1a6fa97498027d46fe0598e8696c" target="_top" xlink:title="Authenticate to an IMAP server. ">
<polygon fill="white" stroke="red" points="137,-38.5 137,-57.5 233,-57.5 233,-38.5 137,-38.5"/>
<text text-anchor="middle" x="185" y="-45.5" font-family="Helvetica,sans-Serif" font-size="10.00">imap_authenticate</text>
</a>
</g>
</g>
<!-- Node1&#45;&gt;Node7 -->
<g id="edge6" class="edge"><title>Node1&#45;&gt;Node7</title>
<path fill="none" stroke="midnightblue" d="M56.4437,-114.454C71.4135,-103.273 97.5864,-84.6687 122,-72 129.502,-68.1071 137.785,-64.4775 145.789,-61.2792"/>
<polygon fill="midnightblue" stroke="midnightblue" points="147.265,-64.4612 155.341,-57.6032 144.751,-57.9283 147.265,-64.4612"/>
</g>
<!-- Node8 -->
<g id="node8" class="node"><title>Node8</title>
<g id="a_node8"><a xlink:href="mutt__account_8c.html#a7ae7055aa5e6d34e487261483f0b369a" target="_top" xlink:title="Unset Account&#39;s password. ">
<polygon fill="white" stroke="black" points="122,-0.5 122,-19.5 248,-19.5 248,-0.5 122,-0.5"/>
<text text-anchor="middle" x="185" y="-7.5" font-family="Helvetica,sans-Serif" font-size="10.00">mutt_account_unsetpass</text>
</a>
</g>
</g>
<!-- Node1&#45;&gt;Node8 -->
<g id="edge7" class="edge"><title>Node1&#45;&gt;Node8</title>
<path fill="none" stroke="midnightblue" d="M49.2871,-114.334C60.2686,-95.1597 87.4303,-52.1643 122,-29 125.08,-26.9359 128.395,-25.0883 131.831,-23.4359"/>
<polygon fill="midnightblue" stroke="midnightblue" points="133.29,-26.6194 141.138,-19.5025 130.565,-20.1715 133.29,-26.6194"/>
</g>
<!-- Node5&#45;&gt;Node6 -->
<g id="edge5" class="edge"><title>Node5&#45;&gt;Node6</title>
<path fill="none" stroke="midnightblue" d="M243.333,-115.556C253.512,-114.056 263.933,-112.521 273.564,-111.103"/>
<polygon fill="midnightblue" stroke="midnightblue" points="274.272,-114.536 283.656,-109.617 273.252,-107.611 274.272,-114.536"/>
</g>
</g>
</svg>
