<?xml version="1.0" encoding="UTF-8" standalone="no"?>
<!DOCTYPE svg PUBLIC "-//W3C//DTD SVG 1.1//EN"
 "http://www.w3.org/Graphics/SVG/1.1/DTD/svg11.dtd">
<!-- Generated by graphviz version 2.36.0 (20140111.2315)
 -->
<!-- Title: imap_hcache_close Pages: 1 -->
<svg width="268pt" height="104pt"
 viewBox="0.00 0.00 268.00 104.00" xmlns="http://www.w3.org/2000/svg" xmlns:xlink="http://www.w3.org/1999/xlink">
<g id="graph0" class="graph" transform="scale(1 1) rotate(0) translate(4 100)">
<title>imap_hcache_close</title>
<polygon fill="white" stroke="none" points="-4,4 -4,-100 264,-100 264,4 -4,4"/>
<!-- Node1 -->
<g id="node1" class="node"><title>Node1</title>
<polygon fill="#bfbfbf" stroke="black" points="0.5,-38.5 0.5,-57.5 103.5,-57.5 103.5,-38.5 0.5,-38.5"/>
<text text-anchor="middle" x="52" y="-45.5" font-family="Helvetica,sans-Serif" font-size="10.00">imap_hcache_close</text>
</g>
<!-- Node2 -->
<g id="node2" class="node"><title>Node2</title>
<g id="a_node2"><a xlink:href="imap__private_8h.html#a5f840a12ee7942010e3085129bc4e055" target="_top" xlink:title="Purge messages from the server. ">
<polygon fill="white" stroke="red" points="140.5,-76.5 140.5,-95.5 259.5,-95.5 259.5,-76.5 140.5,-76.5"/>
<text text-anchor="middle" x="200" y="-83.5" font-family="Helvetica,sans-Serif" font-size="10.00">imap_expunge_mailbox</text>
</a>
</g>
</g>
<!-- Node1&#45;&gt;Node2 -->
<g id="edge1" class="edge"><title>Node1&#45;&gt;Node2</title>
<path fill="none" stroke="midnightblue" d="M99.536,-60.1121C119.87,-65.4044 143.371,-71.5213 162.423,-76.4799"/>
<polygon fill="midnightblue" stroke="midnightblue" points="100.401,-56.7207 89.842,-57.589 98.6379,-63.4951 100.401,-56.7207"/>
</g>
<!-- Node3 -->
<g id="node3" class="node"><title>Node3</title>
<g id="a_node3"><a xlink:href="imap_8h.html#a392ece8a94e3559d3040273a3bc514d0" target="_top" xlink:title="Sync all the changes to the server. ">
<polygon fill="white" stroke="red" points="148.5,-38.5 148.5,-57.5 251.5,-57.5 251.5,-38.5 148.5,-38.5"/>
<text text-anchor="middle" x="200" y="-45.5" font-family="Helvetica,sans-Serif" font-size="10.00">imap_sync_mailbox</text>
</a>
</g>
</g>
<!-- Node1&#45;&gt;Node3 -->
<g id="edge2" class="edge"><title>Node1&#45;&gt;Node3</title>
<path fill="none" stroke="midnightblue" d="M113.676,-48C125.24,-48 137.228,-48 148.436,-48"/>
<polygon fill="midnightblue" stroke="midnightblue" points="113.654,-44.5001 103.654,-48 113.654,-51.5001 113.654,-44.5001"/>
</g>
<!-- Node4 -->
<g id="node4" class="node"><title>Node4</title>
<g id="a_node4"><a xlink:href="message_8c.html#a5dae54814b2746142369bbdef40b1b0f" target="_top" xlink:title="Read headers from the server. ">
<polygon fill="white" stroke="red" points="149.5,-0.5 149.5,-19.5 250.5,-19.5 250.5,-0.5 149.5,-0.5"/>
<text text-anchor="middle" x="200" y="-7.5" font-family="Helvetica,sans-Serif" font-size="10.00">imap_read_headers</text>
</a>
</g>
</g>
<!-- Node1&#45;&gt;Node4 -->
<g id="edge3" class="edge"><title>Node1&#45;&gt;Node4</title>
<path fill="none" stroke="midnightblue" d="M99.536,-35.8879C119.87,-30.5956 143.371,-24.4787 162.423,-19.5201"/>
<polygon fill="midnightblue" stroke="midnightblue" points="98.6379,-32.5049 89.842,-38.411 100.401,-39.2793 98.6379,-32.5049"/>
</g>
</g>
</svg>
