<?xml version="1.0" encoding="UTF-8" standalone="no"?>
<!DOCTYPE svg PUBLIC "-//W3C//DTD SVG 1.1//EN"
 "http://www.w3.org/Graphics/SVG/1.1/DTD/svg11.dtd">
<!-- Generated by graphviz version 2.36.0 (20140111.2315)
 -->
<!-- Title: sync_helper Pages: 1 -->
<svg width="216pt" height="66pt"
 viewBox="0.00 0.00 216.00 66.00" xmlns="http://www.w3.org/2000/svg" xmlns:xlink="http://www.w3.org/1999/xlink">
<g id="graph0" class="graph" transform="scale(1 1) rotate(0) translate(4 62)">
<title>sync_helper</title>
<polygon fill="white" stroke="none" points="-4,4 -4,-62 212,-62 212,4 -4,4"/>
<!-- Node1 -->
<g id="node1" class="node"><title>Node1</title>
<polygon fill="#bfbfbf" stroke="black" points="0.5,-19.5 0.5,-38.5 69.5,-38.5 69.5,-19.5 0.5,-19.5"/>
<text text-anchor="middle" x="35" y="-26.5" font-family="Helvetica,sans-Serif" font-size="10.00">sync_helper</text>
</g>
<!-- Node2 -->
<g id="node2" class="node"><title>Node2</title>
<g id="a_node2"><a xlink:href="imap_8c.html#ad998b83df59b588e3643ec0e1b41af3d" target="_top" xlink:title="Does the flag exist in the list. ">
<polygon fill="white" stroke="red" points="117,-38.5 117,-57.5 197,-57.5 197,-38.5 117,-38.5"/>
<text text-anchor="middle" x="157" y="-45.5" font-family="Helvetica,sans-Serif" font-size="10.00">imap_has_flag</text>
</a>
</g>
</g>
<!-- Node1&#45;&gt;Node2 -->
<g id="edge1" class="edge"><title>Node1&#45;&gt;Node2</title>
<path fill="none" stroke="midnightblue" d="M69.746,-34.3431C81.1192,-36.1439 94.0601,-38.1928 106.396,-40.1461"/>
<polygon fill="midnightblue" stroke="midnightblue" points="106.144,-43.6497 116.569,-41.7567 107.239,-36.7358 106.144,-43.6497"/>
</g>
<!-- Node3 -->
<g id="node3" class="node"><title>Node3</title>
<g id="a_node3"><a xlink:href="imap_8c.html#a2bae6acd3890e57adee0c83207910f03" target="_top" xlink:title="Prepare commands for all messages matching conditions. ">
<polygon fill="white" stroke="red" points="106.5,-0.5 106.5,-19.5 207.5,-19.5 207.5,-0.5 106.5,-0.5"/>
<text text-anchor="middle" x="157" y="-7.5" font-family="Helvetica,sans-Serif" font-size="10.00">imap_exec_msgset</text>
</a>
</g>
</g>
<!-- Node1&#45;&gt;Node3 -->
<g id="edge2" class="edge"><title>Node1&#45;&gt;Node3</title>
<path fill="none" stroke="midnightblue" d="M69.746,-23.6569C78.095,-22.335 87.2889,-20.8793 96.4681,-19.4259"/>
<polygon fill="midnightblue" stroke="midnightblue" points="97.0525,-22.877 106.382,-17.8562 95.9578,-15.9632 97.0525,-22.877"/>
</g>
</g>
</svg>
