<?xml version="1.0" encoding="UTF-8" standalone="no"?>
<!DOCTYPE svg PUBLIC "-//W3C//DTD SVG 1.1//EN"
 "http://www.w3.org/Graphics/SVG/1.1/DTD/svg11.dtd">
<!-- Generated by graphviz version 2.36.0 (20140111.2315)
 -->
<!-- Title: imap_cache_del Pages: 1 -->
<svg width="252pt" height="104pt"
 viewBox="0.00 0.00 252.00 104.00" xmlns="http://www.w3.org/2000/svg" xmlns:xlink="http://www.w3.org/1999/xlink">
<g id="graph0" class="graph" transform="scale(1 1) rotate(0) translate(4 100)">
<title>imap_cache_del</title>
<polygon fill="white" stroke="none" points="-4,4 -4,-100 248,-100 248,4 -4,4"/>
<!-- Node1 -->
<g id="node1" class="node"><title>Node1</title>
<polygon fill="#bfbfbf" stroke="black" points="0.5,-38.5 0.5,-57.5 87.5,-57.5 87.5,-38.5 0.5,-38.5"/>
<text text-anchor="middle" x="44" y="-45.5" font-family="Helvetica,sans-Serif" font-size="10.00">imap_cache_del</text>
</g>
<!-- Node2 -->
<g id="node2" class="node"><title>Node2</title>
<g id="a_node2"><a xlink:href="imap__private_8h.html#a5f840a12ee7942010e3085129bc4e055" target="_top" xlink:title="Purge messages from the server. ">
<polygon fill="white" stroke="red" points="124.5,-76.5 124.5,-95.5 243.5,-95.5 243.5,-76.5 124.5,-76.5"/>
<text text-anchor="middle" x="184" y="-83.5" font-family="Helvetica,sans-Serif" font-size="10.00">imap_expunge_mailbox</text>
</a>
</g>
</g>
<!-- Node1&#45;&gt;Node2 -->
<g id="edge1" class="edge"><title>Node1&#45;&gt;Node2</title>
<path fill="none" stroke="midnightblue" d="M89.473,-60.2462C108.495,-65.484 130.375,-71.5091 148.188,-76.4141"/>
<polygon fill="midnightblue" stroke="midnightblue" points="90.3936,-56.8695 79.8232,-57.589 88.5352,-63.6183 90.3936,-56.8695"/>
</g>
<!-- Node3 -->
<g id="node3" class="node"><title>Node3</title>
<g id="a_node3"><a xlink:href="imap_8h.html#a392ece8a94e3559d3040273a3bc514d0" target="_top" xlink:title="Sync all the changes to the server. ">
<polygon fill="white" stroke="red" points="132.5,-38.5 132.5,-57.5 235.5,-57.5 235.5,-38.5 132.5,-38.5"/>
<text text-anchor="middle" x="184" y="-45.5" font-family="Helvetica,sans-Serif" font-size="10.00">imap_sync_mailbox</text>
</a>
</g>
</g>
<!-- Node1&#45;&gt;Node3 -->
<g id="edge2" class="edge"><title>Node1&#45;&gt;Node3</title>
<path fill="none" stroke="midnightblue" d="M97.6911,-48C108.985,-48 120.897,-48 132.121,-48"/>
<polygon fill="midnightblue" stroke="midnightblue" points="97.5306,-44.5001 87.5306,-48 97.5306,-51.5001 97.5306,-44.5001"/>
</g>
<!-- Node4 -->
<g id="node4" class="node"><title>Node4</title>
<g id="a_node4"><a xlink:href="message_8c.html#ac66dd57350d26393d54331847edf4a19" target="_top" xlink:title="Implements MxOps::msg_open() ">
<polygon fill="white" stroke="black" points="140,-0.5 140,-19.5 228,-19.5 228,-0.5 140,-0.5"/>
<text text-anchor="middle" x="184" y="-7.5" font-family="Helvetica,sans-Serif" font-size="10.00">imap_msg_open</text>
</a>
</g>
</g>
<!-- Node1&#45;&gt;Node4 -->
<g id="edge3" class="edge"><title>Node1&#45;&gt;Node4</title>
<path fill="none" stroke="midnightblue" d="M89.473,-35.7538C108.495,-30.516 130.375,-24.4909 148.188,-19.5859"/>
<polygon fill="midnightblue" stroke="midnightblue" points="88.5352,-32.3817 79.8232,-38.411 90.3936,-39.1305 88.5352,-32.3817"/>
</g>
</g>
</svg>
