<?xml version="1.0" encoding="UTF-8" standalone="no"?>
<!DOCTYPE svg PUBLIC "-//W3C//DTD SVG 1.1//EN"
 "http://www.w3.org/Graphics/SVG/1.1/DTD/svg11.dtd">
<!-- Generated by graphviz version 2.36.0 (20140111.2315)
 -->
<!-- Title: imap_mailbox_create Pages: 1 -->
<svg width="388pt" height="218pt"
 viewBox="0.00 0.00 388.00 218.00" xmlns="http://www.w3.org/2000/svg" xmlns:xlink="http://www.w3.org/1999/xlink">
<g id="graph0" class="graph" transform="scale(1 1) rotate(0) translate(4 214)">
<title>imap_mailbox_create</title>
<polygon fill="white" stroke="none" points="-4,4 -4,-214 384,-214 384,4 -4,4"/>
<!-- Node1 -->
<g id="node1" class="node"><title>Node1</title>
<polygon fill="#bfbfbf" stroke="black" points="0.5,-95.5 0.5,-114.5 109.5,-114.5 109.5,-95.5 0.5,-95.5"/>
<text text-anchor="middle" x="55" y="-102.5" font-family="Helvetica,sans-Serif" font-size="10.00">imap_mailbox_create</text>
</g>
<!-- Node2 -->
<g id="node2" class="node"><title>Node2</title>
<g id="a_node2"><a xlink:href="imap_8h.html#aebbdfebd6d7aff8e41739a4a8f7f74b4" target="_top" xlink:title="Parse an IMAP mailbox name into name,host,port. ">
<polygon fill="white" stroke="red" points="155.5,-190.5 155.5,-209.5 246.5,-209.5 246.5,-190.5 155.5,-190.5"/>
<text text-anchor="middle" x="201" y="-197.5" font-family="Helvetica,sans-Serif" font-size="10.00">imap_parse_path</text>
</a>
</g>
</g>
<!-- Node1&#45;&gt;Node2 -->
<g id="edge1" class="edge"><title>Node1&#45;&gt;Node2</title>
<path fill="none" stroke="midnightblue" d="M66.4396,-114.676C82.5836,-129.293 114.99,-157.282 146,-176 152.137,-179.705 158.947,-183.175 165.605,-186.263"/>
<polygon fill="midnightblue" stroke="midnightblue" points="164.596,-189.643 175.156,-190.496 167.432,-183.244 164.596,-189.643"/>
</g>
<!-- Node3 -->
<g id="node3" class="node"><title>Node3</title>
<g id="a_node3"><a xlink:href="mutt_2string_8c.html#a3b8965b21d6e21536750f8883cd4333a" target="_top" xlink:title="Copy a string into a buffer (guaranteeing NUL&#45;termination) ">
<polygon fill="white" stroke="black" points="292,-171.5 292,-190.5 380,-190.5 380,-171.5 292,-171.5"/>
<text text-anchor="middle" x="336" y="-178.5" font-family="Helvetica,sans-Serif" font-size="10.00">mutt_str_strfcpy</text>
</a>
</g>
</g>
<!-- Node1&#45;&gt;Node3 -->
<g id="edge4" class="edge"><title>Node1&#45;&gt;Node3</title>
<path fill="none" stroke="midnightblue" d="M75.5899,-114.627C93.5404,-123.118 121.039,-135.307 146,-143 191.069,-156.89 243.784,-167.002 282.074,-173.287"/>
<polygon fill="midnightblue" stroke="midnightblue" points="281.549,-176.747 291.978,-174.88 282.661,-169.836 281.549,-176.747"/>
</g>
<!-- Node4 -->
<g id="node4" class="node"><title>Node4</title>
<g id="a_node4"><a xlink:href="imap_8c.html#a6710cdbfe7ff868fb47f3e6164878856" target="_top" xlink:title="Find an open IMAP connection. ">
<polygon fill="white" stroke="red" points="158.5,-114.5 158.5,-133.5 243.5,-133.5 243.5,-114.5 158.5,-114.5"/>
<text text-anchor="middle" x="201" y="-121.5" font-family="Helvetica,sans-Serif" font-size="10.00">imap_conn_find</text>
</a>
</g>
</g>
<!-- Node1&#45;&gt;Node4 -->
<g id="edge3" class="edge"><title>Node1&#45;&gt;Node4</title>
<path fill="none" stroke="midnightblue" d="M109.62,-112.075C122.24,-113.74 135.666,-115.511 148.203,-117.166"/>
<polygon fill="midnightblue" stroke="midnightblue" points="148.116,-120.684 158.488,-118.523 149.032,-113.745 148.116,-120.684"/>
</g>
<!-- Node5 -->
<g id="node5" class="node"><title>Node5</title>
<g id="a_node5"><a xlink:href="mutt_2string_8c.html#aca11f88d08a860c07419df3efb18f35a" target="_top" xlink:title="Calculate the length of a string, safely. ">
<polygon fill="white" stroke="black" points="160,-76.5 160,-95.5 242,-95.5 242,-76.5 160,-76.5"/>
<text text-anchor="middle" x="201" y="-83.5" font-family="Helvetica,sans-Serif" font-size="10.00">mutt_str_strlen</text>
</a>
</g>
</g>
<!-- Node1&#45;&gt;Node5 -->
<g id="edge5" class="edge"><title>Node1&#45;&gt;Node5</title>
<path fill="none" stroke="midnightblue" d="M109.62,-97.9251C122.744,-96.1935 136.741,-94.3466 149.703,-92.6364"/>
<polygon fill="midnightblue" stroke="midnightblue" points="150.384,-96.077 159.84,-91.2989 149.468,-89.1371 150.384,-96.077"/>
</g>
<!-- Node6 -->
<g id="node6" class="node"><title>Node6</title>
<g id="a_node6"><a xlink:href="imap_8c.html#a42afe3cc32d88a1ed0455ab3f094bd6b" target="_top" xlink:title="Create a new mailbox. ">
<polygon fill="white" stroke="red" points="146.5,-38.5 146.5,-57.5 255.5,-57.5 255.5,-38.5 146.5,-38.5"/>
<text text-anchor="middle" x="201" y="-45.5" font-family="Helvetica,sans-Serif" font-size="10.00">imap_create_mailbox</text>
</a>
</g>
</g>
<!-- Node1&#45;&gt;Node6 -->
<g id="edge6" class="edge"><title>Node1&#45;&gt;Node6</title>
<path fill="none" stroke="midnightblue" d="M77.6717,-95.4099C95.8076,-87.4908 122.429,-76.1131 146,-67 151.214,-64.9841 156.744,-62.9367 162.199,-60.9691"/>
<polygon fill="midnightblue" stroke="midnightblue" points="163.603,-64.1847 171.853,-57.5375 161.259,-57.589 163.603,-64.1847"/>
</g>
<!-- Node7 -->
<g id="node7" class="node"><title>Node7</title>
<g id="a_node7"><a xlink:href="muttlib_8c.html#a6fbcbe533be7c4e05d99b0eb9cdb2581" target="_top" xlink:title="Sleep for a while. ">
<polygon fill="white" stroke="black" points="168.5,-0.5 168.5,-19.5 233.5,-19.5 233.5,-0.5 168.5,-0.5"/>
<text text-anchor="middle" x="201" y="-7.5" font-family="Helvetica,sans-Serif" font-size="10.00">mutt_sleep</text>
</a>
</g>
</g>
<!-- Node1&#45;&gt;Node7 -->
<g id="edge7" class="edge"><title>Node1&#45;&gt;Node7</title>
<path fill="none" stroke="midnightblue" d="M65.1021,-95.2984C80.4349,-79.4523 112.986,-47.8937 146,-29 149.989,-26.7169 154.3,-24.6386 158.685,-22.7657"/>
<polygon fill="midnightblue" stroke="midnightblue" points="160.276,-25.9014 168.309,-18.9935 157.722,-19.3841 160.276,-25.9014"/>
</g>
<!-- Node2&#45;&gt;Node3 -->
<g id="edge2" class="edge"><title>Node2&#45;&gt;Node3</title>
<path fill="none" stroke="midnightblue" d="M246.657,-193.62C257.864,-192.019 270.001,-190.286 281.587,-188.63"/>
<polygon fill="midnightblue" stroke="midnightblue" points="282.184,-192.081 291.589,-187.202 281.194,-185.151 282.184,-192.081"/>
</g>
</g>
</svg>
