<?xml version="1.0" encoding="UTF-8" standalone="no"?>
<!DOCTYPE svg PUBLIC "-//W3C//DTD SVG 1.1//EN"
 "http://www.w3.org/Graphics/SVG/1.1/DTD/svg11.dtd">
<!-- Generated by graphviz version 2.36.0 (20140111.2315)
 -->
<!-- Title: imap_qualify_path Pages: 1 -->
<svg width="364pt" height="218pt"
 viewBox="0.00 0.00 364.00 218.00" xmlns="http://www.w3.org/2000/svg" xmlns:xlink="http://www.w3.org/1999/xlink">
<g id="graph0" class="graph" transform="scale(1 1) rotate(0) translate(4 214)">
<title>imap_qualify_path</title>
<polygon fill="white" stroke="none" points="-4,4 -4,-214 360,-214 360,4 -4,4"/>
<!-- Node1 -->
<g id="node1" class="node"><title>Node1</title>
<polygon fill="#bfbfbf" stroke="black" points="0.5,-95.5 0.5,-114.5 95.5,-114.5 95.5,-95.5 0.5,-95.5"/>
<text text-anchor="middle" x="48" y="-102.5" font-family="Helvetica,sans-Serif" font-size="10.00">imap_qualify_path</text>
</g>
<!-- Node2 -->
<g id="node2" class="node"><title>Node2</title>
<g id="a_node2"><a xlink:href="browse_8c.html#aa8f4671fc317a9d9c49a6c0fae13321e" target="_top" xlink:title="Format and add an IMAP folder to the browser. ">
<polygon fill="white" stroke="red" points="158,-190.5 158,-209.5 220,-209.5 220,-190.5 158,-190.5"/>
<text text-anchor="middle" x="189" y="-197.5" font-family="Helvetica,sans-Serif" font-size="10.00">add_folder</text>
</a>
</g>
</g>
<!-- Node1&#45;&gt;Node2 -->
<g id="edge1" class="edge"><title>Node1&#45;&gt;Node2</title>
<path fill="none" stroke="midnightblue" d="M65.9129,-122.192C81.8823,-137.731 107.042,-160.482 132,-176 141.073,-181.641 151.703,-186.567 161.25,-190.463"/>
<polygon fill="midnightblue" stroke="midnightblue" points="68.0175,-119.35 58.4494,-114.8 63.0916,-124.324 68.0175,-119.35"/>
</g>
<!-- Node3 -->
<g id="node3" class="node"><title>Node3</title>
<g id="a_node3"><a xlink:href="imap_8h.html#a3bd0d7473a0b702dfff8db25461f0caf" target="_top" xlink:title="IMAP hook into the folder browser. ">
<polygon fill="white" stroke="red" points="282,-171.5 282,-190.5 356,-190.5 356,-171.5 282,-171.5"/>
<text text-anchor="middle" x="319" y="-178.5" font-family="Helvetica,sans-Serif" font-size="10.00">imap_browse</text>
</a>
</g>
</g>
<!-- Node1&#45;&gt;Node3 -->
<g id="edge3" class="edge"><title>Node1&#45;&gt;Node3</title>
<path fill="none" stroke="midnightblue" d="M75.9024,-119.213C91.8487,-127.153 112.661,-136.689 132,-143 182.759,-159.564 243.76,-170.382 281.714,-176.092"/>
<polygon fill="midnightblue" stroke="midnightblue" points="77.16,-115.927 66.659,-114.519 73.9901,-122.168 77.16,-115.927"/>
</g>
<!-- Node4 -->
<g id="node4" class="node"><title>Node4</title>
<g id="a_node4"><a xlink:href="imap_8h.html#ae99223085d505fb8b323fa031b5ee0fa" target="_top" xlink:title="Try to complete an IMAP folder path. ">
<polygon fill="white" stroke="red" points="147.5,-114.5 147.5,-133.5 230.5,-133.5 230.5,-114.5 147.5,-114.5"/>
<text text-anchor="middle" x="189" y="-121.5" font-family="Helvetica,sans-Serif" font-size="10.00">imap_complete</text>
</a>
</g>
</g>
<!-- Node1&#45;&gt;Node4 -->
<g id="edge4" class="edge"><title>Node1&#45;&gt;Node4</title>
<path fill="none" stroke="midnightblue" d="M105.662,-112.745C119.602,-114.651 134.255,-116.654 147.273,-118.433"/>
<polygon fill="midnightblue" stroke="midnightblue" points="106.054,-109.266 95.6717,-111.38 105.105,-116.202 106.054,-109.266"/>
</g>
<!-- Node5 -->
<g id="node5" class="node"><title>Node5</title>
<g id="a_node5"><a xlink:href="imap_8c.html#a6aa69e15f9108427a470d8f679ebe0f3" target="_top" xlink:title="Implements MxOps::mbox_open() ">
<polygon fill="white" stroke="black" points="142.5,-76.5 142.5,-95.5 235.5,-95.5 235.5,-76.5 142.5,-76.5"/>
<text text-anchor="middle" x="189" y="-83.5" font-family="Helvetica,sans-Serif" font-size="10.00">imap_mbox_open</text>
</a>
</g>
</g>
<!-- Node1&#45;&gt;Node5 -->
<g id="edge5" class="edge"><title>Node1&#45;&gt;Node5</title>
<path fill="none" stroke="midnightblue" d="M105.7,-97.2496C117.831,-95.5915 130.5,-93.8598 142.16,-92.2659"/>
<polygon fill="midnightblue" stroke="midnightblue" points="105.105,-93.7983 95.6717,-98.6204 106.054,-100.734 105.105,-93.7983"/>
</g>
<!-- Node6 -->
<g id="node6" class="node"><title>Node6</title>
<g id="a_node6"><a xlink:href="util_8c.html#af196b294dbffbdc01b22c3a2c8a500ec" target="_top" xlink:title="Get the path of the parent folder. ">
<polygon fill="white" stroke="red" points="132.5,-38.5 132.5,-57.5 245.5,-57.5 245.5,-38.5 132.5,-38.5"/>
<text text-anchor="middle" x="189" y="-45.5" font-family="Helvetica,sans-Serif" font-size="10.00">imap_get_parent_path</text>
</a>
</g>
</g>
<!-- Node1&#45;&gt;Node6 -->
<g id="edge6" class="edge"><title>Node1&#45;&gt;Node6</title>
<path fill="none" stroke="midnightblue" d="M77.7945,-90.9374C93.6224,-83.4313 113.705,-74.2696 132,-67 140.301,-63.7017 149.427,-60.4509 157.859,-57.5961"/>
<polygon fill="midnightblue" stroke="midnightblue" points="76.0523,-87.891 68.5432,-95.3653 79.0744,-94.205 76.0523,-87.891"/>
</g>
<!-- Node7 -->
<g id="node7" class="node"><title>Node7</title>
<g id="a_node7"><a xlink:href="util_8c.html#a7c4dbc9f84be00789935c291832b75b2" target="_top" xlink:title="Cleans an IMAP path using imap_fix_path. ">
<polygon fill="white" stroke="red" points="144,-0.5 144,-19.5 234,-19.5 234,-0.5 144,-0.5"/>
<text text-anchor="middle" x="189" y="-7.5" font-family="Helvetica,sans-Serif" font-size="10.00">imap_clean_path</text>
</a>
</g>
</g>
<!-- Node1&#45;&gt;Node7 -->
<g id="edge7" class="edge"><title>Node1&#45;&gt;Node7</title>
<path fill="none" stroke="midnightblue" d="M63.7077,-87.8927C79.1738,-70.852 104.977,-44.9878 132,-29 138.362,-25.2361 145.575,-22.0864 152.657,-19.5032"/>
<polygon fill="midnightblue" stroke="midnightblue" points="61.0055,-85.6647 56.9856,-95.4673 66.2411,-90.311 61.0055,-85.6647"/>
</g>
<!-- Node2&#45;&gt;Node3 -->
<g id="edge2" class="edge"><title>Node2&#45;&gt;Node3</title>
<path fill="none" stroke="midnightblue" d="M229.958,-194.069C246.537,-191.608 265.633,-188.773 281.795,-186.374"/>
<polygon fill="midnightblue" stroke="midnightblue" points="229.388,-190.615 220.01,-195.545 230.416,-197.539 229.388,-190.615"/>
</g>
</g>
</svg>
