<?xml version="1.0" encoding="UTF-8" standalone="no"?>
<!DOCTYPE svg PUBLIC "-//W3C//DTD SVG 1.1//EN"
 "http://www.w3.org/Graphics/SVG/1.1/DTD/svg11.dtd">
<!-- Generated by graphviz version 2.36.0 (20140111.2315)
 -->
<!-- Title: do_search Pages: 1 -->
<svg width="300pt" height="47pt"
 viewBox="0.00 0.00 300.00 47.00" xmlns="http://www.w3.org/2000/svg" xmlns:xlink="http://www.w3.org/1999/xlink">
<g id="graph0" class="graph" transform="scale(1 1) rotate(0) translate(4 43)">
<title>do_search</title>
<polygon fill="white" stroke="none" points="-4,4 -4,-43 296,-43 296,4 -4,4"/>
<!-- Node1 -->
<g id="node1" class="node"><title>Node1</title>
<polygon fill="#bfbfbf" stroke="black" points="0,-0.5 0,-19.5 62,-19.5 62,-0.5 0,-0.5"/>
<text text-anchor="middle" x="31" y="-7.5" font-family="Helvetica,sans-Serif" font-size="10.00">do_search</text>
</g>
<!-- Node2 -->
<g id="node2" class="node"><title>Node2</title>
<g id="a_node2"><a xlink:href="imap_8c.html#a344405aecf705a343c345856198e5e2d" target="_top" xlink:title="Convert NeoMutt pattern to IMAP search. ">
<polygon fill="white" stroke="black" points="98.5,-19.5 98.5,-38.5 183.5,-38.5 183.5,-19.5 98.5,-19.5"/>
<text text-anchor="middle" x="141" y="-26.5" font-family="Helvetica,sans-Serif" font-size="10.00">compile_search</text>
</a>
</g>
</g>
<!-- Node1&#45;&gt;Node2 -->
<g id="edge1" class="edge"><title>Node1&#45;&gt;Node2</title>
<path fill="none" stroke="midnightblue" d="M72.1975,-17.0718C80.7412,-18.5748 89.779,-20.1648 98.3747,-21.677"/>
<polygon fill="midnightblue" stroke="midnightblue" points="72.5392,-13.5782 62.084,-15.2926 71.3263,-20.4724 72.5392,-13.5782"/>
</g>
<!-- Node3 -->
<g id="node3" class="node"><title>Node3</title>
<g id="a_node3"><a xlink:href="imap_8h.html#a673cf9787aebe398e977d321653a62a6" target="_top" xlink:title="Find a matching mailbox. ">
<polygon fill="white" stroke="red" points="220,-0.5 220,-19.5 292,-19.5 292,-0.5 220,-0.5"/>
<text text-anchor="middle" x="256" y="-7.5" font-family="Helvetica,sans-Serif" font-size="10.00">imap_search</text>
</a>
</g>
</g>
<!-- Node1&#45;&gt;Node3 -->
<g id="edge3" class="edge"><title>Node1&#45;&gt;Node3</title>
<path fill="none" stroke="midnightblue" d="M72.25,-10C114.367,-10 179.824,-10 219.905,-10"/>
<polygon fill="midnightblue" stroke="midnightblue" points="72.0748,-6.5001 62.0748,-10 72.0747,-13.5001 72.0748,-6.5001"/>
</g>
<!-- Node2&#45;&gt;Node3 -->
<g id="edge2" class="edge"><title>Node2&#45;&gt;Node3</title>
<path fill="none" stroke="midnightblue" d="M193.898,-20.2738C202.638,-18.8042 211.526,-17.3097 219.718,-15.9323"/>
<polygon fill="midnightblue" stroke="midnightblue" points="193.037,-16.8693 183.756,-21.9791 194.198,-23.7724 193.037,-16.8693"/>
</g>
</g>
</svg>
