<?xml version="1.0" encoding="UTF-8" standalone="no"?>
<!DOCTYPE svg PUBLIC "-//W3C//DTD SVG 1.1//EN"
 "http://www.w3.org/Graphics/SVG/1.1/DTD/svg11.dtd">
<!-- Generated by graphviz version 2.36.0 (20140111.2315)
 -->
<!-- Title: imap_subscribe Pages: 1 -->
<svg width="396pt" height="408pt"
 viewBox="0.00 0.00 396.00 408.00" xmlns="http://www.w3.org/2000/svg" xmlns:xlink="http://www.w3.org/1999/xlink">
<g id="graph0" class="graph" transform="scale(1 1) rotate(0) translate(4 404)">
<title>imap_subscribe</title>
<polygon fill="white" stroke="none" points="-4,4 -4,-404 392,-404 392,4 -4,4"/>
<!-- Node1 -->
<g id="node1" class="node"><title>Node1</title>
<polygon fill="#bfbfbf" stroke="black" points="0.5,-190.5 0.5,-209.5 85.5,-209.5 85.5,-190.5 0.5,-190.5"/>
<text text-anchor="middle" x="43" y="-197.5" font-family="Helvetica,sans-Serif" font-size="10.00">imap_subscribe</text>
</g>
<!-- Node2 -->
<g id="node2" class="node"><title>Node2</title>
<g id="a_node2"><a xlink:href="mx_8c.html#a7cee0fd7066e1a6d816fa9bd6e3a7978" target="_top" xlink:title="Is this an IMAP mailbox. ">
<polygon fill="white" stroke="red" points="158.5,-380.5 158.5,-399.5 227.5,-399.5 227.5,-380.5 158.5,-380.5"/>
<text text-anchor="middle" x="193" y="-387.5" font-family="Helvetica,sans-Serif" font-size="10.00">mx_is_imap</text>
</a>
</g>
</g>
<!-- Node1&#45;&gt;Node2 -->
<g id="edge1" class="edge"><title>Node1&#45;&gt;Node2</title>
<path fill="none" stroke="midnightblue" d="M45.518,-209.863C50.5605,-239.167 69.5164,-326.438 122,-371 129.481,-377.351 138.894,-381.597 148.369,-384.429"/>
<polygon fill="midnightblue" stroke="midnightblue" points="147.636,-387.854 158.188,-386.899 149.344,-381.065 147.636,-387.854"/>
</g>
<!-- Node3 -->
<g id="node3" class="node"><title>Node3</title>
<g id="a_node3"><a xlink:href="imap_8h.html#aebbdfebd6d7aff8e41739a4a8f7f74b4" target="_top" xlink:title="Parse an IMAP mailbox name into name,host,port. ">
<polygon fill="white" stroke="red" points="147.5,-342.5 147.5,-361.5 238.5,-361.5 238.5,-342.5 147.5,-342.5"/>
<text text-anchor="middle" x="193" y="-349.5" font-family="Helvetica,sans-Serif" font-size="10.00">imap_parse_path</text>
</a>
</g>
</g>
<!-- Node1&#45;&gt;Node3 -->
<g id="edge2" class="edge"><title>Node1&#45;&gt;Node3</title>
<path fill="none" stroke="midnightblue" d="M47.2251,-209.582C55.6577,-233.21 80.6177,-294.747 122,-328 127.248,-332.217 133.281,-335.714 139.558,-338.608"/>
<polygon fill="midnightblue" stroke="midnightblue" points="138.285,-341.868 148.865,-342.43 140.944,-335.393 138.285,-341.868"/>
</g>
<!-- Node4 -->
<g id="node4" class="node"><title>Node4</title>
<g id="a_node4"><a xlink:href="mutt_2string_8c.html#a3b8965b21d6e21536750f8883cd4333a" target="_top" xlink:title="Copy a string into a buffer (guaranteeing NUL&#45;termination) ">
<polygon fill="white" stroke="black" points="300,-323.5 300,-342.5 388,-342.5 388,-323.5 300,-323.5"/>
<text text-anchor="middle" x="344" y="-330.5" font-family="Helvetica,sans-Serif" font-size="10.00">mutt_str_strfcpy</text>
</a>
</g>
</g>
<!-- Node1&#45;&gt;Node4 -->
<g id="edge7" class="edge"><title>Node1&#45;&gt;Node4</title>
<path fill="none" stroke="midnightblue" d="M48.8873,-209.744C59.33,-229.455 85.8446,-273.97 122,-295 173.574,-324.998 242.601,-332.698 289.701,-334.046"/>
<polygon fill="midnightblue" stroke="midnightblue" points="289.632,-337.546 299.7,-334.247 289.772,-330.547 289.632,-337.546"/>
</g>
<!-- Node5 -->
<g id="node5" class="node"><title>Node5</title>
<g id="a_node5"><a xlink:href="imap_8c.html#a6710cdbfe7ff868fb47f3e6164878856" target="_top" xlink:title="Find an open IMAP connection. ">
<polygon fill="white" stroke="red" points="150.5,-266.5 150.5,-285.5 235.5,-285.5 235.5,-266.5 150.5,-266.5"/>
<text text-anchor="middle" x="193" y="-273.5" font-family="Helvetica,sans-Serif" font-size="10.00">imap_conn_find</text>
</a>
</g>
</g>
<!-- Node1&#45;&gt;Node5 -->
<g id="edge4" class="edge"><title>Node1&#45;&gt;Node5</title>
<path fill="none" stroke="midnightblue" d="M56.0965,-209.511C70.9398,-220.831 97.1979,-239.738 122,-252 130.458,-256.181 139.823,-259.939 148.88,-263.171"/>
<polygon fill="midnightblue" stroke="midnightblue" points="147.934,-266.547 158.528,-266.468 150.197,-259.923 147.934,-266.547"/>
</g>
<!-- Node6 -->
<g id="node6" class="node"><title>Node6</title>
<g id="a_node6"><a xlink:href="imap_2command_8c.html#a97ce60ff4a8b54b3e2bc178e2969d3fc" target="_top" xlink:title="Execute a command and wait for the response from the server. ">
<polygon fill="white" stroke="red" points="312,-247.5 312,-266.5 376,-266.5 376,-247.5 312,-247.5"/>
<text text-anchor="middle" x="344" y="-254.5" font-family="Helvetica,sans-Serif" font-size="10.00">imap_exec</text>
</a>
</g>
</g>
<!-- Node1&#45;&gt;Node6 -->
<g id="edge13" class="edge"><title>Node1&#45;&gt;Node6</title>
<path fill="none" stroke="midnightblue" d="M80.7827,-209.51C93.7636,-212.72 108.49,-216.196 122,-219 184.287,-231.925 257.097,-243.832 301.621,-250.755"/>
<polygon fill="midnightblue" stroke="midnightblue" points="301.346,-254.254 311.763,-252.321 302.415,-247.336 301.346,-254.254"/>
</g>
<!-- Node7 -->
<g id="node7" class="node"><title>Node7</title>
<g id="a_node7"><a xlink:href="imap__private_8h.html#a0ad581214978f22f29cf3f818c7428ac" target="_top" xlink:title="Fix up the imap path. ">
<polygon fill="white" stroke="black" points="154.5,-190.5 154.5,-209.5 231.5,-209.5 231.5,-190.5 154.5,-190.5"/>
<text text-anchor="middle" x="193" y="-197.5" font-family="Helvetica,sans-Serif" font-size="10.00">imap_fix_path</text>
</a>
</g>
</g>
<!-- Node1&#45;&gt;Node7 -->
<g id="edge6" class="edge"><title>Node1&#45;&gt;Node7</title>
<path fill="none" stroke="midnightblue" d="M85.6201,-200C103.799,-200 125.225,-200 144.067,-200"/>
<polygon fill="midnightblue" stroke="midnightblue" points="144.231,-203.5 154.231,-200 144.231,-196.5 144.231,-203.5"/>
</g>
<!-- Node8 -->
<g id="node8" class="node"><title>Node8</title>
<g id="a_node8"><a xlink:href="buffer_8c.html#ab31dc6030636f826c60c65d143cb249d" target="_top" xlink:title="Initialise a new Buffer. ">
<polygon fill="white" stroke="black" points="302,-114.5 302,-133.5 386,-133.5 386,-114.5 302,-114.5"/>
<text text-anchor="middle" x="344" y="-121.5" font-family="Helvetica,sans-Serif" font-size="10.00">mutt_buffer_init</text>
</a>
</g>
</g>
<!-- Node1&#45;&gt;Node8 -->
<g id="edge8" class="edge"><title>Node1&#45;&gt;Node8</title>
<path fill="none" stroke="midnightblue" d="M81.5658,-190.452C135.832,-176.658 236.138,-151.162 295.482,-136.078"/>
<polygon fill="midnightblue" stroke="midnightblue" points="296.523,-139.425 305.353,-133.569 294.799,-132.641 296.523,-139.425"/>
</g>
<!-- Node9 -->
<g id="node9" class="node"><title>Node9</title>
<g id="a_node9"><a xlink:href="imap__private_8h.html#a6a0f18e27558517a063dcf464f2ffd4e" target="_top" xlink:title="quote string according to IMAP rules ">
<polygon fill="white" stroke="black" points="145,-114.5 145,-133.5 241,-133.5 241,-114.5 145,-114.5"/>
<text text-anchor="middle" x="193" y="-121.5" font-family="Helvetica,sans-Serif" font-size="10.00">imap_quote_string</text>
</a>
</g>
</g>
<!-- Node1&#45;&gt;Node9 -->
<g id="edge9" class="edge"><title>Node1&#45;&gt;Node9</title>
<path fill="none" stroke="midnightblue" d="M56.0965,-190.489C70.9398,-179.169 97.1979,-160.262 122,-148 130.458,-143.819 139.823,-140.061 148.88,-136.829"/>
<polygon fill="midnightblue" stroke="midnightblue" points="150.197,-140.077 158.528,-133.532 147.934,-133.453 150.197,-140.077"/>
</g>
<!-- Node10 -->
<g id="node10" class="node"><title>Node10</title>
<g id="a_node10"><a xlink:href="init_8c.html#a5fe0bea7c92d757966c8278e2ce85714" target="_top" xlink:title="Parse a line of user config. ">
<polygon fill="white" stroke="red" points="143.5,-76.5 143.5,-95.5 242.5,-95.5 242.5,-76.5 143.5,-76.5"/>
<text text-anchor="middle" x="193" y="-83.5" font-family="Helvetica,sans-Serif" font-size="10.00">mutt_parse_rc_line</text>
</a>
</g>
</g>
<!-- Node1&#45;&gt;Node10 -->
<g id="edge10" class="edge"><title>Node1&#45;&gt;Node10</title>
<path fill="none" stroke="midnightblue" d="M49.2241,-190.239C60.0923,-170.892 87.0604,-127.603 122,-105 125.628,-102.653 129.541,-100.594 133.597,-98.7877"/>
<polygon fill="midnightblue" stroke="midnightblue" points="135.214,-101.914 143.256,-95.0154 132.668,-95.3933 135.214,-101.914"/>
</g>
<!-- Node11 -->
<g id="node11" class="node"><title>Node11</title>
<g id="a_node11"><a xlink:href="imap__private_8h.html#aeb3843396cceab2a14f4368d93c71405" target="_top" xlink:title="Quote awkward characters in a mailbox name. ">
<polygon fill="white" stroke="red" points="127.5,-38.5 127.5,-57.5 258.5,-57.5 258.5,-38.5 127.5,-38.5"/>
<text text-anchor="middle" x="193" y="-45.5" font-family="Helvetica,sans-Serif" font-size="10.00">imap_munge_mbox_name</text>
</a>
</g>
</g>
<!-- Node1&#45;&gt;Node11 -->
<g id="edge12" class="edge"><title>Node1&#45;&gt;Node11</title>
<path fill="none" stroke="midnightblue" d="M46.863,-190.236C54.6127,-165.565 78.4054,-100.328 122,-67 124.471,-65.1107 127.117,-63.4091 129.882,-61.8766"/>
<polygon fill="midnightblue" stroke="midnightblue" points="131.505,-64.9804 139.043,-57.5347 128.507,-58.6549 131.505,-64.9804"/>
</g>
<!-- Node12 -->
<g id="node12" class="node"><title>Node12</title>
<g id="a_node12"><a xlink:href="imap__private_8h.html#a991a2911e11c162b8fd443ceeb7b83ab" target="_top" xlink:title="Remove quoting from a mailbox name. ">
<polygon fill="white" stroke="red" points="122.5,-0.5 122.5,-19.5 263.5,-19.5 263.5,-0.5 122.5,-0.5"/>
<text text-anchor="middle" x="193" y="-7.5" font-family="Helvetica,sans-Serif" font-size="10.00">imap_unmunge_mbox_name</text>
</a>
</g>
</g>
<!-- Node1&#45;&gt;Node12 -->
<g id="edge14" class="edge"><title>Node1&#45;&gt;Node12</title>
<path fill="none" stroke="midnightblue" d="M45.518,-190.137C50.5605,-160.833 69.5164,-73.5615 122,-29 123.974,-27.3241 126.082,-25.7949 128.291,-24.3995"/>
<polygon fill="midnightblue" stroke="midnightblue" points="130.04,-27.4334 137.233,-19.6543 126.759,-21.25 130.04,-27.4334"/>
</g>
<!-- Node3&#45;&gt;Node4 -->
<g id="edge3" class="edge"><title>Node3&#45;&gt;Node4</title>
<path fill="none" stroke="midnightblue" d="M238.705,-346.299C254.748,-344.254 272.998,-341.926 289.698,-339.797"/>
<polygon fill="midnightblue" stroke="midnightblue" points="290.385,-343.238 299.862,-338.501 289.5,-336.294 290.385,-343.238"/>
</g>
<!-- Node5&#45;&gt;Node6 -->
<g id="edge5" class="edge"><title>Node5&#45;&gt;Node6</title>
<path fill="none" stroke="midnightblue" d="M235.505,-270.707C256.131,-268.077 280.985,-264.908 301.597,-262.28"/>
<polygon fill="midnightblue" stroke="midnightblue" points="302.163,-265.736 311.64,-260.999 301.277,-258.792 302.163,-265.736"/>
</g>
<!-- Node10&#45;&gt;Node8 -->
<g id="edge11" class="edge"><title>Node10&#45;&gt;Node8</title>
<path fill="none" stroke="midnightblue" d="M231.599,-95.589C251.084,-100.558 275.075,-106.677 295.796,-111.961"/>
<polygon fill="midnightblue" stroke="midnightblue" points="295.117,-115.4 305.671,-114.48 296.846,-108.617 295.117,-115.4"/>
</g>
</g>
</svg>
