<?xml version="1.0" encoding="UTF-8" standalone="no"?>
<!DOCTYPE svg PUBLIC "-//W3C//DTD SVG 1.1//EN"
 "http://www.w3.org/Graphics/SVG/1.1/DTD/svg11.dtd">
<!-- Generated by graphviz version 2.36.0 (20140111.2315)
 -->
<!-- Title: imap/imap.h Pages: 1 -->
<svg width="1484pt" height="140pt"
 viewBox="0.00 0.00 1484.00 140.00" xmlns="http://www.w3.org/2000/svg" xmlns:xlink="http://www.w3.org/1999/xlink">
<g id="graph0" class="graph" transform="scale(1 1) rotate(0) translate(4 136)">
<title>imap/imap.h</title>
<polygon fill="white" stroke="none" points="-4,4 -4,-136 1480,-136 1480,4 -4,4"/>
<!-- Node1 -->
<g id="node1" class="node"><title>Node1</title>
<polygon fill="#bfbfbf" stroke="black" points="806,-112.5 806,-131.5 876,-131.5 876,-112.5 806,-112.5"/>
<text text-anchor="middle" x="841" y="-119.5" font-family="Helvetica,sans-Serif" font-size="10.00">imap/imap.h</text>
</g>
<!-- Node2 -->
<g id="node2" class="node"><title>Node2</title>
<g id="a_node2"><a xlink:href="browser_8c.html" target="_top" xlink:title="GUI component for displaying/selecting items from a list. ">
<polygon fill="white" stroke="black" points="-0.5,-56.5 -0.5,-75.5 58.5,-75.5 58.5,-56.5 -0.5,-56.5"/>
<text text-anchor="middle" x="29" y="-63.5" font-family="Helvetica,sans-Serif" font-size="10.00">browser.c</text>
</a>
</g>
</g>
<!-- Node1&#45;&gt;Node2 -->
<g id="edge1" class="edge"><title>Node1&#45;&gt;Node2</title>
<path fill="none" stroke="midnightblue" d="M795.481,-121.021C675.714,-120.5 342.159,-115.327 68,-76 64.9735,-75.5659 61.8353,-75.0151 58.7131,-74.4006"/>
<polygon fill="midnightblue" stroke="midnightblue" points="795.722,-124.522 805.734,-121.056 795.746,-117.522 795.722,-124.522"/>
</g>
<!-- Node3 -->
<g id="node3" class="node"><title>Node3</title>
<g id="a_node3"><a xlink:href="commands_8c.html" target="_top" xlink:title="Manage where the email is piped to external commands. ">
<polygon fill="white" stroke="black" points="76.5,-56.5 76.5,-75.5 149.5,-75.5 149.5,-56.5 76.5,-56.5"/>
<text text-anchor="middle" x="113" y="-63.5" font-family="Helvetica,sans-Serif" font-size="10.00">commands.c</text>
</a>
</g>
</g>
<!-- Node1&#45;&gt;Node3 -->
<g id="edge2" class="edge"><title>Node1&#45;&gt;Node3</title>
<path fill="none" stroke="midnightblue" d="M795.654,-120.002C685.922,-117.152 397.522,-107.074 159,-76 155.934,-75.6005 152.764,-75.1213 149.589,-74.5949"/>
<polygon fill="midnightblue" stroke="midnightblue" points="795.623,-123.502 805.708,-120.255 795.799,-116.504 795.623,-123.502"/>
</g>
<!-- Node4 -->
<g id="node4" class="node"><title>Node4</title>
<g id="a_node4"><a xlink:href="complete_8c.html" target="_top" xlink:title="String auto&#45;completion routines. ">
<polygon fill="white" stroke="black" points="167.5,-56.5 167.5,-75.5 232.5,-75.5 232.5,-56.5 167.5,-56.5"/>
<text text-anchor="middle" x="200" y="-63.5" font-family="Helvetica,sans-Serif" font-size="10.00">complete.c</text>
</a>
</g>
</g>
<!-- Node1&#45;&gt;Node4 -->
<g id="edge3" class="edge"><title>Node1&#45;&gt;Node4</title>
<path fill="none" stroke="midnightblue" d="M795.624,-119.699C695.323,-116.361 447.368,-105.578 242,-76 239.048,-75.5748 235.992,-75.0627 232.939,-74.5013"/>
<polygon fill="midnightblue" stroke="midnightblue" points="795.602,-123.2 805.71,-120.025 795.829,-116.203 795.602,-123.2"/>
</g>
<!-- Node5 -->
<g id="node5" class="node"><title>Node5</title>
<g id="a_node5"><a xlink:href="curs__main_8c.html" target="_top" xlink:title="GUI manage the main index (list of emails) ">
<polygon fill="white" stroke="black" points="251,-56.5 251,-75.5 321,-75.5 321,-56.5 251,-56.5"/>
<text text-anchor="middle" x="286" y="-63.5" font-family="Helvetica,sans-Serif" font-size="10.00">curs_main.c</text>
</a>
</g>
</g>
<!-- Node1&#45;&gt;Node5 -->
<g id="edge4" class="edge"><title>Node1&#45;&gt;Node5</title>
<path fill="none" stroke="midnightblue" d="M795.775,-118.752C706.408,-113.927 501.024,-100.939 330,-76 327.068,-75.5725 324.037,-75.0736 321.001,-74.5339"/>
<polygon fill="midnightblue" stroke="midnightblue" points="795.664,-122.251 805.836,-119.287 796.036,-115.261 795.664,-122.251"/>
</g>
<!-- Node6 -->
<g id="node6" class="node"><title>Node6</title>
<g id="a_node6"><a xlink:href="browse_8c.html" target="_top" xlink:title="GUI select an IMAP mailbox from a list. ">
<polygon fill="white" stroke="black" points="339,-56.5 339,-75.5 419,-75.5 419,-56.5 339,-56.5"/>
<text text-anchor="middle" x="379" y="-63.5" font-family="Helvetica,sans-Serif" font-size="10.00">imap/browse.c</text>
</a>
</g>
</g>
<!-- Node1&#45;&gt;Node6 -->
<g id="edge5" class="edge"><title>Node1&#45;&gt;Node6</title>
<path fill="none" stroke="midnightblue" d="M795.613,-117.149C719.428,-110.44 561.086,-95.4461 428,-76 425.09,-75.5748 422.089,-75.1038 419.072,-74.6067"/>
<polygon fill="midnightblue" stroke="midnightblue" points="795.54,-120.656 805.807,-118.04 796.15,-113.682 795.54,-120.656"/>
</g>
<!-- Node7 -->
<g id="node7" class="node"><title>Node7</title>
<g id="a_node7"><a xlink:href="imap_2command_8c.html" target="_top" xlink:title="Send/receive commands to/from an IMAP server. ">
<polygon fill="white" stroke="black" points="437,-56.5 437,-75.5 529,-75.5 529,-56.5 437,-56.5"/>
<text text-anchor="middle" x="483" y="-63.5" font-family="Helvetica,sans-Serif" font-size="10.00">imap/command.c</text>
</a>
</g>
</g>
<!-- Node1&#45;&gt;Node7 -->
<g id="edge6" class="edge"><title>Node1&#45;&gt;Node7</title>
<path fill="none" stroke="midnightblue" d="M795.845,-114.506C736.611,-105.939 629.455,-90.273 538,-76 535.132,-75.5524 532.181,-75.0861 529.206,-74.6117"/>
<polygon fill="midnightblue" stroke="midnightblue" points="795.584,-118.005 805.982,-115.971 796.585,-111.077 795.584,-118.005"/>
</g>
<!-- Node8 -->
<g id="node8" class="node"><title>Node8</title>
<g id="a_node8"><a xlink:href="imap_8c.html" target="_top" xlink:title="IMAP network mailbox. ">
<polygon fill="white" stroke="black" points="547,-56.5 547,-75.5 617,-75.5 617,-56.5 547,-56.5"/>
<text text-anchor="middle" x="582" y="-63.5" font-family="Helvetica,sans-Serif" font-size="10.00">imap/imap.c</text>
</a>
</g>
</g>
<!-- Node1&#45;&gt;Node8 -->
<g id="edge7" class="edge"><title>Node1&#45;&gt;Node8</title>
<path fill="none" stroke="midnightblue" d="M795.747,-111.565C744.891,-100.962 663.408,-83.973 617.122,-74.3228"/>
<polygon fill="midnightblue" stroke="midnightblue" points="795.297,-115.046 805.801,-113.661 796.725,-108.194 795.297,-115.046"/>
</g>
<!-- Node9 -->
<g id="node9" class="node"><title>Node9</title>
<g id="a_node9"><a xlink:href="message_8c.html" target="_top" xlink:title="Manage IMAP messages. ">
<polygon fill="white" stroke="black" points="635.5,-56.5 635.5,-75.5 724.5,-75.5 724.5,-56.5 635.5,-56.5"/>
<text text-anchor="middle" x="680" y="-63.5" font-family="Helvetica,sans-Serif" font-size="10.00">imap/message.c</text>
</a>
</g>
</g>
<!-- Node1&#45;&gt;Node9 -->
<g id="edge8" class="edge"><title>Node1&#45;&gt;Node9</title>
<path fill="none" stroke="midnightblue" d="M805.735,-109.172C775.419,-99.0039 732.43,-84.5852 705.392,-75.5164"/>
<polygon fill="midnightblue" stroke="midnightblue" points="804.895,-112.582 815.489,-112.444 807.121,-105.945 804.895,-112.582"/>
</g>
<!-- Node10 -->
<g id="node10" class="node"><title>Node10</title>
<g id="a_node10"><a xlink:href="util_8c.html" target="_top" xlink:title="IMAP helper functions. ">
<polygon fill="white" stroke="black" points="742,-56.5 742,-75.5 804,-75.5 804,-56.5 742,-56.5"/>
<text text-anchor="middle" x="773" y="-63.5" font-family="Helvetica,sans-Serif" font-size="10.00">imap/util.c</text>
</a>
</g>
</g>
<!-- Node1&#45;&gt;Node10 -->
<g id="edge9" class="edge"><title>Node1&#45;&gt;Node10</title>
<path fill="none" stroke="midnightblue" d="M822.238,-106.101C810,-96.3824 794.441,-84.0269 784.124,-75.8339"/>
<polygon fill="midnightblue" stroke="midnightblue" points="820.067,-108.846 830.075,-112.324 824.42,-103.364 820.067,-108.846"/>
</g>
<!-- Node11 -->
<g id="node11" class="node"><title>Node11</title>
<g id="a_node11"><a xlink:href="init_8h.html" target="_top" xlink:title="Definitions of user variables, sort methods and commands. ">
<polygon fill="white" stroke="black" points="822,-56.5 822,-75.5 860,-75.5 860,-56.5 822,-56.5"/>
<text text-anchor="middle" x="841" y="-63.5" font-family="Helvetica,sans-Serif" font-size="10.00">init.h</text>
</a>
</g>
</g>
<!-- Node1&#45;&gt;Node11 -->
<g id="edge10" class="edge"><title>Node1&#45;&gt;Node11</title>
<path fill="none" stroke="midnightblue" d="M841,-101.805C841,-92.9102 841,-82.7798 841,-75.7511"/>
<polygon fill="midnightblue" stroke="midnightblue" points="837.5,-102.083 841,-112.083 844.5,-102.083 837.5,-102.083"/>
</g>
<!-- Node12 -->
<g id="node12" class="node"><title>Node12</title>
<g id="a_node12"><a xlink:href="init_8c.html" target="_top" xlink:title="Config/command parsing. ">
<polygon fill="white" stroke="black" points="845,-0.5 845,-19.5 883,-19.5 883,-0.5 845,-0.5"/>
<text text-anchor="middle" x="864" y="-7.5" font-family="Helvetica,sans-Serif" font-size="10.00">init.c</text>
</a>
</g>
</g>
<!-- Node1&#45;&gt;Node12 -->
<g id="edge12" class="edge"><title>Node1&#45;&gt;Node12</title>
<path fill="none" stroke="midnightblue" d="M854.51,-104.301C860.168,-96.253 866.098,-86.1565 869,-76 874.597,-56.4113 869.851,-32.2342 866.54,-19.6055"/>
<polygon fill="midnightblue" stroke="midnightblue" points="851.624,-102.315 848.412,-112.411 857.219,-106.521 851.624,-102.315"/>
</g>
<!-- Node13 -->
<g id="node13" class="node"><title>Node13</title>
<g id="a_node13"><a xlink:href="keymap_8c.html" target="_top" xlink:title="Manage keymappings. ">
<polygon fill="white" stroke="black" points="916.5,-56.5 916.5,-75.5 975.5,-75.5 975.5,-56.5 916.5,-56.5"/>
<text text-anchor="middle" x="946" y="-63.5" font-family="Helvetica,sans-Serif" font-size="10.00">keymap.c</text>
</a>
</g>
</g>
<!-- Node1&#45;&gt;Node13 -->
<g id="edge13" class="edge"><title>Node1&#45;&gt;Node13</title>
<path fill="none" stroke="midnightblue" d="M866.81,-107.726C886.253,-97.7271 912.348,-84.3065 929.172,-75.6545"/>
<polygon fill="midnightblue" stroke="midnightblue" points="865.162,-104.638 857.87,-112.324 868.364,-110.863 865.162,-104.638"/>
</g>
<!-- Node14 -->
<g id="node14" class="node"><title>Node14</title>
<g id="a_node14"><a xlink:href="mailbox_8c.html" target="_top" xlink:title="Representation of a mailbox. ">
<polygon fill="white" stroke="black" points="993.5,-56.5 993.5,-75.5 1052.5,-75.5 1052.5,-56.5 993.5,-56.5"/>
<text text-anchor="middle" x="1023" y="-63.5" font-family="Helvetica,sans-Serif" font-size="10.00">mailbox.c</text>
</a>
</g>
</g>
<!-- Node1&#45;&gt;Node14 -->
<g id="edge14" class="edge"><title>Node1&#45;&gt;Node14</title>
<path fill="none" stroke="midnightblue" d="M879.531,-109.568C913.864,-99.381 963.333,-84.7034 994.296,-75.5164"/>
<polygon fill="midnightblue" stroke="midnightblue" points="878.43,-106.244 869.838,-112.444 880.421,-112.954 878.43,-106.244"/>
</g>
<!-- Node15 -->
<g id="node15" class="node"><title>Node15</title>
<g id="a_node15"><a xlink:href="main_8c.html" target="_top" xlink:title="Command line processing. ">
<polygon fill="white" stroke="black" points="1071,-56.5 1071,-75.5 1117,-75.5 1117,-56.5 1071,-56.5"/>
<text text-anchor="middle" x="1094" y="-63.5" font-family="Helvetica,sans-Serif" font-size="10.00">main.c</text>
</a>
</g>
</g>
<!-- Node1&#45;&gt;Node15 -->
<g id="edge15" class="edge"><title>Node1&#45;&gt;Node15</title>
<path fill="none" stroke="midnightblue" d="M886.151,-112.648C930.755,-104.189 1000.84,-90.341 1061,-76 1064.23,-75.2289 1067.63,-74.3645 1070.97,-73.4845"/>
<polygon fill="midnightblue" stroke="midnightblue" points="885.386,-109.23 876.208,-114.524 886.684,-116.109 885.386,-109.23"/>
</g>
<!-- Node16 -->
<g id="node16" class="node"><title>Node16</title>
<g id="a_node16"><a xlink:href="muttlib_8c.html" target="_top" xlink:title="Some miscellaneous functions. ">
<polygon fill="white" stroke="black" points="1135,-56.5 1135,-75.5 1189,-75.5 1189,-56.5 1135,-56.5"/>
<text text-anchor="middle" x="1162" y="-63.5" font-family="Helvetica,sans-Serif" font-size="10.00">muttlib.c</text>
</a>
</g>
</g>
<!-- Node1&#45;&gt;Node16 -->
<g id="edge16" class="edge"><title>Node1&#45;&gt;Node16</title>
<path fill="none" stroke="midnightblue" d="M886.302,-115.107C942.71,-107.479 1041.9,-93.1174 1126,-76 1128.9,-75.409 1131.93,-74.7397 1134.93,-74.0395"/>
<polygon fill="midnightblue" stroke="midnightblue" points="885.726,-111.652 876.28,-116.451 886.657,-118.59 885.726,-111.652"/>
</g>
<!-- Node17 -->
<g id="node17" class="node"><title>Node17</title>
<g id="a_node17"><a xlink:href="mx_8c.html" target="_top" xlink:title="Mailbox multiplexor. ">
<polygon fill="white" stroke="black" points="1207,-56.5 1207,-75.5 1245,-75.5 1245,-56.5 1207,-56.5"/>
<text text-anchor="middle" x="1226" y="-63.5" font-family="Helvetica,sans-Serif" font-size="10.00">mx.c</text>
</a>
</g>
</g>
<!-- Node1&#45;&gt;Node17 -->
<g id="edge17" class="edge"><title>Node1&#45;&gt;Node17</title>
<path fill="none" stroke="midnightblue" d="M886.474,-117.984C954.764,-112.845 1087.57,-100.484 1198,-76 1200.89,-75.3589 1203.91,-74.5464 1206.85,-73.6729"/>
<polygon fill="midnightblue" stroke="midnightblue" points="885.798,-114.524 876.082,-118.747 886.311,-121.505 885.798,-114.524"/>
</g>
<!-- Node18 -->
<g id="node18" class="node"><title>Node18</title>
<g id="a_node18"><a xlink:href="pattern_8c.html" target="_top" xlink:title="Match patterns to emails. ">
<polygon fill="white" stroke="black" points="1263.5,-56.5 1263.5,-75.5 1318.5,-75.5 1318.5,-56.5 1263.5,-56.5"/>
<text text-anchor="middle" x="1291" y="-63.5" font-family="Helvetica,sans-Serif" font-size="10.00">pattern.c</text>
</a>
</g>
</g>
<!-- Node1&#45;&gt;Node18 -->
<g id="edge18" class="edge"><title>Node1&#45;&gt;Node18</title>
<path fill="none" stroke="midnightblue" d="M886.228,-118.007C962.496,-112.528 1121.35,-99.2578 1254,-76 1257,-75.4748 1260.11,-74.8478 1263.2,-74.1725"/>
<polygon fill="midnightblue" stroke="midnightblue" points="885.754,-114.531 876.026,-118.728 886.248,-121.514 885.754,-114.531"/>
</g>
<!-- Node19 -->
<g id="node19" class="node"><title>Node19</title>
<g id="a_node19"><a xlink:href="postpone_8c.html" target="_top" xlink:title="Save/restore and GUI list postponed emails. ">
<polygon fill="white" stroke="black" points="1336.5,-56.5 1336.5,-75.5 1401.5,-75.5 1401.5,-56.5 1336.5,-56.5"/>
<text text-anchor="middle" x="1369" y="-63.5" font-family="Helvetica,sans-Serif" font-size="10.00">postpone.c</text>
</a>
</g>
</g>
<!-- Node1&#45;&gt;Node19 -->
<g id="edge19" class="edge"><title>Node1&#45;&gt;Node19</title>
<path fill="none" stroke="midnightblue" d="M886.47,-118.597C972.746,-113.638 1165.98,-100.618 1327,-76 1329.95,-75.5492 1333,-75.0195 1336.05,-74.4467"/>
<polygon fill="midnightblue" stroke="midnightblue" points="886.029,-115.116 876.243,-119.176 886.424,-122.105 886.029,-115.116"/>
</g>
<!-- Node20 -->
<g id="node20" class="node"><title>Node20</title>
<g id="a_node20"><a xlink:href="system_8c.html" target="_top" xlink:title="Execute external programs. ">
<polygon fill="white" stroke="black" points="1419.5,-56.5 1419.5,-75.5 1476.5,-75.5 1476.5,-56.5 1419.5,-56.5"/>
<text text-anchor="middle" x="1448" y="-63.5" font-family="Helvetica,sans-Serif" font-size="10.00">system.c</text>
</a>
</g>
</g>
<!-- Node1&#45;&gt;Node20 -->
<g id="edge20" class="edge"><title>Node1&#45;&gt;Node20</title>
<path fill="none" stroke="midnightblue" d="M886.194,-119.782C982.853,-116.663 1216.61,-106.364 1410,-76 1413.08,-75.5163 1416.28,-74.9158 1419.46,-74.2561"/>
<polygon fill="midnightblue" stroke="midnightblue" points="886.069,-116.285 876.183,-120.095 886.288,-123.281 886.069,-116.285"/>
</g>
<!-- Node11&#45;&gt;Node12 -->
<g id="edge11" class="edge"><title>Node11&#45;&gt;Node12</title>
<path fill="none" stroke="midnightblue" d="M848.799,-46.6897C852.675,-37.589 857.179,-27.0141 860.273,-19.7511"/>
<polygon fill="midnightblue" stroke="midnightblue" points="845.497,-45.5112 844.798,-56.083 851.937,-48.2543 845.497,-45.5112"/>
</g>
</g>
</svg>
