<?xml version="1.0" encoding="UTF-8" standalone="no"?>
<!DOCTYPE svg PUBLIC "-//W3C//DTD SVG 1.1//EN"
 "http://www.w3.org/Graphics/SVG/1.1/DTD/svg11.dtd">
<!-- Generated by graphviz version 2.36.0 (20140111.2315)
 -->
<!-- Title: imap_check Pages: 1 -->
<svg width="450pt" height="131pt"
 viewBox="0.00 0.00 450.00 130.83" xmlns="http://www.w3.org/2000/svg" xmlns:xlink="http://www.w3.org/1999/xlink">
<g id="graph0" class="graph" transform="scale(1 1) rotate(0) translate(4 126.827)">
<title>imap_check</title>
<polygon fill="white" stroke="none" points="-4,4 -4,-126.827 446,-126.827 446,4 -4,4"/>
<!-- Node1 -->
<g id="node1" class="node"><title>Node1</title>
<polygon fill="#bfbfbf" stroke="black" points="0.5,-48.5 0.5,-67.5 69.5,-67.5 69.5,-48.5 0.5,-48.5"/>
<text text-anchor="middle" x="35" y="-55.5" font-family="Helvetica,sans-Serif" font-size="10.00">imap_check</text>
</g>
<!-- Node2 -->
<g id="node2" class="node"><title>Node2</title>
<g id="a_node2"><a xlink:href="imap_2command_8c.html#a3a8b08e2272201c0c0d58dd7e861de80" target="_top" xlink:title="Enter the IDLE state. ">
<polygon fill="white" stroke="red" points="106,-48.5 106,-67.5 188,-67.5 188,-48.5 106,-48.5"/>
<text text-anchor="middle" x="147" y="-55.5" font-family="Helvetica,sans-Serif" font-size="10.00">imap_cmd_idle</text>
</a>
</g>
</g>
<!-- Node1&#45;&gt;Node2 -->
<g id="edge1" class="edge"><title>Node1&#45;&gt;Node2</title>
<path fill="none" stroke="midnightblue" d="M69.6013,-58C77.7755,-58 86.6967,-58 95.4655,-58"/>
<polygon fill="midnightblue" stroke="midnightblue" points="95.6355,-61.5001 105.635,-58 95.6354,-54.5001 95.6355,-61.5001"/>
</g>
<!-- Node3 -->
<g id="node3" class="node"><title>Node3</title>
<g id="a_node3"><a xlink:href="socket_8c.html#a4d13f6965c151f2b7e0b3c20bd0def21" target="_top" xlink:title="Checks whether reads would block. ">
<polygon fill="white" stroke="black" points="224.5,-86.5 224.5,-105.5 315.5,-105.5 315.5,-86.5 224.5,-86.5"/>
<text text-anchor="middle" x="270" y="-93.5" font-family="Helvetica,sans-Serif" font-size="10.00">mutt_socket_poll</text>
</a>
</g>
</g>
<!-- Node1&#45;&gt;Node3 -->
<g id="edge5" class="edge"><title>Node1&#45;&gt;Node3</title>
<path fill="none" stroke="midnightblue" d="M43.8176,-67.5889C55.6117,-81.2075 79.4209,-105.547 106,-115 148.572,-130.14 200.954,-119.23 234.653,-108.735"/>
<polygon fill="midnightblue" stroke="midnightblue" points="236.064,-111.956 244.48,-105.52 233.887,-105.303 236.064,-111.956"/>
</g>
<!-- Node4 -->
<g id="node4" class="node"><title>Node4</title>
<g id="a_node4"><a xlink:href="imap_2command_8c.html#a4acab39c86f77ee378015e5013af0a0f" target="_top" xlink:title="Reads server responses from an IMAP command. ">
<polygon fill="white" stroke="red" points="227,-29.5 227,-48.5 313,-48.5 313,-29.5 227,-29.5"/>
<text text-anchor="middle" x="270" y="-36.5" font-family="Helvetica,sans-Serif" font-size="10.00">imap_cmd_step</text>
</a>
</g>
</g>
<!-- Node1&#45;&gt;Node4 -->
<g id="edge6" class="edge"><title>Node1&#45;&gt;Node4</title>
<path fill="none" stroke="midnightblue" d="M64.2583,-48.497C76.8741,-44.7332 92.0201,-40.8636 106,-39 142.828,-34.0908 184.753,-34.217 216.861,-35.505"/>
<polygon fill="midnightblue" stroke="midnightblue" points="216.774,-39.0045 226.922,-35.9591 217.09,-32.0116 216.774,-39.0045"/>
</g>
<!-- Node5 -->
<g id="node5" class="node"><title>Node5</title>
<g id="a_node5"><a xlink:href="imap_2command_8c.html#ae6dffb61babb3015146e7ca0077632db" target="_top" xlink:title="Attempt to perform cleanup. ">
<polygon fill="white" stroke="red" points="352,-0.5 352,-19.5 442,-19.5 442,-0.5 352,-0.5"/>
<text text-anchor="middle" x="397" y="-7.5" font-family="Helvetica,sans-Serif" font-size="10.00">imap_cmd_finish</text>
</a>
</g>
</g>
<!-- Node1&#45;&gt;Node5 -->
<g id="edge10" class="edge"><title>Node1&#45;&gt;Node5</title>
<path fill="none" stroke="midnightblue" d="M55.4055,-48.4274C69.1804,-42.087 88.296,-34.1925 106,-30 186.377,-10.9659 282.519,-8.09532 341.411,-8.5005"/>
<polygon fill="midnightblue" stroke="midnightblue" points="341.569,-12.0022 351.604,-8.60613 341.641,-5.00261 341.569,-12.0022"/>
</g>
<!-- Node6 -->
<g id="node6" class="node"><title>Node6</title>
<g id="a_node6"><a xlink:href="imap_2command_8c.html#a97ce60ff4a8b54b3e2bc178e2969d3fc" target="_top" xlink:title="Execute a command and wait for the response from the server. ">
<polygon fill="white" stroke="red" points="115,-86.5 115,-105.5 179,-105.5 179,-86.5 115,-86.5"/>
<text text-anchor="middle" x="147" y="-93.5" font-family="Helvetica,sans-Serif" font-size="10.00">imap_exec</text>
</a>
</g>
</g>
<!-- Node1&#45;&gt;Node6 -->
<g id="edge7" class="edge"><title>Node1&#45;&gt;Node6</title>
<path fill="none" stroke="midnightblue" d="M63.7576,-67.589C77.3062,-72.2694 93.8055,-77.9692 108.46,-83.0315"/>
<polygon fill="midnightblue" stroke="midnightblue" points="107.656,-86.457 118.251,-86.4141 109.942,-79.8406 107.656,-86.457"/>
</g>
<!-- Node2&#45;&gt;Node3 -->
<g id="edge2" class="edge"><title>Node2&#45;&gt;Node3</title>
<path fill="none" stroke="midnightblue" d="M178.533,-67.589C193.723,-72.3594 212.285,-78.1888 228.633,-83.3229"/>
<polygon fill="midnightblue" stroke="midnightblue" points="227.887,-86.757 238.476,-86.4141 229.984,-80.0786 227.887,-86.757"/>
</g>
<!-- Node2&#45;&gt;Node4 -->
<g id="edge3" class="edge"><title>Node2&#45;&gt;Node4</title>
<path fill="none" stroke="midnightblue" d="M188.291,-51.6733C197.379,-50.2463 207.154,-48.7114 216.655,-47.2194"/>
<polygon fill="midnightblue" stroke="midnightblue" points="217.477,-50.6334 226.813,-45.6244 216.391,-43.7181 217.477,-50.6334"/>
</g>
<!-- Node4&#45;&gt;Node5 -->
<g id="edge4" class="edge"><title>Node4&#45;&gt;Node5</title>
<path fill="none" stroke="midnightblue" d="M312.276,-29.4239C322.73,-26.9987 334.082,-24.3649 344.956,-21.8423"/>
<polygon fill="midnightblue" stroke="midnightblue" points="345.817,-25.2355 354.767,-19.566 344.235,-18.4166 345.817,-25.2355"/>
</g>
<!-- Node6&#45;&gt;Node3 -->
<g id="edge8" class="edge"><title>Node6&#45;&gt;Node3</title>
<path fill="none" stroke="midnightblue" d="M179.161,-96C189.775,-96 201.98,-96 213.903,-96"/>
<polygon fill="midnightblue" stroke="midnightblue" points="214.261,-99.5001 224.261,-96 214.261,-92.5001 214.261,-99.5001"/>
</g>
<!-- Node6&#45;&gt;Node4 -->
<g id="edge9" class="edge"><title>Node6&#45;&gt;Node4</title>
<path fill="none" stroke="midnightblue" d="M168.253,-86.4595C187.709,-77.2939 217.33,-63.3405 239.424,-52.9324"/>
<polygon fill="midnightblue" stroke="midnightblue" points="241.126,-55.9995 248.681,-48.5716 238.143,-49.667 241.126,-55.9995"/>
</g>
</g>
</svg>
