<?xml version="1.0" encoding="UTF-8" standalone="no"?>
<!DOCTYPE svg PUBLIC "-//W3C//DTD SVG 1.1//EN"
 "http://www.w3.org/Graphics/SVG/1.1/DTD/svg11.dtd">
<!-- Generated by graphviz version 2.36.0 (20140111.2315)
 -->
<!-- Title: imap_get_qualifier Pages: 1 -->
<svg width="254pt" height="142pt"
 viewBox="0.00 0.00 254.00 142.00" xmlns="http://www.w3.org/2000/svg" xmlns:xlink="http://www.w3.org/1999/xlink">
<g id="graph0" class="graph" transform="scale(1 1) rotate(0) translate(4 138)">
<title>imap_get_qualifier</title>
<polygon fill="white" stroke="none" points="-4,4 -4,-138 250,-138 250,4 -4,4"/>
<!-- Node1 -->
<g id="node1" class="node"><title>Node1</title>
<polygon fill="#bfbfbf" stroke="black" points="0.5,-57.5 0.5,-76.5 95.5,-76.5 95.5,-57.5 0.5,-57.5"/>
<text text-anchor="middle" x="48" y="-64.5" font-family="Helvetica,sans-Serif" font-size="10.00">imap_get_qualifier</text>
</g>
<!-- Node2 -->
<g id="node2" class="node"><title>Node2</title>
<g id="a_node2"><a xlink:href="imap_8h.html#a5cd0cbb32dc9137ac1c9b0eb9dfe967a" target="_top" xlink:title="Rename a mailbox. ">
<polygon fill="white" stroke="red" points="132,-114.5 132,-133.5 246,-133.5 246,-114.5 132,-114.5"/>
<text text-anchor="middle" x="189" y="-121.5" font-family="Helvetica,sans-Serif" font-size="10.00">imap_mailbox_rename</text>
</a>
</g>
</g>
<!-- Node1&#45;&gt;Node2 -->
<g id="edge1" class="edge"><title>Node1&#45;&gt;Node2</title>
<path fill="none" stroke="midnightblue" d="M77.7945,-81.0626C93.6224,-88.5687 113.705,-97.7304 132,-105 140.301,-108.298 149.427,-111.549 157.859,-114.404"/>
<polygon fill="midnightblue" stroke="midnightblue" points="79.0744,-77.795 68.5432,-76.6347 76.0523,-84.109 79.0744,-77.795"/>
</g>
<!-- Node3 -->
<g id="node3" class="node"><title>Node3</title>
<g id="a_node3"><a xlink:href="imap_8h.html#ab8df632acf50bdb33e067b4cdbb2c99d" target="_top" xlink:title="Use server COPY command to copy deleted messages to trash. ">
<polygon fill="white" stroke="red" points="146,-76.5 146,-95.5 232,-95.5 232,-76.5 146,-76.5"/>
<text text-anchor="middle" x="189" y="-83.5" font-family="Helvetica,sans-Serif" font-size="10.00">imap_fast_trash</text>
</a>
</g>
</g>
<!-- Node1&#45;&gt;Node3 -->
<g id="edge2" class="edge"><title>Node1&#45;&gt;Node3</title>
<path fill="none" stroke="midnightblue" d="M105.769,-74.7598C119.186,-76.5938 133.259,-78.5174 145.893,-80.2444"/>
<polygon fill="midnightblue" stroke="midnightblue" points="106.054,-71.2662 95.6717,-73.3796 105.105,-78.2017 106.054,-71.2662"/>
</g>
<!-- Node4 -->
<g id="node4" class="node"><title>Node4</title>
<g id="a_node4"><a xlink:href="imap_8c.html#a6aa69e15f9108427a470d8f679ebe0f3" target="_top" xlink:title="Implements MxOps::mbox_open() ">
<polygon fill="white" stroke="black" points="142.5,-38.5 142.5,-57.5 235.5,-57.5 235.5,-38.5 142.5,-38.5"/>
<text text-anchor="middle" x="189" y="-45.5" font-family="Helvetica,sans-Serif" font-size="10.00">imap_mbox_open</text>
</a>
</g>
</g>
<!-- Node1&#45;&gt;Node4 -->
<g id="edge3" class="edge"><title>Node1&#45;&gt;Node4</title>
<path fill="none" stroke="midnightblue" d="M105.7,-59.2496C117.831,-57.5915 130.5,-55.8598 142.16,-54.2659"/>
<polygon fill="midnightblue" stroke="midnightblue" points="105.105,-55.7983 95.6717,-60.6204 106.054,-62.7338 105.105,-55.7983"/>
</g>
<!-- Node5 -->
<g id="node5" class="node"><title>Node5</title>
<g id="a_node5"><a xlink:href="message_8c.html#ac8b081db1e42feedcb823b54157fcd79" target="_top" xlink:title="Server COPY messages to another folder. ">
<polygon fill="white" stroke="red" points="132,-0.5 132,-19.5 246,-19.5 246,-0.5 132,-0.5"/>
<text text-anchor="middle" x="189" y="-7.5" font-family="Helvetica,sans-Serif" font-size="10.00">imap_copy_messages</text>
</a>
</g>
</g>
<!-- Node1&#45;&gt;Node5 -->
<g id="edge4" class="edge"><title>Node1&#45;&gt;Node5</title>
<path fill="none" stroke="midnightblue" d="M77.7945,-52.9374C93.6224,-45.4313 113.705,-36.2696 132,-29 140.301,-25.7017 149.427,-22.4509 157.859,-19.5961"/>
<polygon fill="midnightblue" stroke="midnightblue" points="76.0523,-49.891 68.5432,-57.3653 79.0744,-56.205 76.0523,-49.891"/>
</g>
</g>
</svg>
