<?xml version="1.0" encoding="UTF-8" standalone="no"?>
<!DOCTYPE svg PUBLIC "-//W3C//DTD SVG 1.1//EN"
 "http://www.w3.org/Graphics/SVG/1.1/DTD/svg11.dtd">
<!-- Generated by graphviz version 2.36.0 (20140111.2315)
 -->
<!-- Title: imap_cmd_step Pages: 1 -->
<svg width="532pt" height="750pt"
 viewBox="0.00 0.00 532.00 750.00" xmlns="http://www.w3.org/2000/svg" xmlns:xlink="http://www.w3.org/1999/xlink">
<g id="graph0" class="graph" transform="scale(1 1) rotate(0) translate(4 746)">
<title>imap_cmd_step</title>
<polygon fill="white" stroke="none" points="-4,4 -4,-746 528,-746 528,4 -4,4"/>
<!-- Node1 -->
<g id="node1" class="node"><title>Node1</title>
<polygon fill="#bfbfbf" stroke="black" points="0,-361.5 0,-380.5 86,-380.5 86,-361.5 0,-361.5"/>
<text text-anchor="middle" x="43" y="-368.5" font-family="Helvetica,sans-Serif" font-size="10.00">imap_cmd_step</text>
</g>
<!-- Node2 -->
<g id="node2" class="node"><title>Node2</title>
<g id="a_node2"><a xlink:href="imap_2command_8c.html#aebfe7d73d94036b6000eecc6ac61e0ce" target="_top" xlink:title="Parse a server LIST command (list mailboxes) ">
<polygon fill="white" stroke="red" points="140.5,-722.5 140.5,-741.5 223.5,-741.5 223.5,-722.5 140.5,-722.5"/>
<text text-anchor="middle" x="182" y="-729.5" font-family="Helvetica,sans-Serif" font-size="10.00">cmd_parse_list</text>
</a>
</g>
</g>
<!-- Node1&#45;&gt;Node2 -->
<g id="edge1" class="edge"><title>Node1&#45;&gt;Node2</title>
<path fill="none" stroke="midnightblue" d="M45.9497,-390.714C52.797,-456.147 77.7545,-664.712 122,-713 126.944,-718.395 133.424,-722.265 140.275,-725.038"/>
<polygon fill="midnightblue" stroke="midnightblue" points="49.4089,-390.135 44.9119,-380.542 42.445,-390.846 49.4089,-390.135"/>
</g>
<!-- Node3 -->
<g id="node3" class="node"><title>Node3</title>
<g id="a_node3"><a xlink:href="imap_2command_8c.html#a3ae00b0adf13af742037267d0c950b1a" target="_top" xlink:title="Parse status from server. ">
<polygon fill="white" stroke="red" points="133.5,-684.5 133.5,-703.5 230.5,-703.5 230.5,-684.5 133.5,-684.5"/>
<text text-anchor="middle" x="182" y="-691.5" font-family="Helvetica,sans-Serif" font-size="10.00">cmd_parse_status</text>
</a>
</g>
</g>
<!-- Node1&#45;&gt;Node3 -->
<g id="edge2" class="edge"><title>Node1&#45;&gt;Node3</title>
<path fill="none" stroke="midnightblue" d="M43.4288,-390.954C43.0112,-443.389 49.0063,-586.745 122,-670 127.54,-676.319 134.991,-681.002 142.73,-684.462"/>
<polygon fill="midnightblue" stroke="midnightblue" points="46.9329,-390.742 43.6073,-380.683 39.9339,-390.62 46.9329,-390.742"/>
</g>
<!-- Node4 -->
<g id="node4" class="node"><title>Node4</title>
<g id="a_node4"><a xlink:href="imap__private_8h.html#a97ce60ff4a8b54b3e2bc178e2969d3fc" target="_top" xlink:title="Execute a command and wait for the response from the server. ">
<polygon fill="white" stroke="red" points="150,-608.5 150,-627.5 214,-627.5 214,-608.5 150,-608.5"/>
<text text-anchor="middle" x="182" y="-615.5" font-family="Helvetica,sans-Serif" font-size="10.00">imap_exec</text>
</a>
</g>
</g>
<!-- Node1&#45;&gt;Node4 -->
<g id="edge3" class="edge"><title>Node1&#45;&gt;Node4</title>
<path fill="none" stroke="midnightblue" d="M45.5588,-390.911C49.9308,-433.652 65.9456,-535.079 122,-594 129.469,-601.852 139.866,-607.209 149.855,-610.831"/>
<polygon fill="midnightblue" stroke="midnightblue" points="49.0423,-390.57 44.6454,-380.93 42.0715,-391.208 49.0423,-390.57"/>
</g>
<!-- Node5 -->
<g id="node5" class="node"><title>Node5</title>
<g id="a_node5"><a xlink:href="imap__private_8h.html#ab37d302c150ffd48994b7f88c735e020" target="_top" xlink:title="Open an IMAP connection. ">
<polygon fill="white" stroke="red" points="278,-646.5 278,-665.5 394,-665.5 394,-646.5 278,-646.5"/>
<text text-anchor="middle" x="336" y="-653.5" font-family="Helvetica,sans-Serif" font-size="10.00">imap_open_connection</text>
</a>
</g>
</g>
<!-- Node1&#45;&gt;Node5 -->
<g id="edge17" class="edge"><title>Node1&#45;&gt;Node5</title>
<path fill="none" stroke="midnightblue" d="M46.8631,-390.55C55.4677,-446.439 82.9344,-604.937 122,-637 168.634,-675.275 241.888,-672.614 289.177,-665.565"/>
<polygon fill="midnightblue" stroke="midnightblue" points="50.3051,-389.902 45.3556,-380.534 43.3831,-390.944 50.3051,-389.902"/>
</g>
<!-- Node6 -->
<g id="node6" class="node"><title>Node6</title>
<g id="a_node6"><a xlink:href="imap__private_8h.html#ab79a9fbdc070836d98421d54c604558d" target="_top" xlink:title="Check for new mail. ">
<polygon fill="white" stroke="red" points="301.5,-570.5 301.5,-589.5 370.5,-589.5 370.5,-570.5 301.5,-570.5"/>
<text text-anchor="middle" x="336" y="-577.5" font-family="Helvetica,sans-Serif" font-size="10.00">imap_check</text>
</a>
</g>
</g>
<!-- Node1&#45;&gt;Node6 -->
<g id="edge19" class="edge"><title>Node1&#45;&gt;Node6</title>
<path fill="none" stroke="midnightblue" d="M45.5672,-390.523C49.8888,-430.096 65.7093,-519.516 122,-561 174.75,-599.875 256.011,-594.177 301.395,-586.888"/>
<polygon fill="midnightblue" stroke="midnightblue" points="49.0504,-390.18 44.6123,-380.56 42.0824,-390.848 49.0504,-390.18"/>
</g>
<!-- Node7 -->
<g id="node7" class="node"><title>Node7</title>
<g id="a_node7"><a xlink:href="imap_8c.html#a6aa69e15f9108427a470d8f679ebe0f3" target="_top" xlink:title="Implements MxOps::mbox_open() ">
<polygon fill="white" stroke="black" points="430.5,-494.5 430.5,-513.5 523.5,-513.5 523.5,-494.5 430.5,-494.5"/>
<text text-anchor="middle" x="477" y="-501.5" font-family="Helvetica,sans-Serif" font-size="10.00">imap_mbox_open</text>
</a>
</g>
</g>
<!-- Node1&#45;&gt;Node7 -->
<g id="edge21" class="edge"><title>Node1&#45;&gt;Node7</title>
<path fill="none" stroke="midnightblue" d="M50.732,-389.933C61.3016,-416.498 84.5384,-463.938 122,-485 220.714,-540.5 360.404,-526.034 431.171,-513.507"/>
<polygon fill="midnightblue" stroke="midnightblue" points="54.0011,-388.682 47.1889,-380.568 47.454,-391.159 54.0011,-388.682"/>
</g>
<!-- Node8 -->
<g id="node8" class="node"><title>Node8</title>
<g id="a_node8"><a xlink:href="imap__private_8h.html#a3a8b08e2272201c0c0d58dd7e861de80" target="_top" xlink:title="Enter the IDLE state. ">
<polygon fill="white" stroke="black" points="141,-532.5 141,-551.5 223,-551.5 223,-532.5 141,-532.5"/>
<text text-anchor="middle" x="182" y="-539.5" font-family="Helvetica,sans-Serif" font-size="10.00">imap_cmd_idle</text>
</a>
</g>
</g>
<!-- Node1&#45;&gt;Node8 -->
<g id="edge7" class="edge"><title>Node1&#45;&gt;Node8</title>
<path fill="none" stroke="midnightblue" d="M49.4923,-390.298C59.2239,-421.248 82.3018,-482.14 122,-518 128.893,-524.227 137.615,-528.951 146.223,-532.488"/>
<polygon fill="midnightblue" stroke="midnightblue" points="52.8341,-389.256 46.6013,-380.689 46.1309,-391.273 52.8341,-389.256"/>
</g>
<!-- Node9 -->
<g id="node9" class="node"><title>Node9</title>
<g id="a_node9"><a xlink:href="auth__anon_8c.html#abf7c86a7705f1b21eb39aa3a473fe5c4" target="_top" xlink:title="Authenticate anonymously. ">
<polygon fill="white" stroke="black" points="138,-456.5 138,-475.5 226,-475.5 226,-456.5 138,-456.5"/>
<text text-anchor="middle" x="182" y="-463.5" font-family="Helvetica,sans-Serif" font-size="10.00">imap_auth_anon</text>
</a>
</g>
</g>
<!-- Node1&#45;&gt;Node9 -->
<g id="edge9" class="edge"><title>Node1&#45;&gt;Node9</title>
<path fill="none" stroke="midnightblue" d="M57.951,-388.708C72.3218,-405.853 96.207,-431.469 122,-447 128.269,-450.775 135.37,-453.885 142.42,-456.417"/>
<polygon fill="midnightblue" stroke="midnightblue" points="60.3783,-386.147 51.3436,-380.613 54.9553,-390.573 60.3783,-386.147"/>
</g>
<!-- Node10 -->
<g id="node10" class="node"><title>Node10</title>
<g id="a_node10"><a xlink:href="auth__cram_8c.html#ae0a74c9fa9b26bf0b6b9678776777587" target="_top" xlink:title="Authenticate using CRAM&#45;MD5. ">
<polygon fill="white" stroke="black" points="125.5,-418.5 125.5,-437.5 238.5,-437.5 238.5,-418.5 125.5,-418.5"/>
<text text-anchor="middle" x="182" y="-425.5" font-family="Helvetica,sans-Serif" font-size="10.00">imap_auth_cram_md5</text>
</a>
</g>
</g>
<!-- Node1&#45;&gt;Node10 -->
<g id="edge10" class="edge"><title>Node1&#45;&gt;Node10</title>
<path fill="none" stroke="midnightblue" d="M71.0535,-385.355C85.8696,-392.916 104.69,-402.037 122,-409 130.486,-412.414 139.841,-415.655 148.553,-418.462"/>
<polygon fill="midnightblue" stroke="midnightblue" points="72.442,-382.133 61.9515,-380.65 69.2277,-388.351 72.442,-382.133"/>
</g>
<!-- Node11 -->
<g id="node11" class="node"><title>Node11</title>
<g id="a_node11"><a xlink:href="auth__gss_8c.html#a013a06b2578393579585808f9763e83b" target="_top" xlink:title="GSS Authentication support. ">
<polygon fill="white" stroke="black" points="140.5,-380.5 140.5,-399.5 223.5,-399.5 223.5,-380.5 140.5,-380.5"/>
<text text-anchor="middle" x="182" y="-387.5" font-family="Helvetica,sans-Serif" font-size="10.00">imap_auth_gss</text>
</a>
</g>
</g>
<!-- Node1&#45;&gt;Node11 -->
<g id="edge11" class="edge"><title>Node1&#45;&gt;Node11</title>
<path fill="none" stroke="midnightblue" d="M96.5215,-378.284C110.963,-380.287 126.409,-382.429 140.091,-384.327"/>
<polygon fill="midnightblue" stroke="midnightblue" points="96.6084,-374.763 86.2224,-376.856 95.6468,-381.696 96.6084,-374.763"/>
</g>
<!-- Node12 -->
<g id="node12" class="node"><title>Node12</title>
<g id="a_node12"><a xlink:href="auth__plain_8c.html#a29a95145f0e0e5c19d2d8e085cff9aba" target="_top" xlink:title="SASL PLAIN support. ">
<polygon fill="white" stroke="black" points="138.5,-342.5 138.5,-361.5 225.5,-361.5 225.5,-342.5 138.5,-342.5"/>
<text text-anchor="middle" x="182" y="-349.5" font-family="Helvetica,sans-Serif" font-size="10.00">imap_auth_plain</text>
</a>
</g>
</g>
<!-- Node1&#45;&gt;Node12 -->
<g id="edge12" class="edge"><title>Node1&#45;&gt;Node12</title>
<path fill="none" stroke="midnightblue" d="M96.1358,-363.769C110.03,-361.843 124.879,-359.783 138.209,-357.935"/>
<polygon fill="midnightblue" stroke="midnightblue" points="95.6468,-360.304 86.2224,-365.144 96.6084,-367.237 95.6468,-360.304"/>
</g>
<!-- Node13 -->
<g id="node13" class="node"><title>Node13</title>
<g id="a_node13"><a xlink:href="auth__sasl_8c.html#a20df19153f0a84479482001b8f911099" target="_top" xlink:title="Default authenticator if available. ">
<polygon fill="white" stroke="black" points="139.5,-304.5 139.5,-323.5 224.5,-323.5 224.5,-304.5 139.5,-304.5"/>
<text text-anchor="middle" x="182" y="-311.5" font-family="Helvetica,sans-Serif" font-size="10.00">imap_auth_sasl</text>
</a>
</g>
</g>
<!-- Node1&#45;&gt;Node13 -->
<g id="edge13" class="edge"><title>Node1&#45;&gt;Node13</title>
<path fill="none" stroke="midnightblue" d="M71.0535,-356.645C85.8696,-349.084 104.69,-339.963 122,-333 130.486,-329.586 139.841,-326.345 148.553,-323.538"/>
<polygon fill="midnightblue" stroke="midnightblue" points="69.2277,-353.649 61.9515,-361.35 72.442,-359.867 69.2277,-353.649"/>
</g>
<!-- Node14 -->
<g id="node14" class="node"><title>Node14</title>
<g id="a_node14"><a xlink:href="browse_8c.html#a6bfd4825ca7b7eef1468f4bee6c27cab" target="_top" xlink:title="Add entries to the folder browser. ">
<polygon fill="white" stroke="black" points="124,-266.5 124,-285.5 240,-285.5 240,-266.5 124,-266.5"/>
<text text-anchor="middle" x="182" y="-273.5" font-family="Helvetica,sans-Serif" font-size="10.00">browse_add_list_result</text>
</a>
</g>
</g>
<!-- Node1&#45;&gt;Node14 -->
<g id="edge14" class="edge"><title>Node1&#45;&gt;Node14</title>
<path fill="none" stroke="midnightblue" d="M57.951,-353.292C72.3218,-336.147 96.207,-310.531 122,-295 128.269,-291.225 135.37,-288.115 142.42,-285.583"/>
<polygon fill="midnightblue" stroke="midnightblue" points="54.9553,-351.427 51.3436,-361.387 60.3783,-355.853 54.9553,-351.427"/>
</g>
<!-- Node15 -->
<g id="node15" class="node"><title>Node15</title>
<g id="a_node15"><a xlink:href="imap_8h.html#a3bd0d7473a0b702dfff8db25461f0caf" target="_top" xlink:title="IMAP hook into the folder browser. ">
<polygon fill="white" stroke="red" points="299,-247.5 299,-266.5 373,-266.5 373,-247.5 299,-247.5"/>
<text text-anchor="middle" x="336" y="-254.5" font-family="Helvetica,sans-Serif" font-size="10.00">imap_browse</text>
</a>
</g>
</g>
<!-- Node1&#45;&gt;Node15 -->
<g id="edge16" class="edge"><title>Node1&#45;&gt;Node15</title>
<path fill="none" stroke="midnightblue" d="M50.5833,-351.794C60.9709,-324.895 83.9872,-277.05 122,-257 178.258,-227.326 255.071,-237.527 299.422,-247.415"/>
<polygon fill="midnightblue" stroke="midnightblue" points="47.26,-350.691 47.1086,-361.285 53.8333,-353.098 47.26,-350.691"/>
</g>
<!-- Node16 -->
<g id="node16" class="node"><title>Node16</title>
<g id="a_node16"><a xlink:href="imap__private_8h.html#a367d8a660b66c39a998bead9cfca657b" target="_top" xlink:title="Gracefully log out of server. ">
<polygon fill="white" stroke="red" points="147.5,-190.5 147.5,-209.5 216.5,-209.5 216.5,-190.5 147.5,-190.5"/>
<text text-anchor="middle" x="182" y="-197.5" font-family="Helvetica,sans-Serif" font-size="10.00">imap_logout</text>
</a>
</g>
</g>
<!-- Node1&#45;&gt;Node16 -->
<g id="edge18" class="edge"><title>Node1&#45;&gt;Node16</title>
<path fill="none" stroke="midnightblue" d="M49.4923,-351.702C59.2239,-320.752 82.3018,-259.86 122,-224 129.221,-217.477 138.449,-212.603 147.452,-209.014"/>
<polygon fill="midnightblue" stroke="midnightblue" points="46.1309,-350.727 46.6013,-361.311 52.8341,-352.744 46.1309,-350.727"/>
</g>
<!-- Node17 -->
<g id="node17" class="node"><title>Node17</title>
<g id="a_node17"><a xlink:href="imap_8h.html#ae99223085d505fb8b323fa031b5ee0fa" target="_top" xlink:title="Try to complete an IMAP folder path. ">
<polygon fill="white" stroke="red" points="140.5,-152.5 140.5,-171.5 223.5,-171.5 223.5,-152.5 140.5,-152.5"/>
<text text-anchor="middle" x="182" y="-159.5" font-family="Helvetica,sans-Serif" font-size="10.00">imap_complete</text>
</a>
</g>
</g>
<!-- Node1&#45;&gt;Node17 -->
<g id="edge20" class="edge"><title>Node1&#45;&gt;Node17</title>
<path fill="none" stroke="midnightblue" d="M46.5857,-351.149C52.6336,-312.745 71.2512,-227.937 122,-181 127.214,-176.178 133.661,-172.579 140.359,-169.893"/>
<polygon fill="midnightblue" stroke="midnightblue" points="43.1164,-350.685 45.1433,-361.084 50.0438,-351.691 43.1164,-350.685"/>
</g>
<!-- Node18 -->
<g id="node18" class="node"><title>Node18</title>
<g id="a_node18"><a xlink:href="message_8c.html#a93d33f4cd62d2b6cbc835c3a4fc90d30" target="_top" xlink:title="import IMAP FETCH response into an ImapHeader ">
<polygon fill="white" stroke="black" points="133.5,-114.5 133.5,-133.5 230.5,-133.5 230.5,-114.5 133.5,-114.5"/>
<text text-anchor="middle" x="182" y="-121.5" font-family="Helvetica,sans-Serif" font-size="10.00">msg_fetch_header</text>
</a>
</g>
</g>
<!-- Node1&#45;&gt;Node18 -->
<g id="edge22" class="edge"><title>Node1&#45;&gt;Node18</title>
<path fill="none" stroke="midnightblue" d="M45.0345,-350.932C48.3883,-306.96 62.5422,-201.393 122,-143 125.916,-139.155 130.613,-136.087 135.625,-133.64"/>
<polygon fill="midnightblue" stroke="midnightblue" points="41.5253,-350.961 44.3695,-361.167 48.5106,-351.415 41.5253,-350.961"/>
</g>
<!-- Node19 -->
<g id="node19" class="node"><title>Node19</title>
<g id="a_node19"><a xlink:href="message_8c.html#a5dae54814b2746142369bbdef40b1b0f" target="_top" xlink:title="Read headers from the server. ">
<polygon fill="white" stroke="red" points="285.5,-114.5 285.5,-133.5 386.5,-133.5 386.5,-114.5 285.5,-114.5"/>
<text text-anchor="middle" x="336" y="-121.5" font-family="Helvetica,sans-Serif" font-size="10.00">imap_read_headers</text>
</a>
</g>
</g>
<!-- Node1&#45;&gt;Node19 -->
<g id="edge25" class="edge"><title>Node1&#45;&gt;Node19</title>
<path fill="none" stroke="midnightblue" d="M46.7289,-351.279C54.9695,-294.926 81.5473,-135.294 122,-105 180.542,-61.1593 275.118,-96.0436 315.602,-114.452"/>
<polygon fill="midnightblue" stroke="midnightblue" points="43.2354,-350.986 45.2882,-361.38 50.1653,-351.974 43.2354,-350.986"/>
</g>
<!-- Node20 -->
<g id="node20" class="node"><title>Node20</title>
<g id="a_node20"><a xlink:href="message_8c.html#ac66dd57350d26393d54331847edf4a19" target="_top" xlink:title="Implements MxOps::msg_open() ">
<polygon fill="white" stroke="black" points="138,-38.5 138,-57.5 226,-57.5 226,-38.5 138,-38.5"/>
<text text-anchor="middle" x="182" y="-45.5" font-family="Helvetica,sans-Serif" font-size="10.00">imap_msg_open</text>
</a>
</g>
</g>
<!-- Node1&#45;&gt;Node20 -->
<g id="edge26" class="edge"><title>Node1&#45;&gt;Node20</title>
<path fill="none" stroke="midnightblue" d="M43.4288,-351.046C43.0112,-298.611 49.0063,-155.255 122,-72 127.54,-65.6807 134.991,-60.9983 142.73,-57.5378"/>
<polygon fill="midnightblue" stroke="midnightblue" points="39.9339,-351.38 43.6073,-361.317 46.9329,-351.258 39.9339,-351.38"/>
</g>
<!-- Node21 -->
<g id="node21" class="node"><title>Node21</title>
<g id="a_node21"><a xlink:href="message_8c.html#a98f190c0228d94863c21dfd71e4022d1" target="_top" xlink:title="Write an email back to the server. ">
<polygon fill="white" stroke="red" points="122.5,-0.5 122.5,-19.5 241.5,-19.5 241.5,-0.5 122.5,-0.5"/>
<text text-anchor="middle" x="182" y="-7.5" font-family="Helvetica,sans-Serif" font-size="10.00">imap_append_message</text>
</a>
</g>
</g>
<!-- Node1&#45;&gt;Node21 -->
<g id="edge27" class="edge"><title>Node1&#45;&gt;Node21</title>
<path fill="none" stroke="midnightblue" d="M45.9497,-351.286C52.797,-285.853 77.7545,-77.2877 122,-29 125.562,-25.1123 129.922,-22.0168 134.644,-19.5526"/>
<polygon fill="midnightblue" stroke="midnightblue" points="42.445,-351.154 44.9119,-361.458 49.4089,-351.865 42.445,-351.154"/>
</g>
<!-- Node4&#45;&gt;Node5 -->
<g id="edge4" class="edge"><title>Node4&#45;&gt;Node5</title>
<path fill="none" stroke="midnightblue" d="M224.129,-628.282C246.795,-633.949 274.745,-640.936 296.911,-646.478"/>
<polygon fill="midnightblue" stroke="midnightblue" points="224.677,-624.811 214.126,-625.782 222.979,-631.602 224.677,-624.811"/>
</g>
<!-- Node4&#45;&gt;Node6 -->
<g id="edge5" class="edge"><title>Node4&#45;&gt;Node6</title>
<path fill="none" stroke="midnightblue" d="M224.084,-607.729C248.273,-601.682 278.491,-594.127 301.275,-588.431"/>
<polygon fill="midnightblue" stroke="midnightblue" points="222.979,-604.398 214.126,-610.218 224.677,-611.189 222.979,-604.398"/>
</g>
<!-- Node4&#45;&gt;Node7 -->
<g id="edge6" class="edge"><title>Node4&#45;&gt;Node7</title>
<path fill="none" stroke="midnightblue" d="M224.486,-623.084C268.955,-626.597 340.383,-626.524 394,-599 432.184,-579.399 460.159,-533.708 471.026,-513.689"/>
<polygon fill="midnightblue" stroke="midnightblue" points="224.604,-619.581 214.333,-622.182 223.984,-626.553 224.604,-619.581"/>
</g>
<!-- Node8&#45;&gt;Node6 -->
<g id="edge8" class="edge"><title>Node8&#45;&gt;Node6</title>
<path fill="none" stroke="midnightblue" d="M231.198,-554.05C254.015,-559.754 280.709,-566.427 301.313,-571.578"/>
<polygon fill="midnightblue" stroke="midnightblue" points="231.906,-550.619 221.356,-551.589 230.209,-557.41 231.906,-550.619"/>
</g>
<!-- Node14&#45;&gt;Node15 -->
<g id="edge15" class="edge"><title>Node14&#45;&gt;Node15</title>
<path fill="none" stroke="midnightblue" d="M250.327,-267.584C267.028,-265.497 284.294,-263.338 298.844,-261.519"/>
<polygon fill="midnightblue" stroke="midnightblue" points="249.52,-264.158 240.032,-268.871 250.389,-271.104 249.52,-264.158"/>
</g>
<!-- Node18&#45;&gt;Node19 -->
<g id="edge23" class="edge"><title>Node18&#45;&gt;Node19</title>
<path fill="none" stroke="midnightblue" d="M240.686,-124C255.412,-124 271.113,-124 285.394,-124"/>
<polygon fill="midnightblue" stroke="midnightblue" points="240.677,-120.5 230.677,-124 240.677,-127.5 240.677,-120.5"/>
</g>
<!-- Node19&#45;&gt;Node7 -->
<g id="edge24" class="edge"><title>Node19&#45;&gt;Node7</title>
<path fill="none" stroke="midnightblue" d="M347.431,-142.484C359.675,-164.68 380.074,-203.269 394,-238 433.027,-335.333 464.81,-458.783 473.588,-494.137"/>
<polygon fill="midnightblue" stroke="midnightblue" points="350.356,-140.543 342.431,-133.512 344.242,-143.951 350.356,-140.543"/>
</g>
</g>
</svg>
