<?xml version="1.0" encoding="UTF-8" standalone="no"?>
<!DOCTYPE svg PUBLIC "-//W3C//DTD SVG 1.1//EN"
 "http://www.w3.org/Graphics/SVG/1.1/DTD/svg11.dtd">
<!-- Generated by graphviz version 2.36.0 (20140111.2315)
 -->
<!-- Title: complete_hosts Pages: 1 -->
<svg width="250pt" height="256pt"
 viewBox="0.00 0.00 250.00 256.00" xmlns="http://www.w3.org/2000/svg" xmlns:xlink="http://www.w3.org/1999/xlink">
<g id="graph0" class="graph" transform="scale(1 1) rotate(0) translate(4 252)">
<title>complete_hosts</title>
<polygon fill="white" stroke="none" points="-4,4 -4,-252 246,-252 246,4 -4,4"/>
<!-- Node1 -->
<g id="node1" class="node"><title>Node1</title>
<polygon fill="#bfbfbf" stroke="black" points="0,-114.5 0,-133.5 86,-133.5 86,-114.5 0,-114.5"/>
<text text-anchor="middle" x="43" y="-121.5" font-family="Helvetica,sans-Serif" font-size="10.00">complete_hosts</text>
</g>
<!-- Node2 -->
<g id="node2" class="node"><title>Node2</title>
<g id="a_node2"><a xlink:href="mutt_2string_8c.html#aca11f88d08a860c07419df3efb18f35a" target="_top" xlink:title="Calculate the length of a string, safely. ">
<polygon fill="white" stroke="black" points="141,-228.5 141,-247.5 223,-247.5 223,-228.5 141,-228.5"/>
<text text-anchor="middle" x="182" y="-235.5" font-family="Helvetica,sans-Serif" font-size="10.00">mutt_str_strlen</text>
</a>
</g>
</g>
<!-- Node1&#45;&gt;Node2 -->
<g id="edge1" class="edge"><title>Node1&#45;&gt;Node2</title>
<path fill="none" stroke="midnightblue" d="M49.3152,-133.624C60.3472,-152.724 87.5954,-195.591 122,-219 124.936,-220.998 128.095,-222.796 131.372,-224.413"/>
<polygon fill="midnightblue" stroke="midnightblue" points="130.26,-227.746 140.827,-228.507 133.041,-221.322 130.26,-227.746"/>
</g>
<!-- Node3 -->
<g id="node3" class="node"><title>Node3</title>
<g id="a_node3"><a xlink:href="mutt_2string_8c.html#a0f37dc8085c127cb48df9b47a21236a6" target="_top" xlink:title="Compare two strings (to a maximum), safely. ">
<polygon fill="white" stroke="black" points="135.5,-190.5 135.5,-209.5 228.5,-209.5 228.5,-190.5 135.5,-190.5"/>
<text text-anchor="middle" x="182" y="-197.5" font-family="Helvetica,sans-Serif" font-size="10.00">mutt_str_strncmp</text>
</a>
</g>
</g>
<!-- Node1&#45;&gt;Node3 -->
<g id="edge2" class="edge"><title>Node1&#45;&gt;Node3</title>
<path fill="none" stroke="midnightblue" d="M54.6307,-133.506C69.0018,-145.93 95.8489,-167.673 122,-181 126.27,-183.176 130.839,-185.17 135.475,-186.979"/>
<polygon fill="midnightblue" stroke="midnightblue" points="134.415,-190.317 145.009,-190.433 136.799,-183.736 134.415,-190.317"/>
</g>
<!-- Node4 -->
<g id="node4" class="node"><title>Node4</title>
<g id="a_node4"><a xlink:href="mutt_2string_8c.html#a3b8965b21d6e21536750f8883cd4333a" target="_top" xlink:title="Copy a string into a buffer (guaranteeing NUL&#45;termination) ">
<polygon fill="white" stroke="black" points="138,-152.5 138,-171.5 226,-171.5 226,-152.5 138,-152.5"/>
<text text-anchor="middle" x="182" y="-159.5" font-family="Helvetica,sans-Serif" font-size="10.00">mutt_str_strfcpy</text>
</a>
</g>
</g>
<!-- Node1&#45;&gt;Node4 -->
<g id="edge3" class="edge"><title>Node1&#45;&gt;Node4</title>
<path fill="none" stroke="midnightblue" d="M78.5709,-133.589C96.1752,-138.472 117.779,-144.464 136.601,-149.685"/>
<polygon fill="midnightblue" stroke="midnightblue" points="135.868,-153.114 146.44,-152.414 137.739,-146.369 135.868,-153.114"/>
</g>
<!-- Node5 -->
<g id="node5" class="node"><title>Node5</title>
<g id="a_node5"><a xlink:href="imap_8c.html#a4dae2198b19fe4fbf2bfecb671c72f73" target="_top" xlink:title="Find longest prefix common to two strings. ">
<polygon fill="white" stroke="black" points="122,-114.5 122,-133.5 242,-133.5 242,-114.5 122,-114.5"/>
<text text-anchor="middle" x="182" y="-121.5" font-family="Helvetica,sans-Serif" font-size="10.00">longest_common_prefix</text>
</a>
</g>
</g>
<!-- Node1&#45;&gt;Node5 -->
<g id="edge4" class="edge"><title>Node1&#45;&gt;Node5</title>
<path fill="none" stroke="midnightblue" d="M86.2224,-124C94.3031,-124 102.959,-124 111.633,-124"/>
<polygon fill="midnightblue" stroke="midnightblue" points="111.791,-127.5 121.791,-124 111.791,-120.5 111.791,-127.5"/>
</g>
<!-- Node6 -->
<g id="node6" class="node"><title>Node6</title>
<g id="a_node6"><a xlink:href="socket_8c.html#ad5ecccfa77b2a38711422cbff3cf868a" target="_top" xlink:title="Get the first socket. ">
<polygon fill="white" stroke="black" points="133.5,-76.5 133.5,-95.5 230.5,-95.5 230.5,-76.5 133.5,-76.5"/>
<text text-anchor="middle" x="182" y="-83.5" font-family="Helvetica,sans-Serif" font-size="10.00">mutt_socket_head</text>
</a>
</g>
</g>
<!-- Node1&#45;&gt;Node6 -->
<g id="edge5" class="edge"><title>Node1&#45;&gt;Node6</title>
<path fill="none" stroke="midnightblue" d="M78.5709,-114.411C96.1752,-109.528 117.779,-103.536 136.601,-98.315"/>
<polygon fill="midnightblue" stroke="midnightblue" points="137.739,-101.631 146.44,-95.5859 135.868,-94.8862 137.739,-101.631"/>
</g>
<!-- Node7 -->
<g id="node7" class="node"><title>Node7</title>
<g id="a_node7"><a xlink:href="mutt__account_8c.html#a7853b8b5072b04320ad7a356a54c4e8e" target="_top" xlink:title="Fill URL with info from account. ">
<polygon fill="white" stroke="black" points="132,-38.5 132,-57.5 232,-57.5 232,-38.5 132,-38.5"/>
<text text-anchor="middle" x="182" y="-45.5" font-family="Helvetica,sans-Serif" font-size="10.00">mutt_account_tourl</text>
</a>
</g>
</g>
<!-- Node1&#45;&gt;Node7 -->
<g id="edge6" class="edge"><title>Node1&#45;&gt;Node7</title>
<path fill="none" stroke="midnightblue" d="M54.6307,-114.494C69.0018,-102.07 95.8489,-80.3271 122,-67 126.27,-64.8241 130.839,-62.8303 135.475,-61.0211"/>
<polygon fill="midnightblue" stroke="midnightblue" points="136.799,-64.2642 145.009,-57.5675 134.415,-57.6827 136.799,-64.2642"/>
</g>
<!-- Node8 -->
<g id="node8" class="node"><title>Node8</title>
<g id="a_node8"><a xlink:href="url_8c.html#a9a25aab1cc9763713277d2282c31af79" target="_top" xlink:title="Output the URL string for a given Url object. ">
<polygon fill="white" stroke="red" points="149.5,-0.5 149.5,-19.5 214.5,-19.5 214.5,-0.5 149.5,-0.5"/>
<text text-anchor="middle" x="182" y="-7.5" font-family="Helvetica,sans-Serif" font-size="10.00">url_tostring</text>
</a>
</g>
</g>
<!-- Node1&#45;&gt;Node8 -->
<g id="edge7" class="edge"><title>Node1&#45;&gt;Node8</title>
<path fill="none" stroke="midnightblue" d="M49.3152,-114.376C60.3472,-95.2762 87.5954,-52.4088 122,-29 127.372,-25.3452 133.491,-22.3575 139.707,-19.9256"/>
<polygon fill="midnightblue" stroke="midnightblue" points="141.158,-23.127 149.46,-16.5453 138.866,-16.5129 141.158,-23.127"/>
</g>
</g>
</svg>
