<?xml version="1.0" encoding="UTF-8" standalone="no"?>
<!DOCTYPE svg PUBLIC "-//W3C//DTD SVG 1.1//EN"
 "http://www.w3.org/Graphics/SVG/1.1/DTD/svg11.dtd">
<!-- Generated by graphviz version 2.36.0 (20140111.2315)
 -->
<!-- Title: imap_exec_msgset Pages: 1 -->
<svg width="382pt" height="256pt"
 viewBox="0.00 0.00 382.00 256.00" xmlns="http://www.w3.org/2000/svg" xmlns:xlink="http://www.w3.org/1999/xlink">
<g id="graph0" class="graph" transform="scale(1 1) rotate(0) translate(4 252)">
<title>imap_exec_msgset</title>
<polygon fill="white" stroke="none" points="-4,4 -4,-252 378,-252 378,4 -4,4"/>
<!-- Node1 -->
<g id="node1" class="node"><title>Node1</title>
<polygon fill="#bfbfbf" stroke="black" points="0.5,-114.5 0.5,-133.5 101.5,-133.5 101.5,-114.5 0.5,-114.5"/>
<text text-anchor="middle" x="51" y="-121.5" font-family="Helvetica,sans-Serif" font-size="10.00">imap_exec_msgset</text>
</g>
<!-- Node2 -->
<g id="node2" class="node"><title>Node2</title>
<g id="a_node2"><a xlink:href="buffer_8c.html#a8e45cf675c7eeedae5b614402f2e84b5" target="_top" xlink:title="Create and initialise a Buffer. ">
<polygon fill="white" stroke="red" points="144.5,-228.5 144.5,-247.5 233.5,-247.5 233.5,-228.5 144.5,-228.5"/>
<text text-anchor="middle" x="189" y="-235.5" font-family="Helvetica,sans-Serif" font-size="10.00">mutt_buffer_new</text>
</a>
</g>
</g>
<!-- Node1&#45;&gt;Node2 -->
<g id="edge1" class="edge"><title>Node1&#45;&gt;Node2</title>
<path fill="none" stroke="midnightblue" d="M59.3563,-133.771C73.1632,-151.589 104.593,-189.754 138,-214 142.992,-217.623 148.617,-220.936 154.245,-223.867"/>
<polygon fill="midnightblue" stroke="midnightblue" points="153.086,-227.195 163.609,-228.426 156.15,-220.901 153.086,-227.195"/>
</g>
<!-- Node3 -->
<g id="node3" class="node"><title>Node3</title>
<g id="a_node3"><a xlink:href="memory_8c.html#a264da4dc58e6dc8983285bd1f538f24d" target="_top" xlink:title="Allocate memory on the heap. ">
<polygon fill="white" stroke="red" points="276.5,-209.5 276.5,-228.5 373.5,-228.5 373.5,-209.5 276.5,-209.5"/>
<text text-anchor="middle" x="325" y="-216.5" font-family="Helvetica,sans-Serif" font-size="10.00">mutt_mem_malloc</text>
</a>
</g>
</g>
<!-- Node1&#45;&gt;Node3 -->
<g id="edge3" class="edge"><title>Node1&#45;&gt;Node3</title>
<path fill="none" stroke="midnightblue" d="M63.4159,-133.68C79.1534,-146.505 108.883,-168.915 138,-181 179.041,-198.035 228.444,-207.666 266.017,-212.968"/>
<polygon fill="midnightblue" stroke="midnightblue" points="265.906,-216.485 276.284,-214.351 266.841,-209.547 265.906,-216.485"/>
</g>
<!-- Node4 -->
<g id="node4" class="node"><title>Node4</title>
<g id="a_node4"><a xlink:href="sort_8c.html#a86d2a4de61fab225b10c9e9a7bae01db" target="_top" xlink:title="Get the sort function for a given sort id. ">
<polygon fill="white" stroke="red" points="138.5,-152.5 138.5,-171.5 239.5,-171.5 239.5,-152.5 138.5,-152.5"/>
<text text-anchor="middle" x="189" y="-159.5" font-family="Helvetica,sans-Serif" font-size="10.00">mutt_get_sort_func</text>
</a>
</g>
</g>
<!-- Node1&#45;&gt;Node4 -->
<g id="edge4" class="edge"><title>Node1&#45;&gt;Node4</title>
<path fill="none" stroke="midnightblue" d="M86.3185,-133.589C103.794,-138.472 125.241,-144.464 143.925,-149.685"/>
<polygon fill="midnightblue" stroke="midnightblue" points="143.119,-153.094 153.692,-152.414 145.003,-146.352 143.119,-153.094"/>
</g>
<!-- Node5 -->
<g id="node5" class="node"><title>Node5</title>
<g id="a_node5"><a xlink:href="buffer_8c.html#ad057ee239ae5bcfd72cab3749036ab02" target="_top" xlink:title="Format a string into a Buffer. ">
<polygon fill="white" stroke="red" points="278.5,-95.5 278.5,-114.5 371.5,-114.5 371.5,-95.5 278.5,-95.5"/>
<text text-anchor="middle" x="325" y="-102.5" font-family="Helvetica,sans-Serif" font-size="10.00">mutt_buffer_printf</text>
</a>
</g>
</g>
<!-- Node1&#45;&gt;Node5 -->
<g id="edge5" class="edge"><title>Node1&#45;&gt;Node5</title>
<path fill="none" stroke="midnightblue" d="M101.573,-120.537C148.638,-117.25 219.283,-112.315 268.278,-108.892"/>
<polygon fill="midnightblue" stroke="midnightblue" points="268.656,-112.375 278.388,-108.186 268.168,-105.392 268.656,-112.375"/>
</g>
<!-- Node6 -->
<g id="node6" class="node"><title>Node6</title>
<g id="a_node6"><a xlink:href="imap_8c.html#a8561318829d02cfa90752484a89f20c5" target="_top" xlink:title="Make a message set. ">
<polygon fill="white" stroke="black" points="147.5,-76.5 147.5,-95.5 230.5,-95.5 230.5,-76.5 147.5,-76.5"/>
<text text-anchor="middle" x="189" y="-83.5" font-family="Helvetica,sans-Serif" font-size="10.00">make_msg_set</text>
</a>
</g>
</g>
<!-- Node1&#45;&gt;Node6 -->
<g id="edge6" class="edge"><title>Node1&#45;&gt;Node6</title>
<path fill="none" stroke="midnightblue" d="M86.3185,-114.411C103.794,-109.528 125.241,-103.536 143.925,-98.315"/>
<polygon fill="midnightblue" stroke="midnightblue" points="145.003,-101.648 153.692,-95.5859 143.119,-94.9062 145.003,-101.648"/>
</g>
<!-- Node7 -->
<g id="node7" class="node"><title>Node7</title>
<g id="a_node7"><a xlink:href="imap_2command_8c.html#a97ce60ff4a8b54b3e2bc178e2969d3fc" target="_top" xlink:title="Execute a command and wait for the response from the server. ">
<polygon fill="white" stroke="red" points="157,-38.5 157,-57.5 221,-57.5 221,-38.5 157,-38.5"/>
<text text-anchor="middle" x="189" y="-45.5" font-family="Helvetica,sans-Serif" font-size="10.00">imap_exec</text>
</a>
</g>
</g>
<!-- Node1&#45;&gt;Node7 -->
<g id="edge8" class="edge"><title>Node1&#45;&gt;Node7</title>
<path fill="none" stroke="midnightblue" d="M64.5646,-114.373C80.8491,-102.207 110.432,-81.1509 138,-67 141.811,-65.044 145.871,-63.1761 149.968,-61.428"/>
<polygon fill="midnightblue" stroke="midnightblue" points="151.531,-64.5716 159.492,-57.5814 148.909,-58.0809 151.531,-64.5716"/>
</g>
<!-- Node8 -->
<g id="node8" class="node"><title>Node8</title>
<g id="a_node8"><a xlink:href="buffer_8c.html#a4fe44d6951505adb974135817a85a3d1" target="_top" xlink:title="Release a Buffer and its contents. ">
<polygon fill="white" stroke="black" points="145,-0.5 145,-19.5 233,-19.5 233,-0.5 145,-0.5"/>
<text text-anchor="middle" x="189" y="-7.5" font-family="Helvetica,sans-Serif" font-size="10.00">mutt_buffer_free</text>
</a>
</g>
</g>
<!-- Node1&#45;&gt;Node8 -->
<g id="edge9" class="edge"><title>Node1&#45;&gt;Node8</title>
<path fill="none" stroke="midnightblue" d="M58.4177,-114.265C71.3474,-95.3454 102.357,-53.3383 138,-29 140.722,-27.141 143.651,-25.4322 146.677,-23.8678"/>
<polygon fill="midnightblue" stroke="midnightblue" points="148.318,-26.9654 155.935,-19.6013 145.388,-20.608 148.318,-26.9654"/>
</g>
<!-- Node2&#45;&gt;Node3 -->
<g id="edge2" class="edge"><title>Node2&#45;&gt;Node3</title>
<path fill="none" stroke="midnightblue" d="M233.506,-231.831C243.921,-230.355 255.202,-228.755 266.152,-227.202"/>
<polygon fill="midnightblue" stroke="midnightblue" points="266.67,-230.664 276.08,-225.795 265.687,-223.733 266.67,-230.664"/>
</g>
<!-- Node6&#45;&gt;Node5 -->
<g id="edge7" class="edge"><title>Node6&#45;&gt;Node5</title>
<path fill="none" stroke="midnightblue" d="M230.568,-91.7522C242.481,-93.4414 255.722,-95.3188 268.402,-97.1167"/>
<polygon fill="midnightblue" stroke="midnightblue" points="268.022,-100.598 278.415,-98.5364 269.005,-93.6671 268.022,-100.598"/>
</g>
</g>
</svg>
