<?xml version="1.0" encoding="UTF-8" standalone="no"?>
<!DOCTYPE svg PUBLIC "-//W3C//DTD SVG 1.1//EN"
 "http://www.w3.org/Graphics/SVG/1.1/DTD/svg11.dtd">
<!-- Generated by graphviz version 2.36.0 (20140111.2315)
 -->
<!-- Title: imap_munge_mbox_name Pages: 1 -->
<svg width="446pt" height="446pt"
 viewBox="0.00 0.00 446.00 446.00" xmlns="http://www.w3.org/2000/svg" xmlns:xlink="http://www.w3.org/1999/xlink">
<g id="graph0" class="graph" transform="scale(1 1) rotate(0) translate(4 442)">
<title>imap_munge_mbox_name</title>
<polygon fill="white" stroke="none" points="-4,4 -4,-442 442,-442 442,4 -4,4"/>
<!-- Node1 -->
<g id="node1" class="node"><title>Node1</title>
<polygon fill="#bfbfbf" stroke="black" points="0.5,-209.5 0.5,-228.5 131.5,-228.5 131.5,-209.5 0.5,-209.5"/>
<text text-anchor="middle" x="66" y="-216.5" font-family="Helvetica,sans-Serif" font-size="10.00">imap_munge_mbox_name</text>
</g>
<!-- Node2 -->
<g id="node2" class="node"><title>Node2</title>
<g id="a_node2"><a xlink:href="imap_8h.html#a3bd0d7473a0b702dfff8db25461f0caf" target="_top" xlink:title="IMAP hook into the folder browser. ">
<polygon fill="white" stroke="red" points="191,-418.5 191,-437.5 265,-437.5 265,-418.5 191,-418.5"/>
<text text-anchor="middle" x="228" y="-425.5" font-family="Helvetica,sans-Serif" font-size="10.00">imap_browse</text>
</a>
</g>
</g>
<!-- Node1&#45;&gt;Node2 -->
<g id="edge1" class="edge"><title>Node1&#45;&gt;Node2</title>
<path fill="none" stroke="midnightblue" d="M71.9934,-238.392C82.8447,-276.677 112.203,-362.3 168,-409 174.519,-414.456 182.633,-418.354 190.737,-421.136"/>
<polygon fill="midnightblue" stroke="midnightblue" points="75.3114,-237.255 69.3133,-228.521 68.556,-239.089 75.3114,-237.255"/>
</g>
<!-- Node3 -->
<g id="node3" class="node"><title>Node3</title>
<g id="a_node3"><a xlink:href="imap_8h.html#ac9f5086daa8615bc5f01884b51053392" target="_top" xlink:title="Check permissions on an IMAP mailbox. ">
<polygon fill="white" stroke="red" points="191,-380.5 191,-399.5 265,-399.5 265,-380.5 191,-380.5"/>
<text text-anchor="middle" x="228" y="-387.5" font-family="Helvetica,sans-Serif" font-size="10.00">imap_access</text>
</a>
</g>
</g>
<!-- Node1&#45;&gt;Node3 -->
<g id="edge2" class="edge"><title>Node1&#45;&gt;Node3</title>
<path fill="none" stroke="midnightblue" d="M75.4658,-237.875C90.1523,-268.67 123.135,-329.899 168,-366 175.582,-372.1 184.922,-376.843 193.917,-380.44"/>
<polygon fill="midnightblue" stroke="midnightblue" points="78.5816,-236.275 71.1958,-228.679 72.2326,-239.223 78.5816,-236.275"/>
</g>
<!-- Node4 -->
<g id="node4" class="node"><title>Node4</title>
<g id="a_node4"><a xlink:href="imap__private_8h.html#a42afe3cc32d88a1ed0455ab3f094bd6b" target="_top" xlink:title="Create a new mailbox. ">
<polygon fill="white" stroke="red" points="173.5,-304.5 173.5,-323.5 282.5,-323.5 282.5,-304.5 173.5,-304.5"/>
<text text-anchor="middle" x="228" y="-311.5" font-family="Helvetica,sans-Serif" font-size="10.00">imap_create_mailbox</text>
</a>
</g>
</g>
<!-- Node1&#45;&gt;Node4 -->
<g id="edge3" class="edge"><title>Node1&#45;&gt;Node4</title>
<path fill="none" stroke="midnightblue" d="M86.8001,-234.959C106.552,-250.376 138.171,-273.723 168,-290 178.095,-295.509 189.725,-300.503 199.977,-304.491"/>
<polygon fill="midnightblue" stroke="midnightblue" points="88.8721,-232.135 78.8552,-228.684 84.5334,-237.629 88.8721,-232.135"/>
</g>
<!-- Node5 -->
<g id="node5" class="node"><title>Node5</title>
<g id="a_node5"><a xlink:href="imap_8h.html#ab8df632acf50bdb33e067b4cdbb2c99d" target="_top" xlink:title="Use server COPY command to copy deleted messages to trash. ">
<polygon fill="white" stroke="red" points="338,-332.5 338,-351.5 424,-351.5 424,-332.5 338,-332.5"/>
<text text-anchor="middle" x="381" y="-339.5" font-family="Helvetica,sans-Serif" font-size="10.00">imap_fast_trash</text>
</a>
</g>
</g>
<!-- Node1&#45;&gt;Node5 -->
<g id="edge12" class="edge"><title>Node1&#45;&gt;Node5</title>
<path fill="none" stroke="midnightblue" d="M76.851,-237.416C92.2614,-264.072 124.831,-312.46 168,-333 222.222,-358.799 293.343,-355.394 337.861,-349.514"/>
<polygon fill="midnightblue" stroke="midnightblue" points="79.8967,-235.691 71.9621,-228.67 73.7865,-239.107 79.8967,-235.691"/>
</g>
<!-- Node6 -->
<g id="node6" class="node"><title>Node6</title>
<g id="a_node6"><a xlink:href="message_8c.html#ac8b081db1e42feedcb823b54157fcd79" target="_top" xlink:title="Server COPY messages to another folder. ">
<polygon fill="white" stroke="red" points="324,-275.5 324,-294.5 438,-294.5 438,-275.5 324,-275.5"/>
<text text-anchor="middle" x="381" y="-282.5" font-family="Helvetica,sans-Serif" font-size="10.00">imap_copy_messages</text>
</a>
</g>
</g>
<!-- Node1&#45;&gt;Node6 -->
<g id="edge15" class="edge"><title>Node1&#45;&gt;Node6</title>
<path fill="none" stroke="midnightblue" d="M97.6027,-232.608C117.334,-240.854 143.748,-250.921 168,-257 220.036,-270.043 280.873,-277.282 323.997,-281.115"/>
<polygon fill="midnightblue" stroke="midnightblue" points="98.7887,-229.309 88.2167,-228.612 96.0469,-235.75 98.7887,-229.309"/>
</g>
<!-- Node7 -->
<g id="node7" class="node"><title>Node7</title>
<g id="a_node7"><a xlink:href="imap__private_8h.html#a51f640cbd9d4bb5836219952b9b792ee" target="_top" xlink:title="Rename a mailbox. ">
<polygon fill="white" stroke="red" points="171,-228.5 171,-247.5 285,-247.5 285,-228.5 171,-228.5"/>
<text text-anchor="middle" x="228" y="-235.5" font-family="Helvetica,sans-Serif" font-size="10.00">imap_rename_mailbox</text>
</a>
</g>
</g>
<!-- Node1&#45;&gt;Node7 -->
<g id="edge6" class="edge"><title>Node1&#45;&gt;Node7</title>
<path fill="none" stroke="midnightblue" d="M141.767,-227.879C151.567,-229.042 161.472,-230.219 170.891,-231.337"/>
<polygon fill="midnightblue" stroke="midnightblue" points="141.96,-224.377 131.617,-226.673 141.134,-231.328 141.96,-224.377"/>
</g>
<!-- Node8 -->
<g id="node8" class="node"><title>Node8</title>
<g id="a_node8"><a xlink:href="imap_8h.html#a3832831ded5ad344e2706a9bf933ad85" target="_top" xlink:title="Delete a mailbox. ">
<polygon fill="white" stroke="red" points="174,-190.5 174,-209.5 282,-209.5 282,-190.5 174,-190.5"/>
<text text-anchor="middle" x="228" y="-197.5" font-family="Helvetica,sans-Serif" font-size="10.00">imap_delete_mailbox</text>
</a>
</g>
</g>
<!-- Node1&#45;&gt;Node8 -->
<g id="edge7" class="edge"><title>Node1&#45;&gt;Node8</title>
<path fill="none" stroke="midnightblue" d="M141.581,-210.144C152.498,-208.847 163.55,-207.535 173.919,-206.303"/>
<polygon fill="midnightblue" stroke="midnightblue" points="141.134,-206.672 131.617,-211.327 141.96,-213.623 141.134,-206.672"/>
</g>
<!-- Node9 -->
<g id="node9" class="node"><title>Node9</title>
<g id="a_node9"><a xlink:href="imap_8h.html#a285b3e0efb50828eb5e894950ba9583a" target="_top" xlink:title="Check for new mail in subscribed folders. ">
<polygon fill="white" stroke="red" points="174,-152.5 174,-171.5 282,-171.5 282,-152.5 174,-152.5"/>
<text text-anchor="middle" x="228" y="-159.5" font-family="Helvetica,sans-Serif" font-size="10.00">imap_mailbox_check</text>
</a>
</g>
</g>
<!-- Node1&#45;&gt;Node9 -->
<g id="edge8" class="edge"><title>Node1&#45;&gt;Node9</title>
<path fill="none" stroke="midnightblue" d="M100.765,-205.83C120.319,-198.32 145.453,-188.867 168,-181 177.144,-177.809 187.151,-174.514 196.284,-171.582"/>
<polygon fill="midnightblue" stroke="midnightblue" points="99.4413,-202.589 91.3705,-209.453 101.96,-209.121 99.4413,-202.589"/>
</g>
<!-- Node10 -->
<g id="node10" class="node"><title>Node10</title>
<g id="a_node10"><a xlink:href="imap_8h.html#a7f3974819983cef00cbb041c82a21c1a" target="_top" xlink:title="Get the status of a mailbox. ">
<polygon fill="white" stroke="red" points="193,-114.5 193,-133.5 263,-133.5 263,-114.5 193,-114.5"/>
<text text-anchor="middle" x="228" y="-121.5" font-family="Helvetica,sans-Serif" font-size="10.00">imap_status</text>
</a>
</g>
</g>
<!-- Node1&#45;&gt;Node10 -->
<g id="edge9" class="edge"><title>Node1&#45;&gt;Node10</title>
<path fill="none" stroke="midnightblue" d="M85.0782,-202.41C104.368,-185.459 136.435,-159.365 168,-143 175.738,-138.988 184.486,-135.613 192.83,-132.873"/>
<polygon fill="midnightblue" stroke="midnightblue" points="82.5215,-200.001 77.3971,-209.274 87.1858,-205.221 82.5215,-200.001"/>
</g>
<!-- Node11 -->
<g id="node11" class="node"><title>Node11</title>
<g id="a_node11"><a xlink:href="imap_8c.html#a6aa69e15f9108427a470d8f679ebe0f3" target="_top" xlink:title="Implements MxOps::mbox_open() ">
<polygon fill="white" stroke="black" points="334.5,-95.5 334.5,-114.5 427.5,-114.5 427.5,-95.5 334.5,-95.5"/>
<text text-anchor="middle" x="381" y="-102.5" font-family="Helvetica,sans-Serif" font-size="10.00">imap_mbox_open</text>
</a>
</g>
</g>
<!-- Node1&#45;&gt;Node11 -->
<g id="edge13" class="edge"><title>Node1&#45;&gt;Node11</title>
<path fill="none" stroke="midnightblue" d="M76.7408,-200.346C92.0111,-173.387 124.405,-124.62 168,-105 223.211,-80.1522 295.004,-87.2377 339.271,-95.477"/>
<polygon fill="midnightblue" stroke="midnightblue" points="73.6277,-198.744 71.9006,-209.197 79.7694,-202.103 73.6277,-198.744"/>
</g>
<!-- Node12 -->
<g id="node12" class="node"><title>Node12</title>
<g id="a_node12"><a xlink:href="imap_8h.html#a36034876b5ce260ff6d70a435f8f36ca" target="_top" xlink:title="Subscribe to a mailbox. ">
<polygon fill="white" stroke="red" points="185.5,-38.5 185.5,-57.5 270.5,-57.5 270.5,-38.5 185.5,-38.5"/>
<text text-anchor="middle" x="228" y="-45.5" font-family="Helvetica,sans-Serif" font-size="10.00">imap_subscribe</text>
</a>
</g>
</g>
<!-- Node1&#45;&gt;Node12 -->
<g id="edge11" class="edge"><title>Node1&#45;&gt;Node12</title>
<path fill="none" stroke="midnightblue" d="M75.4658,-200.125C90.1523,-169.33 123.135,-108.101 168,-72 175.582,-65.8996 184.922,-61.1572 193.917,-57.5602"/>
<polygon fill="midnightblue" stroke="midnightblue" points="72.2326,-198.777 71.1958,-209.321 78.5816,-201.725 72.2326,-198.777"/>
</g>
<!-- Node13 -->
<g id="node13" class="node"><title>Node13</title>
<g id="a_node13"><a xlink:href="message_8c.html#a98f190c0228d94863c21dfd71e4022d1" target="_top" xlink:title="Write an email back to the server. ">
<polygon fill="white" stroke="red" points="168.5,-0.5 168.5,-19.5 287.5,-19.5 287.5,-0.5 168.5,-0.5"/>
<text text-anchor="middle" x="228" y="-7.5" font-family="Helvetica,sans-Serif" font-size="10.00">imap_append_message</text>
</a>
</g>
</g>
<!-- Node1&#45;&gt;Node13 -->
<g id="edge14" class="edge"><title>Node1&#45;&gt;Node13</title>
<path fill="none" stroke="midnightblue" d="M71.9934,-199.608C82.8447,-161.323 112.203,-75.7003 168,-29 172.621,-25.1322 178.044,-22.0474 183.696,-19.5881"/>
<polygon fill="midnightblue" stroke="midnightblue" points="68.556,-198.911 69.3133,-209.479 75.3114,-200.745 68.556,-198.911"/>
</g>
<!-- Node4&#45;&gt;Node5 -->
<g id="edge4" class="edge"><title>Node4&#45;&gt;Node5</title>
<path fill="none" stroke="midnightblue" d="M290.763,-325.453C306.543,-328.379 323.151,-331.459 337.704,-334.157"/>
<polygon fill="midnightblue" stroke="midnightblue" points="291.014,-321.94 280.543,-323.558 289.738,-328.822 291.014,-321.94"/>
</g>
<!-- Node4&#45;&gt;Node6 -->
<g id="edge5" class="edge"><title>Node4&#45;&gt;Node6</title>
<path fill="none" stroke="midnightblue" d="M288.762,-302.522C302.576,-299.869 317.126,-297.075 330.448,-294.517"/>
<polygon fill="midnightblue" stroke="midnightblue" points="288.022,-299.101 278.862,-304.424 289.342,-305.975 288.022,-299.101"/>
</g>
<!-- Node10&#45;&gt;Node11 -->
<g id="edge10" class="edge"><title>Node10&#45;&gt;Node11</title>
<path fill="none" stroke="midnightblue" d="M273.281,-118.428C292.517,-116.008 315.036,-113.174 334.417,-110.736"/>
<polygon fill="midnightblue" stroke="midnightblue" points="272.749,-114.967 263.264,-119.689 273.623,-121.913 272.749,-114.967"/>
</g>
</g>
</svg>
