<?xml version="1.0" encoding="UTF-8" standalone="no"?>
<!DOCTYPE svg PUBLIC "-//W3C//DTD SVG 1.1//EN"
 "http://www.w3.org/Graphics/SVG/1.1/DTD/svg11.dtd">
<!-- Generated by graphviz version 2.36.0 (20140111.2315)
 -->
<!-- Title: imap_rename_mailbox Pages: 1 -->
<svg width="290pt" height="66pt"
 viewBox="0.00 0.00 290.00 66.00" xmlns="http://www.w3.org/2000/svg" xmlns:xlink="http://www.w3.org/1999/xlink">
<g id="graph0" class="graph" transform="scale(1 1) rotate(0) translate(4 62)">
<title>imap_rename_mailbox</title>
<polygon fill="white" stroke="none" points="-4,4 -4,-62 286,-62 286,4 -4,4"/>
<!-- Node1 -->
<g id="node1" class="node"><title>Node1</title>
<polygon fill="#bfbfbf" stroke="black" points="0,-19.5 0,-38.5 114,-38.5 114,-19.5 0,-19.5"/>
<text text-anchor="middle" x="57" y="-26.5" font-family="Helvetica,sans-Serif" font-size="10.00">imap_rename_mailbox</text>
</g>
<!-- Node2 -->
<g id="node2" class="node"><title>Node2</title>
<g id="a_node2"><a xlink:href="imap__private_8h.html#aeb3843396cceab2a14f4368d93c71405" target="_top" xlink:title="Quote awkward characters in a mailbox name. ">
<polygon fill="white" stroke="red" points="150.5,-38.5 150.5,-57.5 281.5,-57.5 281.5,-38.5 150.5,-38.5"/>
<text text-anchor="middle" x="216" y="-45.5" font-family="Helvetica,sans-Serif" font-size="10.00">imap_munge_mbox_name</text>
</a>
</g>
</g>
<!-- Node1&#45;&gt;Node2 -->
<g id="edge1" class="edge"><title>Node1&#45;&gt;Node2</title>
<path fill="none" stroke="midnightblue" d="M114.237,-35.8058C122.648,-36.8237 131.431,-37.8865 140.153,-38.9421"/>
<polygon fill="midnightblue" stroke="midnightblue" points="139.991,-42.448 150.339,-40.1748 140.832,-35.4987 139.991,-42.448"/>
</g>
<!-- Node3 -->
<g id="node3" class="node"><title>Node3</title>
<g id="a_node3"><a xlink:href="imap_2command_8c.html#a97ce60ff4a8b54b3e2bc178e2969d3fc" target="_top" xlink:title="Execute a command and wait for the response from the server. ">
<polygon fill="white" stroke="red" points="184,-0.5 184,-19.5 248,-19.5 248,-0.5 184,-0.5"/>
<text text-anchor="middle" x="216" y="-7.5" font-family="Helvetica,sans-Serif" font-size="10.00">imap_exec</text>
</a>
</g>
</g>
<!-- Node1&#45;&gt;Node3 -->
<g id="edge2" class="edge"><title>Node1&#45;&gt;Node3</title>
<path fill="none" stroke="midnightblue" d="M114.237,-22.1942C133.893,-19.8155 155.58,-17.191 173.783,-14.9881"/>
<polygon fill="midnightblue" stroke="midnightblue" points="174.271,-18.4546 183.778,-13.7785 173.43,-11.5053 174.271,-18.4546"/>
</g>
</g>
</svg>
