<?xml version="1.0" encoding="UTF-8" standalone="no"?>
<!DOCTYPE svg PUBLIC "-//W3C//DTD SVG 1.1//EN"
 "http://www.w3.org/Graphics/SVG/1.1/DTD/svg11.dtd">
<!-- Generated by graphviz version 2.36.0 (20140111.2315)
 -->
<!-- Title: cmd_status Pages: 1 -->
<svg width="198pt" height="66pt"
 viewBox="0.00 0.00 198.00 66.00" xmlns="http://www.w3.org/2000/svg" xmlns:xlink="http://www.w3.org/1999/xlink">
<g id="graph0" class="graph" transform="scale(1 1) rotate(0) translate(4 62)">
<title>cmd_status</title>
<polygon fill="white" stroke="none" points="-4,4 -4,-62 194,-62 194,4 -4,4"/>
<!-- Node1 -->
<g id="node1" class="node"><title>Node1</title>
<polygon fill="#bfbfbf" stroke="black" points="0,-19.5 0,-38.5 68,-38.5 68,-19.5 0,-19.5"/>
<text text-anchor="middle" x="34" y="-26.5" font-family="Helvetica,sans-Serif" font-size="10.00">cmd_status</text>
</g>
<!-- Node2 -->
<g id="node2" class="node"><title>Node2</title>
<g id="a_node2"><a xlink:href="imap__private_8h.html#a4acab39c86f77ee378015e5013af0a0f" target="_top" xlink:title="Reads server responses from an IMAP command. ">
<polygon fill="white" stroke="red" points="104,-38.5 104,-57.5 190,-57.5 190,-38.5 104,-38.5"/>
<text text-anchor="middle" x="147" y="-45.5" font-family="Helvetica,sans-Serif" font-size="10.00">imap_cmd_step</text>
</a>
</g>
</g>
<!-- Node1&#45;&gt;Node2 -->
<g id="edge1" class="edge"><title>Node1&#45;&gt;Node2</title>
<path fill="none" stroke="midnightblue" d="M78.072,-36.3727C86.5385,-37.8219 95.4118,-39.3408 103.848,-40.7847"/>
<polygon fill="midnightblue" stroke="midnightblue" points="78.4503,-32.8866 68.0031,-34.6492 77.2692,-39.7863 78.4503,-32.8866"/>
</g>
<!-- Node3 -->
<g id="node3" class="node"><title>Node3</title>
<g id="a_node3"><a xlink:href="imap__private_8h.html#abf593435042f4db0db8d4594443b0c96" target="_top" xlink:title="Was the command successful. ">
<polygon fill="white" stroke="red" points="115,-0.5 115,-19.5 179,-19.5 179,-0.5 115,-0.5"/>
<text text-anchor="middle" x="147" y="-7.5" font-family="Helvetica,sans-Serif" font-size="10.00">imap_code</text>
</a>
</g>
</g>
<!-- Node1&#45;&gt;Node3 -->
<g id="edge2" class="edge"><title>Node1&#45;&gt;Node3</title>
<path fill="none" stroke="midnightblue" d="M78.0466,-21.6317C90.3096,-19.5326 103.428,-17.2871 114.836,-15.3344"/>
<polygon fill="midnightblue" stroke="midnightblue" points="77.2692,-18.2137 68.0031,-23.3508 78.4503,-25.1134 77.2692,-18.2137"/>
</g>
</g>
</svg>
