<?xml version="1.0" encoding="UTF-8" standalone="no"?>
<!DOCTYPE svg PUBLIC "-//W3C//DTD SVG 1.1//EN"
 "http://www.w3.org/Graphics/SVG/1.1/DTD/svg11.dtd">
<!-- Generated by graphviz version 2.36.0 (20140111.2315)
 -->
<!-- Title: cmd_queue_full Pages: 1 -->
<svg width="294pt" height="47pt"
 viewBox="0.00 0.00 294.00 47.00" xmlns="http://www.w3.org/2000/svg" xmlns:xlink="http://www.w3.org/1999/xlink">
<g id="graph0" class="graph" transform="scale(1 1) rotate(0) translate(4 43)">
<title>cmd_queue_full</title>
<polygon fill="white" stroke="none" points="-4,4 -4,-43 290,-43 290,4 -4,4"/>
<!-- Node1 -->
<g id="node1" class="node"><title>Node1</title>
<polygon fill="#bfbfbf" stroke="black" points="0.5,-0.5 0.5,-19.5 85.5,-19.5 85.5,-0.5 0.5,-0.5"/>
<text text-anchor="middle" x="43" y="-7.5" font-family="Helvetica,sans-Serif" font-size="10.00">cmd_queue_full</text>
</g>
<!-- Node2 -->
<g id="node2" class="node"><title>Node2</title>
<g id="a_node2"><a xlink:href="imap_2command_8c.html#a907454354e302f48aeb836e393a033ed" target="_top" xlink:title="Create and queue a new command control block. ">
<polygon fill="white" stroke="black" points="122.5,-19.5 122.5,-38.5 181.5,-38.5 181.5,-19.5 122.5,-19.5"/>
<text text-anchor="middle" x="152" y="-26.5" font-family="Helvetica,sans-Serif" font-size="10.00">cmd_new</text>
</a>
</g>
</g>
<!-- Node1&#45;&gt;Node2 -->
<g id="edge1" class="edge"><title>Node1&#45;&gt;Node2</title>
<path fill="none" stroke="midnightblue" d="M95.6291,-19.1678C104.877,-20.81 114.2,-22.4655 122.491,-23.9376"/>
<polygon fill="midnightblue" stroke="midnightblue" points="96.1333,-15.7026 85.6754,-17.4003 94.9094,-22.5948 96.1333,-15.7026"/>
</g>
<!-- Node3 -->
<g id="node3" class="node"><title>Node3</title>
<g id="a_node3"><a xlink:href="imap_2command_8c.html#a847a1a45045f08a2af8dc14c639e02cc" target="_top" xlink:title="Add a IMAP command to the queue. ">
<polygon fill="white" stroke="red" points="218.5,-0.5 218.5,-19.5 285.5,-19.5 285.5,-0.5 218.5,-0.5"/>
<text text-anchor="middle" x="252" y="-7.5" font-family="Helvetica,sans-Serif" font-size="10.00">cmd_queue</text>
</a>
</g>
</g>
<!-- Node1&#45;&gt;Node3 -->
<g id="edge3" class="edge"><title>Node1&#45;&gt;Node3</title>
<path fill="none" stroke="midnightblue" d="M96.3541,-10C134.724,-10 185.62,-10 218.347,-10"/>
<polygon fill="midnightblue" stroke="midnightblue" points="95.8896,-6.5001 85.8895,-10 95.8895,-13.5001 95.8896,-6.5001"/>
</g>
<!-- Node2&#45;&gt;Node3 -->
<g id="edge2" class="edge"><title>Node2&#45;&gt;Node3</title>
<path fill="none" stroke="midnightblue" d="M191.695,-21.4979C200.532,-19.7845 209.838,-17.9804 218.391,-16.3222"/>
<polygon fill="midnightblue" stroke="midnightblue" points="190.76,-18.1139 181.609,-23.4533 192.092,-24.9859 190.76,-18.1139"/>
</g>
</g>
</svg>
