<?xml version="1.0" encoding="UTF-8" standalone="no"?>
<!DOCTYPE svg PUBLIC "-//W3C//DTD SVG 1.1//EN"
 "http://www.w3.org/Graphics/SVG/1.1/DTD/svg11.dtd">
<!-- Generated by graphviz version 2.36.0 (20140111.2315)
 -->
<!-- Title: add_to_stailq Pages: 1 -->
<svg width="202pt" height="180pt"
 viewBox="0.00 0.00 202.00 180.00" xmlns="http://www.w3.org/2000/svg" xmlns:xlink="http://www.w3.org/1999/xlink">
<g id="graph0" class="graph" transform="scale(1 1) rotate(0) translate(4 176)">
<title>add_to_stailq</title>
<polygon fill="white" stroke="none" points="-4,4 -4,-176 198,-176 198,4 -4,4"/>
<!-- Node1 -->
<g id="node1" class="node"><title>Node1</title>
<polygon fill="#bfbfbf" stroke="black" points="0,-76.5 0,-95.5 74,-95.5 74,-76.5 0,-76.5"/>
<text text-anchor="middle" x="37" y="-83.5" font-family="Helvetica,sans-Serif" font-size="10.00">add_to_stailq</text>
</g>
<!-- Node2 -->
<g id="node2" class="node"><title>Node2</title>
<g id="a_node2"><a xlink:href="init_8c.html#a7370b7bf0898003df0388934a0c1927d" target="_top" xlink:title="Parse the &#39;ignore&#39; command &#45; Implements command_t. ">
<polygon fill="white" stroke="black" points="116,-152.5 116,-171.5 188,-171.5 188,-152.5 116,-152.5"/>
<text text-anchor="middle" x="152" y="-159.5" font-family="Helvetica,sans-Serif" font-size="10.00">parse_ignore</text>
</a>
</g>
</g>
<!-- Node1&#45;&gt;Node2 -->
<g id="edge1" class="edge"><title>Node1&#45;&gt;Node2</title>
<path fill="none" stroke="midnightblue" d="M56.5185,-102.671C70.5533,-114.793 90.6616,-131.096 110,-143 115.612,-146.455 121.955,-149.688 127.946,-152.473"/>
<polygon fill="midnightblue" stroke="midnightblue" points="58.4496,-99.7086 48.626,-95.7404 53.8309,-104.969 58.4496,-99.7086"/>
</g>
<!-- Node3 -->
<g id="node3" class="node"><title>Node3</title>
<g id="a_node3"><a xlink:href="init_8c.html#a97ee5f1b668dcb2b7ddccad3244d3bb0" target="_top" xlink:title="Parse the &#39;sidebar_whitelist&#39; command &#45; Implements command_t. ">
<polygon fill="white" stroke="black" points="110.5,-114.5 110.5,-133.5 193.5,-133.5 193.5,-114.5 110.5,-114.5"/>
<text text-anchor="middle" x="152" y="-121.5" font-family="Helvetica,sans-Serif" font-size="10.00">parse_path_list</text>
</a>
</g>
</g>
<!-- Node1&#45;&gt;Node3 -->
<g id="edge2" class="edge"><title>Node1&#45;&gt;Node3</title>
<path fill="none" stroke="midnightblue" d="M76.1402,-98.8259C91.3025,-103.925 108.444,-109.689 122.494,-114.414"/>
<polygon fill="midnightblue" stroke="midnightblue" points="77.1087,-95.4591 66.5147,-95.589 74.8775,-102.094 77.1087,-95.4591"/>
</g>
<!-- Node4 -->
<g id="node4" class="node"><title>Node4</title>
<g id="a_node4"><a xlink:href="init_8c.html#aa229270bbde09b3b5a563fa779660679" target="_top" xlink:title="Parse a list command &#45; Implements command_t. ">
<polygon fill="white" stroke="black" points="117.5,-76.5 117.5,-95.5 186.5,-95.5 186.5,-76.5 117.5,-76.5"/>
<text text-anchor="middle" x="152" y="-83.5" font-family="Helvetica,sans-Serif" font-size="10.00">parse_stailq</text>
</a>
</g>
</g>
<!-- Node1&#45;&gt;Node4 -->
<g id="edge3" class="edge"><title>Node1&#45;&gt;Node4</title>
<path fill="none" stroke="midnightblue" d="M84.3825,-86C95.3721,-86 106.89,-86 117.198,-86"/>
<polygon fill="midnightblue" stroke="midnightblue" points="84.0646,-82.5001 74.0646,-86 84.0646,-89.5001 84.0646,-82.5001"/>
</g>
<!-- Node5 -->
<g id="node5" class="node"><title>Node5</title>
<g id="a_node5"><a xlink:href="init_8c.html#ac83012168e1d1179bb3f9be7a4f877b2" target="_top" xlink:title="Parse the &#39;unignore&#39; command &#45; Implements command_t. ">
<polygon fill="white" stroke="black" points="110.5,-38.5 110.5,-57.5 193.5,-57.5 193.5,-38.5 110.5,-38.5"/>
<text text-anchor="middle" x="152" y="-45.5" font-family="Helvetica,sans-Serif" font-size="10.00">parse_unignore</text>
</a>
</g>
</g>
<!-- Node1&#45;&gt;Node5 -->
<g id="edge4" class="edge"><title>Node1&#45;&gt;Node5</title>
<path fill="none" stroke="midnightblue" d="M76.1402,-73.1741C91.3025,-68.0753 108.444,-62.3109 122.494,-57.5859"/>
<polygon fill="midnightblue" stroke="midnightblue" points="74.8775,-69.9061 66.5147,-76.411 77.1087,-76.5409 74.8775,-69.9061"/>
</g>
<!-- Node6 -->
<g id="node6" class="node"><title>Node6</title>
<g id="a_node6"><a xlink:href="mutt_8h.html#a81fd8c287cd99179a455c6809855953c" target="_top" xlink:title="Initialise NeoMutt. ">
<polygon fill="white" stroke="red" points="125,-0.5 125,-19.5 179,-19.5 179,-0.5 125,-0.5"/>
<text text-anchor="middle" x="152" y="-7.5" font-family="Helvetica,sans-Serif" font-size="10.00">mutt_init</text>
</a>
</g>
</g>
<!-- Node1&#45;&gt;Node6 -->
<g id="edge5" class="edge"><title>Node1&#45;&gt;Node6</title>
<path fill="none" stroke="midnightblue" d="M56.5185,-69.3292C70.5533,-57.2075 90.6616,-40.9043 110,-29 115.612,-25.5454 121.955,-22.3122 127.946,-19.5271"/>
<polygon fill="midnightblue" stroke="midnightblue" points="53.8309,-67.0314 48.626,-76.2596 58.4496,-72.2914 53.8309,-67.0314"/>
</g>
</g>
</svg>
