<?xml version="1.0" encoding="UTF-8" standalone="no"?>
<!DOCTYPE svg PUBLIC "-//W3C//DTD SVG 1.1//EN"
 "http://www.w3.org/Graphics/SVG/1.1/DTD/svg11.dtd">
<!-- Generated by graphviz version 2.36.0 (20140111.2315)
 -->
<!-- Title: parse_unsubjectrx_list Pages: 1 -->
<svg width="264pt" height="66pt"
 viewBox="0.00 0.00 264.00 66.00" xmlns="http://www.w3.org/2000/svg" xmlns:xlink="http://www.w3.org/1999/xlink">
<g id="graph0" class="graph" transform="scale(1 1) rotate(0) translate(4 62)">
<title>parse_unsubjectrx_list</title>
<polygon fill="white" stroke="none" points="-4,4 -4,-62 260,-62 260,4 -4,4"/>
<!-- Node1 -->
<g id="node1" class="node"><title>Node1</title>
<polygon fill="#bfbfbf" stroke="black" points="0,-19.5 0,-38.5 114,-38.5 114,-19.5 0,-19.5"/>
<text text-anchor="middle" x="57" y="-26.5" font-family="Helvetica,sans-Serif" font-size="10.00">parse_unsubjectrx_list</text>
</g>
<!-- Node2 -->
<g id="node2" class="node"><title>Node2</title>
<g id="a_node2"><a xlink:href="init_8c.html#a073d6f0ed00f2db2be8818c9c53819a9" target="_top" xlink:title="Remove a string replacement rule &#45; Implements command_t. ">
<polygon fill="white" stroke="red" points="150,-38.5 150,-57.5 256,-57.5 256,-38.5 150,-38.5"/>
<text text-anchor="middle" x="203" y="-45.5" font-family="Helvetica,sans-Serif" font-size="10.00">parse_unreplace_list</text>
</a>
</g>
</g>
<!-- Node1&#45;&gt;Node2 -->
<g id="edge1" class="edge"><title>Node1&#45;&gt;Node2</title>
<path fill="none" stroke="midnightblue" d="M114.086,-36.4003C122.396,-37.4966 131.002,-38.6323 139.434,-39.7447"/>
<polygon fill="midnightblue" stroke="midnightblue" points="139.227,-43.2477 149.599,-41.086 140.143,-36.3079 139.227,-43.2477"/>
</g>
<!-- Node3 -->
<g id="node3" class="node"><title>Node3</title>
<g id="a_node3"><a xlink:href="init_8c.html#a83a9d372ad20b86539f34b8b7b2c87a1" target="_top" xlink:title="Clear out all modified email subjects. ">
<polygon fill="white" stroke="black" points="151,-0.5 151,-19.5 255,-19.5 255,-0.5 151,-0.5"/>
<text text-anchor="middle" x="203" y="-7.5" font-family="Helvetica,sans-Serif" font-size="10.00">clear_subject_mods</text>
</a>
</g>
</g>
<!-- Node1&#45;&gt;Node3 -->
<g id="edge2" class="edge"><title>Node1&#45;&gt;Node3</title>
<path fill="none" stroke="midnightblue" d="M114.086,-21.5997C122.923,-20.4338 132.095,-19.2236 141.035,-18.044"/>
<polygon fill="midnightblue" stroke="midnightblue" points="141.544,-21.5073 151,-16.7292 140.628,-14.5675 141.544,-21.5073"/>
</g>
</g>
</svg>
