<?xml version="1.0" encoding="UTF-8" standalone="no"?>
<!DOCTYPE svg PUBLIC "-//W3C//DTD SVG 1.1//EN"
 "http://www.w3.org/Graphics/SVG/1.1/DTD/svg11.dtd">
<!-- Generated by graphviz version 2.36.0 (20140111.2315)
 -->
<!-- Title: reply_validator Pages: 1 -->
<svg width="338pt" height="47pt"
 viewBox="0.00 0.00 338.00 47.00" xmlns="http://www.w3.org/2000/svg" xmlns:xlink="http://www.w3.org/1999/xlink">
<g id="graph0" class="graph" transform="scale(1 1) rotate(0) translate(4 43)">
<title>reply_validator</title>
<polygon fill="white" stroke="none" points="-4,4 -4,-43 334,-43 334,4 -4,4"/>
<!-- Node1 -->
<g id="node1" class="node"><title>Node1</title>
<polygon fill="#bfbfbf" stroke="black" points="0,-0.5 0,-19.5 80,-19.5 80,-0.5 0,-0.5"/>
<text text-anchor="middle" x="40" y="-7.5" font-family="Helvetica,sans-Serif" font-size="10.00">reply_validator</text>
</g>
<!-- Node2 -->
<g id="node2" class="node"><title>Node2</title>
<g id="a_node2"><a xlink:href="init_8c.html#a015d25eea10195c886816e39503ca183" target="_top" xlink:title="Check for config variables that can&#39;t be set from the pager &#45; Implements cs_validator. ">
<polygon fill="white" stroke="black" points="116.5,-19.5 116.5,-38.5 199.5,-38.5 199.5,-19.5 116.5,-19.5"/>
<text text-anchor="middle" x="158" y="-26.5" font-family="Helvetica,sans-Serif" font-size="10.00">pager_validator</text>
</a>
</g>
</g>
<!-- Node1&#45;&gt;Node2 -->
<g id="edge1" class="edge"><title>Node1&#45;&gt;Node2</title>
<path fill="none" stroke="midnightblue" d="M80.2723,-16.4325C88.5868,-17.7944 97.4766,-19.2505 106.15,-20.6711"/>
<polygon fill="midnightblue" stroke="midnightblue" points="105.75,-24.1522 116.184,-22.3147 106.882,-17.2442 105.75,-24.1522"/>
</g>
<!-- Node3 -->
<g id="node3" class="node"><title>Node3</title>
<g id="a_node3"><a xlink:href="buffer_8c.html#ad057ee239ae5bcfd72cab3749036ab02" target="_top" xlink:title="Format a string into a Buffer. ">
<polygon fill="white" stroke="red" points="236.5,-0.5 236.5,-19.5 329.5,-19.5 329.5,-0.5 236.5,-0.5"/>
<text text-anchor="middle" x="283" y="-7.5" font-family="Helvetica,sans-Serif" font-size="10.00">mutt_buffer_printf</text>
</a>
</g>
</g>
<!-- Node1&#45;&gt;Node3 -->
<g id="edge3" class="edge"><title>Node1&#45;&gt;Node3</title>
<path fill="none" stroke="midnightblue" d="M80.2572,-10C119.854,-10 181.359,-10 226.053,-10"/>
<polygon fill="midnightblue" stroke="midnightblue" points="226.174,-13.5001 236.174,-10 226.173,-6.5001 226.174,-13.5001"/>
</g>
<!-- Node2&#45;&gt;Node3 -->
<g id="edge2" class="edge"><title>Node2&#45;&gt;Node3</title>
<path fill="none" stroke="midnightblue" d="M199.616,-22.726C208.157,-21.4066 217.308,-19.993 226.293,-18.6052"/>
<polygon fill="midnightblue" stroke="midnightblue" points="226.977,-22.0412 236.325,-17.0555 225.908,-15.1232 226.977,-22.0412"/>
</g>
</g>
</svg>
