<?xml version="1.0" encoding="UTF-8" standalone="no"?>
<!DOCTYPE svg PUBLIC "-//W3C//DTD SVG 1.1//EN"
 "http://www.w3.org/Graphics/SVG/1.1/DTD/svg11.dtd">
<!-- Generated by graphviz version 2.36.0 (20140111.2315)
 -->
<!-- Title: mutt_parse_rc_line Pages: 1 -->
<svg width="366pt" height="179pt"
 viewBox="0.00 0.00 366.00 178.52" xmlns="http://www.w3.org/2000/svg" xmlns:xlink="http://www.w3.org/1999/xlink">
<g id="graph0" class="graph" transform="scale(1 1) rotate(0) translate(4 174.525)">
<title>mutt_parse_rc_line</title>
<polygon fill="white" stroke="none" points="-4,4 -4,-174.525 362,-174.525 362,4 -4,4"/>
<!-- Node1 -->
<g id="node1" class="node"><title>Node1</title>
<polygon fill="#bfbfbf" stroke="black" points="0.5,-76.5 0.5,-95.5 99.5,-95.5 99.5,-76.5 0.5,-76.5"/>
<text text-anchor="middle" x="50" y="-83.5" font-family="Helvetica,sans-Serif" font-size="10.00">mutt_parse_rc_line</text>
</g>
<!-- Node2 -->
<g id="node2" class="node"><title>Node2</title>
<g id="a_node2"><a xlink:href="buffer_8c.html#ab31dc6030636f826c60c65d143cb249d" target="_top" xlink:title="Initialise a new Buffer. ">
<polygon fill="white" stroke="black" points="274,-133.5 274,-152.5 358,-152.5 358,-133.5 274,-133.5"/>
<text text-anchor="middle" x="316" y="-140.5" font-family="Helvetica,sans-Serif" font-size="10.00">mutt_buffer_init</text>
</a>
</g>
</g>
<!-- Node1&#45;&gt;Node2 -->
<g id="edge1" class="edge"><title>Node1&#45;&gt;Node2</title>
<path fill="none" stroke="midnightblue" d="M58.0618,-95.7477C71.1441,-112.868 101.024,-147.776 136,-161 183.399,-178.922 242.617,-166.897 279.633,-155.685"/>
<polygon fill="midnightblue" stroke="midnightblue" points="280.982,-158.929 289.457,-152.57 278.866,-152.257 280.982,-158.929"/>
</g>
<!-- Node3 -->
<g id="node3" class="node"><title>Node3</title>
<g id="a_node3"><a xlink:href="mutt_2string_8c.html#aca11f88d08a860c07419df3efb18f35a" target="_top" xlink:title="Calculate the length of a string, safely. ">
<polygon fill="white" stroke="black" points="275,-86.5 275,-105.5 357,-105.5 357,-86.5 275,-86.5"/>
<text text-anchor="middle" x="316" y="-93.5" font-family="Helvetica,sans-Serif" font-size="10.00">mutt_str_strlen</text>
</a>
</g>
</g>
<!-- Node1&#45;&gt;Node3 -->
<g id="edge2" class="edge"><title>Node1&#45;&gt;Node3</title>
<path fill="none" stroke="midnightblue" d="M99.7293,-87.8458C146.644,-89.6229 217.28,-92.2985 264.712,-94.0951"/>
<polygon fill="midnightblue" stroke="midnightblue" points="264.634,-97.5946 274.759,-94.4757 264.899,-90.5996 264.634,-97.5946"/>
</g>
<!-- Node4 -->
<g id="node4" class="node"><title>Node4</title>
<g id="a_node4"><a xlink:href="init_8c.html#a382f7640ccb9d1b02550b77cb91341cd" target="_top" xlink:title="Extract one token from a string. ">
<polygon fill="white" stroke="red" points="136.5,-114.5 136.5,-133.5 237.5,-133.5 237.5,-114.5 136.5,-114.5"/>
<text text-anchor="middle" x="187" y="-121.5" font-family="Helvetica,sans-Serif" font-size="10.00">mutt_extract_token</text>
</a>
</g>
</g>
<!-- Node1&#45;&gt;Node4 -->
<g id="edge3" class="edge"><title>Node1&#45;&gt;Node4</title>
<path fill="none" stroke="midnightblue" d="M85.0662,-95.589C102.413,-100.472 123.702,-106.464 142.249,-111.685"/>
<polygon fill="midnightblue" stroke="midnightblue" points="141.37,-115.074 151.945,-114.414 143.267,-108.335 141.37,-115.074"/>
</g>
<!-- Node5 -->
<g id="node5" class="node"><title>Node5</title>
<g id="a_node5"><a xlink:href="mutt_2string_8c.html#ab4aaf8bd2ce3982651f0f949d6c665e2" target="_top" xlink:title="Compare two strings, safely. ">
<polygon fill="white" stroke="black" points="143,-38.5 143,-57.5 231,-57.5 231,-38.5 143,-38.5"/>
<text text-anchor="middle" x="187" y="-45.5" font-family="Helvetica,sans-Serif" font-size="10.00">mutt_str_strcmp</text>
</a>
</g>
</g>
<!-- Node1&#45;&gt;Node5 -->
<g id="edge7" class="edge"><title>Node1&#45;&gt;Node5</title>
<path fill="none" stroke="midnightblue" d="M85.0662,-76.411C102.413,-71.5281 123.702,-65.5357 142.249,-60.315"/>
<polygon fill="midnightblue" stroke="midnightblue" points="143.267,-63.6646 151.945,-57.5859 141.37,-56.9265 143.267,-63.6646"/>
</g>
<!-- Node6 -->
<g id="node6" class="node"><title>Node6</title>
<g id="a_node6"><a xlink:href="buffer_8c.html#ad057ee239ae5bcfd72cab3749036ab02" target="_top" xlink:title="Format a string into a Buffer. ">
<polygon fill="white" stroke="red" points="140.5,-0.5 140.5,-19.5 233.5,-19.5 233.5,-0.5 140.5,-0.5"/>
<text text-anchor="middle" x="187" y="-7.5" font-family="Helvetica,sans-Serif" font-size="10.00">mutt_buffer_printf</text>
</a>
</g>
</g>
<!-- Node1&#45;&gt;Node6 -->
<g id="edge8" class="edge"><title>Node1&#45;&gt;Node6</title>
<path fill="none" stroke="midnightblue" d="M63.3995,-76.3599C79.4745,-64.1806 108.692,-43.1105 136,-29 139.805,-27.0338 143.862,-25.1593 147.957,-23.4073"/>
<polygon fill="midnightblue" stroke="midnightblue" points="149.521,-26.5503 157.479,-19.5561 146.896,-20.0609 149.521,-26.5503"/>
</g>
<!-- Node4&#45;&gt;Node2 -->
<g id="edge4" class="edge"><title>Node4&#45;&gt;Node2</title>
<path fill="none" stroke="midnightblue" d="M237.829,-131.455C246.42,-132.74 255.362,-134.078 263.983,-135.368"/>
<polygon fill="midnightblue" stroke="midnightblue" points="263.51,-138.836 273.917,-136.854 264.545,-131.913 263.51,-138.836"/>
</g>
<!-- Node4&#45;&gt;Node3 -->
<g id="edge6" class="edge"><title>Node4&#45;&gt;Node3</title>
<path fill="none" stroke="midnightblue" d="M231.351,-114.442C242.134,-112.065 253.782,-109.497 264.861,-107.054"/>
<polygon fill="midnightblue" stroke="midnightblue" points="265.824,-110.426 274.835,-104.855 264.316,-103.59 265.824,-110.426"/>
</g>
<!-- Node4&#45;&gt;Node4 -->
<g id="edge5" class="edge"><title>Node4&#45;&gt;Node4</title>
<path fill="none" stroke="midnightblue" d="M167.271,-133.757C157.674,-142.565 164.25,-152 187,-152 201.574,-152 209.511,-148.128 210.809,-143.029"/>
<polygon fill="midnightblue" stroke="midnightblue" points="213.96,-141.5 206.729,-133.757 207.553,-144.32 213.96,-141.5"/>
</g>
</g>
</svg>
