<?xml version="1.0" encoding="UTF-8" standalone="no"?>
<!DOCTYPE svg PUBLIC "-//W3C//DTD SVG 1.1//EN"
 "http://www.w3.org/Graphics/SVG/1.1/DTD/svg11.dtd">
<!-- Generated by graphviz version 2.36.0 (20140111.2315)
 -->
<!-- Title: mutt_query_variables Pages: 1 -->
<svg width="260pt" height="332pt"
 viewBox="0.00 0.00 260.00 332.00" xmlns="http://www.w3.org/2000/svg" xmlns:xlink="http://www.w3.org/1999/xlink">
<g id="graph0" class="graph" transform="scale(1 1) rotate(0) translate(4 328)">
<title>mutt_query_variables</title>
<polygon fill="white" stroke="none" points="-4,4 -4,-328 256,-328 256,4 -4,4"/>
<!-- Node1 -->
<g id="node1" class="node"><title>Node1</title>
<polygon fill="#bfbfbf" stroke="black" points="0,-152.5 0,-171.5 110,-171.5 110,-152.5 0,-152.5"/>
<text text-anchor="middle" x="55" y="-159.5" font-family="Helvetica,sans-Serif" font-size="10.00">mutt_query_variables</text>
</g>
<!-- Node2 -->
<g id="node2" class="node"><title>Node2</title>
<g id="a_node2"><a xlink:href="buffer_8c.html#a5928463d232a1bec2803510cb2798e2f" target="_top" xlink:title="Create a new Buffer. ">
<polygon fill="white" stroke="red" points="153,-304.5 153,-323.5 245,-323.5 245,-304.5 153,-304.5"/>
<text text-anchor="middle" x="199" y="-311.5" font-family="Helvetica,sans-Serif" font-size="10.00">mutt_buffer_alloc</text>
</a>
</g>
</g>
<!-- Node1&#45;&gt;Node2 -->
<g id="edge1" class="edge"><title>Node1&#45;&gt;Node2</title>
<path fill="none" stroke="midnightblue" d="M59.9296,-171.543C70.3408,-195.696 100.957,-259.818 146,-295 148.308,-296.803 150.803,-298.445 153.408,-299.941"/>
<polygon fill="midnightblue" stroke="midnightblue" points="152.062,-303.179 162.577,-304.475 155.165,-296.905 152.062,-303.179"/>
</g>
<!-- Node3 -->
<g id="node3" class="node"><title>Node3</title>
<g id="a_node3"><a xlink:href="buffer_8c.html#a8da54c4ec8e1a4e21158f134441bdf2d" target="_top" xlink:title="Reset an existing Buffer. ">
<polygon fill="white" stroke="black" points="152.5,-266.5 152.5,-285.5 245.5,-285.5 245.5,-266.5 152.5,-266.5"/>
<text text-anchor="middle" x="199" y="-273.5" font-family="Helvetica,sans-Serif" font-size="10.00">mutt_buffer_reset</text>
</a>
</g>
</g>
<!-- Node1&#45;&gt;Node3 -->
<g id="edge2" class="edge"><title>Node1&#45;&gt;Node3</title>
<path fill="none" stroke="midnightblue" d="M62.7983,-171.758C76.4732,-190.719 109.166,-232.795 146,-257 148.941,-258.932 152.104,-260.701 155.365,-262.312"/>
<polygon fill="midnightblue" stroke="midnightblue" points="154.154,-265.604 164.716,-266.445 156.984,-259.201 154.154,-265.604"/>
</g>
<!-- Node4 -->
<g id="node4" class="node"><title>Node4</title>
<g id="a_node4"><a xlink:href="config_2set_8c.html#a6a48e8c12db6f64a6da6b219c3d987d9" target="_top" xlink:title="Get the HashElem representing a config item. ">
<polygon fill="white" stroke="red" points="163,-228.5 163,-247.5 235,-247.5 235,-228.5 163,-228.5"/>
<text text-anchor="middle" x="199" y="-235.5" font-family="Helvetica,sans-Serif" font-size="10.00">cs_get_elem</text>
</a>
</g>
</g>
<!-- Node1&#45;&gt;Node4 -->
<g id="edge3" class="edge"><title>Node1&#45;&gt;Node4</title>
<path fill="none" stroke="midnightblue" d="M69.1944,-171.634C86.2842,-183.806 117.293,-204.869 146,-219 150.088,-221.012 154.445,-222.931 158.832,-224.722"/>
<polygon fill="midnightblue" stroke="midnightblue" points="157.799,-228.075 168.388,-228.424 160.327,-221.548 157.799,-228.075"/>
</g>
<!-- Node5 -->
<g id="node5" class="node"><title>Node5</title>
<g id="a_node5"><a xlink:href="config_2set_8c.html#aae8bc50e36b926998d926687f97c8b48" target="_top" xlink:title="Get a config item as a string. ">
<polygon fill="white" stroke="red" points="153.5,-190.5 153.5,-209.5 244.5,-209.5 244.5,-190.5 153.5,-190.5"/>
<text text-anchor="middle" x="199" y="-197.5" font-family="Helvetica,sans-Serif" font-size="10.00">cs_he_string_get</text>
</a>
</g>
</g>
<!-- Node1&#45;&gt;Node5 -->
<g id="edge4" class="edge"><title>Node1&#45;&gt;Node5</title>
<path fill="none" stroke="midnightblue" d="M91.8326,-171.589C110.163,-176.494 132.678,-182.52 152.25,-187.757"/>
<polygon fill="midnightblue" stroke="midnightblue" points="151.614,-191.21 162.179,-190.414 153.424,-184.448 151.614,-191.21"/>
</g>
<!-- Node6 -->
<g id="node6" class="node"><title>Node6</title>
<g id="a_node6"><a xlink:href="dump_8c.html#abfd32209fdb0af78b7c00c3917440d1b" target="_top" xlink:title="Shorten a mailbox path using &#39;~&#39; or &#39;=&#39;. ">
<polygon fill="white" stroke="black" points="146.5,-152.5 146.5,-171.5 251.5,-171.5 251.5,-152.5 146.5,-152.5"/>
<text text-anchor="middle" x="199" y="-159.5" font-family="Helvetica,sans-Serif" font-size="10.00">mutt_pretty_mailbox</text>
</a>
</g>
</g>
<!-- Node1&#45;&gt;Node6 -->
<g id="edge5" class="edge"><title>Node1&#45;&gt;Node6</title>
<path fill="none" stroke="midnightblue" d="M110.089,-162C118.652,-162 127.563,-162 136.284,-162"/>
<polygon fill="midnightblue" stroke="midnightblue" points="136.402,-165.5 146.402,-162 136.402,-158.5 136.402,-165.5"/>
</g>
<!-- Node7 -->
<g id="node7" class="node"><title>Node7</title>
<g id="a_node7"><a xlink:href="dump_8c.html#a276cdae2ea9e186548c4a6f247cc0e58" target="_top" xlink:title="Escape and stringify a config item value. ">
<polygon fill="white" stroke="red" points="169,-114.5 169,-133.5 229,-133.5 229,-114.5 169,-114.5"/>
<text text-anchor="middle" x="199" y="-121.5" font-family="Helvetica,sans-Serif" font-size="10.00">pretty_var</text>
</a>
</g>
</g>
<!-- Node1&#45;&gt;Node7 -->
<g id="edge6" class="edge"><title>Node1&#45;&gt;Node7</title>
<path fill="none" stroke="midnightblue" d="M91.8326,-152.411C112.309,-146.931 138.005,-140.055 158.989,-134.44"/>
<polygon fill="midnightblue" stroke="midnightblue" points="160.113,-137.762 168.868,-131.796 158.303,-131 160.113,-137.762"/>
</g>
<!-- Node8 -->
<g id="node8" class="node"><title>Node8</title>
<g id="a_node8"><a xlink:href="mutt_2string_8c.html#a3b8965b21d6e21536750f8883cd4333a" target="_top" xlink:title="Copy a string into a buffer (guaranteeing NUL&#45;termination) ">
<polygon fill="white" stroke="black" points="155,-76.5 155,-95.5 243,-95.5 243,-76.5 155,-76.5"/>
<text text-anchor="middle" x="199" y="-83.5" font-family="Helvetica,sans-Serif" font-size="10.00">mutt_str_strfcpy</text>
</a>
</g>
</g>
<!-- Node1&#45;&gt;Node8 -->
<g id="edge7" class="edge"><title>Node1&#45;&gt;Node8</title>
<path fill="none" stroke="midnightblue" d="M69.1944,-152.366C86.2842,-140.194 117.293,-119.131 146,-105 150.088,-102.988 154.445,-101.069 158.832,-99.2784"/>
<polygon fill="midnightblue" stroke="midnightblue" points="160.327,-102.452 168.388,-95.5764 157.799,-95.9251 160.327,-102.452"/>
</g>
<!-- Node9 -->
<g id="node9" class="node"><title>Node9</title>
<g id="a_node9"><a xlink:href="dump_8c.html#a0b93e8a4e40b7bcd77950545494ac3be" target="_top" xlink:title="Dump the config in the style of NeoMutt. ">
<polygon fill="white" stroke="red" points="152.5,-38.5 152.5,-57.5 245.5,-57.5 245.5,-38.5 152.5,-38.5"/>
<text text-anchor="middle" x="199" y="-45.5" font-family="Helvetica,sans-Serif" font-size="10.00">dump_config_neo</text>
</a>
</g>
</g>
<!-- Node1&#45;&gt;Node9 -->
<g id="edge8" class="edge"><title>Node1&#45;&gt;Node9</title>
<path fill="none" stroke="midnightblue" d="M62.7983,-152.242C76.4732,-133.281 109.166,-91.2046 146,-67 148.941,-65.0676 152.104,-63.2994 155.365,-61.6878"/>
<polygon fill="midnightblue" stroke="midnightblue" points="156.984,-64.7989 164.716,-57.5549 154.154,-58.3965 156.984,-64.7989"/>
</g>
<!-- Node10 -->
<g id="node10" class="node"><title>Node10</title>
<g id="a_node10"><a xlink:href="buffer_8c.html#a4fe44d6951505adb974135817a85a3d1" target="_top" xlink:title="Release a Buffer and its contents. ">
<polygon fill="white" stroke="black" points="155,-0.5 155,-19.5 243,-19.5 243,-0.5 155,-0.5"/>
<text text-anchor="middle" x="199" y="-7.5" font-family="Helvetica,sans-Serif" font-size="10.00">mutt_buffer_free</text>
</a>
</g>
</g>
<!-- Node1&#45;&gt;Node10 -->
<g id="edge9" class="edge"><title>Node1&#45;&gt;Node10</title>
<path fill="none" stroke="midnightblue" d="M59.9296,-152.457C70.3408,-128.304 100.957,-64.182 146,-29 148.308,-27.1973 150.803,-25.5546 153.408,-24.0593"/>
<polygon fill="midnightblue" stroke="midnightblue" points="155.165,-27.0953 162.577,-19.5251 152.062,-20.8207 155.165,-27.0953"/>
</g>
</g>
</svg>
