<?xml version="1.0" encoding="UTF-8" standalone="no"?>
<!DOCTYPE svg PUBLIC "-//W3C//DTD SVG 1.1//EN"
 "http://www.w3.org/Graphics/SVG/1.1/DTD/svg11.dtd">
<!-- Generated by graphviz version 2.36.0 (20140111.2315)
 -->
<!-- Title: myvar_del Pages: 1 -->
<svg width="166pt" height="28pt"
 viewBox="0.00 0.00 166.00 28.00" xmlns="http://www.w3.org/2000/svg" xmlns:xlink="http://www.w3.org/1999/xlink">
<g id="graph0" class="graph" transform="scale(1 1) rotate(0) translate(4 24)">
<title>myvar_del</title>
<polygon fill="white" stroke="none" points="-4,4 -4,-24 162,-24 162,4 -4,4"/>
<!-- Node1 -->
<g id="node1" class="node"><title>Node1</title>
<polygon fill="#bfbfbf" stroke="black" points="0,-0.5 0,-19.5 62,-19.5 62,-0.5 0,-0.5"/>
<text text-anchor="middle" x="31" y="-7.5" font-family="Helvetica,sans-Serif" font-size="10.00">myvar_del</text>
</g>
<!-- Node2 -->
<g id="node2" class="node"><title>Node2</title>
<g id="a_node2"><a xlink:href="init_8c.html#a8f0f3d5856d7f876c0dbf004faeeb8ad" target="_top" xlink:title="Parse the &#39;set&#39; family of commands &#45; Implements command_t. ">
<polygon fill="white" stroke="black" points="98.5,-0.5 98.5,-19.5 157.5,-19.5 157.5,-0.5 98.5,-0.5"/>
<text text-anchor="middle" x="128" y="-7.5" font-family="Helvetica,sans-Serif" font-size="10.00">parse_set</text>
</a>
</g>
</g>
<!-- Node1&#45;&gt;Node2 -->
<g id="edge1" class="edge"><title>Node1&#45;&gt;Node2</title>
<path fill="none" stroke="midnightblue" d="M72.1831,-10C81.007,-10 90.176,-10 98.4325,-10"/>
<polygon fill="midnightblue" stroke="midnightblue" points="72.0586,-6.5001 62.0586,-10 72.0586,-13.5001 72.0586,-6.5001"/>
</g>
</g>
</svg>
