<?xml version="1.0" encoding="UTF-8" standalone="no"?>
<!DOCTYPE svg PUBLIC "-//W3C//DTD SVG 1.1//EN"
 "http://www.w3.org/Graphics/SVG/1.1/DTD/svg11.dtd">
<!-- Generated by graphviz version 2.36.0 (20140111.2315)
 -->
<!-- Title: parse_attach_list Pages: 1 -->
<svg width="538pt" height="265pt"
 viewBox="0.00 0.00 538.00 264.78" xmlns="http://www.w3.org/2000/svg" xmlns:xlink="http://www.w3.org/1999/xlink">
<g id="graph0" class="graph" transform="scale(1 1) rotate(0) translate(4 260.779)">
<title>parse_attach_list</title>
<polygon fill="white" stroke="none" points="-4,4 -4,-260.779 534,-260.779 534,4 -4,4"/>
<!-- Node1 -->
<g id="node1" class="node"><title>Node1</title>
<polygon fill="#bfbfbf" stroke="black" points="0.5,-114.5 0.5,-133.5 91.5,-133.5 91.5,-114.5 0.5,-114.5"/>
<text text-anchor="middle" x="46" y="-121.5" font-family="Helvetica,sans-Serif" font-size="10.00">parse_attach_list</text>
</g>
<!-- Node2 -->
<g id="node2" class="node"><title>Node2</title>
<g id="a_node2"><a xlink:href="init_8c.html#a382f7640ccb9d1b02550b77cb91341cd" target="_top" xlink:title="Extract one token from a string. ">
<polygon fill="white" stroke="red" points="138.5,-190.5 138.5,-209.5 239.5,-209.5 239.5,-190.5 138.5,-190.5"/>
<text text-anchor="middle" x="189" y="-197.5" font-family="Helvetica,sans-Serif" font-size="10.00">mutt_extract_token</text>
</a>
</g>
</g>
<!-- Node1&#45;&gt;Node2 -->
<g id="edge1" class="edge"><title>Node1&#45;&gt;Node2</title>
<path fill="none" stroke="midnightblue" d="M60.286,-133.652C75.9573,-144.768 103.042,-163.145 128,-176 135.445,-179.835 143.65,-183.474 151.539,-186.705"/>
<polygon fill="midnightblue" stroke="midnightblue" points="150.346,-189.997 160.932,-190.43 152.927,-183.49 150.346,-189.997"/>
</g>
<!-- Node3 -->
<g id="node3" class="node"><title>Node3</title>
<g id="a_node3"><a xlink:href="mutt_2string_8c.html#ae48085384a6545e0fac589a88243ea31" target="_top" xlink:title="Copy a string, safely. ">
<polygon fill="white" stroke="black" points="298.5,-228.5 298.5,-247.5 383.5,-247.5 383.5,-228.5 298.5,-228.5"/>
<text text-anchor="middle" x="341" y="-235.5" font-family="Helvetica,sans-Serif" font-size="10.00">mutt_str_strdup</text>
</a>
</g>
</g>
<!-- Node1&#45;&gt;Node3 -->
<g id="edge8" class="edge"><title>Node1&#45;&gt;Node3</title>
<path fill="none" stroke="midnightblue" d="M50.38,-133.633C59.0413,-156.634 84.4656,-214.513 128,-237 179.423,-263.562 247.663,-257.869 292.657,-249.525"/>
<polygon fill="midnightblue" stroke="midnightblue" points="293.594,-252.908 302.729,-247.541 292.241,-246.04 293.594,-252.908"/>
</g>
<!-- Node4 -->
<g id="node4" class="node"><title>Node4</title>
<g id="a_node4"><a xlink:href="memory_8c.html#a264da4dc58e6dc8983285bd1f538f24d" target="_top" xlink:title="Allocate memory on the heap. ">
<polygon fill="white" stroke="red" points="432.5,-190.5 432.5,-209.5 529.5,-209.5 529.5,-190.5 432.5,-190.5"/>
<text text-anchor="middle" x="481" y="-197.5" font-family="Helvetica,sans-Serif" font-size="10.00">mutt_mem_malloc</text>
</a>
</g>
</g>
<!-- Node1&#45;&gt;Node4 -->
<g id="edge6" class="edge"><title>Node1&#45;&gt;Node4</title>
<path fill="none" stroke="midnightblue" d="M91.7077,-131.847C170.689,-145.71 334.804,-174.515 422.239,-189.862"/>
<polygon fill="midnightblue" stroke="midnightblue" points="421.8,-193.338 432.254,-191.62 423.01,-186.443 421.8,-193.338"/>
</g>
<!-- Node5 -->
<g id="node5" class="node"><title>Node5</title>
<g id="a_node5"><a xlink:href="mutt_2string_8c.html#a011e5b6fad43bc608584d585987cf9c1" target="_top" xlink:title="Compare two strings ignoring case, safely. ">
<polygon fill="white" stroke="black" points="286.5,-95.5 286.5,-114.5 395.5,-114.5 395.5,-95.5 286.5,-95.5"/>
<text text-anchor="middle" x="341" y="-102.5" font-family="Helvetica,sans-Serif" font-size="10.00">mutt_str_strcasecmp</text>
</a>
</g>
</g>
<!-- Node1&#45;&gt;Node5 -->
<g id="edge7" class="edge"><title>Node1&#45;&gt;Node5</title>
<path fill="none" stroke="midnightblue" d="M91.5004,-121.114C140.707,-117.923 220.392,-112.756 276.226,-109.135"/>
<polygon fill="midnightblue" stroke="midnightblue" points="276.609,-112.618 286.362,-108.478 276.156,-105.633 276.609,-112.618"/>
</g>
<!-- Node6 -->
<g id="node6" class="node"><title>Node6</title>
<g id="a_node6"><a xlink:href="parse_8c.html#a83ed596a3ebd0fc6c7d4855a3a33e18d" target="_top" xlink:title="Check a MIME type string. ">
<polygon fill="white" stroke="black" points="128.5,-76.5 128.5,-95.5 249.5,-95.5 249.5,-76.5 128.5,-76.5"/>
<text text-anchor="middle" x="189" y="-83.5" font-family="Helvetica,sans-Serif" font-size="10.00">mutt_check_mime_type</text>
</a>
</g>
</g>
<!-- Node1&#45;&gt;Node6 -->
<g id="edge9" class="edge"><title>Node1&#45;&gt;Node6</title>
<path fill="none" stroke="midnightblue" d="M82.5803,-114.411C100.782,-109.506 123.138,-103.48 142.572,-98.2429"/>
<polygon fill="midnightblue" stroke="midnightblue" points="143.686,-101.568 152.431,-95.5859 141.865,-94.8088 143.686,-101.568"/>
</g>
<!-- Node7 -->
<g id="node7" class="node"><title>Node7</title>
<g id="a_node7"><a xlink:href="list_8c.html#ace47a64c8bec9d1b24be6524f650293d" target="_top" xlink:title="Append a string to the end of a List. ">
<polygon fill="white" stroke="red" points="138.5,-38.5 138.5,-57.5 239.5,-57.5 239.5,-38.5 138.5,-38.5"/>
<text text-anchor="middle" x="189" y="-45.5" font-family="Helvetica,sans-Serif" font-size="10.00">mutt_list_insert_tail</text>
</a>
</g>
</g>
<!-- Node1&#45;&gt;Node7 -->
<g id="edge11" class="edge"><title>Node1&#45;&gt;Node7</title>
<path fill="none" stroke="midnightblue" d="M58.3555,-114.29C73.4044,-101.841 101.189,-80.2814 128,-67 132.534,-64.7537 137.392,-62.6984 142.307,-60.8384"/>
<polygon fill="midnightblue" stroke="midnightblue" points="143.495,-64.1309 151.761,-57.5034 141.166,-57.5296 143.495,-64.1309"/>
</g>
<!-- Node8 -->
<g id="node8" class="node"><title>Node8</title>
<g id="a_node8"><a xlink:href="init_8c.html#a442ed9edb79f97d35b191c0c4293f62f" target="_top" xlink:title="always wise to do what someone else did before ">
<polygon fill="white" stroke="black" points="139.5,-0.5 139.5,-19.5 238.5,-19.5 238.5,-0.5 139.5,-0.5"/>
<text text-anchor="middle" x="189" y="-7.5" font-family="Helvetica,sans-Serif" font-size="10.00">attachments_clean</text>
</a>
</g>
</g>
<!-- Node1&#45;&gt;Node8 -->
<g id="edge12" class="edge"><title>Node1&#45;&gt;Node8</title>
<path fill="none" stroke="midnightblue" d="M52.6062,-114.369C64.2181,-95.255 92.7802,-52.3642 128,-29 131.096,-26.9463 134.428,-25.103 137.878,-23.4504"/>
<polygon fill="midnightblue" stroke="midnightblue" points="139.359,-26.6242 147.209,-19.5078 136.635,-20.1762 139.359,-26.6242"/>
</g>
<!-- Node2&#45;&gt;Node2 -->
<g id="edge2" class="edge"><title>Node2&#45;&gt;Node2</title>
<path fill="none" stroke="midnightblue" d="M167.114,-209.757C156.466,-218.565 163.762,-228 189,-228 205.563,-228 214.398,-223.937 215.506,-218.654"/>
<polygon fill="midnightblue" stroke="midnightblue" points="218.601,-217.019 210.886,-209.757 212.388,-220.245 218.601,-217.019"/>
</g>
<!-- Node2&#45;&gt;Node3 -->
<g id="edge3" class="edge"><title>Node2&#45;&gt;Node3</title>
<path fill="none" stroke="midnightblue" d="M227.851,-209.589C247.467,-214.558 271.619,-220.677 292.479,-225.961"/>
<polygon fill="midnightblue" stroke="midnightblue" points="291.868,-229.417 302.421,-228.48 293.587,-222.631 291.868,-229.417"/>
</g>
<!-- Node2&#45;&gt;Node4 -->
<g id="edge5" class="edge"><title>Node2&#45;&gt;Node4</title>
<path fill="none" stroke="midnightblue" d="M239.523,-200C290.132,-200 368.674,-200 422.12,-200"/>
<polygon fill="midnightblue" stroke="midnightblue" points="422.127,-203.5 432.127,-200 422.127,-196.5 422.127,-203.5"/>
</g>
<!-- Node3&#45;&gt;Node4 -->
<g id="edge4" class="edge"><title>Node3&#45;&gt;Node4</title>
<path fill="none" stroke="midnightblue" d="M376.823,-228.411C394.638,-223.506 416.518,-217.48 435.539,-212.243"/>
<polygon fill="midnightblue" stroke="midnightblue" points="436.476,-215.615 445.188,-209.586 434.618,-208.866 436.476,-215.615"/>
</g>
<!-- Node6&#45;&gt;Node5 -->
<g id="edge10" class="edge"><title>Node6&#45;&gt;Node5</title>
<path fill="none" stroke="midnightblue" d="M249.715,-93.5639C258.406,-94.6647 267.383,-95.8018 276.151,-96.9125"/>
<polygon fill="midnightblue" stroke="midnightblue" points="275.959,-100.416 286.32,-98.2005 276.839,-93.4715 275.959,-100.416"/>
</g>
</g>
</svg>
