<?xml version="1.0" encoding="UTF-8" standalone="no"?>
<!DOCTYPE svg PUBLIC "-//W3C//DTD SVG 1.1//EN"
 "http://www.w3.org/Graphics/SVG/1.1/DTD/svg11.dtd">
<!-- Generated by graphviz version 2.36.0 (20140111.2315)
 -->
<!-- Title: source_rc Pages: 1 -->
<svg width="354pt" height="560pt"
 viewBox="0.00 0.00 354.00 560.00" xmlns="http://www.w3.org/2000/svg" xmlns:xlink="http://www.w3.org/1999/xlink">
<g id="graph0" class="graph" transform="scale(1 1) rotate(0) translate(4 556)">
<title>source_rc</title>
<polygon fill="white" stroke="none" points="-4,4 -4,-556 350,-556 350,4 -4,4"/>
<!-- Node1 -->
<g id="node1" class="node"><title>Node1</title>
<polygon fill="#bfbfbf" stroke="black" points="0.5,-266.5 0.5,-285.5 59.5,-285.5 59.5,-266.5 0.5,-266.5"/>
<text text-anchor="middle" x="30" y="-273.5" font-family="Helvetica,sans-Serif" font-size="10.00">source_rc</text>
</g>
<!-- Node2 -->
<g id="node2" class="node"><title>Node2</title>
<g id="a_node2"><a xlink:href="mutt_2string_8c.html#a3b8965b21d6e21536750f8883cd4333a" target="_top" xlink:title="Copy a string into a buffer (guaranteeing NUL&#45;termination) ">
<polygon fill="white" stroke="black" points="255,-513.5 255,-532.5 343,-532.5 343,-513.5 255,-513.5"/>
<text text-anchor="middle" x="299" y="-520.5" font-family="Helvetica,sans-Serif" font-size="10.00">mutt_str_strfcpy</text>
</a>
</g>
</g>
<!-- Node1&#45;&gt;Node2 -->
<g id="edge1" class="edge"><title>Node1&#45;&gt;Node2</title>
<path fill="none" stroke="midnightblue" d="M31.192,-285.759C32.3634,-317.396 40.4872,-418.072 96,-470 136.163,-507.569 199.649,-519.225 244.719,-522.485"/>
<polygon fill="midnightblue" stroke="midnightblue" points="244.703,-525.991 254.896,-523.103 245.127,-519.004 244.703,-525.991"/>
</g>
<!-- Node3 -->
<g id="node3" class="node"><title>Node3</title>
<g id="a_node3"><a xlink:href="mutt_2string_8c.html#aca11f88d08a860c07419df3efb18f35a" target="_top" xlink:title="Calculate the length of a string, safely. ">
<polygon fill="white" stroke="black" points="258,-418.5 258,-437.5 340,-437.5 340,-418.5 258,-418.5"/>
<text text-anchor="middle" x="299" y="-425.5" font-family="Helvetica,sans-Serif" font-size="10.00">mutt_str_strlen</text>
</a>
</g>
</g>
<!-- Node1&#45;&gt;Node3 -->
<g id="edge2" class="edge"><title>Node1&#45;&gt;Node3</title>
<path fill="none" stroke="midnightblue" d="M31.1721,-285.602C32.2943,-315.718 40.3117,-408.592 96,-447 148.078,-482.918 226.508,-459.086 268.681,-441.663"/>
<polygon fill="midnightblue" stroke="midnightblue" points="270.28,-444.786 278.093,-437.63 267.523,-438.352 270.28,-444.786"/>
</g>
<!-- Node4 -->
<g id="node4" class="node"><title>Node4</title>
<g id="a_node4"><a xlink:href="mutt_2path_8c.html#aab8a2f104883bdf2e893fd72594a7038" target="_top" xlink:title="Convert relative filepath to an absolute path. ">
<polygon fill="white" stroke="red" points="98,-532.5 98,-551.5 214,-551.5 214,-532.5 98,-532.5"/>
<text text-anchor="middle" x="156" y="-539.5" font-family="Helvetica,sans-Serif" font-size="10.00">mutt_path_to_absolute</text>
</a>
</g>
</g>
<!-- Node1&#45;&gt;Node4 -->
<g id="edge3" class="edge"><title>Node1&#45;&gt;Node4</title>
<path fill="none" stroke="midnightblue" d="M30.7217,-285.715C30.2275,-321.409 33.222,-446.916 96,-518 99.3032,-521.74 103.275,-524.907 107.577,-527.588"/>
<polygon fill="midnightblue" stroke="midnightblue" points="106.285,-530.863 116.763,-532.433 109.551,-524.672 106.285,-530.863"/>
</g>
<!-- Node5 -->
<g id="node5" class="node"><title>Node5</title>
<g id="a_node5"><a xlink:href="mutt_2string_8c.html#ab4aaf8bd2ce3982651f0f949d6c665e2" target="_top" xlink:title="Compare two strings, safely. ">
<polygon fill="white" stroke="black" points="255,-323.5 255,-342.5 343,-342.5 343,-323.5 255,-323.5"/>
<text text-anchor="middle" x="299" y="-330.5" font-family="Helvetica,sans-Serif" font-size="10.00">mutt_str_strcmp</text>
</a>
</g>
</g>
<!-- Node1&#45;&gt;Node5 -->
<g id="edge5" class="edge"><title>Node1&#45;&gt;Node5</title>
<path fill="none" stroke="midnightblue" d="M38.0994,-285.572C48.8521,-299.17 70.7151,-323.484 96,-333 143.908,-351.031 202.855,-348.5 244.677,-342.993"/>
<polygon fill="midnightblue" stroke="midnightblue" points="245.246,-346.448 254.657,-341.581 244.265,-339.517 245.246,-346.448"/>
</g>
<!-- Node6 -->
<g id="node6" class="node"><title>Node6</title>
<g id="a_node6"><a xlink:href="list_8c.html#a53adfccd4c8b3409a1fa09aa5daf405b" target="_top" xlink:title="Insert a string at the beginning of a List. ">
<polygon fill="white" stroke="red" points="101,-190.5 101,-209.5 211,-209.5 211,-190.5 101,-190.5"/>
<text text-anchor="middle" x="156" y="-197.5" font-family="Helvetica,sans-Serif" font-size="10.00">mutt_list_insert_head</text>
</a>
</g>
</g>
<!-- Node1&#45;&gt;Node6 -->
<g id="edge6" class="edge"><title>Node1&#45;&gt;Node6</title>
<path fill="none" stroke="midnightblue" d="M41.3381,-266.146C53.6099,-254.84 75.0589,-236.285 96,-224 102.623,-220.115 109.994,-216.571 117.22,-213.47"/>
<polygon fill="midnightblue" stroke="midnightblue" points="118.96,-216.541 126.899,-209.525 116.318,-210.059 118.96,-216.541"/>
</g>
<!-- Node7 -->
<g id="node7" class="node"><title>Node7</title>
<g id="a_node7"><a xlink:href="mutt_2string_8c.html#ae48085384a6545e0fac589a88243ea31" target="_top" xlink:title="Copy a string, safely. ">
<polygon fill="white" stroke="red" points="256.5,-380.5 256.5,-399.5 341.5,-399.5 341.5,-380.5 256.5,-380.5"/>
<text text-anchor="middle" x="299" y="-387.5" font-family="Helvetica,sans-Serif" font-size="10.00">mutt_str_strdup</text>
</a>
</g>
</g>
<!-- Node1&#45;&gt;Node7 -->
<g id="edge7" class="edge"><title>Node1&#45;&gt;Node7</title>
<path fill="none" stroke="midnightblue" d="M35.9586,-285.526C45.2623,-302.361 67.0391,-337.178 96,-354 142.1,-380.777 203.336,-388.549 246.255,-390.386"/>
<polygon fill="midnightblue" stroke="midnightblue" points="246.369,-393.892 256.48,-390.727 246.602,-386.896 246.369,-393.892"/>
</g>
<!-- Node8 -->
<g id="node8" class="node"><title>Node8</title>
<g id="a_node8"><a xlink:href="muttlib_8c.html#a99ddb819be19b4db97884f1d2b9984d8" target="_top" xlink:title="Run a command to read from. ">
<polygon fill="white" stroke="red" points="113,-418.5 113,-437.5 199,-437.5 199,-418.5 113,-418.5"/>
<text text-anchor="middle" x="156" y="-425.5" font-family="Helvetica,sans-Serif" font-size="10.00">mutt_open_read</text>
</a>
</g>
</g>
<!-- Node1&#45;&gt;Node8 -->
<g id="edge8" class="edge"><title>Node1&#45;&gt;Node8</title>
<path fill="none" stroke="midnightblue" d="M33.4162,-285.783C39.709,-309.332 58.7617,-369.75 96,-404 100.328,-407.98 105.403,-411.343 110.728,-414.172"/>
<polygon fill="midnightblue" stroke="midnightblue" points="109.299,-417.368 119.839,-418.445 112.272,-411.03 109.299,-417.368"/>
</g>
<!-- Node9 -->
<g id="node9" class="node"><title>Node9</title>
<g id="a_node9"><a xlink:href="buffer_8c.html#ad057ee239ae5bcfd72cab3749036ab02" target="_top" xlink:title="Format a string into a Buffer. ">
<polygon fill="white" stroke="red" points="252.5,-275.5 252.5,-294.5 345.5,-294.5 345.5,-275.5 252.5,-275.5"/>
<text text-anchor="middle" x="299" y="-282.5" font-family="Helvetica,sans-Serif" font-size="10.00">mutt_buffer_printf</text>
</a>
</g>
</g>
<!-- Node1&#45;&gt;Node9 -->
<g id="edge11" class="edge"><title>Node1&#45;&gt;Node9</title>
<path fill="none" stroke="midnightblue" d="M59.5737,-276.963C103.013,-278.427 186.493,-281.241 242.231,-283.12"/>
<polygon fill="midnightblue" stroke="midnightblue" points="242.188,-286.621 252.3,-283.46 242.424,-279.625 242.188,-286.621"/>
</g>
<!-- Node10 -->
<g id="node10" class="node"><title>Node10</title>
<g id="a_node10"><a xlink:href="buffer_8c.html#ab31dc6030636f826c60c65d143cb249d" target="_top" xlink:title="Initialise a new Buffer. ">
<polygon fill="white" stroke="black" points="257,-237.5 257,-256.5 341,-256.5 341,-237.5 257,-237.5"/>
<text text-anchor="middle" x="299" y="-244.5" font-family="Helvetica,sans-Serif" font-size="10.00">mutt_buffer_init</text>
</a>
</g>
</g>
<!-- Node1&#45;&gt;Node10 -->
<g id="edge12" class="edge"><title>Node1&#45;&gt;Node10</title>
<path fill="none" stroke="midnightblue" d="M59.5737,-272.896C104.153,-268.055 190.902,-258.632 246.56,-252.587"/>
<polygon fill="midnightblue" stroke="midnightblue" points="247.011,-256.059 256.574,-251.499 246.255,-249.1 247.011,-256.059"/>
</g>
<!-- Node11 -->
<g id="node11" class="node"><title>Node11</title>
<g id="a_node11"><a xlink:href="file_8c.html#a925820fb917e9a6a0542baa02ec7ed2c" target="_top" xlink:title="Read a line from a file. ">
<polygon fill="white" stroke="red" points="107,-152.5 107,-171.5 205,-171.5 205,-152.5 107,-152.5"/>
<text text-anchor="middle" x="156" y="-159.5" font-family="Helvetica,sans-Serif" font-size="10.00">mutt_file_read_line</text>
</a>
</g>
</g>
<!-- Node1&#45;&gt;Node11 -->
<g id="edge13" class="edge"><title>Node1&#45;&gt;Node11</title>
<path fill="none" stroke="midnightblue" d="M34.9934,-266.359C43.4028,-247.228 64.7698,-204.308 96,-181 98.5064,-179.129 101.204,-177.439 104.017,-175.911"/>
<polygon fill="midnightblue" stroke="midnightblue" points="105.728,-178.975 113.303,-171.567 102.762,-172.634 105.728,-178.975"/>
</g>
<!-- Node12 -->
<g id="node12" class="node"><title>Node12</title>
<g id="a_node12"><a xlink:href="charset_8c.html#ab7e77d77daee2304cbdabeb54bdb3e97" target="_top" xlink:title="Convert a string between encodings. ">
<polygon fill="white" stroke="red" points="96.5,-114.5 96.5,-133.5 215.5,-133.5 215.5,-114.5 96.5,-114.5"/>
<text text-anchor="middle" x="156" y="-121.5" font-family="Helvetica,sans-Serif" font-size="10.00">mutt_ch_convert_string</text>
</a>
</g>
</g>
<!-- Node1&#45;&gt;Node12 -->
<g id="edge14" class="edge"><title>Node1&#45;&gt;Node12</title>
<path fill="none" stroke="midnightblue" d="M32.97,-266.375C38.4524,-242.031 56.1788,-177.497 96,-143 97.9571,-141.305 100.068,-139.76 102.285,-138.353"/>
<polygon fill="midnightblue" stroke="midnightblue" points="104.083,-141.361 111.273,-133.579 100.8,-135.179 104.083,-141.361"/>
</g>
<!-- Node13 -->
<g id="node13" class="node"><title>Node13</title>
<g id="a_node13"><a xlink:href="init_8c.html#a5fe0bea7c92d757966c8278e2ce85714" target="_top" xlink:title="Parse a line of user config. ">
<polygon fill="white" stroke="red" points="106.5,-304.5 106.5,-323.5 205.5,-323.5 205.5,-304.5 106.5,-304.5"/>
<text text-anchor="middle" x="156" y="-311.5" font-family="Helvetica,sans-Serif" font-size="10.00">mutt_parse_rc_line</text>
</a>
</g>
</g>
<!-- Node1&#45;&gt;Node13 -->
<g id="edge15" class="edge"><title>Node1&#45;&gt;Node13</title>
<path fill="none" stroke="midnightblue" d="M59.7598,-284.813C75.9378,-289.771 96.4029,-296.043 114.213,-301.501"/>
<polygon fill="midnightblue" stroke="midnightblue" points="113.203,-304.852 123.79,-304.436 115.254,-298.159 113.203,-304.852"/>
</g>
<!-- Node14 -->
<g id="node14" class="node"><title>Node14</title>
<g id="a_node14"><a xlink:href="file_8c.html#a4982d9040dfaf38e847729be2af83ed6" target="_top" xlink:title="Close a FILE handle (and NULL the pointer) ">
<polygon fill="white" stroke="black" points="113,-76.5 113,-95.5 199,-95.5 199,-76.5 113,-76.5"/>
<text text-anchor="middle" x="156" y="-83.5" font-family="Helvetica,sans-Serif" font-size="10.00">mutt_file_fclose</text>
</a>
</g>
</g>
<!-- Node1&#45;&gt;Node14 -->
<g id="edge20" class="edge"><title>Node1&#45;&gt;Node14</title>
<path fill="none" stroke="midnightblue" d="M31.8146,-266.284C34.7591,-237.389 47.4053,-151.145 96,-105 98.3057,-102.811 100.865,-100.873 103.589,-99.1595"/>
<polygon fill="midnightblue" stroke="midnightblue" points="105.476,-102.123 112.739,-94.4099 102.251,-95.9107 105.476,-102.123"/>
</g>
<!-- Node15 -->
<g id="node15" class="node"><title>Node15</title>
<g id="a_node15"><a xlink:href="filter_8c.html#a2d652b11c7d2ea31208315aaf61537d2" target="_top" xlink:title="Wait for the exit of a process and return its status. ">
<polygon fill="white" stroke="red" points="114.5,-38.5 114.5,-57.5 197.5,-57.5 197.5,-38.5 114.5,-38.5"/>
<text text-anchor="middle" x="156" y="-45.5" font-family="Helvetica,sans-Serif" font-size="10.00">mutt_wait_filter</text>
</a>
</g>
</g>
<!-- Node1&#45;&gt;Node15 -->
<g id="edge21" class="edge"><title>Node1&#45;&gt;Node15</title>
<path fill="none" stroke="midnightblue" d="M31.0447,-266.102C31.7419,-233.012 38.5211,-125.058 96,-67 98.6948,-64.278 101.781,-61.9457 105.097,-59.9472"/>
<polygon fill="midnightblue" stroke="midnightblue" points="106.888,-62.9663 114.303,-55.3988 103.787,-56.6906 106.888,-62.9663"/>
</g>
<!-- Node16 -->
<g id="node16" class="node"><title>Node16</title>
<g id="a_node16"><a xlink:href="buffer_8c.html#a8da54c4ec8e1a4e21158f134441bdf2d" target="_top" xlink:title="Reset an existing Buffer. ">
<polygon fill="white" stroke="black" points="109.5,-0.5 109.5,-19.5 202.5,-19.5 202.5,-0.5 109.5,-0.5"/>
<text text-anchor="middle" x="156" y="-7.5" font-family="Helvetica,sans-Serif" font-size="10.00">mutt_buffer_reset</text>
</a>
</g>
</g>
<!-- Node1&#45;&gt;Node16 -->
<g id="edge22" class="edge"><title>Node1&#45;&gt;Node16</title>
<path fill="none" stroke="midnightblue" d="M30.496,-266.431C29.1278,-230.141 29.2204,-99.5025 96,-29 97.4153,-27.5058 98.9484,-26.1288 100.574,-24.8599"/>
<polygon fill="midnightblue" stroke="midnightblue" points="102.727,-27.6413 109.352,-19.3731 99.0173,-21.7054 102.727,-27.6413"/>
</g>
<!-- Node4&#45;&gt;Node2 -->
<g id="edge4" class="edge"><title>Node4&#45;&gt;Node2</title>
<path fill="none" stroke="midnightblue" d="M214.35,-534.272C224.423,-532.915 234.866,-531.507 244.819,-530.166"/>
<polygon fill="midnightblue" stroke="midnightblue" points="245.534,-533.602 254.977,-528.797 244.599,-526.664 245.534,-533.602"/>
</g>
<!-- Node8&#45;&gt;Node3 -->
<g id="edge9" class="edge"><title>Node8&#45;&gt;Node3</title>
<path fill="none" stroke="midnightblue" d="M199.305,-428C214.476,-428 231.734,-428 247.528,-428"/>
<polygon fill="midnightblue" stroke="midnightblue" points="247.66,-431.5 257.66,-428 247.66,-424.5 247.66,-431.5"/>
</g>
<!-- Node8&#45;&gt;Node7 -->
<g id="edge10" class="edge"><title>Node8&#45;&gt;Node7</title>
<path fill="none" stroke="midnightblue" d="M192.58,-418.411C210.782,-413.506 233.138,-407.48 252.572,-402.243"/>
<polygon fill="midnightblue" stroke="midnightblue" points="253.686,-405.568 262.431,-399.586 251.865,-398.809 253.686,-405.568"/>
</g>
<!-- Node13&#45;&gt;Node3 -->
<g id="edge17" class="edge"><title>Node13&#45;&gt;Node3</title>
<path fill="none" stroke="midnightblue" d="M164.395,-323.597C179.213,-342.276 214.364,-383.879 252,-409 254.731,-410.823 257.665,-412.523 260.681,-414.097"/>
<polygon fill="midnightblue" stroke="midnightblue" points="259.32,-417.325 269.856,-418.436 262.313,-410.997 259.32,-417.325"/>
</g>
<!-- Node13&#45;&gt;Node5 -->
<g id="edge18" class="edge"><title>Node13&#45;&gt;Node5</title>
<path fill="none" stroke="midnightblue" d="M205.524,-320.539C218.096,-322.233 231.703,-324.066 244.513,-325.793"/>
<polygon fill="midnightblue" stroke="midnightblue" points="244.203,-329.282 254.581,-327.149 245.138,-322.345 244.203,-329.282"/>
</g>
<!-- Node13&#45;&gt;Node9 -->
<g id="edge19" class="edge"><title>Node13&#45;&gt;Node9</title>
<path fill="none" stroke="midnightblue" d="M203.559,-304.424C215.965,-301.872 229.493,-299.09 242.334,-296.449"/>
<polygon fill="midnightblue" stroke="midnightblue" points="243.36,-299.811 252.45,-294.369 241.949,-292.955 243.36,-299.811"/>
</g>
<!-- Node13&#45;&gt;Node10 -->
<g id="edge16" class="edge"><title>Node13&#45;&gt;Node10</title>
<path fill="none" stroke="midnightblue" d="M175.012,-304.383C193.972,-294.382 224.787,-278.473 252,-266 256.087,-264.127 260.413,-262.23 264.712,-260.397"/>
<polygon fill="midnightblue" stroke="midnightblue" points="266.103,-263.609 273.976,-256.519 263.4,-257.152 266.103,-263.609"/>
</g>
</g>
</svg>
