<?xml version="1.0" encoding="UTF-8" standalone="no"?>
<!DOCTYPE svg PUBLIC "-//W3C//DTD SVG 1.1//EN"
 "http://www.w3.org/Graphics/SVG/1.1/DTD/svg11.dtd">
<!-- Generated by graphviz version 2.36.0 (20140111.2315)
 -->
<!-- Title: parse_group Pages: 1 -->
<svg width="374pt" height="555pt"
 viewBox="0.00 0.00 374.00 555.00" xmlns="http://www.w3.org/2000/svg" xmlns:xlink="http://www.w3.org/1999/xlink">
<g id="graph0" class="graph" transform="scale(1 1) rotate(0) translate(4 551)">
<title>parse_group</title>
<polygon fill="white" stroke="none" points="-4,4 -4,-551 370,-551 370,4 -4,4"/>
<!-- Node1 -->
<g id="node1" class="node"><title>Node1</title>
<polygon fill="#bfbfbf" stroke="black" points="0,-267.5 0,-286.5 70,-286.5 70,-267.5 0,-267.5"/>
<text text-anchor="middle" x="35" y="-274.5" font-family="Helvetica,sans-Serif" font-size="10.00">parse_group</text>
</g>
<!-- Node2 -->
<g id="node2" class="node"><title>Node2</title>
<g id="a_node2"><a xlink:href="init_8c.html#a382f7640ccb9d1b02550b77cb91341cd" target="_top" xlink:title="Extract one token from a string. ">
<polygon fill="white" stroke="red" points="260.5,-509.5 260.5,-528.5 361.5,-528.5 361.5,-509.5 260.5,-509.5"/>
<text text-anchor="middle" x="311" y="-516.5" font-family="Helvetica,sans-Serif" font-size="10.00">mutt_extract_token</text>
</a>
</g>
</g>
<!-- Node1&#45;&gt;Node2 -->
<g id="edge1" class="edge"><title>Node1&#45;&gt;Node2</title>
<path fill="none" stroke="midnightblue" d="M35.7933,-286.711C35.6368,-321.167 40.1401,-438.412 106,-493 145.656,-525.868 205.4,-529.949 249.999,-527.249"/>
<polygon fill="midnightblue" stroke="midnightblue" points="250.412,-530.729 260.128,-526.506 249.899,-523.747 250.412,-530.729"/>
</g>
<!-- Node3 -->
<g id="node3" class="node"><title>Node3</title>
<g id="a_node3"><a xlink:href="init_8c.html#a7715fb79a29e79ad20728f6577071c5a" target="_top" xlink:title="Parse a group context. ">
<polygon fill="white" stroke="red" points="109.5,-437.5 109.5,-456.5 216.5,-456.5 216.5,-437.5 109.5,-437.5"/>
<text text-anchor="middle" x="163" y="-444.5" font-family="Helvetica,sans-Serif" font-size="10.00">parse_group_context</text>
</a>
</g>
</g>
<!-- Node1&#45;&gt;Node3 -->
<g id="edge3" class="edge"><title>Node1&#45;&gt;Node3</title>
<path fill="none" stroke="midnightblue" d="M38.0953,-286.573C44.1529,-312.127 63.9965,-382.732 106,-423 110.009,-426.843 114.728,-430.119 119.699,-432.899"/>
<polygon fill="midnightblue" stroke="midnightblue" points="118.299,-436.111 128.817,-437.383 121.388,-429.83 118.299,-436.111"/>
</g>
<!-- Node4 -->
<g id="node4" class="node"><title>Node4</title>
<g id="a_node4"><a xlink:href="mutt_2string_8c.html#a011e5b6fad43bc608584d585987cf9c1" target="_top" xlink:title="Compare two strings ignoring case, safely. ">
<polygon fill="white" stroke="black" points="256.5,-467.5 256.5,-486.5 365.5,-486.5 365.5,-467.5 256.5,-467.5"/>
<text text-anchor="middle" x="311" y="-474.5" font-family="Helvetica,sans-Serif" font-size="10.00">mutt_str_strcasecmp</text>
</a>
</g>
</g>
<!-- Node1&#45;&gt;Node4 -->
<g id="edge7" class="edge"><title>Node1&#45;&gt;Node4</title>
<path fill="none" stroke="midnightblue" d="M36.1508,-286.557C37.2262,-318.398 45.4335,-421.376 106,-466 150.505,-498.79 216.435,-495.731 261.205,-488.32"/>
<polygon fill="midnightblue" stroke="midnightblue" points="262.033,-491.727 271.262,-486.524 260.802,-484.836 262.033,-491.727"/>
</g>
<!-- Node5 -->
<g id="node5" class="node"><title>Node5</title>
<g id="a_node5"><a xlink:href="group_8c.html#ab72e9a6349098240dfa2257789226cc4" target="_top" xlink:title="Destroy a Group List. ">
<polygon fill="white" stroke="black" points="259.5,-410 259.5,-440 362.5,-440 362.5,-410 259.5,-410"/>
<text text-anchor="start" x="267.5" y="-428" font-family="Helvetica,sans-Serif" font-size="10.00">mutt_group_context</text>
<text text-anchor="middle" x="311" y="-417" font-family="Helvetica,sans-Serif" font-size="10.00">_destroy</text>
</a>
</g>
</g>
<!-- Node1&#45;&gt;Node5 -->
<g id="edge17" class="edge"><title>Node1&#45;&gt;Node5</title>
<path fill="none" stroke="midnightblue" d="M39.0139,-286.719C46.4292,-308.881 67.7911,-363.227 106,-389 148.093,-417.394 205.803,-425.419 249.103,-426.906"/>
<polygon fill="midnightblue" stroke="midnightblue" points="249.144,-430.408 259.223,-427.144 249.309,-423.41 249.144,-430.408"/>
</g>
<!-- Node6 -->
<g id="node6" class="node"><title>Node6</title>
<g id="a_node6"><a xlink:href="group_8c.html#a8660c3d7becb5bef2c3725019e4f9950" target="_top" xlink:title="Empty a Group List. ">
<polygon fill="white" stroke="red" points="111.5,-350 111.5,-380 214.5,-380 214.5,-350 111.5,-350"/>
<text text-anchor="start" x="119.5" y="-368" font-family="Helvetica,sans-Serif" font-size="10.00">mutt_group_context</text>
<text text-anchor="middle" x="163" y="-357" font-family="Helvetica,sans-Serif" font-size="10.00">_clear</text>
</a>
</g>
</g>
<!-- Node1&#45;&gt;Node6 -->
<g id="edge8" class="edge"><title>Node1&#45;&gt;Node6</title>
<path fill="none" stroke="midnightblue" d="M44.7394,-286.565C57.2882,-299.877 81.5985,-324.14 106,-340 108.767,-341.799 111.686,-343.528 114.678,-345.179"/>
<polygon fill="midnightblue" stroke="midnightblue" points="113.307,-348.41 123.799,-349.887 116.517,-342.19 113.307,-348.41"/>
</g>
<!-- Node7 -->
<g id="node7" class="node"><title>Node7</title>
<g id="a_node7"><a xlink:href="buffer_8c.html#ad057ee239ae5bcfd72cab3749036ab02" target="_top" xlink:title="Format a string into a Buffer. ">
<polygon fill="white" stroke="red" points="116.5,-311.5 116.5,-330.5 209.5,-330.5 209.5,-311.5 116.5,-311.5"/>
<text text-anchor="middle" x="163" y="-318.5" font-family="Helvetica,sans-Serif" font-size="10.00">mutt_buffer_printf</text>
</a>
</g>
</g>
<!-- Node1&#45;&gt;Node7 -->
<g id="edge9" class="edge"><title>Node1&#45;&gt;Node7</title>
<path fill="none" stroke="midnightblue" d="M63.3401,-286.547C81.42,-292.861 105.342,-301.215 125.102,-308.115"/>
<polygon fill="midnightblue" stroke="midnightblue" points="124.118,-311.479 134.713,-311.471 126.426,-304.87 124.118,-311.479"/>
</g>
<!-- Node8 -->
<g id="node8" class="node"><title>Node8</title>
<g id="a_node8"><a xlink:href="group_8c.html#ab13fe1dc2aabed615c1e1770626f283a" target="_top" xlink:title="Add a Regex to a Group List. ">
<polygon fill="white" stroke="red" points="111.5,-262 111.5,-292 214.5,-292 214.5,-262 111.5,-262"/>
<text text-anchor="start" x="119.5" y="-280" font-family="Helvetica,sans-Serif" font-size="10.00">mutt_group_context</text>
<text text-anchor="middle" x="163" y="-269" font-family="Helvetica,sans-Serif" font-size="10.00">_add_regex</text>
</a>
</g>
</g>
<!-- Node1&#45;&gt;Node8 -->
<g id="edge10" class="edge"><title>Node1&#45;&gt;Node8</title>
<path fill="none" stroke="midnightblue" d="M70.0974,-277C79.7076,-277 90.4632,-277 101.137,-277"/>
<polygon fill="midnightblue" stroke="midnightblue" points="101.306,-280.5 111.306,-277 101.306,-273.5 101.306,-280.5"/>
</g>
<!-- Node9 -->
<g id="node9" class="node"><title>Node9</title>
<g id="a_node9"><a xlink:href="group_8c.html#afd7a739e11c90470771dabe35e4adad7" target="_top" xlink:title="Remove a Regex from a Group List. ">
<polygon fill="white" stroke="red" points="111.5,-213 111.5,-243 214.5,-243 214.5,-213 111.5,-213"/>
<text text-anchor="start" x="119.5" y="-231" font-family="Helvetica,sans-Serif" font-size="10.00">mutt_group_context</text>
<text text-anchor="middle" x="163" y="-220" font-family="Helvetica,sans-Serif" font-size="10.00">_remove_regex</text>
</a>
</g>
</g>
<!-- Node1&#45;&gt;Node9 -->
<g id="edge11" class="edge"><title>Node1&#45;&gt;Node9</title>
<path fill="none" stroke="midnightblue" d="M60.5932,-267.436C75.5792,-261.608 95.2538,-253.957 113.281,-246.946"/>
<polygon fill="midnightblue" stroke="midnightblue" points="115.036,-250.019 123.087,-243.133 112.498,-243.495 115.036,-250.019"/>
</g>
<!-- Node10 -->
<g id="node10" class="node"><title>Node10</title>
<g id="a_node10"><a xlink:href="email_2address_8c.html#ae63c64c4d9614f613c9d6b52dcf9be35" target="_top" xlink:title="Parse a list of email addresses. ">
<polygon fill="white" stroke="red" points="106.5,-174.5 106.5,-193.5 219.5,-193.5 219.5,-174.5 106.5,-174.5"/>
<text text-anchor="middle" x="163" y="-181.5" font-family="Helvetica,sans-Serif" font-size="10.00">mutt_addr_parse_list2</text>
</a>
</g>
</g>
<!-- Node1&#45;&gt;Node10 -->
<g id="edge12" class="edge"><title>Node1&#45;&gt;Node10</title>
<path fill="none" stroke="midnightblue" d="M43.0615,-267.092C54.584,-251.591 78.882,-221.562 106,-204 109.757,-201.567 113.848,-199.384 118.052,-197.437"/>
<polygon fill="midnightblue" stroke="midnightblue" points="119.477,-200.635 127.35,-193.544 116.774,-194.178 119.477,-200.635"/>
</g>
<!-- Node11 -->
<g id="node11" class="node"><title>Node11</title>
<g id="a_node11"><a xlink:href="email_2address_8c.html#adc78f8cb7c880c8a427dde656617ecf2" target="_top" xlink:title="Convert an Address list to Punycode. ">
<polygon fill="white" stroke="red" points="111,-136.5 111,-155.5 215,-155.5 215,-136.5 111,-136.5"/>
<text text-anchor="middle" x="163" y="-143.5" font-family="Helvetica,sans-Serif" font-size="10.00">mutt_addrlist_to_intl</text>
</a>
</g>
</g>
<!-- Node1&#45;&gt;Node11 -->
<g id="edge13" class="edge"><title>Node1&#45;&gt;Node11</title>
<path fill="none" stroke="midnightblue" d="M39.4217,-267.353C47.5447,-245.813 70.0442,-193.466 106,-165 108.302,-163.178 110.788,-161.526 113.388,-160.028"/>
<polygon fill="midnightblue" stroke="midnightblue" points="115.142,-163.066 122.57,-155.511 112.052,-156.785 115.142,-163.066"/>
</g>
<!-- Node12 -->
<g id="node12" class="node"><title>Node12</title>
<g id="a_node12"><a xlink:href="email_2address_8c.html#a261c737f5760766b245e5e8506b11b12" target="_top" xlink:title="Free a list of Addresses. ">
<polygon fill="white" stroke="red" points="122,-98.5 122,-117.5 204,-117.5 204,-98.5 122,-98.5"/>
<text text-anchor="middle" x="163" y="-105.5" font-family="Helvetica,sans-Serif" font-size="10.00">mutt_addr_free</text>
</a>
</g>
</g>
<!-- Node1&#45;&gt;Node12 -->
<g id="edge14" class="edge"><title>Node1&#45;&gt;Node12</title>
<path fill="none" stroke="midnightblue" d="M37.7648,-267.364C43.0951,-240.982 61.4828,-166.89 106,-127 108.15,-125.073 110.504,-123.34 112.991,-121.782"/>
<polygon fill="midnightblue" stroke="midnightblue" points="114.627,-124.876 121.854,-117.129 111.373,-118.678 114.627,-124.876"/>
</g>
<!-- Node13 -->
<g id="node13" class="node"><title>Node13</title>
<g id="a_node13"><a xlink:href="group_8c.html#ab532b0aac627bf0b1536a6868e1ab471" target="_top" xlink:title="Add an Address List to a Group List. ">
<polygon fill="white" stroke="red" points="111.5,-49 111.5,-79 214.5,-79 214.5,-49 111.5,-49"/>
<text text-anchor="start" x="119.5" y="-67" font-family="Helvetica,sans-Serif" font-size="10.00">mutt_group_context</text>
<text text-anchor="middle" x="163" y="-56" font-family="Helvetica,sans-Serif" font-size="10.00">_add_addrlist</text>
</a>
</g>
</g>
<!-- Node1&#45;&gt;Node13 -->
<g id="edge15" class="edge"><title>Node1&#45;&gt;Node13</title>
<path fill="none" stroke="midnightblue" d="M36.9645,-267.448C40.4866,-237.32 55.2344,-143.093 106,-89 107.227,-87.6923 108.535,-86.4485 109.909,-85.2658"/>
<polygon fill="midnightblue" stroke="midnightblue" points="112.323,-87.8391 118.372,-79.1411 108.219,-82.1681 112.323,-87.8391"/>
</g>
<!-- Node14 -->
<g id="node14" class="node"><title>Node14</title>
<g id="a_node14"><a xlink:href="group_8c.html#acc0f422c0d51c27ecd4e34e2aa2c2aec" target="_top" xlink:title="Remove an Address List from a Group List. ">
<polygon fill="white" stroke="red" points="111.5,-0 111.5,-30 214.5,-30 214.5,-0 111.5,-0"/>
<text text-anchor="start" x="119.5" y="-18" font-family="Helvetica,sans-Serif" font-size="10.00">mutt_group_context</text>
<text text-anchor="middle" x="163" y="-7" font-family="Helvetica,sans-Serif" font-size="10.00">_remove_addrlist</text>
</a>
</g>
</g>
<!-- Node1&#45;&gt;Node14 -->
<g id="edge16" class="edge"><title>Node1&#45;&gt;Node14</title>
<path fill="none" stroke="midnightblue" d="M36.049,-267.466C36.7342,-232.433 43.6684,-109.217 106,-39 106.755,-38.1496 107.545,-37.3284 108.366,-36.5353"/>
<polygon fill="midnightblue" stroke="midnightblue" points="110.798,-39.0745 116.48,-30.1319 106.462,-33.5796 110.798,-39.0745"/>
</g>
<!-- Node2&#45;&gt;Node2 -->
<g id="edge2" class="edge"><title>Node2&#45;&gt;Node2</title>
<path fill="none" stroke="midnightblue" d="M288.189,-528.757C277.092,-537.565 284.695,-547 311,-547 328.262,-547 337.471,-542.937 338.626,-537.654"/>
<polygon fill="midnightblue" stroke="midnightblue" points="341.649,-535.886 333.811,-528.757 335.492,-539.218 341.649,-535.886"/>
</g>
<!-- Node3&#45;&gt;Node2 -->
<g id="edge5" class="edge"><title>Node3&#45;&gt;Node2</title>
<path fill="none" stroke="midnightblue" d="M181.067,-456.664C199.367,-466.89 229.389,-483.275 256,-496 262.763,-499.234 270.098,-502.508 277.118,-505.533"/>
<polygon fill="midnightblue" stroke="midnightblue" points="275.839,-508.792 286.412,-509.475 278.573,-502.348 275.839,-508.792"/>
</g>
<!-- Node3&#45;&gt;Node4 -->
<g id="edge4" class="edge"><title>Node3&#45;&gt;Node4</title>
<path fill="none" stroke="midnightblue" d="M210.597,-456.575C224.229,-459.376 239.281,-462.469 253.459,-465.382"/>
<polygon fill="midnightblue" stroke="midnightblue" points="253.096,-468.88 263.595,-467.465 254.505,-462.024 253.096,-468.88"/>
</g>
<!-- Node3&#45;&gt;Node5 -->
<g id="edge6" class="edge"><title>Node3&#45;&gt;Node5</title>
<path fill="none" stroke="midnightblue" d="M216.709,-439.057C227.232,-437.472 238.366,-435.794 249.137,-434.171"/>
<polygon fill="midnightblue" stroke="midnightblue" points="249.954,-437.588 259.32,-432.637 248.911,-430.666 249.954,-437.588"/>
</g>
</g>
</svg>
