<?xml version="1.0" encoding="UTF-8" standalone="no"?>
<!DOCTYPE svg PUBLIC "-//W3C//DTD SVG 1.1//EN"
 "http://www.w3.org/Graphics/SVG/1.1/DTD/svg11.dtd">
<!-- Generated by graphviz version 2.36.0 (20140111.2315)
 -->
<!-- Title: query_quadoption Pages: 1 -->
<svg width="1266pt" height="996pt"
 viewBox="0.00 0.00 1266.00 995.75" xmlns="http://www.w3.org/2000/svg" xmlns:xlink="http://www.w3.org/1999/xlink">
<g id="graph0" class="graph" transform="scale(1 1) rotate(0) translate(4 991.752)">
<title>query_quadoption</title>
<polygon fill="white" stroke="none" points="-4,4 -4,-991.752 1262,-991.752 1262,4 -4,4"/>
<!-- Node1 -->
<g id="node1" class="node"><title>Node1</title>
<polygon fill="#bfbfbf" stroke="black" points="0.5,-475.5 0.5,-494.5 93.5,-494.5 93.5,-475.5 0.5,-475.5"/>
<text text-anchor="middle" x="47" y="-482.5" font-family="Helvetica,sans-Serif" font-size="10.00">query_quadoption</text>
</g>
<!-- Node2 -->
<g id="node2" class="node"><title>Node2</title>
<g id="a_node2"><a xlink:href="commands_8h.html#a9be59878cc7204a7bad72685e83c5733" target="_top" xlink:title="Display a message in the pager. ">
<polygon fill="white" stroke="black" points="282.5,-930.5 282.5,-949.5 399.5,-949.5 399.5,-930.5 282.5,-930.5"/>
<text text-anchor="middle" x="341" y="-937.5" font-family="Helvetica,sans-Serif" font-size="10.00">mutt_display_message</text>
</a>
</g>
</g>
<!-- Node1&#45;&gt;Node2 -->
<g id="edge1" class="edge"><title>Node1&#45;&gt;Node2</title>
<path fill="none" stroke="midnightblue" d="M48.7789,-505.084C52.2133,-582.366 68.6755,-859.066 130,-916 172.356,-955.323 242.082,-955.345 289.468,-949.54"/>
<polygon fill="midnightblue" stroke="midnightblue" points="52.2643,-504.66 48.3487,-494.816 45.2705,-504.953 52.2643,-504.66"/>
</g>
<!-- Node3 -->
<g id="node3" class="node"><title>Node3</title>
<g id="a_node3"><a xlink:href="curs__main_8h.html#af7d9d8649ad205788c9af1bbf871207f" target="_top" xlink:title="Display a list of emails. ">
<polygon fill="white" stroke="red" points="455,-702.5 455,-721.5 549,-721.5 549,-702.5 455,-702.5"/>
<text text-anchor="middle" x="502" y="-709.5" font-family="Helvetica,sans-Serif" font-size="10.00">mutt_index_menu</text>
</a>
</g>
</g>
<!-- Node1&#45;&gt;Node3 -->
<g id="edge22" class="edge"><title>Node1&#45;&gt;Node3</title>
<path fill="none" stroke="midnightblue" d="M49.3351,-504.84C53.3291,-546.729 69.0438,-643.952 130,-688 180.68,-724.623 367.156,-719.558 454.848,-714.929"/>
<polygon fill="midnightblue" stroke="midnightblue" points="52.8171,-504.476 48.5064,-494.797 45.8408,-505.051 52.8171,-504.476"/>
</g>
<!-- Node4 -->
<g id="node4" class="node"><title>Node4</title>
<g id="a_node4"><a xlink:href="compose_8h.html#ad69c04d8ece089edb91f7b1178c2262c" target="_top" xlink:title="Allow the user to edit the message envelope. ">
<polygon fill="white" stroke="black" points="604,-626.5 604,-645.5 714,-645.5 714,-626.5 604,-626.5"/>
<text text-anchor="middle" x="659" y="-633.5" font-family="Helvetica,sans-Serif" font-size="10.00">mutt_compose_menu</text>
</a>
</g>
</g>
<!-- Node1&#45;&gt;Node4 -->
<g id="edge21" class="edge"><title>Node1&#45;&gt;Node4</title>
<path fill="none" stroke="midnightblue" d="M50.72,-504.691C57.0258,-541.798 76.4321,-621.365 130,-655 207.585,-703.716 485.555,-664.841 603.965,-645.405"/>
<polygon fill="midnightblue" stroke="midnightblue" points="54.1518,-503.982 49.1603,-494.636 47.2346,-505.055 54.1518,-503.982"/>
</g>
<!-- Node5 -->
<g id="node5" class="node"><title>Node5</title>
<g id="a_node5"><a xlink:href="send_8h.html#a09c909ab2bb41101590ed2b13f65fc2d" target="_top" xlink:title="Send an email. ">
<polygon fill="white" stroke="red" points="750.5,-418.5 750.5,-437.5 845.5,-437.5 845.5,-418.5 750.5,-418.5"/>
<text text-anchor="middle" x="798" y="-425.5" font-family="Helvetica,sans-Serif" font-size="10.00">ci_send_message</text>
</a>
</g>
</g>
<!-- Node1&#45;&gt;Node5 -->
<g id="edge59" class="edge"><title>Node1&#45;&gt;Node5</title>
<path fill="none" stroke="midnightblue" d="M52.4687,-465.275C61.1197,-432.106 83.5409,-365.778 130,-335 208.196,-283.197 246.201,-314 340,-314 340,-314 340,-314 503,-314 597.85,-314 629.218,-303.473 714,-346 748.763,-363.437 778.069,-400.844 790.549,-418.457"/>
<polygon fill="midnightblue" stroke="midnightblue" points="49.0289,-464.607 50.0479,-475.153 55.8277,-466.273 49.0289,-464.607"/>
</g>
<!-- Node6 -->
<g id="node6" class="node"><title>Node6</title>
<g id="a_node6"><a xlink:href="pager_8h.html#a1f4fb11389135c8767d9c4adca46f0d4" target="_top" xlink:title="Display a file, or help, in a window. ">
<polygon fill="white" stroke="red" points="1192.5,-778.5 1192.5,-797.5 1257.5,-797.5 1257.5,-778.5 1192.5,-778.5"/>
<text text-anchor="middle" x="1225" y="-785.5" font-family="Helvetica,sans-Serif" font-size="10.00">mutt_pager</text>
</a>
</g>
</g>
<!-- Node1&#45;&gt;Node6 -->
<g id="edge35" class="edge"><title>Node1&#45;&gt;Node6</title>
<path fill="none" stroke="midnightblue" d="M48.5387,-504.943C51.1436,-585.461 65.1233,-885.254 130,-948 197.77,-1013.54 245.719,-978 340,-978 340,-978 340,-978 941,-978 1041.91,-978 1077.9,-968.909 1156,-905 1192.55,-875.093 1213.62,-820.022 1220.99,-797.74"/>
<polygon fill="midnightblue" stroke="midnightblue" points="52.0301,-504.6 48.2322,-494.709 45.0332,-504.81 52.0301,-504.6"/>
</g>
<!-- Node7 -->
<g id="node7" class="node"><title>Node7</title>
<g id="a_node7"><a xlink:href="recvcmd_8c.html#ad985f78448cd381d34cb45b710eddc90" target="_top" xlink:title="forward one or several MIME bodies ">
<polygon fill="white" stroke="red" points="882.5,-418.5 882.5,-437.5 997.5,-437.5 997.5,-418.5 882.5,-418.5"/>
<text text-anchor="middle" x="940" y="-425.5" font-family="Helvetica,sans-Serif" font-size="10.00">attach_forward_bodies</text>
</a>
</g>
</g>
<!-- Node1&#45;&gt;Node7 -->
<g id="edge49" class="edge"><title>Node1&#45;&gt;Node7</title>
<path fill="none" stroke="midnightblue" d="M50.3652,-465.268C56.1565,-426.471 74.8578,-340.517 130,-300 205.702,-244.376 246.059,-276 340,-276 340,-276 340,-276 660,-276 775.018,-276 777.488,-360.973 882,-409 889.677,-412.528 898.203,-415.726 906.271,-418.449"/>
<polygon fill="midnightblue" stroke="midnightblue" points="46.8819,-464.91 49.005,-475.29 53.8183,-465.852 46.8819,-464.91"/>
</g>
<!-- Node8 -->
<g id="node8" class="node"><title>Node8</title>
<g id="a_node8"><a xlink:href="recvcmd_8c.html#ab5979027a0a9e06fb96e3e54ad77b9a7" target="_top" xlink:title="Forward one or several message&#45;type attachments. ">
<polygon fill="white" stroke="red" points="885,-380.5 885,-399.5 995,-399.5 995,-380.5 885,-380.5"/>
<text text-anchor="middle" x="940" y="-387.5" font-family="Helvetica,sans-Serif" font-size="10.00">attach_forward_msgs</text>
</a>
</g>
</g>
<!-- Node1&#45;&gt;Node8 -->
<g id="edge50" class="edge"><title>Node1&#45;&gt;Node8</title>
<path fill="none" stroke="midnightblue" d="M48.7683,-465.442C51.6471,-421.34 65.2997,-314.021 130,-263 203.806,-204.799 246.008,-238 340,-238 340,-238 340,-238 660,-238 746.999,-238 780.138,-242.158 846,-299 873.085,-322.376 854.972,-347.559 882,-371 886.492,-374.896 891.809,-377.998 897.362,-380.468"/>
<polygon fill="midnightblue" stroke="midnightblue" points="45.2725,-465.272 48.2349,-475.444 52.2626,-465.644 45.2725,-465.272"/>
</g>
<!-- Node9 -->
<g id="node9" class="node"><title>Node9</title>
<g id="a_node9"><a xlink:href="recvcmd_8h.html#a40682fa92a787a3a065716d851677599" target="_top" xlink:title="Attach a reply. ">
<polygon fill="white" stroke="black" points="892.5,-778.5 892.5,-797.5 987.5,-797.5 987.5,-778.5 892.5,-778.5"/>
<text text-anchor="middle" x="940" y="-785.5" font-family="Helvetica,sans-Serif" font-size="10.00">mutt_attach_reply</text>
</a>
</g>
</g>
<!-- Node1&#45;&gt;Node9 -->
<g id="edge51" class="edge"><title>Node1&#45;&gt;Node9</title>
<path fill="none" stroke="midnightblue" d="M49.3283,-505.206C54.4943,-577.259 75.7164,-820.021 130,-871 198.772,-935.586 245.655,-902 340,-902 340,-902 340,-902 660,-902 770.144,-902 887.79,-824.922 926.131,-797.523"/>
<polygon fill="midnightblue" stroke="midnightblue" points="52.792,-504.558 48.6119,-494.822 45.8086,-505.039 52.792,-504.558"/>
</g>
<!-- Node10 -->
<g id="node10" class="node"><title>Node10</title>
<g id="a_node10"><a xlink:href="recvattach_8h.html#a513215b1fd88e123dc01f6fa2b264594" target="_top" xlink:title="Show the attachments in a Menu. ">
<polygon fill="white" stroke="black" points="1034.5,-721.5 1034.5,-740.5 1155.5,-740.5 1155.5,-721.5 1034.5,-721.5"/>
<text text-anchor="middle" x="1095" y="-728.5" font-family="Helvetica,sans-Serif" font-size="10.00">mutt_view_attachments</text>
</a>
</g>
</g>
<!-- Node1&#45;&gt;Node10 -->
<g id="edge45" class="edge"><title>Node1&#45;&gt;Node10</title>
<path fill="none" stroke="midnightblue" d="M50.4382,-504.889C58.4083,-566.445 85.7505,-751.984 130,-790 181.561,-834.298 214.129,-803.216 282,-807 572.866,-823.215 920.7,-764.273 1046.05,-740.509"/>
<polygon fill="midnightblue" stroke="midnightblue" points="53.8649,-504.087 49.1393,-494.605 46.9201,-504.965 53.8649,-504.087"/>
</g>
<!-- Node11 -->
<g id="node11" class="node"><title>Node11</title>
<g id="a_node11"><a xlink:href="commands_8h.html#a2815f046da32dd09b3c3f4f93a1537b4" target="_top" xlink:title="Bounce an email. ">
<polygon fill="white" stroke="black" points="288,-854.5 288,-873.5 394,-873.5 394,-854.5 288,-854.5"/>
<text text-anchor="middle" x="341" y="-861.5" font-family="Helvetica,sans-Serif" font-size="10.00">ci_bounce_message</text>
</a>
</g>
</g>
<!-- Node1&#45;&gt;Node11 -->
<g id="edge15" class="edge"><title>Node1&#45;&gt;Node11</title>
<path fill="none" stroke="midnightblue" d="M49.6474,-504.957C55.6967,-573.045 79.0374,-794.503 130,-840 172.567,-878.001 240.904,-878.692 287.998,-873.378"/>
<polygon fill="midnightblue" stroke="midnightblue" points="53.1131,-504.407 48.7691,-494.743 46.1388,-505.006 53.1131,-504.407"/>
</g>
<!-- Node12 -->
<g id="node12" class="node"><title>Node12</title>
<g id="a_node12"><a xlink:href="commands_8h.html#a493d11c1be5c297d482b5937e4fd0ba2" target="_top" xlink:title="Print a message. ">
<polygon fill="white" stroke="black" points="288.5,-778.5 288.5,-797.5 393.5,-797.5 393.5,-778.5 288.5,-778.5"/>
<text text-anchor="middle" x="341" y="-785.5" font-family="Helvetica,sans-Serif" font-size="10.00">mutt_print_message</text>
</a>
</g>
</g>
<!-- Node1&#45;&gt;Node12 -->
<g id="edge18" class="edge"><title>Node1&#45;&gt;Node12</title>
<path fill="none" stroke="midnightblue" d="M47.3582,-504.85C46.8951,-555.603 53.2889,-690.76 130,-757 173.374,-794.453 241.538,-797.845 288.372,-794.735"/>
<polygon fill="midnightblue" stroke="midnightblue" points="50.8624,-504.666 47.5612,-494.598 43.8638,-504.527 50.8624,-504.666"/>
</g>
<!-- Node13 -->
<g id="node13" class="node"><title>Node13</title>
<g id="a_node13"><a xlink:href="imap__private_8h.html#ab37d302c150ffd48994b7f88c735e020" target="_top" xlink:title="Open an IMAP connection. ">
<polygon fill="white" stroke="red" points="130,-152.5 130,-171.5 246,-171.5 246,-152.5 130,-152.5"/>
<text text-anchor="middle" x="188" y="-159.5" font-family="Helvetica,sans-Serif" font-size="10.00">imap_open_connection</text>
</a>
</g>
</g>
<!-- Node1&#45;&gt;Node13 -->
<g id="edge23" class="edge"><title>Node1&#45;&gt;Node13</title>
<path fill="none" stroke="midnightblue" d="M47.7923,-465.076C48.3118,-412.715 56.7496,-269.522 130,-186 135.522,-179.703 142.971,-175.016 150.659,-171.541"/>
<polygon fill="midnightblue" stroke="midnightblue" points="44.2922,-465.33 47.7856,-475.333 51.2922,-465.335 44.2922,-465.33"/>
</g>
<!-- Node14 -->
<g id="node14" class="node"><title>Node14</title>
<g id="a_node14"><a xlink:href="mx_8h.html#ad0127b193da0a2a0f4469565d4a11c56" target="_top" xlink:title="save changes and close mailbox ">
<polygon fill="white" stroke="red" points="144,-608.5 144,-627.5 232,-627.5 232,-608.5 144,-608.5"/>
<text text-anchor="middle" x="188" y="-615.5" font-family="Helvetica,sans-Serif" font-size="10.00">mx_mbox_close</text>
</a>
</g>
</g>
<!-- Node1&#45;&gt;Node14 -->
<g id="edge24" class="edge"><title>Node1&#45;&gt;Node14</title>
<path fill="none" stroke="midnightblue" d="M57.8422,-503.578C71.2933,-527.404 97.4997,-568.663 130,-594 137.706,-600.007 147.136,-604.777 156.09,-608.429"/>
<polygon fill="midnightblue" stroke="midnightblue" points="60.9081,-501.89 53.0257,-494.811 54.7728,-505.26 60.9081,-501.89"/>
</g>
<!-- Node15 -->
<g id="node15" class="node"><title>Node15</title>
<g id="a_node15"><a xlink:href="pop_8h.html#ae41e43ca791955eb76c5709db39a21d7" target="_top" xlink:title="Fetch messages and save them in $spoolfile. ">
<polygon fill="white" stroke="black" points="299.5,-550.5 299.5,-569.5 382.5,-569.5 382.5,-550.5 299.5,-550.5"/>
<text text-anchor="middle" x="341" y="-557.5" font-family="Helvetica,sans-Serif" font-size="10.00">pop_fetch_mail</text>
</a>
</g>
</g>
<!-- Node1&#45;&gt;Node15 -->
<g id="edge36" class="edge"><title>Node1&#45;&gt;Node15</title>
<path fill="none" stroke="midnightblue" d="M60.6399,-502.841C75.0031,-521.409 100.339,-549.368 130,-561 185.495,-582.763 255.764,-576.319 299.298,-568.821"/>
<polygon fill="midnightblue" stroke="midnightblue" points="63.2785,-500.524 54.4994,-494.593 57.6637,-504.704 63.2785,-500.524"/>
</g>
<!-- Node16 -->
<g id="node16" class="node"><title>Node16</title>
<g id="a_node16"><a xlink:href="mx_8h.html#a357ee844041eb7512ae97023ff2f9488" target="_top" xlink:title="Save changes to mailbox. ">
<polygon fill="white" stroke="black" points="298,-740.5 298,-759.5 384,-759.5 384,-740.5 298,-740.5"/>
<text text-anchor="middle" x="341" y="-747.5" font-family="Helvetica,sans-Serif" font-size="10.00">mx_mbox_sync</text>
</a>
</g>
</g>
<!-- Node1&#45;&gt;Node16 -->
<g id="edge30" class="edge"><title>Node1&#45;&gt;Node16</title>
<path fill="none" stroke="midnightblue" d="M48.1107,-504.625C49.5363,-551.406 60.2186,-669.765 130,-726 177.43,-764.223 251.648,-762.967 297.971,-757.359"/>
<polygon fill="midnightblue" stroke="midnightblue" points="51.6094,-504.519 47.9189,-494.588 44.6107,-504.653 51.6094,-504.519"/>
</g>
<!-- Node17 -->
<g id="node17" class="node"><title>Node17</title>
<g id="a_node17"><a xlink:href="ncrypt_8h.html#a32971c8da3b857113a83d34f3c185f1d" target="_top" xlink:title="Encrypt and/or sign a message. ">
<polygon fill="white" stroke="black" points="623.5,-380.5 623.5,-399.5 694.5,-399.5 694.5,-380.5 623.5,-380.5"/>
<text text-anchor="middle" x="659" y="-387.5" font-family="Helvetica,sans-Serif" font-size="10.00">mutt_protect</text>
</a>
</g>
</g>
<!-- Node1&#45;&gt;Node17 -->
<g id="edge32" class="edge"><title>Node1&#45;&gt;Node17</title>
<path fill="none" stroke="midnightblue" d="M73.4492,-470.57C89.2364,-462.296 110.218,-452.491 130,-447 310.791,-396.82 537.796,-390.4 623.3,-389.877"/>
<polygon fill="midnightblue" stroke="midnightblue" points="71.4923,-467.649 64.3479,-475.472 74.8118,-473.812 71.4923,-467.649"/>
</g>
<!-- Node18 -->
<g id="node18" class="node"><title>Node18</title>
<g id="a_node18"><a xlink:href="nntp__private_8h.html#a864c34fdab5ddf5d793c021bbfc57d0e" target="_top" xlink:title="Connect to server, authenticate and get capabilities. ">
<polygon fill="white" stroke="red" points="131,-114.5 131,-133.5 245,-133.5 245,-114.5 131,-114.5"/>
<text text-anchor="middle" x="188" y="-121.5" font-family="Helvetica,sans-Serif" font-size="10.00">nntp_open_connection</text>
</a>
</g>
</g>
<!-- Node1&#45;&gt;Node18 -->
<g id="edge34" class="edge"><title>Node1&#45;&gt;Node18</title>
<path fill="none" stroke="midnightblue" d="M50.2131,-465.294C57.9298,-399.887 85.6181,-191.394 130,-143 133.525,-139.156 137.848,-136.089 142.522,-133.642"/>
<polygon fill="midnightblue" stroke="midnightblue" points="46.7092,-465.127 49.0398,-475.462 53.6631,-465.929 46.7092,-465.127"/>
</g>
<!-- Node19 -->
<g id="node19" class="node"><title>Node19</title>
<g id="a_node19"><a xlink:href="pop__private_8h.html#a9c34e1890bd21e4def6b67b744fe8cc3" target="_top" xlink:title="Open connection and authenticate. ">
<polygon fill="white" stroke="red" points="132.5,-532.5 132.5,-551.5 243.5,-551.5 243.5,-532.5 132.5,-532.5"/>
<text text-anchor="middle" x="188" y="-539.5" font-family="Helvetica,sans-Serif" font-size="10.00">pop_open_connection</text>
</a>
</g>
</g>
<!-- Node1&#45;&gt;Node19 -->
<g id="edge37" class="edge"><title>Node1&#45;&gt;Node19</title>
<path fill="none" stroke="midnightblue" d="M80.5331,-498.341C106.026,-508.795 140.88,-523.087 163.659,-532.428"/>
<polygon fill="midnightblue" stroke="midnightblue" points="81.8457,-495.096 71.2655,-494.541 79.1898,-501.573 81.8457,-495.096"/>
</g>
<!-- Node20 -->
<g id="node20" class="node"><title>Node20</title>
<g id="a_node20"><a xlink:href="pop__private_8h.html#a4d17074436b0e0565956ecb300d28cf2" target="_top" xlink:title="reconnect and verify indexes if connection was lost ">
<polygon fill="white" stroke="red" points="301,-503.5 301,-522.5 381,-522.5 381,-503.5 301,-503.5"/>
<text text-anchor="middle" x="341" y="-510.5" font-family="Helvetica,sans-Serif" font-size="10.00">pop_reconnect</text>
</a>
</g>
</g>
<!-- Node1&#45;&gt;Node20 -->
<g id="edge40" class="edge"><title>Node1&#45;&gt;Node20</title>
<path fill="none" stroke="midnightblue" d="M103.666,-490.338C161.353,-495.869 250.037,-504.373 300.771,-509.238"/>
<polygon fill="midnightblue" stroke="midnightblue" points="103.913,-486.846 93.625,-489.375 103.245,-493.814 103.913,-486.846"/>
</g>
<!-- Node21 -->
<g id="node21" class="node"><title>Node21</title>
<g id="a_node21"><a xlink:href="recvattach_8c.html#adf1dd9e8d7f5246ed4030d38a360b29b" target="_top" xlink:title="Print a list of Attachments. ">
<polygon fill="white" stroke="black" points="436,-550.5 436,-569.5 568,-569.5 568,-550.5 436,-550.5"/>
<text text-anchor="middle" x="502" y="-557.5" font-family="Helvetica,sans-Serif" font-size="10.00">mutt_print_attachment_list</text>
</a>
</g>
</g>
<!-- Node1&#45;&gt;Node21 -->
<g id="edge41" class="edge"><title>Node1&#45;&gt;Node21</title>
<path fill="none" stroke="midnightblue" d="M103.801,-477.123C174.551,-469.216 299.427,-462.267 400,-494 436.955,-505.66 473.244,-534.935 490.53,-550.277"/>
<polygon fill="midnightblue" stroke="midnightblue" points="103.292,-473.658 93.7642,-478.292 104.102,-480.611 103.292,-473.658"/>
</g>
<!-- Node22 -->
<g id="node22" class="node"><title>Node22</title>
<g id="a_node22"><a xlink:href="recvcmd_8h.html#a4894c4b5eb8d84ca5007940b13e5087e" target="_top" xlink:title="Bounce function, from the attachment menu. ">
<polygon fill="white" stroke="black" points="887.5,-342.5 887.5,-361.5 992.5,-361.5 992.5,-342.5 887.5,-342.5"/>
<text text-anchor="middle" x="940" y="-349.5" font-family="Helvetica,sans-Serif" font-size="10.00">mutt_attach_bounce</text>
</a>
</g>
</g>
<!-- Node1&#45;&gt;Node22 -->
<g id="edge46" class="edge"><title>Node1&#45;&gt;Node22</title>
<path fill="none" stroke="midnightblue" d="M47.5261,-465.14C47.5287,-415.553 55.0588,-285.863 130,-224 202.446,-164.197 246.059,-200 340,-200 340,-200 340,-200 660,-200 744.557,-200 773.686,-196.177 846,-240 889.446,-266.328 922,-320.358 933.983,-342.358"/>
<polygon fill="midnightblue" stroke="midnightblue" points="44.0296,-465.485 47.6398,-475.445 51.0292,-465.407 44.0296,-465.485"/>
</g>
<!-- Node23 -->
<g id="node23" class="node"><title>Node23</title>
<g id="a_node23"><a xlink:href="send_8c.html#aa5e9fbc05824f7864dad9246248183fc" target="_top" xlink:title="Edit Envelope fields. ">
<polygon fill="white" stroke="black" points="463.5,-342.5 463.5,-361.5 540.5,-361.5 540.5,-342.5 463.5,-342.5"/>
<text text-anchor="middle" x="502" y="-349.5" font-family="Helvetica,sans-Serif" font-size="10.00">edit_envelope</text>
</a>
</g>
</g>
<!-- Node1&#45;&gt;Node23 -->
<g id="edge52" class="edge"><title>Node1&#45;&gt;Node23</title>
<path fill="none" stroke="midnightblue" d="M56.1401,-465.809C68.1354,-440.229 93.1915,-395.88 130,-376 239.038,-317.108 393.206,-333.054 463.476,-344.708"/>
<polygon fill="midnightblue" stroke="midnightblue" points="52.8271,-464.644 51.9292,-475.2 59.2144,-467.508 52.8271,-464.644"/>
</g>
<!-- Node24 -->
<g id="node24" class="node"><title>Node24</title>
<g id="a_node24"><a xlink:href="send_8c.html#aaec5fb925baf7e91165e27f6677977ee" target="_top" xlink:title="Generate default email addresses. ">
<polygon fill="white" stroke="black" points="158.5,-38.5 158.5,-57.5 217.5,-57.5 217.5,-38.5 158.5,-38.5"/>
<text text-anchor="middle" x="188" y="-45.5" font-family="Helvetica,sans-Serif" font-size="10.00">default_to</text>
</a>
</g>
</g>
<!-- Node1&#45;&gt;Node24 -->
<g id="edge54" class="edge"><title>Node1&#45;&gt;Node24</title>
<path fill="none" stroke="midnightblue" d="M49.4899,-465.293C55.4118,-391.692 79.4583,-133.974 130,-72 137.125,-63.263 147.995,-57.6555 158.338,-54.0803"/>
<polygon fill="midnightblue" stroke="midnightblue" points="45.9847,-465.224 48.6938,-475.466 52.9634,-465.77 45.9847,-465.224"/>
</g>
<!-- Node25 -->
<g id="node25" class="node"><title>Node25</title>
<g id="a_node25"><a xlink:href="send_8h.html#a4d715fd0327fde01ebbab857a3a31fbf" target="_top" xlink:title="Generate recpients for a reply email. ">
<polygon fill="white" stroke="red" points="293.5,-57.5 293.5,-76.5 388.5,-76.5 388.5,-57.5 293.5,-57.5"/>
<text text-anchor="middle" x="341" y="-64.5" font-family="Helvetica,sans-Serif" font-size="10.00">mutt_fetch_recips</text>
</a>
</g>
</g>
<!-- Node1&#45;&gt;Node25 -->
<g id="edge56" class="edge"><title>Node1&#45;&gt;Node25</title>
<path fill="none" stroke="midnightblue" d="M49.4339,-465.163C54.9609,-394.419 77.2636,-155.998 130,-105 152.772,-82.9787 238.82,-73.4215 293.451,-69.5027"/>
<polygon fill="midnightblue" stroke="midnightblue" points="45.9271,-465.123 48.6644,-475.358 52.9072,-465.65 45.9271,-465.123"/>
</g>
<!-- Node26 -->
<g id="node26" class="node"><title>Node26</title>
<g id="a_node26"><a xlink:href="send_8c.html#a78319c70a25a901804c6fa76cb5cbe37" target="_top" xlink:title="Create a new email body. ">
<polygon fill="white" stroke="black" points="619,-418.5 619,-437.5 699,-437.5 699,-418.5 619,-418.5"/>
<text text-anchor="middle" x="659" y="-425.5" font-family="Helvetica,sans-Serif" font-size="10.00">generate_body</text>
</a>
</g>
</g>
<!-- Node1&#45;&gt;Node26 -->
<g id="edge57" class="edge"><title>Node1&#45;&gt;Node26</title>
<path fill="none" stroke="midnightblue" d="M93.7353,-473.076C105.485,-470.379 118.154,-467.788 130,-466 311.296,-438.643 530.681,-430.847 618.689,-428.738"/>
<polygon fill="midnightblue" stroke="midnightblue" points="92.6144,-469.744 83.6905,-475.455 94.2281,-476.556 92.6144,-469.744"/>
</g>
<!-- Node27 -->
<g id="node27" class="node"><title>Node27</title>
<g id="a_node27"><a xlink:href="smtp_8c.html#a219902e5bbdd76be27f74fc559ebb09c" target="_top" xlink:title="Open an SMTP Connection. ">
<polygon fill="white" stroke="red" points="155.5,-0.5 155.5,-19.5 220.5,-19.5 220.5,-0.5 155.5,-0.5"/>
<text text-anchor="middle" x="188" y="-7.5" font-family="Helvetica,sans-Serif" font-size="10.00">smtp_open</text>
</a>
</g>
</g>
<!-- Node1&#45;&gt;Node27 -->
<g id="edge60" class="edge"><title>Node1&#45;&gt;Node27</title>
<path fill="none" stroke="midnightblue" d="M48.9366,-465.153C53.0431,-386.286 71.9215,-96.0958 130,-29 136.486,-21.5075 146.007,-16.9594 155.418,-14.2021"/>
<polygon fill="midnightblue" stroke="midnightblue" points="45.4379,-465.042 48.4351,-475.204 52.4292,-465.391 45.4379,-465.042"/>
</g>
<!-- Node2&#45;&gt;Node3 -->
<g id="edge2" class="edge"><title>Node2&#45;&gt;Node3</title>
<path fill="none" stroke="midnightblue" d="M361.222,-923.473C373.171,-912.653 388.409,-897.818 400,-883 444.186,-826.512 483.245,-748.93 496.339,-721.823"/>
<polygon fill="midnightblue" stroke="midnightblue" points="358.717,-921.017 353.561,-930.272 363.364,-926.252 358.717,-921.017"/>
</g>
<!-- Node3&#45;&gt;Node4 -->
<g id="edge3" class="edge"><title>Node3&#45;&gt;Node4</title>
<path fill="none" stroke="midnightblue" d="M544.535,-698.837C552.522,-695.706 560.675,-692.072 568,-688 585.716,-678.151 586.611,-670.415 604,-660 613.153,-654.518 623.782,-649.529 633.176,-645.537"/>
<polygon fill="midnightblue" stroke="midnightblue" points="543.095,-695.639 534.942,-702.404 545.535,-702.2 543.095,-695.639"/>
</g>
<!-- Node4&#45;&gt;Node5 -->
<g id="edge4" class="edge"><title>Node4&#45;&gt;Node5</title>
<path fill="none" stroke="midnightblue" d="M672.043,-617.716C700.062,-575.176 768.871,-470.706 790.43,-437.974"/>
<polygon fill="midnightblue" stroke="midnightblue" points="669.002,-615.97 666.424,-626.247 674.848,-619.821 669.002,-615.97"/>
</g>
<!-- Node5&#45;&gt;Node3 -->
<g id="edge5" class="edge"><title>Node5&#45;&gt;Node3</title>
<path fill="none" stroke="midnightblue" d="M795.68,-447.942C791.662,-492.039 775.742,-598.392 714,-655 690.087,-676.925 603.976,-694.992 549.429,-704.572"/>
<polygon fill="midnightblue" stroke="midnightblue" points="799.173,-448.162 796.481,-437.915 792.196,-447.605 799.173,-448.162"/>
</g>
<!-- Node5&#45;&gt;Node6 -->
<g id="edge6" class="edge"><title>Node5&#45;&gt;Node6</title>
<path fill="none" stroke="midnightblue" d="M843.787,-440.26C934.617,-465.486 1133.8,-522.774 1156,-546 1221.73,-614.779 1224.82,-741.907 1224.29,-778.133"/>
<polygon fill="midnightblue" stroke="midnightblue" points="844.615,-436.858 834.044,-437.562 842.747,-443.604 844.615,-436.858"/>
</g>
<!-- Node5&#45;&gt;Node7 -->
<g id="edge8" class="edge"><title>Node5&#45;&gt;Node7</title>
<path fill="none" stroke="midnightblue" d="M855.753,-428C864.528,-428 873.593,-428 882.366,-428"/>
<polygon fill="midnightblue" stroke="midnightblue" points="855.618,-424.5 845.618,-428 855.618,-431.5 855.618,-424.5"/>
</g>
<!-- Node5&#45;&gt;Node8 -->
<g id="edge9" class="edge"><title>Node5&#45;&gt;Node8</title>
<path fill="none" stroke="midnightblue" d="M844.118,-415.754C863.415,-410.516 885.612,-404.491 903.683,-399.586"/>
<polygon fill="midnightblue" stroke="midnightblue" points="843.062,-412.414 834.328,-418.411 844.896,-419.169 843.062,-412.414"/>
</g>
<!-- Node5&#45;&gt;Node9 -->
<g id="edge10" class="edge"><title>Node5&#45;&gt;Node9</title>
<path fill="none" stroke="midnightblue" d="M806.467,-447.202C832.137,-513.209 916.217,-729.416 935.178,-778.172"/>
<polygon fill="midnightblue" stroke="midnightblue" points="809.631,-445.681 802.745,-437.629 803.107,-448.218 809.631,-445.681"/>
</g>
<!-- Node6&#45;&gt;Node2 -->
<g id="edge7" class="edge"><title>Node6&#45;&gt;Node2</title>
<path fill="none" stroke="midnightblue" d="M1210,-805.633C1197.27,-820.707 1177.26,-842.103 1156,-856 1070.13,-912.13 1043.59,-940 941,-940 658,-940 658,-940 658,-940 567.753,-940 463.009,-940 399.663,-940"/>
<polygon fill="midnightblue" stroke="midnightblue" points="1212.97,-807.54 1216.61,-797.593 1207.56,-803.094 1212.97,-807.54"/>
</g>
<!-- Node9&#45;&gt;Node6 -->
<g id="edge11" class="edge"><title>Node9&#45;&gt;Node6</title>
<path fill="none" stroke="midnightblue" d="M997.908,-788C1056.32,-788 1145.11,-788 1192.15,-788"/>
<polygon fill="midnightblue" stroke="midnightblue" points="997.732,-784.5 987.732,-788 997.732,-791.5 997.732,-784.5"/>
</g>
<!-- Node9&#45;&gt;Node10 -->
<g id="edge12" class="edge"><title>Node9&#45;&gt;Node10</title>
<path fill="none" stroke="midnightblue" d="M976.07,-774.935C1004.19,-764.457 1043.01,-749.995 1068.31,-740.572"/>
<polygon fill="midnightblue" stroke="midnightblue" points="974.758,-771.689 966.609,-778.459 977.201,-778.248 974.758,-771.689"/>
</g>
<!-- Node10&#45;&gt;Node3 -->
<g id="edge13" class="edge"><title>Node10&#45;&gt;Node3</title>
<path fill="none" stroke="midnightblue" d="M1024.15,-728.754C901.96,-724.826 652.626,-716.81 549.375,-713.491"/>
<polygon fill="midnightblue" stroke="midnightblue" points="1024.39,-732.264 1034.5,-729.087 1024.62,-725.267 1024.39,-732.264"/>
</g>
<!-- Node10&#45;&gt;Node6 -->
<g id="edge14" class="edge"><title>Node10&#45;&gt;Node6</title>
<path fill="none" stroke="midnightblue" d="M1126.58,-744.618C1150,-755.046 1181.71,-769.17 1202.51,-778.428"/>
<polygon fill="midnightblue" stroke="midnightblue" points="1127.98,-741.411 1117.42,-740.541 1125.14,-747.806 1127.98,-741.411"/>
</g>
<!-- Node11&#45;&gt;Node3 -->
<g id="edge16" class="edge"><title>Node11&#45;&gt;Node3</title>
<path fill="none" stroke="midnightblue" d="M359.566,-847.207C392.988,-815.257 464.738,-746.665 491.058,-721.505"/>
<polygon fill="midnightblue" stroke="midnightblue" points="356.756,-845.052 351.946,-854.492 361.593,-850.111 356.756,-845.052"/>
</g>
<!-- Node11&#45;&gt;Node6 -->
<g id="edge17" class="edge"><title>Node11&#45;&gt;Node6</title>
<path fill="none" stroke="midnightblue" d="M404.283,-864C468.017,-864 569.914,-864 658,-864 658,-864 658,-864 941,-864 1038.11,-864 1064.41,-857.284 1156,-825 1175.52,-818.119 1196.16,-806.128 1209.51,-797.664"/>
<polygon fill="midnightblue" stroke="midnightblue" points="404.003,-860.5 394.003,-864 404.003,-867.5 404.003,-860.5"/>
</g>
<!-- Node12&#45;&gt;Node3 -->
<g id="edge19" class="edge"><title>Node12&#45;&gt;Node3</title>
<path fill="none" stroke="midnightblue" d="M384.421,-775.183C389.727,-773.265 395.031,-771.19 400,-769 431.873,-754.95 466.792,-733.859 486.085,-721.659"/>
<polygon fill="midnightblue" stroke="midnightblue" points="383.251,-771.884 374.941,-778.457 385.536,-778.501 383.251,-771.884"/>
</g>
<!-- Node12&#45;&gt;Node6 -->
<g id="edge20" class="edge"><title>Node12&#45;&gt;Node6</title>
<path fill="none" stroke="midnightblue" d="M400.957,-799.367C464.239,-810.563 567.84,-826 658,-826 658,-826 658,-826 941,-826 1032.96,-826 1140.24,-806.048 1192.36,-795.058"/>
<polygon fill="midnightblue" stroke="midnightblue" points="401.233,-795.861 390.772,-797.54 399.997,-802.751 401.233,-795.861"/>
</g>
<!-- Node14&#45;&gt;Node3 -->
<g id="edge26" class="edge"><title>Node14&#45;&gt;Node3</title>
<path fill="none" stroke="midnightblue" d="M230.26,-630.431C293.355,-649.44 412.459,-685.324 469.283,-702.444"/>
<polygon fill="midnightblue" stroke="midnightblue" points="231.218,-627.064 220.633,-627.531 229.198,-633.767 231.218,-627.064"/>
</g>
<!-- Node14&#45;&gt;Node4 -->
<g id="edge25" class="edge"><title>Node14&#45;&gt;Node4</title>
<path fill="none" stroke="midnightblue" d="M242.538,-620.055C332.565,-623.51 513.28,-630.446 603.77,-633.919"/>
<polygon fill="midnightblue" stroke="midnightblue" points="242.409,-616.547 232.282,-619.661 242.14,-623.542 242.409,-616.547"/>
</g>
<!-- Node14&#45;&gt;Node14 -->
<g id="edge27" class="edge"><title>Node14&#45;&gt;Node14</title>
<path fill="none" stroke="midnightblue" d="M161.958,-637.029C163.379,-642.128 172.059,-646 188,-646 212.883,-646 220.076,-636.565 209.578,-627.757"/>
<polygon fill="midnightblue" stroke="midnightblue" points="165.238,-638.286 166.422,-627.757 158.931,-635.249 165.238,-638.286"/>
</g>
<!-- Node14&#45;&gt;Node15 -->
<g id="edge28" class="edge"><title>Node14&#45;&gt;Node15</title>
<path fill="none" stroke="midnightblue" d="M223.319,-604.818C251.24,-594.093 289.988,-579.21 315.028,-569.592"/>
<polygon fill="midnightblue" stroke="midnightblue" points="222.015,-601.569 213.935,-608.422 224.525,-608.104 222.015,-601.569"/>
</g>
<!-- Node15&#45;&gt;Node3 -->
<g id="edge29" class="edge"><title>Node15&#45;&gt;Node3</title>
<path fill="none" stroke="midnightblue" d="M359.566,-576.793C392.988,-608.743 464.738,-677.335 491.058,-702.495"/>
<polygon fill="midnightblue" stroke="midnightblue" points="361.593,-573.889 351.946,-569.508 356.756,-578.948 361.593,-573.889"/>
</g>
<!-- Node16&#45;&gt;Node3 -->
<g id="edge31" class="edge"><title>Node16&#45;&gt;Node3</title>
<path fill="none" stroke="midnightblue" d="M392.077,-738.032C414.358,-732.707 440.229,-726.524 461.166,-721.52"/>
<polygon fill="midnightblue" stroke="midnightblue" points="391.035,-734.682 382.122,-740.411 392.662,-741.491 391.035,-734.682"/>
</g>
<!-- Node17&#45;&gt;Node5 -->
<g id="edge33" class="edge"><title>Node17&#45;&gt;Node5</title>
<path fill="none" stroke="midnightblue" d="M704.411,-402.318C723.234,-407.539 744.838,-413.532 762.44,-418.414"/>
<polygon fill="midnightblue" stroke="midnightblue" points="705.143,-398.889 694.571,-399.589 703.272,-405.635 705.143,-398.889"/>
</g>
<!-- Node19&#45;&gt;Node15 -->
<g id="edge38" class="edge"><title>Node19&#45;&gt;Node15</title>
<path fill="none" stroke="midnightblue" d="M253.589,-549.699C269.1,-551.548 285.238,-553.472 299.311,-555.15"/>
<polygon fill="midnightblue" stroke="midnightblue" points="253.858,-546.207 243.514,-548.498 253.03,-553.158 253.858,-546.207"/>
</g>
<!-- Node19&#45;&gt;Node20 -->
<g id="edge39" class="edge"><title>Node19&#45;&gt;Node20</title>
<path fill="none" stroke="midnightblue" d="M248.948,-530.487C266.355,-527.144 284.915,-523.579 300.707,-520.546"/>
<polygon fill="midnightblue" stroke="midnightblue" points="248.022,-527.101 238.862,-532.424 249.342,-533.975 248.022,-527.101"/>
</g>
<!-- Node21&#45;&gt;Node4 -->
<g id="edge42" class="edge"><title>Node21&#45;&gt;Node4</title>
<path fill="none" stroke="midnightblue" d="M544.535,-573.163C552.522,-576.294 560.675,-579.928 568,-584 585.716,-593.849 586.611,-601.585 604,-612 613.153,-617.482 623.782,-622.471 633.176,-626.463"/>
<polygon fill="midnightblue" stroke="midnightblue" points="545.535,-569.8 534.942,-569.596 543.095,-576.361 545.535,-569.8"/>
</g>
<!-- Node21&#45;&gt;Node6 -->
<g id="edge43" class="edge"><title>Node21&#45;&gt;Node6</title>
<path fill="none" stroke="midnightblue" d="M578.147,-560C637.55,-560 722.574,-560 797,-560 797,-560 797,-560 941,-560 1082.64,-560 1193.5,-735.343 1218.63,-778.493"/>
<polygon fill="midnightblue" stroke="midnightblue" points="578.101,-556.5 568.101,-560 578.101,-563.5 578.101,-556.5"/>
</g>
<!-- Node21&#45;&gt;Node10 -->
<g id="edge44" class="edge"><title>Node21&#45;&gt;Node10</title>
<path fill="none" stroke="midnightblue" d="M549.529,-572.175C592.351,-583.473 657.582,-600.92 714,-617 844.16,-654.097 998.391,-701.41 1063.05,-721.4"/>
<polygon fill="midnightblue" stroke="midnightblue" points="550.24,-568.743 539.678,-569.58 548.457,-575.512 550.24,-568.743"/>
</g>
<!-- Node22&#45;&gt;Node6 -->
<g id="edge47" class="edge"><title>Node22&#45;&gt;Node6</title>
<path fill="none" stroke="midnightblue" d="M983.397,-364.836C1033.35,-382.317 1114.75,-418.666 1156,-480 1223.85,-580.873 1225.16,-738.415 1224.31,-778.482"/>
<polygon fill="midnightblue" stroke="midnightblue" points="984.442,-361.494 973.847,-361.59 982.189,-368.122 984.442,-361.494"/>
</g>
<!-- Node22&#45;&gt;Node10 -->
<g id="edge48" class="edge"><title>Node22&#45;&gt;Node10</title>
<path fill="none" stroke="midnightblue" d="M993.582,-366.965C995.152,-368.205 996.633,-369.547 998,-371 1097.94,-477.245 1096.3,-675.645 1094.49,-721.412"/>
<polygon fill="midnightblue" stroke="midnightblue" points="995.421,-363.987 985.103,-361.584 991.67,-369.897 995.421,-363.987"/>
</g>
<!-- Node23&#45;&gt;Node5 -->
<g id="edge53" class="edge"><title>Node23&#45;&gt;Node5</title>
<path fill="none" stroke="midnightblue" d="M550.903,-349.51C594.664,-348.803 660.502,-351.726 714,-371 743.273,-381.546 771.966,-404.984 786.732,-418.287"/>
<polygon fill="midnightblue" stroke="midnightblue" points="550.738,-346.013 540.822,-349.744 550.9,-353.011 550.738,-346.013"/>
</g>
<!-- Node24&#45;&gt;Node25 -->
<g id="edge55" class="edge"><title>Node24&#45;&gt;Node25</title>
<path fill="none" stroke="midnightblue" d="M227.744,-52.8751C247.714,-55.3879 272.222,-58.4717 293.238,-61.1161"/>
<polygon fill="midnightblue" stroke="midnightblue" points="228.116,-49.3944 217.757,-51.6185 227.242,-56.3396 228.116,-49.3944"/>
</g>
<!-- Node26&#45;&gt;Node5 -->
<g id="edge58" class="edge"><title>Node26&#45;&gt;Node5</title>
<path fill="none" stroke="midnightblue" d="M709.277,-428C722.7,-428 737.195,-428 750.461,-428"/>
<polygon fill="midnightblue" stroke="midnightblue" points="709.259,-424.5 699.259,-428 709.259,-431.5 709.259,-424.5"/>
</g>
</g>
</svg>
