<?xml version="1.0" encoding="UTF-8" standalone="no"?>
<!DOCTYPE svg PUBLIC "-//W3C//DTD SVG 1.1//EN"
 "http://www.w3.org/Graphics/SVG/1.1/DTD/svg11.dtd">
<!-- Generated by graphviz version 2.36.0 (20140111.2315)
 -->
<!-- Title: parse_tag_transforms Pages: 1 -->
<svg width="380pt" height="160pt"
 viewBox="0.00 0.00 380.00 160.00" xmlns="http://www.w3.org/2000/svg" xmlns:xlink="http://www.w3.org/1999/xlink">
<g id="graph0" class="graph" transform="scale(1 1) rotate(0) translate(4 156)">
<title>parse_tag_transforms</title>
<polygon fill="white" stroke="none" points="-4,4 -4,-156 376,-156 376,4 -4,4"/>
<!-- Node1 -->
<g id="node1" class="node"><title>Node1</title>
<polygon fill="#bfbfbf" stroke="black" points="0.5,-57.5 0.5,-76.5 111.5,-76.5 111.5,-57.5 0.5,-57.5"/>
<text text-anchor="middle" x="56" y="-64.5" font-family="Helvetica,sans-Serif" font-size="10.00">parse_tag_transforms</text>
</g>
<!-- Node2 -->
<g id="node2" class="node"><title>Node2</title>
<g id="a_node2"><a xlink:href="init_8c.html#a382f7640ccb9d1b02550b77cb91341cd" target="_top" xlink:title="Extract one token from a string. ">
<polygon fill="white" stroke="red" points="148.5,-114.5 148.5,-133.5 249.5,-133.5 249.5,-114.5 148.5,-114.5"/>
<text text-anchor="middle" x="199" y="-121.5" font-family="Helvetica,sans-Serif" font-size="10.00">mutt_extract_token</text>
</a>
</g>
</g>
<!-- Node1&#45;&gt;Node2 -->
<g id="edge1" class="edge"><title>Node1&#45;&gt;Node2</title>
<path fill="none" stroke="midnightblue" d="M80.6002,-76.5405C103.68,-85.8705 139.031,-100.162 164.913,-110.624"/>
<polygon fill="midnightblue" stroke="midnightblue" points="163.74,-113.925 174.323,-114.428 166.363,-107.436 163.74,-113.925"/>
</g>
<!-- Node3 -->
<g id="node3" class="node"><title>Node3</title>
<g id="a_node3"><a xlink:href="mutt_2string_8c.html#ae48085384a6545e0fac589a88243ea31" target="_top" xlink:title="Copy a string, safely. ">
<polygon fill="white" stroke="red" points="286.5,-95.5 286.5,-114.5 371.5,-114.5 371.5,-95.5 286.5,-95.5"/>
<text text-anchor="middle" x="329" y="-102.5" font-family="Helvetica,sans-Serif" font-size="10.00">mutt_str_strdup</text>
</a>
</g>
</g>
<!-- Node1&#45;&gt;Node3 -->
<g id="edge4" class="edge"><title>Node1&#45;&gt;Node3</title>
<path fill="none" stroke="midnightblue" d="M111.515,-74.6442C159.61,-81.3881 229.206,-91.147 276.405,-97.7653"/>
<polygon fill="midnightblue" stroke="midnightblue" points="276.026,-101.246 286.415,-99.169 276.998,-94.3142 276.026,-101.246"/>
</g>
<!-- Node4 -->
<g id="node4" class="node"><title>Node4</title>
<g id="a_node4"><a xlink:href="hash_8c.html#a0f549503a9e1c3cdeae6b67cb7967e5c" target="_top" xlink:title="Find the HashElem data in a Hash table element using a key. ">
<polygon fill="white" stroke="red" points="157.5,-38.5 157.5,-57.5 240.5,-57.5 240.5,-38.5 157.5,-38.5"/>
<text text-anchor="middle" x="199" y="-45.5" font-family="Helvetica,sans-Serif" font-size="10.00">mutt_hash_find</text>
</a>
</g>
</g>
<!-- Node1&#45;&gt;Node4 -->
<g id="edge5" class="edge"><title>Node1&#45;&gt;Node4</title>
<path fill="none" stroke="midnightblue" d="M111.514,-59.6541C123.262,-58.0711 135.635,-56.4038 147.233,-54.841"/>
<polygon fill="midnightblue" stroke="midnightblue" points="147.747,-58.3034 157.19,-53.4992 146.812,-51.3661 147.747,-58.3034"/>
</g>
<!-- Node5 -->
<g id="node5" class="node"><title>Node5</title>
<g id="a_node5"><a xlink:href="hash_8c.html#a9b87f06a415a57b428ec196857a03e9e" target="_top" xlink:title="Add a new element to the Hash table (with string keys) ">
<polygon fill="white" stroke="red" points="153,-0.5 153,-19.5 245,-19.5 245,-0.5 153,-0.5"/>
<text text-anchor="middle" x="199" y="-7.5" font-family="Helvetica,sans-Serif" font-size="10.00">mutt_hash_insert</text>
</a>
</g>
</g>
<!-- Node1&#45;&gt;Node5 -->
<g id="edge6" class="edge"><title>Node1&#45;&gt;Node5</title>
<path fill="none" stroke="midnightblue" d="M79.3554,-57.4271C97.7257,-49.6181 124.463,-38.3836 148,-29 152.836,-27.0721 157.952,-25.0773 162.993,-23.1375"/>
<polygon fill="midnightblue" stroke="midnightblue" points="164.408,-26.3437 172.502,-19.5069 161.911,-19.8041 164.408,-26.3437"/>
</g>
<!-- Node2&#45;&gt;Node2 -->
<g id="edge2" class="edge"><title>Node2&#45;&gt;Node2</title>
<path fill="none" stroke="midnightblue" d="M178.963,-133.757C169.216,-142.565 175.895,-152 199,-152 213.802,-152 221.862,-148.128 223.181,-143.029"/>
<polygon fill="midnightblue" stroke="midnightblue" points="226.313,-141.458 219.037,-133.757 219.922,-144.315 226.313,-141.458"/>
</g>
<!-- Node2&#45;&gt;Node3 -->
<g id="edge3" class="edge"><title>Node2&#45;&gt;Node3</title>
<path fill="none" stroke="midnightblue" d="M249.855,-116.6C258.533,-115.312 267.576,-113.969 276.302,-112.674"/>
<polygon fill="midnightblue" stroke="midnightblue" points="276.981,-116.112 286.359,-111.181 275.954,-109.187 276.981,-116.112"/>
</g>
</g>
</svg>
