<?xml version="1.0" encoding="UTF-8" standalone="no"?>
<!DOCTYPE svg PUBLIC "-//W3C//DTD SVG 1.1//EN"
 "http://www.w3.org/Graphics/SVG/1.1/DTD/svg11.dtd">
<!-- Generated by graphviz version 2.36.0 (20140111.2315)
 -->
<!-- Title: parse_subscribe Pages: 1 -->
<svg width="388pt" height="239pt"
 viewBox="0.00 0.00 388.00 239.00" xmlns="http://www.w3.org/2000/svg" xmlns:xlink="http://www.w3.org/1999/xlink">
<g id="graph0" class="graph" transform="scale(1 1) rotate(0) translate(4 235)">
<title>parse_subscribe</title>
<polygon fill="white" stroke="none" points="-4,4 -4,-235 384,-235 384,4 -4,4"/>
<!-- Node1 -->
<g id="node1" class="node"><title>Node1</title>
<polygon fill="#bfbfbf" stroke="black" points="0,-106.5 0,-125.5 88,-125.5 88,-106.5 0,-106.5"/>
<text text-anchor="middle" x="44" y="-113.5" font-family="Helvetica,sans-Serif" font-size="10.00">parse_subscribe</text>
</g>
<!-- Node2 -->
<g id="node2" class="node"><title>Node2</title>
<g id="a_node2"><a xlink:href="init_8c.html#a382f7640ccb9d1b02550b77cb91341cd" target="_top" xlink:title="Extract one token from a string. ">
<polygon fill="white" stroke="red" points="277.5,-193.5 277.5,-212.5 378.5,-212.5 378.5,-193.5 277.5,-193.5"/>
<text text-anchor="middle" x="328" y="-200.5" font-family="Helvetica,sans-Serif" font-size="10.00">mutt_extract_token</text>
</a>
</g>
</g>
<!-- Node1&#45;&gt;Node2 -->
<g id="edge1" class="edge"><title>Node1&#45;&gt;Node2</title>
<path fill="none" stroke="midnightblue" d="M51.4327,-125.675C63.3844,-142.702 90.8382,-177.583 124,-192 169.153,-211.63 225.374,-213.133 267.194,-210.435"/>
<polygon fill="midnightblue" stroke="midnightblue" points="267.517,-213.921 277.23,-209.69 266.998,-206.94 267.517,-213.921"/>
</g>
<!-- Node3 -->
<g id="node3" class="node"><title>Node3</title>
<g id="a_node3"><a xlink:href="init_8c.html#a7715fb79a29e79ad20728f6577071c5a" target="_top" xlink:title="Parse a group context. ">
<polygon fill="white" stroke="red" points="128.5,-163.5 128.5,-182.5 235.5,-182.5 235.5,-163.5 128.5,-163.5"/>
<text text-anchor="middle" x="182" y="-170.5" font-family="Helvetica,sans-Serif" font-size="10.00">parse_group_context</text>
</a>
</g>
</g>
<!-- Node1&#45;&gt;Node3 -->
<g id="edge3" class="edge"><title>Node1&#45;&gt;Node3</title>
<path fill="none" stroke="midnightblue" d="M67.7633,-125.541C89.9262,-134.829 123.822,-149.036 148.755,-159.486"/>
<polygon fill="midnightblue" stroke="midnightblue" points="147.587,-162.791 158.162,-163.428 150.293,-156.335 147.587,-162.791"/>
</g>
<!-- Node4 -->
<g id="node4" class="node"><title>Node4</title>
<g id="a_node4"><a xlink:href="group_8c.html#ab72e9a6349098240dfa2257789226cc4" target="_top" xlink:title="Destroy a Group List. ">
<polygon fill="white" stroke="black" points="276.5,-136 276.5,-166 379.5,-166 379.5,-136 276.5,-136"/>
<text text-anchor="start" x="284.5" y="-154" font-family="Helvetica,sans-Serif" font-size="10.00">mutt_group_context</text>
<text text-anchor="middle" x="328" y="-143" font-family="Helvetica,sans-Serif" font-size="10.00">_destroy</text>
</a>
</g>
</g>
<!-- Node1&#45;&gt;Node4 -->
<g id="edge9" class="edge"><title>Node1&#45;&gt;Node4</title>
<path fill="none" stroke="midnightblue" d="M88.1367,-121.354C135.68,-127.255 212.515,-136.791 266.163,-143.449"/>
<polygon fill="midnightblue" stroke="midnightblue" points="265.878,-146.941 276.233,-144.699 266.74,-139.994 265.878,-146.941"/>
</g>
<!-- Node5 -->
<g id="node5" class="node"><title>Node5</title>
<g id="a_node5"><a xlink:href="mutt_2regex_8c.html#ad6b7185d2513f4900798cd54994d5015" target="_top" xlink:title="Remove a Regex from a list. ">
<polygon fill="white" stroke="red" points="124,-87.5 124,-106.5 240,-106.5 240,-87.5 124,-87.5"/>
<text text-anchor="middle" x="182" y="-94.5" font-family="Helvetica,sans-Serif" font-size="10.00">mutt_regexlist_remove</text>
</a>
</g>
</g>
<!-- Node1&#45;&gt;Node5 -->
<g id="edge6" class="edge"><title>Node1&#45;&gt;Node5</title>
<path fill="none" stroke="midnightblue" d="M88.0312,-109.988C96.1975,-108.847 104.922,-107.629 113.632,-106.412"/>
<polygon fill="midnightblue" stroke="midnightblue" points="114.397,-109.839 123.816,-104.989 113.428,-102.906 114.397,-109.839"/>
</g>
<!-- Node6 -->
<g id="node6" class="node"><title>Node6</title>
<g id="a_node6"><a xlink:href="mutt_2regex_8c.html#a05c970bdeff2f1e8640d253a8c664437" target="_top" xlink:title="Compile a regex string and add it to a list. ">
<polygon fill="white" stroke="red" points="132.5,-49.5 132.5,-68.5 231.5,-68.5 231.5,-49.5 132.5,-49.5"/>
<text text-anchor="middle" x="182" y="-56.5" font-family="Helvetica,sans-Serif" font-size="10.00">mutt_regexlist_add</text>
</a>
</g>
</g>
<!-- Node1&#45;&gt;Node6 -->
<g id="edge7" class="edge"><title>Node1&#45;&gt;Node6</title>
<path fill="none" stroke="midnightblue" d="M63.219,-106.422C79.0431,-98.3016 102.701,-86.6319 124,-78 129.196,-75.8941 134.723,-73.8349 140.213,-71.8957"/>
<polygon fill="midnightblue" stroke="midnightblue" points="141.65,-75.1033 149.975,-68.5504 139.38,-68.4813 141.65,-75.1033"/>
</g>
<!-- Node7 -->
<g id="node7" class="node"><title>Node7</title>
<g id="a_node7"><a xlink:href="group_8c.html#ab13fe1dc2aabed615c1e1770626f283a" target="_top" xlink:title="Add a Regex to a Group List. ">
<polygon fill="white" stroke="red" points="130.5,-0 130.5,-30 233.5,-30 233.5,-0 130.5,-0"/>
<text text-anchor="start" x="138.5" y="-18" font-family="Helvetica,sans-Serif" font-size="10.00">mutt_group_context</text>
<text text-anchor="middle" x="182" y="-7" font-family="Helvetica,sans-Serif" font-size="10.00">_add_regex</text>
</a>
</g>
</g>
<!-- Node1&#45;&gt;Node7 -->
<g id="edge8" class="edge"><title>Node1&#45;&gt;Node7</title>
<path fill="none" stroke="midnightblue" d="M52.8907,-106.476C66.2071,-90.8853 94.5796,-59.6853 124,-40 126.739,-38.1672 129.635,-36.4163 132.611,-34.7537"/>
<polygon fill="midnightblue" stroke="midnightblue" points="134.437,-37.7491 141.703,-30.0376 131.214,-31.5353 134.437,-37.7491"/>
</g>
<!-- Node2&#45;&gt;Node2 -->
<g id="edge2" class="edge"><title>Node2&#45;&gt;Node2</title>
<path fill="none" stroke="midnightblue" d="M305.497,-212.757C294.55,-221.565 302.051,-231 328,-231 345.029,-231 354.113,-226.937 355.253,-221.654"/>
<polygon fill="midnightblue" stroke="midnightblue" points="358.3,-219.93 350.503,-212.757 352.125,-223.227 358.3,-219.93"/>
</g>
<!-- Node3&#45;&gt;Node2 -->
<g id="edge4" class="edge"><title>Node3&#45;&gt;Node2</title>
<path fill="none" stroke="midnightblue" d="M228.958,-182.575C242.338,-185.362 257.103,-188.438 271.027,-191.339"/>
<polygon fill="midnightblue" stroke="midnightblue" points="270.481,-194.8 280.984,-193.413 271.908,-187.947 270.481,-194.8"/>
</g>
<!-- Node3&#45;&gt;Node4 -->
<g id="edge5" class="edge"><title>Node3&#45;&gt;Node4</title>
<path fill="none" stroke="midnightblue" d="M235.803,-164.933C245.676,-163.425 256.068,-161.837 266.161,-160.295"/>
<polygon fill="midnightblue" stroke="midnightblue" points="266.767,-163.743 276.123,-158.773 265.709,-156.823 266.767,-163.743"/>
</g>
</g>
</svg>
