<?xml version="1.0" encoding="UTF-8" standalone="no"?>
<!DOCTYPE svg PUBLIC "-//W3C//DTD SVG 1.1//EN"
 "http://www.w3.org/Graphics/SVG/1.1/DTD/svg11.dtd">
<!-- Generated by graphviz version 2.36.0 (20140111.2315)
 -->
<!-- Title: parse_subjectrx_list Pages: 1 -->
<svg width="252pt" height="66pt"
 viewBox="0.00 0.00 252.00 66.00" xmlns="http://www.w3.org/2000/svg" xmlns:xlink="http://www.w3.org/1999/xlink">
<g id="graph0" class="graph" transform="scale(1 1) rotate(0) translate(4 62)">
<title>parse_subjectrx_list</title>
<polygon fill="white" stroke="none" points="-4,4 -4,-62 248,-62 248,4 -4,4"/>
<!-- Node1 -->
<g id="node1" class="node"><title>Node1</title>
<polygon fill="#bfbfbf" stroke="black" points="0,-19.5 0,-38.5 104,-38.5 104,-19.5 0,-19.5"/>
<text text-anchor="middle" x="52" y="-26.5" font-family="Helvetica,sans-Serif" font-size="10.00">parse_subjectrx_list</text>
</g>
<!-- Node2 -->
<g id="node2" class="node"><title>Node2</title>
<g id="a_node2"><a xlink:href="init_8c.html#aef7b03242441add7439057b2076d8e78" target="_top" xlink:title="Parse a string replacement rule &#45; Implements command_t. ">
<polygon fill="white" stroke="red" points="144.5,-38.5 144.5,-57.5 239.5,-57.5 239.5,-38.5 144.5,-38.5"/>
<text text-anchor="middle" x="192" y="-45.5" font-family="Helvetica,sans-Serif" font-size="10.00">parse_replace_list</text>
</a>
</g>
</g>
<!-- Node1&#45;&gt;Node2 -->
<g id="edge1" class="edge"><title>Node1&#45;&gt;Node2</title>
<path fill="none" stroke="midnightblue" d="M104.386,-36.0749C114.055,-37.4061 124.218,-38.8054 134.045,-40.1584"/>
<polygon fill="midnightblue" stroke="midnightblue" points="133.745,-43.65 144.129,-41.5468 134.7,-36.7154 133.745,-43.65"/>
</g>
<!-- Node3 -->
<g id="node3" class="node"><title>Node3</title>
<g id="a_node3"><a xlink:href="init_8c.html#a83a9d372ad20b86539f34b8b7b2c87a1" target="_top" xlink:title="Clear out all modified email subjects. ">
<polygon fill="white" stroke="black" points="140,-0.5 140,-19.5 244,-19.5 244,-0.5 140,-0.5"/>
<text text-anchor="middle" x="192" y="-7.5" font-family="Helvetica,sans-Serif" font-size="10.00">clear_subject_mods</text>
</a>
</g>
</g>
<!-- Node1&#45;&gt;Node3 -->
<g id="edge2" class="edge"><title>Node1&#45;&gt;Node3</title>
<path fill="none" stroke="midnightblue" d="M104.386,-21.9251C112.558,-20.8 121.083,-19.6262 129.46,-18.4729"/>
<polygon fill="midnightblue" stroke="midnightblue" points="130.142,-21.9121 139.571,-17.0808 129.187,-14.9775 130.142,-21.9121"/>
</g>
</g>
</svg>
