<?xml version="1.0" encoding="UTF-8" standalone="no"?>
<!DOCTYPE svg PUBLIC "-//W3C//DTD SVG 1.1//EN"
 "http://www.w3.org/Graphics/SVG/1.1/DTD/svg11.dtd">
<!-- Generated by graphviz version 2.36.0 (20140111.2315)
 -->
<!-- Title: hcache_validator Pages: 1 -->
<svg width="246pt" height="77pt"
 viewBox="0.00 0.00 246.00 77.00" xmlns="http://www.w3.org/2000/svg" xmlns:xlink="http://www.w3.org/1999/xlink">
<g id="graph0" class="graph" transform="scale(1 1) rotate(0) translate(4 73)">
<title>hcache_validator</title>
<polygon fill="white" stroke="none" points="-4,4 -4,-73 242,-73 242,4 -4,4"/>
<!-- Node1 -->
<g id="node1" class="node"><title>Node1</title>
<polygon fill="#bfbfbf" stroke="black" points="0,-22.5 0,-41.5 90,-41.5 90,-22.5 0,-22.5"/>
<text text-anchor="middle" x="45" y="-29.5" font-family="Helvetica,sans-Serif" font-size="10.00">hcache_validator</text>
</g>
<!-- Node2 -->
<g id="node2" class="node"><title>Node2</title>
<g id="a_node2"><a xlink:href="hcache_8c.html#af2522d53121a164856680743be32ea18" target="_top" xlink:title="Is this a valid hcache backend name? ">
<polygon fill="white" stroke="red" points="126.5,-39 126.5,-69 237.5,-69 237.5,-39 126.5,-39"/>
<text text-anchor="start" x="134.5" y="-57" font-family="Helvetica,sans-Serif" font-size="10.00">mutt_hcache_is_valid</text>
<text text-anchor="middle" x="182" y="-46" font-family="Helvetica,sans-Serif" font-size="10.00">_backend</text>
</a>
</g>
</g>
<!-- Node1&#45;&gt;Node2 -->
<g id="edge1" class="edge"><title>Node1&#45;&gt;Node2</title>
<path fill="none" stroke="midnightblue" d="M90.204,-39.2036C98.5847,-40.5694 107.511,-42.0241 116.372,-43.468"/>
<polygon fill="midnightblue" stroke="midnightblue" points="115.883,-46.9344 126.315,-45.0884 117.009,-40.0255 115.883,-46.9344"/>
</g>
<!-- Node3 -->
<g id="node3" class="node"><title>Node3</title>
<g id="a_node3"><a xlink:href="buffer_8c.html#ad057ee239ae5bcfd72cab3749036ab02" target="_top" xlink:title="Format a string into a Buffer. ">
<polygon fill="white" stroke="red" points="135.5,-0.5 135.5,-19.5 228.5,-19.5 228.5,-0.5 135.5,-0.5"/>
<text text-anchor="middle" x="182" y="-7.5" font-family="Helvetica,sans-Serif" font-size="10.00">mutt_buffer_printf</text>
</a>
</g>
</g>
<!-- Node1&#45;&gt;Node3 -->
<g id="edge2" class="edge"><title>Node1&#45;&gt;Node3</title>
<path fill="none" stroke="midnightblue" d="M90.204,-24.7964C101.385,-22.9742 113.539,-20.9936 125.211,-19.0916"/>
<polygon fill="midnightblue" stroke="midnightblue" points="126,-22.5092 135.307,-17.4463 124.874,-15.6003 126,-22.5092"/>
</g>
</g>
</svg>
