<?xml version="1.0" encoding="UTF-8" standalone="no"?>
<!DOCTYPE svg PUBLIC "-//W3C//DTD SVG 1.1//EN"
 "http://www.w3.org/Graphics/SVG/1.1/DTD/svg11.dtd">
<!-- Generated by graphviz version 2.36.0 (20140111.2315)
 -->
<!-- Title: parse_unignore Pages: 1 -->
<svg width="230pt" height="122pt"
 viewBox="0.00 0.00 230.00 122.00" xmlns="http://www.w3.org/2000/svg" xmlns:xlink="http://www.w3.org/1999/xlink">
<g id="graph0" class="graph" transform="scale(1 1) rotate(0) translate(4 118)">
<title>parse_unignore</title>
<polygon fill="white" stroke="none" points="-4,4 -4,-118 226,-118 226,4 -4,4"/>
<!-- Node1 -->
<g id="node1" class="node"><title>Node1</title>
<polygon fill="#bfbfbf" stroke="black" points="0.5,-38.5 0.5,-57.5 83.5,-57.5 83.5,-38.5 0.5,-38.5"/>
<text text-anchor="middle" x="42" y="-45.5" font-family="Helvetica,sans-Serif" font-size="10.00">parse_unignore</text>
</g>
<!-- Node2 -->
<g id="node2" class="node"><title>Node2</title>
<g id="a_node2"><a xlink:href="init_8c.html#a382f7640ccb9d1b02550b77cb91341cd" target="_top" xlink:title="Extract one token from a string. ">
<polygon fill="white" stroke="red" points="120.5,-76.5 120.5,-95.5 221.5,-95.5 221.5,-76.5 120.5,-76.5"/>
<text text-anchor="middle" x="171" y="-83.5" font-family="Helvetica,sans-Serif" font-size="10.00">mutt_extract_token</text>
</a>
</g>
</g>
<!-- Node1&#45;&gt;Node2 -->
<g id="edge1" class="edge"><title>Node1&#45;&gt;Node2</title>
<path fill="none" stroke="midnightblue" d="M75.0475,-57.589C91.1411,-62.4044 110.841,-68.2988 128.117,-73.468"/>
<polygon fill="midnightblue" stroke="midnightblue" points="127.379,-76.9006 137.963,-76.4141 129.386,-70.1943 127.379,-76.9006"/>
</g>
<!-- Node3 -->
<g id="node3" class="node"><title>Node3</title>
<g id="a_node3"><a xlink:href="init_8c.html#adcc437000197ec48ab5b11dd4e10f7c9" target="_top" xlink:title="Add a string to a list. ">
<polygon fill="white" stroke="red" points="134,-38.5 134,-57.5 208,-57.5 208,-38.5 134,-38.5"/>
<text text-anchor="middle" x="171" y="-45.5" font-family="Helvetica,sans-Serif" font-size="10.00">add_to_stailq</text>
</a>
</g>
</g>
<!-- Node1&#45;&gt;Node3 -->
<g id="edge3" class="edge"><title>Node1&#45;&gt;Node3</title>
<path fill="none" stroke="midnightblue" d="M83.5328,-48C96.249,-48 110.385,-48 123.482,-48"/>
<polygon fill="midnightblue" stroke="midnightblue" points="123.715,-51.5001 133.714,-48 123.714,-44.5001 123.715,-51.5001"/>
</g>
<!-- Node4 -->
<g id="node4" class="node"><title>Node4</title>
<g id="a_node4"><a xlink:href="init_8c.html#aaa2022671028a07386afcdf22688703c" target="_top" xlink:title="Remove an item, matching a string, from a List. ">
<polygon fill="white" stroke="red" points="120,-0.5 120,-19.5 222,-19.5 222,-0.5 120,-0.5"/>
<text text-anchor="middle" x="171" y="-7.5" font-family="Helvetica,sans-Serif" font-size="10.00">remove_from_stailq</text>
</a>
</g>
</g>
<!-- Node1&#45;&gt;Node4 -->
<g id="edge4" class="edge"><title>Node1&#45;&gt;Node4</title>
<path fill="none" stroke="midnightblue" d="M75.0475,-38.411C91.1411,-33.5956 110.841,-27.7012 128.117,-22.532"/>
<polygon fill="midnightblue" stroke="midnightblue" points="129.386,-25.8057 137.963,-19.5859 127.379,-19.0994 129.386,-25.8057"/>
</g>
<!-- Node2&#45;&gt;Node2 -->
<g id="edge2" class="edge"><title>Node2&#45;&gt;Node2</title>
<path fill="none" stroke="midnightblue" d="M151.271,-95.7571C141.674,-104.565 148.25,-114 171,-114 185.574,-114 193.511,-110.128 194.809,-105.029"/>
<polygon fill="midnightblue" stroke="midnightblue" points="197.96,-103.5 190.729,-95.7571 191.553,-106.32 197.96,-103.5"/>
</g>
</g>
</svg>
