<?xml version="1.0" encoding="UTF-8" standalone="no"?>
<!DOCTYPE svg PUBLIC "-//W3C//DTD SVG 1.1//EN"
 "http://www.w3.org/Graphics/SVG/1.1/DTD/svg11.dtd">
<!-- Generated by graphviz version 2.36.0 (20140111.2315)
 -->
<!-- Title: getmailname Pages: 1 -->
<svg width="214pt" height="104pt"
 viewBox="0.00 0.00 214.00 104.00" xmlns="http://www.w3.org/2000/svg" xmlns:xlink="http://www.w3.org/1999/xlink">
<g id="graph0" class="graph" transform="scale(1 1) rotate(0) translate(4 100)">
<title>getmailname</title>
<polygon fill="white" stroke="none" points="-4,4 -4,-100 210,-100 210,4 -4,4"/>
<!-- Node1 -->
<g id="node1" class="node"><title>Node1</title>
<polygon fill="#bfbfbf" stroke="black" points="0,-38.5 0,-57.5 72,-57.5 72,-38.5 0,-38.5"/>
<text text-anchor="middle" x="36" y="-45.5" font-family="Helvetica,sans-Serif" font-size="10.00">getmailname</text>
</g>
<!-- Node2 -->
<g id="node2" class="node"><title>Node2</title>
<g id="a_node2"><a xlink:href="file_8c.html#ae1c0c19fec03274220b3ca065ad1e2e5" target="_top" xlink:title="Call fopen() safely. ">
<polygon fill="white" stroke="red" points="115.5,-76.5 115.5,-95.5 198.5,-95.5 198.5,-76.5 115.5,-76.5"/>
<text text-anchor="middle" x="157" y="-83.5" font-family="Helvetica,sans-Serif" font-size="10.00">mutt_file_fopen</text>
</a>
</g>
</g>
<!-- Node1&#45;&gt;Node2 -->
<g id="edge1" class="edge"><title>Node1&#45;&gt;Node2</title>
<path fill="none" stroke="midnightblue" d="M67.0287,-57.589C81.9677,-62.3594 100.223,-68.1888 116.301,-73.3229"/>
<polygon fill="midnightblue" stroke="midnightblue" points="115.39,-76.7062 125.981,-76.4141 117.519,-70.0379 115.39,-76.7062"/>
</g>
<!-- Node3 -->
<g id="node3" class="node"><title>Node3</title>
<g id="a_node3"><a xlink:href="file_8c.html#a925820fb917e9a6a0542baa02ec7ed2c" target="_top" xlink:title="Read a line from a file. ">
<polygon fill="white" stroke="red" points="108,-38.5 108,-57.5 206,-57.5 206,-38.5 108,-38.5"/>
<text text-anchor="middle" x="157" y="-45.5" font-family="Helvetica,sans-Serif" font-size="10.00">mutt_file_read_line</text>
</a>
</g>
</g>
<!-- Node1&#45;&gt;Node3 -->
<g id="edge2" class="edge"><title>Node1&#45;&gt;Node3</title>
<path fill="none" stroke="midnightblue" d="M72.0603,-48C80.1417,-48 88.951,-48 97.7249,-48"/>
<polygon fill="midnightblue" stroke="midnightblue" points="97.9626,-51.5001 107.963,-48 97.9626,-44.5001 97.9626,-51.5001"/>
</g>
<!-- Node4 -->
<g id="node4" class="node"><title>Node4</title>
<g id="a_node4"><a xlink:href="file_8c.html#a4982d9040dfaf38e847729be2af83ed6" target="_top" xlink:title="Close a FILE handle (and NULL the pointer) ">
<polygon fill="white" stroke="black" points="114,-0.5 114,-19.5 200,-19.5 200,-0.5 114,-0.5"/>
<text text-anchor="middle" x="157" y="-7.5" font-family="Helvetica,sans-Serif" font-size="10.00">mutt_file_fclose</text>
</a>
</g>
</g>
<!-- Node1&#45;&gt;Node4 -->
<g id="edge3" class="edge"><title>Node1&#45;&gt;Node4</title>
<path fill="none" stroke="midnightblue" d="M67.0287,-38.411C81.9677,-33.6406 100.223,-27.8112 116.301,-22.6771"/>
<polygon fill="midnightblue" stroke="midnightblue" points="117.519,-25.9621 125.981,-19.5859 115.39,-19.2938 117.519,-25.9621"/>
</g>
</g>
</svg>
