<?xml version="1.0" encoding="UTF-8" standalone="no"?>
<!DOCTYPE svg PUBLIC "-//W3C//DTD SVG 1.1//EN"
 "http://www.w3.org/Graphics/SVG/1.1/DTD/svg11.dtd">
<!-- Generated by graphviz version 2.36.0 (20140111.2315)
 -->
<!-- Title: mutt_free_keys Pages: 1 -->
<svg width="284pt" height="47pt"
 viewBox="0.00 0.00 284.00 47.00" xmlns="http://www.w3.org/2000/svg" xmlns:xlink="http://www.w3.org/1999/xlink">
<g id="graph0" class="graph" transform="scale(1 1) rotate(0) translate(4 43)">
<title>mutt_free_keys</title>
<polygon fill="white" stroke="none" points="-4,4 -4,-43 280,-43 280,4 -4,4"/>
<!-- Node1 -->
<g id="node1" class="node"><title>Node1</title>
<polygon fill="#bfbfbf" stroke="black" points="0,-0.5 0,-19.5 84,-19.5 84,-0.5 0,-0.5"/>
<text text-anchor="middle" x="42" y="-7.5" font-family="Helvetica,sans-Serif" font-size="10.00">mutt_free_keys</text>
</g>
<!-- Node2 -->
<g id="node2" class="node"><title>Node2</title>
<g id="a_node2"><a xlink:href="mutt_8h.html#a266a35135fe5e41df8fc4d042d545e38" target="_top" xlink:title="clean up before quitting ">
<polygon fill="white" stroke="black" points="120,-19.5 120,-38.5 202,-38.5 202,-19.5 120,-19.5"/>
<text text-anchor="middle" x="161" y="-26.5" font-family="Helvetica,sans-Serif" font-size="10.00">mutt_free_opts</text>
</a>
</g>
</g>
<!-- Node1&#45;&gt;Node2 -->
<g id="edge1" class="edge"><title>Node1&#45;&gt;Node2</title>
<path fill="none" stroke="midnightblue" d="M94.2092,-18.316C102.816,-19.7136 111.636,-21.146 119.909,-22.4895"/>
<polygon fill="midnightblue" stroke="midnightblue" points="94.6816,-14.847 84.2498,-16.6987 93.5595,-21.7564 94.6816,-14.847"/>
</g>
<!-- Node3 -->
<g id="node3" class="node"><title>Node3</title>
<g id="a_node3"><a xlink:href="main_8c.html#adedb285b02c41bde2158ded9cc9fd7ac" target="_top" xlink:title="Start NeoMutt. ">
<polygon fill="white" stroke="black" points="238,-0.5 238,-19.5 276,-19.5 276,-0.5 238,-0.5"/>
<text text-anchor="middle" x="257" y="-7.5" font-family="Helvetica,sans-Serif" font-size="10.00">main</text>
</a>
</g>
</g>
<!-- Node1&#45;&gt;Node3 -->
<g id="edge3" class="edge"><title>Node1&#45;&gt;Node3</title>
<path fill="none" stroke="midnightblue" d="M94.239,-10C140.63,-10 206.371,-10 237.84,-10"/>
<polygon fill="midnightblue" stroke="midnightblue" points="94.0686,-6.5001 84.0685,-10 94.0685,-13.5001 94.0686,-6.5001"/>
</g>
<!-- Node2&#45;&gt;Node3 -->
<g id="edge2" class="edge"><title>Node2&#45;&gt;Node3</title>
<path fill="none" stroke="midnightblue" d="M212.07,-18.8795C221.228,-17.0284 230.23,-15.2088 237.677,-13.7036"/>
<polygon fill="midnightblue" stroke="midnightblue" points="211.245,-15.4753 202.137,-20.8872 212.632,-22.3365 211.245,-15.4753"/>
</g>
</g>
</svg>
