<?xml version="1.0" encoding="UTF-8" standalone="no"?>
<!DOCTYPE svg PUBLIC "-//W3C//DTD SVG 1.1//EN"
 "http://www.w3.org/Graphics/SVG/1.1/DTD/svg11.dtd">
<!-- Generated by graphviz version 2.36.0 (20140111.2315)
 -->
<!-- Title: km_expand_key Pages: 1 -->
<svg width="232pt" height="218pt"
 viewBox="0.00 0.00 232.00 218.00" xmlns="http://www.w3.org/2000/svg" xmlns:xlink="http://www.w3.org/1999/xlink">
<g id="graph0" class="graph" transform="scale(1 1) rotate(0) translate(4 214)">
<title>km_expand_key</title>
<polygon fill="white" stroke="none" points="-4,4 -4,-214 228,-214 228,4 -4,4"/>
<!-- Node1 -->
<g id="node1" class="node"><title>Node1</title>
<polygon fill="#bfbfbf" stroke="black" points="0,-95.5 0,-114.5 88,-114.5 88,-95.5 0,-95.5"/>
<text text-anchor="middle" x="44" y="-102.5" font-family="Helvetica,sans-Serif" font-size="10.00">km_expand_key</text>
</g>
<!-- Node2 -->
<g id="node2" class="node"><title>Node2</title>
<g id="a_node2"><a xlink:href="handler_8h.html#adae8bf0eec9bee0bd62f639bbcf8599f" target="_top" xlink:title="Handler for the Body of an email. ">
<polygon fill="white" stroke="red" points="124.5,-190.5 124.5,-209.5 223.5,-209.5 223.5,-190.5 124.5,-190.5"/>
<text text-anchor="middle" x="174" y="-197.5" font-family="Helvetica,sans-Serif" font-size="10.00">mutt_body_handler</text>
</a>
</g>
</g>
<!-- Node1&#45;&gt;Node2 -->
<g id="edge1" class="edge"><title>Node1&#45;&gt;Node2</title>
<path fill="none" stroke="midnightblue" d="M59.6139,-122.649C74.3803,-139.541 98.5886,-164.785 124,-181 129.769,-184.681 136.363,-187.836 142.804,-190.457"/>
<polygon fill="midnightblue" stroke="midnightblue" points="61.9529,-119.998 52.7964,-114.668 56.6306,-124.545 61.9529,-119.998"/>
</g>
<!-- Node3 -->
<g id="node3" class="node"><title>Node3</title>
<g id="a_node3"><a xlink:href="protos_8h.html#ad522bd30690ac603179ff7a4da17ef42" target="_top" xlink:title="Create one entry for the help bar. ">
<polygon fill="white" stroke="red" points="129.5,-152.5 129.5,-171.5 218.5,-171.5 218.5,-152.5 129.5,-152.5"/>
<text text-anchor="middle" x="174" y="-159.5" font-family="Helvetica,sans-Serif" font-size="10.00">mutt_make_help</text>
</a>
</g>
</g>
<!-- Node1&#45;&gt;Node3 -->
<g id="edge2" class="edge"><title>Node1&#45;&gt;Node3</title>
<path fill="none" stroke="midnightblue" d="M73.1897,-119.223C88.1547,-126.604 106.933,-135.6 124,-143 131.45,-146.23 139.643,-149.511 147.161,-152.417"/>
<polygon fill="midnightblue" stroke="midnightblue" points="74.4754,-115.953 63.9625,-114.638 71.3608,-122.222 74.4754,-115.953"/>
</g>
<!-- Node4 -->
<g id="node4" class="node"><title>Node4</title>
<g id="a_node4"><a xlink:href="help_8c.html#ac5f585b2963da7a9395b5759a9bd81cb" target="_top" xlink:title="Write all the key bindings to a file. ">
<polygon fill="white" stroke="red" points="139,-114.5 139,-133.5 209,-133.5 209,-114.5 139,-114.5"/>
<text text-anchor="middle" x="174" y="-121.5" font-family="Helvetica,sans-Serif" font-size="10.00">dump_menu</text>
</a>
</g>
</g>
<!-- Node1&#45;&gt;Node4 -->
<g id="edge3" class="edge"><title>Node1&#45;&gt;Node4</title>
<path fill="none" stroke="midnightblue" d="M98.5323,-112.946C112.086,-114.958 126.283,-117.066 138.604,-118.894"/>
<polygon fill="midnightblue" stroke="midnightblue" points="98.7405,-109.439 88.335,-111.433 97.7127,-116.363 98.7405,-109.439"/>
</g>
<!-- Node5 -->
<g id="node5" class="node"><title>Node5</title>
<g id="a_node5"><a xlink:href="keymap_8c.html#aac7a4de48f1a125920f6408d960e0147" target="_top" xlink:title="Set up a key binding. ">
<polygon fill="white" stroke="red" points="139,-76.5 139,-95.5 209,-95.5 209,-76.5 139,-76.5"/>
<text text-anchor="middle" x="174" y="-83.5" font-family="Helvetica,sans-Serif" font-size="10.00">km_bind_err</text>
</a>
</g>
</g>
<!-- Node1&#45;&gt;Node5 -->
<g id="edge4" class="edge"><title>Node1&#45;&gt;Node5</title>
<path fill="none" stroke="midnightblue" d="M98.5323,-97.0538C112.086,-95.0419 126.283,-92.9345 138.604,-91.1057"/>
<polygon fill="midnightblue" stroke="midnightblue" points="97.7127,-93.637 88.335,-98.5675 98.7405,-100.561 97.7127,-93.637"/>
</g>
<!-- Node6 -->
<g id="node6" class="node"><title>Node6</title>
<g id="a_node6"><a xlink:href="keymap_8h.html#af6e5b850fe3902dc8378f9e1b4b5a457" target="_top" xlink:title="Handle an unbound key sequence. ">
<polygon fill="white" stroke="red" points="136,-38.5 136,-57.5 212,-57.5 212,-38.5 136,-38.5"/>
<text text-anchor="middle" x="174" y="-45.5" font-family="Helvetica,sans-Serif" font-size="10.00">km_error_key</text>
</a>
</g>
</g>
<!-- Node1&#45;&gt;Node6 -->
<g id="edge5" class="edge"><title>Node1&#45;&gt;Node6</title>
<path fill="none" stroke="midnightblue" d="M73.1897,-90.7774C88.1547,-83.3962 106.933,-74.4001 124,-67 131.45,-63.7696 139.643,-60.489 147.161,-57.5834"/>
<polygon fill="midnightblue" stroke="midnightblue" points="71.3608,-87.7778 63.9625,-95.3617 74.4754,-94.0467 71.3608,-87.7778"/>
</g>
<!-- Node7 -->
<g id="node7" class="node"><title>Node7</title>
<g id="a_node7"><a xlink:href="mx_8h.html#a357ee844041eb7512ae97023ff2f9488" target="_top" xlink:title="Save changes to mailbox. ">
<polygon fill="white" stroke="red" points="131,-0.5 131,-19.5 217,-19.5 217,-0.5 131,-0.5"/>
<text text-anchor="middle" x="174" y="-7.5" font-family="Helvetica,sans-Serif" font-size="10.00">mx_mbox_sync</text>
</a>
</g>
</g>
<!-- Node1&#45;&gt;Node7 -->
<g id="edge6" class="edge"><title>Node1&#45;&gt;Node7</title>
<path fill="none" stroke="midnightblue" d="M59.6139,-87.3512C74.3803,-70.4587 98.5886,-45.2154 124,-29 129.769,-25.3189 136.363,-22.164 142.804,-19.5428"/>
<polygon fill="midnightblue" stroke="midnightblue" points="56.6306,-85.4549 52.7964,-95.3316 61.9529,-90.0017 56.6306,-85.4549"/>
</g>
</g>
</svg>
