<?xml version="1.0" encoding="UTF-8" standalone="no"?>
<!DOCTYPE svg PUBLIC "-//W3C//DTD SVG 1.1//EN"
 "http://www.w3.org/Graphics/SVG/1.1/DTD/svg11.dtd">
<!-- Generated by graphviz version 2.36.0 (20140111.2315)
 -->
<!-- Title: mutt_parse_exec Pages: 1 -->
<svg width="378pt" height="274pt"
 viewBox="0.00 0.00 378.00 274.00" xmlns="http://www.w3.org/2000/svg" xmlns:xlink="http://www.w3.org/1999/xlink">
<g id="graph0" class="graph" transform="scale(1 1) rotate(0) translate(4 270)">
<title>mutt_parse_exec</title>
<polygon fill="white" stroke="none" points="-4,4 -4,-270 374,-270 374,4 -4,4"/>
<!-- Node1 -->
<g id="node1" class="node"><title>Node1</title>
<polygon fill="#bfbfbf" stroke="black" points="0,-114.5 0,-133.5 92,-133.5 92,-114.5 0,-114.5"/>
<text text-anchor="middle" x="46" y="-121.5" font-family="Helvetica,sans-Serif" font-size="10.00">mutt_parse_exec</text>
</g>
<!-- Node2 -->
<g id="node2" class="node"><title>Node2</title>
<g id="a_node2"><a xlink:href="mutt_2string_8c.html#a3b8965b21d6e21536750f8883cd4333a" target="_top" xlink:title="Copy a string into a buffer (guaranteeing NUL&#45;termination) ">
<polygon fill="white" stroke="black" points="146,-246.5 146,-265.5 234,-265.5 234,-246.5 146,-246.5"/>
<text text-anchor="middle" x="190" y="-253.5" font-family="Helvetica,sans-Serif" font-size="10.00">mutt_str_strfcpy</text>
</a>
</g>
</g>
<!-- Node1&#45;&gt;Node2 -->
<g id="edge1" class="edge"><title>Node1&#45;&gt;Node2</title>
<path fill="none" stroke="midnightblue" d="M51.3138,-133.799C61.4388,-155.666 88.8623,-208.738 128,-237 130.698,-238.948 133.601,-240.701 136.624,-242.276"/>
<polygon fill="midnightblue" stroke="midnightblue" points="135.416,-245.571 145.97,-246.494 138.295,-239.19 135.416,-245.571"/>
</g>
<!-- Node3 -->
<g id="node3" class="node"><title>Node3</title>
<g id="a_node3"><a xlink:href="init_8c.html#a382f7640ccb9d1b02550b77cb91341cd" target="_top" xlink:title="Extract one token from a string. ">
<polygon fill="white" stroke="red" points="139.5,-190.5 139.5,-209.5 240.5,-209.5 240.5,-190.5 139.5,-190.5"/>
<text text-anchor="middle" x="190" y="-197.5" font-family="Helvetica,sans-Serif" font-size="10.00">mutt_extract_token</text>
</a>
</g>
</g>
<!-- Node1&#45;&gt;Node3 -->
<g id="edge2" class="edge"><title>Node1&#45;&gt;Node3</title>
<path fill="none" stroke="midnightblue" d="M60.2732,-133.677C75.9323,-144.817 103.005,-163.216 128,-176 135.563,-179.868 143.903,-183.522 151.922,-186.756"/>
<polygon fill="midnightblue" stroke="midnightblue" points="150.884,-190.108 161.472,-190.48 153.427,-183.586 150.884,-190.108"/>
</g>
<!-- Node4 -->
<g id="node4" class="node"><title>Node4</title>
<g id="a_node4"><a xlink:href="mutt_2string_8c.html#aca11f88d08a860c07419df3efb18f35a" target="_top" xlink:title="Calculate the length of a string, safely. ">
<polygon fill="white" stroke="black" points="288,-152.5 288,-171.5 370,-171.5 370,-152.5 288,-152.5"/>
<text text-anchor="middle" x="329" y="-159.5" font-family="Helvetica,sans-Serif" font-size="10.00">mutt_str_strlen</text>
</a>
</g>
</g>
<!-- Node1&#45;&gt;Node4 -->
<g id="edge8" class="edge"><title>Node1&#45;&gt;Node4</title>
<path fill="none" stroke="midnightblue" d="M83.0791,-133.569C97.0284,-136.977 113.176,-140.569 128,-143 178.66,-151.309 237.18,-156.344 277.775,-159.123"/>
<polygon fill="midnightblue" stroke="midnightblue" points="277.742,-162.629 287.951,-159.799 278.205,-155.644 277.742,-162.629"/>
</g>
<!-- Node5 -->
<g id="node5" class="node"><title>Node5</title>
<g id="a_node5"><a xlink:href="keymap_8c.html#ae53c337daf3a703a035565afbab1e925" target="_top" xlink:title="Lookup a menu&#39;s keybindings. ">
<polygon fill="white" stroke="black" points="152.5,-114.5 152.5,-133.5 227.5,-133.5 227.5,-114.5 152.5,-114.5"/>
<text text-anchor="middle" x="190" y="-121.5" font-family="Helvetica,sans-Serif" font-size="10.00">km_get_table</text>
</a>
</g>
</g>
<!-- Node1&#45;&gt;Node5 -->
<g id="edge5" class="edge"><title>Node1&#45;&gt;Node5</title>
<path fill="none" stroke="midnightblue" d="M92.3201,-124C108.167,-124 125.986,-124 141.969,-124"/>
<polygon fill="midnightblue" stroke="midnightblue" points="142.167,-127.5 152.167,-124 142.167,-120.5 142.167,-127.5"/>
</g>
<!-- Node6 -->
<g id="node6" class="node"><title>Node6</title>
<g id="a_node6"><a xlink:href="keymap_8c.html#a311f1f24789f9e8cb4d5b7501a9982c5" target="_top" xlink:title="Get the function by its name. ">
<polygon fill="white" stroke="red" points="167,-76.5 167,-95.5 213,-95.5 213,-76.5 167,-76.5"/>
<text text-anchor="middle" x="190" y="-83.5" font-family="Helvetica,sans-Serif" font-size="10.00">get_op</text>
</a>
</g>
</g>
<!-- Node1&#45;&gt;Node6 -->
<g id="edge6" class="edge"><title>Node1&#45;&gt;Node6</title>
<path fill="none" stroke="midnightblue" d="M82.8326,-114.411C105.671,-108.299 135.005,-100.449 157.049,-94.5502"/>
<polygon fill="midnightblue" stroke="midnightblue" points="158.164,-97.875 166.92,-91.9088 156.355,-91.113 158.164,-97.875"/>
</g>
<!-- Node7 -->
<g id="node7" class="node"><title>Node7</title>
<g id="a_node7"><a xlink:href="curs__lib_8c.html#a31e6cf5a50bccf3cb75b6a7f2ecf1405" target="_top" xlink:title="Empty all the keyboard buffers. ">
<polygon fill="white" stroke="black" points="152.5,-38.5 152.5,-57.5 227.5,-57.5 227.5,-38.5 152.5,-38.5"/>
<text text-anchor="middle" x="190" y="-45.5" font-family="Helvetica,sans-Serif" font-size="10.00">mutt_flushinp</text>
</a>
</g>
</g>
<!-- Node1&#45;&gt;Node7 -->
<g id="edge9" class="edge"><title>Node1&#45;&gt;Node7</title>
<path fill="none" stroke="midnightblue" d="M58.0879,-114.484C73.0651,-102.049 101.004,-80.2939 128,-67 132.669,-64.7007 137.676,-62.606 142.74,-60.7181"/>
<polygon fill="midnightblue" stroke="midnightblue" points="144.173,-63.9258 152.475,-57.3431 141.88,-57.312 144.173,-63.9258"/>
</g>
<!-- Node8 -->
<g id="node8" class="node"><title>Node8</title>
<g id="a_node8"><a xlink:href="curs__lib_8c.html#a6fb1a3233123b74771ce95c448b22b79" target="_top" xlink:title="Add the character/operation to the macro buffer. ">
<polygon fill="white" stroke="red" points="128,-0.5 128,-19.5 252,-19.5 252,-0.5 128,-0.5"/>
<text text-anchor="middle" x="190" y="-7.5" font-family="Helvetica,sans-Serif" font-size="10.00">mutt_push_macro_event</text>
</a>
</g>
</g>
<!-- Node1&#45;&gt;Node8 -->
<g id="edge10" class="edge"><title>Node1&#45;&gt;Node8</title>
<path fill="none" stroke="midnightblue" d="M52.5968,-114.354C64.1919,-95.2153 92.7251,-52.2809 128,-29 131.098,-26.9551 134.429,-25.1201 137.879,-23.4751"/>
<polygon fill="midnightblue" stroke="midnightblue" points="139.348,-26.6541 147.209,-19.5509 136.635,-20.2016 139.348,-26.6541"/>
</g>
<!-- Node3&#45;&gt;Node3 -->
<g id="edge3" class="edge"><title>Node3&#45;&gt;Node3</title>
<path fill="none" stroke="midnightblue" d="M168.73,-209.757C158.383,-218.565 165.473,-228 190,-228 205.713,-228 214.269,-224.128 215.67,-219.029"/>
<polygon fill="midnightblue" stroke="midnightblue" points="218.719,-217.291 211.27,-209.757 212.395,-220.292 218.719,-217.291"/>
</g>
<!-- Node3&#45;&gt;Node4 -->
<g id="edge4" class="edge"><title>Node3&#45;&gt;Node4</title>
<path fill="none" stroke="midnightblue" d="M225.571,-190.411C243.175,-185.528 264.779,-179.536 283.601,-174.315"/>
<polygon fill="midnightblue" stroke="midnightblue" points="284.739,-177.631 293.44,-171.586 282.868,-170.886 284.739,-177.631"/>
</g>
<!-- Node6&#45;&gt;Node4 -->
<g id="edge7" class="edge"><title>Node6&#45;&gt;Node4</title>
<path fill="none" stroke="midnightblue" d="M213.162,-90.9502C225.06,-94.084 239.754,-98.7375 252,-105 273.359,-115.923 294.981,-132.834 309.672,-145.403"/>
<polygon fill="midnightblue" stroke="midnightblue" points="307.636,-148.273 317.467,-152.224 312.246,-143.005 307.636,-148.273"/>
</g>
</g>
</svg>
