<?xml version="1.0" encoding="UTF-8" standalone="no"?>
<!DOCTYPE svg PUBLIC "-//W3C//DTD SVG 1.1//EN"
 "http://www.w3.org/Graphics/SVG/1.1/DTD/svg11.dtd">
<!-- Generated by graphviz version 2.36.0 (20140111.2315)
 -->
<!-- Title: parse_keymap Pages: 1 -->
<svg width="222pt" height="66pt"
 viewBox="0.00 0.00 222.00 66.00" xmlns="http://www.w3.org/2000/svg" xmlns:xlink="http://www.w3.org/1999/xlink">
<g id="graph0" class="graph" transform="scale(1 1) rotate(0) translate(4 62)">
<title>parse_keymap</title>
<polygon fill="white" stroke="none" points="-4,4 -4,-62 218,-62 218,4 -4,4"/>
<!-- Node1 -->
<g id="node1" class="node"><title>Node1</title>
<polygon fill="#bfbfbf" stroke="black" points="0,-19.5 0,-38.5 80,-38.5 80,-19.5 0,-19.5"/>
<text text-anchor="middle" x="40" y="-26.5" font-family="Helvetica,sans-Serif" font-size="10.00">parse_keymap</text>
</g>
<!-- Node2 -->
<g id="node2" class="node"><title>Node2</title>
<g id="a_node2"><a xlink:href="keymap_8h.html#abea2f87bec7606d3cdb566866e4b1ae9" target="_top" xlink:title="Parse the &#39;bind&#39; command. ">
<polygon fill="white" stroke="black" points="120.5,-38.5 120.5,-57.5 209.5,-57.5 209.5,-38.5 120.5,-38.5"/>
<text text-anchor="middle" x="165" y="-45.5" font-family="Helvetica,sans-Serif" font-size="10.00">mutt_parse_bind</text>
</a>
</g>
</g>
<!-- Node1&#45;&gt;Node2 -->
<g id="edge1" class="edge"><title>Node1&#45;&gt;Node2</title>
<path fill="none" stroke="midnightblue" d="M90.4031,-36.6314C100.336,-38.1658 110.708,-39.7679 120.425,-41.2689"/>
<polygon fill="midnightblue" stroke="midnightblue" points="90.6733,-33.1317 80.2561,-35.064 89.6046,-40.0496 90.6733,-33.1317"/>
</g>
<!-- Node3 -->
<g id="node3" class="node"><title>Node3</title>
<g id="a_node3"><a xlink:href="keymap_8h.html#a2b2e7da7fad81ac4f1534a473436f23c" target="_top" xlink:title="Parse the &#39;macro&#39; command. ">
<polygon fill="white" stroke="black" points="116,-0.5 116,-19.5 214,-19.5 214,-0.5 116,-0.5"/>
<text text-anchor="middle" x="165" y="-7.5" font-family="Helvetica,sans-Serif" font-size="10.00">mutt_parse_macro</text>
</a>
</g>
</g>
<!-- Node1&#45;&gt;Node3 -->
<g id="edge2" class="edge"><title>Node1&#45;&gt;Node3</title>
<path fill="none" stroke="midnightblue" d="M90.2549,-21.3915C98.616,-20.1 107.292,-18.7598 115.63,-17.4718"/>
<polygon fill="midnightblue" stroke="midnightblue" points="89.6046,-17.9504 80.2561,-22.936 90.6733,-24.8683 89.6046,-17.9504"/>
</g>
</g>
</svg>
