<?xml version="1.0" encoding="UTF-8" standalone="no"?>
<!DOCTYPE svg PUBLIC "-//W3C//DTD SVG 1.1//EN"
 "http://www.w3.org/Graphics/SVG/1.1/DTD/svg11.dtd">
<!-- Generated by graphviz version 2.36.0 (20140111.2315)
 -->
<!-- Title: km_find_func Pages: 1 -->
<svg width="220pt" height="142pt"
 viewBox="0.00 0.00 220.00 142.00" xmlns="http://www.w3.org/2000/svg" xmlns:xlink="http://www.w3.org/1999/xlink">
<g id="graph0" class="graph" transform="scale(1 1) rotate(0) translate(4 138)">
<title>km_find_func</title>
<polygon fill="white" stroke="none" points="-4,4 -4,-138 216,-138 216,4 -4,4"/>
<!-- Node1 -->
<g id="node1" class="node"><title>Node1</title>
<polygon fill="#bfbfbf" stroke="black" points="0.5,-57.5 0.5,-76.5 75.5,-76.5 75.5,-57.5 0.5,-57.5"/>
<text text-anchor="middle" x="38" y="-64.5" font-family="Helvetica,sans-Serif" font-size="10.00">km_find_func</text>
</g>
<!-- Node2 -->
<g id="node2" class="node"><title>Node2</title>
<g id="a_node2"><a xlink:href="handler_8h.html#adae8bf0eec9bee0bd62f639bbcf8599f" target="_top" xlink:title="Handler for the Body of an email. ">
<polygon fill="white" stroke="red" points="112.5,-114.5 112.5,-133.5 211.5,-133.5 211.5,-114.5 112.5,-114.5"/>
<text text-anchor="middle" x="162" y="-121.5" font-family="Helvetica,sans-Serif" font-size="10.00">mutt_body_handler</text>
</a>
</g>
</g>
<!-- Node1&#45;&gt;Node2 -->
<g id="edge1" class="edge"><title>Node1&#45;&gt;Node2</title>
<path fill="none" stroke="midnightblue" d="M65.0533,-81.4511C78.8309,-88.8652 96.1352,-97.8212 112,-105 119.315,-108.31 127.391,-111.59 134.841,-114.468"/>
<polygon fill="midnightblue" stroke="midnightblue" points="66.5969,-78.3065 56.1395,-76.6054 63.2536,-84.4565 66.5969,-78.3065"/>
</g>
<!-- Node3 -->
<g id="node3" class="node"><title>Node3</title>
<g id="a_node3"><a xlink:href="protos_8h.html#ad522bd30690ac603179ff7a4da17ef42" target="_top" xlink:title="Create one entry for the help bar. ">
<polygon fill="white" stroke="red" points="117.5,-76.5 117.5,-95.5 206.5,-95.5 206.5,-76.5 117.5,-76.5"/>
<text text-anchor="middle" x="162" y="-83.5" font-family="Helvetica,sans-Serif" font-size="10.00">mutt_make_help</text>
</a>
</g>
</g>
<!-- Node1&#45;&gt;Node3 -->
<g id="edge2" class="edge"><title>Node1&#45;&gt;Node3</title>
<path fill="none" stroke="midnightblue" d="M85.6826,-74.2702C96.0015,-75.8773 106.9,-77.5745 117.103,-79.1636"/>
<polygon fill="midnightblue" stroke="midnightblue" points="86.0235,-70.7812 75.604,-72.7006 84.9463,-77.6978 86.0235,-70.7812"/>
</g>
<!-- Node4 -->
<g id="node4" class="node"><title>Node4</title>
<g id="a_node4"><a xlink:href="keymap_8h.html#af6e5b850fe3902dc8378f9e1b4b5a457" target="_top" xlink:title="Handle an unbound key sequence. ">
<polygon fill="white" stroke="red" points="124,-38.5 124,-57.5 200,-57.5 200,-38.5 124,-38.5"/>
<text text-anchor="middle" x="162" y="-45.5" font-family="Helvetica,sans-Serif" font-size="10.00">km_error_key</text>
</a>
</g>
</g>
<!-- Node1&#45;&gt;Node4 -->
<g id="edge3" class="edge"><title>Node1&#45;&gt;Node4</title>
<path fill="none" stroke="midnightblue" d="M85.8491,-59.7038C98.3391,-57.7587 111.667,-55.683 123.577,-53.8281"/>
<polygon fill="midnightblue" stroke="midnightblue" points="84.9463,-56.3022 75.604,-61.2994 86.0235,-63.2188 84.9463,-56.3022"/>
</g>
<!-- Node5 -->
<g id="node5" class="node"><title>Node5</title>
<g id="a_node5"><a xlink:href="mx_8h.html#a357ee844041eb7512ae97023ff2f9488" target="_top" xlink:title="Save changes to mailbox. ">
<polygon fill="white" stroke="red" points="119,-0.5 119,-19.5 205,-19.5 205,-0.5 119,-0.5"/>
<text text-anchor="middle" x="162" y="-7.5" font-family="Helvetica,sans-Serif" font-size="10.00">mx_mbox_sync</text>
</a>
</g>
</g>
<!-- Node1&#45;&gt;Node5 -->
<g id="edge4" class="edge"><title>Node1&#45;&gt;Node5</title>
<path fill="none" stroke="midnightblue" d="M65.0533,-52.5489C78.8309,-45.1348 96.1352,-36.1788 112,-29 119.315,-25.6899 127.391,-22.4104 134.841,-19.5316"/>
<polygon fill="midnightblue" stroke="midnightblue" points="63.2536,-49.5435 56.1395,-57.3946 66.5969,-55.6935 63.2536,-49.5435"/>
</g>
</g>
</svg>
