<?xml version="1.0" encoding="UTF-8" standalone="no"?>
<!DOCTYPE svg PUBLIC "-//W3C//DTD SVG 1.1//EN"
 "http://www.w3.org/Graphics/SVG/1.1/DTD/svg11.dtd">
<!-- Generated by graphviz version 2.36.0 (20140111.2315)
 -->
<!-- Title: km_dokey Pages: 1 -->
<svg width="626pt" height="239pt"
 viewBox="0.00 0.00 626.00 238.93" xmlns="http://www.w3.org/2000/svg" xmlns:xlink="http://www.w3.org/1999/xlink">
<g id="graph0" class="graph" transform="scale(1 1) rotate(0) translate(4 234.931)">
<title>km_dokey</title>
<polygon fill="white" stroke="none" points="-4,4 -4,-234.931 622,-234.931 622,4 -4,4"/>
<!-- Node1 -->
<g id="node1" class="node"><title>Node1</title>
<polygon fill="#bfbfbf" stroke="black" points="0,-114.5 0,-133.5 62,-133.5 62,-114.5 0,-114.5"/>
<text text-anchor="middle" x="31" y="-121.5" font-family="Helvetica,sans-Serif" font-size="10.00">km_dokey</text>
</g>
<!-- Node2 -->
<g id="node2" class="node"><title>Node2</title>
<g id="a_node2"><a xlink:href="commands_8h.html#a9be59878cc7204a7bad72685e83c5733" target="_top" xlink:title="Display a message in the pager. ">
<polygon fill="white" stroke="black" points="370.5,-133.5 370.5,-152.5 487.5,-152.5 487.5,-133.5 370.5,-133.5"/>
<text text-anchor="middle" x="429" y="-140.5" font-family="Helvetica,sans-Serif" font-size="10.00">mutt_display_message</text>
</a>
</g>
</g>
<!-- Node1&#45;&gt;Node2 -->
<g id="edge1" class="edge"><title>Node1&#45;&gt;Node2</title>
<path fill="none" stroke="midnightblue" d="M45.8557,-141.409C57.9519,-155.1 76.8483,-173.131 98,-181 207.453,-221.721 350.231,-174.243 405.127,-152.621"/>
<polygon fill="midnightblue" stroke="midnightblue" points="48.3683,-138.96 39.2436,-133.576 43.0191,-143.475 48.3683,-138.96"/>
</g>
<!-- Node3 -->
<g id="node3" class="node"><title>Node3</title>
<g id="a_node3"><a xlink:href="curs__main_8h.html#af7d9d8649ad205788c9af1bbf871207f" target="_top" xlink:title="Display a list of emails. ">
<polygon fill="white" stroke="red" points="524,-133.5 524,-152.5 618,-152.5 618,-133.5 524,-133.5"/>
<text text-anchor="middle" x="571" y="-140.5" font-family="Helvetica,sans-Serif" font-size="10.00">mutt_index_menu</text>
</a>
</g>
</g>
<!-- Node1&#45;&gt;Node3 -->
<g id="edge3" class="edge"><title>Node1&#45;&gt;Node3</title>
<path fill="none" stroke="midnightblue" d="M41.3181,-142.412C52.0647,-161.365 71.689,-189.797 98,-202 259.445,-276.878 483.552,-183.883 550.42,-152.585"/>
<polygon fill="midnightblue" stroke="midnightblue" points="44.3423,-140.646 36.5192,-133.501 38.1792,-143.965 44.3423,-140.646"/>
</g>
<!-- Node4 -->
<g id="node4" class="node"><title>Node4</title>
<g id="a_node4"><a xlink:href="protos_8h.html#a76d3af6aa66fa26ade9ea489243b5256" target="_top" xlink:title="Ask the user for a string. ">
<polygon fill="white" stroke="red" points="98,-152.5 98,-171.5 208,-171.5 208,-152.5 98,-152.5"/>
<text text-anchor="middle" x="153" y="-159.5" font-family="Helvetica,sans-Serif" font-size="10.00">mutt_enter_string_full</text>
</a>
</g>
</g>
<!-- Node1&#45;&gt;Node4 -->
<g id="edge4" class="edge"><title>Node1&#45;&gt;Node4</title>
<path fill="none" stroke="midnightblue" d="M72.0435,-136.68C88.2574,-141.815 106.666,-147.644 121.729,-152.414"/>
<polygon fill="midnightblue" stroke="midnightblue" points="72.8711,-133.271 62.2811,-133.589 70.7578,-139.945 72.8711,-133.271"/>
</g>
<!-- Node5 -->
<g id="node5" class="node"><title>Node5</title>
<g id="a_node5"><a xlink:href="keymap_8c.html#ac8fef36efbe59f02426d3f6883e20772" target="_top" xlink:title="Try to find the key in the generic menu bindings. ">
<polygon fill="white" stroke="black" points="116.5,-114.5 116.5,-133.5 189.5,-133.5 189.5,-114.5 116.5,-114.5"/>
<text text-anchor="middle" x="153" y="-121.5" font-family="Helvetica,sans-Serif" font-size="10.00">retry_generic</text>
</a>
</g>
</g>
<!-- Node1&#45;&gt;Node5 -->
<g id="edge5" class="edge"><title>Node1&#45;&gt;Node5</title>
<path fill="none" stroke="midnightblue" d="M72.2818,-117.585C86.4921,-117.085 102.363,-117.145 116.179,-117.763"/>
<polygon fill="midnightblue" stroke="midnightblue" points="72.1086,-114.089 62.2811,-118.048 72.4321,-121.082 72.1086,-114.089"/>
</g>
<!-- Node6 -->
<g id="node6" class="node"><title>Node6</title>
<g id="a_node6"><a xlink:href="keymap_8h.html#af6e5b850fe3902dc8378f9e1b4b5a457" target="_top" xlink:title="Handle an unbound key sequence. ">
<polygon fill="white" stroke="black" points="115,-38.5 115,-57.5 191,-57.5 191,-38.5 115,-38.5"/>
<text text-anchor="middle" x="153" y="-45.5" font-family="Helvetica,sans-Serif" font-size="10.00">km_error_key</text>
</a>
</g>
</g>
<!-- Node1&#45;&gt;Node6 -->
<g id="edge7" class="edge"><title>Node1&#45;&gt;Node6</title>
<path fill="none" stroke="midnightblue" d="M50.2057,-107.623C62.9787,-96.6571 80.7858,-82.3835 98,-72 107.136,-66.4891 117.761,-61.4949 127.158,-57.507"/>
<polygon fill="midnightblue" stroke="midnightblue" points="47.8196,-105.06 42.5958,-114.278 52.4276,-110.33 47.8196,-105.06"/>
</g>
<!-- Node7 -->
<g id="node7" class="node"><title>Node7</title>
<g id="a_node7"><a xlink:href="menu_8h.html#a2a7161a4171307d15f2362f5d55dfdb1" target="_top" xlink:title="Menu event loop. ">
<polygon fill="white" stroke="red" points="244.5,-0.5 244.5,-19.5 333.5,-19.5 333.5,-0.5 244.5,-0.5"/>
<text text-anchor="middle" x="289" y="-7.5" font-family="Helvetica,sans-Serif" font-size="10.00">mutt_menu_loop</text>
</a>
</g>
</g>
<!-- Node1&#45;&gt;Node7 -->
<g id="edge12" class="edge"><title>Node1&#45;&gt;Node7</title>
<path fill="none" stroke="midnightblue" d="M39.366,-104.926C49.108,-82.5498 68.5601,-46.3142 98,-29 142.72,-2.69918 203.77,-1.4545 244.471,-4.46012"/>
<polygon fill="midnightblue" stroke="midnightblue" points="36.0425,-103.805 35.4669,-114.384 42.5141,-106.473 36.0425,-103.805"/>
</g>
<!-- Node8 -->
<g id="node8" class="node"><title>Node8</title>
<g id="a_node8"><a xlink:href="pager_8h.html#a1f4fb11389135c8767d9c4adca46f0d4" target="_top" xlink:title="Display a file, or help, in a window. ">
<polygon fill="white" stroke="red" points="256.5,-76.5 256.5,-95.5 321.5,-95.5 321.5,-76.5 256.5,-76.5"/>
<text text-anchor="middle" x="289" y="-83.5" font-family="Helvetica,sans-Serif" font-size="10.00">mutt_pager</text>
</a>
</g>
</g>
<!-- Node1&#45;&gt;Node8 -->
<g id="edge13" class="edge"><title>Node1&#45;&gt;Node8</title>
<path fill="none" stroke="midnightblue" d="M70.7035,-111.596C79.5972,-109.099 89.0672,-106.718 98,-105 153.179,-94.3888 218.583,-89.4998 256.482,-87.4073"/>
<polygon fill="midnightblue" stroke="midnightblue" points="69.587,-108.276 60.9664,-114.435 71.5463,-114.996 69.587,-108.276"/>
</g>
<!-- Node2&#45;&gt;Node3 -->
<g id="edge2" class="edge"><title>Node2&#45;&gt;Node3</title>
<path fill="none" stroke="midnightblue" d="M498.006,-143C506.785,-143 515.606,-143 523.916,-143"/>
<polygon fill="midnightblue" stroke="midnightblue" points="497.752,-139.5 487.752,-143 497.752,-146.5 497.752,-139.5"/>
</g>
<!-- Node5&#45;&gt;Node1 -->
<g id="edge6" class="edge"><title>Node5&#45;&gt;Node1</title>
<path fill="none" stroke="midnightblue" d="M105.809,-130.589C91.2138,-130.935 75.4666,-130.723 62.2811,-129.952"/>
<polygon fill="midnightblue" stroke="midnightblue" points="106.303,-134.074 116.179,-130.237 106.066,-127.078 106.303,-134.074"/>
</g>
<!-- Node6&#45;&gt;Node3 -->
<g id="edge8" class="edge"><title>Node6&#45;&gt;Node3</title>
<path fill="none" stroke="midnightblue" d="M201.594,-50.3401C238.124,-52.7808 289.649,-57.6231 334,-67 413.384,-83.7837 503.817,-117.056 545.987,-133.436"/>
<polygon fill="midnightblue" stroke="midnightblue" points="201.437,-46.8233 191.236,-49.6855 200.995,-53.8093 201.437,-46.8233"/>
</g>
<!-- Node6&#45;&gt;Node7 -->
<g id="edge9" class="edge"><title>Node6&#45;&gt;Node7</title>
<path fill="none" stroke="midnightblue" d="M197.438,-35.6817C215.849,-30.4607 236.98,-24.4684 254.197,-19.5859"/>
<polygon fill="midnightblue" stroke="midnightblue" points="196.48,-32.3155 187.814,-38.411 198.389,-39.0499 196.48,-32.3155"/>
</g>
<!-- Node6&#45;&gt;Node8 -->
<g id="edge10" class="edge"><title>Node6&#45;&gt;Node8</title>
<path fill="none" stroke="midnightblue" d="M197.553,-60.3508C216.766,-65.7994 238.923,-72.0827 256.498,-77.0667"/>
<polygon fill="midnightblue" stroke="midnightblue" points="198.389,-56.9501 187.814,-57.589 196.48,-63.6845 198.389,-56.9501"/>
</g>
<!-- Node8&#45;&gt;Node2 -->
<g id="edge11" class="edge"><title>Node8&#45;&gt;Node2</title>
<path fill="none" stroke="midnightblue" d="M322.634,-99.4793C347.914,-109.921 382.311,-124.129 404.827,-133.428"/>
<polygon fill="midnightblue" stroke="midnightblue" points="323.677,-96.1233 313.098,-95.5405 321.005,-102.593 323.677,-96.1233"/>
</g>
</g>
</svg>
