<?xml version="1.0" encoding="UTF-8" standalone="no"?>
<!DOCTYPE svg PUBLIC "-//W3C//DTD SVG 1.1//EN"
 "http://www.w3.org/Graphics/SVG/1.1/DTD/svg11.dtd">
<!-- Generated by graphviz version 2.36.0 (20140111.2315)
 -->
<!-- Title: try_bind Pages: 1 -->
<svg width="204pt" height="142pt"
 viewBox="0.00 0.00 204.00 142.00" xmlns="http://www.w3.org/2000/svg" xmlns:xlink="http://www.w3.org/1999/xlink">
<g id="graph0" class="graph" transform="scale(1 1) rotate(0) translate(4 138)">
<title>try_bind</title>
<polygon fill="white" stroke="none" points="-4,4 -4,-138 200,-138 200,4 -4,4"/>
<!-- Node1 -->
<g id="node1" class="node"><title>Node1</title>
<polygon fill="#bfbfbf" stroke="black" points="0.5,-57.5 0.5,-76.5 51.5,-76.5 51.5,-57.5 0.5,-57.5"/>
<text text-anchor="middle" x="26" y="-64.5" font-family="Helvetica,sans-Serif" font-size="10.00">try_bind</text>
</g>
<!-- Node2 -->
<g id="node2" class="node"><title>Node2</title>
<g id="a_node2"><a xlink:href="mutt_2string_8c.html#ab4aaf8bd2ce3982651f0f949d6c665e2" target="_top" xlink:title="Compare two strings, safely. ">
<polygon fill="white" stroke="black" points="98,-114.5 98,-133.5 186,-133.5 186,-114.5 98,-114.5"/>
<text text-anchor="middle" x="142" y="-121.5" font-family="Helvetica,sans-Serif" font-size="10.00">mutt_str_strcmp</text>
</a>
</g>
</g>
<!-- Node1&#45;&gt;Node2 -->
<g id="edge1" class="edge"><title>Node1&#45;&gt;Node2</title>
<path fill="none" stroke="midnightblue" d="M40.57,-76.6289C52.6245,-84.8917 70.9284,-96.7393 88,-105 92.2839,-107.073 96.8554,-109.045 101.45,-110.879"/>
<polygon fill="midnightblue" stroke="midnightblue" points="100.238,-114.162 110.829,-114.438 102.722,-107.618 100.238,-114.162"/>
</g>
<!-- Node3 -->
<g id="node3" class="node"><title>Node3</title>
<g id="a_node3"><a xlink:href="keymap_8c.html#a61ca2f9fcffb7b4304cb16f9724e4873" target="_top" xlink:title="Bind a key in a Menu to an operation (with error message) ">
<polygon fill="white" stroke="red" points="99,-76.5 99,-95.5 185,-95.5 185,-76.5 99,-76.5"/>
<text text-anchor="middle" x="142" y="-83.5" font-family="Helvetica,sans-Serif" font-size="10.00">km_bindkey_err</text>
</a>
</g>
</g>
<!-- Node1&#45;&gt;Node3 -->
<g id="edge2" class="edge"><title>Node1&#45;&gt;Node3</title>
<path fill="none" stroke="midnightblue" d="M51.7363,-71.1227C62.5874,-72.9312 75.7645,-75.1274 88.6254,-77.2709"/>
<polygon fill="midnightblue" stroke="midnightblue" points="88.382,-80.7785 98.8214,-78.9702 89.5329,-73.8738 88.382,-80.7785"/>
</g>
<!-- Node4 -->
<g id="node4" class="node"><title>Node4</title>
<g id="a_node4"><a xlink:href="buffer_8c.html#ad057ee239ae5bcfd72cab3749036ab02" target="_top" xlink:title="Format a string into a Buffer. ">
<polygon fill="white" stroke="red" points="95.5,-38.5 95.5,-57.5 188.5,-57.5 188.5,-38.5 95.5,-38.5"/>
<text text-anchor="middle" x="142" y="-45.5" font-family="Helvetica,sans-Serif" font-size="10.00">mutt_buffer_printf</text>
</a>
</g>
</g>
<!-- Node1&#45;&gt;Node4 -->
<g id="edge3" class="edge"><title>Node1&#45;&gt;Node4</title>
<path fill="none" stroke="midnightblue" d="M51.7363,-62.8773C61.5621,-61.2396 73.2952,-59.2841 84.9737,-57.3377"/>
<polygon fill="midnightblue" stroke="midnightblue" points="85.8848,-60.7342 95.1733,-55.6378 84.734,-53.8295 85.8848,-60.7342"/>
</g>
<!-- Node5 -->
<g id="node5" class="node"><title>Node5</title>
<g id="a_node5"><a xlink:href="mapping_8c.html#acd58cf0565e80b588773e4c4cb45407f" target="_top" xlink:title="Lookup a string for a constant. ">
<polygon fill="white" stroke="black" points="88,-0.5 88,-19.5 196,-19.5 196,-0.5 88,-0.5"/>
<text text-anchor="middle" x="142" y="-7.5" font-family="Helvetica,sans-Serif" font-size="10.00">mutt_map_get_name</text>
</a>
</g>
</g>
<!-- Node1&#45;&gt;Node5 -->
<g id="edge4" class="edge"><title>Node1&#45;&gt;Node5</title>
<path fill="none" stroke="midnightblue" d="M40.57,-57.3711C52.6245,-49.1083 70.9284,-37.2607 88,-29 92.2839,-26.9271 96.8554,-24.9554 101.45,-23.1214"/>
<polygon fill="midnightblue" stroke="midnightblue" points="102.722,-26.3825 110.829,-19.562 100.238,-19.8379 102.722,-26.3825"/>
</g>
</g>
</svg>
