<?xml version="1.0" encoding="UTF-8" standalone="no"?>
<!DOCTYPE svg PUBLIC "-//W3C//DTD SVG 1.1//EN"
 "http://www.w3.org/Graphics/SVG/1.1/DTD/svg11.dtd">
<!-- Generated by graphviz version 2.36.0 (20140111.2315)
 -->
<!-- Title: config/lib.h Pages: 1 -->
<svg width="1108pt" height="84pt"
 viewBox="0.00 0.00 1108.00 84.00" xmlns="http://www.w3.org/2000/svg" xmlns:xlink="http://www.w3.org/1999/xlink">
<g id="graph0" class="graph" transform="scale(1 1) rotate(0) translate(4 80)">
<title>config/lib.h</title>
<polygon fill="white" stroke="none" points="-4,4 -4,-80 1104,-80 1104,4 -4,4"/>
<!-- Node1 -->
<g id="node1" class="node"><title>Node1</title>
<polygon fill="#bfbfbf" stroke="black" points="548,-56.5 548,-75.5 612,-75.5 612,-56.5 548,-56.5"/>
<text text-anchor="middle" x="580" y="-63.5" font-family="Helvetica,sans-Serif" font-size="10.00">config/lib.h</text>
</g>
<!-- Node2 -->
<g id="node2" class="node"><title>Node2</title>
<g id="a_node2"><a xlink:href="config_2address_8h.html" target="_top" xlink:title="Type representing an email address. ">
<polygon fill="white" stroke="red" points="-0.5,-0.5 -0.5,-19.5 58.5,-19.5 58.5,-0.5 -0.5,-0.5"/>
<text text-anchor="middle" x="29" y="-7.5" font-family="Helvetica,sans-Serif" font-size="10.00">address.h</text>
</a>
</g>
</g>
<!-- Node1&#45;&gt;Node2 -->
<g id="edge1" class="edge"><title>Node1&#45;&gt;Node2</title>
<path fill="none" stroke="midnightblue" d="M547.984,-63.8063C468.404,-60.4965 255.17,-49.5282 68.7678,-20.0848"/>
<polygon fill="midnightblue" stroke="midnightblue" points="69.2165,-16.6122 58.7888,-18.4866 68.1094,-23.5241 69.2165,-16.6122"/>
</g>
<!-- Node3 -->
<g id="node3" class="node"><title>Node3</title>
<g id="a_node3"><a xlink:href="config_2bool_8h.html" target="_top" xlink:title="Type representing a boolean. ">
<polygon fill="white" stroke="black" points="76.5,-0.5 76.5,-19.5 119.5,-19.5 119.5,-0.5 76.5,-0.5"/>
<text text-anchor="middle" x="98" y="-7.5" font-family="Helvetica,sans-Serif" font-size="10.00">bool.h</text>
</a>
</g>
</g>
<!-- Node1&#45;&gt;Node3 -->
<g id="edge2" class="edge"><title>Node1&#45;&gt;Node3</title>
<path fill="none" stroke="midnightblue" d="M547.996,-63.819C475.275,-60.708 292.008,-50.4582 129.722,-19.7607"/>
<polygon fill="midnightblue" stroke="midnightblue" points="130.038,-16.2575 119.557,-17.8055 128.716,-23.1314 130.038,-16.2575"/>
</g>
<!-- Node4 -->
<g id="node4" class="node"><title>Node4</title>
<g id="a_node4"><a xlink:href="config_2command_8h.html" target="_top" xlink:title="Type representing a command. ">
<polygon fill="white" stroke="black" points="138,-0.5 138,-19.5 206,-19.5 206,-0.5 138,-0.5"/>
<text text-anchor="middle" x="172" y="-7.5" font-family="Helvetica,sans-Serif" font-size="10.00">command.h</text>
</a>
</g>
</g>
<!-- Node1&#45;&gt;Node4 -->
<g id="edge3" class="edge"><title>Node1&#45;&gt;Node4</title>
<path fill="none" stroke="midnightblue" d="M547.645,-61.9293C485.42,-55.8264 344.584,-41.0589 216.224,-20.0834"/>
<polygon fill="midnightblue" stroke="midnightblue" points="216.656,-16.6074 206.219,-18.4315 215.515,-23.5138 216.656,-16.6074"/>
</g>
<!-- Node5 -->
<g id="node5" class="node"><title>Node5</title>
<g id="a_node5"><a xlink:href="dump_8h.html" target="_top" xlink:title="Dump all the config. ">
<polygon fill="white" stroke="red" points="224.5,-0.5 224.5,-19.5 273.5,-19.5 273.5,-0.5 224.5,-0.5"/>
<text text-anchor="middle" x="249" y="-7.5" font-family="Helvetica,sans-Serif" font-size="10.00">dump.h</text>
</a>
</g>
</g>
<!-- Node1&#45;&gt;Node5 -->
<g id="edge4" class="edge"><title>Node1&#45;&gt;Node5</title>
<path fill="none" stroke="midnightblue" d="M547.713,-61.2726C494.66,-54.8966 385.584,-40.7333 283.649,-19.9329"/>
<polygon fill="midnightblue" stroke="midnightblue" points="284.31,-16.4957 273.809,-17.8993 282.893,-23.3508 284.31,-16.4957"/>
</g>
<!-- Node6 -->
<g id="node6" class="node"><title>Node6</title>
<g id="a_node6"><a xlink:href="inheritance_8h.html" target="_top" xlink:title="An inherited config item. ">
<polygon fill="white" stroke="red" points="292,-0.5 292,-19.5 364,-19.5 364,-0.5 292,-0.5"/>
<text text-anchor="middle" x="328" y="-7.5" font-family="Helvetica,sans-Serif" font-size="10.00">inheritance.h</text>
</a>
</g>
</g>
<!-- Node1&#45;&gt;Node6 -->
<g id="edge5" class="edge"><title>Node1&#45;&gt;Node6</title>
<path fill="none" stroke="midnightblue" d="M547.828,-58.106C503.76,-48.6628 424.365,-31.6497 374.018,-20.8609"/>
<polygon fill="midnightblue" stroke="midnightblue" points="374.558,-17.3973 364.046,-18.7242 373.091,-24.2419 374.558,-17.3973"/>
</g>
<!-- Node7 -->
<g id="node7" class="node"><title>Node7</title>
<g id="a_node7"><a xlink:href="config_2long_8h.html" target="_top" xlink:title="Type representing a long. ">
<polygon fill="white" stroke="black" points="382.5,-0.5 382.5,-19.5 425.5,-19.5 425.5,-0.5 382.5,-0.5"/>
<text text-anchor="middle" x="404" y="-7.5" font-family="Helvetica,sans-Serif" font-size="10.00">long.h</text>
</a>
</g>
</g>
<!-- Node1&#45;&gt;Node7 -->
<g id="edge6" class="edge"><title>Node1&#45;&gt;Node7</title>
<path fill="none" stroke="midnightblue" d="M552.112,-56.4435C520.314,-46.6872 468.456,-30.7764 435.301,-20.6036"/>
<polygon fill="midnightblue" stroke="midnightblue" points="436.241,-17.2311 425.654,-17.6439 434.188,-23.9232 436.241,-17.2311"/>
</g>
<!-- Node8 -->
<g id="node8" class="node"><title>Node8</title>
<g id="a_node8"><a xlink:href="config_2magic_8h.html" target="_top" xlink:title="Type representing a mailbox. ">
<polygon fill="white" stroke="black" points="443.5,-0.5 443.5,-19.5 494.5,-19.5 494.5,-0.5 443.5,-0.5"/>
<text text-anchor="middle" x="469" y="-7.5" font-family="Helvetica,sans-Serif" font-size="10.00">magic.h</text>
</a>
</g>
</g>
<!-- Node1&#45;&gt;Node8 -->
<g id="edge7" class="edge"><title>Node1&#45;&gt;Node8</title>
<path fill="none" stroke="midnightblue" d="M562.166,-56.324C544.284,-47.6247 516.525,-34.1202 495.954,-24.113"/>
<polygon fill="midnightblue" stroke="midnightblue" points="497.313,-20.8819 486.79,-19.6545 494.251,-27.1765 497.313,-20.8819"/>
</g>
<!-- Node9 -->
<g id="node9" class="node"><title>Node9</title>
<g id="a_node9"><a xlink:href="config_2mbtable_8h.html" target="_top" xlink:title="Type representing a multibyte character table. ">
<polygon fill="white" stroke="black" points="512.5,-0.5 512.5,-19.5 571.5,-19.5 571.5,-0.5 512.5,-0.5"/>
<text text-anchor="middle" x="542" y="-7.5" font-family="Helvetica,sans-Serif" font-size="10.00">mbtable.h</text>
</a>
</g>
</g>
<!-- Node1&#45;&gt;Node9 -->
<g id="edge8" class="edge"><title>Node1&#45;&gt;Node9</title>
<path fill="none" stroke="midnightblue" d="M573.725,-56.083C568.358,-48.4554 560.482,-37.2645 553.921,-27.9408"/>
<polygon fill="midnightblue" stroke="midnightblue" points="556.775,-25.9149 548.158,-19.7511 551.051,-29.9434 556.775,-25.9149"/>
</g>
<!-- Node10 -->
<g id="node10" class="node"><title>Node10</title>
<g id="a_node10"><a xlink:href="config_2number_8h.html" target="_top" xlink:title="Type representing a number. ">
<polygon fill="white" stroke="black" points="589.5,-0.5 589.5,-19.5 646.5,-19.5 646.5,-0.5 589.5,-0.5"/>
<text text-anchor="middle" x="618" y="-7.5" font-family="Helvetica,sans-Serif" font-size="10.00">number.h</text>
</a>
</g>
</g>
<!-- Node1&#45;&gt;Node10 -->
<g id="edge9" class="edge"><title>Node1&#45;&gt;Node10</title>
<path fill="none" stroke="midnightblue" d="M586.275,-56.083C591.642,-48.4554 599.518,-37.2645 606.079,-27.9408"/>
<polygon fill="midnightblue" stroke="midnightblue" points="608.949,-29.9434 611.842,-19.7511 603.225,-25.9149 608.949,-29.9434"/>
</g>
<!-- Node11 -->
<g id="node11" class="node"><title>Node11</title>
<g id="a_node11"><a xlink:href="config_2path_8h.html" target="_top" xlink:title="Type representing a path. ">
<polygon fill="white" stroke="black" points="665,-0.5 665,-19.5 709,-19.5 709,-0.5 665,-0.5"/>
<text text-anchor="middle" x="687" y="-7.5" font-family="Helvetica,sans-Serif" font-size="10.00">path.h</text>
</a>
</g>
</g>
<!-- Node1&#45;&gt;Node11 -->
<g id="edge10" class="edge"><title>Node1&#45;&gt;Node11</title>
<path fill="none" stroke="midnightblue" d="M597.191,-56.324C614.351,-47.6641 640.946,-34.2424 660.747,-24.249"/>
<polygon fill="midnightblue" stroke="midnightblue" points="662.501,-27.2847 669.851,-19.6545 659.347,-21.0354 662.501,-27.2847"/>
</g>
<!-- Node12 -->
<g id="node12" class="node"><title>Node12</title>
<g id="a_node12"><a xlink:href="config_2quad_8h.html" target="_top" xlink:title="Type representing a quad&#45;option. ">
<polygon fill="white" stroke="black" points="727,-0.5 727,-19.5 773,-19.5 773,-0.5 727,-0.5"/>
<text text-anchor="middle" x="750" y="-7.5" font-family="Helvetica,sans-Serif" font-size="10.00">quad.h</text>
</a>
</g>
</g>
<!-- Node1&#45;&gt;Node12 -->
<g id="edge11" class="edge"><title>Node1&#45;&gt;Node12</title>
<path fill="none" stroke="midnightblue" d="M606.937,-56.4435C636.759,-46.9707 684.846,-31.6961 716.929,-21.5048"/>
<polygon fill="midnightblue" stroke="midnightblue" points="718.269,-24.7516 726.74,-18.3884 716.15,-18.0801 718.269,-24.7516"/>
</g>
<!-- Node13 -->
<g id="node13" class="node"><title>Node13</title>
<g id="a_node13"><a xlink:href="regex2_8h.html" target="_top" xlink:title="Type representing a regular expression. ">
<polygon fill="white" stroke="red" points="791,-0.5 791,-19.5 845,-19.5 845,-0.5 791,-0.5"/>
<text text-anchor="middle" x="818" y="-7.5" font-family="Helvetica,sans-Serif" font-size="10.00">regex2.h</text>
</a>
</g>
</g>
<!-- Node1&#45;&gt;Node13 -->
<g id="edge12" class="edge"><title>Node1&#45;&gt;Node13</title>
<path fill="none" stroke="midnightblue" d="M612.245,-58.0851C650.217,-49.8834 715.44,-35.6126 780.824,-20.2332"/>
<polygon fill="midnightblue" stroke="midnightblue" points="781.963,-23.5607 790.891,-17.8566 780.355,-16.7479 781.963,-23.5607"/>
</g>
<!-- Node14 -->
<g id="node14" class="node"><title>Node14</title>
<g id="a_node14"><a xlink:href="config_2set_8h.html" target="_top" xlink:title="A collection of config items. ">
<polygon fill="white" stroke="red" points="863,-0.5 863,-19.5 901,-19.5 901,-0.5 863,-0.5"/>
<text text-anchor="middle" x="882" y="-7.5" font-family="Helvetica,sans-Serif" font-size="10.00">set.h</text>
</a>
</g>
</g>
<!-- Node1&#45;&gt;Node14 -->
<g id="edge13" class="edge"><title>Node1&#45;&gt;Node14</title>
<path fill="none" stroke="midnightblue" d="M612.369,-61.2633C662.188,-55.1718 760.74,-41.7736 853.052,-19.9273"/>
<polygon fill="midnightblue" stroke="midnightblue" points="853.923,-23.3178 862.827,-17.5761 852.286,-16.5119 853.923,-23.3178"/>
</g>
<!-- Node15 -->
<g id="node15" class="node"><title>Node15</title>
<g id="a_node15"><a xlink:href="config_2sort_8h.html" target="_top" xlink:title="Type representing a sort option. ">
<polygon fill="white" stroke="red" points="919.5,-0.5 919.5,-19.5 960.5,-19.5 960.5,-0.5 919.5,-0.5"/>
<text text-anchor="middle" x="940" y="-7.5" font-family="Helvetica,sans-Serif" font-size="10.00">sort.h</text>
</a>
</g>
</g>
<!-- Node1&#45;&gt;Node15 -->
<g id="edge14" class="edge"><title>Node1&#45;&gt;Node15</title>
<path fill="none" stroke="midnightblue" d="M612.146,-62.2955C669.813,-57.0839 794.729,-44.1593 909.45,-19.7847"/>
<polygon fill="midnightblue" stroke="midnightblue" points="910.418,-23.1566 919.453,-17.6242 908.94,-16.3144 910.418,-23.1566"/>
</g>
<!-- Node16 -->
<g id="node16" class="node"><title>Node16</title>
<g id="a_node16"><a xlink:href="string3_8h.html" target="_top" xlink:title="Type representing a string. ">
<polygon fill="white" stroke="black" points="979,-0.5 979,-19.5 1033,-19.5 1033,-0.5 979,-0.5"/>
<text text-anchor="middle" x="1006" y="-7.5" font-family="Helvetica,sans-Serif" font-size="10.00">string3.h</text>
</a>
</g>
</g>
<!-- Node1&#45;&gt;Node16 -->
<g id="edge15" class="edge"><title>Node1&#45;&gt;Node16</title>
<path fill="none" stroke="midnightblue" d="M612.216,-62.627C677.517,-57.5273 830.278,-44.1259 968.663,-19.8316"/>
<polygon fill="midnightblue" stroke="midnightblue" points="969.369,-23.2612 978.601,-18.0636 968.142,-16.3694 969.369,-23.2612"/>
</g>
<!-- Node17 -->
<g id="node17" class="node"><title>Node17</title>
<g id="a_node17"><a xlink:href="types_8h.html" target="_top" xlink:title="Constants for all the config types. ">
<polygon fill="white" stroke="black" points="1051.5,-0.5 1051.5,-19.5 1100.5,-19.5 1100.5,-0.5 1051.5,-0.5"/>
<text text-anchor="middle" x="1076" y="-7.5" font-family="Helvetica,sans-Serif" font-size="10.00">types.h</text>
</a>
</g>
</g>
<!-- Node1&#45;&gt;Node17 -->
<g id="edge16" class="edge"><title>Node1&#45;&gt;Node17</title>
<path fill="none" stroke="midnightblue" d="M612.171,-63.6578C686.248,-60.1861 874.629,-49.1828 1041.29,-19.8305"/>
<polygon fill="midnightblue" stroke="midnightblue" points="1041.99,-23.26 1051.22,-18.0544 1040.76,-16.3693 1041.99,-23.26"/>
</g>
</g>
</svg>
