<?xml version="1.0" encoding="UTF-8" standalone="no"?>
<!DOCTYPE svg PUBLIC "-//W3C//DTD SVG 1.1//EN"
 "http://www.w3.org/Graphics/SVG/1.1/DTD/svg11.dtd">
<!-- Generated by graphviz version 2.36.0 (20140111.2315)
 -->
<!-- Title: mutt_list_insert_tail Pages: 1 -->
<svg width="432pt" height="628pt"
 viewBox="0.00 0.00 432.00 628.00" xmlns="http://www.w3.org/2000/svg" xmlns:xlink="http://www.w3.org/1999/xlink">
<g id="graph0" class="graph" transform="scale(1 1) rotate(0) translate(4 624)">
<title>mutt_list_insert_tail</title>
<polygon fill="white" stroke="none" points="-4,4 -4,-624 428,-624 428,4 -4,4"/>
<!-- Node1 -->
<g id="node1" class="node"><title>Node1</title>
<polygon fill="#bfbfbf" stroke="black" points="0.5,-297.5 0.5,-316.5 101.5,-316.5 101.5,-297.5 0.5,-297.5"/>
<text text-anchor="middle" x="51" y="-304.5" font-family="Helvetica,sans-Serif" font-size="10.00">mutt_list_insert_tail</text>
</g>
<!-- Node2 -->
<g id="node2" class="node"><title>Node2</title>
<g id="a_node2"><a xlink:href="parse_8h.html#a8a7093d918de1a8a681701742eb5a3d2" target="_top" xlink:title="Parse an email header. ">
<polygon fill="white" stroke="red" points="140,-600.5 140,-619.5 258,-619.5 258,-600.5 140,-600.5"/>
<text text-anchor="middle" x="199" y="-607.5" font-family="Helvetica,sans-Serif" font-size="10.00">mutt_rfc822_parse_line</text>
</a>
</g>
</g>
<!-- Node1&#45;&gt;Node2 -->
<g id="edge1" class="edge"><title>Node1&#45;&gt;Node2</title>
<path fill="none" stroke="midnightblue" d="M52.0283,-326.683C53.1934,-377.706 63.4614,-515.513 138,-591 141.839,-594.887 146.467,-597.981 151.429,-600.443"/>
<polygon fill="midnightblue" stroke="midnightblue" points="55.5278,-326.613 51.8963,-316.66 48.5284,-326.705 55.5278,-326.613"/>
</g>
<!-- Node3 -->
<g id="node3" class="node"><title>Node3</title>
<g id="a_node3"><a xlink:href="serialize_8h.html#a7c71f04834a31c8f5d203016ef0e24ee" target="_top" xlink:title="Unpack a STAILQ from a binary blob. ">
<polygon fill="white" stroke="red" points="147,-562.5 147,-581.5 251,-581.5 251,-562.5 147,-562.5"/>
<text text-anchor="middle" x="199" y="-569.5" font-family="Helvetica,sans-Serif" font-size="10.00">serial_restore_stailq</text>
</a>
</g>
</g>
<!-- Node1&#45;&gt;Node3 -->
<g id="edge2" class="edge"><title>Node1&#45;&gt;Node3</title>
<path fill="none" stroke="midnightblue" d="M53.1183,-326.797C56.8079,-373.106 72.462,-489.376 138,-553 141.998,-556.882 146.785,-559.971 151.887,-562.429"/>
<polygon fill="midnightblue" stroke="midnightblue" points="56.5952,-326.341 52.415,-316.606 49.6118,-326.823 56.5952,-326.341"/>
</g>
<!-- Node4 -->
<g id="node4" class="node"><title>Node4</title>
<g id="a_node4"><a xlink:href="hook_8c.html#ad6d45da376ec3b5b962632fe57544ed6" target="_top" xlink:title="Find hook strings matching. ">
<polygon fill="white" stroke="red" points="171,-524.5 171,-543.5 227,-543.5 227,-524.5 171,-524.5"/>
<text text-anchor="middle" x="199" y="-531.5" font-family="Helvetica,sans-Serif" font-size="10.00">list_hook</text>
</a>
</g>
</g>
<!-- Node1&#45;&gt;Node4 -->
<g id="edge3" class="edge"><title>Node1&#45;&gt;Node4</title>
<path fill="none" stroke="midnightblue" d="M54.6088,-327.055C61.0333,-368.29 81.4308,-463.066 138,-515 147.015,-523.276 159.626,-527.947 170.961,-530.584"/>
<polygon fill="midnightblue" stroke="midnightblue" points="58.0396,-326.323 53.1489,-316.925 51.1111,-327.322 58.0396,-326.323"/>
</g>
<!-- Node5 -->
<g id="node5" class="node"><title>Node5</title>
<g id="a_node5"><a xlink:href="imap_8c.html#aa3e4e1578eeb887571cc9a8257a3232a" target="_top" xlink:title="Make a simple list out of a FLAGS response. ">
<polygon fill="white" stroke="red" points="171,-486.5 171,-505.5 227,-505.5 227,-486.5 171,-486.5"/>
<text text-anchor="middle" x="199" y="-493.5" font-family="Helvetica,sans-Serif" font-size="10.00">get_flags</text>
</a>
</g>
</g>
<!-- Node1&#45;&gt;Node5 -->
<g id="edge4" class="edge"><title>Node1&#45;&gt;Node5</title>
<path fill="none" stroke="midnightblue" d="M56.5961,-326.736C65.8391,-362.062 90.0205,-436.212 138,-477 147.241,-484.856 159.748,-489.471 170.952,-492.179"/>
<polygon fill="midnightblue" stroke="midnightblue" points="59.9163,-325.583 54.1088,-316.722 53.1227,-327.27 59.9163,-325.583"/>
</g>
<!-- Node6 -->
<g id="node6" class="node"><title>Node6</title>
<g id="a_node6"><a xlink:href="imap__private_8h.html#a925749e5d4a304b8219da7ac44c31f75" target="_top" xlink:title="Open an hcache for a mailbox. ">
<polygon fill="white" stroke="red" points="143,-430.5 143,-449.5 255,-449.5 255,-430.5 143,-430.5"/>
<text text-anchor="middle" x="199" y="-437.5" font-family="Helvetica,sans-Serif" font-size="10.00">imap_mboxcache_get</text>
</a>
</g>
</g>
<!-- Node1&#45;&gt;Node6 -->
<g id="edge5" class="edge"><title>Node1&#45;&gt;Node6</title>
<path fill="none" stroke="midnightblue" d="M61.1779,-325.439C74.639,-350.639 102.084,-395.598 138,-421 143.442,-424.849 149.697,-427.942 156.069,-430.421"/>
<polygon fill="midnightblue" stroke="midnightblue" points="64.2761,-323.811 56.5694,-316.54 58.0602,-327.03 64.2761,-323.811"/>
</g>
<!-- Node7 -->
<g id="node7" class="node"><title>Node7</title>
<g id="a_node7"><a xlink:href="init_8c.html#adcc437000197ec48ab5b11dd4e10f7c9" target="_top" xlink:title="Add a string to a list. ">
<polygon fill="white" stroke="red" points="162,-354.5 162,-373.5 236,-373.5 236,-354.5 162,-354.5"/>
<text text-anchor="middle" x="199" y="-361.5" font-family="Helvetica,sans-Serif" font-size="10.00">add_to_stailq</text>
</a>
</g>
</g>
<!-- Node1&#45;&gt;Node7 -->
<g id="edge7" class="edge"><title>Node1&#45;&gt;Node7</title>
<path fill="none" stroke="midnightblue" d="M85.8181,-320.203C112.626,-330.669 149.452,-345.046 173.483,-354.428"/>
<polygon fill="midnightblue" stroke="midnightblue" points="87.0253,-316.917 76.4371,-316.541 84.4795,-323.438 87.0253,-316.917"/>
</g>
<!-- Node8 -->
<g id="node8" class="node"><title>Node8</title>
<g id="a_node8"><a xlink:href="mutt_8h.html#a81fd8c287cd99179a455c6809855953c" target="_top" xlink:title="Initialise NeoMutt. ">
<polygon fill="white" stroke="black" points="296,-335.5 296,-354.5 350,-354.5 350,-335.5 296,-335.5"/>
<text text-anchor="middle" x="323" y="-342.5" font-family="Helvetica,sans-Serif" font-size="10.00">mutt_init</text>
</a>
</g>
</g>
<!-- Node1&#45;&gt;Node8 -->
<g id="edge13" class="edge"><title>Node1&#45;&gt;Node8</title>
<path fill="none" stroke="midnightblue" d="M111.569,-315.384C169.043,-323.473 253.379,-335.342 295.712,-341.3"/>
<polygon fill="midnightblue" stroke="midnightblue" points="111.912,-311.898 101.522,-313.97 110.937,-318.829 111.912,-311.898"/>
</g>
<!-- Node9 -->
<g id="node9" class="node"><title>Node9</title>
<g id="a_node9"><a xlink:href="main_8c.html#adedb285b02c41bde2158ded9cc9fd7ac" target="_top" xlink:title="Start NeoMutt. ">
<polygon fill="white" stroke="black" points="386,-278.5 386,-297.5 424,-297.5 424,-278.5 386,-278.5"/>
<text text-anchor="middle" x="405" y="-285.5" font-family="Helvetica,sans-Serif" font-size="10.00">main</text>
</a>
</g>
</g>
<!-- Node1&#45;&gt;Node9 -->
<g id="edge14" class="edge"><title>Node1&#45;&gt;Node9</title>
<path fill="none" stroke="midnightblue" d="M77.1793,-292.527C93.8416,-283.807 116.505,-273.537 138,-269 229.506,-249.684 342.221,-272.681 385.701,-283.242"/>
<polygon fill="midnightblue" stroke="midnightblue" points="75.2481,-289.592 68.1164,-297.427 78.5776,-295.75 75.2481,-289.592"/>
</g>
<!-- Node10 -->
<g id="node10" class="node"><title>Node10</title>
<g id="a_node10"><a xlink:href="init_8c.html#ac8d3ffd39d653a2b67504868b8a89f28" target="_top" xlink:title="Parse the &quot;attachments&quot; command. ">
<polygon fill="white" stroke="red" points="153.5,-278.5 153.5,-297.5 244.5,-297.5 244.5,-278.5 153.5,-278.5"/>
<text text-anchor="middle" x="199" y="-285.5" font-family="Helvetica,sans-Serif" font-size="10.00">parse_attach_list</text>
</a>
</g>
</g>
<!-- Node1&#45;&gt;Node10 -->
<g id="edge10" class="edge"><title>Node1&#45;&gt;Node10</title>
<path fill="none" stroke="midnightblue" d="M111.79,-299.219C125.661,-297.414 140.189,-295.523 153.282,-293.819"/>
<polygon fill="midnightblue" stroke="midnightblue" points="111.301,-295.753 101.837,-300.514 112.205,-302.695 111.301,-295.753"/>
</g>
<!-- Node11 -->
<g id="node11" class="node"><title>Node11</title>
<g id="a_node11"><a xlink:href="init_8c.html#a72feefc54c9863392819450e0e2608d5" target="_top" xlink:title="Parse the &#39;my_hdr&#39; command &#45; Implements command_t. ">
<polygon fill="white" stroke="black" points="160,-392.5 160,-411.5 238,-411.5 238,-392.5 160,-392.5"/>
<text text-anchor="middle" x="199" y="-399.5" font-family="Helvetica,sans-Serif" font-size="10.00">parse_my_hdr</text>
</a>
</g>
</g>
<!-- Node1&#45;&gt;Node11 -->
<g id="edge11" class="edge"><title>Node1&#45;&gt;Node11</title>
<path fill="none" stroke="midnightblue" d="M67.2958,-324.195C83.3655,-341.305 110.136,-367.223 138,-383 144.751,-386.822 152.372,-389.986 159.862,-392.562"/>
<polygon fill="midnightblue" stroke="midnightblue" points="69.6504,-321.584 60.3087,-316.586 64.4945,-326.319 69.6504,-321.584"/>
</g>
<!-- Node12 -->
<g id="node12" class="node"><title>Node12</title>
<g id="a_node12"><a xlink:href="crypt__gpgme_8c.html#a6413c7e6bbfa71d8114053a970ae2ff2" target="_top" xlink:title="Split a string and add the parts to a List. ">
<polygon fill="white" stroke="red" points="148,-191 148,-221 250,-221 250,-191 148,-191"/>
<text text-anchor="start" x="156" y="-209" font-family="Helvetica,sans-Serif" font-size="10.00">crypt_add_string_to</text>
<text text-anchor="middle" x="199" y="-198" font-family="Helvetica,sans-Serif" font-size="10.00">_hints</text>
</a>
</g>
</g>
<!-- Node1&#45;&gt;Node12 -->
<g id="edge15" class="edge"><title>Node1&#45;&gt;Node12</title>
<path fill="none" stroke="midnightblue" d="M69.3964,-290.623C86.1497,-275.354 112.619,-252.517 138,-236 146.297,-230.601 155.699,-225.48 164.558,-221.047"/>
<polygon fill="midnightblue" stroke="midnightblue" points="66.9744,-288.095 61.9999,-297.45 71.7221,-293.239 66.9744,-288.095"/>
</g>
<!-- Node13 -->
<g id="node13" class="node"><title>Node13</title>
<g id="a_node13"><a xlink:href="pgpkey_8c.html#a40177845326ba43e7b01949fa290a368" target="_top" xlink:title="Split a string and add the parts to a List. ">
<polygon fill="white" stroke="red" points="138,-152.5 138,-171.5 260,-171.5 260,-152.5 138,-152.5"/>
<text text-anchor="middle" x="199" y="-159.5" font-family="Helvetica,sans-Serif" font-size="10.00">pgp_add_string_to_hints</text>
</a>
</g>
</g>
<!-- Node1&#45;&gt;Node13 -->
<g id="edge16" class="edge"><title>Node1&#45;&gt;Node13</title>
<path fill="none" stroke="midnightblue" d="M60.2192,-288.029C72.9845,-260.725 100.109,-210.505 138,-182 143.703,-177.709 150.379,-174.308 157.165,-171.622"/>
<polygon fill="midnightblue" stroke="midnightblue" points="56.9679,-286.725 56.0374,-297.279 63.3463,-289.609 56.9679,-286.725"/>
</g>
<!-- Node14 -->
<g id="node14" class="node"><title>Node14</title>
<g id="a_node14"><a xlink:href="protos_8h.html#abcaa78621be0be0446d94e7bc17453da" target="_top" xlink:title="Recall a postponed message. ">
<polygon fill="white" stroke="red" points="146.5,-114.5 146.5,-133.5 251.5,-133.5 251.5,-114.5 146.5,-114.5"/>
<text text-anchor="middle" x="199" y="-121.5" font-family="Helvetica,sans-Serif" font-size="10.00">mutt_get_postponed</text>
</a>
</g>
</g>
<!-- Node1&#45;&gt;Node14 -->
<g id="edge17" class="edge"><title>Node1&#45;&gt;Node14</title>
<path fill="none" stroke="midnightblue" d="M56.9411,-287.465C66.6142,-253.181 91.2976,-182.118 138,-143 142.607,-139.141 148.004,-136.063 153.639,-133.609"/>
<polygon fill="midnightblue" stroke="midnightblue" points="53.5358,-286.651 54.319,-297.217 60.2957,-288.468 53.5358,-286.651"/>
</g>
<!-- Node15 -->
<g id="node15" class="node"><title>Node15</title>
<g id="a_node15"><a xlink:href="remailer_8c.html#ae49669c6093d966d252f42e356fd9346" target="_top" xlink:title="Create a Mixmaster chain. ">
<polygon fill="white" stroke="red" points="154,-76.5 154,-95.5 244,-95.5 244,-76.5 154,-76.5"/>
<text text-anchor="middle" x="199" y="-83.5" font-family="Helvetica,sans-Serif" font-size="10.00">mix_make_chain</text>
</a>
</g>
</g>
<!-- Node1&#45;&gt;Node15 -->
<g id="edge18" class="edge"><title>Node1&#45;&gt;Node15</title>
<path fill="none" stroke="midnightblue" d="M54.8349,-287.255C61.6468,-247.053 82.6761,-155.261 138,-105 142.61,-100.812 148.141,-97.5471 153.956,-95.0018"/>
<polygon fill="midnightblue" stroke="midnightblue" points="51.3425,-286.933 53.2437,-297.356 58.2572,-288.022 51.3425,-286.933"/>
</g>
<!-- Node16 -->
<g id="node16" class="node"><title>Node16</title>
<g id="a_node16"><a xlink:href="send_8c.html#a9bca5c9f44a7908485389d16dcf20f96" target="_top" xlink:title="Process the user headers. ">
<polygon fill="white" stroke="red" points="144,-38.5 144,-57.5 254,-57.5 254,-38.5 144,-38.5"/>
<text text-anchor="middle" x="199" y="-45.5" font-family="Helvetica,sans-Serif" font-size="10.00">process_user_header</text>
</a>
</g>
</g>
<!-- Node1&#45;&gt;Node16 -->
<g id="edge19" class="edge"><title>Node1&#45;&gt;Node16</title>
<path fill="none" stroke="midnightblue" d="M53.3326,-287.052C57.4574,-241.438 73.9371,-128.71 138,-67 142.013,-63.134 146.809,-60.0543 151.916,-57.601"/>
<polygon fill="midnightblue" stroke="midnightblue" points="49.8349,-286.884 52.5287,-297.13 56.8128,-287.44 49.8349,-286.884"/>
</g>
<!-- Node17 -->
<g id="node17" class="node"><title>Node17</title>
<g id="a_node17"><a xlink:href="send_8c.html#a977b299077aadc1dbb202969e9298088" target="_top" xlink:title="Add the email&#39;s references to a list. ">
<polygon fill="white" stroke="red" points="157.5,-0.5 157.5,-19.5 240.5,-19.5 240.5,-0.5 157.5,-0.5"/>
<text text-anchor="middle" x="199" y="-7.5" font-family="Helvetica,sans-Serif" font-size="10.00">add_references</text>
</a>
</g>
</g>
<!-- Node1&#45;&gt;Node17 -->
<g id="edge20" class="edge"><title>Node1&#45;&gt;Node17</title>
<path fill="none" stroke="midnightblue" d="M52.1886,-287.066C53.7678,-236.582 65.0009,-102.487 138,-29 143.313,-23.6512 150.121,-19.8055 157.232,-17.0411"/>
<polygon fill="midnightblue" stroke="midnightblue" points="48.685,-287.201 51.9706,-297.274 55.6834,-287.351 48.685,-287.201"/>
</g>
<!-- Node6&#45;&gt;Node6 -->
<g id="edge6" class="edge"><title>Node6&#45;&gt;Node6</title>
<path fill="none" stroke="midnightblue" d="M175.935,-459.029C177.193,-464.128 184.881,-468 199,-468 221.039,-468 227.41,-458.565 218.112,-449.757"/>
<polygon fill="midnightblue" stroke="midnightblue" points="179.185,-460.329 179.888,-449.757 172.746,-457.583 179.185,-460.329"/>
</g>
<!-- Node7&#45;&gt;Node8 -->
<g id="edge8" class="edge"><title>Node7&#45;&gt;Node8</title>
<path fill="none" stroke="midnightblue" d="M246.422,-356.77C263.119,-354.17 281.363,-351.329 295.744,-349.089"/>
<polygon fill="midnightblue" stroke="midnightblue" points="245.616,-353.354 236.274,-358.351 246.693,-360.27 245.616,-353.354"/>
</g>
<!-- Node8&#45;&gt;Node9 -->
<g id="edge9" class="edge"><title>Node8&#45;&gt;Node9</title>
<path fill="none" stroke="midnightblue" d="M345.887,-329.405C360.202,-319.206 378.439,-306.212 390.63,-297.526"/>
<polygon fill="midnightblue" stroke="midnightblue" points="343.684,-326.677 337.571,-335.331 347.746,-332.378 343.684,-326.677"/>
</g>
<!-- Node11&#45;&gt;Node8 -->
<g id="edge12" class="edge"><title>Node11&#45;&gt;Node8</title>
<path fill="none" stroke="midnightblue" d="M244.969,-389.083C250.108,-387.219 255.215,-385.184 260,-383 277.457,-375.031 296.041,-363.128 308.26,-354.773"/>
<polygon fill="midnightblue" stroke="midnightblue" points="243.452,-385.903 235.124,-392.452 245.718,-392.526 243.452,-385.903"/>
</g>
</g>
</svg>
