<?xml version="1.0" encoding="UTF-8" standalone="no"?>
<!DOCTYPE svg PUBLIC "-//W3C//DTD SVG 1.1//EN"
 "http://www.w3.org/Graphics/SVG/1.1/DTD/svg11.dtd">
<!-- Generated by graphviz version 2.36.0 (20140111.2315)
 -->
<!-- Title: mutt_list_insert_head Pages: 1 -->
<svg width="250pt" height="218pt"
 viewBox="0.00 0.00 250.00 218.00" xmlns="http://www.w3.org/2000/svg" xmlns:xlink="http://www.w3.org/1999/xlink">
<g id="graph0" class="graph" transform="scale(1 1) rotate(0) translate(4 214)">
<title>mutt_list_insert_head</title>
<polygon fill="white" stroke="none" points="-4,4 -4,-214 246,-214 246,4 -4,4"/>
<!-- Node1 -->
<g id="node1" class="node"><title>Node1</title>
<polygon fill="#bfbfbf" stroke="black" points="0,-95.5 0,-114.5 110,-114.5 110,-95.5 0,-95.5"/>
<text text-anchor="middle" x="55" y="-102.5" font-family="Helvetica,sans-Serif" font-size="10.00">mutt_list_insert_head</text>
</g>
<!-- Node2 -->
<g id="node2" class="node"><title>Node2</title>
<g id="a_node2"><a xlink:href="alias_8c.html#a0b62a555f6b7a1816e890257958eb3c5" target="_top" xlink:title="Expand aliases, recursively. ">
<polygon fill="white" stroke="red" points="148,-190.5 148,-209.5 240,-209.5 240,-190.5 148,-190.5"/>
<text text-anchor="middle" x="194" y="-197.5" font-family="Helvetica,sans-Serif" font-size="10.00">expand_aliases_r</text>
</a>
</g>
</g>
<!-- Node1&#45;&gt;Node2 -->
<g id="edge1" class="edge"><title>Node1&#45;&gt;Node2</title>
<path fill="none" stroke="midnightblue" d="M72.7062,-121.966C89.8841,-138.688 118.008,-164.117 146,-181 151.879,-184.545 158.538,-187.694 164.957,-190.359"/>
<polygon fill="midnightblue" stroke="midnightblue" points="74.7691,-119.083 65.2012,-114.533 69.843,-124.057 74.7691,-119.083"/>
</g>
<!-- Node3 -->
<g id="node3" class="node"><title>Node3</title>
<g id="a_node3"><a xlink:href="parse_8c.html#ab98c0ca4a56521f108cf875bbae50a05" target="_top" xlink:title="Parse references from an email header. ">
<polygon fill="white" stroke="red" points="148,-152.5 148,-171.5 240,-171.5 240,-152.5 148,-152.5"/>
<text text-anchor="middle" x="194" y="-159.5" font-family="Helvetica,sans-Serif" font-size="10.00">parse_references</text>
</a>
</g>
</g>
<!-- Node1&#45;&gt;Node3 -->
<g id="edge2" class="edge"><title>Node1&#45;&gt;Node3</title>
<path fill="none" stroke="midnightblue" d="M88.0723,-118.682C105.231,-125.967 126.738,-135.041 146,-143 153.483,-146.092 161.658,-149.416 169.061,-152.405"/>
<polygon fill="midnightblue" stroke="midnightblue" points="89.0942,-115.314 78.522,-114.622 86.3554,-121.756 89.0942,-115.314"/>
</g>
<!-- Node4 -->
<g id="node4" class="node"><title>Node4</title>
<g id="a_node4"><a xlink:href="init_8c.html#a3cd4d1808d10d3dcdefe97774ee32120" target="_top" xlink:title="Read an initialization file. ">
<polygon fill="white" stroke="red" points="164.5,-114.5 164.5,-133.5 223.5,-133.5 223.5,-114.5 164.5,-114.5"/>
<text text-anchor="middle" x="194" y="-121.5" font-family="Helvetica,sans-Serif" font-size="10.00">source_rc</text>
</a>
</g>
</g>
<!-- Node1&#45;&gt;Node4 -->
<g id="edge3" class="edge"><title>Node1&#45;&gt;Node4</title>
<path fill="none" stroke="midnightblue" d="M120.254,-113.911C135.75,-116.06 151.537,-118.25 164.426,-120.037"/>
<polygon fill="midnightblue" stroke="midnightblue" points="120.532,-110.416 110.146,-112.509 119.57,-117.35 120.532,-110.416"/>
</g>
<!-- Node5 -->
<g id="node5" class="node"><title>Node5</title>
<g id="a_node5"><a xlink:href="mutt__thread_8c.html#a7f28bcf6516e018638aa30d7d7d33e2b" target="_top" xlink:title="Create a sorted list of all subjects in a thread. ">
<polygon fill="white" stroke="red" points="146.5,-76.5 146.5,-95.5 241.5,-95.5 241.5,-76.5 146.5,-76.5"/>
<text text-anchor="middle" x="194" y="-83.5" font-family="Helvetica,sans-Serif" font-size="10.00">make_subject_list</text>
</a>
</g>
</g>
<!-- Node1&#45;&gt;Node5 -->
<g id="edge4" class="edge"><title>Node1&#45;&gt;Node5</title>
<path fill="none" stroke="midnightblue" d="M120.068,-96.1146C128.922,-94.8868 137.874,-93.6452 146.331,-92.4723"/>
<polygon fill="midnightblue" stroke="midnightblue" points="119.57,-92.6501 110.146,-97.4907 120.532,-99.5837 119.57,-92.6501"/>
</g>
<!-- Node6 -->
<g id="node6" class="node"><title>Node6</title>
<g id="a_node6"><a xlink:href="mutt__thread_8c.html#a63d90d1e71b5d8709b78234b2b202da4" target="_top" xlink:title="Forcibly link messages together. ">
<polygon fill="white" stroke="red" points="159.5,-38.5 159.5,-57.5 228.5,-57.5 228.5,-38.5 159.5,-38.5"/>
<text text-anchor="middle" x="194" y="-45.5" font-family="Helvetica,sans-Serif" font-size="10.00">link_threads</text>
</a>
</g>
</g>
<!-- Node1&#45;&gt;Node6 -->
<g id="edge5" class="edge"><title>Node1&#45;&gt;Node6</title>
<path fill="none" stroke="midnightblue" d="M88.0723,-91.3175C105.231,-84.0331 126.738,-74.9593 146,-67 153.483,-63.9078 161.658,-60.5842 169.061,-57.595"/>
<polygon fill="midnightblue" stroke="midnightblue" points="86.3554,-88.2442 78.522,-95.3778 89.0942,-94.6862 86.3554,-88.2442"/>
</g>
<!-- Node7 -->
<g id="node7" class="node"><title>Node7</title>
<g id="a_node7"><a xlink:href="send_8c.html#a4ea5cbb7f73277e25d100414329ccb89" target="_top" xlink:title="Add the email&#39;s message ID to a list. ">
<polygon fill="white" stroke="red" points="149,-0.5 149,-19.5 239,-19.5 239,-0.5 149,-0.5"/>
<text text-anchor="middle" x="194" y="-7.5" font-family="Helvetica,sans-Serif" font-size="10.00">add_message_id</text>
</a>
</g>
</g>
<!-- Node1&#45;&gt;Node7 -->
<g id="edge6" class="edge"><title>Node1&#45;&gt;Node7</title>
<path fill="none" stroke="midnightblue" d="M72.7062,-88.0335C89.8841,-71.3122 118.008,-45.8828 146,-29 151.879,-25.4545 158.538,-22.3057 164.957,-19.641"/>
<polygon fill="midnightblue" stroke="midnightblue" points="69.843,-85.9431 65.2012,-95.467 74.7691,-90.9165 69.843,-85.9431"/>
</g>
</g>
</svg>
