<?xml version="1.0" encoding="UTF-8" standalone="no"?>
<!DOCTYPE svg PUBLIC "-//W3C//DTD SVG 1.1//EN"
 "http://www.w3.org/Graphics/SVG/1.1/DTD/svg11.dtd">
<!-- Generated by graphviz version 2.36.0 (20140111.2315)
 -->
<!-- Title: log_queue_add Pages: 1 -->
<svg width="210pt" height="28pt"
 viewBox="0.00 0.00 210.00 28.00" xmlns="http://www.w3.org/2000/svg" xmlns:xlink="http://www.w3.org/1999/xlink">
<g id="graph0" class="graph" transform="scale(1 1) rotate(0) translate(4 24)">
<title>log_queue_add</title>
<polygon fill="white" stroke="none" points="-4,4 -4,-24 206,-24 206,4 -4,4"/>
<!-- Node1 -->
<g id="node1" class="node"><title>Node1</title>
<polygon fill="#bfbfbf" stroke="black" points="0,-0.5 0,-19.5 82,-19.5 82,-0.5 0,-0.5"/>
<text text-anchor="middle" x="41" y="-7.5" font-family="Helvetica,sans-Serif" font-size="10.00">log_queue_add</text>
</g>
<!-- Node2 -->
<g id="node2" class="node"><title>Node2</title>
<g id="a_node2"><a xlink:href="logging_8h.html#aa35cca11e3a0d368088ca5f09a75a003" target="_top" xlink:title="Save a log line to an internal queue &#45; Implements log_dispatcher_t. ">
<polygon fill="white" stroke="red" points="118,-0.5 118,-19.5 202,-19.5 202,-0.5 118,-0.5"/>
<text text-anchor="middle" x="160" y="-7.5" font-family="Helvetica,sans-Serif" font-size="10.00">log_disp_queue</text>
</a>
</g>
</g>
<!-- Node1&#45;&gt;Node2 -->
<g id="edge1" class="edge"><title>Node1&#45;&gt;Node2</title>
<path fill="none" stroke="midnightblue" d="M92.4515,-10C100.937,-10 109.652,-10 117.866,-10"/>
<polygon fill="midnightblue" stroke="midnightblue" points="92.2648,-6.5001 82.2648,-10 92.2647,-13.5001 92.2648,-6.5001"/>
</g>
</g>
</svg>
