<?xml version="1.0" encoding="UTF-8" standalone="no"?>
<!DOCTYPE svg PUBLIC "-//W3C//DTD SVG 1.1//EN"
 "http://www.w3.org/Graphics/SVG/1.1/DTD/svg11.dtd">
<!-- Generated by graphviz version 2.36.0 (20140111.2315)
 -->
<!-- Title: log_file_close Pages: 1 -->
<svg width="342pt" height="123pt"
 viewBox="0.00 0.00 342.00 123.00" xmlns="http://www.w3.org/2000/svg" xmlns:xlink="http://www.w3.org/1999/xlink">
<g id="graph0" class="graph" transform="scale(1 1) rotate(0) translate(4 119)">
<title>log_file_close</title>
<polygon fill="white" stroke="none" points="-4,4 -4,-119 338,-119 338,4 -4,4"/>
<!-- Node1 -->
<g id="node1" class="node"><title>Node1</title>
<polygon fill="#bfbfbf" stroke="black" points="0,-57.5 0,-76.5 76,-76.5 76,-57.5 0,-57.5"/>
<text text-anchor="middle" x="38" y="-64.5" font-family="Helvetica,sans-Serif" font-size="10.00">log_file_close</text>
</g>
<!-- Node2 -->
<g id="node2" class="node"><title>Node2</title>
<g id="a_node2"><a xlink:href="logging_8h.html#a04052a86613d16390be5add72eee7523" target="_top" xlink:title="Start logging to a file. ">
<polygon fill="white" stroke="black" points="114,-76.5 114,-95.5 188,-95.5 188,-76.5 114,-76.5"/>
<text text-anchor="middle" x="151" y="-83.5" font-family="Helvetica,sans-Serif" font-size="10.00">log_file_open</text>
</a>
</g>
</g>
<!-- Node1&#45;&gt;Node2 -->
<g id="edge1" class="edge"><title>Node1&#45;&gt;Node2</title>
<path fill="none" stroke="midnightblue" d="M86.1312,-75.0675C95.3798,-76.6506 104.946,-78.288 113.77,-79.7984"/>
<polygon fill="midnightblue" stroke="midnightblue" points="86.7174,-71.617 76.2702,-73.3796 85.5363,-78.5167 86.7174,-71.617"/>
</g>
<!-- Node3 -->
<g id="node3" class="node"><title>Node3</title>
<g id="a_node3"><a xlink:href="logging_8h.html#ae5764884f4e8cb6c8601216f24daf96f" target="_top" xlink:title="Set the filename for the log. ">
<polygon fill="white" stroke="red" points="226,-95.5 226,-114.5 334,-114.5 334,-95.5 226,-95.5"/>
<text text-anchor="middle" x="280" y="-102.5" font-family="Helvetica,sans-Serif" font-size="10.00">log_file_set_filename</text>
</a>
</g>
</g>
<!-- Node1&#45;&gt;Node3 -->
<g id="edge4" class="edge"><title>Node1&#45;&gt;Node3</title>
<path fill="none" stroke="midnightblue" d="M61.2729,-82.187C75.1833,-90.7332 93.8452,-100.558 112,-105 149.315,-114.131 192.74,-113.81 225.955,-111.375"/>
<polygon fill="midnightblue" stroke="midnightblue" points="62.7769,-78.9943 52.4664,-76.5564 59.0061,-84.892 62.7769,-78.9943"/>
</g>
<!-- Node4 -->
<g id="node4" class="node"><title>Node4</title>
<g id="a_node4"><a xlink:href="logging_8h.html#a50a406e73083a7cb6c976a82e532b46d" target="_top" xlink:title="Set the logging level. ">
<polygon fill="white" stroke="red" points="234,-48.5 234,-67.5 326,-67.5 326,-48.5 234,-48.5"/>
<text text-anchor="middle" x="280" y="-55.5" font-family="Helvetica,sans-Serif" font-size="10.00">log_file_set_level</text>
</a>
</g>
</g>
<!-- Node1&#45;&gt;Node4 -->
<g id="edge5" class="edge"><title>Node1&#45;&gt;Node4</title>
<path fill="none" stroke="midnightblue" d="M86.4029,-65.2224C129.223,-63.6167 191.801,-61.27 233.895,-59.6914"/>
<polygon fill="midnightblue" stroke="midnightblue" points="86.0985,-61.7313 76.2367,-65.6036 86.3608,-68.7263 86.0985,-61.7313"/>
</g>
<!-- Node5 -->
<g id="node5" class="node"><title>Node5</title>
<g id="a_node5"><a xlink:href="mutt__logging_8h.html#a622226178155c08b3976e28c013a42cf" target="_top" xlink:title="Close the log file. ">
<polygon fill="white" stroke="red" points="112,-0.5 112,-19.5 190,-19.5 190,-0.5 112,-0.5"/>
<text text-anchor="middle" x="151" y="-7.5" font-family="Helvetica,sans-Serif" font-size="10.00">mutt_log_stop</text>
</a>
</g>
</g>
<!-- Node1&#45;&gt;Node5 -->
<g id="edge6" class="edge"><title>Node1&#45;&gt;Node5</title>
<path fill="none" stroke="midnightblue" d="M66.6093,-52.8223C86.8022,-42.4529 113.651,-28.6657 131.36,-19.5716"/>
<polygon fill="midnightblue" stroke="midnightblue" points="64.8758,-49.7779 57.5789,-57.4595 68.0734,-56.0049 64.8758,-49.7779"/>
</g>
<!-- Node2&#45;&gt;Node3 -->
<g id="edge2" class="edge"><title>Node2&#45;&gt;Node3</title>
<path fill="none" stroke="midnightblue" d="M197.982,-92.8793C207.008,-94.2295 216.545,-95.6564 225.785,-97.0386"/>
<polygon fill="midnightblue" stroke="midnightblue" points="198.461,-89.412 188.053,-91.3938 197.425,-96.335 198.461,-89.412"/>
</g>
<!-- Node2&#45;&gt;Node4 -->
<g id="edge3" class="edge"><title>Node2&#45;&gt;Node4</title>
<path fill="none" stroke="midnightblue" d="M198.084,-75.8397C210.342,-73.1372 223.537,-70.228 235.643,-67.5589"/>
<polygon fill="midnightblue" stroke="midnightblue" points="197.065,-72.4802 188.053,-78.0512 198.572,-79.316 197.065,-72.4802"/>
</g>
</g>
</svg>
