<?xml version="1.0" encoding="UTF-8" standalone="no"?>
<!DOCTYPE svg PUBLIC "-//W3C//DTD SVG 1.1//EN"
 "http://www.w3.org/Graphics/SVG/1.1/DTD/svg11.dtd">
<!-- Generated by graphviz version 2.36.0 (20140111.2315)
 -->
<!-- Title: maildir_parse_message Pages: 1 -->
<svg width="274pt" height="66pt"
 viewBox="0.00 0.00 274.00 66.00" xmlns="http://www.w3.org/2000/svg" xmlns:xlink="http://www.w3.org/1999/xlink">
<g id="graph0" class="graph" transform="scale(1 1) rotate(0) translate(4 62)">
<title>maildir_parse_message</title>
<polygon fill="white" stroke="none" points="-4,4 -4,-62 270,-62 270,4 -4,4"/>
<!-- Node1 -->
<g id="node1" class="node"><title>Node1</title>
<polygon fill="#bfbfbf" stroke="black" points="0.5,-19.5 0.5,-38.5 119.5,-38.5 119.5,-19.5 0.5,-19.5"/>
<text text-anchor="middle" x="60" y="-26.5" font-family="Helvetica,sans-Serif" font-size="10.00">maildir_parse_message</text>
</g>
<!-- Node2 -->
<g id="node2" class="node"><title>Node2</title>
<g id="a_node2"><a xlink:href="mh_8c.html#a265e3c2a1e6e4faa7a7036fd5543f9f4" target="_top" xlink:title="Parse a Maildir message. ">
<polygon fill="white" stroke="red" points="156,-38.5 156,-57.5 266,-57.5 266,-38.5 156,-38.5"/>
<text text-anchor="middle" x="211" y="-45.5" font-family="Helvetica,sans-Serif" font-size="10.00">maildir_parse_stream</text>
</a>
</g>
</g>
<!-- Node1&#45;&gt;Node2 -->
<g id="edge1" class="edge"><title>Node1&#45;&gt;Node2</title>
<path fill="none" stroke="midnightblue" d="M119.889,-36.5093C128.425,-37.5978 137.247,-38.7228 145.88,-39.8236"/>
<polygon fill="midnightblue" stroke="midnightblue" points="145.536,-43.308 155.898,-41.1011 146.421,-36.3642 145.536,-43.308"/>
</g>
<!-- Node3 -->
<g id="node3" class="node"><title>Node3</title>
<g id="a_node3"><a xlink:href="file_8c.html#a4982d9040dfaf38e847729be2af83ed6" target="_top" xlink:title="Close a FILE handle (and NULL the pointer) ">
<polygon fill="white" stroke="black" points="168,-0.5 168,-19.5 254,-19.5 254,-0.5 168,-0.5"/>
<text text-anchor="middle" x="211" y="-7.5" font-family="Helvetica,sans-Serif" font-size="10.00">mutt_file_fclose</text>
</a>
</g>
</g>
<!-- Node1&#45;&gt;Node3 -->
<g id="edge2" class="edge"><title>Node1&#45;&gt;Node3</title>
<path fill="none" stroke="midnightblue" d="M119.889,-21.4907C132.345,-19.9024 145.41,-18.2363 157.606,-16.6811"/>
<polygon fill="midnightblue" stroke="midnightblue" points="158.137,-20.1418 167.614,-15.4049 157.252,-13.198 158.137,-20.1418"/>
</g>
</g>
</svg>
