<?xml version="1.0" encoding="UTF-8" standalone="no"?>
<!DOCTYPE svg PUBLIC "-//W3C//DTD SVG 1.1//EN"
 "http://www.w3.org/Graphics/SVG/1.1/DTD/svg11.dtd">
<!-- Generated by graphviz version 2.36.0 (20140111.2315)
 -->
<!-- Title: mutt_parse_mailboxes Pages: 1 -->
<svg width="410pt" height="416pt"
 viewBox="0.00 0.00 410.00 416.45" xmlns="http://www.w3.org/2000/svg" xmlns:xlink="http://www.w3.org/1999/xlink">
<g id="graph0" class="graph" transform="scale(1 1) rotate(0) translate(4 412.453)">
<title>mutt_parse_mailboxes</title>
<polygon fill="white" stroke="none" points="-4,4 -4,-412.453 406,-412.453 406,4 -4,4"/>
<!-- Node1 -->
<g id="node1" class="node"><title>Node1</title>
<polygon fill="#bfbfbf" stroke="black" points="0.5,-190.5 0.5,-209.5 115.5,-209.5 115.5,-190.5 0.5,-190.5"/>
<text text-anchor="middle" x="58" y="-197.5" font-family="Helvetica,sans-Serif" font-size="10.00">mutt_parse_mailboxes</text>
</g>
<!-- Node2 -->
<g id="node2" class="node"><title>Node2</title>
<g id="a_node2"><a xlink:href="init_8c.html#a382f7640ccb9d1b02550b77cb91341cd" target="_top" xlink:title="Extract one token from a string. ">
<polygon fill="white" stroke="red" points="161.5,-342.5 161.5,-361.5 262.5,-361.5 262.5,-342.5 161.5,-342.5"/>
<text text-anchor="middle" x="212" y="-349.5" font-family="Helvetica,sans-Serif" font-size="10.00">mutt_extract_token</text>
</a>
</g>
</g>
<!-- Node1&#45;&gt;Node2 -->
<g id="edge1" class="edge"><title>Node1&#45;&gt;Node2</title>
<path fill="none" stroke="midnightblue" d="M63.0701,-209.647C73.8507,-234.043 105.536,-298.689 152,-333 154.516,-334.858 157.221,-336.539 160.04,-338.059"/>
<polygon fill="midnightblue" stroke="midnightblue" points="158.795,-341.34 169.338,-342.387 161.749,-334.994 158.795,-341.34"/>
</g>
<!-- Node3 -->
<g id="node3" class="node"><title>Node3</title>
<g id="a_node3"><a xlink:href="mutt_2string_8c.html#ae48085384a6545e0fac589a88243ea31" target="_top" xlink:title="Copy a string, safely. ">
<polygon fill="white" stroke="red" points="312.5,-370.5 312.5,-389.5 397.5,-389.5 397.5,-370.5 312.5,-370.5"/>
<text text-anchor="middle" x="355" y="-377.5" font-family="Helvetica,sans-Serif" font-size="10.00">mutt_str_strdup</text>
</a>
</g>
</g>
<!-- Node1&#45;&gt;Node3 -->
<g id="edge4" class="edge"><title>Node1&#45;&gt;Node3</title>
<path fill="none" stroke="midnightblue" d="M60.2558,-209.794C65.0226,-242.383 85.2496,-347.452 152,-389 203.181,-420.857 276.597,-405.923 319.384,-392.639"/>
<polygon fill="midnightblue" stroke="midnightblue" points="320.625,-395.916 329.057,-389.501 318.465,-389.258 320.625,-395.916"/>
</g>
<!-- Node4 -->
<g id="node4" class="node"><title>Node4</title>
<g id="a_node4"><a xlink:href="mx_8c.html#ad9268dd7c422c8af3b90f489847fb5d8" target="_top" xlink:title="Is this a Notmuch mailbox. ">
<polygon fill="white" stroke="red" points="169,-304.5 169,-323.5 255,-323.5 255,-304.5 169,-304.5"/>
<text text-anchor="middle" x="212" y="-311.5" font-family="Helvetica,sans-Serif" font-size="10.00">mx_is_notmuch</text>
</a>
</g>
</g>
<!-- Node1&#45;&gt;Node4 -->
<g id="edge5" class="edge"><title>Node1&#45;&gt;Node4</title>
<path fill="none" stroke="midnightblue" d="M66.7551,-209.646C81.6178,-227.596 115.861,-266.443 152,-290 158.114,-293.985 164.997,-297.511 171.846,-300.549"/>
<polygon fill="midnightblue" stroke="midnightblue" points="170.512,-303.785 181.09,-304.387 173.196,-297.32 170.512,-303.785"/>
</g>
<!-- Node5 -->
<g id="node5" class="node"><title>Node5</title>
<g id="a_node5"><a xlink:href="mutt__notmuch_8c.html#ae294b7b2ef899c9e7f95ceb5029c9d28" target="_top" xlink:title="takes a notmuch URI, parses it and reformat it in a canonical way ">
<polygon fill="white" stroke="red" points="165.5,-228.5 165.5,-247.5 258.5,-247.5 258.5,-228.5 165.5,-228.5"/>
<text text-anchor="middle" x="212" y="-235.5" font-family="Helvetica,sans-Serif" font-size="10.00">nm_normalize_uri</text>
</a>
</g>
</g>
<!-- Node1&#45;&gt;Node5 -->
<g id="edge6" class="edge"><title>Node1&#45;&gt;Node5</title>
<path fill="none" stroke="midnightblue" d="M97.356,-209.589C117.324,-214.581 141.93,-220.732 163.133,-226.033"/>
<polygon fill="midnightblue" stroke="midnightblue" points="162.369,-229.45 172.92,-228.48 164.067,-222.659 162.369,-229.45"/>
</g>
<!-- Node6 -->
<g id="node6" class="node"><title>Node6</title>
<g id="a_node6"><a xlink:href="mutt_2string_8c.html#a3b8965b21d6e21536750f8883cd4333a" target="_top" xlink:title="Copy a string into a buffer (guaranteeing NUL&#45;termination) ">
<polygon fill="white" stroke="black" points="311,-228.5 311,-247.5 399,-247.5 399,-228.5 311,-228.5"/>
<text text-anchor="middle" x="355" y="-235.5" font-family="Helvetica,sans-Serif" font-size="10.00">mutt_str_strfcpy</text>
</a>
</g>
</g>
<!-- Node1&#45;&gt;Node6 -->
<g id="edge8" class="edge"><title>Node1&#45;&gt;Node6</title>
<path fill="none" stroke="midnightblue" d="M70.0487,-209.641C86.5432,-223.326 119.193,-247.746 152,-257 206.808,-272.46 272.953,-260.816 314.257,-250.135"/>
<polygon fill="midnightblue" stroke="midnightblue" points="315.2,-253.506 323.947,-247.529 313.381,-246.746 315.2,-253.506"/>
</g>
<!-- Node7 -->
<g id="node7" class="node"><title>Node7</title>
<g id="a_node7"><a xlink:href="muttlib_8c.html#a483f037de523c624d449b4296a3ddfb2" target="_top" xlink:title="Create the canonical path. ">
<polygon fill="white" stroke="red" points="163.5,-38.5 163.5,-57.5 260.5,-57.5 260.5,-38.5 163.5,-38.5"/>
<text text-anchor="middle" x="212" y="-45.5" font-family="Helvetica,sans-Serif" font-size="10.00">mutt_expand_path</text>
</a>
</g>
</g>
<!-- Node1&#45;&gt;Node7 -->
<g id="edge9" class="edge"><title>Node1&#45;&gt;Node7</title>
<path fill="none" stroke="midnightblue" d="M63.6631,-190.234C75.3444,-166.722 108.1,-106.381 152,-72 157.085,-68.0177 162.92,-64.6033 168.9,-61.7049"/>
<polygon fill="midnightblue" stroke="midnightblue" points="170.576,-64.7914 178.327,-57.5676 167.763,-58.3815 170.576,-64.7914"/>
</g>
<!-- Node8 -->
<g id="node8" class="node"><title>Node8</title>
<g id="a_node8"><a xlink:href="mutt_2string_8c.html#ab4aaf8bd2ce3982651f0f949d6c665e2" target="_top" xlink:title="Compare two strings, safely. ">
<polygon fill="white" stroke="black" points="311,-95.5 311,-114.5 399,-114.5 399,-95.5 311,-95.5"/>
<text text-anchor="middle" x="355" y="-102.5" font-family="Helvetica,sans-Serif" font-size="10.00">mutt_str_strcmp</text>
</a>
</g>
</g>
<!-- Node1&#45;&gt;Node8 -->
<g id="edge10" class="edge"><title>Node1&#45;&gt;Node8</title>
<path fill="none" stroke="midnightblue" d="M64.6709,-190.308C77.278,-169.856 109.873,-122.713 152,-105 199.337,-85.0967 258.609,-87.962 300.676,-94.0611"/>
<polygon fill="midnightblue" stroke="midnightblue" points="300.295,-97.5438 310.714,-95.6247 301.372,-90.6272 300.295,-97.5438"/>
</g>
<!-- Node9 -->
<g id="node9" class="node"><title>Node9</title>
<g id="a_node9"><a xlink:href="mailbox_8c.html#a4dea1b4403340598e223e0683631a9a5" target="_top" xlink:title="Create a new Maibox. ">
<polygon fill="white" stroke="black" points="175,-190.5 175,-209.5 249,-209.5 249,-190.5 175,-190.5"/>
<text text-anchor="middle" x="212" y="-197.5" font-family="Helvetica,sans-Serif" font-size="10.00">mailbox_new</text>
</a>
</g>
</g>
<!-- Node1&#45;&gt;Node9 -->
<g id="edge11" class="edge"><title>Node1&#45;&gt;Node9</title>
<path fill="none" stroke="midnightblue" d="M115.599,-200C131.647,-200 148.931,-200 164.321,-200"/>
<polygon fill="midnightblue" stroke="midnightblue" points="164.635,-203.5 174.634,-200 164.634,-196.5 164.635,-203.5"/>
</g>
<!-- Node10 -->
<g id="node10" class="node"><title>Node10</title>
<g id="a_node10"><a xlink:href="memory_8c.html#a4c1612d209c7825d55e6a014df352f03" target="_top" xlink:title="Allocate zeroed memory on the heap. ">
<polygon fill="white" stroke="red" points="308,-152.5 308,-171.5 402,-171.5 402,-152.5 308,-152.5"/>
<text text-anchor="middle" x="355" y="-159.5" font-family="Helvetica,sans-Serif" font-size="10.00">mutt_mem_calloc</text>
</a>
</g>
</g>
<!-- Node1&#45;&gt;Node10 -->
<g id="edge15" class="edge"><title>Node1&#45;&gt;Node10</title>
<path fill="none" stroke="midnightblue" d="M100.959,-190.428C116.877,-187.061 135.211,-183.497 152,-181 200.981,-173.715 257.085,-168.701 297.716,-165.661"/>
<polygon fill="midnightblue" stroke="midnightblue" points="297.981,-169.151 307.698,-164.93 297.47,-162.17 297.981,-169.151"/>
</g>
<!-- Node11 -->
<g id="node11" class="node"><title>Node11</title>
<g id="a_node11"><a xlink:href="mailbox_8c.html#ab237577e1af15f1f4a5b3bdce3bb818c" target="_top" xlink:title="Test if an mbox or mmdf mailbox has new mail. ">
<polygon fill="white" stroke="red" points="169,-0.5 169,-19.5 255,-19.5 255,-0.5 169,-0.5"/>
<text text-anchor="middle" x="212" y="-7.5" font-family="Helvetica,sans-Serif" font-size="10.00">test_new_folder</text>
</a>
</g>
</g>
<!-- Node1&#45;&gt;Node11 -->
<g id="edge14" class="edge"><title>Node1&#45;&gt;Node11</title>
<path fill="none" stroke="midnightblue" d="M61.5217,-190.225C69.5216,-161.164 97.1021,-74.5046 152,-29 154.408,-27.0042 157.029,-25.2166 159.785,-23.6158"/>
<polygon fill="midnightblue" stroke="midnightblue" points="161.515,-26.6652 168.945,-19.1122 158.427,-20.3833 161.515,-26.6652"/>
</g>
<!-- Node12 -->
<g id="node12" class="node"><title>Node12</title>
<g id="a_node12"><a xlink:href="sidebar_8c.html#af8717f4e2a6696790301765d28801db1" target="_top" xlink:title="The state of a Mailbox is about to change. ">
<polygon fill="white" stroke="red" points="152,-114.5 152,-133.5 272,-133.5 272,-114.5 152,-114.5"/>
<text text-anchor="middle" x="212" y="-121.5" font-family="Helvetica,sans-Serif" font-size="10.00">mutt_sb_notify_mailbox</text>
</a>
</g>
</g>
<!-- Node1&#45;&gt;Node12 -->
<g id="edge16" class="edge"><title>Node1&#45;&gt;Node12</title>
<path fill="none" stroke="midnightblue" d="M74.8101,-190.368C93.0644,-179.435 124.158,-161.384 152,-148 159.652,-144.322 168.022,-140.691 175.99,-137.41"/>
<polygon fill="midnightblue" stroke="midnightblue" points="177.469,-140.587 185.435,-133.602 174.851,-134.095 177.469,-140.587"/>
</g>
<!-- Node2&#45;&gt;Node2 -->
<g id="edge2" class="edge"><title>Node2&#45;&gt;Node2</title>
<path fill="none" stroke="midnightblue" d="M190.114,-361.757C179.466,-370.565 186.762,-380 212,-380 228.563,-380 237.398,-375.937 238.506,-370.654"/>
<polygon fill="midnightblue" stroke="midnightblue" points="241.601,-369.019 233.886,-361.757 235.388,-372.245 241.601,-369.019"/>
</g>
<!-- Node2&#45;&gt;Node3 -->
<g id="edge3" class="edge"><title>Node2&#45;&gt;Node3</title>
<path fill="none" stroke="midnightblue" d="M261.13,-361.558C274.353,-364.184 288.748,-367.042 302.17,-369.707"/>
<polygon fill="midnightblue" stroke="midnightblue" points="301.718,-373.186 312.208,-371.701 303.081,-366.32 301.718,-373.186"/>
</g>
<!-- Node5&#45;&gt;Node6 -->
<g id="edge7" class="edge"><title>Node5&#45;&gt;Node6</title>
<path fill="none" stroke="midnightblue" d="M258.779,-238C272.107,-238 286.785,-238 300.542,-238"/>
<polygon fill="midnightblue" stroke="midnightblue" points="300.845,-241.5 310.845,-238 300.845,-234.5 300.845,-241.5"/>
</g>
<!-- Node9&#45;&gt;Node6 -->
<g id="edge13" class="edge"><title>Node9&#45;&gt;Node6</title>
<path fill="none" stroke="midnightblue" d="M248.58,-209.589C266.782,-214.494 289.138,-220.52 308.572,-225.757"/>
<polygon fill="midnightblue" stroke="midnightblue" points="307.865,-229.191 318.431,-228.414 309.686,-222.432 307.865,-229.191"/>
</g>
<!-- Node9&#45;&gt;Node10 -->
<g id="edge12" class="edge"><title>Node9&#45;&gt;Node10</title>
<path fill="none" stroke="midnightblue" d="M248.58,-190.411C266.782,-185.506 289.138,-179.48 308.572,-174.243"/>
<polygon fill="midnightblue" stroke="midnightblue" points="309.686,-177.568 318.431,-171.586 307.865,-170.809 309.686,-177.568"/>
</g>
<!-- Node12&#45;&gt;Node8 -->
<g id="edge18" class="edge"><title>Node12&#45;&gt;Node8</title>
<path fill="none" stroke="midnightblue" d="M272.388,-115.997C281.895,-114.716 291.678,-113.398 301.022,-112.139"/>
<polygon fill="midnightblue" stroke="midnightblue" points="301.513,-115.604 310.956,-110.8 300.578,-108.667 301.513,-115.604"/>
</g>
<!-- Node12&#45;&gt;Node10 -->
<g id="edge17" class="edge"><title>Node12&#45;&gt;Node10</title>
<path fill="none" stroke="midnightblue" d="M248.58,-133.589C266.782,-138.494 289.138,-144.52 308.572,-149.757"/>
<polygon fill="midnightblue" stroke="midnightblue" points="307.865,-153.191 318.431,-152.414 309.686,-146.432 307.865,-153.191"/>
</g>
</g>
</svg>
