<?xml version="1.0" encoding="UTF-8" standalone="no"?>
<!DOCTYPE svg PUBLIC "-//W3C//DTD SVG 1.1//EN"
 "http://www.w3.org/Graphics/SVG/1.1/DTD/svg11.dtd">
<!-- Generated by graphviz version 2.36.0 (20140111.2315)
 -->
<!-- Title: maildir/maildir.h Pages: 1 -->
<svg width="491pt" height="84pt"
 viewBox="0.00 0.00 491.00 84.00" xmlns="http://www.w3.org/2000/svg" xmlns:xlink="http://www.w3.org/1999/xlink">
<g id="graph0" class="graph" transform="scale(1 1) rotate(0) translate(4 80)">
<title>maildir/maildir.h</title>
<polygon fill="white" stroke="none" points="-4,4 -4,-80 487,-80 487,4 -4,4"/>
<!-- Node1 -->
<g id="node1" class="node"><title>Node1</title>
<polygon fill="#bfbfbf" stroke="black" points="161.5,-56.5 161.5,-75.5 246.5,-75.5 246.5,-56.5 161.5,-56.5"/>
<text text-anchor="middle" x="204" y="-63.5" font-family="Helvetica,sans-Serif" font-size="10.00">maildir/maildir.h</text>
</g>
<!-- Node2 -->
<g id="node2" class="node"><title>Node2</title>
<g id="a_node2"><a xlink:href="browser_8c.html" target="_top" xlink:title="GUI component for displaying/selecting items from a list. ">
<polygon fill="white" stroke="black" points="-0.5,-0.5 -0.5,-19.5 58.5,-19.5 58.5,-0.5 -0.5,-0.5"/>
<text text-anchor="middle" x="29" y="-7.5" font-family="Helvetica,sans-Serif" font-size="10.00">browser.c</text>
</a>
</g>
</g>
<!-- Node1&#45;&gt;Node2 -->
<g id="edge1" class="edge"><title>Node1&#45;&gt;Node2</title>
<path fill="none" stroke="midnightblue" d="M166.525,-53.4363C133.53,-43.2551 86.2445,-28.664 56.5995,-19.5164"/>
<polygon fill="midnightblue" stroke="midnightblue" points="165.683,-56.8393 176.271,-56.4435 167.747,-50.1505 165.683,-56.8393"/>
</g>
<!-- Node3 -->
<g id="node3" class="node"><title>Node3</title>
<g id="a_node3"><a xlink:href="init_8h.html" target="_top" xlink:title="Definitions of user variables, sort methods and commands. ">
<polygon fill="white" stroke="red" points="77,-0.5 77,-19.5 115,-19.5 115,-0.5 77,-0.5"/>
<text text-anchor="middle" x="96" y="-7.5" font-family="Helvetica,sans-Serif" font-size="10.00">init.h</text>
</a>
</g>
</g>
<!-- Node1&#45;&gt;Node3 -->
<g id="edge2" class="edge"><title>Node1&#45;&gt;Node3</title>
<path fill="none" stroke="midnightblue" d="M177.452,-51.7261C157.454,-41.7271 130.613,-28.3065 113.309,-19.6545"/>
<polygon fill="midnightblue" stroke="midnightblue" points="176.138,-54.9823 186.648,-56.324 179.269,-48.7213 176.138,-54.9823"/>
</g>
<!-- Node4 -->
<g id="node4" class="node"><title>Node4</title>
<g id="a_node4"><a xlink:href="mailbox_8c.html" target="_top" xlink:title="Representation of a mailbox. ">
<polygon fill="white" stroke="black" points="133.5,-0.5 133.5,-19.5 192.5,-19.5 192.5,-0.5 133.5,-0.5"/>
<text text-anchor="middle" x="163" y="-7.5" font-family="Helvetica,sans-Serif" font-size="10.00">mailbox.c</text>
</a>
</g>
</g>
<!-- Node1&#45;&gt;Node4 -->
<g id="edge3" class="edge"><title>Node1&#45;&gt;Node4</title>
<path fill="none" stroke="midnightblue" d="M190.983,-47.8554C183.883,-38.5048 175.396,-27.3265 169.644,-19.7511"/>
<polygon fill="midnightblue" stroke="midnightblue" points="188.395,-50.235 197.23,-56.083 193.97,-46.002 188.395,-50.235"/>
</g>
<!-- Node5 -->
<g id="node5" class="node"><title>Node5</title>
<g id="a_node5"><a xlink:href="mh_8c.html" target="_top" xlink:title="Maildir/MH local mailbox type. ">
<polygon fill="white" stroke="black" points="211,-0.5 211,-19.5 281,-19.5 281,-0.5 211,-0.5"/>
<text text-anchor="middle" x="246" y="-7.5" font-family="Helvetica,sans-Serif" font-size="10.00">maildir/mh.c</text>
</a>
</g>
</g>
<!-- Node1&#45;&gt;Node5 -->
<g id="edge4" class="edge"><title>Node1&#45;&gt;Node5</title>
<path fill="none" stroke="midnightblue" d="M217.11,-48.144C224.428,-38.7357 233.241,-27.4046 239.194,-19.7511"/>
<polygon fill="midnightblue" stroke="midnightblue" points="214.312,-46.0406 210.935,-56.083 219.838,-50.3383 214.312,-46.0406"/>
</g>
<!-- Node6 -->
<g id="node6" class="node"><title>Node6</title>
<g id="a_node6"><a xlink:href="mx_8c.html" target="_top" xlink:title="Mailbox multiplexor. ">
<polygon fill="white" stroke="black" points="299,-0.5 299,-19.5 337,-19.5 337,-0.5 299,-0.5"/>
<text text-anchor="middle" x="318" y="-7.5" font-family="Helvetica,sans-Serif" font-size="10.00">mx.c</text>
</a>
</g>
</g>
<!-- Node1&#45;&gt;Node6 -->
<g id="edge5" class="edge"><title>Node1&#45;&gt;Node6</title>
<path fill="none" stroke="midnightblue" d="M231.242,-52.096C252.54,-42.0073 281.542,-28.2697 300.021,-19.5164"/>
<polygon fill="midnightblue" stroke="midnightblue" points="229.603,-48.9995 222.064,-56.4435 232.599,-55.3257 229.603,-48.9995"/>
</g>
<!-- Node7 -->
<g id="node7" class="node"><title>Node7</title>
<g id="a_node7"><a xlink:href="mutt__notmuch_8c.html" target="_top" xlink:title="Notmuch virtual mailbox type. ">
<polygon fill="white" stroke="black" points="355,-0.5 355,-19.5 483,-19.5 483,-0.5 355,-0.5"/>
<text text-anchor="middle" x="419" y="-7.5" font-family="Helvetica,sans-Serif" font-size="10.00">notmuch/mutt_notmuch.c</text>
</a>
</g>
</g>
<!-- Node1&#45;&gt;Node7 -->
<g id="edge6" class="edge"><title>Node1&#45;&gt;Node7</title>
<path fill="none" stroke="midnightblue" d="M247.96,-53.959C288.567,-43.7598 348.043,-28.8217 385.092,-19.5164"/>
<polygon fill="midnightblue" stroke="midnightblue" points="246.914,-50.6129 238.067,-56.4435 248.619,-57.4021 246.914,-50.6129"/>
</g>
</g>
</svg>
