<?xml version="1.0" encoding="UTF-8" standalone="no"?>
<!DOCTYPE svg PUBLIC "-//W3C//DTD SVG 1.1//EN"
 "http://www.w3.org/Graphics/SVG/1.1/DTD/svg11.dtd">
<!-- Generated by graphviz version 2.36.0 (20140111.2315)
 -->
<!-- Title: test_new_folder Pages: 1 -->
<svg width="362pt" height="104pt"
 viewBox="0.00 0.00 362.00 104.00" xmlns="http://www.w3.org/2000/svg" xmlns:xlink="http://www.w3.org/1999/xlink">
<g id="graph0" class="graph" transform="scale(1 1) rotate(0) translate(4 100)">
<title>test_new_folder</title>
<polygon fill="white" stroke="none" points="-4,4 -4,-100 358,-100 358,4 -4,4"/>
<!-- Node1 -->
<g id="node1" class="node"><title>Node1</title>
<polygon fill="#bfbfbf" stroke="black" points="0,-38.5 0,-57.5 86,-57.5 86,-38.5 0,-38.5"/>
<text text-anchor="middle" x="43" y="-45.5" font-family="Helvetica,sans-Serif" font-size="10.00">test_new_folder</text>
</g>
<!-- Node2 -->
<g id="node2" class="node"><title>Node2</title>
<g id="a_node2"><a xlink:href="mx_8c.html#adf47b437bf62efa6dd4b940b8a5b791e" target="_top" xlink:title="Identify the type of mailbox. ">
<polygon fill="white" stroke="red" points="137,-76.5 137,-95.5 217,-95.5 217,-76.5 137,-76.5"/>
<text text-anchor="middle" x="177" y="-83.5" font-family="Helvetica,sans-Serif" font-size="10.00">mx_get_magic</text>
</a>
</g>
</g>
<!-- Node1&#45;&gt;Node2 -->
<g id="edge1" class="edge"><title>Node1&#45;&gt;Node2</title>
<path fill="none" stroke="midnightblue" d="M77.3092,-57.589C94.1928,-62.4494 114.895,-68.4091 132.971,-73.6127"/>
<polygon fill="midnightblue" stroke="midnightblue" points="132.123,-77.011 142.701,-76.4141 134.06,-70.2842 132.123,-77.011"/>
</g>
<!-- Node3 -->
<g id="node3" class="node"><title>Node3</title>
<g id="a_node3"><a xlink:href="file_8c.html#a4982d9040dfaf38e847729be2af83ed6" target="_top" xlink:title="Close a FILE handle (and NULL the pointer) ">
<polygon fill="white" stroke="black" points="268,-57.5 268,-76.5 354,-76.5 354,-57.5 268,-57.5"/>
<text text-anchor="middle" x="311" y="-64.5" font-family="Helvetica,sans-Serif" font-size="10.00">mutt_file_fclose</text>
</a>
</g>
</g>
<!-- Node1&#45;&gt;Node3 -->
<g id="edge4" class="edge"><title>Node1&#45;&gt;Node3</title>
<path fill="none" stroke="midnightblue" d="M86.1485,-51.0106C132.609,-54.3292 207.403,-59.6716 257.602,-63.2573"/>
<polygon fill="midnightblue" stroke="midnightblue" points="257.385,-66.7506 267.609,-63.9721 257.884,-59.7684 257.385,-66.7506"/>
</g>
<!-- Node4 -->
<g id="node4" class="node"><title>Node4</title>
<g id="a_node4"><a xlink:href="mailbox_8c.html#a1df8bd2fac7fff14fef8a06a055799d6" target="_top" xlink:title="Is the last message new. ">
<polygon fill="white" stroke="red" points="122,-0.5 122,-19.5 232,-19.5 232,-0.5 122,-0.5"/>
<text text-anchor="middle" x="177" y="-7.5" font-family="Helvetica,sans-Serif" font-size="10.00">test_last_status_new</text>
</a>
</g>
</g>
<!-- Node1&#45;&gt;Node4 -->
<g id="edge3" class="edge"><title>Node1&#45;&gt;Node4</title>
<path fill="none" stroke="midnightblue" d="M77.3092,-38.411C94.1928,-33.5506 114.895,-27.5909 132.971,-22.3873"/>
<polygon fill="midnightblue" stroke="midnightblue" points="134.06,-25.7158 142.701,-19.5859 132.123,-18.989 134.06,-25.7158"/>
</g>
<!-- Node2&#45;&gt;Node3 -->
<g id="edge2" class="edge"><title>Node2&#45;&gt;Node3</title>
<path fill="none" stroke="midnightblue" d="M217.247,-80.3508C229.964,-78.5203 244.277,-76.4601 257.784,-74.516"/>
<polygon fill="midnightblue" stroke="midnightblue" points="258.516,-77.9467 267.915,-73.0576 257.519,-71.0181 258.516,-77.9467"/>
</g>
</g>
</svg>
