<?xml version="1.0" encoding="UTF-8" standalone="no"?>
<!DOCTYPE svg PUBLIC "-//W3C//DTD SVG 1.1//EN"
 "http://www.w3.org/Graphics/SVG/1.1/DTD/svg11.dtd">
<!-- Generated by graphviz version 2.36.0 (20140111.2315)
 -->
<!-- Title: mutt_mailbox_check Pages: 1 -->
<svg width="466pt" height="484pt"
 viewBox="0.00 0.00 466.00 484.00" xmlns="http://www.w3.org/2000/svg" xmlns:xlink="http://www.w3.org/1999/xlink">
<g id="graph0" class="graph" transform="scale(1 1) rotate(0) translate(4 480)">
<title>mutt_mailbox_check</title>
<polygon fill="white" stroke="none" points="-4,4 -4,-480 462,-480 462,4 -4,4"/>
<!-- Node1 -->
<g id="node1" class="node"><title>Node1</title>
<polygon fill="#bfbfbf" stroke="black" points="0.5,-228.5 0.5,-247.5 107.5,-247.5 107.5,-228.5 0.5,-228.5"/>
<text text-anchor="middle" x="54" y="-235.5" font-family="Helvetica,sans-Serif" font-size="10.00">mutt_mailbox_check</text>
</g>
<!-- Node2 -->
<g id="node2" class="node"><title>Node2</title>
<g id="a_node2"><a xlink:href="browser_8c.html#a5d46f13bc05093abd5f524bbc4bb96d1" target="_top" xlink:title="Get list of all files/newsgroups with mask. ">
<polygon fill="white" stroke="red" points="151,-456.5 151,-475.5 247,-475.5 247,-456.5 151,-456.5"/>
<text text-anchor="middle" x="199" y="-463.5" font-family="Helvetica,sans-Serif" font-size="10.00">examine_directory</text>
</a>
</g>
</g>
<!-- Node1&#45;&gt;Node2 -->
<g id="edge1" class="edge"><title>Node1&#45;&gt;Node2</title>
<path fill="none" stroke="midnightblue" d="M58.0248,-258.017C65.2808,-299.199 87.4641,-393.985 144,-447 148.132,-450.875 153.101,-453.966 158.33,-456.431"/>
<polygon fill="midnightblue" stroke="midnightblue" points="61.4374,-257.2 56.3579,-247.902 54.5306,-258.338 61.4374,-257.2"/>
</g>
<!-- Node3 -->
<g id="node3" class="node"><title>Node3</title>
<g id="a_node3"><a xlink:href="browser_8c.html#a2438fed322c051c96991cce15e6021c5" target="_top" xlink:title="Get a list of virtual folders. ">
<polygon fill="white" stroke="red" points="152.5,-418.5 152.5,-437.5 245.5,-437.5 245.5,-418.5 152.5,-418.5"/>
<text text-anchor="middle" x="199" y="-425.5" font-family="Helvetica,sans-Serif" font-size="10.00">examine_vfolders</text>
</a>
</g>
</g>
<!-- Node1&#45;&gt;Node3 -->
<g id="edge2" class="edge"><title>Node1&#45;&gt;Node3</title>
<path fill="none" stroke="midnightblue" d="M60.0563,-257.708C70.1019,-293.012 95.8688,-367.242 144,-409 148.429,-412.843 153.685,-415.923 159.151,-418.389"/>
<polygon fill="midnightblue" stroke="midnightblue" points="63.3379,-256.437 57.3388,-247.704 56.5827,-258.272 63.3379,-256.437"/>
</g>
<!-- Node4 -->
<g id="node4" class="node"><title>Node4</title>
<g id="a_node4"><a xlink:href="browser_8c.html#aec34de9f81842bd3ef14d44809304c43" target="_top" xlink:title="Get list of mailboxes/subscribed newsgroups. ">
<polygon fill="white" stroke="red" points="147.5,-380.5 147.5,-399.5 250.5,-399.5 250.5,-380.5 147.5,-380.5"/>
<text text-anchor="middle" x="199" y="-387.5" font-family="Helvetica,sans-Serif" font-size="10.00">examine_mailboxes</text>
</a>
</g>
</g>
<!-- Node1&#45;&gt;Node4 -->
<g id="edge3" class="edge"><title>Node1&#45;&gt;Node4</title>
<path fill="none" stroke="midnightblue" d="M62.872,-256.873C75.7385,-285.517 103.917,-339.911 144,-371 148.947,-374.837 154.73,-377.937 160.637,-380.429"/>
<polygon fill="midnightblue" stroke="midnightblue" points="66.0272,-255.352 58.8308,-247.576 59.6074,-258.143 66.0272,-255.352"/>
</g>
<!-- Node5 -->
<g id="node5" class="node"><title>Node5</title>
<g id="a_node5"><a xlink:href="browser_8c.html#a9c2f420fab462b5dc0f7cf74824b802b" target="_top" xlink:title="Set up a new menu. ">
<polygon fill="white" stroke="red" points="169.5,-342.5 169.5,-361.5 228.5,-361.5 228.5,-342.5 169.5,-342.5"/>
<text text-anchor="middle" x="199" y="-349.5" font-family="Helvetica,sans-Serif" font-size="10.00">init_menu</text>
</a>
</g>
</g>
<!-- Node1&#45;&gt;Node5 -->
<g id="edge4" class="edge"><title>Node1&#45;&gt;Node5</title>
<path fill="none" stroke="midnightblue" d="M68.7709,-255.418C85.047,-275.1 113.763,-307.108 144,-328 152.272,-333.715 162.124,-338.572 171.134,-342.389"/>
<polygon fill="midnightblue" stroke="midnightblue" points="71.4172,-253.124 62.3978,-247.566 65.9821,-257.536 71.4172,-253.124"/>
</g>
<!-- Node6 -->
<g id="node6" class="node"><title>Node6</title>
<g id="a_node6"><a xlink:href="commands_8h.html#a1d7e589609c99aec9285cdce17d0679e" target="_top" xlink:title="invoke a command in a subshell ">
<polygon fill="white" stroke="red" points="150,-266.5 150,-285.5 248,-285.5 248,-266.5 150,-266.5"/>
<text text-anchor="middle" x="199" y="-273.5" font-family="Helvetica,sans-Serif" font-size="10.00">mutt_shell_escape</text>
</a>
</g>
</g>
<!-- Node1&#45;&gt;Node6 -->
<g id="edge5" class="edge"><title>Node1&#45;&gt;Node6</title>
<path fill="none" stroke="midnightblue" d="M100.813,-250.174C120.587,-255.429 143.384,-261.487 161.927,-266.414"/>
<polygon fill="midnightblue" stroke="midnightblue" points="101.648,-246.775 91.0849,-247.589 99.8506,-253.54 101.648,-246.775"/>
</g>
<!-- Node7 -->
<g id="node7" class="node"><title>Node7</title>
<g id="a_node7"><a xlink:href="curs__main_8h.html#af7d9d8649ad205788c9af1bbf871207f" target="_top" xlink:title="Display a list of emails. ">
<polygon fill="white" stroke="red" points="290,-152.5 290,-171.5 384,-171.5 384,-152.5 290,-152.5"/>
<text text-anchor="middle" x="337" y="-159.5" font-family="Helvetica,sans-Serif" font-size="10.00">mutt_index_menu</text>
</a>
</g>
</g>
<!-- Node1&#45;&gt;Node7 -->
<g id="edge12" class="edge"><title>Node1&#45;&gt;Node7</title>
<path fill="none" stroke="midnightblue" d="M117.894,-240.07C157.977,-239.45 210.384,-234.986 254,-219 282.976,-208.38 311.301,-184.971 325.871,-171.692"/>
<polygon fill="midnightblue" stroke="midnightblue" points="117.693,-236.571 107.721,-240.149 117.748,-243.571 117.693,-236.571"/>
</g>
<!-- Node8 -->
<g id="node8" class="node"><title>Node8</title>
<g id="a_node8"><a xlink:href="main_8c.html#adedb285b02c41bde2158ded9cc9fd7ac" target="_top" xlink:title="Start NeoMutt. ">
<polygon fill="white" stroke="black" points="420,-152.5 420,-171.5 458,-171.5 458,-152.5 420,-152.5"/>
<text text-anchor="middle" x="439" y="-159.5" font-family="Helvetica,sans-Serif" font-size="10.00">main</text>
</a>
</g>
</g>
<!-- Node1&#45;&gt;Node8 -->
<g id="edge20" class="edge"><title>Node1&#45;&gt;Node8</title>
<path fill="none" stroke="midnightblue" d="M73.4507,-254.349C90.432,-268.223 117.008,-287.097 144,-295 190.919,-308.737 207.486,-310.051 254,-295 332.003,-269.76 404.72,-197.734 429.246,-171.612"/>
<polygon fill="midnightblue" stroke="midnightblue" points="75.3935,-251.409 65.4938,-247.635 70.8789,-256.759 75.3935,-251.409"/>
</g>
<!-- Node9 -->
<g id="node9" class="node"><title>Node9</title>
<g id="a_node9"><a xlink:href="commands_8h.html#a02ca5373d05a327109310e13d0f66309" target="_top" xlink:title="Forcibly update mailbox stats. ">
<polygon fill="white" stroke="red" points="151.5,-190.5 151.5,-209.5 246.5,-209.5 246.5,-190.5 151.5,-190.5"/>
<text text-anchor="middle" x="199" y="-197.5" font-family="Helvetica,sans-Serif" font-size="10.00">mutt_check_stats</text>
</a>
</g>
</g>
<!-- Node1&#45;&gt;Node9 -->
<g id="edge8" class="edge"><title>Node1&#45;&gt;Node9</title>
<path fill="none" stroke="midnightblue" d="M100.813,-225.826C120.587,-220.571 143.384,-214.513 161.927,-209.586"/>
<polygon fill="midnightblue" stroke="midnightblue" points="99.8506,-222.46 91.0849,-228.411 101.648,-229.225 99.8506,-222.46"/>
</g>
<!-- Node10 -->
<g id="node10" class="node"><title>Node10</title>
<g id="a_node10"><a xlink:href="curs__main_8c.html#a844b442c9ee0ab05978a40172e08e468" target="_top" xlink:title="Change to a different mailbox. ">
<polygon fill="white" stroke="black" points="147,-152.5 147,-171.5 251,-171.5 251,-152.5 147,-152.5"/>
<text text-anchor="middle" x="199" y="-159.5" font-family="Helvetica,sans-Serif" font-size="10.00">main_change_folder</text>
</a>
</g>
</g>
<!-- Node1&#45;&gt;Node10 -->
<g id="edge10" class="edge"><title>Node1&#45;&gt;Node10</title>
<path fill="none" stroke="midnightblue" d="M76.3664,-222.313C93.8998,-209.942 119.707,-192.854 144,-181 151.235,-177.47 159.297,-174.271 166.94,-171.548"/>
<polygon fill="midnightblue" stroke="midnightblue" points="74.0974,-219.633 68.0036,-228.3 78.1722,-225.325 74.0974,-219.633"/>
</g>
<!-- Node11 -->
<g id="node11" class="node"><title>Node11</title>
<g id="a_node11"><a xlink:href="mailbox_8h.html#a453b47a5b2cf2f3feeec65c5a34bde9d" target="_top" xlink:title="Notify the user if there&#39;s new mail. ">
<polygon fill="white" stroke="red" points="147,-114.5 147,-133.5 251,-133.5 251,-114.5 147,-114.5"/>
<text text-anchor="middle" x="199" y="-121.5" font-family="Helvetica,sans-Serif" font-size="10.00">mutt_mailbox_notify</text>
</a>
</g>
</g>
<!-- Node1&#45;&gt;Node11 -->
<g id="edge13" class="edge"><title>Node1&#45;&gt;Node11</title>
<path fill="none" stroke="midnightblue" d="M67.3182,-220.381C82.9239,-199.257 111.706,-164.073 144,-143 149.743,-139.252 156.313,-136.145 162.847,-133.604"/>
<polygon fill="midnightblue" stroke="midnightblue" points="64.4792,-218.334 61.4649,-228.491 70.1553,-222.431 64.4792,-218.334"/>
</g>
<!-- Node12 -->
<g id="node12" class="node"><title>Node12</title>
<g id="a_node12"><a xlink:href="mailbox_8h.html#aa871a502903abe160d30f8d706f1e207" target="_top" xlink:title="incoming folders completion routine ">
<polygon fill="white" stroke="red" points="161.5,-38.5 161.5,-57.5 236.5,-57.5 236.5,-38.5 161.5,-38.5"/>
<text text-anchor="middle" x="199" y="-45.5" font-family="Helvetica,sans-Serif" font-size="10.00">mutt_mailbox</text>
</a>
</g>
</g>
<!-- Node1&#45;&gt;Node12 -->
<g id="edge15" class="edge"><title>Node1&#45;&gt;Node12</title>
<path fill="none" stroke="midnightblue" d="M60.0563,-218.292C70.1019,-182.988 95.8688,-108.758 144,-67 149.03,-62.6364 155.125,-59.2554 161.385,-56.6416"/>
<polygon fill="midnightblue" stroke="midnightblue" points="56.5827,-217.728 57.3388,-228.296 63.3379,-219.563 56.5827,-217.728"/>
</g>
<!-- Node13 -->
<g id="node13" class="node"><title>Node13</title>
<g id="a_node13"><a xlink:href="mailbox_8h.html#a193c0412bb53b2b56272fcb0f5969433" target="_top" xlink:title="Find the first virtual folder with new mail. ">
<polygon fill="white" stroke="black" points="144,-76.5 144,-95.5 254,-95.5 254,-76.5 144,-76.5"/>
<text text-anchor="middle" x="199" y="-83.5" font-family="Helvetica,sans-Serif" font-size="10.00">mutt_mailbox_vfolder</text>
</a>
</g>
</g>
<!-- Node1&#45;&gt;Node13 -->
<g id="edge18" class="edge"><title>Node1&#45;&gt;Node13</title>
<path fill="none" stroke="midnightblue" d="M62.872,-219.127C75.7385,-190.483 103.917,-136.089 144,-105 148.947,-101.163 154.73,-98.0634 160.637,-95.5712"/>
<polygon fill="midnightblue" stroke="midnightblue" points="59.6074,-217.857 58.8308,-228.424 66.0272,-220.648 59.6074,-217.857"/>
</g>
<!-- Node14 -->
<g id="node14" class="node"><title>Node14</title>
<g id="a_node14"><a xlink:href="status_8c.html#a92f5e92c0ed851b635ca764b9102059e" target="_top" xlink:title="Create the status bar string &#45; Implements format_t. ">
<polygon fill="white" stroke="red" points="152.5,-0.5 152.5,-19.5 245.5,-19.5 245.5,-0.5 152.5,-0.5"/>
<text text-anchor="middle" x="199" y="-7.5" font-family="Helvetica,sans-Serif" font-size="10.00">status_format_str</text>
</a>
</g>
</g>
<!-- Node1&#45;&gt;Node14 -->
<g id="edge21" class="edge"><title>Node1&#45;&gt;Node14</title>
<path fill="none" stroke="midnightblue" d="M58.0248,-217.983C65.2808,-176.801 87.4641,-82.015 144,-29 148.132,-25.1251 153.101,-22.0337 158.33,-19.5692"/>
<polygon fill="midnightblue" stroke="midnightblue" points="54.5306,-217.662 56.3579,-228.098 61.4374,-218.8 54.5306,-217.662"/>
</g>
<!-- Node6&#45;&gt;Node7 -->
<g id="edge6" class="edge"><title>Node6&#45;&gt;Node7</title>
<path fill="none" stroke="midnightblue" d="M236.675,-262.185C242.703,-259.226 248.704,-255.821 254,-252 286.911,-228.252 316.581,-189.501 329.358,-171.61"/>
<polygon fill="midnightblue" stroke="midnightblue" points="234.928,-259.135 227.278,-266.465 237.829,-265.506 234.928,-259.135"/>
</g>
<!-- Node7&#45;&gt;Node8 -->
<g id="edge7" class="edge"><title>Node7&#45;&gt;Node8</title>
<path fill="none" stroke="midnightblue" d="M394.316,-162C403.594,-162 412.577,-162 419.96,-162"/>
<polygon fill="midnightblue" stroke="midnightblue" points="394.195,-158.5 384.195,-162 394.195,-165.5 394.195,-158.5"/>
</g>
<!-- Node9&#45;&gt;Node7 -->
<g id="edge9" class="edge"><title>Node9&#45;&gt;Node7</title>
<path fill="none" stroke="midnightblue" d="M244.087,-187.682C262.772,-182.461 284.218,-176.468 301.692,-171.586"/>
<polygon fill="midnightblue" stroke="midnightblue" points="243.008,-184.349 234.319,-190.411 244.892,-191.091 243.008,-184.349"/>
</g>
<!-- Node10&#45;&gt;Node7 -->
<g id="edge11" class="edge"><title>Node10&#45;&gt;Node7</title>
<path fill="none" stroke="midnightblue" d="M261.26,-162C270.788,-162 280.493,-162 289.618,-162"/>
<polygon fill="midnightblue" stroke="midnightblue" points="261.028,-158.5 251.028,-162 261.028,-165.5 261.028,-158.5"/>
</g>
<!-- Node11&#45;&gt;Node7 -->
<g id="edge14" class="edge"><title>Node11&#45;&gt;Node7</title>
<path fill="none" stroke="midnightblue" d="M244.087,-136.318C262.772,-141.539 284.218,-147.532 301.692,-152.414"/>
<polygon fill="midnightblue" stroke="midnightblue" points="244.892,-132.909 234.319,-133.589 243.008,-139.651 244.892,-132.909"/>
</g>
<!-- Node12&#45;&gt;Node7 -->
<g id="edge16" class="edge"><title>Node12&#45;&gt;Node7</title>
<path fill="none" stroke="midnightblue" d="M244.806,-61.6414C248.018,-63.2548 251.121,-65.0367 254,-67 272.09,-79.3368 312.324,-130.866 328.777,-152.438"/>
<polygon fill="midnightblue" stroke="midnightblue" points="246.12,-58.3954 235.561,-57.53 243.276,-64.7915 246.12,-58.3954"/>
</g>
<!-- Node12&#45;&gt;Node8 -->
<g id="edge17" class="edge"><title>Node12&#45;&gt;Node8</title>
<path fill="none" stroke="midnightblue" d="M239.064,-61.021C244.131,-62.9209 249.218,-64.936 254,-67 317.375,-94.3537 389.187,-134.114 421.133,-152.285"/>
<polygon fill="midnightblue" stroke="midnightblue" points="240.025,-57.6464 229.431,-57.5271 237.638,-64.227 240.025,-57.6464"/>
</g>
<!-- Node13&#45;&gt;Node7 -->
<g id="edge19" class="edge"><title>Node13&#45;&gt;Node7</title>
<path fill="none" stroke="midnightblue" d="M241.274,-99.2151C245.641,-100.998 249.959,-102.933 254,-105 280.857,-118.74 309.087,-140.135 324.417,-152.431"/>
<polygon fill="midnightblue" stroke="midnightblue" points="242.313,-95.8652 231.722,-95.5603 239.811,-102.403 242.313,-95.8652"/>
</g>
</g>
</svg>
