<?xml version="1.0" encoding="UTF-8" standalone="no"?>
<!DOCTYPE svg PUBLIC "-//W3C//DTD SVG 1.1//EN"
 "http://www.w3.org/Graphics/SVG/1.1/DTD/svg11.dtd">
<!-- Generated by graphviz version 2.36.0 (20140111.2315)
 -->
<!-- Title: mutt_mailbox_list Pages: 1 -->
<svg width="372pt" height="132pt"
 viewBox="0.00 0.00 372.00 132.00" xmlns="http://www.w3.org/2000/svg" xmlns:xlink="http://www.w3.org/1999/xlink">
<g id="graph0" class="graph" transform="scale(1 1) rotate(0) translate(4 128)">
<title>mutt_mailbox_list</title>
<polygon fill="white" stroke="none" points="-4,4 -4,-128 368,-128 368,4 -4,4"/>
<!-- Node1 -->
<g id="node1" class="node"><title>Node1</title>
<polygon fill="#bfbfbf" stroke="black" points="0.5,-47.5 0.5,-66.5 93.5,-66.5 93.5,-47.5 0.5,-47.5"/>
<text text-anchor="middle" x="47" y="-54.5" font-family="Helvetica,sans-Serif" font-size="10.00">mutt_mailbox_list</text>
</g>
<!-- Node2 -->
<g id="node2" class="node"><title>Node2</title>
<g id="a_node2"><a xlink:href="browser_8h.html#ab036990112b8014c0b84c401e77f96d3" target="_top" xlink:title="Let the user select a file. ">
<polygon fill="white" stroke="red" points="139,-104.5 139,-123.5 225,-123.5 225,-104.5 139,-104.5"/>
<text text-anchor="middle" x="182" y="-111.5" font-family="Helvetica,sans-Serif" font-size="10.00">mutt_select_file</text>
</a>
</g>
</g>
<!-- Node1&#45;&gt;Node2 -->
<g id="edge1" class="edge"><title>Node1&#45;&gt;Node2</title>
<path fill="none" stroke="midnightblue" d="M79.7756,-70.6181C104.108,-81.0465 137.063,-95.1697 158.666,-104.428"/>
<polygon fill="midnightblue" stroke="midnightblue" points="80.8314,-67.2628 70.2612,-66.5405 78.0739,-73.6968 80.8314,-67.2628"/>
</g>
<!-- Node3 -->
<g id="node3" class="node"><title>Node3</title>
<g id="a_node3"><a xlink:href="curs__main_8h.html#af7d9d8649ad205788c9af1bbf871207f" target="_top" xlink:title="Display a list of emails. ">
<polygon fill="white" stroke="red" points="270,-47.5 270,-66.5 364,-66.5 364,-47.5 270,-47.5"/>
<text text-anchor="middle" x="317" y="-54.5" font-family="Helvetica,sans-Serif" font-size="10.00">mutt_index_menu</text>
</a>
</g>
</g>
<!-- Node1&#45;&gt;Node3 -->
<g id="edge2" class="edge"><title>Node1&#45;&gt;Node3</title>
<path fill="none" stroke="midnightblue" d="M103.926,-57C153.151,-57 223.961,-57 269.974,-57"/>
<polygon fill="midnightblue" stroke="midnightblue" points="103.766,-53.5001 93.7663,-57 103.766,-60.5001 103.766,-53.5001"/>
</g>
<!-- Node4 -->
<g id="node4" class="node"><title>Node4</title>
<g id="a_node4"><a xlink:href="mailbox_8h.html#a453b47a5b2cf2f3feeec65c5a34bde9d" target="_top" xlink:title="Notify the user if there&#39;s new mail. ">
<polygon fill="white" stroke="black" points="130,-28.5 130,-47.5 234,-47.5 234,-28.5 130,-28.5"/>
<text text-anchor="middle" x="182" y="-35.5" font-family="Helvetica,sans-Serif" font-size="10.00">mutt_mailbox_notify</text>
</a>
</g>
</g>
<!-- Node1&#45;&gt;Node4 -->
<g id="edge3" class="edge"><title>Node1&#45;&gt;Node4</title>
<path fill="none" stroke="midnightblue" d="M103.72,-49.04C112.322,-47.8112 121.171,-46.547 129.671,-45.3327"/>
<polygon fill="midnightblue" stroke="midnightblue" points="103.176,-45.5822 93.7711,-50.4613 104.166,-52.5118 103.176,-45.5822"/>
</g>
<!-- Node5 -->
<g id="node5" class="node"><title>Node5</title>
<g id="a_node5"><a xlink:href="pager_8h.html#a1f4fb11389135c8767d9c4adca46f0d4" target="_top" xlink:title="Display a file, or help, in a window. ">
<polygon fill="white" stroke="red" points="284.5,-0.5 284.5,-19.5 349.5,-19.5 349.5,-0.5 284.5,-0.5"/>
<text text-anchor="middle" x="317" y="-7.5" font-family="Helvetica,sans-Serif" font-size="10.00">mutt_pager</text>
</a>
</g>
</g>
<!-- Node1&#45;&gt;Node5 -->
<g id="edge6" class="edge"><title>Node1&#45;&gt;Node5</title>
<path fill="none" stroke="midnightblue" d="M73.0406,-42.3086C88.8204,-33.8453 109.938,-23.934 130,-19 182.899,-5.99021 246.742,-6.2075 284.205,-7.87592"/>
<polygon fill="midnightblue" stroke="midnightblue" points="71.0165,-39.4285 63.9623,-47.3336 74.4065,-45.5529 71.0165,-39.4285"/>
</g>
<!-- Node4&#45;&gt;Node3 -->
<g id="edge4" class="edge"><title>Node4&#45;&gt;Node3</title>
<path fill="none" stroke="midnightblue" d="M244.056,-46.7223C252.666,-47.9523 261.398,-49.1997 269.67,-50.3814"/>
<polygon fill="midnightblue" stroke="midnightblue" points="244.435,-43.241 234.041,-45.2916 243.445,-50.1707 244.435,-43.241"/>
</g>
<!-- Node4&#45;&gt;Node5 -->
<g id="edge5" class="edge"><title>Node4&#45;&gt;Node5</title>
<path fill="none" stroke="midnightblue" d="M238.492,-26.3176C254.089,-23.034 270.517,-19.5754 284.215,-16.6917"/>
<polygon fill="midnightblue" stroke="midnightblue" points="237.464,-22.9572 228.399,-28.4423 238.906,-29.807 237.464,-22.9572"/>
</g>
</g>
</svg>
