<?xml version="1.0" encoding="UTF-8" standalone="no"?>
<!DOCTYPE svg PUBLIC "-//W3C//DTD SVG 1.1//EN"
 "http://www.w3.org/Graphics/SVG/1.1/DTD/svg11.dtd">
<!-- Generated by graphviz version 2.36.0 (20140111.2315)
 -->
<!-- Title: maildir_update_flags Pages: 1 -->
<svg width="256pt" height="104pt"
 viewBox="0.00 0.00 256.00 104.00" xmlns="http://www.w3.org/2000/svg" xmlns:xlink="http://www.w3.org/1999/xlink">
<g id="graph0" class="graph" transform="scale(1 1) rotate(0) translate(4 100)">
<title>maildir_update_flags</title>
<polygon fill="white" stroke="none" points="-4,4 -4,-100 252,-100 252,4 -4,4"/>
<!-- Node1 -->
<g id="node1" class="node"><title>Node1</title>
<polygon fill="#bfbfbf" stroke="black" points="0,-38.5 0,-57.5 106,-57.5 106,-38.5 0,-38.5"/>
<text text-anchor="middle" x="53" y="-45.5" font-family="Helvetica,sans-Serif" font-size="10.00">maildir_update_flags</text>
</g>
<!-- Node2 -->
<g id="node2" class="node"><title>Node2</title>
<g id="a_node2"><a xlink:href="mh_8c.html#a5b46ceb633c03f9bd7c9cf2bf01745bf" target="_top" xlink:title="Implements MxOps::mbox_check() ">
<polygon fill="white" stroke="red" points="142,-76.5 142,-95.5 248,-95.5 248,-76.5 142,-76.5"/>
<text text-anchor="middle" x="195" y="-83.5" font-family="Helvetica,sans-Serif" font-size="10.00">maildir_mbox_check</text>
</a>
</g>
</g>
<!-- Node1&#45;&gt;Node2 -->
<g id="edge1" class="edge"><title>Node1&#45;&gt;Node2</title>
<path fill="none" stroke="midnightblue" d="M99.1176,-60.2462C118.415,-65.484 140.612,-71.5091 158.683,-76.4141"/>
<polygon fill="midnightblue" stroke="midnightblue" points="99.8956,-56.8308 89.3279,-57.589 98.0619,-63.5864 99.8956,-56.8308"/>
</g>
<!-- Node3 -->
<g id="node3" class="node"><title>Node3</title>
<g id="a_node3"><a xlink:href="mh_8c.html#af91621ad4b7746d00442c35c09436375" target="_top" xlink:title="Implements MxOps::mbox_check() ">
<polygon fill="white" stroke="red" points="149.5,-38.5 149.5,-57.5 240.5,-57.5 240.5,-38.5 149.5,-38.5"/>
<text text-anchor="middle" x="195" y="-45.5" font-family="Helvetica,sans-Serif" font-size="10.00">mh_mbox_check</text>
</a>
</g>
</g>
<!-- Node1&#45;&gt;Node3 -->
<g id="edge2" class="edge"><title>Node1&#45;&gt;Node3</title>
<path fill="none" stroke="midnightblue" d="M116.219,-48C127.32,-48 138.685,-48 149.18,-48"/>
<polygon fill="midnightblue" stroke="midnightblue" points="116.131,-44.5001 106.131,-48 116.131,-51.5001 116.131,-44.5001"/>
</g>
<!-- Node4 -->
<g id="node4" class="node"><title>Node4</title>
<g id="a_node4"><a xlink:href="mutt__notmuch_8c.html#a3b6ce1879599d869e18ff55a11547ed0" target="_top" xlink:title="Implements MxOps::mbox_check() ">
<polygon fill="white" stroke="black" points="149.5,-0.5 149.5,-19.5 240.5,-19.5 240.5,-0.5 149.5,-0.5"/>
<text text-anchor="middle" x="195" y="-7.5" font-family="Helvetica,sans-Serif" font-size="10.00">nm_mbox_check</text>
</a>
</g>
</g>
<!-- Node1&#45;&gt;Node4 -->
<g id="edge3" class="edge"><title>Node1&#45;&gt;Node4</title>
<path fill="none" stroke="midnightblue" d="M99.1176,-35.7538C118.415,-30.516 140.612,-24.4909 158.683,-19.5859"/>
<polygon fill="midnightblue" stroke="midnightblue" points="98.0619,-32.4136 89.3279,-38.411 99.8956,-39.1692 98.0619,-32.4136"/>
</g>
</g>
</svg>
