<?xml version="1.0" encoding="UTF-8" standalone="no"?>
<!DOCTYPE svg PUBLIC "-//W3C//DTD SVG 1.1//EN"
 "http://www.w3.org/Graphics/SVG/1.1/DTD/svg11.dtd">
<!-- Generated by graphviz version 2.36.0 (20140111.2315)
 -->
<!-- Title: mutt_find_mailbox Pages: 1 -->
<svg width="398pt" height="85pt"
 viewBox="0.00 0.00 398.00 85.00" xmlns="http://www.w3.org/2000/svg" xmlns:xlink="http://www.w3.org/1999/xlink">
<g id="graph0" class="graph" transform="scale(1 1) rotate(0) translate(4 81)">
<title>mutt_find_mailbox</title>
<polygon fill="white" stroke="none" points="-4,4 -4,-81 394,-81 394,4 -4,4"/>
<!-- Node1 -->
<g id="node1" class="node"><title>Node1</title>
<polygon fill="#bfbfbf" stroke="black" points="0,-38.5 0,-57.5 96,-57.5 96,-38.5 0,-38.5"/>
<text text-anchor="middle" x="48" y="-45.5" font-family="Helvetica,sans-Serif" font-size="10.00">mutt_find_mailbox</text>
</g>
<!-- Node2 -->
<g id="node2" class="node"><title>Node2</title>
<g id="a_node2"><a xlink:href="commands_8h.html#aba91885b9f8d6c999aa5028baa845fa6" target="_top" xlink:title="Save an email. ">
<polygon fill="white" stroke="red" points="282.5,-57.5 282.5,-76.5 389.5,-76.5 389.5,-57.5 282.5,-57.5"/>
<text text-anchor="middle" x="336" y="-64.5" font-family="Helvetica,sans-Serif" font-size="10.00">mutt_save_message</text>
</a>
</g>
</g>
<!-- Node1&#45;&gt;Node2 -->
<g id="edge1" class="edge"><title>Node1&#45;&gt;Node2</title>
<path fill="none" stroke="midnightblue" d="M92.4581,-59.8838C105.109,-62.8148 119.019,-65.5332 132,-67 182.779,-72.7379 241.161,-71.9758 282.242,-70.2362"/>
<polygon fill="midnightblue" stroke="midnightblue" points="93.1669,-56.4544 82.6245,-57.5074 91.5226,-63.2585 93.1669,-56.4544"/>
</g>
<!-- Node3 -->
<g id="node3" class="node"><title>Node3</title>
<g id="a_node3"><a xlink:href="mailbox_8h.html#abf8c2a3fe001e431c5f0dd76e7e4e114" target="_top" xlink:title="Restore the timestamp of a mailbox. ">
<polygon fill="white" stroke="red" points="132,-38.5 132,-57.5 246,-57.5 246,-38.5 132,-38.5"/>
<text text-anchor="middle" x="189" y="-45.5" font-family="Helvetica,sans-Serif" font-size="10.00">mutt_mailbox_cleanup</text>
</a>
</g>
</g>
<!-- Node1&#45;&gt;Node3 -->
<g id="edge2" class="edge"><title>Node1&#45;&gt;Node3</title>
<path fill="none" stroke="midnightblue" d="M106.226,-48C114.691,-48 123.408,-48 131.852,-48"/>
<polygon fill="midnightblue" stroke="midnightblue" points="106.059,-44.5001 96.0591,-48 106.059,-51.5001 106.059,-44.5001"/>
</g>
<!-- Node4 -->
<g id="node4" class="node"><title>Node4</title>
<g id="a_node4"><a xlink:href="mbox_8c.html#ac3bd73b0ad1b3a39f62c9fd00544e4ce" target="_top" xlink:title="Implements MxOps::mbox_sync() ">
<polygon fill="white" stroke="black" points="141,-0.5 141,-19.5 237,-19.5 237,-0.5 141,-0.5"/>
<text text-anchor="middle" x="189" y="-7.5" font-family="Helvetica,sans-Serif" font-size="10.00">mbox_mbox_sync</text>
</a>
</g>
</g>
<!-- Node1&#45;&gt;Node4 -->
<g id="edge4" class="edge"><title>Node1&#45;&gt;Node4</title>
<path fill="none" stroke="midnightblue" d="M93.7953,-35.7538C112.955,-30.516 134.994,-24.4909 152.936,-19.5859"/>
<polygon fill="midnightblue" stroke="midnightblue" points="92.7986,-32.3978 84.0756,-38.411 94.6446,-39.15 92.7986,-32.3978"/>
</g>
<!-- Node3&#45;&gt;Node2 -->
<g id="edge3" class="edge"><title>Node3&#45;&gt;Node2</title>
<path fill="none" stroke="midnightblue" d="M255.979,-56.6456C264.839,-57.8065 273.83,-58.9846 282.416,-60.1097"/>
<polygon fill="midnightblue" stroke="midnightblue" points="256.431,-53.1749 246.061,-55.3459 255.521,-60.1156 256.431,-53.1749"/>
</g>
</g>
</svg>
