<?xml version="1.0" encoding="UTF-8" standalone="no"?>
<!DOCTYPE svg PUBLIC "-//W3C//DTD SVG 1.1//EN"
 "http://www.w3.org/Graphics/SVG/1.1/DTD/svg11.dtd">
<!-- Generated by graphviz version 2.36.0 (20140111.2315)
 -->
<!-- Title: mutt_exit Pages: 1 -->
<svg width="350pt" height="484pt"
 viewBox="0.00 0.00 350.00 484.00" xmlns="http://www.w3.org/2000/svg" xmlns:xlink="http://www.w3.org/1999/xlink">
<g id="graph0" class="graph" transform="scale(1 1) rotate(0) translate(4 480)">
<title>mutt_exit</title>
<polygon fill="white" stroke="none" points="-4,4 -4,-480 346,-480 346,4 -4,4"/>
<!-- Node1 -->
<g id="node1" class="node"><title>Node1</title>
<polygon fill="#bfbfbf" stroke="black" points="0.5,-228.5 0.5,-247.5 57.5,-247.5 57.5,-228.5 0.5,-228.5"/>
<text text-anchor="middle" x="29" y="-235.5" font-family="Helvetica,sans-Serif" font-size="10.00">mutt_exit</text>
</g>
<!-- Node2 -->
<g id="node2" class="node"><title>Node2</title>
<g id="a_node2"><a xlink:href="curs__lib_8h.html#aa922a0db5f9f56cdc3bedc5671bc35a7" target="_top" xlink:title="Read a character from the input buffer. ">
<polygon fill="white" stroke="red" points="261.5,-437.5 261.5,-456.5 326.5,-456.5 326.5,-437.5 261.5,-437.5"/>
<text text-anchor="middle" x="294" y="-444.5" font-family="Helvetica,sans-Serif" font-size="10.00">mutt_getch</text>
</a>
</g>
</g>
<!-- Node1&#45;&gt;Node2 -->
<g id="edge1" class="edge"><title>Node1&#45;&gt;Node2</title>
<path fill="none" stroke="midnightblue" d="M32.5417,-257.891C37.8345,-290.927 53.1549,-357.024 94,-393 141.549,-434.88 218.477,-444.662 261.428,-446.711"/>
<polygon fill="midnightblue" stroke="midnightblue" points="35.9611,-257.083 31.0623,-247.688 29.0336,-258.087 35.9611,-257.083"/>
</g>
<!-- Node3 -->
<g id="node3" class="node"><title>Node3</title>
<g id="a_node3"><a xlink:href="curs__lib_8h.html#ac7ca868e51ee14c92ab7a7b09487258e" target="_top" xlink:title="Ask the user if they want to leave NeoMutt. ">
<polygon fill="white" stroke="red" points="109,-456.5 109,-475.5 195,-475.5 195,-456.5 109,-456.5"/>
<text text-anchor="middle" x="152" y="-463.5" font-family="Helvetica,sans-Serif" font-size="10.00">mutt_query_exit</text>
</a>
</g>
</g>
<!-- Node1&#45;&gt;Node3 -->
<g id="edge2" class="edge"><title>Node1&#45;&gt;Node3</title>
<path fill="none" stroke="midnightblue" d="M30.8651,-257.99C33.6318,-297.942 45.2459,-388.405 94,-442 99.7079,-448.275 107.321,-452.962 115.12,-456.445"/>
<polygon fill="midnightblue" stroke="midnightblue" points="34.3548,-257.709 30.2865,-247.926 27.3664,-258.111 34.3548,-257.709"/>
</g>
<!-- Node4 -->
<g id="node4" class="node"><title>Node4</title>
<g id="a_node4"><a xlink:href="message_8c.html#ad044a93c0a9234d350d7778cf11935ea" target="_top" xlink:title="Create lookup table of MSN to Header. ">
<polygon fill="white" stroke="red" points="249.5,-342.5 249.5,-361.5 338.5,-361.5 338.5,-342.5 249.5,-342.5"/>
<text text-anchor="middle" x="294" y="-349.5" font-family="Helvetica,sans-Serif" font-size="10.00">alloc_msn_index</text>
</a>
</g>
</g>
<!-- Node1&#45;&gt;Node4 -->
<g id="edge4" class="edge"><title>Node1&#45;&gt;Node4</title>
<path fill="none" stroke="midnightblue" d="M32.9083,-257.913C38.5596,-288.46 54.1789,-345.97 94,-371 150.416,-406.46 234.146,-378.043 272.484,-361.618"/>
<polygon fill="midnightblue" stroke="midnightblue" points="36.2946,-256.94 31.2008,-247.65 29.3895,-258.089 36.2946,-256.94"/>
</g>
<!-- Node5 -->
<g id="node5" class="node"><title>Node5</title>
<g id="a_node5"><a xlink:href="memory_8h.html#a4c1612d209c7825d55e6a014df352f03" target="_top" xlink:title="Allocate zeroed memory on the heap. ">
<polygon fill="white" stroke="red" points="105,-304.5 105,-323.5 199,-323.5 199,-304.5 105,-304.5"/>
<text text-anchor="middle" x="152" y="-311.5" font-family="Helvetica,sans-Serif" font-size="10.00">mutt_mem_calloc</text>
</a>
</g>
</g>
<!-- Node1&#45;&gt;Node5 -->
<g id="edge5" class="edge"><title>Node1&#45;&gt;Node5</title>
<path fill="none" stroke="midnightblue" d="M47.8632,-254.842C60.1603,-265.83 77.243,-279.946 94,-290 103.299,-295.58 114.133,-300.492 123.843,-304.396"/>
<polygon fill="midnightblue" stroke="midnightblue" points="49.9217,-251.982 40.1773,-247.823 45.2013,-257.151 49.9217,-251.982"/>
</g>
<!-- Node6 -->
<g id="node6" class="node"><title>Node6</title>
<g id="a_node6"><a xlink:href="mx_8h.html#a515962a1cf14aad3161d7872f69073e7" target="_top" xlink:title="Create storage for the emails. ">
<polygon fill="white" stroke="red" points="246,-304.5 246,-323.5 342,-323.5 342,-304.5 246,-304.5"/>
<text text-anchor="middle" x="294" y="-311.5" font-family="Helvetica,sans-Serif" font-size="10.00">mx_alloc_memory</text>
</a>
</g>
</g>
<!-- Node1&#45;&gt;Node6 -->
<g id="edge15" class="edge"><title>Node1&#45;&gt;Node6</title>
<path fill="none" stroke="midnightblue" d="M67.2957,-249.138C76.0511,-251.734 85.3497,-254.477 94,-257 151.961,-273.904 219.55,-293.169 259.169,-304.417"/>
<polygon fill="midnightblue" stroke="midnightblue" points="68.2875,-245.781 57.7048,-246.288 66.2936,-252.492 68.2875,-245.781"/>
</g>
<!-- Node7 -->
<g id="node7" class="node"><title>Node7</title>
<g id="a_node7"><a xlink:href="memory_8h.html#a264da4dc58e6dc8983285bd1f538f24d" target="_top" xlink:title="Allocate memory on the heap. ">
<polygon fill="white" stroke="red" points="103.5,-228.5 103.5,-247.5 200.5,-247.5 200.5,-228.5 103.5,-228.5"/>
<text text-anchor="middle" x="152" y="-235.5" font-family="Helvetica,sans-Serif" font-size="10.00">mutt_mem_malloc</text>
</a>
</g>
</g>
<!-- Node1&#45;&gt;Node7 -->
<g id="edge8" class="edge"><title>Node1&#45;&gt;Node7</title>
<path fill="none" stroke="midnightblue" d="M68.0837,-238C79.2981,-238 91.7092,-238 103.439,-238"/>
<polygon fill="midnightblue" stroke="midnightblue" points="67.7599,-234.5 57.7598,-238 67.7598,-241.5 67.7599,-234.5"/>
</g>
<!-- Node8 -->
<g id="node8" class="node"><title>Node8</title>
<g id="a_node8"><a xlink:href="memory_8h.html#af778eb8166966fc0666c64849f6c7c5b" target="_top" xlink:title="Resize a block of memory on the heap. ">
<polygon fill="white" stroke="red" points="103.5,-342.5 103.5,-361.5 200.5,-361.5 200.5,-342.5 103.5,-342.5"/>
<text text-anchor="middle" x="152" y="-349.5" font-family="Helvetica,sans-Serif" font-size="10.00">mutt_mem_realloc</text>
</a>
</g>
</g>
<!-- Node1&#45;&gt;Node8 -->
<g id="edge9" class="edge"><title>Node1&#45;&gt;Node8</title>
<path fill="none" stroke="midnightblue" d="M38.1351,-256.955C48.2469,-278.363 67.467,-312.836 94,-333 99.066,-336.85 104.954,-339.944 110.985,-342.424"/>
<polygon fill="midnightblue" stroke="midnightblue" points="41.2207,-255.284 33.9106,-247.614 34.8427,-258.168 41.2207,-255.284"/>
</g>
<!-- Node9 -->
<g id="node9" class="node"><title>Node9</title>
<g id="a_node9"><a xlink:href="muttlib_8h.html#a5e688506c1a1e514511b21d2c43cab66" target="_top" xlink:title="Fill a buffer with a base32&#45;encoded random string. ">
<polygon fill="white" stroke="red" points="103.5,-190.5 103.5,-209.5 200.5,-209.5 200.5,-190.5 103.5,-190.5"/>
<text text-anchor="middle" x="152" y="-197.5" font-family="Helvetica,sans-Serif" font-size="10.00">mutt_rand_base32</text>
</a>
</g>
</g>
<!-- Node1&#45;&gt;Node9 -->
<g id="edge12" class="edge"><title>Node1&#45;&gt;Node9</title>
<path fill="none" stroke="midnightblue" d="M67.3952,-226.256C84.4082,-220.913 104.29,-214.669 120.396,-209.611"/>
<polygon fill="midnightblue" stroke="midnightblue" points="66.2517,-222.947 57.7598,-229.282 68.3491,-229.625 66.2517,-222.947"/>
</g>
<!-- Node10 -->
<g id="node10" class="node"><title>Node10</title>
<g id="a_node10"><a xlink:href="muttlib_8h.html#a8ccfb7a1f8c74cb588ceb3ad978fb084" target="_top" xlink:title="Create a 32&#45;bit random number. ">
<polygon fill="white" stroke="black" points="116.5,-152.5 116.5,-171.5 187.5,-171.5 187.5,-152.5 116.5,-152.5"/>
<text text-anchor="middle" x="152" y="-159.5" font-family="Helvetica,sans-Serif" font-size="10.00">mutt_rand32</text>
</a>
</g>
</g>
<!-- Node1&#45;&gt;Node10 -->
<g id="edge13" class="edge"><title>Node1&#45;&gt;Node10</title>
<path fill="none" stroke="midnightblue" d="M45.7046,-220.647C57.8396,-208.134 75.6193,-191.639 94,-181 100.861,-177.029 108.672,-173.741 116.265,-171.081"/>
<polygon fill="midnightblue" stroke="midnightblue" points="42.9049,-218.515 38.5958,-228.194 48.0002,-223.315 42.9049,-218.515"/>
</g>
<!-- Node11 -->
<g id="node11" class="node"><title>Node11</title>
<g id="a_node11"><a xlink:href="muttlib_8h.html#a642006ba161a78cbefb5667ff780feca" target="_top" xlink:title="Create a 64&#45;bit random number. ">
<polygon fill="white" stroke="red" points="116.5,-114.5 116.5,-133.5 187.5,-133.5 187.5,-114.5 116.5,-114.5"/>
<text text-anchor="middle" x="152" y="-121.5" font-family="Helvetica,sans-Serif" font-size="10.00">mutt_rand64</text>
</a>
</g>
</g>
<!-- Node1&#45;&gt;Node11 -->
<g id="edge14" class="edge"><title>Node1&#45;&gt;Node11</title>
<path fill="none" stroke="midnightblue" d="M38.1351,-219.045C48.2469,-197.637 67.467,-163.164 94,-143 100.561,-138.014 108.501,-134.296 116.343,-131.538"/>
<polygon fill="midnightblue" stroke="midnightblue" points="34.8427,-217.832 33.9106,-228.386 41.2207,-220.716 34.8427,-217.832"/>
</g>
<!-- Node12 -->
<g id="node12" class="node"><title>Node12</title>
<g id="a_node12"><a xlink:href="crypt__gpgme_8c.html#a31d59710ce616d9e2acea30f70294362" target="_top" xlink:title="Create a new GPGME context. ">
<polygon fill="white" stroke="red" points="94,-76.5 94,-95.5 210,-95.5 210,-76.5 94,-76.5"/>
<text text-anchor="middle" x="152" y="-83.5" font-family="Helvetica,sans-Serif" font-size="10.00">create_gpgme_context</text>
</a>
</g>
</g>
<!-- Node1&#45;&gt;Node12 -->
<g id="edge16" class="edge"><title>Node1&#45;&gt;Node12</title>
<path fill="none" stroke="midnightblue" d="M34.3011,-218.324C41.6166,-189.433 59.1974,-135.649 94,-105 98.3838,-101.139 103.577,-98.0586 109.016,-95.6012"/>
<polygon fill="midnightblue" stroke="midnightblue" points="30.8134,-217.864 31.9143,-228.401 37.6249,-219.477 30.8134,-217.864"/>
</g>
<!-- Node13 -->
<g id="node13" class="node"><title>Node13</title>
<g id="a_node13"><a xlink:href="crypt__gpgme_8c.html#a433e35eb7b66902025d1a6eced7c17c8" target="_top" xlink:title="Create a new GPGME data object. ">
<polygon fill="white" stroke="red" points="101,-38.5 101,-57.5 203,-57.5 203,-38.5 101,-38.5"/>
<text text-anchor="middle" x="152" y="-45.5" font-family="Helvetica,sans-Serif" font-size="10.00">create_gpgme_data</text>
</a>
</g>
</g>
<!-- Node1&#45;&gt;Node13 -->
<g id="edge17" class="edge"><title>Node1&#45;&gt;Node13</title>
<path fill="none" stroke="midnightblue" d="M31.8956,-218.319C36.3322,-183.057 50.5552,-108.892 94,-67 98.0548,-63.0901 102.935,-59.9843 108.112,-57.5173"/>
<polygon fill="midnightblue" stroke="midnightblue" points="28.4115,-217.982 30.7743,-228.31 35.3678,-218.763 28.4115,-217.982"/>
</g>
<!-- Node14 -->
<g id="node14" class="node"><title>Node14</title>
<g id="a_node14"><a xlink:href="ncrypt_8h.html#aaecf706c319966f9eafd582b58ba531f" target="_top" xlink:title="Initialise the crypto backends. ">
<polygon fill="white" stroke="red" points="124,-0.5 124,-19.5 180,-19.5 180,-0.5 124,-0.5"/>
<text text-anchor="middle" x="152" y="-7.5" font-family="Helvetica,sans-Serif" font-size="10.00">crypt_init</text>
</a>
</g>
</g>
<!-- Node1&#45;&gt;Node14 -->
<g id="edge18" class="edge"><title>Node1&#45;&gt;Node14</title>
<path fill="none" stroke="midnightblue" d="M30.3249,-218.042C32.0838,-176.97 41.9191,-82.378 94,-29 101.867,-20.9366 113.241,-16.2952 123.763,-13.6234"/>
<polygon fill="midnightblue" stroke="midnightblue" points="26.8238,-218.025 30.0146,-228.128 33.8205,-218.241 26.8238,-218.025"/>
</g>
<!-- Node3&#45;&gt;Node2 -->
<g id="edge3" class="edge"><title>Node3&#45;&gt;Node2</title>
<path fill="none" stroke="midnightblue" d="M204.975,-458.946C223.87,-456.382 244.644,-453.563 261.265,-451.307"/>
<polygon fill="midnightblue" stroke="midnightblue" points="204.443,-455.486 195.005,-460.299 205.384,-462.423 204.443,-455.486"/>
</g>
<!-- Node5&#45;&gt;Node4 -->
<g id="edge6" class="edge"><title>Node5&#45;&gt;Node4</title>
<path fill="none" stroke="midnightblue" d="M198.118,-326.246C217.415,-331.484 239.612,-337.509 257.683,-342.414"/>
<polygon fill="midnightblue" stroke="midnightblue" points="198.896,-322.831 188.328,-323.589 197.062,-329.586 198.896,-322.831"/>
</g>
<!-- Node5&#45;&gt;Node6 -->
<g id="edge7" class="edge"><title>Node5&#45;&gt;Node6</title>
<path fill="none" stroke="midnightblue" d="M209.258,-314C221.398,-314 234.113,-314 245.862,-314"/>
<polygon fill="midnightblue" stroke="midnightblue" points="209.229,-310.5 199.229,-314 209.229,-317.5 209.229,-310.5"/>
</g>
<!-- Node8&#45;&gt;Node4 -->
<g id="edge10" class="edge"><title>Node8&#45;&gt;Node4</title>
<path fill="none" stroke="midnightblue" d="M210.901,-352C223.702,-352 237.059,-352 249.191,-352"/>
<polygon fill="midnightblue" stroke="midnightblue" points="210.789,-348.5 200.788,-352 210.788,-355.5 210.789,-348.5"/>
</g>
<!-- Node8&#45;&gt;Node6 -->
<g id="edge11" class="edge"><title>Node8&#45;&gt;Node6</title>
<path fill="none" stroke="midnightblue" d="M198.118,-339.754C217.415,-334.516 239.612,-328.491 257.683,-323.586"/>
<polygon fill="midnightblue" stroke="midnightblue" points="197.062,-336.414 188.328,-342.411 198.896,-343.169 197.062,-336.414"/>
</g>
</g>
</svg>
