<?xml version="1.0" encoding="UTF-8" standalone="no"?>
<!DOCTYPE svg PUBLIC "-//W3C//DTD SVG 1.1//EN"
 "http://www.w3.org/Graphics/SVG/1.1/DTD/svg11.dtd">
<!-- Generated by graphviz version 2.36.0 (20140111.2315)
 -->
<!-- Title: mutt_map_get_value Pages: 1 -->
<svg width="250pt" height="218pt"
 viewBox="0.00 0.00 250.00 218.00" xmlns="http://www.w3.org/2000/svg" xmlns:xlink="http://www.w3.org/1999/xlink">
<g id="graph0" class="graph" transform="scale(1 1) rotate(0) translate(4 214)">
<title>mutt_map_get_value</title>
<polygon fill="white" stroke="none" points="-4,4 -4,-214 246,-214 246,4 -4,4"/>
<!-- Node1 -->
<g id="node1" class="node"><title>Node1</title>
<polygon fill="#bfbfbf" stroke="black" points="0.5,-95.5 0.5,-114.5 107.5,-114.5 107.5,-95.5 0.5,-95.5"/>
<text text-anchor="middle" x="54" y="-102.5" font-family="Helvetica,sans-Serif" font-size="10.00">mutt_map_get_value</text>
</g>
<!-- Node2 -->
<g id="node2" class="node"><title>Node2</title>
<g id="a_node2"><a xlink:href="color_8c.html#ab287fbdbeee8fed39a1965908771deeb" target="_top" xlink:title="Parse an &#39;uncolor&#39; command. ">
<polygon fill="white" stroke="red" points="154.5,-190.5 154.5,-209.5 231.5,-209.5 231.5,-190.5 154.5,-190.5"/>
<text text-anchor="middle" x="193" y="-197.5" font-family="Helvetica,sans-Serif" font-size="10.00">parse_uncolor</text>
</a>
</g>
</g>
<!-- Node1&#45;&gt;Node2 -->
<g id="edge1" class="edge"><title>Node1&#45;&gt;Node2</title>
<path fill="none" stroke="midnightblue" d="M71.4594,-122.023C88.399,-138.788 116.174,-164.251 144,-181 149.989,-184.605 156.785,-187.777 163.34,-190.446"/>
<polygon fill="midnightblue" stroke="midnightblue" points="73.5895,-119.201 64.0612,-114.568 68.6208,-124.131 73.5895,-119.201"/>
</g>
<!-- Node3 -->
<g id="node3" class="node"><title>Node3</title>
<g id="a_node3"><a xlink:href="color_8c.html#ab856e060994c59d9cbe527ecaa5d1711" target="_top" xlink:title="Parse a colour config line. ">
<polygon fill="white" stroke="red" points="157,-152.5 157,-171.5 229,-171.5 229,-152.5 157,-152.5"/>
<text text-anchor="middle" x="193" y="-159.5" font-family="Helvetica,sans-Serif" font-size="10.00">parse_object</text>
</a>
</g>
</g>
<!-- Node1&#45;&gt;Node3 -->
<g id="edge2" class="edge"><title>Node1&#45;&gt;Node3</title>
<path fill="none" stroke="midnightblue" d="M86.3338,-118.619C103.347,-125.954 124.777,-135.093 144,-143 151.626,-146.137 159.97,-149.473 167.531,-152.46"/>
<polygon fill="midnightblue" stroke="midnightblue" points="87.4448,-115.287 76.8768,-114.533 84.668,-121.713 87.4448,-115.287"/>
</g>
<!-- Node4 -->
<g id="node4" class="node"><title>Node4</title>
<g id="a_node4"><a xlink:href="config_2sort_8c.html#ac9cb1b1a69665a0b25f880c16d786730" target="_top" xlink:title="Set a Sort by string &#45; Implements cst_string_set. ">
<polygon fill="white" stroke="red" points="152.5,-114.5 152.5,-133.5 233.5,-133.5 233.5,-114.5 152.5,-114.5"/>
<text text-anchor="middle" x="193" y="-121.5" font-family="Helvetica,sans-Serif" font-size="10.00">sort_string_set</text>
</a>
</g>
</g>
<!-- Node1&#45;&gt;Node4 -->
<g id="edge3" class="edge"><title>Node1&#45;&gt;Node4</title>
<path fill="none" stroke="midnightblue" d="M117.755,-113.703C129.444,-115.324 141.357,-116.977 152.121,-118.469"/>
<polygon fill="midnightblue" stroke="midnightblue" points="117.962,-110.199 107.576,-112.292 117,-117.132 117.962,-110.199"/>
</g>
<!-- Node5 -->
<g id="node5" class="node"><title>Node5</title>
<g id="a_node5"><a xlink:href="url_8h.html#a62966c55e1aee3e55a464bdb125691c1" target="_top" xlink:title="Check the protocol of a URL. ">
<polygon fill="white" stroke="red" points="144,-76.5 144,-95.5 242,-95.5 242,-76.5 144,-76.5"/>
<text text-anchor="middle" x="193" y="-83.5" font-family="Helvetica,sans-Serif" font-size="10.00">url_check_scheme</text>
</a>
</g>
</g>
<!-- Node1&#45;&gt;Node5 -->
<g id="edge4" class="edge"><title>Node1&#45;&gt;Node5</title>
<path fill="none" stroke="midnightblue" d="M117.763,-96.2957C126.519,-95.0813 135.401,-93.8495 143.831,-92.6803"/>
<polygon fill="midnightblue" stroke="midnightblue" points="117,-92.8678 107.576,-97.7084 117.962,-99.8015 117,-92.8678"/>
</g>
<!-- Node6 -->
<g id="node6" class="node"><title>Node6</title>
<g id="a_node6"><a xlink:href="keymap_8c.html#abc1788f3cbc36acfbd5781ca5f0ca0ba" target="_top" xlink:title="Parse a key string into key codes. ">
<polygon fill="white" stroke="red" points="162,-38.5 162,-57.5 224,-57.5 224,-38.5 162,-38.5"/>
<text text-anchor="middle" x="193" y="-45.5" font-family="Helvetica,sans-Serif" font-size="10.00">parsekeys</text>
</a>
</g>
</g>
<!-- Node1&#45;&gt;Node6 -->
<g id="edge5" class="edge"><title>Node1&#45;&gt;Node6</title>
<path fill="none" stroke="midnightblue" d="M86.3338,-91.3805C103.347,-84.0464 124.777,-74.9068 144,-67 151.626,-63.8635 159.97,-60.5275 167.531,-57.5405"/>
<polygon fill="midnightblue" stroke="midnightblue" points="84.668,-88.2875 76.8768,-95.4672 87.4448,-94.7132 84.668,-88.2875"/>
</g>
<!-- Node7 -->
<g id="node7" class="node"><title>Node7</title>
<g id="a_node7"><a xlink:href="keymap_8c.html#a335996669cbb13ae9279c5e257232d82" target="_top" xlink:title="Parse a user&#45;config key binding. ">
<polygon fill="white" stroke="red" points="153,-0.5 153,-19.5 233,-19.5 233,-0.5 153,-0.5"/>
<text text-anchor="middle" x="193" y="-7.5" font-family="Helvetica,sans-Serif" font-size="10.00">parse_keymap</text>
</a>
</g>
</g>
<!-- Node1&#45;&gt;Node7 -->
<g id="edge6" class="edge"><title>Node1&#45;&gt;Node7</title>
<path fill="none" stroke="midnightblue" d="M71.4594,-87.977C88.399,-71.2119 116.174,-45.7492 144,-29 149.989,-25.3948 156.785,-22.2227 163.34,-19.5544"/>
<polygon fill="midnightblue" stroke="midnightblue" points="68.6208,-85.8686 64.0612,-95.4321 73.5895,-90.7993 68.6208,-85.8686"/>
</g>
</g>
</svg>
