<?xml version="1.0" encoding="UTF-8" standalone="no"?>
<!DOCTYPE svg PUBLIC "-//W3C//DTD SVG 1.1//EN"
 "http://www.w3.org/Graphics/SVG/1.1/DTD/svg11.dtd">
<!-- Generated by graphviz version 2.36.0 (20140111.2315)
 -->
<!-- Title: mbox_unlock_mailbox Pages: 1 -->
<svg width="392pt" height="85pt"
 viewBox="0.00 0.00 392.00 85.00" xmlns="http://www.w3.org/2000/svg" xmlns:xlink="http://www.w3.org/1999/xlink">
<g id="graph0" class="graph" transform="scale(1 1) rotate(0) translate(4 81)">
<title>mbox_unlock_mailbox</title>
<polygon fill="white" stroke="none" points="-4,4 -4,-81 388,-81 388,4 -4,4"/>
<!-- Node1 -->
<g id="node1" class="node"><title>Node1</title>
<polygon fill="#bfbfbf" stroke="black" points="0.5,-19.5 0.5,-38.5 113.5,-38.5 113.5,-19.5 0.5,-19.5"/>
<text text-anchor="middle" x="57" y="-26.5" font-family="Helvetica,sans-Serif" font-size="10.00">mbox_unlock_mailbox</text>
</g>
<!-- Node2 -->
<g id="node2" class="node"><title>Node2</title>
<g id="a_node2"><a xlink:href="mbox_8c.html#abb852d85f42cd12ec22682a3e18529c5" target="_top" xlink:title="Implements MxOps::mbox_open() ">
<polygon fill="white" stroke="black" points="153,-57.5 153,-76.5 249,-76.5 249,-57.5 153,-57.5"/>
<text text-anchor="middle" x="201" y="-64.5" font-family="Helvetica,sans-Serif" font-size="10.00">mbox_mbox_open</text>
</a>
</g>
</g>
<!-- Node1&#45;&gt;Node2 -->
<g id="edge1" class="edge"><title>Node1&#45;&gt;Node2</title>
<path fill="none" stroke="midnightblue" d="M103.493,-41.1742C123.128,-46.4287 145.766,-52.4866 164.179,-57.4141"/>
<polygon fill="midnightblue" stroke="midnightblue" points="104.397,-37.7931 93.8326,-38.589 102.588,-44.5552 104.397,-37.7931"/>
</g>
<!-- Node3 -->
<g id="node3" class="node"><title>Node3</title>
<g id="a_node3"><a xlink:href="mbox_8c.html#a1774543272b536cb9c62e9135fefdffa" target="_top" xlink:title="Implements MxOps::mbox_check() ">
<polygon fill="white" stroke="black" points="150.5,-19.5 150.5,-38.5 251.5,-38.5 251.5,-19.5 150.5,-19.5"/>
<text text-anchor="middle" x="201" y="-26.5" font-family="Helvetica,sans-Serif" font-size="10.00">mbox_mbox_check</text>
</a>
</g>
</g>
<!-- Node1&#45;&gt;Node3 -->
<g id="edge2" class="edge"><title>Node1&#45;&gt;Node3</title>
<path fill="none" stroke="midnightblue" d="M123.767,-29C132.74,-29 141.825,-29 150.444,-29"/>
<polygon fill="midnightblue" stroke="midnightblue" points="123.715,-25.5001 113.715,-29 123.715,-32.5001 123.715,-25.5001"/>
</g>
<!-- Node4 -->
<g id="node4" class="node"><title>Node4</title>
<g id="a_node4"><a xlink:href="mbox_8c.html#ac3bd73b0ad1b3a39f62c9fd00544e4ce" target="_top" xlink:title="Implements MxOps::mbox_sync() ">
<polygon fill="white" stroke="black" points="288,-0.5 288,-19.5 384,-19.5 384,-0.5 288,-0.5"/>
<text text-anchor="middle" x="336" y="-7.5" font-family="Helvetica,sans-Serif" font-size="10.00">mbox_mbox_sync</text>
</a>
</g>
</g>
<!-- Node1&#45;&gt;Node4 -->
<g id="edge4" class="edge"><title>Node1&#45;&gt;Node4</title>
<path fill="none" stroke="midnightblue" d="M105.404,-17.2884C119.648,-14.2912 135.377,-11.4942 150,-10 196.649,-5.23323 250.262,-5.90356 287.722,-7.35972"/>
<polygon fill="midnightblue" stroke="midnightblue" points="104.353,-13.9355 95.3311,-19.4906 105.848,-20.7739 104.353,-13.9355"/>
</g>
<!-- Node3&#45;&gt;Node4 -->
<g id="edge3" class="edge"><title>Node3&#45;&gt;Node4</title>
<path fill="none" stroke="midnightblue" d="M261.64,-20.48C270.351,-19.2356 279.22,-17.9686 287.641,-16.7656"/>
<polygon fill="midnightblue" stroke="midnightblue" points="260.929,-17.046 251.524,-21.9251 261.919,-23.9756 260.929,-17.046"/>
</g>
</g>
</svg>
