<?xml version="1.0" encoding="UTF-8" standalone="no"?>
<!DOCTYPE svg PUBLIC "-//W3C//DTD SVG 1.1//EN"
 "http://www.w3.org/Graphics/SVG/1.1/DTD/svg11.dtd">
<!-- Generated by graphviz version 2.36.0 (20140111.2315)
 -->
<!-- Title: mbox_mbox_open Pages: 1 -->
<svg width="254pt" height="256pt"
 viewBox="0.00 0.00 254.00 256.00" xmlns="http://www.w3.org/2000/svg" xmlns:xlink="http://www.w3.org/1999/xlink">
<g id="graph0" class="graph" transform="scale(1 1) rotate(0) translate(4 252)">
<title>mbox_mbox_open</title>
<polygon fill="white" stroke="none" points="-4,4 -4,-252 250,-252 250,4 -4,4"/>
<!-- Node1 -->
<g id="node1" class="node"><title>Node1</title>
<polygon fill="#bfbfbf" stroke="black" points="0,-114.5 0,-133.5 96,-133.5 96,-114.5 0,-114.5"/>
<text text-anchor="middle" x="48" y="-121.5" font-family="Helvetica,sans-Serif" font-size="10.00">mbox_mbox_open</text>
</g>
<!-- Node2 -->
<g id="node2" class="node"><title>Node2</title>
<g id="a_node2"><a xlink:href="signal_8c.html#aa6c49e5535cdffeffd2cd4eee28bc96b" target="_top" xlink:title="Block signals during critical operations. ">
<polygon fill="white" stroke="black" points="147.5,-228.5 147.5,-247.5 230.5,-247.5 230.5,-228.5 147.5,-228.5"/>
<text text-anchor="middle" x="189" y="-235.5" font-family="Helvetica,sans-Serif" font-size="10.00">mutt_sig_block</text>
</a>
</g>
</g>
<!-- Node1&#45;&gt;Node2 -->
<g id="edge1" class="edge"><title>Node1&#45;&gt;Node2</title>
<path fill="none" stroke="midnightblue" d="M54.8468,-133.565C66.9292,-152.558 96.5105,-195.243 132,-219 134.947,-220.973 138.119,-222.76 141.401,-224.374"/>
<polygon fill="midnightblue" stroke="midnightblue" points="140.28,-227.703 150.846,-228.48 143.071,-221.283 140.28,-227.703"/>
</g>
<!-- Node3 -->
<g id="node3" class="node"><title>Node3</title>
<g id="a_node3"><a xlink:href="mbox_8c.html#a957a425a523a9efbc032584673e03400" target="_top" xlink:title="Lock a mailbox. ">
<polygon fill="white" stroke="red" points="137.5,-190.5 137.5,-209.5 240.5,-209.5 240.5,-190.5 137.5,-190.5"/>
<text text-anchor="middle" x="189" y="-197.5" font-family="Helvetica,sans-Serif" font-size="10.00">mbox_lock_mailbox</text>
</a>
</g>
</g>
<!-- Node1&#45;&gt;Node3 -->
<g id="edge2" class="edge"><title>Node1&#45;&gt;Node3</title>
<path fill="none" stroke="midnightblue" d="M60.7216,-133.605C76.2348,-145.94 104.806,-167.376 132,-181 136.251,-183.13 140.797,-185.111 145.391,-186.927"/>
<polygon fill="midnightblue" stroke="midnightblue" points="144.219,-190.225 154.812,-190.419 146.652,-183.662 144.219,-190.225"/>
</g>
<!-- Node4 -->
<g id="node4" class="node"><title>Node4</title>
<g id="a_node4"><a xlink:href="signal_8c.html#aa9356c41baa1b35d3a7719f90570e6b7" target="_top" xlink:title="Restore previously blocked signals. ">
<polygon fill="white" stroke="black" points="142.5,-152.5 142.5,-171.5 235.5,-171.5 235.5,-152.5 142.5,-152.5"/>
<text text-anchor="middle" x="189" y="-159.5" font-family="Helvetica,sans-Serif" font-size="10.00">mutt_sig_unblock</text>
</a>
</g>
</g>
<!-- Node1&#45;&gt;Node4 -->
<g id="edge3" class="edge"><title>Node1&#45;&gt;Node4</title>
<path fill="none" stroke="midnightblue" d="M84.0756,-133.589C102.019,-138.494 124.058,-144.52 143.217,-149.757"/>
<polygon fill="midnightblue" stroke="midnightblue" points="142.367,-153.153 152.936,-152.414 144.213,-146.401 142.367,-153.153"/>
</g>
<!-- Node5 -->
<g id="node5" class="node"><title>Node5</title>
<g id="a_node5"><a xlink:href="mbox_8c.html#ad72dff92f5cf9ec13c2819dbcf9e0c9b" target="_top" xlink:title="Read a mailbox from disk. ">
<polygon fill="white" stroke="red" points="134.5,-114.5 134.5,-133.5 243.5,-133.5 243.5,-114.5 134.5,-114.5"/>
<text text-anchor="middle" x="189" y="-121.5" font-family="Helvetica,sans-Serif" font-size="10.00">mbox_parse_mailbox</text>
</a>
</g>
</g>
<!-- Node1&#45;&gt;Node5 -->
<g id="edge4" class="edge"><title>Node1&#45;&gt;Node5</title>
<path fill="none" stroke="midnightblue" d="M96.0591,-124C105.082,-124 114.67,-124 124.119,-124"/>
<polygon fill="midnightblue" stroke="midnightblue" points="124.284,-127.5 134.284,-124 124.284,-120.5 124.284,-127.5"/>
</g>
<!-- Node6 -->
<g id="node6" class="node"><title>Node6</title>
<g id="a_node6"><a xlink:href="mbox_8c.html#ae1efd8707efa96b7e0b8daf0105024ee" target="_top" xlink:title="Read a mailbox in MMDF format. ">
<polygon fill="white" stroke="red" points="134,-76.5 134,-95.5 244,-95.5 244,-76.5 134,-76.5"/>
<text text-anchor="middle" x="189" y="-83.5" font-family="Helvetica,sans-Serif" font-size="10.00">mmdf_parse_mailbox</text>
</a>
</g>
</g>
<!-- Node1&#45;&gt;Node6 -->
<g id="edge5" class="edge"><title>Node1&#45;&gt;Node6</title>
<path fill="none" stroke="midnightblue" d="M84.0756,-114.411C102.019,-109.506 124.058,-103.48 143.217,-98.2429"/>
<polygon fill="midnightblue" stroke="midnightblue" points="144.213,-101.599 152.936,-95.5859 142.367,-94.8469 144.213,-101.599"/>
</g>
<!-- Node7 -->
<g id="node7" class="node"><title>Node7</title>
<g id="a_node7"><a xlink:href="file_8c.html#a3b39a0ad0a86d765510227b75fba988e" target="_top" xlink:title="Set the access time to current time. ">
<polygon fill="white" stroke="black" points="132.5,-38.5 132.5,-57.5 245.5,-57.5 245.5,-38.5 132.5,-38.5"/>
<text text-anchor="middle" x="189" y="-45.5" font-family="Helvetica,sans-Serif" font-size="10.00">mutt_file_touch_atime</text>
</a>
</g>
</g>
<!-- Node1&#45;&gt;Node7 -->
<g id="edge6" class="edge"><title>Node1&#45;&gt;Node7</title>
<path fill="none" stroke="midnightblue" d="M60.7216,-114.395C76.2348,-102.06 104.806,-80.6239 132,-67 136.251,-64.8703 140.797,-62.8893 145.391,-61.0729"/>
<polygon fill="midnightblue" stroke="midnightblue" points="146.652,-64.3383 154.812,-57.5809 144.219,-57.7747 146.652,-64.3383"/>
</g>
<!-- Node8 -->
<g id="node8" class="node"><title>Node8</title>
<g id="a_node8"><a xlink:href="mbox_8c.html#af5126acdb9c8ddd9583a645342f0a3b4" target="_top" xlink:title="Unlock a mailbox. ">
<polygon fill="white" stroke="red" points="132.5,-0.5 132.5,-19.5 245.5,-19.5 245.5,-0.5 132.5,-0.5"/>
<text text-anchor="middle" x="189" y="-7.5" font-family="Helvetica,sans-Serif" font-size="10.00">mbox_unlock_mailbox</text>
</a>
</g>
</g>
<!-- Node1&#45;&gt;Node8 -->
<g id="edge7" class="edge"><title>Node1&#45;&gt;Node8</title>
<path fill="none" stroke="midnightblue" d="M54.8468,-114.435C66.9292,-95.4423 96.5105,-52.7573 132,-29 134.947,-27.027 138.119,-25.2405 141.401,-23.6261"/>
<polygon fill="midnightblue" stroke="midnightblue" points="143.071,-26.7166 150.846,-19.52 140.28,-20.2969 143.071,-26.7166"/>
</g>
</g>
</svg>
