<?xml version="1.0" encoding="UTF-8" standalone="no"?>
<!DOCTYPE svg PUBLIC "-//W3C//DTD SVG 1.1//EN"
 "http://www.w3.org/Graphics/SVG/1.1/DTD/svg11.dtd">
<!-- Generated by graphviz version 2.36.0 (20140111.2315)
 -->
<!-- Title: mbox_reset_atime Pages: 1 -->
<svg width="238pt" height="84pt"
 viewBox="0.00 0.00 238.00 84.00" xmlns="http://www.w3.org/2000/svg" xmlns:xlink="http://www.w3.org/1999/xlink">
<g id="graph0" class="graph" transform="scale(1 1) rotate(0) translate(4 80)">
<title>mbox_reset_atime</title>
<polygon fill="white" stroke="none" points="-4,4 -4,-80 234,-80 234,4 -4,4"/>
<!-- Node1 -->
<g id="node1" class="node"><title>Node1</title>
<polygon fill="#bfbfbf" stroke="black" points="0.5,-28.5 0.5,-47.5 97.5,-47.5 97.5,-28.5 0.5,-28.5"/>
<text text-anchor="middle" x="49" y="-35.5" font-family="Helvetica,sans-Serif" font-size="10.00">mbox_reset_atime</text>
</g>
<!-- Node2 -->
<g id="node2" class="node"><title>Node2</title>
<g id="a_node2"><a xlink:href="mbox_8c.html#ac3bd73b0ad1b3a39f62c9fd00544e4ce" target="_top" xlink:title="Implements MxOps::mbox_sync() ">
<polygon fill="white" stroke="black" points="134,-56.5 134,-75.5 230,-75.5 230,-56.5 134,-56.5"/>
<text text-anchor="middle" x="182" y="-63.5" font-family="Helvetica,sans-Serif" font-size="10.00">mbox_mbox_sync</text>
</a>
</g>
</g>
<!-- Node1&#45;&gt;Node2 -->
<g id="edge1" class="edge"><title>Node1&#45;&gt;Node2</title>
<path fill="none" stroke="midnightblue" d="M104.711,-49.694C115.298,-51.9569 126.272,-54.3025 136.485,-56.4854"/>
<polygon fill="midnightblue" stroke="midnightblue" points="105.227,-46.2253 94.7164,-47.5577 103.764,-53.0707 105.227,-46.2253"/>
</g>
<!-- Node3 -->
<g id="node3" class="node"><title>Node3</title>
<g id="a_node3"><a xlink:href="mx_8h.html#ad0127b193da0a2a0f4469565d4a11c56" target="_top" xlink:title="save changes and close mailbox ">
<polygon fill="white" stroke="red" points="138,-0.5 138,-19.5 226,-19.5 226,-0.5 138,-0.5"/>
<text text-anchor="middle" x="182" y="-7.5" font-family="Helvetica,sans-Serif" font-size="10.00">mx_mbox_close</text>
</a>
</g>
</g>
<!-- Node1&#45;&gt;Node3 -->
<g id="edge2" class="edge"><title>Node1&#45;&gt;Node3</title>
<path fill="none" stroke="midnightblue" d="M104.707,-26.3068C115.756,-23.9452 127.227,-21.4935 137.814,-19.2307"/>
<polygon fill="midnightblue" stroke="midnightblue" points="103.764,-22.9293 94.7164,-28.4423 105.227,-29.7747 103.764,-22.9293"/>
</g>
<!-- Node3&#45;&gt;Node3 -->
<g id="edge3" class="edge"><title>Node3&#45;&gt;Node3</title>
<path fill="none" stroke="midnightblue" d="M157.447,-29.0292C158.786,-34.128 166.97,-38 182,-38 205.461,-38 212.243,-28.5653 202.345,-19.7571"/>
<polygon fill="midnightblue" stroke="midnightblue" points="160.709,-30.3096 161.655,-19.7571 154.335,-27.4164 160.709,-30.3096"/>
</g>
</g>
</svg>
