<?xml version="1.0" encoding="UTF-8" standalone="no"?>
<!DOCTYPE svg PUBLIC "-//W3C//DTD SVG 1.1//EN"
 "http://www.w3.org/Graphics/SVG/1.1/DTD/svg11.dtd">
<!-- Generated by graphviz version 2.36.0 (20140111.2315)
 -->
<!-- Title: mutt_mb_charlen Pages: 1 -->
<svg width="248pt" height="84pt"
 viewBox="0.00 0.00 248.00 84.00" xmlns="http://www.w3.org/2000/svg" xmlns:xlink="http://www.w3.org/1999/xlink">
<g id="graph0" class="graph" transform="scale(1 1) rotate(0) translate(4 80)">
<title>mutt_mb_charlen</title>
<polygon fill="white" stroke="none" points="-4,4 -4,-80 244,-80 244,4 -4,4"/>
<!-- Node1 -->
<g id="node1" class="node"><title>Node1</title>
<polygon fill="#bfbfbf" stroke="black" points="0,-28.5 0,-47.5 92,-47.5 92,-28.5 0,-28.5"/>
<text text-anchor="middle" x="46" y="-35.5" font-family="Helvetica,sans-Serif" font-size="10.00">mutt_mb_charlen</text>
</g>
<!-- Node2 -->
<g id="node2" class="node"><title>Node2</title>
<g id="a_node2"><a xlink:href="mbyte_8h.html#a877da38f06afd8673f82b2bc418ed3fd" target="_top" xlink:title="Turn a name into initials. ">
<polygon fill="white" stroke="red" points="130.5,-56.5 130.5,-75.5 237.5,-75.5 237.5,-56.5 130.5,-56.5"/>
<text text-anchor="middle" x="184" y="-63.5" font-family="Helvetica,sans-Serif" font-size="10.00">mutt_mb_get_initials</text>
</a>
</g>
</g>
<!-- Node1&#45;&gt;Node2 -->
<g id="edge1" class="edge"><title>Node1&#45;&gt;Node2</title>
<path fill="none" stroke="midnightblue" d="M102.146,-49.3536C113.552,-51.7018 125.458,-54.1531 136.518,-56.4301"/>
<polygon fill="midnightblue" stroke="midnightblue" points="102.786,-45.9121 92.286,-47.3236 101.375,-52.7683 102.786,-45.9121"/>
</g>
<!-- Node3 -->
<g id="node3" class="node"><title>Node3</title>
<g id="a_node3"><a xlink:href="muttlib_8h.html#a5efffe8bf1716c24b902f42e1d2166a0" target="_top" xlink:title="Expand expandos (x) in a string. ">
<polygon fill="white" stroke="red" points="128.5,-0.5 128.5,-19.5 239.5,-19.5 239.5,-0.5 128.5,-0.5"/>
<text text-anchor="middle" x="184" y="-7.5" font-family="Helvetica,sans-Serif" font-size="10.00">mutt_expando_format</text>
</a>
</g>
</g>
<!-- Node1&#45;&gt;Node3 -->
<g id="edge2" class="edge"><title>Node1&#45;&gt;Node3</title>
<path fill="none" stroke="midnightblue" d="M102.146,-26.6464C113.552,-24.2982 125.458,-21.8469 136.518,-19.5699"/>
<polygon fill="midnightblue" stroke="midnightblue" points="101.375,-23.2317 92.286,-28.6764 102.786,-30.0879 101.375,-23.2317"/>
</g>
<!-- Node3&#45;&gt;Node3 -->
<g id="edge3" class="edge"><title>Node3&#45;&gt;Node3</title>
<path fill="none" stroke="midnightblue" d="M158.33,-29.0292C159.731,-34.128 168.287,-38 184,-38 208.527,-38 215.617,-28.5653 205.27,-19.7571"/>
<polygon fill="midnightblue" stroke="midnightblue" points="161.605,-30.292 162.73,-19.7571 155.281,-27.2911 161.605,-30.292"/>
</g>
</g>
</svg>
