<?xml version="1.0" encoding="UTF-8" standalone="no"?>
<!DOCTYPE svg PUBLIC "-//W3C//DTD SVG 1.1//EN"
 "http://www.w3.org/Graphics/SVG/1.1/DTD/svg11.dtd">
<!-- Generated by graphviz version 2.36.0 (20140111.2315)
 -->
<!-- Title: mutt_mb_is_lower Pages: 1 -->
<svg width="346pt" height="256pt"
 viewBox="0.00 0.00 346.00 256.00" xmlns="http://www.w3.org/2000/svg" xmlns:xlink="http://www.w3.org/1999/xlink">
<g id="graph0" class="graph" transform="scale(1 1) rotate(0) translate(4 252)">
<title>mutt_mb_is_lower</title>
<polygon fill="white" stroke="none" points="-4,4 -4,-252 342,-252 342,4 -4,4"/>
<!-- Node1 -->
<g id="node1" class="node"><title>Node1</title>
<polygon fill="#bfbfbf" stroke="black" points="0,-114.5 0,-133.5 96,-133.5 96,-114.5 0,-114.5"/>
<text text-anchor="middle" x="48" y="-121.5" font-family="Helvetica,sans-Serif" font-size="10.00">mutt_mb_is_lower</text>
</g>
<!-- Node2 -->
<g id="node2" class="node"><title>Node2</title>
<g id="a_node2"><a xlink:href="color_8c.html#ae979fa780af906437748ab50c3c96297" target="_top" xlink:title="Associate a colour to a pattern. ">
<polygon fill="white" stroke="red" points="150,-228.5 150,-247.5 218,-247.5 218,-228.5 150,-228.5"/>
<text text-anchor="middle" x="184" y="-235.5" font-family="Helvetica,sans-Serif" font-size="10.00">add_pattern</text>
</a>
</g>
</g>
<!-- Node1&#45;&gt;Node2 -->
<g id="edge1" class="edge"><title>Node1&#45;&gt;Node2</title>
<path fill="none" stroke="midnightblue" d="M60.694,-142.171C75.1339,-163.3 101.551,-197.96 132,-219 137.441,-222.76 143.72,-225.884 149.972,-228.44"/>
<polygon fill="midnightblue" stroke="midnightblue" points="63.5531,-140.149 55.0961,-133.767 57.7273,-144.03 63.5531,-140.149"/>
</g>
<!-- Node3 -->
<g id="node3" class="node"><title>Node3</title>
<g id="a_node3"><a xlink:href="regex2_8h.html#af65b967176d535e1b4d08c0ebaf8bc0a" target="_top" xlink:title="Create an Regex from a string. ">
<polygon fill="white" stroke="red" points="147.5,-190.5 147.5,-209.5 220.5,-209.5 220.5,-190.5 147.5,-190.5"/>
<text text-anchor="middle" x="184" y="-197.5" font-family="Helvetica,sans-Serif" font-size="10.00">regex_create</text>
</a>
</g>
</g>
<!-- Node1&#45;&gt;Node3 -->
<g id="edge2" class="edge"><title>Node1&#45;&gt;Node3</title>
<path fill="none" stroke="midnightblue" d="M69.2703,-140.018C85.5517,-152.355 109.358,-169.235 132,-181 138.791,-184.529 146.391,-187.727 153.607,-190.45"/>
<polygon fill="midnightblue" stroke="midnightblue" points="71.1133,-137.02 61.0543,-133.693 66.843,-142.567 71.1133,-137.02"/>
</g>
<!-- Node4 -->
<g id="node4" class="node"><title>Node4</title>
<g id="a_node4"><a xlink:href="mutt_2regex3_8h.html#aeda3b03010a5f1632d2500711015f02a" target="_top" xlink:title="Create an Regex from a string. ">
<polygon fill="white" stroke="black" points="135,-152.5 135,-171.5 233,-171.5 233,-152.5 135,-152.5"/>
<text text-anchor="middle" x="184" y="-159.5" font-family="Helvetica,sans-Serif" font-size="10.00">mutt_regex_create</text>
</a>
</g>
</g>
<!-- Node1&#45;&gt;Node4 -->
<g id="edge3" class="edge"><title>Node1&#45;&gt;Node4</title>
<path fill="none" stroke="midnightblue" d="M92.4383,-136.318C110.849,-141.539 131.98,-147.532 149.197,-152.414"/>
<polygon fill="midnightblue" stroke="midnightblue" points="93.3894,-132.95 82.8139,-133.589 91.4796,-139.685 93.3894,-132.95"/>
</g>
<!-- Node5 -->
<g id="node5" class="node"><title>Node5</title>
<g id="a_node5"><a xlink:href="menu_8c.html#a39111aca7a811078eb154cfdf9760c45" target="_top" xlink:title="Search a menu. ">
<polygon fill="white" stroke="red" points="146.5,-114.5 146.5,-133.5 221.5,-133.5 221.5,-114.5 146.5,-114.5"/>
<text text-anchor="middle" x="184" y="-121.5" font-family="Helvetica,sans-Serif" font-size="10.00">menu_search</text>
</a>
</g>
</g>
<!-- Node1&#45;&gt;Node5 -->
<g id="edge4" class="edge"><title>Node1&#45;&gt;Node5</title>
<path fill="none" stroke="midnightblue" d="M106.431,-124C119.938,-124 133.974,-124 146.283,-124"/>
<polygon fill="midnightblue" stroke="midnightblue" points="106.243,-120.5 96.2434,-124 106.243,-127.5 106.243,-120.5"/>
</g>
<!-- Node6 -->
<g id="node6" class="node"><title>Node6</title>
<g id="a_node6"><a xlink:href="pager_8c.html#a52c5ec88001eecfe06a423117fad7346" target="_top" xlink:title="Redraw the pager window. ">
<polygon fill="white" stroke="black" points="132,-76.5 132,-95.5 236,-95.5 236,-76.5 132,-76.5"/>
<text text-anchor="middle" x="184" y="-83.5" font-family="Helvetica,sans-Serif" font-size="10.00">pager_menu_redraw</text>
</a>
</g>
</g>
<!-- Node1&#45;&gt;Node6 -->
<g id="edge5" class="edge"><title>Node1&#45;&gt;Node6</title>
<path fill="none" stroke="midnightblue" d="M92.4383,-111.682C110.849,-106.461 131.98,-100.468 149.197,-95.5859"/>
<polygon fill="midnightblue" stroke="midnightblue" points="91.4796,-108.315 82.8139,-114.411 93.3894,-115.05 91.4796,-108.315"/>
</g>
<!-- Node7 -->
<g id="node7" class="node"><title>Node7</title>
<g id="a_node7"><a xlink:href="pager_8h.html#a1f4fb11389135c8767d9c4adca46f0d4" target="_top" xlink:title="Display a file, or help, in a window. ">
<polygon fill="white" stroke="red" points="272.5,-57.5 272.5,-76.5 337.5,-76.5 337.5,-57.5 272.5,-57.5"/>
<text text-anchor="middle" x="305" y="-64.5" font-family="Helvetica,sans-Serif" font-size="10.00">mutt_pager</text>
</a>
</g>
</g>
<!-- Node1&#45;&gt;Node7 -->
<g id="edge7" class="edge"><title>Node1&#45;&gt;Node7</title>
<path fill="none" stroke="midnightblue" d="M66.4393,-107.286C82.161,-93.4622 106.644,-74.8681 132,-67 179.2,-52.3534 237.258,-56.6444 272.408,-61.5087"/>
<polygon fill="midnightblue" stroke="midnightblue" points="63.6913,-105.055 58.6565,-114.377 68.4057,-110.23 63.6913,-105.055"/>
</g>
<!-- Node8 -->
<g id="node8" class="node"><title>Node8</title>
<g id="a_node8"><a xlink:href="pattern_8c.html#a5cfee996f06553dd1b008d6e7859f44f" target="_top" xlink:title="Parse a regex. ">
<polygon fill="white" stroke="black" points="154.5,-0.5 154.5,-19.5 213.5,-19.5 213.5,-0.5 154.5,-0.5"/>
<text text-anchor="middle" x="184" y="-7.5" font-family="Helvetica,sans-Serif" font-size="10.00">eat_regex</text>
</a>
</g>
</g>
<!-- Node1&#45;&gt;Node8 -->
<g id="edge8" class="edge"><title>Node1&#45;&gt;Node8</title>
<path fill="none" stroke="midnightblue" d="M61.8772,-106.365C76.937,-86.706 103.463,-54.9309 132,-34 139.812,-28.2703 149.209,-23.383 157.797,-19.5433"/>
<polygon fill="midnightblue" stroke="midnightblue" points="59.0029,-104.364 55.7987,-114.463 64.6012,-108.567 59.0029,-104.364"/>
</g>
<!-- Node6&#45;&gt;Node7 -->
<g id="edge6" class="edge"><title>Node6&#45;&gt;Node7</title>
<path fill="none" stroke="midnightblue" d="M246.059,-76.2511C255.204,-74.791 264.299,-73.3388 272.481,-72.0324"/>
<polygon fill="midnightblue" stroke="midnightblue" points="245.48,-72.799 236.157,-77.832 246.584,-79.7115 245.48,-72.799"/>
</g>
</g>
</svg>
