<?xml version="1.0" encoding="UTF-8" standalone="no"?>
<!DOCTYPE svg PUBLIC "-//W3C//DTD SVG 1.1//EN"
 "http://www.w3.org/Graphics/SVG/1.1/DTD/svg11.dtd">
<!-- Generated by graphviz version 2.36.0 (20140111.2315)
 -->
<!-- Title: mutt_md5_finish_ctx Pages: 1 -->
<svg width="360pt" height="218pt"
 viewBox="0.00 0.00 360.00 218.00" xmlns="http://www.w3.org/2000/svg" xmlns:xlink="http://www.w3.org/1999/xlink">
<g id="graph0" class="graph" transform="scale(1 1) rotate(0) translate(4 214)">
<title>mutt_md5_finish_ctx</title>
<polygon fill="white" stroke="none" points="-4,4 -4,-214 356,-214 356,4 -4,4"/>
<!-- Node1 -->
<g id="node1" class="node"><title>Node1</title>
<polygon fill="#bfbfbf" stroke="black" points="0.5,-95.5 0.5,-114.5 107.5,-114.5 107.5,-95.5 0.5,-95.5"/>
<text text-anchor="middle" x="54" y="-102.5" font-family="Helvetica,sans-Serif" font-size="10.00">mutt_md5_finish_ctx</text>
</g>
<!-- Node2 -->
<g id="node2" class="node"><title>Node2</title>
<g id="a_node2"><a xlink:href="hcache_8h.html#ae01c81d7bc2f290309a28bbb8474ff40" target="_top" xlink:title="open the connection to the header cache ">
<polygon fill="white" stroke="red" points="147.5,-190.5 147.5,-209.5 246.5,-209.5 246.5,-190.5 147.5,-190.5"/>
<text text-anchor="middle" x="197" y="-197.5" font-family="Helvetica,sans-Serif" font-size="10.00">mutt_hcache_open</text>
</a>
</g>
</g>
<!-- Node1&#45;&gt;Node2 -->
<g id="edge1" class="edge"><title>Node1&#45;&gt;Node2</title>
<path fill="none" stroke="midnightblue" d="M72.9842,-121.505C90.3082,-136.866 117.691,-159.765 144,-176 152.8,-181.43 163.032,-186.409 172.08,-190.408"/>
<polygon fill="midnightblue" stroke="midnightblue" points="75.1138,-118.713 65.3364,-114.632 70.4349,-123.92 75.1138,-118.713"/>
</g>
<!-- Node3 -->
<g id="node3" class="node"><title>Node3</title>
<g id="a_node3"><a xlink:href="auth__cram_8c.html#a7491dc64781290870974d803a0dc6b75" target="_top" xlink:title="produce CRAM&#45;MD5 challenge response ">
<polygon fill="white" stroke="red" points="286.5,-133.5 286.5,-152.5 351.5,-152.5 351.5,-133.5 286.5,-133.5"/>
<text text-anchor="middle" x="319" y="-140.5" font-family="Helvetica,sans-Serif" font-size="10.00">hmac_md5</text>
</a>
</g>
</g>
<!-- Node1&#45;&gt;Node3 -->
<g id="edge2" class="edge"><title>Node1&#45;&gt;Node3</title>
<path fill="none" stroke="midnightblue" d="M80.6371,-119.233C97.9498,-128.007 121.64,-138.426 144,-143 192.833,-152.989 251,-150.101 286.183,-146.786"/>
<polygon fill="midnightblue" stroke="midnightblue" points="82.208,-116.105 71.724,-114.576 78.9661,-122.309 82.208,-116.105"/>
</g>
<!-- Node4 -->
<g id="node4" class="node"><title>Node4</title>
<g id="a_node4"><a xlink:href="md5_8h.html#aef47a9009bc1952d77b4bec5c9fd42d6" target="_top" xlink:title="Calculate the MD5 hash of a buffer. ">
<polygon fill="white" stroke="red" points="152.5,-114.5 152.5,-133.5 241.5,-133.5 241.5,-114.5 152.5,-114.5"/>
<text text-anchor="middle" x="197" y="-121.5" font-family="Helvetica,sans-Serif" font-size="10.00">mutt_md5_bytes</text>
</a>
</g>
</g>
<!-- Node1&#45;&gt;Node4 -->
<g id="edge3" class="edge"><title>Node1&#45;&gt;Node4</title>
<path fill="none" stroke="midnightblue" d="M117.648,-113.442C129.315,-115.014 141.272,-116.625 152.22,-118.101"/>
<polygon fill="midnightblue" stroke="midnightblue" points="117.881,-109.942 107.503,-112.075 116.946,-116.879 117.881,-109.942"/>
</g>
<!-- Node5 -->
<g id="node5" class="node"><title>Node5</title>
<g id="a_node5"><a xlink:href="test_2md5_8c.html#aee63357ca17d4d18152bdd560306a771" target="_top" xlink:title="test_md5_ctx">
<polygon fill="white" stroke="black" points="159,-76.5 159,-95.5 235,-95.5 235,-76.5 159,-76.5"/>
<text text-anchor="middle" x="197" y="-83.5" font-family="Helvetica,sans-Serif" font-size="10.00">test_md5_ctx</text>
</a>
</g>
</g>
<!-- Node1&#45;&gt;Node5 -->
<g id="edge5" class="edge"><title>Node1&#45;&gt;Node5</title>
<path fill="none" stroke="midnightblue" d="M117.644,-96.5585C131.719,-94.6619 146.217,-92.7084 158.856,-91.0052"/>
<polygon fill="midnightblue" stroke="midnightblue" points="116.946,-93.1209 107.503,-97.9251 117.881,-100.058 116.946,-93.1209"/>
</g>
<!-- Node6 -->
<g id="node6" class="node"><title>Node6</title>
<g id="a_node6"><a xlink:href="test_2md5_8c.html#aac615915518da6de2609d5a88d0f366b" target="_top" xlink:title="test_md5_ctx_bytes">
<polygon fill="white" stroke="black" points="144.5,-38.5 144.5,-57.5 249.5,-57.5 249.5,-38.5 144.5,-38.5"/>
<text text-anchor="middle" x="197" y="-45.5" font-family="Helvetica,sans-Serif" font-size="10.00">test_md5_ctx_bytes</text>
</a>
</g>
</g>
<!-- Node1&#45;&gt;Node6 -->
<g id="edge6" class="edge"><title>Node1&#45;&gt;Node6</title>
<path fill="none" stroke="midnightblue" d="M85.9072,-91.3249C102.951,-83.905 124.543,-74.7022 144,-67 152.043,-63.8161 160.858,-60.5226 168.908,-57.59"/>
<polygon fill="midnightblue" stroke="midnightblue" points="84.2072,-88.2482 76.4483,-95.4627 87.0128,-94.6614 84.2072,-88.2482"/>
</g>
<!-- Node7 -->
<g id="node7" class="node"><title>Node7</title>
<g id="a_node7"><a xlink:href="pop__auth_8c.html#ac496f43183c4b819427046c60ce6094d" target="_top" xlink:title="APOP authenticator. ">
<polygon fill="white" stroke="black" points="155.5,-0.5 155.5,-19.5 238.5,-19.5 238.5,-0.5 155.5,-0.5"/>
<text text-anchor="middle" x="197" y="-7.5" font-family="Helvetica,sans-Serif" font-size="10.00">pop_auth_apop</text>
</a>
</g>
</g>
<!-- Node1&#45;&gt;Node7 -->
<g id="edge7" class="edge"><title>Node1&#45;&gt;Node7</title>
<path fill="none" stroke="midnightblue" d="M71.3662,-87.8197C88.2336,-70.9329 115.954,-45.3778 144,-29 150.308,-25.3164 157.454,-22.1453 164.384,-19.5072"/>
<polygon fill="midnightblue" stroke="midnightblue" points="68.5015,-85.7424 64.0037,-95.3352 73.502,-90.641 68.5015,-85.7424"/>
</g>
<!-- Node4&#45;&gt;Node3 -->
<g id="edge4" class="edge"><title>Node4&#45;&gt;Node3</title>
<path fill="none" stroke="midnightblue" d="M251.856,-132.527C263.602,-134.387 275.664,-136.297 286.219,-137.968"/>
<polygon fill="midnightblue" stroke="midnightblue" points="252.087,-129.02 241.662,-130.913 250.992,-135.934 252.087,-129.02"/>
</g>
</g>
</svg>
