<?xml version="1.0" encoding="UTF-8" standalone="no"?>
<!DOCTYPE svg PUBLIC "-//W3C//DTD SVG 1.1//EN"
 "http://www.w3.org/Graphics/SVG/1.1/DTD/svg11.dtd">
<!-- Generated by graphviz version 2.36.0 (20140111.2315)
 -->
<!-- Title: mutt_md5 Pages: 1 -->
<svg width="194pt" height="28pt"
 viewBox="0.00 0.00 194.00 28.00" xmlns="http://www.w3.org/2000/svg" xmlns:xlink="http://www.w3.org/1999/xlink">
<g id="graph0" class="graph" transform="scale(1 1) rotate(0) translate(4 24)">
<title>mutt_md5</title>
<polygon fill="white" stroke="none" points="-4,4 -4,-24 190,-24 190,4 -4,4"/>
<!-- Node1 -->
<g id="node1" class="node"><title>Node1</title>
<polygon fill="#bfbfbf" stroke="black" points="0,-0.5 0,-19.5 60,-19.5 60,-0.5 0,-0.5"/>
<text text-anchor="middle" x="30" y="-7.5" font-family="Helvetica,sans-Serif" font-size="10.00">mutt_md5</text>
</g>
<!-- Node2 -->
<g id="node2" class="node"><title>Node2</title>
<g id="a_node2"><a xlink:href="mutt_2md5_8c.html#aef47a9009bc1952d77b4bec5c9fd42d6" target="_top" xlink:title="Calculate the MD5 hash of a buffer. ">
<polygon fill="white" stroke="red" points="96.5,-0.5 96.5,-19.5 185.5,-19.5 185.5,-0.5 96.5,-0.5"/>
<text text-anchor="middle" x="141" y="-7.5" font-family="Helvetica,sans-Serif" font-size="10.00">mutt_md5_bytes</text>
</a>
</g>
</g>
<!-- Node1&#45;&gt;Node2 -->
<g id="edge1" class="edge"><title>Node1&#45;&gt;Node2</title>
<path fill="none" stroke="midnightblue" d="M60.21,-10C68.2739,-10 77.2869,-10 86.272,-10"/>
<polygon fill="midnightblue" stroke="midnightblue" points="86.3524,-13.5001 96.3524,-10 86.3524,-6.5001 86.3524,-13.5001"/>
</g>
</g>
</svg>
