<?xml version="1.0" encoding="UTF-8" standalone="no"?>
<!DOCTYPE svg PUBLIC "-//W3C//DTD SVG 1.1//EN"
 "http://www.w3.org/Graphics/SVG/1.1/DTD/svg11.dtd">
<!-- Generated by graphviz version 2.36.0 (20140111.2315)
 -->
<!-- Title: mutt_mem_calloc Pages: 1 -->
<svg width="196pt" height="28pt"
 viewBox="0.00 0.00 196.00 28.00" xmlns="http://www.w3.org/2000/svg" xmlns:xlink="http://www.w3.org/1999/xlink">
<g id="graph0" class="graph" transform="scale(1 1) rotate(0) translate(4 24)">
<title>mutt_mem_calloc</title>
<polygon fill="white" stroke="none" points="-4,4 -4,-24 192,-24 192,4 -4,4"/>
<!-- Node1 -->
<g id="node1" class="node"><title>Node1</title>
<polygon fill="#bfbfbf" stroke="black" points="0,-0.5 0,-19.5 94,-19.5 94,-0.5 0,-0.5"/>
<text text-anchor="middle" x="47" y="-7.5" font-family="Helvetica,sans-Serif" font-size="10.00">mutt_mem_calloc</text>
</g>
<!-- Node2 -->
<g id="node2" class="node"><title>Node2</title>
<g id="a_node2"><a xlink:href="main_8c.html#a65be75bf998d2462599b7d391676554c" target="_top" xlink:title="Leave NeoMutt NOW. ">
<polygon fill="white" stroke="black" points="130.5,-0.5 130.5,-19.5 187.5,-19.5 187.5,-0.5 130.5,-0.5"/>
<text text-anchor="middle" x="159" y="-7.5" font-family="Helvetica,sans-Serif" font-size="10.00">mutt_exit</text>
</a>
</g>
</g>
<!-- Node1&#45;&gt;Node2 -->
<g id="edge1" class="edge"><title>Node1&#45;&gt;Node2</title>
<path fill="none" stroke="midnightblue" d="M94.0125,-10C102.705,-10 111.706,-10 120.114,-10"/>
<polygon fill="midnightblue" stroke="midnightblue" points="120.38,-13.5001 130.38,-10 120.38,-6.5001 120.38,-13.5001"/>
</g>
</g>
</svg>
