<?xml version="1.0" encoding="UTF-8" standalone="no"?>
<!DOCTYPE svg PUBLIC "-//W3C//DTD SVG 1.1//EN"
 "http://www.w3.org/Graphics/SVG/1.1/DTD/svg11.dtd">
<!-- Generated by graphviz version 2.36.0 (20140111.2315)
 -->
<!-- Title: mutt/memory.c Pages: 1 -->
<svg width="487pt" height="84pt"
 viewBox="0.00 0.00 487.00 84.00" xmlns="http://www.w3.org/2000/svg" xmlns:xlink="http://www.w3.org/1999/xlink">
<g id="graph0" class="graph" transform="scale(1 1) rotate(0) translate(4 80)">
<title>mutt/memory.c</title>
<polygon fill="white" stroke="none" points="-4,4 -4,-80 483,-80 483,4 -4,4"/>
<!-- Node1 -->
<g id="node1" class="node"><title>Node1</title>
<polygon fill="#bfbfbf" stroke="black" points="190.5,-56.5 190.5,-75.5 273.5,-75.5 273.5,-56.5 190.5,-56.5"/>
<text text-anchor="middle" x="232" y="-63.5" font-family="Helvetica,sans-Serif" font-size="10.00">mutt/memory.c</text>
</g>
<!-- Node2 -->
<g id="node2" class="node"><title>Node2</title>
<polygon fill="white" stroke="#bfbfbf" points="-0.5,-0.5 -0.5,-19.5 50.5,-19.5 50.5,-0.5 -0.5,-0.5"/>
<text text-anchor="middle" x="25" y="-7.5" font-family="Helvetica,sans-Serif" font-size="10.00">config.h</text>
</g>
<!-- Node1&#45;&gt;Node2 -->
<g id="edge1" class="edge"><title>Node1&#45;&gt;Node2</title>
<path fill="none" stroke="midnightblue" d="M199.146,-56.4988C166.31,-47.9925 114.116,-34.4451 60.3201,-20.3393"/>
<polygon fill="midnightblue" stroke="midnightblue" points="61.1775,-16.9459 50.6166,-17.7935 59.401,-23.7167 61.1775,-16.9459"/>
</g>
<!-- Node3 -->
<g id="node3" class="node"><title>Node3</title>
<polygon fill="white" stroke="#bfbfbf" points="68.5,-0.5 68.5,-19.5 117.5,-19.5 117.5,-0.5 68.5,-0.5"/>
<text text-anchor="middle" x="93" y="-7.5" font-family="Helvetica,sans-Serif" font-size="10.00">stdint.h</text>
</g>
<!-- Node1&#45;&gt;Node3 -->
<g id="edge2" class="edge"><title>Node1&#45;&gt;Node3</title>
<path fill="none" stroke="midnightblue" d="M209.975,-56.4435C186.896,-47.4776 150.438,-33.314 124.359,-23.1827"/>
<polygon fill="midnightblue" stroke="midnightblue" points="125.511,-19.8753 114.922,-19.5164 122.976,-26.4002 125.511,-19.8753"/>
</g>
<!-- Node4 -->
<g id="node4" class="node"><title>Node4</title>
<polygon fill="white" stroke="#bfbfbf" points="136,-0.5 136,-19.5 184,-19.5 184,-0.5 136,-0.5"/>
<text text-anchor="middle" x="160" y="-7.5" font-family="Helvetica,sans-Serif" font-size="10.00">stdlib.h</text>
</g>
<!-- Node1&#45;&gt;Node4 -->
<g id="edge3" class="edge"><title>Node1&#45;&gt;Node4</title>
<path fill="none" stroke="midnightblue" d="M220.432,-56.324C209.58,-48.1849 193.119,-35.8395 180.117,-26.0874"/>
<polygon fill="midnightblue" stroke="midnightblue" points="181.879,-23.0339 171.779,-19.8339 177.679,-28.6339 181.879,-23.0339"/>
</g>
<!-- Node5 -->
<g id="node5" class="node"><title>Node5</title>
<g id="a_node5"><a xlink:href="memory_8h.html" target="_top" xlink:title="Memory management wrappers. ">
<polygon fill="white" stroke="red" points="202,-0.5 202,-19.5 262,-19.5 262,-0.5 202,-0.5"/>
<text text-anchor="middle" x="232" y="-7.5" font-family="Helvetica,sans-Serif" font-size="10.00">memory.h</text>
</a>
</g>
</g>
<!-- Node1&#45;&gt;Node5 -->
<g id="edge4" class="edge"><title>Node1&#45;&gt;Node5</title>
<path fill="none" stroke="midnightblue" d="M232,-56.083C232,-49.0059 232,-38.8611 232,-29.9865"/>
<polygon fill="midnightblue" stroke="midnightblue" points="235.5,-29.751 232,-19.7511 228.5,-29.7511 235.5,-29.751"/>
</g>
<!-- Node6 -->
<g id="node6" class="node"><title>Node6</title>
<g id="a_node6"><a xlink:href="exit_8h.html" target="_top" xlink:title="Leave the program NOW. ">
<polygon fill="white" stroke="black" points="280.5,-0.5 280.5,-19.5 321.5,-19.5 321.5,-0.5 280.5,-0.5"/>
<text text-anchor="middle" x="301" y="-7.5" font-family="Helvetica,sans-Serif" font-size="10.00">exit.h</text>
</a>
</g>
</g>
<!-- Node1&#45;&gt;Node6 -->
<g id="edge5" class="edge"><title>Node1&#45;&gt;Node6</title>
<path fill="none" stroke="midnightblue" d="M243.086,-56.324C253.486,-48.1849 269.261,-35.8395 281.722,-26.0874"/>
<polygon fill="midnightblue" stroke="midnightblue" points="283.994,-28.7533 289.712,-19.8339 279.68,-23.2407 283.994,-28.7533"/>
</g>
<!-- Node7 -->
<g id="node7" class="node"><title>Node7</title>
<g id="a_node7"><a xlink:href="logging_8h.html" target="_top" xlink:title="Logging Dispatcher. ">
<polygon fill="white" stroke="red" points="340,-0.5 340,-19.5 396,-19.5 396,-0.5 340,-0.5"/>
<text text-anchor="middle" x="368" y="-7.5" font-family="Helvetica,sans-Serif" font-size="10.00">logging.h</text>
</a>
</g>
</g>
<!-- Node1&#45;&gt;Node7 -->
<g id="edge6" class="edge"><title>Node1&#45;&gt;Node7</title>
<path fill="none" stroke="midnightblue" d="M253.55,-56.4435C276.031,-47.5171 311.488,-33.4387 336.98,-23.3168"/>
<polygon fill="midnightblue" stroke="midnightblue" points="338.549,-26.4598 346.551,-19.5164 335.965,-19.9539 338.549,-26.4598"/>
</g>
<!-- Node8 -->
<g id="node8" class="node"><title>Node8</title>
<g id="a_node8"><a xlink:href="mutt_2message_8h.html" target="_top" xlink:title="Message logging. ">
<polygon fill="white" stroke="red" points="414.5,-0.5 414.5,-19.5 479.5,-19.5 479.5,-0.5 414.5,-0.5"/>
<text text-anchor="middle" x="447" y="-7.5" font-family="Helvetica,sans-Serif" font-size="10.00">message.h</text>
</a>
</g>
</g>
<!-- Node1&#45;&gt;Node8 -->
<g id="edge7" class="edge"><title>Node1&#45;&gt;Node8</title>
<path fill="none" stroke="midnightblue" d="M266.067,-56.4435C303.617,-47.0125 364.064,-31.8305 404.638,-21.6397"/>
<polygon fill="midnightblue" stroke="midnightblue" points="405.653,-24.9936 414.499,-19.1629 403.948,-18.2044 405.653,-24.9936"/>
</g>
</g>
</svg>
