<?xml version="1.0" encoding="UTF-8" standalone="no"?>
<!DOCTYPE svg PUBLIC "-//W3C//DTD SVG 1.1//EN"
 "http://www.w3.org/Graphics/SVG/1.1/DTD/svg11.dtd">
<!-- Generated by graphviz version 2.36.0 (20140111.2315)
 -->
<!-- Title: menu_redraw_current Pages: 1 -->
<svg width="262pt" height="142pt"
 viewBox="0.00 0.00 262.00 142.00" xmlns="http://www.w3.org/2000/svg" xmlns:xlink="http://www.w3.org/1999/xlink">
<g id="graph0" class="graph" transform="scale(1 1) rotate(0) translate(4 138)">
<title>menu_redraw_current</title>
<polygon fill="white" stroke="none" points="-4,4 -4,-138 258,-138 258,4 -4,4"/>
<!-- Node1 -->
<g id="node1" class="node"><title>Node1</title>
<polygon fill="#bfbfbf" stroke="black" points="0,-57.5 0,-76.5 110,-76.5 110,-57.5 0,-57.5"/>
<text text-anchor="middle" x="55" y="-64.5" font-family="Helvetica,sans-Serif" font-size="10.00">menu_redraw_current</text>
</g>
<!-- Node2 -->
<g id="node2" class="node"><title>Node2</title>
<g id="a_node2"><a xlink:href="mutt__window_8c.html#a9d73d6b2ea4ab73d2e91b731d21089d7" target="_top" xlink:title="Move the cursor in a Window. ">
<polygon fill="white" stroke="black" points="148,-114.5 148,-133.5 252,-133.5 252,-114.5 148,-114.5"/>
<text text-anchor="middle" x="200" y="-121.5" font-family="Helvetica,sans-Serif" font-size="10.00">mutt_window_move</text>
</a>
</g>
</g>
<!-- Node1&#45;&gt;Node2 -->
<g id="edge1" class="edge"><title>Node1&#45;&gt;Node2</title>
<path fill="none" stroke="midnightblue" d="M77.6858,-76.5537C95.8302,-84.4511 122.456,-95.8175 146,-105 151.123,-106.998 156.553,-109.035 161.908,-110.998"/>
<polygon fill="midnightblue" stroke="midnightblue" points="160.79,-114.315 171.384,-114.426 163.172,-107.733 160.79,-114.315"/>
</g>
<!-- Node3 -->
<g id="node3" class="node"><title>Node3</title>
<g id="a_node3"><a xlink:href="menu_8c.html#a65c43898520f719053f623c019bebe39" target="_top" xlink:title="Create string to display in a Menu (the index) ">
<polygon fill="white" stroke="black" points="151.5,-76.5 151.5,-95.5 248.5,-95.5 248.5,-76.5 151.5,-76.5"/>
<text text-anchor="middle" x="200" y="-83.5" font-family="Helvetica,sans-Serif" font-size="10.00">menu_make_entry</text>
</a>
</g>
</g>
<!-- Node1&#45;&gt;Node3 -->
<g id="edge2" class="edge"><title>Node1&#45;&gt;Node3</title>
<path fill="none" stroke="midnightblue" d="M110.062,-74.1831C120.265,-75.5387 130.972,-76.9614 141.282,-78.3312"/>
<polygon fill="midnightblue" stroke="midnightblue" points="141.053,-81.8314 151.427,-79.6791 141.975,-74.8924 141.053,-81.8314"/>
</g>
<!-- Node4 -->
<g id="node4" class="node"><title>Node4</title>
<g id="a_node4"><a xlink:href="menu_8c.html#a817398faa8fdc8d02ddd64dc084a607a" target="_top" xlink:title="Pad a string with spaces for display in the Menu. ">
<polygon fill="white" stroke="red" points="154.5,-38.5 154.5,-57.5 245.5,-57.5 245.5,-38.5 154.5,-38.5"/>
<text text-anchor="middle" x="200" y="-45.5" font-family="Helvetica,sans-Serif" font-size="10.00">menu_pad_string</text>
</a>
</g>
</g>
<!-- Node1&#45;&gt;Node4 -->
<g id="edge3" class="edge"><title>Node1&#45;&gt;Node4</title>
<path fill="none" stroke="midnightblue" d="M110.062,-59.8169C121.204,-58.3365 132.948,-56.7761 144.119,-55.2919"/>
<polygon fill="midnightblue" stroke="midnightblue" points="144.731,-58.7414 154.183,-53.9547 143.809,-51.8024 144.731,-58.7414"/>
</g>
<!-- Node5 -->
<g id="node5" class="node"><title>Node5</title>
<g id="a_node5"><a xlink:href="menu_8c.html#ae1b762f56b55783a43fab318cf996f0e" target="_top" xlink:title="Display a string with embedded colours and graphics. ">
<polygon fill="white" stroke="red" points="146.5,-0.5 146.5,-19.5 253.5,-19.5 253.5,-0.5 146.5,-0.5"/>
<text text-anchor="middle" x="200" y="-7.5" font-family="Helvetica,sans-Serif" font-size="10.00">print_enriched_string</text>
</a>
</g>
</g>
<!-- Node1&#45;&gt;Node5 -->
<g id="edge4" class="edge"><title>Node1&#45;&gt;Node5</title>
<path fill="none" stroke="midnightblue" d="M77.6858,-57.4463C95.8302,-49.5489 122.456,-38.1825 146,-29 151.123,-27.0022 156.553,-24.965 161.908,-23.0021"/>
<polygon fill="midnightblue" stroke="midnightblue" points="163.172,-26.2672 171.384,-19.574 160.79,-19.6846 163.172,-26.2672"/>
</g>
</g>
</svg>
