<?xml version="1.0" encoding="UTF-8" standalone="no"?>
<!DOCTYPE svg PUBLIC "-//W3C//DTD SVG 1.1//EN"
 "http://www.w3.org/Graphics/SVG/1.1/DTD/svg11.dtd">
<!-- Generated by graphviz version 2.36.0 (20140111.2315)
 -->
<!-- Title: mutt_menu_listener Pages: 1 -->
<svg width="440pt" height="161pt"
 viewBox="0.00 0.00 440.00 161.01" xmlns="http://www.w3.org/2000/svg" xmlns:xlink="http://www.w3.org/1999/xlink">
<g id="graph0" class="graph" transform="scale(1 1) rotate(0) translate(4 157.01)">
<title>mutt_menu_listener</title>
<polygon fill="white" stroke="none" points="-4,4 -4,-157.01 436,-157.01 436,4 -4,4"/>
<!-- Node1 -->
<g id="node1" class="node"><title>Node1</title>
<polygon fill="#bfbfbf" stroke="black" points="0,-57.5105 0,-76.5105 102,-76.5105 102,-57.5105 0,-57.5105"/>
<text text-anchor="middle" x="51" y="-64.5105" font-family="Helvetica,sans-Serif" font-size="10.00">mutt_menu_listener</text>
</g>
<!-- Node2 -->
<g id="node2" class="node"><title>Node2</title>
<g id="a_node2"><a xlink:href="menu_8c.html#afbd7a1cbb5183ed9ddfc0cc4f0195c7b" target="_top" xlink:title="Flag a menu to be fully redrawn. ">
<polygon fill="white" stroke="black" points="138.5,-133.51 138.5,-152.51 275.5,-152.51 275.5,-133.51 138.5,-133.51"/>
<text text-anchor="middle" x="207" y="-140.51" font-family="Helvetica,sans-Serif" font-size="10.00">mutt_menu_set_redraw_full</text>
</a>
</g>
</g>
<!-- Node1&#45;&gt;Node2 -->
<g id="edge1" class="edge"><title>Node1&#45;&gt;Node2</title>
<path fill="none" stroke="midnightblue" d="M65.8098,-76.5795C82.4013,-87.7837 111.342,-106.409 138,-119.01 146.561,-123.057 156,-126.808 165.05,-130.084"/>
<polygon fill="midnightblue" stroke="midnightblue" points="164.063,-133.447 174.658,-133.445 166.374,-126.839 164.063,-133.447"/>
</g>
<!-- Node3 -->
<g id="node3" class="node"><title>Node3</title>
<g id="a_node3"><a xlink:href="menu_8c.html#adea2310d0ce202d0e2e3170b434c0ecc" target="_top" xlink:title="Flag the current menu to be fully redrawn. ">
<polygon fill="white" stroke="red" points="312.5,-90.0105 312.5,-120.01 431.5,-120.01 431.5,-90.0105 312.5,-90.0105"/>
<text text-anchor="start" x="320.5" y="-108.01" font-family="Helvetica,sans-Serif" font-size="10.00">mutt_menu_set_current</text>
<text text-anchor="middle" x="372" y="-97.0105" font-family="Helvetica,sans-Serif" font-size="10.00">_redraw_full</text>
</a>
</g>
</g>
<!-- Node1&#45;&gt;Node3 -->
<g id="edge9" class="edge"><title>Node1&#45;&gt;Node3</title>
<path fill="none" stroke="midnightblue" d="M89.8943,-76.5492C104.803,-79.995 122.124,-83.6207 138,-86.0105 192.848,-94.2664 255.538,-99.1224 302.066,-101.856"/>
<polygon fill="midnightblue" stroke="midnightblue" points="302.153,-105.366 312.335,-102.44 302.55,-98.3774 302.153,-105.366"/>
</g>
<!-- Node4 -->
<g id="node4" class="node"><title>Node4</title>
<g id="a_node4"><a xlink:href="menu_8c.html#a5c806dcd4831ff4f33a086361691ecc7" target="_top" xlink:title="Set redraw flags on a menu. ">
<polygon fill="white" stroke="black" points="147.5,-19.5105 147.5,-38.5105 266.5,-38.5105 266.5,-19.5105 147.5,-19.5105"/>
<text text-anchor="middle" x="207" y="-26.5105" font-family="Helvetica,sans-Serif" font-size="10.00">mutt_menu_set_redraw</text>
</a>
</g>
</g>
<!-- Node1&#45;&gt;Node4 -->
<g id="edge3" class="edge"><title>Node1&#45;&gt;Node4</title>
<path fill="none" stroke="midnightblue" d="M90.8607,-57.4215C111.091,-52.4296 136.021,-46.2781 157.504,-40.9771"/>
<polygon fill="midnightblue" stroke="midnightblue" points="158.548,-44.3244 167.419,-38.5305 156.871,-37.5282 158.548,-44.3244"/>
</g>
<!-- Node5 -->
<g id="node5" class="node"><title>Node5</title>
<g id="a_node5"><a xlink:href="menu_8c.html#ac7c599cfeb401ad9750c8827c2d6daa4" target="_top" xlink:title="Set redraw flags on the current menu. ">
<polygon fill="white" stroke="red" points="312.5,-14.0105 312.5,-44.0105 431.5,-44.0105 431.5,-14.0105 312.5,-14.0105"/>
<text text-anchor="start" x="320.5" y="-32.0105" font-family="Helvetica,sans-Serif" font-size="10.00">mutt_menu_set_current</text>
<text text-anchor="middle" x="372" y="-21.0105" font-family="Helvetica,sans-Serif" font-size="10.00">_redraw</text>
</a>
</g>
</g>
<!-- Node1&#45;&gt;Node5 -->
<g id="edge8" class="edge"><title>Node1&#45;&gt;Node5</title>
<path fill="none" stroke="midnightblue" d="M62.0759,-57.3817C77.1532,-43.7133 107.129,-19.3122 138,-10.0105 194.233,6.93306 261.342,-1.34938 309.063,-11.753"/>
<polygon fill="midnightblue" stroke="midnightblue" points="308.414,-15.1948 318.941,-13.9969 309.965,-8.36865 308.414,-15.1948"/>
</g>
<!-- Node6 -->
<g id="node6" class="node"><title>Node6</title>
<g id="a_node6"><a xlink:href="mutt__window_8c.html#aeff3b6bc4a89ec53751b8a8ed3704533" target="_top" xlink:title="Resize the Windows to fit the screen. ">
<polygon fill="white" stroke="black" points="154,-57.5105 154,-76.5105 260,-76.5105 260,-57.5105 154,-57.5105"/>
<text text-anchor="middle" x="207" y="-64.5105" font-family="Helvetica,sans-Serif" font-size="10.00">mutt_window_reflow</text>
</a>
</g>
</g>
<!-- Node1&#45;&gt;Node6 -->
<g id="edge5" class="edge"><title>Node1&#45;&gt;Node6</title>
<path fill="none" stroke="midnightblue" d="M102.425,-67.0105C115.567,-67.0105 129.886,-67.0105 143.568,-67.0105"/>
<polygon fill="midnightblue" stroke="midnightblue" points="143.876,-70.5106 153.876,-67.0105 143.876,-63.5106 143.876,-70.5106"/>
</g>
<!-- Node2&#45;&gt;Node3 -->
<g id="edge2" class="edge"><title>Node2&#45;&gt;Node3</title>
<path fill="none" stroke="midnightblue" d="M249.132,-133.421C265.286,-129.656 284.27,-125.23 302.383,-121.007"/>
<polygon fill="midnightblue" stroke="midnightblue" points="303.389,-124.366 312.333,-118.687 301.8,-117.549 303.389,-124.366"/>
</g>
<!-- Node4&#45;&gt;Node5 -->
<g id="edge4" class="edge"><title>Node4&#45;&gt;Node5</title>
<path fill="none" stroke="midnightblue" d="M266.847,-29.0105C278.273,-29.0105 290.344,-29.0105 302.06,-29.0105"/>
<polygon fill="midnightblue" stroke="midnightblue" points="302.24,-32.5106 312.24,-29.0105 302.24,-25.5106 302.24,-32.5106"/>
</g>
<!-- Node6&#45;&gt;Node3 -->
<g id="edge6" class="edge"><title>Node6&#45;&gt;Node3</title>
<path fill="none" stroke="midnightblue" d="M249.132,-76.5995C265.286,-80.3654 284.27,-84.7912 302.383,-89.014"/>
<polygon fill="midnightblue" stroke="midnightblue" points="301.8,-92.4717 312.333,-91.3336 303.389,-85.6545 301.8,-92.4717"/>
</g>
<!-- Node6&#45;&gt;Node5 -->
<g id="edge7" class="edge"><title>Node6&#45;&gt;Node5</title>
<path fill="none" stroke="midnightblue" d="M249.132,-57.4215C265.286,-53.6556 284.27,-49.2298 302.383,-45.007"/>
<polygon fill="midnightblue" stroke="midnightblue" points="303.389,-48.3665 312.333,-42.6874 301.8,-41.5493 303.389,-48.3665"/>
</g>
</g>
</svg>
