<?xml version="1.0" encoding="UTF-8" standalone="no"?>
<!DOCTYPE svg PUBLIC "-//W3C//DTD SVG 1.1//EN"
 "http://www.w3.org/Graphics/SVG/1.1/DTD/svg11.dtd">
<!-- Generated by graphviz version 2.36.0 (20140111.2315)
 -->
<!-- Title: menu_redraw_status Pages: 1 -->
<svg width="242pt" height="66pt"
 viewBox="0.00 0.00 242.00 66.00" xmlns="http://www.w3.org/2000/svg" xmlns:xlink="http://www.w3.org/1999/xlink">
<g id="graph0" class="graph" transform="scale(1 1) rotate(0) translate(4 62)">
<title>menu_redraw_status</title>
<polygon fill="white" stroke="none" points="-4,4 -4,-62 238,-62 238,4 -4,4"/>
<!-- Node1 -->
<g id="node1" class="node"><title>Node1</title>
<polygon fill="#bfbfbf" stroke="black" points="0.5,-19.5 0.5,-38.5 107.5,-38.5 107.5,-19.5 0.5,-19.5"/>
<text text-anchor="middle" x="54" y="-26.5" font-family="Helvetica,sans-Serif" font-size="10.00">menu_redraw_status</text>
</g>
<!-- Node2 -->
<g id="node2" class="node"><title>Node2</title>
<g id="a_node2"><a xlink:href="menu_8h.html#a3da31793ff9ae935dccab75ae653a064" target="_top" xlink:title="Redraw the parts of the screen that have been flagged to be redrawn. ">
<polygon fill="white" stroke="red" points="151.5,-38.5 151.5,-57.5 226.5,-57.5 226.5,-38.5 151.5,-38.5"/>
<text text-anchor="middle" x="189" y="-45.5" font-family="Helvetica,sans-Serif" font-size="10.00">menu_redraw</text>
</a>
</g>
</g>
<!-- Node1&#45;&gt;Node2 -->
<g id="edge1" class="edge"><title>Node1&#45;&gt;Node2</title>
<path fill="none" stroke="midnightblue" d="M117.645,-37.9492C129.2,-39.6 140.912,-41.2731 151.377,-42.7681"/>
<polygon fill="midnightblue" stroke="midnightblue" points="117.96,-34.4588 107.565,-36.5093 116.97,-41.3884 117.96,-34.4588"/>
</g>
<!-- Node3 -->
<g id="node3" class="node"><title>Node3</title>
<g id="a_node3"><a xlink:href="remailer_8c.html#ae49669c6093d966d252f42e356fd9346" target="_top" xlink:title="Create a Mixmaster chain. ">
<polygon fill="white" stroke="red" points="144,-0.5 144,-19.5 234,-19.5 234,-0.5 144,-0.5"/>
<text text-anchor="middle" x="189" y="-7.5" font-family="Helvetica,sans-Serif" font-size="10.00">mix_make_chain</text>
</a>
</g>
</g>
<!-- Node1&#45;&gt;Node3 -->
<g id="edge2" class="edge"><title>Node1&#45;&gt;Node3</title>
<path fill="none" stroke="midnightblue" d="M117.561,-20.0626C126.482,-18.7884 135.496,-17.5005 143.961,-16.2913"/>
<polygon fill="midnightblue" stroke="midnightblue" points="116.97,-16.6116 107.565,-21.4907 117.96,-23.5412 116.97,-16.6116"/>
</g>
</g>
</svg>
