<?xml version="1.0" encoding="UTF-8" standalone="no"?>
<!DOCTYPE svg PUBLIC "-//W3C//DTD SVG 1.1//EN"
 "http://www.w3.org/Graphics/SVG/1.1/DTD/svg11.dtd">
<!-- Generated by graphviz version 2.36.0 (20140111.2315)
 -->
<!-- Title: menu_redraw_index Pages: 1 -->
<svg width="404pt" height="180pt"
 viewBox="0.00 0.00 404.00 180.00" xmlns="http://www.w3.org/2000/svg" xmlns:xlink="http://www.w3.org/1999/xlink">
<g id="graph0" class="graph" transform="scale(1 1) rotate(0) translate(4 176)">
<title>menu_redraw_index</title>
<polygon fill="white" stroke="none" points="-4,4 -4,-176 400,-176 400,4 -4,4"/>
<!-- Node1 -->
<g id="node1" class="node"><title>Node1</title>
<polygon fill="#bfbfbf" stroke="black" points="0,-76.5 0,-95.5 104,-95.5 104,-76.5 0,-76.5"/>
<text text-anchor="middle" x="52" y="-83.5" font-family="Helvetica,sans-Serif" font-size="10.00">menu_redraw_index</text>
</g>
<!-- Node2 -->
<g id="node2" class="node"><title>Node2</title>
<g id="a_node2"><a xlink:href="menu_8c.html#a65c43898520f719053f623c019bebe39" target="_top" xlink:title="Create string to display in a Menu (the index) ">
<polygon fill="white" stroke="black" points="149.5,-152.5 149.5,-171.5 246.5,-171.5 246.5,-152.5 149.5,-152.5"/>
<text text-anchor="middle" x="198" y="-159.5" font-family="Helvetica,sans-Serif" font-size="10.00">menu_make_entry</text>
</a>
</g>
</g>
<!-- Node1&#45;&gt;Node2 -->
<g id="edge1" class="edge"><title>Node1&#45;&gt;Node2</title>
<path fill="none" stroke="midnightblue" d="M65.3558,-95.5839C81.6915,-107.896 111.72,-129.309 140,-143 144.404,-145.132 149.108,-147.121 153.853,-148.947"/>
<polygon fill="midnightblue" stroke="midnightblue" points="152.977,-152.352 163.571,-152.461 155.357,-145.769 152.977,-152.352"/>
</g>
<!-- Node3 -->
<g id="node3" class="node"><title>Node3</title>
<g id="a_node3"><a xlink:href="menu_8c.html#a817398faa8fdc8d02ddd64dc084a607a" target="_top" xlink:title="Pad a string with spaces for display in the Menu. ">
<polygon fill="white" stroke="red" points="152.5,-114.5 152.5,-133.5 243.5,-133.5 243.5,-114.5 152.5,-114.5"/>
<text text-anchor="middle" x="198" y="-121.5" font-family="Helvetica,sans-Serif" font-size="10.00">menu_pad_string</text>
</a>
</g>
</g>
<!-- Node1&#45;&gt;Node3 -->
<g id="edge2" class="edge"><title>Node1&#45;&gt;Node3</title>
<path fill="none" stroke="midnightblue" d="M89.3373,-95.589C108.083,-100.536 131.143,-106.621 151.107,-111.889"/>
<polygon fill="midnightblue" stroke="midnightblue" points="150.362,-115.312 160.924,-114.48 152.148,-108.544 150.362,-115.312"/>
</g>
<!-- Node4 -->
<g id="node4" class="node"><title>Node4</title>
<g id="a_node4"><a xlink:href="mutt__window_8c.html#a9d73d6b2ea4ab73d2e91b731d21089d7" target="_top" xlink:title="Move the cursor in a Window. ">
<polygon fill="white" stroke="black" points="292,-38.5 292,-57.5 396,-57.5 396,-38.5 292,-38.5"/>
<text text-anchor="middle" x="344" y="-45.5" font-family="Helvetica,sans-Serif" font-size="10.00">mutt_window_move</text>
</a>
</g>
</g>
<!-- Node1&#45;&gt;Node4 -->
<g id="edge3" class="edge"><title>Node1&#45;&gt;Node4</title>
<path fill="none" stroke="midnightblue" d="M104.102,-82.9454C145.281,-80.069 204.583,-74.9903 256,-67 268.412,-65.0711 281.71,-62.4527 294.079,-59.7767"/>
<polygon fill="midnightblue" stroke="midnightblue" points="295.207,-63.1117 304.212,-57.5293 293.692,-56.2778 295.207,-63.1117"/>
</g>
<!-- Node5 -->
<g id="node5" class="node"><title>Node5</title>
<g id="a_node5"><a xlink:href="menu_8c.html#ae1b762f56b55783a43fab318cf996f0e" target="_top" xlink:title="Display a string with embedded colours and graphics. ">
<polygon fill="white" stroke="red" points="144.5,-38.5 144.5,-57.5 251.5,-57.5 251.5,-38.5 144.5,-38.5"/>
<text text-anchor="middle" x="198" y="-45.5" font-family="Helvetica,sans-Serif" font-size="10.00">print_enriched_string</text>
</a>
</g>
</g>
<!-- Node1&#45;&gt;Node5 -->
<g id="edge4" class="edge"><title>Node1&#45;&gt;Node5</title>
<path fill="none" stroke="midnightblue" d="M89.3373,-76.411C108.083,-71.4642 131.143,-65.3789 151.107,-60.1108"/>
<polygon fill="midnightblue" stroke="midnightblue" points="152.148,-63.4558 160.924,-57.5201 150.362,-56.6875 152.148,-63.4558"/>
</g>
<!-- Node6 -->
<g id="node6" class="node"><title>Node6</title>
<g id="a_node6"><a xlink:href="mutt__window_8c.html#adb0d282e3a7b3cf644485c1aab14774f" target="_top" xlink:title="Clear a row of a Window. ">
<polygon fill="white" stroke="red" points="140,-0.5 140,-19.5 256,-19.5 256,-0.5 140,-0.5"/>
<text text-anchor="middle" x="198" y="-7.5" font-family="Helvetica,sans-Serif" font-size="10.00">mutt_window_clearline</text>
</a>
</g>
</g>
<!-- Node1&#45;&gt;Node6 -->
<g id="edge5" class="edge"><title>Node1&#45;&gt;Node6</title>
<path fill="none" stroke="midnightblue" d="M65.3558,-76.4161C81.6915,-64.1035 111.72,-42.6912 140,-29 144.404,-26.8679 149.108,-24.8793 153.853,-23.0531"/>
<polygon fill="midnightblue" stroke="midnightblue" points="155.357,-26.231 163.571,-19.5388 152.977,-19.6482 155.357,-26.231"/>
</g>
<!-- Node6&#45;&gt;Node4 -->
<g id="edge6" class="edge"><title>Node6&#45;&gt;Node4</title>
<path fill="none" stroke="midnightblue" d="M235.337,-19.589C254.083,-24.5358 277.143,-30.6211 297.107,-35.8892"/>
<polygon fill="midnightblue" stroke="midnightblue" points="296.362,-39.3125 306.924,-38.4799 298.148,-32.5442 296.362,-39.3125"/>
</g>
</g>
</svg>
