<?xml version="1.0" encoding="UTF-8" standalone="no"?>
<!DOCTYPE svg PUBLIC "-//W3C//DTD SVG 1.1//EN"
 "http://www.w3.org/Graphics/SVG/1.1/DTD/svg11.dtd">
<!-- Generated by graphviz version 2.36.0 (20140111.2315)
 -->
<!-- Title: menu_redraw_full Pages: 1 -->
<svg width="244pt" height="142pt"
 viewBox="0.00 0.00 244.00 142.00" xmlns="http://www.w3.org/2000/svg" xmlns:xlink="http://www.w3.org/1999/xlink">
<g id="graph0" class="graph" transform="scale(1 1) rotate(0) translate(4 138)">
<title>menu_redraw_full</title>
<polygon fill="white" stroke="none" points="-4,4 -4,-138 240,-138 240,4 -4,4"/>
<!-- Node1 -->
<g id="node1" class="node"><title>Node1</title>
<polygon fill="#bfbfbf" stroke="black" points="0.5,-57.5 0.5,-76.5 93.5,-76.5 93.5,-57.5 0.5,-57.5"/>
<text text-anchor="middle" x="47" y="-64.5" font-family="Helvetica,sans-Serif" font-size="10.00">menu_redraw_full</text>
</g>
<!-- Node2 -->
<g id="node2" class="node"><title>Node2</title>
<g id="a_node2"><a xlink:href="mutt__window_8c.html#aeff3b6bc4a89ec53751b8a8ed3704533" target="_top" xlink:title="Resize the Windows to fit the screen. ">
<polygon fill="white" stroke="red" points="130,-114.5 130,-133.5 236,-133.5 236,-114.5 130,-114.5"/>
<text text-anchor="middle" x="183" y="-121.5" font-family="Helvetica,sans-Serif" font-size="10.00">mutt_window_reflow</text>
</a>
</g>
</g>
<!-- Node1&#45;&gt;Node2 -->
<g id="edge1" class="edge"><title>Node1&#45;&gt;Node2</title>
<path fill="none" stroke="midnightblue" d="M67.3472,-76.5236C83.8365,-84.5052 108.251,-96.0056 130,-105 134.817,-106.992 139.927,-108.993 144.989,-110.909"/>
<polygon fill="midnightblue" stroke="midnightblue" points="143.984,-114.269 154.577,-114.466 146.419,-107.706 143.984,-114.269"/>
</g>
<!-- Node3 -->
<g id="node3" class="node"><title>Node3</title>
<g id="a_node3"><a xlink:href="mutt__window_8c.html#a9d73d6b2ea4ab73d2e91b731d21089d7" target="_top" xlink:title="Move the cursor in a Window. ">
<polygon fill="white" stroke="black" points="131,-76.5 131,-95.5 235,-95.5 235,-76.5 131,-76.5"/>
<text text-anchor="middle" x="183" y="-83.5" font-family="Helvetica,sans-Serif" font-size="10.00">mutt_window_move</text>
</a>
</g>
</g>
<!-- Node1&#45;&gt;Node3 -->
<g id="edge2" class="edge"><title>Node1&#45;&gt;Node3</title>
<path fill="none" stroke="midnightblue" d="M93.7404,-73.4856C102.444,-74.7197 111.682,-76.0295 120.776,-77.319"/>
<polygon fill="midnightblue" stroke="midnightblue" points="120.555,-80.8226 130.948,-78.7612 121.538,-73.8919 120.555,-80.8226"/>
</g>
<!-- Node4 -->
<g id="node4" class="node"><title>Node4</title>
<g id="a_node4"><a xlink:href="curs__lib_8c.html#a9ddbbb84e0af40f07c588a0c35e18d91" target="_top" xlink:title="Display a string on screen, padded if necessary. ">
<polygon fill="white" stroke="red" points="146,-38.5 146,-57.5 220,-57.5 220,-38.5 146,-38.5"/>
<text text-anchor="middle" x="183" y="-45.5" font-family="Helvetica,sans-Serif" font-size="10.00">mutt_paddstr</text>
</a>
</g>
</g>
<!-- Node1&#45;&gt;Node4 -->
<g id="edge3" class="edge"><title>Node1&#45;&gt;Node4</title>
<path fill="none" stroke="midnightblue" d="M93.7404,-60.5144C107.274,-58.5955 122.098,-56.4935 135.669,-54.5693"/>
<polygon fill="midnightblue" stroke="midnightblue" points="136.35,-58.0078 145.76,-53.1385 135.367,-51.0772 136.35,-58.0078"/>
</g>
<!-- Node5 -->
<g id="node5" class="node"><title>Node5</title>
<g id="a_node5"><a xlink:href="curs__lib_8c.html#ab4e979afe8e495a35d45bf1bf22f7eed" target="_top" xlink:title="Show the user an error message. ">
<polygon fill="white" stroke="red" points="138.5,-0.5 138.5,-19.5 227.5,-19.5 227.5,-0.5 138.5,-0.5"/>
<text text-anchor="middle" x="183" y="-7.5" font-family="Helvetica,sans-Serif" font-size="10.00">mutt_show_error</text>
</a>
</g>
</g>
<!-- Node1&#45;&gt;Node5 -->
<g id="edge4" class="edge"><title>Node1&#45;&gt;Node5</title>
<path fill="none" stroke="midnightblue" d="M67.3472,-57.4764C83.8365,-49.4948 108.251,-37.9944 130,-29 134.817,-27.0079 139.927,-25.0071 144.989,-23.0907"/>
<polygon fill="midnightblue" stroke="midnightblue" points="146.419,-26.2937 154.577,-19.5339 143.984,-19.7307 146.419,-26.2937"/>
</g>
</g>
</svg>
