<?xml version="1.0" encoding="UTF-8" standalone="no"?>
<!DOCTYPE svg PUBLIC "-//W3C//DTD SVG 1.1//EN"
 "http://www.w3.org/Graphics/SVG/1.1/DTD/svg11.dtd">
<!-- Generated by graphviz version 2.36.0 (20140111.2315)
 -->
<!-- Title: menu.c Pages: 1 -->
<svg width="1434pt" height="196pt"
 viewBox="0.00 0.00 1434.49 196.00" xmlns="http://www.w3.org/2000/svg" xmlns:xlink="http://www.w3.org/1999/xlink">
<g id="graph0" class="graph" transform="scale(1 1) rotate(0) translate(4 192)">
<title>menu.c</title>
<polygon fill="white" stroke="none" points="-4,4 -4,-192 1430.49,-192 1430.49,4 -4,4"/>
<!-- Node1 -->
<g id="node1" class="node"><title>Node1</title>
<polygon fill="#bfbfbf" stroke="black" points="676.5,-168.5 676.5,-187.5 725.5,-187.5 725.5,-168.5 676.5,-168.5"/>
<text text-anchor="middle" x="701" y="-175.5" font-family="Helvetica,sans-Serif" font-size="10.00">menu.c</text>
</g>
<!-- Node2 -->
<g id="node2" class="node"><title>Node2</title>
<polygon fill="white" stroke="#bfbfbf" points="-0.5,-112.5 -0.5,-131.5 50.5,-131.5 50.5,-112.5 -0.5,-112.5"/>
<text text-anchor="middle" x="25" y="-119.5" font-family="Helvetica,sans-Serif" font-size="10.00">config.h</text>
</g>
<!-- Node1&#45;&gt;Node2 -->
<g id="edge1" class="edge"><title>Node1&#45;&gt;Node2</title>
<path fill="none" stroke="midnightblue" d="M676.3,-176.589C591.029,-174.886 301.28,-166.738 65,-132 63.5475,-131.786 62.0694,-131.549 60.5793,-131.293"/>
<polygon fill="midnightblue" stroke="midnightblue" points="61.1966,-127.847 50.7139,-129.385 59.8674,-134.72 61.1966,-127.847"/>
</g>
<!-- Node3 -->
<g id="node3" class="node"><title>Node3</title>
<polygon fill="white" stroke="#bfbfbf" points="609.5,-0.5 609.5,-19.5 658.5,-19.5 658.5,-0.5 609.5,-0.5"/>
<text text-anchor="middle" x="634" y="-7.5" font-family="Helvetica,sans-Serif" font-size="10.00">regex.h</text>
</g>
<!-- Node1&#45;&gt;Node3 -->
<g id="edge2" class="edge"><title>Node1&#45;&gt;Node3</title>
<path fill="none" stroke="midnightblue" d="M676.378,-173.443C647.463,-168.289 599.124,-156.538 565,-132 539.741,-113.837 532.838,-105.515 523,-76 520.189,-67.5673 518.034,-63.3722 523,-56 539.848,-30.9898 573.228,-19.8747 599.003,-14.9378"/>
<polygon fill="midnightblue" stroke="midnightblue" points="599.88,-18.3396 609.161,-13.2289 598.719,-11.4366 599.88,-18.3396"/>
</g>
<!-- Node4 -->
<g id="node4" class="node"><title>Node4</title>
<polygon fill="white" stroke="#bfbfbf" points="990,-0.5 990,-19.5 1046,-19.5 1046,-0.5 990,-0.5"/>
<text text-anchor="middle" x="1018" y="-7.5" font-family="Helvetica,sans-Serif" font-size="10.00">stdbool.h</text>
</g>
<!-- Node1&#45;&gt;Node4 -->
<g id="edge3" class="edge"><title>Node1&#45;&gt;Node4</title>
<path fill="none" stroke="midnightblue" d="M725.611,-176.366C847.672,-173.105 1383.18,-157.386 1407,-132 1509.89,-22.3403 1173.56,-11.3683 1056.6,-10.7991"/>
<polygon fill="midnightblue" stroke="midnightblue" points="1056.32,-7.29849 1046.31,-10.7735 1056.3,-14.2985 1056.32,-7.29849"/>
</g>
<!-- Node5 -->
<g id="node5" class="node"><title>Node5</title>
<polygon fill="white" stroke="#bfbfbf" points="1140,-56.5 1140,-75.5 1186,-75.5 1186,-56.5 1140,-56.5"/>
<text text-anchor="middle" x="1163" y="-63.5" font-family="Helvetica,sans-Serif" font-size="10.00">stdio.h</text>
</g>
<!-- Node1&#45;&gt;Node5 -->
<g id="edge4" class="edge"><title>Node1&#45;&gt;Node5</title>
<path fill="none" stroke="midnightblue" d="M725.857,-177.096C784.112,-176.621 933.349,-171.321 1050,-132 1059.48,-128.806 1109.72,-99.0477 1139.93,-80.9221"/>
<polygon fill="midnightblue" stroke="midnightblue" points="1141.82,-83.8648 1148.59,-75.7126 1138.22,-77.8656 1141.82,-83.8648"/>
</g>
<!-- Node6 -->
<g id="node6" class="node"><title>Node6</title>
<polygon fill="white" stroke="#bfbfbf" points="246.5,-112.5 246.5,-131.5 295.5,-131.5 295.5,-112.5 246.5,-112.5"/>
<text text-anchor="middle" x="271" y="-119.5" font-family="Helvetica,sans-Serif" font-size="10.00">string.h</text>
</g>
<!-- Node1&#45;&gt;Node6 -->
<g id="edge5" class="edge"><title>Node1&#45;&gt;Node6</title>
<path fill="none" stroke="midnightblue" d="M676.178,-175.514C614.797,-171.561 450.896,-159.297 305.745,-132.093"/>
<polygon fill="midnightblue" stroke="midnightblue" points="306.249,-128.626 295.771,-130.194 304.94,-135.502 306.249,-128.626"/>
</g>
<!-- Node7 -->
<g id="node7" class="node"><title>Node7</title>
<polygon fill="white" stroke="#bfbfbf" points="313.5,-112.5 313.5,-131.5 364.5,-131.5 364.5,-112.5 313.5,-112.5"/>
<text text-anchor="middle" x="339" y="-119.5" font-family="Helvetica,sans-Serif" font-size="10.00">wchar.h</text>
</g>
<!-- Node1&#45;&gt;Node7 -->
<g id="edge6" class="edge"><title>Node1&#45;&gt;Node7</title>
<path fill="none" stroke="midnightblue" d="M676.247,-174.247C622.115,-168.071 489.233,-152.069 379,-132 377.556,-131.737 376.084,-131.458 374.6,-131.167"/>
<polygon fill="midnightblue" stroke="midnightblue" points="375.26,-127.73 364.757,-129.123 373.836,-134.583 375.26,-127.73"/>
</g>
<!-- Node8 -->
<g id="node8" class="node"><title>Node8</title>
<g id="a_node8"><a xlink:href="mutt_2mutt_8h.html" target="_top" xlink:title="Convenience wrapper for the library headers. ">
<polygon fill="white" stroke="red" points="210.5,-0.5 210.5,-19.5 277.5,-19.5 277.5,-0.5 210.5,-0.5"/>
<text text-anchor="middle" x="244" y="-7.5" font-family="Helvetica,sans-Serif" font-size="10.00">mutt/mutt.h</text>
</a>
</g>
</g>
<!-- Node1&#45;&gt;Node8 -->
<g id="edge7" class="edge"><title>Node1&#45;&gt;Node8</title>
<path fill="none" stroke="midnightblue" d="M676.379,-176.988C571.395,-176.686 164.791,-172.87 127,-132 112.868,-116.717 121.036,-79.6094 141,-56 156.12,-38.1196 179.696,-27.1145 200.478,-20.4678"/>
<polygon fill="midnightblue" stroke="midnightblue" points="201.498,-23.8162 210.097,-17.6279 199.516,-17.1027 201.498,-23.8162"/>
</g>
<!-- Node9 -->
<g id="node9" class="node"><title>Node9</title>
<g id="a_node9"><a xlink:href="email_8h.html" target="_top" xlink:title="Structs that make up an email. ">
<polygon fill="white" stroke="red" points="421,-112.5 421,-131.5 495,-131.5 495,-112.5 421,-112.5"/>
<text text-anchor="middle" x="458" y="-119.5" font-family="Helvetica,sans-Serif" font-size="10.00">email/email.h</text>
</a>
</g>
</g>
<!-- Node1&#45;&gt;Node9 -->
<g id="edge8" class="edge"><title>Node1&#45;&gt;Node9</title>
<path fill="none" stroke="midnightblue" d="M676.363,-171.525C636.319,-162.626 556.441,-144.876 505.194,-133.488"/>
<polygon fill="midnightblue" stroke="midnightblue" points="505.868,-130.052 495.347,-131.299 504.35,-136.885 505.868,-130.052"/>
</g>
<!-- Node10 -->
<g id="node10" class="node"><title>Node10</title>
<g id="a_node10"><a xlink:href="mutt_8h.html" target="_top" xlink:title="Many unsorted constants and some structs. ">
<polygon fill="white" stroke="red" points="890,-56.5 890,-75.5 934,-75.5 934,-56.5 890,-56.5"/>
<text text-anchor="middle" x="912" y="-63.5" font-family="Helvetica,sans-Serif" font-size="10.00">mutt.h</text>
</a>
</g>
</g>
<!-- Node1&#45;&gt;Node10 -->
<g id="edge9" class="edge"><title>Node1&#45;&gt;Node10</title>
<path fill="none" stroke="midnightblue" d="M712.998,-168.278C734.544,-152.701 779.117,-120.898 796,-112 823.422,-97.5471 856.55,-85.1577 880.371,-77.0597"/>
<polygon fill="midnightblue" stroke="midnightblue" points="881.588,-80.3434 889.966,-73.8583 879.372,-73.7032 881.588,-80.3434"/>
</g>
<!-- Node11 -->
<g id="node11" class="node"><title>Node11</title>
<g id="a_node11"><a xlink:href="menu_8h.html" target="_top" xlink:title="GUI present the user with a selectable list. ">
<polygon fill="white" stroke="red" points="805.5,-112.5 805.5,-131.5 854.5,-131.5 854.5,-112.5 805.5,-112.5"/>
<text text-anchor="middle" x="830" y="-119.5" font-family="Helvetica,sans-Serif" font-size="10.00">menu.h</text>
</a>
</g>
</g>
<!-- Node1&#45;&gt;Node11 -->
<g id="edge12" class="edge"><title>Node1&#45;&gt;Node11</title>
<path fill="none" stroke="midnightblue" d="M721.44,-168.444C742.67,-159.557 776.099,-145.563 800.255,-135.451"/>
<polygon fill="midnightblue" stroke="midnightblue" points="801.782,-138.606 809.655,-131.516 799.079,-132.149 801.782,-138.606"/>
</g>
<!-- Node12 -->
<g id="node12" class="node"><title>Node12</title>
<g id="a_node12"><a xlink:href="color_8h.html" target="_top" xlink:title="Color and attribute parsing. ">
<polygon fill="white" stroke="black" points="589,-112.5 589,-131.5 635,-131.5 635,-112.5 589,-112.5"/>
<text text-anchor="middle" x="612" y="-119.5" font-family="Helvetica,sans-Serif" font-size="10.00">color.h</text>
</a>
</g>
</g>
<!-- Node1&#45;&gt;Node12 -->
<g id="edge16" class="edge"><title>Node1&#45;&gt;Node12</title>
<path fill="none" stroke="midnightblue" d="M686.701,-168.324C672.817,-159.9 651.508,-146.971 635.196,-137.074"/>
<polygon fill="midnightblue" stroke="midnightblue" points="636.629,-133.85 626.264,-131.655 632.998,-139.834 636.629,-133.85"/>
</g>
<!-- Node13 -->
<g id="node13" class="node"><title>Node13</title>
<g id="a_node13"><a xlink:href="commands_8h.html" target="_top" xlink:title="Manage where the email is piped to external commands. ">
<polygon fill="white" stroke="black" points="1177.5,-112.5 1177.5,-131.5 1250.5,-131.5 1250.5,-112.5 1177.5,-112.5"/>
<text text-anchor="middle" x="1214" y="-119.5" font-family="Helvetica,sans-Serif" font-size="10.00">commands.h</text>
</a>
</g>
</g>
<!-- Node1&#45;&gt;Node13 -->
<g id="edge17" class="edge"><title>Node1&#45;&gt;Node13</title>
<path fill="none" stroke="midnightblue" d="M725.851,-175.417C795.638,-170.796 999.256,-156.107 1167,-132 1167.11,-131.985 1167.21,-131.97 1167.32,-131.954"/>
<polygon fill="midnightblue" stroke="midnightblue" points="1168.04,-135.384 1177.36,-130.356 1166.94,-128.47 1168.04,-135.384"/>
</g>
<!-- Node14 -->
<g id="node14" class="node"><title>Node14</title>
<g id="a_node14"><a xlink:href="context_8h.html" target="_top" xlink:title="The &quot;currently&#45;open&quot; mailbox. ">
<polygon fill="white" stroke="red" points="1268.5,-112.5 1268.5,-131.5 1325.5,-131.5 1325.5,-112.5 1268.5,-112.5"/>
<text text-anchor="middle" x="1297" y="-119.5" font-family="Helvetica,sans-Serif" font-size="10.00">context.h</text>
</a>
</g>
</g>
<!-- Node1&#45;&gt;Node14 -->
<g id="edge20" class="edge"><title>Node1&#45;&gt;Node14</title>
<path fill="none" stroke="midnightblue" d="M725.633,-176.349C802.792,-174.029 1046.73,-164.57 1258.4,-131.828"/>
<polygon fill="midnightblue" stroke="midnightblue" points="1259.12,-135.258 1268.46,-130.251 1258.04,-128.343 1259.12,-135.258"/>
</g>
<!-- Node15 -->
<g id="node15" class="node"><title>Node15</title>
<g id="a_node15"><a xlink:href="curs__lib_8h.html" target="_top" xlink:title="GUI miscellaneous curses (window drawing) routines. ">
<polygon fill="white" stroke="red" points="911.5,-112.5 911.5,-131.5 970.5,-131.5 970.5,-112.5 911.5,-112.5"/>
<text text-anchor="middle" x="941" y="-119.5" font-family="Helvetica,sans-Serif" font-size="10.00">curs_lib.h</text>
</a>
</g>
</g>
<!-- Node1&#45;&gt;Node15 -->
<g id="edge23" class="edge"><title>Node1&#45;&gt;Node15</title>
<path fill="none" stroke="midnightblue" d="M725.78,-171.424C767.349,-162.071 851.464,-143.146 901.337,-131.924"/>
<polygon fill="midnightblue" stroke="midnightblue" points="902.145,-135.33 911.133,-129.72 900.608,-128.501 902.145,-135.33"/>
</g>
<!-- Node16 -->
<g id="node16" class="node"><title>Node16</title>
<g id="a_node16"><a xlink:href="globals_8h.html" target="_top" xlink:title="Hundreds of global variables to back the user variables. ">
<polygon fill="white" stroke="red" points="532,-56.5 532,-75.5 588,-75.5 588,-56.5 532,-56.5"/>
<text text-anchor="middle" x="560" y="-63.5" font-family="Helvetica,sans-Serif" font-size="10.00">globals.h</text>
</a>
</g>
</g>
<!-- Node1&#45;&gt;Node16 -->
<g id="edge27" class="edge"><title>Node1&#45;&gt;Node16</title>
<path fill="none" stroke="midnightblue" d="M676.12,-174.256C648.835,-169.944 605.54,-159.054 580,-132 568.233,-119.535 563.38,-100.302 561.383,-85.9867"/>
<polygon fill="midnightblue" stroke="midnightblue" points="564.838,-85.366 560.317,-75.7839 557.876,-86.0935 564.838,-85.366"/>
</g>
<!-- Node17 -->
<g id="node17" class="node"><title>Node17</title>
<g id="a_node17"><a xlink:href="keymap_8h.html" target="_top" xlink:title="Manage keymappings. ">
<polygon fill="white" stroke="red" points="150.5,-56.5 150.5,-75.5 209.5,-75.5 209.5,-56.5 150.5,-56.5"/>
<text text-anchor="middle" x="180" y="-63.5" font-family="Helvetica,sans-Serif" font-size="10.00">keymap.h</text>
</a>
</g>
</g>
<!-- Node1&#45;&gt;Node17 -->
<g id="edge30" class="edge"><title>Node1&#45;&gt;Node17</title>
<path fill="none" stroke="midnightblue" d="M676.414,-176.956C572.523,-176.517 173.136,-172.211 136,-132 121.54,-116.342 141.173,-95.5542 158.638,-81.7493"/>
<polygon fill="midnightblue" stroke="midnightblue" points="160.966,-84.3785 166.878,-75.5865 156.774,-78.7728 160.966,-84.3785"/>
</g>
<!-- Node18 -->
<g id="node18" class="node"><title>Node18</title>
<g id="a_node18"><a xlink:href="mutt__curses_8h.html" target="_top" xlink:title="Define wrapper functions around Curses/Slang. ">
<polygon fill="white" stroke="red" points="269.5,-56.5 269.5,-75.5 348.5,-75.5 348.5,-56.5 269.5,-56.5"/>
<text text-anchor="middle" x="309" y="-63.5" font-family="Helvetica,sans-Serif" font-size="10.00">mutt_curses.h</text>
</a>
</g>
</g>
<!-- Node1&#45;&gt;Node18 -->
<g id="edge32" class="edge"><title>Node1&#45;&gt;Node18</title>
<path fill="none" stroke="midnightblue" d="M676.173,-176.501C625.09,-174.756 505.191,-166.94 412,-132 394.984,-125.62 354.382,-98.503 329.539,-81.3729"/>
<polygon fill="midnightblue" stroke="midnightblue" points="331.384,-78.3933 321.172,-75.5706 327.395,-84.1454 331.384,-78.3933"/>
</g>
<!-- Node19 -->
<g id="node19" class="node"><title>Node19</title>
<g id="a_node19"><a xlink:href="mutt__logging_8h.html" target="_top" xlink:title="Mutt Logging. ">
<polygon fill="white" stroke="red" points="680,-56.5 680,-75.5 760,-75.5 760,-56.5 680,-56.5"/>
<text text-anchor="middle" x="720" y="-63.5" font-family="Helvetica,sans-Serif" font-size="10.00">mutt_logging.h</text>
</a>
</g>
</g>
<!-- Node1&#45;&gt;Node19 -->
<g id="edge35" class="edge"><title>Node1&#45;&gt;Node19</title>
<path fill="none" stroke="midnightblue" d="M702.491,-168.368C705.557,-150.617 712.63,-109.666 716.788,-85.5974"/>
<polygon fill="midnightblue" stroke="midnightblue" points="720.263,-86.0413 718.516,-75.5914 713.365,-84.8498 720.263,-86.0413"/>
</g>
<!-- Node20 -->
<g id="node20" class="node"><title>Node20</title>
<g id="a_node20"><a xlink:href="mutt__window_8h.html" target="_top" xlink:title="Window management. ">
<polygon fill="white" stroke="black" points="145.5,-112.5 145.5,-131.5 228.5,-131.5 228.5,-112.5 145.5,-112.5"/>
<text text-anchor="middle" x="187" y="-119.5" font-family="Helvetica,sans-Serif" font-size="10.00">mutt_window.h</text>
</a>
</g>
</g>
<!-- Node1&#45;&gt;Node20 -->
<g id="edge37" class="edge"><title>Node1&#45;&gt;Node20</title>
<path fill="none" stroke="midnightblue" d="M676.269,-175.314C608.14,-170.519 411.827,-155.69 238.753,-132.149"/>
<polygon fill="midnightblue" stroke="midnightblue" points="239.085,-128.662 228.701,-130.768 238.132,-135.597 239.085,-128.662"/>
</g>
<!-- Node21 -->
<g id="node21" class="node"><title>Node21</title>
<g id="a_node21"><a xlink:href="muttlib_8h.html" target="_top" xlink:title="Some miscellaneous functions. ">
<polygon fill="white" stroke="red" points="1344,-112.5 1344,-131.5 1398,-131.5 1398,-112.5 1344,-112.5"/>
<text text-anchor="middle" x="1371" y="-119.5" font-family="Helvetica,sans-Serif" font-size="10.00">muttlib.h</text>
</a>
</g>
</g>
<!-- Node1&#45;&gt;Node21 -->
<g id="edge39" class="edge"><title>Node1&#45;&gt;Node21</title>
<path fill="none" stroke="midnightblue" d="M725.606,-176.73C809.388,-175.503 1091.29,-168.833 1333.57,-131.76"/>
<polygon fill="midnightblue" stroke="midnightblue" points="1334.28,-135.192 1343.62,-130.201 1333.21,-128.275 1334.28,-135.192"/>
</g>
<!-- Node22 -->
<g id="node22" class="node"><title>Node22</title>
<g id="a_node22"><a xlink:href="opcodes_8h.html" target="_top" xlink:title="All user&#45;callable functions. ">
<polygon fill="white" stroke="black" points="1097,-112.5 1097,-131.5 1159,-131.5 1159,-112.5 1097,-112.5"/>
<text text-anchor="middle" x="1128" y="-119.5" font-family="Helvetica,sans-Serif" font-size="10.00">opcodes.h</text>
</a>
</g>
</g>
<!-- Node1&#45;&gt;Node22 -->
<g id="edge42" class="edge"><title>Node1&#45;&gt;Node22</title>
<path fill="none" stroke="midnightblue" d="M725.674,-174.785C786.565,-169.168 948.785,-153.292 1083,-132 1084.1,-131.825 1085.22,-131.643 1086.34,-131.454"/>
<polygon fill="midnightblue" stroke="midnightblue" points="1087.36,-134.827 1096.59,-129.616 1086.13,-127.937 1087.36,-134.827"/>
</g>
<!-- Node23 -->
<g id="node23" class="node"><title>Node23</title>
<g id="a_node23"><a xlink:href="options_8h.html" target="_top" xlink:title="Handling of global boolean variables. ">
<polygon fill="white" stroke="red" points="816,-56.5 816,-75.5 872,-75.5 872,-56.5 816,-56.5"/>
<text text-anchor="middle" x="844" y="-63.5" font-family="Helvetica,sans-Serif" font-size="10.00">options.h</text>
</a>
</g>
</g>
<!-- Node1&#45;&gt;Node23 -->
<g id="edge43" class="edge"><title>Node1&#45;&gt;Node23</title>
<path fill="none" stroke="midnightblue" d="M707.918,-168.198C718.681,-154.888 740.544,-129.359 763,-112 779.385,-99.3345 799.774,-88.0277 815.997,-79.9159"/>
<polygon fill="midnightblue" stroke="midnightblue" points="817.551,-83.052 825.005,-75.5229 814.483,-76.7603 817.551,-83.052"/>
</g>
<!-- Node24 -->
<g id="node24" class="node"><title>Node24</title>
<g id="a_node24"><a xlink:href="pattern_8h.html" target="_top" xlink:title="Match patterns to emails. ">
<polygon fill="white" stroke="red" points="606.5,-56.5 606.5,-75.5 661.5,-75.5 661.5,-56.5 606.5,-56.5"/>
<text text-anchor="middle" x="634" y="-63.5" font-family="Helvetica,sans-Serif" font-size="10.00">pattern.h</text>
</a>
</g>
</g>
<!-- Node1&#45;&gt;Node24 -->
<g id="edge45" class="edge"><title>Node1&#45;&gt;Node24</title>
<path fill="none" stroke="midnightblue" d="M695.743,-168.368C684.735,-150.296 659.08,-108.176 644.542,-84.3074"/>
<polygon fill="midnightblue" stroke="midnightblue" points="647.424,-82.3112 639.233,-75.5914 641.446,-85.9526 647.424,-82.3112"/>
</g>
<!-- Node25 -->
<g id="node25" class="node"><title>Node25</title>
<g id="a_node25"><a xlink:href="protos_8h.html" target="_top" xlink:title="Prototypes for many functions. ">
<polygon fill="white" stroke="red" points="989,-112.5 989,-131.5 1041,-131.5 1041,-112.5 989,-112.5"/>
<text text-anchor="middle" x="1015" y="-119.5" font-family="Helvetica,sans-Serif" font-size="10.00">protos.h</text>
</a>
</g>
</g>
<!-- Node1&#45;&gt;Node25 -->
<g id="edge48" class="edge"><title>Node1&#45;&gt;Node25</title>
<path fill="none" stroke="midnightblue" d="M725.671,-173.721C772.779,-167.307 878.955,-152.119 978.765,-131.883"/>
<polygon fill="midnightblue" stroke="midnightblue" points="979.619,-135.28 988.713,-129.844 978.214,-128.423 979.619,-135.28"/>
</g>
<!-- Node26 -->
<g id="node26" class="node"><title>Node26</title>
<g id="a_node26"><a xlink:href="sidebar_8h.html" target="_top" xlink:title="GUI display the mailboxes in a side panel. ">
<polygon fill="white" stroke="black" points="990,-56.5 990,-75.5 1046,-75.5 1046,-56.5 990,-56.5"/>
<text text-anchor="middle" x="1018" y="-63.5" font-family="Helvetica,sans-Serif" font-size="10.00">sidebar.h</text>
</a>
</g>
</g>
<!-- Node1&#45;&gt;Node26 -->
<g id="edge51" class="edge"><title>Node1&#45;&gt;Node26</title>
<path fill="none" stroke="midnightblue" d="M725.654,-171.795C757.853,-164.628 815.691,-150.48 863,-132 881.144,-124.912 884.229,-119.978 902,-112 929.244,-99.7695 960.893,-87.625 984.244,-79.0405"/>
<polygon fill="midnightblue" stroke="midnightblue" points="985.51,-82.3041 993.706,-75.5896 983.112,-75.7278 985.51,-82.3041"/>
</g>
<!-- Node10&#45;&gt;Node3 -->
<g id="edge10" class="edge"><title>Node10&#45;&gt;Node3</title>
<path fill="none" stroke="midnightblue" d="M889.689,-58.4385C886.451,-57.5698 883.149,-56.7291 880,-56 805.285,-38.6992 716.556,-23.8489 668.724,-16.3044"/>
<polygon fill="midnightblue" stroke="midnightblue" points="669.018,-12.8079 658.597,-14.7201 667.936,-19.7238 669.018,-12.8079"/>
</g>
<!-- Node10&#45;&gt;Node4 -->
<g id="edge11" class="edge"><title>Node10&#45;&gt;Node4</title>
<path fill="none" stroke="midnightblue" d="M929.031,-56.324C946.03,-47.6641 972.376,-34.2424 991.993,-24.249"/>
<polygon fill="midnightblue" stroke="midnightblue" points="993.69,-27.3125 1001.01,-19.6545 990.512,-21.0752 993.69,-27.3125"/>
</g>
<!-- Node11&#45;&gt;Node3 -->
<g id="edge13" class="edge"><title>Node11&#45;&gt;Node3</title>
<path fill="none" stroke="midnightblue" d="M823.93,-112.111C814.003,-98.2151 792.982,-71.3529 769,-56 737.96,-36.129 697.253,-24.136 668.686,-17.5872"/>
<polygon fill="midnightblue" stroke="midnightblue" points="669.268,-14.1318 658.751,-15.4163 667.774,-20.9704 669.268,-14.1318"/>
</g>
<!-- Node11&#45;&gt;Node4 -->
<g id="edge14" class="edge"><title>Node11&#45;&gt;Node4</title>
<path fill="none" stroke="midnightblue" d="M854.671,-113.665C878.113,-106.112 913.863,-93.05 942,-76 965.052,-62.0311 988.096,-41.0995 1002.66,-26.7876"/>
<polygon fill="midnightblue" stroke="midnightblue" points="1005.24,-29.1552 1009.83,-19.6039 1000.29,-24.2112 1005.24,-29.1552"/>
</g>
<!-- Node11&#45;&gt;Node5 -->
<g id="edge15" class="edge"><title>Node11&#45;&gt;Node5</title>
<path fill="none" stroke="midnightblue" d="M854.757,-116.985C913.847,-107.403 1063.16,-83.1901 1129.89,-72.369"/>
<polygon fill="midnightblue" stroke="midnightblue" points="1130.55,-75.8072 1139.87,-70.7515 1129.43,-68.8975 1130.55,-75.8072"/>
</g>
<!-- Node13&#45;&gt;Node4 -->
<g id="edge18" class="edge"><title>Node13&#45;&gt;Node4</title>
<path fill="none" stroke="midnightblue" d="M1214.04,-112.484C1213.63,-98.6183 1210.73,-71.1867 1195,-56 1157.83,-20.1216 1096.27,-11.6852 1056.43,-10.2928"/>
<polygon fill="midnightblue" stroke="midnightblue" points="1056.37,-6.79088 1046.3,-10.0737 1056.22,-13.7892 1056.37,-6.79088"/>
</g>
<!-- Node13&#45;&gt;Node5 -->
<g id="edge19" class="edge"><title>Node13&#45;&gt;Node5</title>
<path fill="none" stroke="midnightblue" d="M1205.58,-112.083C1198.15,-104.22 1187.15,-92.5688 1178.19,-83.0813"/>
<polygon fill="midnightblue" stroke="midnightblue" points="1180.68,-80.618 1171.26,-75.7511 1175.59,-85.4244 1180.68,-80.618"/>
</g>
<!-- Node14&#45;&gt;Node4 -->
<g id="edge21" class="edge"><title>Node14&#45;&gt;Node4</title>
<path fill="none" stroke="midnightblue" d="M1288.79,-112.357C1274.95,-98.3076 1245.46,-70.6185 1215,-56 1163.21,-31.1466 1097.07,-19.6765 1056.13,-14.6371"/>
<polygon fill="midnightblue" stroke="midnightblue" points="1056.38,-11.1421 1046.04,-13.4627 1055.57,-18.0952 1056.38,-11.1421"/>
</g>
<!-- Node14&#45;&gt;Node5 -->
<g id="edge22" class="edge"><title>Node14&#45;&gt;Node5</title>
<path fill="none" stroke="midnightblue" d="M1275.77,-112.444C1253.62,-103.517 1218.68,-89.4387 1193.56,-79.3168"/>
<polygon fill="midnightblue" stroke="midnightblue" points="1194.72,-76.0079 1184.13,-75.5164 1192.1,-82.5006 1194.72,-76.0079"/>
</g>
<!-- Node15&#45;&gt;Node4 -->
<g id="edge24" class="edge"><title>Node15&#45;&gt;Node4</title>
<path fill="none" stroke="midnightblue" d="M970.527,-113.294C1000.64,-104.768 1044.28,-90.331 1054,-76 1065,-59.7851 1050.27,-39.9322 1036.48,-26.4649"/>
<polygon fill="midnightblue" stroke="midnightblue" points="1038.82,-23.8655 1029.08,-19.7036 1034.1,-29.0331 1038.82,-23.8655"/>
</g>
<!-- Node15&#45;&gt;Node5 -->
<g id="edge25" class="edge"><title>Node15&#45;&gt;Node5</title>
<path fill="none" stroke="midnightblue" d="M970.94,-113.717C1012.38,-103.638 1086.96,-85.4965 1129.97,-75.0334"/>
<polygon fill="midnightblue" stroke="midnightblue" points="1131.04,-78.3751 1139.93,-72.6107 1129.39,-71.5735 1131.04,-78.3751"/>
</g>
<!-- Node15&#45;&gt;Node10 -->
<g id="edge26" class="edge"><title>Node15&#45;&gt;Node10</title>
<path fill="none" stroke="midnightblue" d="M936.211,-112.083C932.242,-104.691 926.475,-93.9533 921.565,-84.8111"/>
<polygon fill="midnightblue" stroke="midnightblue" points="924.514,-82.9051 916.7,-75.7511 918.347,-86.217 924.514,-82.9051"/>
</g>
<!-- Node16&#45;&gt;Node4 -->
<g id="edge28" class="edge"><title>Node16&#45;&gt;Node4</title>
<path fill="none" stroke="midnightblue" d="M588.201,-57.7337C591.161,-57.093 594.134,-56.4994 597,-56 736.939,-31.6114 905.504,-18.401 979.736,-13.3899"/>
<polygon fill="midnightblue" stroke="midnightblue" points="980.243,-16.8641 989.989,-12.7097 979.779,-9.87943 980.243,-16.8641"/>
</g>
<!-- Node16&#45;&gt;Node8 -->
<g id="edge29" class="edge"><title>Node16&#45;&gt;Node8</title>
<path fill="none" stroke="midnightblue" d="M531.957,-60.2079C476.756,-50.7748 353.653,-29.7381 287.703,-18.4682"/>
<polygon fill="midnightblue" stroke="midnightblue" points="288.075,-14.9811 277.628,-16.7466 286.896,-21.8811 288.075,-14.9811"/>
</g>
<!-- Node17&#45;&gt;Node8 -->
<g id="edge31" class="edge"><title>Node17&#45;&gt;Node8</title>
<path fill="none" stroke="midnightblue" d="M190.283,-56.324C199.836,-48.2631 214.28,-36.0765 225.784,-26.3695"/>
<polygon fill="midnightblue" stroke="midnightblue" points="228.144,-28.9577 233.53,-19.8339 223.63,-23.6076 228.144,-28.9577"/>
</g>
<!-- Node18&#45;&gt;Node3 -->
<g id="edge33" class="edge"><title>Node18&#45;&gt;Node3</title>
<path fill="none" stroke="midnightblue" d="M348.526,-58.4325C412.652,-47.7778 538.307,-26.8998 599.231,-16.777"/>
<polygon fill="midnightblue" stroke="midnightblue" points="599.839,-20.224 609.13,-15.1322 598.692,-13.3187 599.839,-20.224"/>
</g>
<!-- Node18&#45;&gt;Node8 -->
<g id="edge34" class="edge"><title>Node18&#45;&gt;Node8</title>
<path fill="none" stroke="midnightblue" d="M298.557,-56.324C288.854,-48.2631 274.185,-36.0765 262.5,-26.3695"/>
<polygon fill="midnightblue" stroke="midnightblue" points="264.562,-23.532 254.633,-19.8339 260.089,-28.9163 264.562,-23.532"/>
</g>
<!-- Node19&#45;&gt;Node4 -->
<g id="edge36" class="edge"><title>Node19&#45;&gt;Node4</title>
<path fill="none" stroke="midnightblue" d="M760.19,-57.7173C817.92,-47.2561 923.568,-28.1118 980.037,-17.8792"/>
<polygon fill="midnightblue" stroke="midnightblue" points="980.77,-21.3034 989.986,-16.0764 979.522,-14.4156 980.77,-21.3034"/>
</g>
<!-- Node20&#45;&gt;Node18 -->
<g id="edge38" class="edge"><title>Node20&#45;&gt;Node18</title>
<path fill="none" stroke="midnightblue" d="M206.331,-112.444C226.32,-103.596 257.743,-89.6875 280.564,-79.5865"/>
<polygon fill="midnightblue" stroke="midnightblue" points="282.032,-82.7645 289.759,-75.5164 279.198,-76.3635 282.032,-82.7645"/>
</g>
<!-- Node21&#45;&gt;Node4 -->
<g id="edge40" class="edge"><title>Node21&#45;&gt;Node4</title>
<path fill="none" stroke="midnightblue" d="M1357.47,-112.473C1334.84,-98.5914 1287.51,-71.1375 1244,-56 1180.03,-33.7436 1101.82,-21.2431 1056.19,-15.3292"/>
<polygon fill="midnightblue" stroke="midnightblue" points="1056.5,-11.8408 1046.14,-14.0656 1055.62,-18.7861 1056.5,-11.8408"/>
</g>
<!-- Node21&#45;&gt;Node5 -->
<g id="edge41" class="edge"><title>Node21&#45;&gt;Node5</title>
<path fill="none" stroke="midnightblue" d="M1343.81,-113.94C1305.74,-104.057 1236.65,-86.1204 1195.78,-75.5112"/>
<polygon fill="midnightblue" stroke="midnightblue" points="1196.6,-72.1064 1186.04,-72.9812 1194.84,-78.8818 1196.6,-72.1064"/>
</g>
<!-- Node23&#45;&gt;Node4 -->
<g id="edge44" class="edge"><title>Node23&#45;&gt;Node4</title>
<path fill="none" stroke="midnightblue" d="M871.571,-56.4435C901.097,-47.2801 948.118,-32.6876 980.883,-22.5192"/>
<polygon fill="midnightblue" stroke="midnightblue" points="982.045,-25.8232 990.558,-19.5164 979.97,-19.1378 982.045,-25.8232"/>
</g>
<!-- Node24&#45;&gt;Node3 -->
<g id="edge46" class="edge"><title>Node24&#45;&gt;Node3</title>
<path fill="none" stroke="midnightblue" d="M634,-56.083C634,-49.0059 634,-38.8611 634,-29.9865"/>
<polygon fill="midnightblue" stroke="midnightblue" points="637.5,-29.751 634,-19.7511 630.5,-29.7511 637.5,-29.751"/>
</g>
<!-- Node24&#45;&gt;Node4 -->
<g id="edge47" class="edge"><title>Node24&#45;&gt;Node4</title>
<path fill="none" stroke="midnightblue" d="M661.81,-57.8893C664.9,-57.2024 668.01,-56.5558 671,-56 782.453,-35.2828 915.803,-20.8576 979.904,-14.5598"/>
<polygon fill="midnightblue" stroke="midnightblue" points="980.336,-18.0345 989.95,-13.5839 979.659,-11.0673 980.336,-18.0345"/>
</g>
<!-- Node25&#45;&gt;Node4 -->
<g id="edge49" class="edge"><title>Node25&#45;&gt;Node4</title>
<path fill="none" stroke="midnightblue" d="M1041.21,-112.414C1057.85,-105.445 1078.06,-93.8092 1088,-76 1100.2,-54.1404 1073.67,-35.4588 1049.85,-23.8085"/>
<polygon fill="midnightblue" stroke="midnightblue" points="1051.15,-20.5534 1040.6,-19.5497 1048.22,-26.9116 1051.15,-20.5534"/>
</g>
<!-- Node25&#45;&gt;Node5 -->
<g id="edge50" class="edge"><title>Node25&#45;&gt;Node5</title>
<path fill="none" stroke="midnightblue" d="M1038.45,-112.444C1063.13,-103.438 1102.19,-89.1891 1129.98,-79.049"/>
<polygon fill="midnightblue" stroke="midnightblue" points="1131.46,-82.2321 1139.66,-75.5164 1129.06,-75.6561 1131.46,-82.2321"/>
</g>
<!-- Node26&#45;&gt;Node4 -->
<g id="edge52" class="edge"><title>Node26&#45;&gt;Node4</title>
<path fill="none" stroke="midnightblue" d="M1018,-56.083C1018,-49.0059 1018,-38.8611 1018,-29.9865"/>
<polygon fill="midnightblue" stroke="midnightblue" points="1021.5,-29.751 1018,-19.7511 1014.5,-29.7511 1021.5,-29.751"/>
</g>
</g>
</svg>
