<?xml version="1.0" encoding="UTF-8" standalone="no"?>
<!DOCTYPE svg PUBLIC "-//W3C//DTD SVG 1.1//EN"
 "http://www.w3.org/Graphics/SVG/1.1/DTD/svg11.dtd">
<!-- Generated by graphviz version 2.36.0 (20140111.2315)
 -->
<!-- Title: mutt_menu_init Pages: 1 -->
<svg width="182pt" height="28pt"
 viewBox="0.00 0.00 182.00 28.00" xmlns="http://www.w3.org/2000/svg" xmlns:xlink="http://www.w3.org/1999/xlink">
<g id="graph0" class="graph" transform="scale(1 1) rotate(0) translate(4 24)">
<title>mutt_menu_init</title>
<polygon fill="white" stroke="none" points="-4,4 -4,-24 178,-24 178,4 -4,4"/>
<!-- Node1 -->
<g id="node1" class="node"><title>Node1</title>
<polygon fill="#bfbfbf" stroke="black" points="0.5,-0.5 0.5,-19.5 83.5,-19.5 83.5,-0.5 0.5,-0.5"/>
<text text-anchor="middle" x="42" y="-7.5" font-family="Helvetica,sans-Serif" font-size="10.00">mutt_menu_init</text>
</g>
<!-- Node2 -->
<g id="node2" class="node"><title>Node2</title>
<g id="a_node2"><a xlink:href="mutt_8h.html#a81fd8c287cd99179a455c6809855953c" target="_top" xlink:title="Initialise NeoMutt. ">
<polygon fill="white" stroke="red" points="120,-0.5 120,-19.5 174,-19.5 174,-0.5 120,-0.5"/>
<text text-anchor="middle" x="147" y="-7.5" font-family="Helvetica,sans-Serif" font-size="10.00">mutt_init</text>
</a>
</g>
</g>
<!-- Node1&#45;&gt;Node2 -->
<g id="edge1" class="edge"><title>Node1&#45;&gt;Node2</title>
<path fill="none" stroke="midnightblue" d="M93.8012,-10C102.803,-10 111.834,-10 119.792,-10"/>
<polygon fill="midnightblue" stroke="midnightblue" points="93.7084,-6.5001 83.7083,-10 93.7083,-13.5001 93.7084,-6.5001"/>
</g>
</g>
</svg>
