<?xml version="1.0" encoding="UTF-8" standalone="no"?>
<!DOCTYPE svg PUBLIC "-//W3C//DTD SVG 1.1//EN"
 "http://www.w3.org/Graphics/SVG/1.1/DTD/svg11.dtd">
<!-- Generated by graphviz version 2.36.0 (20140111.2315)
 -->
<!-- Title: mutt_menu_loop Pages: 1 -->
<svg width="698pt" height="1380pt"
 viewBox="0.00 0.00 698.00 1380.34" xmlns="http://www.w3.org/2000/svg" xmlns:xlink="http://www.w3.org/1999/xlink">
<g id="graph0" class="graph" transform="scale(1 1) rotate(0) translate(4 1376.34)">
<title>mutt_menu_loop</title>
<polygon fill="white" stroke="none" points="-4,4 -4,-1376.34 694,-1376.34 694,4 -4,4"/>
<!-- Node1 -->
<g id="node1" class="node"><title>Node1</title>
<polygon fill="#bfbfbf" stroke="black" points="0.5,-675.838 0.5,-694.838 89.5,-694.838 89.5,-675.838 0.5,-675.838"/>
<text text-anchor="middle" x="45" y="-682.838" font-family="Helvetica,sans-Serif" font-size="10.00">mutt_menu_loop</text>
</g>
<!-- Node2 -->
<g id="node2" class="node"><title>Node2</title>
<g id="a_node2"><a xlink:href="menu_8c.html#a3da31793ff9ae935dccab75ae653a064" target="_top" xlink:title="Redraw the parts of the screen that have been flagged to be redrawn. ">
<polygon fill="white" stroke="red" points="153.5,-1352.84 153.5,-1371.84 228.5,-1371.84 228.5,-1352.84 153.5,-1352.84"/>
<text text-anchor="middle" x="191" y="-1359.84" font-family="Helvetica,sans-Serif" font-size="10.00">menu_redraw</text>
</a>
</g>
</g>
<!-- Node1&#45;&gt;Node2 -->
<g id="edge1" class="edge"><title>Node1&#45;&gt;Node2</title>
<path fill="none" stroke="midnightblue" d="M45.7837,-694.859C44.3172,-767.928 38.355,-1239.62 126,-1343.34 130.732,-1348.94 137.032,-1352.93 143.837,-1355.77"/>
<polygon fill="midnightblue" stroke="midnightblue" points="142.736,-1359.09 153.33,-1358.96 144.969,-1352.45 142.736,-1359.09"/>
</g>
<!-- Node3 -->
<g id="node3" class="node"><title>Node3</title>
<g id="a_node3"><a xlink:href="mutt__window_8c.html#a93b418d718fa99be8df4d03ba525d027" target="_top" xlink:title="Move the cursor and write a fixed string to a Window. ">
<polygon fill="white" stroke="black" points="131,-1314.84 131,-1333.84 251,-1333.84 251,-1314.84 131,-1314.84"/>
<text text-anchor="middle" x="191" y="-1321.84" font-family="Helvetica,sans-Serif" font-size="10.00">mutt_window_mvaddstr</text>
</a>
</g>
</g>
<!-- Node1&#45;&gt;Node3 -->
<g id="edge2" class="edge"><title>Node1&#45;&gt;Node3</title>
<path fill="none" stroke="midnightblue" d="M45.9393,-695.073C45.6863,-765.837 47.3689,-1201.23 126,-1300.34 128.899,-1303.99 132.418,-1307.09 136.296,-1309.72"/>
<polygon fill="midnightblue" stroke="midnightblue" points="134.828,-1312.91 145.262,-1314.75 138.253,-1306.8 134.828,-1312.91"/>
</g>
<!-- Node4 -->
<g id="node4" class="node"><title>Node4</title>
<g id="a_node4"><a xlink:href="mutt__window_8c.html#ae2ba61d0bc2413c09e6a12f1fe345ab4" target="_top" xlink:title="Clear to the end of the line. ">
<polygon fill="white" stroke="black" points="578.5,-1190.84 578.5,-1209.84 689.5,-1209.84 689.5,-1190.84 578.5,-1190.84"/>
<text text-anchor="middle" x="634" y="-1197.84" font-family="Helvetica,sans-Serif" font-size="10.00">mutt_window_clrtoeol</text>
</a>
</g>
</g>
<!-- Node1&#45;&gt;Node4 -->
<g id="edge3" class="edge"><title>Node1&#45;&gt;Node4</title>
<path fill="none" stroke="midnightblue" d="M46.6,-695.009C51.1659,-767.074 81.4585,-1218.59 126,-1257.34 195.019,-1317.37 482.717,-1243.42 591.285,-1212.62"/>
<polygon fill="midnightblue" stroke="midnightblue" points="592.264,-1215.98 600.917,-1209.86 590.34,-1209.25 592.264,-1215.98"/>
</g>
<!-- Node5 -->
<g id="node5" class="node"><title>Node5</title>
<g id="a_node5"><a xlink:href="mutt__window_8c.html#a9d73d6b2ea4ab73d2e91b731d21089d7" target="_top" xlink:title="Move the cursor in a Window. ">
<polygon fill="white" stroke="black" points="582,-557.838 582,-576.838 686,-576.838 686,-557.838 582,-557.838"/>
<text text-anchor="middle" x="634" y="-564.838" font-family="Helvetica,sans-Serif" font-size="10.00">mutt_window_move</text>
</a>
</g>
</g>
<!-- Node1&#45;&gt;Node5 -->
<g id="edge4" class="edge"><title>Node1&#45;&gt;Node5</title>
<path fill="none" stroke="midnightblue" d="M46.4503,-675.434C50.0961,-597.413 75.9341,-83.5857 126,-39.3375 346.243,155.314 582.364,-432.746 625.896,-548.087"/>
<polygon fill="midnightblue" stroke="midnightblue" points="622.721,-549.59 629.501,-557.732 629.278,-547.139 622.721,-549.59"/>
</g>
<!-- Node6 -->
<g id="node6" class="node"><title>Node6</title>
<g id="a_node6"><a xlink:href="curs__lib_8c.html#a99dc8e687f3d5688695d0d7a1bab3c3f" target="_top" xlink:title="Force a refresh of the screen. ">
<polygon fill="white" stroke="black" points="155.5,-1200.84 155.5,-1219.84 226.5,-1219.84 226.5,-1200.84 155.5,-1200.84"/>
<text text-anchor="middle" x="191" y="-1207.84" font-family="Helvetica,sans-Serif" font-size="10.00">mutt_refresh</text>
</a>
</g>
</g>
<!-- Node1&#45;&gt;Node6 -->
<g id="edge5" class="edge"><title>Node1&#45;&gt;Node6</title>
<path fill="none" stroke="midnightblue" d="M46.1677,-694.97C47.4597,-758.172 57.7175,-1113.41 126,-1191.34 131.21,-1197.28 138.186,-1201.41 145.618,-1204.26"/>
<polygon fill="midnightblue" stroke="midnightblue" points="144.588,-1207.61 155.177,-1207.24 146.669,-1200.93 144.588,-1207.61"/>
</g>
<!-- Node7 -->
<g id="node7" class="node"><title>Node7</title>
<g id="a_node7"><a xlink:href="menu_8c.html#a344bdf02720f1c18c2e5ff5285e79424" target="_top" xlink:title="Check if there are any menu key events to process. ">
<polygon fill="white" stroke="red" points="139.5,-1162.84 139.5,-1181.84 242.5,-1181.84 242.5,-1162.84 139.5,-1162.84"/>
<text text-anchor="middle" x="191" y="-1169.84" font-family="Helvetica,sans-Serif" font-size="10.00">menu_dialog_dokey</text>
</a>
</g>
</g>
<!-- Node1&#45;&gt;Node7 -->
<g id="edge6" class="edge"><title>Node1&#45;&gt;Node7</title>
<path fill="none" stroke="midnightblue" d="M46.3864,-694.861C48.982,-754.415 65.654,-1075.45 126,-1148.34 129.1,-1152.08 132.848,-1155.24 136.955,-1157.91"/>
<polygon fill="midnightblue" stroke="midnightblue" points="135.344,-1161.02 145.801,-1162.72 138.69,-1154.87 135.344,-1161.02"/>
</g>
<!-- Node8 -->
<g id="node8" class="node"><title>Node8</title>
<g id="a_node8"><a xlink:href="keymap_8c.html#aca314ae9ad06348477629e6bc0bd28fc" target="_top" xlink:title="Determine what a keypress should do. ">
<polygon fill="white" stroke="red" points="310,-143.838 310,-162.838 372,-162.838 372,-143.838 310,-143.838"/>
<text text-anchor="middle" x="341" y="-150.838" font-family="Helvetica,sans-Serif" font-size="10.00">km_dokey</text>
</a>
</g>
</g>
<!-- Node1&#45;&gt;Node8 -->
<g id="edge7" class="edge"><title>Node1&#45;&gt;Node8</title>
<path fill="none" stroke="midnightblue" d="M45.836,-675.806C44.925,-610.083 43.183,-224.632 126,-153.338 175.447,-110.77 257.759,-126.605 304.576,-140.746"/>
<polygon fill="midnightblue" stroke="midnightblue" points="303.692,-144.137 314.282,-143.808 305.798,-137.461 303.692,-144.137"/>
</g>
<!-- Node9 -->
<g id="node9" class="node"><title>Node9</title>
<g id="a_node9"><a xlink:href="mutt__window_8c.html#adb0d282e3a7b3cf644485c1aab14774f" target="_top" xlink:title="Clear a row of a Window. ">
<polygon fill="white" stroke="black" points="426,-1105.84 426,-1124.84 542,-1124.84 542,-1105.84 426,-1105.84"/>
<text text-anchor="middle" x="484" y="-1112.84" font-family="Helvetica,sans-Serif" font-size="10.00">mutt_window_clearline</text>
</a>
</g>
</g>
<!-- Node1&#45;&gt;Node9 -->
<g id="edge8" class="edge"><title>Node1&#45;&gt;Node9</title>
<path fill="none" stroke="midnightblue" d="M45.7982,-695.082C44.6313,-762.272 41.4741,-1156.33 126,-1229.34 230.676,-1319.75 407.687,-1181.39 464.713,-1131.86"/>
<polygon fill="midnightblue" stroke="midnightblue" points="467.333,-1134.22 472.521,-1124.98 462.704,-1128.97 467.333,-1134.22"/>
</g>
<!-- Node10 -->
<g id="node10" class="node"><title>Node10</title>
<g id="a_node10"><a xlink:href="curs__lib_8c.html#aac5ad0a72c840ff5912ae61615321a5a" target="_top" xlink:title="Drop a macro from the input buffer. ">
<polygon fill="white" stroke="black" points="137,-1037.34 137,-1067.34 245,-1067.34 245,-1037.34 137,-1037.34"/>
<text text-anchor="start" x="145" y="-1055.34" font-family="Helvetica,sans-Serif" font-size="10.00">mutt_flush_macro_to</text>
<text text-anchor="middle" x="191" y="-1044.34" font-family="Helvetica,sans-Serif" font-size="10.00">_endcond</text>
</a>
</g>
</g>
<!-- Node1&#45;&gt;Node10 -->
<g id="edge11" class="edge"><title>Node1&#45;&gt;Node10</title>
<path fill="none" stroke="midnightblue" d="M47.0647,-695.161C52.7063,-745.576 80.5725,-974.921 126,-1027.34 127.155,-1028.67 128.39,-1029.93 129.691,-1031.13"/>
<polygon fill="midnightblue" stroke="midnightblue" points="127.704,-1034.01 137.787,-1037.27 131.934,-1028.44 127.704,-1034.01"/>
</g>
<!-- Node11 -->
<g id="node11" class="node"><title>Node11</title>
<g id="a_node11"><a xlink:href="mutt__curses_8h.html#a1f18053a2fadd1f5c2f45382e3165dcb" target="_top" xlink:title="Update NeoMutt&#39;s opinion about the window size (CURSES) ">
<polygon fill="white" stroke="red" points="140,-998.838 140,-1017.84 242,-1017.84 242,-998.838 140,-998.838"/>
<text text-anchor="middle" x="191" y="-1005.84" font-family="Helvetica,sans-Serif" font-size="10.00">mutt_resize_screen</text>
</a>
</g>
</g>
<!-- Node1&#45;&gt;Node11 -->
<g id="edge12" class="edge"><title>Node1&#45;&gt;Node11</title>
<path fill="none" stroke="midnightblue" d="M45.6173,-695.083C44.5492,-736.016 45.8505,-895.981 126,-984.338 129.498,-988.194 133.677,-991.433 138.201,-994.154"/>
<polygon fill="midnightblue" stroke="midnightblue" points="136.739,-997.338 147.236,-998.773 139.925,-991.105 136.739,-997.338"/>
</g>
<!-- Node12 -->
<g id="node12" class="node"><title>Node12</title>
<g id="a_node12"><a xlink:href="mutt__logging_8c.html#af068b3f524a31fad293b2fb61dfc4534" target="_top" xlink:title="Clear the message line (bottom line of screen) ">
<polygon fill="white" stroke="red" points="297.5,-1105.84 297.5,-1124.84 384.5,-1124.84 384.5,-1105.84 297.5,-1105.84"/>
<text text-anchor="middle" x="341" y="-1112.84" font-family="Helvetica,sans-Serif" font-size="10.00">mutt_clear_error</text>
</a>
</g>
</g>
<!-- Node1&#45;&gt;Node12 -->
<g id="edge13" class="edge"><title>Node1&#45;&gt;Node12</title>
<path fill="none" stroke="midnightblue" d="M46.2006,-694.855C47.6416,-752.951 58.4047,-1059.16 126,-1115.34 175.912,-1156.82 257.348,-1141.69 304.048,-1127.89"/>
<polygon fill="midnightblue" stroke="midnightblue" points="305.219,-1131.2 313.741,-1124.9 303.154,-1124.51 305.219,-1131.2"/>
</g>
<!-- Node13 -->
<g id="node13" class="node"><title>Node13</title>
<g id="a_node13"><a xlink:href="menu_8c.html#a6ca7c23d04b002f0afb48d4a946f2780" target="_top" xlink:title="Convert menubar movement to scrolling. ">
<polygon fill="white" stroke="black" points="126,-922.838 126,-941.838 256,-941.838 256,-922.838 126,-922.838"/>
<text text-anchor="middle" x="191" y="-929.838" font-family="Helvetica,sans-Serif" font-size="10.00">menu_dialog_translate_op</text>
</a>
</g>
</g>
<!-- Node1&#45;&gt;Node13 -->
<g id="edge15" class="edge"><title>Node1&#45;&gt;Node13</title>
<path fill="none" stroke="midnightblue" d="M46.4145,-695.229C48.4329,-730.388 60.0787,-850.561 126,-913.338 127.637,-914.896 129.395,-916.328 131.248,-917.642"/>
<polygon fill="midnightblue" stroke="midnightblue" points="129.485,-920.666 139.885,-922.689 133.017,-914.622 129.485,-920.666"/>
</g>
<!-- Node14 -->
<g id="node14" class="node"><title>Node14</title>
<g id="a_node14"><a xlink:href="menu_8c.html#ae505cfcfcfc153f1da4077fa769ef5df" target="_top" xlink:title="Move the focus to the next item in the menu. ">
<polygon fill="white" stroke="black" points="145,-884.838 145,-903.838 237,-903.838 237,-884.838 145,-884.838"/>
<text text-anchor="middle" x="191" y="-891.838" font-family="Helvetica,sans-Serif" font-size="10.00">menu_next_entry</text>
</a>
</g>
</g>
<!-- Node1&#45;&gt;Node14 -->
<g id="edge16" class="edge"><title>Node1&#45;&gt;Node14</title>
<path fill="none" stroke="midnightblue" d="M47.1464,-694.875C51.3763,-725.799 68.9473,-824.236 126,-875.338 128.975,-878.002 132.308,-880.293 135.849,-882.263"/>
<polygon fill="midnightblue" stroke="midnightblue" points="134.453,-885.474 144.995,-886.53 137.412,-879.131 134.453,-885.474"/>
</g>
<!-- Node15 -->
<g id="node15" class="node"><title>Node15</title>
<g id="a_node15"><a xlink:href="menu_8c.html#a55d34ab14d6a7e12e728e131e1022ae0" target="_top" xlink:title="Move the focus to the previous item in the menu. ">
<polygon fill="white" stroke="black" points="145,-846.838 145,-865.838 237,-865.838 237,-846.838 145,-846.838"/>
<text text-anchor="middle" x="191" y="-853.838" font-family="Helvetica,sans-Serif" font-size="10.00">menu_prev_entry</text>
</a>
</g>
</g>
<!-- Node1&#45;&gt;Node15 -->
<g id="edge17" class="edge"><title>Node1&#45;&gt;Node15</title>
<path fill="none" stroke="midnightblue" d="M48.3268,-695.214C55.2105,-722.234 78.0615,-797.977 126,-837.338 128.903,-839.721 132.096,-841.805 135.46,-843.628"/>
<polygon fill="midnightblue" stroke="midnightblue" points="134.133,-846.871 144.681,-847.869 137.058,-840.511 134.133,-846.871"/>
</g>
<!-- Node16 -->
<g id="node16" class="node"><title>Node16</title>
<g id="a_node16"><a xlink:href="menu_8c.html#aedacdfa878d8a022d35749b03a4cecc7" target="_top" xlink:title="Move the focus down half a page in the menu. ">
<polygon fill="white" stroke="red" points="146,-808.838 146,-827.838 236,-827.838 236,-808.838 146,-808.838"/>
<text text-anchor="middle" x="191" y="-815.838" font-family="Helvetica,sans-Serif" font-size="10.00">menu_half_down</text>
</a>
</g>
</g>
<!-- Node1&#45;&gt;Node16 -->
<g id="edge18" class="edge"><title>Node1&#45;&gt;Node16</title>
<path fill="none" stroke="midnightblue" d="M50.0287,-694.932C59.7321,-716.863 86.552,-770.952 126,-799.338 129.241,-801.67 132.769,-803.719 136.448,-805.518"/>
<polygon fill="midnightblue" stroke="midnightblue" points="135.254,-808.813 145.826,-809.495 137.987,-802.368 135.254,-808.813"/>
</g>
<!-- Node17 -->
<g id="node17" class="node"><title>Node17</title>
<g id="a_node17"><a xlink:href="menu_8c.html#adf218323f3027edcec7c22491bea6f30" target="_top" xlink:title="Move the focus up half a page in the menu. ">
<polygon fill="white" stroke="red" points="152.5,-770.838 152.5,-789.838 229.5,-789.838 229.5,-770.838 152.5,-770.838"/>
<text text-anchor="middle" x="191" y="-777.838" font-family="Helvetica,sans-Serif" font-size="10.00">menu_half_up</text>
</a>
</g>
</g>
<!-- Node1&#45;&gt;Node17 -->
<g id="edge19" class="edge"><title>Node1&#45;&gt;Node17</title>
<path fill="none" stroke="midnightblue" d="M53.5432,-695.017C66.5948,-711.12 94.986,-743.408 126,-761.338 131.143,-764.311 136.791,-766.855 142.537,-769.022"/>
<polygon fill="midnightblue" stroke="midnightblue" points="141.632,-772.412 152.226,-772.325 143.89,-765.786 141.632,-772.412"/>
</g>
<!-- Node18 -->
<g id="node18" class="node"><title>Node18</title>
<g id="a_node18"><a xlink:href="menu_8c.html#a9b13c608a3b0bfd22b1961b83169097c" target="_top" xlink:title="Move the focus to the next page in the menu. ">
<polygon fill="white" stroke="red" points="145.5,-732.838 145.5,-751.838 236.5,-751.838 236.5,-732.838 145.5,-732.838"/>
<text text-anchor="middle" x="191" y="-739.838" font-family="Helvetica,sans-Serif" font-size="10.00">menu_next_page</text>
</a>
</g>
</g>
<!-- Node1&#45;&gt;Node18 -->
<g id="edge20" class="edge"><title>Node1&#45;&gt;Node18</title>
<path fill="none" stroke="midnightblue" d="M64.0766,-694.915C80.0653,-703.145 104.176,-714.973 126,-723.338 131.895,-725.597 138.179,-727.755 144.419,-729.753"/>
<polygon fill="midnightblue" stroke="midnightblue" points="143.539,-733.144 154.127,-732.751 145.605,-726.456 143.539,-733.144"/>
</g>
<!-- Node19 -->
<g id="node19" class="node"><title>Node19</title>
<g id="a_node19"><a xlink:href="menu_8c.html#a4ba92e31cdc5ba96e4851554ff820066" target="_top" xlink:title="Move the focus to the previous page in the menu. ">
<polygon fill="white" stroke="red" points="145.5,-694.838 145.5,-713.838 236.5,-713.838 236.5,-694.838 145.5,-694.838"/>
<text text-anchor="middle" x="191" y="-701.838" font-family="Helvetica,sans-Serif" font-size="10.00">menu_prev_page</text>
</a>
</g>
</g>
<!-- Node1&#45;&gt;Node19 -->
<g id="edge21" class="edge"><title>Node1&#45;&gt;Node19</title>
<path fill="none" stroke="midnightblue" d="M89.5955,-691.09C103.854,-692.971 119.883,-695.086 134.877,-697.064"/>
<polygon fill="midnightblue" stroke="midnightblue" points="134.686,-700.569 145.058,-698.408 135.601,-693.629 134.686,-700.569"/>
</g>
<!-- Node20 -->
<g id="node20" class="node"><title>Node20</title>
<g id="a_node20"><a xlink:href="menu_8c.html#a9ebb3222efc82f4a55858911278a3016" target="_top" xlink:title="Move the view down one line, keeping the selection the same. ">
<polygon fill="white" stroke="black" points="148.5,-656.838 148.5,-675.838 233.5,-675.838 233.5,-656.838 148.5,-656.838"/>
<text text-anchor="middle" x="191" y="-663.838" font-family="Helvetica,sans-Serif" font-size="10.00">menu_next_line</text>
</a>
</g>
</g>
<!-- Node1&#45;&gt;Node20 -->
<g id="edge22" class="edge"><title>Node1&#45;&gt;Node20</title>
<path fill="none" stroke="midnightblue" d="M89.5955,-679.585C104.806,-677.578 122.031,-675.306 137.865,-673.216"/>
<polygon fill="midnightblue" stroke="midnightblue" points="138.579,-676.653 148.035,-671.875 137.663,-669.713 138.579,-676.653"/>
</g>
<!-- Node21 -->
<g id="node21" class="node"><title>Node21</title>
<g id="a_node21"><a xlink:href="menu_8c.html#a7e1b88289b77111db8bdc14abc304981" target="_top" xlink:title="Move the view up one line, keeping the selection the same. ">
<polygon fill="white" stroke="black" points="148.5,-618.838 148.5,-637.838 233.5,-637.838 233.5,-618.838 148.5,-618.838"/>
<text text-anchor="middle" x="191" y="-625.838" font-family="Helvetica,sans-Serif" font-size="10.00">menu_prev_line</text>
</a>
</g>
</g>
<!-- Node1&#45;&gt;Node21 -->
<g id="edge23" class="edge"><title>Node1&#45;&gt;Node21</title>
<path fill="none" stroke="midnightblue" d="M64.0766,-675.76C80.0653,-667.53 104.176,-655.702 126,-647.338 131.895,-645.078 138.179,-642.92 144.419,-640.922"/>
<polygon fill="midnightblue" stroke="midnightblue" points="145.605,-644.219 154.127,-637.924 143.539,-637.531 145.605,-644.219"/>
</g>
<!-- Node22 -->
<g id="node22" class="node"><title>Node22</title>
<g id="a_node22"><a xlink:href="menu_8c.html#af9704a95c8ca0fa4683cca09abe2752d" target="_top" xlink:title="Move the focus to the first entry in the menu. ">
<polygon fill="white" stroke="black" points="146.5,-580.838 146.5,-599.838 235.5,-599.838 235.5,-580.838 146.5,-580.838"/>
<text text-anchor="middle" x="191" y="-587.838" font-family="Helvetica,sans-Serif" font-size="10.00">menu_first_entry</text>
</a>
</g>
</g>
<!-- Node1&#45;&gt;Node22 -->
<g id="edge24" class="edge"><title>Node1&#45;&gt;Node22</title>
<path fill="none" stroke="midnightblue" d="M53.5432,-675.658C66.5948,-659.555 94.986,-627.267 126,-609.338 129.725,-607.184 133.716,-605.255 137.817,-603.532"/>
<polygon fill="midnightblue" stroke="midnightblue" points="139.392,-606.678 147.512,-599.873 136.921,-600.129 139.392,-606.678"/>
</g>
<!-- Node23 -->
<g id="node23" class="node"><title>Node23</title>
<g id="a_node23"><a xlink:href="menu_8c.html#ae4d6d408703cf768a355a532359b7ac2" target="_top" xlink:title="Move the focus to the last entry in the menu. ">
<polygon fill="white" stroke="black" points="146.5,-542.838 146.5,-561.838 235.5,-561.838 235.5,-542.838 146.5,-542.838"/>
<text text-anchor="middle" x="191" y="-549.838" font-family="Helvetica,sans-Serif" font-size="10.00">menu_last_entry</text>
</a>
</g>
</g>
<!-- Node1&#45;&gt;Node23 -->
<g id="edge25" class="edge"><title>Node1&#45;&gt;Node23</title>
<path fill="none" stroke="midnightblue" d="M50.0287,-675.743C59.7321,-653.812 86.552,-599.723 126,-571.338 129.44,-568.862 133.202,-566.707 137.126,-564.83"/>
<polygon fill="midnightblue" stroke="midnightblue" points="138.603,-568.006 146.495,-560.936 135.917,-561.542 138.603,-568.006"/>
</g>
<!-- Node24 -->
<g id="node24" class="node"><title>Node24</title>
<g id="a_node24"><a xlink:href="menu_8c.html#a15266916f9c0c962638f83d74f27df9f" target="_top" xlink:title="Move the focus to the top of the page. ">
<polygon fill="white" stroke="black" points="148,-504.838 148,-523.838 234,-523.838 234,-504.838 148,-504.838"/>
<text text-anchor="middle" x="191" y="-511.838" font-family="Helvetica,sans-Serif" font-size="10.00">menu_top_page</text>
</a>
</g>
</g>
<!-- Node1&#45;&gt;Node24 -->
<g id="edge26" class="edge"><title>Node1&#45;&gt;Node24</title>
<path fill="none" stroke="midnightblue" d="M48.3268,-675.461C55.2105,-648.441 78.0615,-572.698 126,-533.338 129.723,-530.281 133.924,-527.716 138.35,-525.563"/>
<polygon fill="midnightblue" stroke="midnightblue" points="139.772,-528.762 147.669,-521.699 137.091,-522.296 139.772,-528.762"/>
</g>
<!-- Node25 -->
<g id="node25" class="node"><title>Node25</title>
<g id="a_node25"><a xlink:href="menu_8c.html#a863635769352a439bee04af26a9ce38b" target="_top" xlink:title="Move the focus to the centre of the page. ">
<polygon fill="white" stroke="black" points="140.5,-466.838 140.5,-485.838 241.5,-485.838 241.5,-466.838 140.5,-466.838"/>
<text text-anchor="middle" x="191" y="-473.838" font-family="Helvetica,sans-Serif" font-size="10.00">menu_middle_page</text>
</a>
</g>
</g>
<!-- Node1&#45;&gt;Node25 -->
<g id="edge27" class="edge"><title>Node1&#45;&gt;Node25</title>
<path fill="none" stroke="midnightblue" d="M47.1464,-675.8C51.3763,-644.876 68.9473,-546.439 126,-495.338 127.754,-493.767 129.632,-492.326 131.604,-491.003"/>
<polygon fill="midnightblue" stroke="midnightblue" points="133.704,-493.842 140.756,-485.935 130.312,-487.718 133.704,-493.842"/>
</g>
<!-- Node26 -->
<g id="node26" class="node"><title>Node26</title>
<g id="a_node26"><a xlink:href="menu_8c.html#a1ea4024b7eb12da80b949dd73cd7ece0" target="_top" xlink:title="Move the focus to the bottom of the page. ">
<polygon fill="white" stroke="black" points="140,-428.838 140,-447.838 242,-447.838 242,-428.838 140,-428.838"/>
<text text-anchor="middle" x="191" y="-435.838" font-family="Helvetica,sans-Serif" font-size="10.00">menu_bottom_page</text>
</a>
</g>
</g>
<!-- Node1&#45;&gt;Node26 -->
<g id="edge28" class="edge"><title>Node1&#45;&gt;Node26</title>
<path fill="none" stroke="midnightblue" d="M46.4145,-675.446C48.4329,-640.287 60.0787,-520.114 126,-457.338 127.637,-455.779 129.395,-454.347 131.248,-453.033"/>
<polygon fill="midnightblue" stroke="midnightblue" points="133.017,-456.053 139.885,-447.986 129.485,-450.009 133.017,-456.053"/>
</g>
<!-- Node27 -->
<g id="node27" class="node"><title>Node27</title>
<g id="a_node27"><a xlink:href="menu_8c.html#a5fbd07c9ba05297dbb9c6b6da1d310e3" target="_top" xlink:title="Move the current selection to the top of the window. ">
<polygon fill="white" stroke="black" points="143.5,-390.838 143.5,-409.838 238.5,-409.838 238.5,-390.838 143.5,-390.838"/>
<text text-anchor="middle" x="191" y="-397.838" font-family="Helvetica,sans-Serif" font-size="10.00">menu_current_top</text>
</a>
</g>
</g>
<!-- Node1&#45;&gt;Node27 -->
<g id="edge29" class="edge"><title>Node1&#45;&gt;Node27</title>
<path fill="none" stroke="midnightblue" d="M45.8432,-675.741C45.7588,-637.495 50.677,-494.393 126,-419.338 128.498,-416.849 131.306,-414.683 134.315,-412.799"/>
<polygon fill="midnightblue" stroke="midnightblue" points="135.952,-415.893 143.237,-408.2 132.745,-409.671 135.952,-415.893"/>
</g>
<!-- Node28 -->
<g id="node28" class="node"><title>Node28</title>
<g id="a_node28"><a xlink:href="menu_8c.html#af77c14dc829023bf8cab50824fcedb59" target="_top" xlink:title="Move the current selection to the centre of the window. ">
<polygon fill="white" stroke="black" points="136,-352.838 136,-371.838 246,-371.838 246,-352.838 136,-352.838"/>
<text text-anchor="middle" x="191" y="-359.838" font-family="Helvetica,sans-Serif" font-size="10.00">menu_current_middle</text>
</a>
</g>
</g>
<!-- Node1&#45;&gt;Node28 -->
<g id="edge30" class="edge"><title>Node1&#45;&gt;Node28</title>
<path fill="none" stroke="midnightblue" d="M47.2702,-675.616C53.592,-628.641 83.0801,-425.621 126,-381.338 127.391,-379.902 128.886,-378.573 130.463,-377.344"/>
<polygon fill="midnightblue" stroke="midnightblue" points="132.359,-380.286 138.947,-371.989 128.623,-374.367 132.359,-380.286"/>
</g>
<!-- Node29 -->
<g id="node29" class="node"><title>Node29</title>
<g id="a_node29"><a xlink:href="menu_8c.html#a9ace9a1b119fadd8955eab21208d68f6" target="_top" xlink:title="Move the current selection to the bottom of the window. ">
<polygon fill="white" stroke="black" points="135.5,-314.838 135.5,-333.838 246.5,-333.838 246.5,-314.838 135.5,-314.838"/>
<text text-anchor="middle" x="191" y="-321.838" font-family="Helvetica,sans-Serif" font-size="10.00">menu_current_bottom</text>
</a>
</g>
</g>
<!-- Node1&#45;&gt;Node29 -->
<g id="edge31" class="edge"><title>Node1&#45;&gt;Node29</title>
<path fill="none" stroke="midnightblue" d="M46.9503,-675.774C52.1112,-625.68 78.3119,-393.916 126,-343.338 127.372,-341.883 128.849,-340.538 130.412,-339.295"/>
<polygon fill="midnightblue" stroke="midnightblue" points="132.314,-342.233 138.84,-333.887 128.534,-336.341 132.314,-342.233"/>
</g>
<!-- Node30 -->
<g id="node30" class="node"><title>Node30</title>
<g id="a_node30"><a xlink:href="menu_8c.html#a39111aca7a811078eb154cfdf9760c45" target="_top" xlink:title="Search a menu. ">
<polygon fill="white" stroke="red" points="153.5,-276.838 153.5,-295.838 228.5,-295.838 228.5,-276.838 153.5,-276.838"/>
<text text-anchor="middle" x="191" y="-283.838" font-family="Helvetica,sans-Serif" font-size="10.00">menu_search</text>
</a>
</g>
</g>
<!-- Node1&#45;&gt;Node30 -->
<g id="edge32" class="edge"><title>Node1&#45;&gt;Node30</title>
<path fill="none" stroke="midnightblue" d="M46.7084,-675.793C50.8483,-622.513 73.5587,-362.214 126,-305.338 130.804,-300.128 136.963,-296.323 143.557,-293.548"/>
<polygon fill="midnightblue" stroke="midnightblue" points="145.09,-296.723 153.422,-290.178 142.827,-290.099 145.09,-296.723"/>
</g>
<!-- Node31 -->
<g id="node31" class="node"><title>Node31</title>
<g id="a_node31"><a xlink:href="menu_8c.html#a0e8d3dd05e8b9a6dcc0dd98f89568e1e" target="_top" xlink:title="Jump to another item in the menu. ">
<polygon fill="white" stroke="red" points="157.5,-238.838 157.5,-257.838 224.5,-257.838 224.5,-238.838 157.5,-238.838"/>
<text text-anchor="middle" x="191" y="-245.838" font-family="Helvetica,sans-Serif" font-size="10.00">menu_jump</text>
</a>
</g>
</g>
<!-- Node1&#45;&gt;Node31 -->
<g id="edge33" class="edge"><title>Node1&#45;&gt;Node31</title>
<path fill="none" stroke="midnightblue" d="M46.5222,-675.601C49.7594,-618.789 68.8553,-330.47 126,-267.338 131.758,-260.976 139.538,-256.705 147.689,-253.847"/>
<polygon fill="midnightblue" stroke="midnightblue" points="148.671,-257.207 157.329,-251.101 146.753,-250.475 148.671,-257.207"/>
</g>
<!-- Node32 -->
<g id="node32" class="node"><title>Node32</title>
<g id="a_node32"><a xlink:href="commands_8c.html#a59ddef95d9da473164d2e93ced35abfb" target="_top" xlink:title="enter a neomutt command ">
<polygon fill="white" stroke="red" points="135.5,-200.838 135.5,-219.838 246.5,-219.838 246.5,-200.838 135.5,-200.838"/>
<text text-anchor="middle" x="191" y="-207.838" font-family="Helvetica,sans-Serif" font-size="10.00">mutt_enter_command</text>
</a>
</g>
</g>
<!-- Node1&#45;&gt;Node32 -->
<g id="edge34" class="edge"><title>Node1&#45;&gt;Node32</title>
<path fill="none" stroke="midnightblue" d="M46.3571,-675.516C48.7319,-615.527 64.1008,-298.792 126,-229.338 127.193,-227.999 128.475,-226.753 129.832,-225.593"/>
<polygon fill="midnightblue" stroke="midnightblue" points="131.995,-228.355 138.31,-219.847 128.068,-222.56 131.995,-228.355"/>
</g>
<!-- Node33 -->
<g id="node33" class="node"><title>Node33</title>
<g id="a_node33"><a xlink:href="commands_8c.html#a1d7e589609c99aec9285cdce17d0679e" target="_top" xlink:title="invoke a command in a subshell ">
<polygon fill="white" stroke="red" points="292,-1004.84 292,-1023.84 390,-1023.84 390,-1004.84 292,-1004.84"/>
<text text-anchor="middle" x="341" y="-1011.84" font-family="Helvetica,sans-Serif" font-size="10.00">mutt_shell_escape</text>
</a>
</g>
</g>
<!-- Node1&#45;&gt;Node33 -->
<g id="edge35" class="edge"><title>Node1&#45;&gt;Node33</title>
<path fill="none" stroke="midnightblue" d="M45.8341,-694.944C45.7151,-733.224 50.5195,-876.441 126,-951.338 168.73,-993.737 198.264,-972.308 256,-989.338 269.723,-993.385 284.698,-997.832 298.153,-1001.84"/>
<polygon fill="midnightblue" stroke="midnightblue" points="297.518,-1005.3 308.101,-1004.8 299.517,-998.593 297.518,-1005.3"/>
</g>
<!-- Node34 -->
<g id="node34" class="node"><title>Node34</title>
<g id="a_node34"><a xlink:href="keymap_8c.html#a54aa261aad3380498fb1381e54ee0ec8" target="_top" xlink:title="Ask the user to press a key. ">
<polygon fill="white" stroke="red" points="149.5,-1086.84 149.5,-1105.84 232.5,-1105.84 232.5,-1086.84 149.5,-1086.84"/>
<text text-anchor="middle" x="191" y="-1093.84" font-family="Helvetica,sans-Serif" font-size="10.00">mutt_what_key</text>
</a>
</g>
</g>
<!-- Node1&#45;&gt;Node34 -->
<g id="edge37" class="edge"><title>Node1&#45;&gt;Node34</title>
<path fill="none" stroke="midnightblue" d="M46.6805,-695.143C50.6686,-749.884 72.6908,-1017.35 126,-1076.34 129.854,-1080.6 134.602,-1083.97 139.756,-1086.62"/>
<polygon fill="midnightblue" stroke="midnightblue" points="138.791,-1090.01 149.366,-1090.66 141.506,-1083.56 138.791,-1090.01"/>
</g>
<!-- Node35 -->
<g id="node35" class="node"><title>Node35</title>
<g id="a_node35"><a xlink:href="commands_8c.html#a02ca5373d05a327109310e13d0f66309" target="_top" xlink:title="Forcibly update mailbox stats. ">
<polygon fill="white" stroke="red" points="143.5,-86.8375 143.5,-105.838 238.5,-105.838 238.5,-86.8375 143.5,-86.8375"/>
<text text-anchor="middle" x="191" y="-93.8375" font-family="Helvetica,sans-Serif" font-size="10.00">mutt_check_stats</text>
</a>
</g>
</g>
<!-- Node1&#45;&gt;Node35 -->
<g id="edge39" class="edge"><title>Node1&#45;&gt;Node35</title>
<path fill="none" stroke="midnightblue" d="M46.0634,-675.539C46.6891,-607.937 53.4466,-210.732 126,-120.338 128.92,-116.699 132.453,-113.613 136.341,-110.994"/>
<polygon fill="midnightblue" stroke="midnightblue" points="138.298,-113.909 145.32,-105.975 134.883,-107.799 138.298,-113.909"/>
</g>
<!-- Node36 -->
<g id="node36" class="node"><title>Node36</title>
<g id="a_node36"><a xlink:href="help_8c.html#a93549cef9e62d17e8bc12713ab4bcd96" target="_top" xlink:title="Display the help menu. ">
<polygon fill="white" stroke="red" points="161.5,-48.8375 161.5,-67.8375 220.5,-67.8375 220.5,-48.8375 161.5,-48.8375"/>
<text text-anchor="middle" x="191" y="-55.8375" font-family="Helvetica,sans-Serif" font-size="10.00">mutt_help</text>
</a>
</g>
</g>
<!-- Node1&#45;&gt;Node36 -->
<g id="edge40" class="edge"><title>Node1&#45;&gt;Node36</title>
<path fill="none" stroke="midnightblue" d="M45.8872,-675.656C45.2629,-605.29 44.7885,-172.49 126,-77.3375 132.478,-69.7475 141.837,-65.1137 151.407,-62.3061"/>
<polygon fill="midnightblue" stroke="midnightblue" points="152.398,-65.6693 161.344,-59.9941 150.811,-58.8514 152.398,-65.6693"/>
</g>
<!-- Node37 -->
<g id="node37" class="node"><title>Node37</title>
<g id="a_node37"><a xlink:href="keymap_8c.html#af6e5b850fe3902dc8378f9e1b4b5a457" target="_top" xlink:title="Handle an unbound key sequence. ">
<polygon fill="white" stroke="red" points="153,-162.838 153,-181.838 229,-181.838 229,-162.838 153,-162.838"/>
<text text-anchor="middle" x="191" y="-169.838" font-family="Helvetica,sans-Serif" font-size="10.00">km_error_key</text>
</a>
</g>
</g>
<!-- Node1&#45;&gt;Node37 -->
<g id="edge41" class="edge"><title>Node1&#45;&gt;Node37</title>
<path fill="none" stroke="midnightblue" d="M46.2124,-675.531C47.7673,-612.729 59.2979,-267.178 126,-191.338 130.629,-186.075 136.641,-182.238 143.126,-179.448"/>
<polygon fill="midnightblue" stroke="midnightblue" points="144.563,-182.654 152.859,-176.063 142.264,-176.042 144.563,-182.654"/>
</g>
<!-- Node9&#45;&gt;Node4 -->
<g id="edge10" class="edge"><title>Node9&#45;&gt;Node4</title>
<path fill="none" stroke="midnightblue" d="M501.69,-1124.92C527.45,-1139.72 577.082,-1168.22 607.402,-1185.64"/>
<polygon fill="midnightblue" stroke="midnightblue" points="605.729,-1188.71 616.144,-1190.66 609.216,-1182.64 605.729,-1188.71"/>
</g>
<!-- Node9&#45;&gt;Node5 -->
<g id="edge9" class="edge"><title>Node9&#45;&gt;Node5</title>
<path fill="none" stroke="midnightblue" d="M487.569,-1105.83C504.796,-1042.04 603.568,-676.317 627.688,-587.008"/>
<polygon fill="midnightblue" stroke="midnightblue" points="631.132,-587.678 630.36,-577.111 624.374,-585.852 631.132,-587.678"/>
</g>
<!-- Node12&#45;&gt;Node9 -->
<g id="edge14" class="edge"><title>Node12&#45;&gt;Node9</title>
<path fill="none" stroke="midnightblue" d="M384.687,-1115.34C394.515,-1115.34 405.202,-1115.34 415.789,-1115.34"/>
<polygon fill="midnightblue" stroke="midnightblue" points="415.879,-1118.84 425.879,-1115.34 415.879,-1111.84 415.879,-1118.84"/>
</g>
<!-- Node33&#45;&gt;Node9 -->
<g id="edge36" class="edge"><title>Node33&#45;&gt;Node9</title>
<path fill="none" stroke="midnightblue" d="M355.265,-1023.84C379.619,-1041.28 431.672,-1078.57 461.261,-1099.77"/>
<polygon fill="midnightblue" stroke="midnightblue" points="459.5,-1102.81 469.668,-1105.79 463.576,-1097.12 459.5,-1102.81"/>
</g>
<!-- Node34&#45;&gt;Node12 -->
<g id="edge38" class="edge"><title>Node34&#45;&gt;Node12</title>
<path fill="none" stroke="midnightblue" d="M232.833,-1101.58C249.72,-1103.75 269.512,-1106.29 287.46,-1108.59"/>
<polygon fill="midnightblue" stroke="midnightblue" points="287.13,-1112.08 297.494,-1109.88 288.021,-1105.14 287.13,-1112.08"/>
</g>
<!-- Node37&#45;&gt;Node8 -->
<g id="edge42" class="edge"><title>Node37&#45;&gt;Node8</title>
<path fill="none" stroke="midnightblue" d="M229.347,-167.543C250.785,-164.791 277.714,-161.334 299.639,-158.519"/>
<polygon fill="midnightblue" stroke="midnightblue" points="300.164,-161.98 309.637,-157.235 299.273,-155.037 300.164,-161.98"/>
</g>
</g>
</svg>
