<?xml version="1.0" encoding="UTF-8" standalone="no"?>
<!DOCTYPE svg PUBLIC "-//W3C//DTD SVG 1.1//EN"
 "http://www.w3.org/Graphics/SVG/1.1/DTD/svg11.dtd">
<!-- Generated by graphviz version 2.36.0 (20140111.2315)
 -->
<!-- Title: menu_make_entry Pages: 1 -->
<svg width="254pt" height="142pt"
 viewBox="0.00 0.00 254.00 142.00" xmlns="http://www.w3.org/2000/svg" xmlns:xlink="http://www.w3.org/1999/xlink">
<g id="graph0" class="graph" transform="scale(1 1) rotate(0) translate(4 138)">
<title>menu_make_entry</title>
<polygon fill="white" stroke="none" points="-4,4 -4,-138 250,-138 250,4 -4,4"/>
<!-- Node1 -->
<g id="node1" class="node"><title>Node1</title>
<polygon fill="#bfbfbf" stroke="black" points="0.5,-57.5 0.5,-76.5 97.5,-76.5 97.5,-57.5 0.5,-57.5"/>
<text text-anchor="middle" x="49" y="-64.5" font-family="Helvetica,sans-Serif" font-size="10.00">menu_make_entry</text>
</g>
<!-- Node2 -->
<g id="node2" class="node"><title>Node2</title>
<g id="a_node2"><a xlink:href="menu_8h.html#a39b631a566b12a37364e82049e708dfa" target="_top" xlink:title="Force the redraw of the index. ">
<polygon fill="white" stroke="red" points="138,-114.5 138,-133.5 242,-133.5 242,-114.5 138,-114.5"/>
<text text-anchor="middle" x="190" y="-121.5" font-family="Helvetica,sans-Serif" font-size="10.00">menu_redraw_index</text>
</a>
</g>
</g>
<!-- Node1&#45;&gt;Node2 -->
<g id="edge1" class="edge"><title>Node1&#45;&gt;Node2</title>
<path fill="none" stroke="midnightblue" d="M79.1746,-80.9976C95.203,-88.4845 115.526,-97.6487 134,-105 142.26,-108.287 151.34,-111.559 159.701,-114.439"/>
<polygon fill="midnightblue" stroke="midnightblue" points="80.3427,-77.679 69.8046,-76.5839 77.3597,-84.0116 80.3427,-77.679"/>
</g>
<!-- Node3 -->
<g id="node3" class="node"><title>Node3</title>
<g id="a_node3"><a xlink:href="menu_8h.html#adb45718706531be131e704b8af873338" target="_top" xlink:title="Force the redraw of the list part of the menu. ">
<polygon fill="white" stroke="red" points="135,-76.5 135,-95.5 245,-95.5 245,-76.5 135,-76.5"/>
<text text-anchor="middle" x="190" y="-83.5" font-family="Helvetica,sans-Serif" font-size="10.00">menu_redraw_motion</text>
</a>
</g>
</g>
<!-- Node1&#45;&gt;Node3 -->
<g id="edge2" class="edge"><title>Node1&#45;&gt;Node3</title>
<path fill="none" stroke="midnightblue" d="M107.807,-74.9017C116.769,-76.1266 125.997,-77.3881 134.873,-78.6014"/>
<polygon fill="midnightblue" stroke="midnightblue" points="108.218,-71.4254 97.8359,-73.5387 107.27,-78.3609 108.218,-71.4254"/>
</g>
<!-- Node4 -->
<g id="node4" class="node"><title>Node4</title>
<g id="a_node4"><a xlink:href="menu_8h.html#a2367fdbd574e0b041ed3382121696602" target="_top" xlink:title="Redraw the current menu. ">
<polygon fill="white" stroke="red" points="135,-38.5 135,-57.5 245,-57.5 245,-38.5 135,-38.5"/>
<text text-anchor="middle" x="190" y="-45.5" font-family="Helvetica,sans-Serif" font-size="10.00">menu_redraw_current</text>
</a>
</g>
</g>
<!-- Node1&#45;&gt;Node4 -->
<g id="edge3" class="edge"><title>Node1&#45;&gt;Node4</title>
<path fill="none" stroke="midnightblue" d="M107.807,-59.0983C116.769,-57.8734 125.997,-56.6119 134.873,-55.3986"/>
<polygon fill="midnightblue" stroke="midnightblue" points="107.27,-55.6391 97.8359,-60.4613 108.218,-62.5746 107.27,-55.6391"/>
</g>
<!-- Node5 -->
<g id="node5" class="node"><title>Node5</title>
<g id="a_node5"><a xlink:href="menu_8c.html#a4883ca3dc6257b41ceb471874d2563b0" target="_top" xlink:title="Search a menu for a item matching a regex. ">
<polygon fill="white" stroke="red" points="134,-0.5 134,-19.5 246,-19.5 246,-0.5 134,-0.5"/>
<text text-anchor="middle" x="190" y="-7.5" font-family="Helvetica,sans-Serif" font-size="10.00">menu_search_generic</text>
</a>
</g>
</g>
<!-- Node1&#45;&gt;Node5 -->
<g id="edge4" class="edge"><title>Node1&#45;&gt;Node5</title>
<path fill="none" stroke="midnightblue" d="M79.1746,-53.0024C95.203,-45.5155 115.526,-36.3513 134,-29 142.26,-25.713 151.34,-22.4407 159.701,-19.5614"/>
<polygon fill="midnightblue" stroke="midnightblue" points="77.3597,-49.9884 69.8046,-57.4161 80.3427,-56.321 77.3597,-49.9884"/>
</g>
</g>
</svg>
