<?xml version="1.0" encoding="UTF-8" standalone="no"?>
<!DOCTYPE svg PUBLIC "-//W3C//DTD SVG 1.1//EN"
 "http://www.w3.org/Graphics/SVG/1.1/DTD/svg11.dtd">
<!-- Generated by graphviz version 2.36.0 (20140111.2315)
 -->
<!-- Title: menu_redraw Pages: 1 -->
<svg width="256pt" height="104pt"
 viewBox="0.00 0.00 256.00 104.00" xmlns="http://www.w3.org/2000/svg" xmlns:xlink="http://www.w3.org/1999/xlink">
<g id="graph0" class="graph" transform="scale(1 1) rotate(0) translate(4 100)">
<title>menu_redraw</title>
<polygon fill="white" stroke="none" points="-4,4 -4,-100 252,-100 252,4 -4,4"/>
<!-- Node1 -->
<g id="node1" class="node"><title>Node1</title>
<polygon fill="#bfbfbf" stroke="black" points="0.5,-38.5 0.5,-57.5 75.5,-57.5 75.5,-38.5 0.5,-38.5"/>
<text text-anchor="middle" x="38" y="-45.5" font-family="Helvetica,sans-Serif" font-size="10.00">menu_redraw</text>
</g>
<!-- Node2 -->
<g id="node2" class="node"><title>Node2</title>
<g id="a_node2"><a xlink:href="menu_8h.html#a37b5dcb140bd203a9f32e02d25137fb4" target="_top" xlink:title="Redraw the current menu. ">
<polygon fill="white" stroke="red" points="112.5,-76.5 112.5,-95.5 247.5,-95.5 247.5,-76.5 112.5,-76.5"/>
<text text-anchor="middle" x="180" y="-83.5" font-family="Helvetica,sans-Serif" font-size="10.00">mutt_menu_current_redraw</text>
</a>
</g>
</g>
<!-- Node1&#45;&gt;Node2 -->
<g id="edge1" class="edge"><title>Node1&#45;&gt;Node2</title>
<path fill="none" stroke="midnightblue" d="M84.1176,-60.2462C103.415,-65.484 125.612,-71.5091 143.683,-76.4141"/>
<polygon fill="midnightblue" stroke="midnightblue" points="84.8956,-56.8308 74.3279,-57.589 83.0619,-63.5864 84.8956,-56.8308"/>
</g>
<!-- Node3 -->
<g id="node3" class="node"><title>Node3</title>
<g id="a_node3"><a xlink:href="menu_8h.html#a2a7161a4171307d15f2362f5d55dfdb1" target="_top" xlink:title="Menu event loop. ">
<polygon fill="white" stroke="red" points="135.5,-38.5 135.5,-57.5 224.5,-57.5 224.5,-38.5 135.5,-38.5"/>
<text text-anchor="middle" x="180" y="-45.5" font-family="Helvetica,sans-Serif" font-size="10.00">mutt_menu_loop</text>
</a>
</g>
</g>
<!-- Node1&#45;&gt;Node3 -->
<g id="edge2" class="edge"><title>Node1&#45;&gt;Node3</title>
<path fill="none" stroke="midnightblue" d="M85.9481,-48C101.87,-48 119.583,-48 135.246,-48"/>
<polygon fill="midnightblue" stroke="midnightblue" points="85.7834,-44.5001 75.7834,-48 85.7833,-51.5001 85.7834,-44.5001"/>
</g>
<!-- Node4 -->
<g id="node4" class="node"><title>Node4</title>
<g id="a_node4"><a xlink:href="recvattach_8c.html#a7e6433ebaec5a9edab09d153872849b7" target="_top" xlink:title="Save a list of attachments. ">
<polygon fill="white" stroke="red" points="113,-0.5 113,-19.5 247,-19.5 247,-0.5 113,-0.5"/>
<text text-anchor="middle" x="180" y="-7.5" font-family="Helvetica,sans-Serif" font-size="10.00">mutt_save_attachment_list</text>
</a>
</g>
</g>
<!-- Node1&#45;&gt;Node4 -->
<g id="edge3" class="edge"><title>Node1&#45;&gt;Node4</title>
<path fill="none" stroke="midnightblue" d="M84.1176,-35.7538C103.415,-30.516 125.612,-24.4909 143.683,-19.5859"/>
<polygon fill="midnightblue" stroke="midnightblue" points="83.0619,-32.4136 74.3279,-38.411 84.8956,-39.1692 83.0619,-32.4136"/>
</g>
</g>
</svg>
