<?xml version="1.0" encoding="UTF-8" standalone="no"?>
<!DOCTYPE svg PUBLIC "-//W3C//DTD SVG 1.1//EN"
 "http://www.w3.org/Graphics/SVG/1.1/DTD/svg11.dtd">
<!-- Generated by graphviz version 2.36.0 (20140111.2315)
 -->
<!-- Title: mutt_menu_new Pages: 1 -->
<svg width="246pt" height="104pt"
 viewBox="0.00 0.00 246.00 104.00" xmlns="http://www.w3.org/2000/svg" xmlns:xlink="http://www.w3.org/1999/xlink">
<g id="graph0" class="graph" transform="scale(1 1) rotate(0) translate(4 100)">
<title>mutt_menu_new</title>
<polygon fill="white" stroke="none" points="-4,4 -4,-100 242,-100 242,4 -4,4"/>
<!-- Node1 -->
<g id="node1" class="node"><title>Node1</title>
<polygon fill="#bfbfbf" stroke="black" points="0.5,-38.5 0.5,-57.5 89.5,-57.5 89.5,-38.5 0.5,-38.5"/>
<text text-anchor="middle" x="45" y="-45.5" font-family="Helvetica,sans-Serif" font-size="10.00">mutt_menu_new</text>
</g>
<!-- Node2 -->
<g id="node2" class="node"><title>Node2</title>
<g id="a_node2"><a xlink:href="memory_8c.html#a4c1612d209c7825d55e6a014df352f03" target="_top" xlink:title="Allocate zeroed memory on the heap. ">
<polygon fill="white" stroke="red" points="135,-76.5 135,-95.5 229,-95.5 229,-76.5 135,-76.5"/>
<text text-anchor="middle" x="182" y="-83.5" font-family="Helvetica,sans-Serif" font-size="10.00">mutt_mem_calloc</text>
</a>
</g>
</g>
<!-- Node1&#45;&gt;Node2 -->
<g id="edge1" class="edge"><title>Node1&#45;&gt;Node2</title>
<path fill="none" stroke="midnightblue" d="M80.0662,-57.589C97.4135,-62.4719 118.702,-68.4643 137.249,-73.685"/>
<polygon fill="midnightblue" stroke="midnightblue" points="136.37,-77.0735 146.945,-76.4141 138.267,-70.3354 136.37,-77.0735"/>
</g>
<!-- Node3 -->
<g id="node3" class="node"><title>Node3</title>
<g id="a_node3"><a xlink:href="menu_8c.html#ad4c3fab8fab8c8af68f9e1e466208452" target="_top" xlink:title="Get the default colour. ">
<polygon fill="white" stroke="black" points="146,-38.5 146,-57.5 218,-57.5 218,-38.5 146,-38.5"/>
<text text-anchor="middle" x="182" y="-45.5" font-family="Helvetica,sans-Serif" font-size="10.00">default_color</text>
</a>
</g>
</g>
<!-- Node1&#45;&gt;Node3 -->
<g id="edge2" class="edge"><title>Node1&#45;&gt;Node3</title>
<path fill="none" stroke="midnightblue" d="M89.8306,-48C104.452,-48 120.769,-48 135.513,-48"/>
<polygon fill="midnightblue" stroke="midnightblue" points="135.924,-51.5001 145.924,-48 135.924,-44.5001 135.924,-51.5001"/>
</g>
<!-- Node4 -->
<g id="node4" class="node"><title>Node4</title>
<g id="a_node4"><a xlink:href="menu_8c.html#a4883ca3dc6257b41ceb471874d2563b0" target="_top" xlink:title="Search a menu for a item matching a regex. ">
<polygon fill="white" stroke="red" points="126,-0.5 126,-19.5 238,-19.5 238,-0.5 126,-0.5"/>
<text text-anchor="middle" x="182" y="-7.5" font-family="Helvetica,sans-Serif" font-size="10.00">menu_search_generic</text>
</a>
</g>
</g>
<!-- Node1&#45;&gt;Node4 -->
<g id="edge3" class="edge"><title>Node1&#45;&gt;Node4</title>
<path fill="none" stroke="midnightblue" d="M80.0662,-38.411C97.4135,-33.5281 118.702,-27.5357 137.249,-22.315"/>
<polygon fill="midnightblue" stroke="midnightblue" points="138.267,-25.6646 146.945,-19.5859 136.37,-18.9265 138.267,-25.6646"/>
</g>
</g>
</svg>
