<?xml version="1.0" encoding="UTF-8" standalone="no"?>
<!DOCTYPE svg PUBLIC "-//W3C//DTD SVG 1.1//EN"
 "http://www.w3.org/Graphics/SVG/1.1/DTD/svg11.dtd">
<!-- Generated by graphviz version 2.36.0 (20140111.2315)
 -->
<!-- Title: mutt_menu_destroy Pages: 1 -->
<svg width="552pt" height="551pt"
 viewBox="0.00 0.00 552.00 551.13" xmlns="http://www.w3.org/2000/svg" xmlns:xlink="http://www.w3.org/1999/xlink">
<g id="graph0" class="graph" transform="scale(1 1) rotate(0) translate(4 547.132)">
<title>mutt_menu_destroy</title>
<polygon fill="white" stroke="none" points="-4,4 -4,-547.132 548,-547.132 548,4 -4,4"/>
<!-- Node1 -->
<g id="node1" class="node"><title>Node1</title>
<polygon fill="#bfbfbf" stroke="black" points="0.5,-257.632 0.5,-276.632 103.5,-276.632 103.5,-257.632 0.5,-257.632"/>
<text text-anchor="middle" x="52" y="-264.632" font-family="Helvetica,sans-Serif" font-size="10.00">mutt_menu_destroy</text>
</g>
<!-- Node2 -->
<g id="node2" class="node"><title>Node2</title>
<g id="a_node2"><a xlink:href="addrbook_8h.html#a59acdb82d3702665725f276de01d7e80" target="_top" xlink:title="Display a menu of Aliases. ">
<polygon fill="white" stroke="red" points="158.5,-523.632 158.5,-542.632 249.5,-542.632 249.5,-523.632 158.5,-523.632"/>
<text text-anchor="middle" x="204" y="-530.632" font-family="Helvetica,sans-Serif" font-size="10.00">mutt_alias_menu</text>
</a>
</g>
</g>
<!-- Node1&#45;&gt;Node2 -->
<g id="edge1" class="edge"><title>Node1&#45;&gt;Node2</title>
<path fill="none" stroke="midnightblue" d="M54.1217,-287.074C57.8336,-333.709 73.6287,-450.729 140,-514.132 145.204,-519.103 151.662,-522.778 158.442,-525.494"/>
<polygon fill="midnightblue" stroke="midnightblue" points="57.5937,-286.545 53.4149,-276.809 50.6102,-287.026 57.5937,-286.545"/>
</g>
<!-- Node3 -->
<g id="node3" class="node"><title>Node3</title>
<g id="a_node3"><a xlink:href="browser_8h.html#ab036990112b8014c0b84c401e77f96d3" target="_top" xlink:title="Let the user select a file. ">
<polygon fill="white" stroke="red" points="161,-485.632 161,-504.632 247,-504.632 247,-485.632 161,-485.632"/>
<text text-anchor="middle" x="204" y="-492.632" font-family="Helvetica,sans-Serif" font-size="10.00">mutt_select_file</text>
</a>
</g>
</g>
<!-- Node1&#45;&gt;Node3 -->
<g id="edge2" class="edge"><title>Node1&#45;&gt;Node3</title>
<path fill="none" stroke="midnightblue" d="M56.1211,-286.813C63.4806,-326.934 85.575,-418.796 140,-471.132 146.496,-477.378 154.784,-482.039 163.198,-485.502"/>
<polygon fill="midnightblue" stroke="midnightblue" points="59.5327,-286 54.3883,-276.738 52.634,-287.187 59.5327,-286"/>
</g>
<!-- Node4 -->
<g id="node4" class="node"><title>Node4</title>
<g id="a_node4"><a xlink:href="compose_8h.html#ad69c04d8ece089edb91f7b1178c2262c" target="_top" xlink:title="Allow the user to edit the message envelope. ">
<polygon fill="white" stroke="red" points="434,-333.632 434,-352.632 544,-352.632 544,-333.632 434,-333.632"/>
<text text-anchor="middle" x="489" y="-340.632" font-family="Helvetica,sans-Serif" font-size="10.00">mutt_compose_menu</text>
</a>
</g>
</g>
<!-- Node1&#45;&gt;Node4 -->
<g id="edge3" class="edge"><title>Node1&#45;&gt;Node4</title>
<path fill="none" stroke="midnightblue" d="M71.3568,-283.355C87.9957,-296.975 113.849,-315.545 140,-324.132 239.739,-356.883 364.13,-353.968 433.945,-348.688"/>
<polygon fill="midnightblue" stroke="midnightblue" points="73.4432,-280.536 63.543,-276.763 68.9294,-285.886 73.4432,-280.536"/>
</g>
<!-- Node5 -->
<g id="node5" class="node"><title>Node5</title>
<g id="a_node5"><a xlink:href="ssl_8c.html#ae0a15dc5df31b626a42f31bd6a5ea7f4" target="_top" xlink:title="Ask the user if a certificate is valid. ">
<polygon fill="white" stroke="red" points="146.5,-409.632 146.5,-428.632 261.5,-428.632 261.5,-409.632 146.5,-409.632"/>
<text text-anchor="middle" x="204" y="-416.632" font-family="Helvetica,sans-Serif" font-size="10.00">interactive_check_cert</text>
</a>
</g>
</g>
<!-- Node1&#45;&gt;Node5 -->
<g id="edge4" class="edge"><title>Node1&#45;&gt;Node5</title>
<path fill="none" stroke="midnightblue" d="M60.4094,-286.231C72.6084,-315.173 99.6602,-369.958 140,-400.132 145.214,-404.032 151.23,-407.137 157.432,-409.609"/>
<polygon fill="midnightblue" stroke="midnightblue" points="63.5968,-284.777 56.59,-276.83 57.1116,-287.412 63.5968,-284.777"/>
</g>
<!-- Node6 -->
<g id="node6" class="node"><title>Node6</title>
<g id="a_node6"><a xlink:href="ssl__gnutls_8c.html#ad2898199aadc914b669fbc3bab018ee2" target="_top" xlink:title="Check a GnuTLS certificate. ">
<polygon fill="white" stroke="red" points="140,-371.632 140,-390.632 268,-390.632 268,-371.632 140,-371.632"/>
<text text-anchor="middle" x="204" y="-378.632" font-family="Helvetica,sans-Serif" font-size="10.00">tls_check_one_certificate</text>
</a>
</g>
</g>
<!-- Node1&#45;&gt;Node6 -->
<g id="edge5" class="edge"><title>Node1&#45;&gt;Node6</title>
<path fill="none" stroke="midnightblue" d="M66.1796,-284.866C81.8299,-304.84 109.661,-337.117 140,-357.132 149.086,-363.126 159.885,-367.932 169.953,-371.623"/>
<polygon fill="midnightblue" stroke="midnightblue" points="68.9247,-282.694 60.0633,-276.886 63.3689,-286.952 68.9247,-282.694"/>
</g>
<!-- Node7 -->
<g id="node7" class="node"><title>Node7</title>
<g id="a_node7"><a xlink:href="curs__main_8h.html#af7d9d8649ad205788c9af1bbf871207f" target="_top" xlink:title="Display a list of emails. ">
<polygon fill="white" stroke="red" points="304,-29.6317 304,-48.6317 398,-48.6317 398,-29.6317 304,-29.6317"/>
<text text-anchor="middle" x="351" y="-36.6317" font-family="Helvetica,sans-Serif" font-size="10.00">mutt_index_menu</text>
</a>
</g>
</g>
<!-- Node1&#45;&gt;Node7 -->
<g id="edge6" class="edge"><title>Node1&#45;&gt;Node7</title>
<path fill="none" stroke="midnightblue" d="M52.9388,-247.428C53.989,-198.916 64.2539,-73.7593 140,-20.1317 198.41,21.2221 290.079,-11.6663 330.144,-29.5208"/>
<polygon fill="midnightblue" stroke="midnightblue" points="49.4379,-247.506 52.8349,-257.541 56.4376,-247.578 49.4379,-247.506"/>
</g>
<!-- Node8 -->
<g id="node8" class="node"><title>Node8</title>
<g id="a_node8"><a xlink:href="mutt__history_8c.html#a93bffce8b018c4f24bd91fb9fb471b18" target="_top" xlink:title="Select an item from a history list. ">
<polygon fill="white" stroke="red" points="166.5,-295.632 166.5,-314.632 241.5,-314.632 241.5,-295.632 166.5,-295.632"/>
<text text-anchor="middle" x="204" y="-302.632" font-family="Helvetica,sans-Serif" font-size="10.00">history_menu</text>
</a>
</g>
</g>
<!-- Node1&#45;&gt;Node8 -->
<g id="edge8" class="edge"><title>Node1&#45;&gt;Node8</title>
<path fill="none" stroke="midnightblue" d="M100.678,-279.21C121.968,-284.604 146.662,-290.859 166.456,-295.874"/>
<polygon fill="midnightblue" stroke="midnightblue" points="101.405,-275.784 90.8513,-276.721 99.6856,-282.569 101.405,-275.784"/>
</g>
<!-- Node9 -->
<g id="node9" class="node"><title>Node9</title>
<g id="a_node9"><a xlink:href="crypt__gpgme_8c.html#a53af74e6bda99d7d997ee5ad0ef4db0a" target="_top" xlink:title="Get the user to select a key. ">
<polygon fill="white" stroke="red" points="158.5,-257.632 158.5,-276.632 249.5,-276.632 249.5,-257.632 158.5,-257.632"/>
<text text-anchor="middle" x="204" y="-264.632" font-family="Helvetica,sans-Serif" font-size="10.00">crypt_select_key</text>
</a>
</g>
</g>
<!-- Node1&#45;&gt;Node9 -->
<g id="edge9" class="edge"><title>Node1&#45;&gt;Node9</title>
<path fill="none" stroke="midnightblue" d="M113.909,-267.132C128.756,-267.132 144.366,-267.132 158.3,-267.132"/>
<polygon fill="midnightblue" stroke="midnightblue" points="113.783,-263.632 103.783,-267.132 113.783,-270.632 113.783,-263.632"/>
</g>
<!-- Node10 -->
<g id="node10" class="node"><title>Node10</title>
<g id="a_node10"><a xlink:href="pgpkey_8c.html#ab7f726c14ca4d6deda3fb33b8e5dbf6a" target="_top" xlink:title="Let the user select a key to use. ">
<polygon fill="white" stroke="red" points="161.5,-219.632 161.5,-238.632 246.5,-238.632 246.5,-219.632 161.5,-219.632"/>
<text text-anchor="middle" x="204" y="-226.632" font-family="Helvetica,sans-Serif" font-size="10.00">pgp_select_key</text>
</a>
</g>
</g>
<!-- Node1&#45;&gt;Node10 -->
<g id="edge10" class="edge"><title>Node1&#45;&gt;Node10</title>
<path fill="none" stroke="midnightblue" d="M100.811,-255.02C121.702,-249.727 145.847,-243.61 165.421,-238.652"/>
<polygon fill="midnightblue" stroke="midnightblue" points="99.6856,-251.694 90.8513,-257.543 101.405,-258.48 99.6856,-251.694"/>
</g>
<!-- Node11 -->
<g id="node11" class="node"><title>Node11</title>
<g id="a_node11"><a xlink:href="smime_8c.html#a12aa822c9bc747adbecb23dbaa781b11" target="_top" xlink:title="Get the user to select a key. ">
<polygon fill="white" stroke="red" points="155,-181.632 155,-200.632 253,-200.632 253,-181.632 155,-181.632"/>
<text text-anchor="middle" x="204" y="-188.632" font-family="Helvetica,sans-Serif" font-size="10.00">smime_select_key</text>
</a>
</g>
</g>
<!-- Node1&#45;&gt;Node11 -->
<g id="edge11" class="edge"><title>Node1&#45;&gt;Node11</title>
<path fill="none" stroke="midnightblue" d="M73.3968,-251.333C90.4283,-238.755 115.752,-221.442 140,-210.132 147.868,-206.461 156.617,-203.296 165.031,-200.659"/>
<polygon fill="midnightblue" stroke="midnightblue" points="71.1867,-248.616 65.2959,-257.422 75.3926,-254.211 71.1867,-248.616"/>
</g>
<!-- Node12 -->
<g id="node12" class="node"><title>Node12</title>
<g id="a_node12"><a xlink:href="pager_8h.html#a1f4fb11389135c8767d9c4adca46f0d4" target="_top" xlink:title="Display a file, or help, in a window. ">
<polygon fill="white" stroke="red" points="318.5,-105.632 318.5,-124.632 383.5,-124.632 383.5,-105.632 318.5,-105.632"/>
<text text-anchor="middle" x="351" y="-112.632" font-family="Helvetica,sans-Serif" font-size="10.00">mutt_pager</text>
</a>
</g>
</g>
<!-- Node1&#45;&gt;Node12 -->
<g id="edge12" class="edge"><title>Node1&#45;&gt;Node12</title>
<path fill="none" stroke="midnightblue" d="M64.9019,-248.817C79.8649,-227.258 107.558,-191.897 140,-172.132 155.324,-162.796 263.578,-135.92 318.378,-122.682"/>
<polygon fill="midnightblue" stroke="midnightblue" points="61.8123,-247.138 59.1213,-257.385 67.6153,-251.053 61.8123,-247.138"/>
</g>
<!-- Node13 -->
<g id="node13" class="node"><title>Node13</title>
<g id="a_node13"><a xlink:href="postpone_8c.html#a52c3666adbfb95453e29046ed90eb57f" target="_top" xlink:title="Create a Menu to select a postponed message. ">
<polygon fill="white" stroke="red" points="170.5,-105.632 170.5,-124.632 237.5,-124.632 237.5,-105.632 170.5,-105.632"/>
<text text-anchor="middle" x="204" y="-112.632" font-family="Helvetica,sans-Serif" font-size="10.00">select_msg</text>
</a>
</g>
</g>
<!-- Node1&#45;&gt;Node13 -->
<g id="edge13" class="edge"><title>Node1&#45;&gt;Node13</title>
<path fill="none" stroke="midnightblue" d="M61.4175,-247.918C74.4591,-220.223 102.057,-169.125 140,-139.132 148.815,-132.164 159.878,-127.047 170.263,-123.373"/>
<polygon fill="midnightblue" stroke="midnightblue" points="58.1066,-246.743 57.1407,-257.294 64.4753,-249.648 58.1066,-246.743"/>
</g>
<!-- Node14 -->
<g id="node14" class="node"><title>Node14</title>
<g id="a_node14"><a xlink:href="query_8c.html#a1ca9d237583501cf25a206723b5c15ec" target="_top" xlink:title="Get the user to enter an Address Query. ">
<polygon fill="white" stroke="red" points="169,-67.6317 169,-86.6317 239,-86.6317 239,-67.6317 169,-67.6317"/>
<text text-anchor="middle" x="204" y="-74.6317" font-family="Helvetica,sans-Serif" font-size="10.00">query_menu</text>
</a>
</g>
</g>
<!-- Node1&#45;&gt;Node14 -->
<g id="edge14" class="edge"><title>Node1&#45;&gt;Node14</title>
<path fill="none" stroke="midnightblue" d="M57.6281,-247.213C66.9442,-211.571 91.3537,-136.819 140,-96.1317 148.15,-89.3155 158.692,-84.9442 168.814,-82.141"/>
<polygon fill="midnightblue" stroke="midnightblue" points="54.1321,-246.769 55.1222,-257.318 60.9263,-248.454 54.1321,-246.769"/>
</g>
<!-- Node15 -->
<g id="node15" class="node"><title>Node15</title>
<g id="a_node15"><a xlink:href="recvattach_8h.html#a513215b1fd88e123dc01f6fa2b264594" target="_top" xlink:title="Show the attachments in a Menu. ">
<polygon fill="white" stroke="black" points="143.5,-29.6317 143.5,-48.6317 264.5,-48.6317 264.5,-29.6317 143.5,-29.6317"/>
<text text-anchor="middle" x="204" y="-36.6317" font-family="Helvetica,sans-Serif" font-size="10.00">mutt_view_attachments</text>
</a>
</g>
</g>
<!-- Node1&#45;&gt;Node15 -->
<g id="edge15" class="edge"><title>Node1&#45;&gt;Node15</title>
<path fill="none" stroke="midnightblue" d="M55.5351,-247.49C61.9054,-206.245 82.4156,-110.147 140,-58.1317 144.324,-54.2263 149.425,-51.1228 154.822,-48.6569"/>
<polygon fill="midnightblue" stroke="midnightblue" points="52.0422,-247.192 54.0942,-257.587 58.972,-248.181 52.0422,-247.192"/>
</g>
<!-- Node16 -->
<g id="node16" class="node"><title>Node16</title>
<g id="a_node16"><a xlink:href="remailer_8c.html#ae49669c6093d966d252f42e356fd9346" target="_top" xlink:title="Create a Mixmaster chain. ">
<polygon fill="white" stroke="black" points="306,-409.632 306,-428.632 396,-428.632 396,-409.632 306,-409.632"/>
<text text-anchor="middle" x="351" y="-416.632" font-family="Helvetica,sans-Serif" font-size="10.00">mix_make_chain</text>
</a>
</g>
</g>
<!-- Node1&#45;&gt;Node16 -->
<g id="edge18" class="edge"><title>Node1&#45;&gt;Node16</title>
<path fill="none" stroke="midnightblue" d="M56.2529,-286.979C63.5711,-324.373 85.1882,-404.52 140,-438.132 200.23,-475.065 289.003,-445.511 329.048,-428.728"/>
<polygon fill="midnightblue" stroke="midnightblue" points="59.644,-286.063 54.4199,-276.845 52.7558,-287.309 59.644,-286.063"/>
</g>
<!-- Node7&#45;&gt;Node4 -->
<g id="edge7" class="edge"><title>Node7&#45;&gt;Node4</title>
<path fill="none" stroke="midnightblue" d="M368.4,-56.333C378.01,-67.1113 389.826,-81.6621 398,-96.1317 446.488,-181.965 477.225,-298.797 485.646,-333.212"/>
<polygon fill="midnightblue" stroke="midnightblue" points="370.915,-53.8973 361.578,-48.89 365.755,-58.627 370.915,-53.8973"/>
</g>
<!-- Node15&#45;&gt;Node7 -->
<g id="edge16" class="edge"><title>Node15&#45;&gt;Node7</title>
<path fill="none" stroke="midnightblue" d="M274.912,-39.1317C284.651,-39.1317 294.453,-39.1317 303.613,-39.1317"/>
<polygon fill="midnightblue" stroke="midnightblue" points="274.814,-35.6318 264.814,-39.1317 274.814,-42.6318 274.814,-35.6318"/>
</g>
<!-- Node15&#45;&gt;Node12 -->
<g id="edge17" class="edge"><title>Node15&#45;&gt;Node12</title>
<path fill="none" stroke="midnightblue" d="M253.38,-52.0065C258.403,-53.8487 263.362,-55.8901 268,-58.1317 295.318,-71.3338 323.606,-93.1223 338.772,-105.589"/>
<polygon fill="midnightblue" stroke="midnightblue" points="254.304,-48.6238 243.71,-48.7091 252.045,-55.2492 254.304,-48.6238"/>
</g>
<!-- Node16&#45;&gt;Node4 -->
<g id="edge19" class="edge"><title>Node16&#45;&gt;Node4</title>
<path fill="none" stroke="midnightblue" d="M378.224,-404.477C405.556,-389.203 447.589,-365.714 470.915,-352.679"/>
<polygon fill="midnightblue" stroke="midnightblue" points="376.247,-401.573 369.224,-409.506 379.661,-407.683 376.247,-401.573"/>
</g>
</g>
</svg>
