<?xml version="1.0" encoding="UTF-8" standalone="no"?>
<!DOCTYPE svg PUBLIC "-//W3C//DTD SVG 1.1//EN"
 "http://www.w3.org/Graphics/SVG/1.1/DTD/svg11.dtd">
<!-- Generated by graphviz version 2.36.0 (20140111.2315)
 -->
<!-- Title: menu_redraw Pages: 1 -->
<svg width="234pt" height="294pt"
 viewBox="0.00 0.00 234.00 294.00" xmlns="http://www.w3.org/2000/svg" xmlns:xlink="http://www.w3.org/1999/xlink">
<g id="graph0" class="graph" transform="scale(1 1) rotate(0) translate(4 290)">
<title>menu_redraw</title>
<polygon fill="white" stroke="none" points="-4,4 -4,-290 230,-290 230,4 -4,4"/>
<!-- Node1 -->
<g id="node1" class="node"><title>Node1</title>
<polygon fill="#bfbfbf" stroke="black" points="0.5,-133.5 0.5,-152.5 75.5,-152.5 75.5,-133.5 0.5,-133.5"/>
<text text-anchor="middle" x="38" y="-140.5" font-family="Helvetica,sans-Serif" font-size="10.00">menu_redraw</text>
</g>
<!-- Node2 -->
<g id="node2" class="node"><title>Node2</title>
<g id="a_node2"><a xlink:href="menu_8c.html#a7416efe55303324c07e1515bec5697d2" target="_top" xlink:title="Force the redraw of the Menu. ">
<polygon fill="white" stroke="red" points="122.5,-266.5 122.5,-285.5 215.5,-285.5 215.5,-266.5 122.5,-266.5"/>
<text text-anchor="middle" x="169" y="-273.5" font-family="Helvetica,sans-Serif" font-size="10.00">menu_redraw_full</text>
</a>
</g>
</g>
<!-- Node1&#45;&gt;Node2 -->
<g id="edge1" class="edge"><title>Node1&#45;&gt;Node2</title>
<path fill="none" stroke="midnightblue" d="M42.638,-152.819C51.2516,-174.744 74.988,-228.027 112,-257 114.312,-258.81 116.805,-260.452 119.412,-261.942"/>
<polygon fill="midnightblue" stroke="midnightblue" points="118.087,-265.19 128.607,-266.442 121.164,-258.902 118.087,-265.19"/>
</g>
<!-- Node3 -->
<g id="node3" class="node"><title>Node3</title>
<g id="a_node3"><a xlink:href="menu_8c.html#a71465e725b041bc3175323d0210f69ca" target="_top" xlink:title="Recentre the menu on screen. ">
<polygon fill="white" stroke="black" points="112.5,-228.5 112.5,-247.5 225.5,-247.5 225.5,-228.5 112.5,-228.5"/>
<text text-anchor="middle" x="169" y="-235.5" font-family="Helvetica,sans-Serif" font-size="10.00">menu_check_recenter</text>
</a>
</g>
</g>
<!-- Node1&#45;&gt;Node3 -->
<g id="edge2" class="edge"><title>Node1&#45;&gt;Node3</title>
<path fill="none" stroke="midnightblue" d="M45.7588,-152.587C57.4851,-168.553 83.129,-200.644 112,-219 115.176,-221.019 118.59,-222.85 122.11,-224.504"/>
<polygon fill="midnightblue" stroke="midnightblue" points="121.006,-227.836 131.581,-228.481 123.716,-221.382 121.006,-227.836"/>
</g>
<!-- Node4 -->
<g id="node4" class="node"><title>Node4</title>
<g id="a_node4"><a xlink:href="menu_8c.html#a3581b1d404de8b9d6e4000d20fd316b2" target="_top" xlink:title="Force the redraw of the status bar. ">
<polygon fill="white" stroke="red" points="115.5,-190.5 115.5,-209.5 222.5,-209.5 222.5,-190.5 115.5,-190.5"/>
<text text-anchor="middle" x="169" y="-197.5" font-family="Helvetica,sans-Serif" font-size="10.00">menu_redraw_status</text>
</a>
</g>
</g>
<!-- Node1&#45;&gt;Node4 -->
<g id="edge3" class="edge"><title>Node1&#45;&gt;Node4</title>
<path fill="none" stroke="midnightblue" d="M55.7541,-152.659C70.3256,-160.83 92.1581,-172.528 112,-181 117.016,-183.142 122.362,-185.213 127.685,-187.15"/>
<polygon fill="midnightblue" stroke="midnightblue" points="126.569,-190.468 137.164,-190.48 128.889,-183.863 126.569,-190.468"/>
</g>
<!-- Node5 -->
<g id="node5" class="node"><title>Node5</title>
<g id="a_node5"><a xlink:href="menu_8c.html#a9ac53a1387658c04193745814be89345" target="_top" xlink:title="Force the redraw of the sidebar. ">
<polygon fill="white" stroke="red" points="113,-152.5 113,-171.5 225,-171.5 225,-152.5 113,-152.5"/>
<text text-anchor="middle" x="169" y="-159.5" font-family="Helvetica,sans-Serif" font-size="10.00">menu_redraw_sidebar</text>
</a>
</g>
</g>
<!-- Node1&#45;&gt;Node5 -->
<g id="edge4" class="edge"><title>Node1&#45;&gt;Node5</title>
<path fill="none" stroke="midnightblue" d="M75.6212,-148.394C84.1547,-149.651 93.4945,-151.026 102.852,-152.405"/>
<polygon fill="midnightblue" stroke="midnightblue" points="102.573,-155.901 112.977,-153.896 103.593,-148.976 102.573,-155.901"/>
</g>
<!-- Node6 -->
<g id="node6" class="node"><title>Node6</title>
<g id="a_node6"><a xlink:href="menu_8c.html#a39b631a566b12a37364e82049e708dfa" target="_top" xlink:title="Force the redraw of the index. ">
<polygon fill="white" stroke="red" points="117,-114.5 117,-133.5 221,-133.5 221,-114.5 117,-114.5"/>
<text text-anchor="middle" x="169" y="-121.5" font-family="Helvetica,sans-Serif" font-size="10.00">menu_redraw_index</text>
</a>
</g>
</g>
<!-- Node1&#45;&gt;Node6 -->
<g id="edge5" class="edge"><title>Node1&#45;&gt;Node6</title>
<path fill="none" stroke="midnightblue" d="M75.6212,-137.606C85.3303,-136.176 96.083,-134.592 106.719,-133.026"/>
<polygon fill="midnightblue" stroke="midnightblue" points="107.459,-136.455 116.842,-131.535 106.439,-129.529 107.459,-136.455"/>
</g>
<!-- Node7 -->
<g id="node7" class="node"><title>Node7</title>
<g id="a_node7"><a xlink:href="menu_8c.html#adb45718706531be131e704b8af873338" target="_top" xlink:title="Force the redraw of the list part of the menu. ">
<polygon fill="white" stroke="red" points="114,-76.5 114,-95.5 224,-95.5 224,-76.5 114,-76.5"/>
<text text-anchor="middle" x="169" y="-83.5" font-family="Helvetica,sans-Serif" font-size="10.00">menu_redraw_motion</text>
</a>
</g>
</g>
<!-- Node1&#45;&gt;Node7 -->
<g id="edge6" class="edge"><title>Node1&#45;&gt;Node7</title>
<path fill="none" stroke="midnightblue" d="M55.7541,-133.341C70.3256,-125.17 92.1581,-113.472 112,-105 117.016,-102.858 122.362,-100.787 127.685,-98.8499"/>
<polygon fill="midnightblue" stroke="midnightblue" points="128.889,-102.137 137.164,-95.5204 126.569,-95.5321 128.889,-102.137"/>
</g>
<!-- Node8 -->
<g id="node8" class="node"><title>Node8</title>
<g id="a_node8"><a xlink:href="menu_8c.html#a2367fdbd574e0b041ed3382121696602" target="_top" xlink:title="Redraw the current menu. ">
<polygon fill="white" stroke="red" points="114,-38.5 114,-57.5 224,-57.5 224,-38.5 114,-38.5"/>
<text text-anchor="middle" x="169" y="-45.5" font-family="Helvetica,sans-Serif" font-size="10.00">menu_redraw_current</text>
</a>
</g>
</g>
<!-- Node1&#45;&gt;Node8 -->
<g id="edge7" class="edge"><title>Node1&#45;&gt;Node8</title>
<path fill="none" stroke="midnightblue" d="M45.7588,-133.413C57.4851,-117.447 83.129,-85.3556 112,-67 115.176,-64.9809 118.59,-63.1504 122.11,-61.496"/>
<polygon fill="midnightblue" stroke="midnightblue" points="123.716,-64.6178 131.581,-57.5192 121.006,-58.1637 123.716,-64.6178"/>
</g>
<!-- Node9 -->
<g id="node9" class="node"><title>Node9</title>
<g id="a_node9"><a xlink:href="menu_8c.html#a721466278a119292b94cd645ff08a011" target="_top" xlink:title="Force the redraw of the message window. ">
<polygon fill="white" stroke="red" points="114,-0.5 114,-19.5 224,-19.5 224,-0.5 114,-0.5"/>
<text text-anchor="middle" x="169" y="-7.5" font-family="Helvetica,sans-Serif" font-size="10.00">menu_redraw_prompt</text>
</a>
</g>
</g>
<!-- Node1&#45;&gt;Node9 -->
<g id="edge8" class="edge"><title>Node1&#45;&gt;Node9</title>
<path fill="none" stroke="midnightblue" d="M42.638,-133.181C51.2516,-111.256 74.988,-57.973 112,-29 114.312,-27.1905 116.805,-25.5482 119.412,-24.0583"/>
<polygon fill="midnightblue" stroke="midnightblue" points="121.164,-27.0978 128.607,-19.5584 118.087,-20.8103 121.164,-27.0978"/>
</g>
</g>
</svg>
