<?xml version="1.0" encoding="UTF-8" standalone="no"?>
<!DOCTYPE svg PUBLIC "-//W3C//DTD SVG 1.1//EN"
 "http://www.w3.org/Graphics/SVG/1.1/DTD/svg11.dtd">
<!-- Generated by graphviz version 2.36.0 (20140111.2315)
 -->
<!-- Title: menu_redraw_sidebar Pages: 1 -->
<svg width="276pt" height="142pt"
 viewBox="0.00 0.00 276.00 142.00" xmlns="http://www.w3.org/2000/svg" xmlns:xlink="http://www.w3.org/1999/xlink">
<g id="graph0" class="graph" transform="scale(1 1) rotate(0) translate(4 138)">
<title>menu_redraw_sidebar</title>
<polygon fill="white" stroke="none" points="-4,4 -4,-138 272,-138 272,4 -4,4"/>
<!-- Node1 -->
<g id="node1" class="node"><title>Node1</title>
<polygon fill="#bfbfbf" stroke="black" points="0,-57.5 0,-76.5 112,-76.5 112,-57.5 0,-57.5"/>
<text text-anchor="middle" x="56" y="-64.5" font-family="Helvetica,sans-Serif" font-size="10.00">menu_redraw_sidebar</text>
</g>
<!-- Node2 -->
<g id="node2" class="node"><title>Node2</title>
<g id="a_node2"><a xlink:href="compose_8c.html#a6f938a3a43a8c9ba133888de7bb4ffa3" target="_top" xlink:title="Redraw the compose menu. ">
<polygon fill="white" stroke="red" points="148,-114.5 148,-133.5 268,-133.5 268,-114.5 148,-114.5"/>
<text text-anchor="middle" x="208" y="-121.5" font-family="Helvetica,sans-Serif" font-size="10.00">compose_menu_redraw</text>
</a>
</g>
</g>
<!-- Node1&#45;&gt;Node2 -->
<g id="edge1" class="edge"><title>Node1&#45;&gt;Node2</title>
<path fill="none" stroke="midnightblue" d="M87.676,-80.5661C105.202,-88.1255 127.672,-97.4975 148,-105 156.884,-108.279 166.632,-111.549 175.6,-114.428"/>
<polygon fill="midnightblue" stroke="midnightblue" points="89.0596,-77.3513 78.4932,-76.5764 86.2701,-83.7715 89.0596,-77.3513"/>
</g>
<!-- Node3 -->
<g id="node3" class="node"><title>Node3</title>
<g id="a_node3"><a xlink:href="curs__main_8c.html#afc0ce7b52050dd68f91ca41be7d8bb05" target="_top" xlink:title="Redraw the index. ">
<polygon fill="white" stroke="red" points="156,-76.5 156,-95.5 260,-95.5 260,-76.5 156,-76.5"/>
<text text-anchor="middle" x="208" y="-83.5" font-family="Helvetica,sans-Serif" font-size="10.00">index_menu_redraw</text>
</a>
</g>
</g>
<!-- Node1&#45;&gt;Node3 -->
<g id="edge2" class="edge"><title>Node1&#45;&gt;Node3</title>
<path fill="none" stroke="midnightblue" d="M122.259,-75.2661C133.551,-76.6965 145.144,-78.1649 155.988,-79.5385"/>
<polygon fill="midnightblue" stroke="midnightblue" points="122.363,-71.7515 112.003,-73.967 121.484,-78.696 122.363,-71.7515"/>
</g>
<!-- Node4 -->
<g id="node4" class="node"><title>Node4</title>
<g id="a_node4"><a xlink:href="menu_8h.html#a3da31793ff9ae935dccab75ae653a064" target="_top" xlink:title="Redraw the parts of the screen that have been flagged to be redrawn. ">
<polygon fill="white" stroke="red" points="170.5,-38.5 170.5,-57.5 245.5,-57.5 245.5,-38.5 170.5,-38.5"/>
<text text-anchor="middle" x="208" y="-45.5" font-family="Helvetica,sans-Serif" font-size="10.00">menu_redraw</text>
</a>
</g>
</g>
<!-- Node1&#45;&gt;Node4 -->
<g id="edge3" class="edge"><title>Node1&#45;&gt;Node4</title>
<path fill="none" stroke="midnightblue" d="M122.146,-58.7481C138.619,-56.6616 155.736,-54.4934 170.246,-52.6555"/>
<polygon fill="midnightblue" stroke="midnightblue" points="121.484,-55.304 112.003,-60.033 122.363,-62.2485 121.484,-55.304"/>
</g>
<!-- Node5 -->
<g id="node5" class="node"><title>Node5</title>
<g id="a_node5"><a xlink:href="pager_8c.html#a52c5ec88001eecfe06a423117fad7346" target="_top" xlink:title="Redraw the pager window. ">
<polygon fill="white" stroke="red" points="156,-0.5 156,-19.5 260,-19.5 260,-0.5 156,-0.5"/>
<text text-anchor="middle" x="208" y="-7.5" font-family="Helvetica,sans-Serif" font-size="10.00">pager_menu_redraw</text>
</a>
</g>
</g>
<!-- Node1&#45;&gt;Node5 -->
<g id="edge4" class="edge"><title>Node1&#45;&gt;Node5</title>
<path fill="none" stroke="midnightblue" d="M87.676,-53.4339C105.202,-45.8745 127.672,-36.5025 148,-29 156.884,-25.7212 166.632,-22.4515 175.6,-19.572"/>
<polygon fill="midnightblue" stroke="midnightblue" points="86.2701,-50.2285 78.4932,-57.4236 89.0596,-56.6487 86.2701,-50.2285"/>
</g>
</g>
</svg>
