<?xml version="1.0" encoding="UTF-8" standalone="no"?>
<!DOCTYPE svg PUBLIC "-//W3C//DTD SVG 1.1//EN"
 "http://www.w3.org/Graphics/SVG/1.1/DTD/svg11.dtd">
<!-- Generated by graphviz version 2.36.0 (20140111.2315)
 -->
<!-- Title: get_current_menu Pages: 1 -->
<svg width="276pt" height="165pt"
 viewBox="0.00 0.00 276.00 165.00" xmlns="http://www.w3.org/2000/svg" xmlns:xlink="http://www.w3.org/1999/xlink">
<g id="graph0" class="graph" transform="scale(1 1) rotate(0) translate(4 161)">
<title>get_current_menu</title>
<polygon fill="white" stroke="none" points="-4,4 -4,-161 272,-161 272,4 -4,4"/>
<!-- Node1 -->
<g id="node1" class="node"><title>Node1</title>
<polygon fill="#bfbfbf" stroke="black" points="0.5,-68.5 0.5,-87.5 95.5,-87.5 95.5,-68.5 0.5,-68.5"/>
<text text-anchor="middle" x="48" y="-75.5" font-family="Helvetica,sans-Serif" font-size="10.00">get_current_menu</text>
</g>
<!-- Node2 -->
<g id="node2" class="node"><title>Node2</title>
<g id="a_node2"><a xlink:href="menu_8h.html#acbb5c8e0e047ca06629a7e8ee967d890" target="_top" xlink:title="Remove a Menu from the stack. ">
<polygon fill="white" stroke="red" points="139,-137.5 139,-156.5 261,-156.5 261,-137.5 139,-137.5"/>
<text text-anchor="middle" x="200" y="-144.5" font-family="Helvetica,sans-Serif" font-size="10.00">mutt_menu_pop_current</text>
</a>
</g>
</g>
<!-- Node1&#45;&gt;Node2 -->
<g id="edge1" class="edge"><title>Node1&#45;&gt;Node2</title>
<path fill="none" stroke="midnightblue" d="M71.5958,-93.3806C87.8502,-103.928 110.592,-117.652 132,-127 141.234,-131.032 151.523,-134.552 161.212,-137.468"/>
<polygon fill="midnightblue" stroke="midnightblue" points="73.1075,-90.1846 62.8341,-87.5945 69.25,-96.0259 73.1075,-90.1846"/>
</g>
<!-- Node3 -->
<g id="node3" class="node"><title>Node3</title>
<g id="a_node3"><a xlink:href="menu_8h.html#ac7c599cfeb401ad9750c8827c2d6daa4" target="_top" xlink:title="Set redraw flags on the current menu. ">
<polygon fill="white" stroke="red" points="140.5,-88 140.5,-118 259.5,-118 259.5,-88 140.5,-88"/>
<text text-anchor="start" x="148.5" y="-106" font-family="Helvetica,sans-Serif" font-size="10.00">mutt_menu_set_current</text>
<text text-anchor="middle" x="200" y="-95" font-family="Helvetica,sans-Serif" font-size="10.00">_redraw</text>
</a>
</g>
</g>
<!-- Node1&#45;&gt;Node3 -->
<g id="edge2" class="edge"><title>Node1&#45;&gt;Node3</title>
<path fill="none" stroke="midnightblue" d="M105.846,-87.4743C117.175,-89.3626 129.093,-91.3488 140.478,-93.2463"/>
<polygon fill="midnightblue" stroke="midnightblue" points="106.078,-83.9648 95.6387,-85.7731 104.927,-90.8696 106.078,-83.9648"/>
</g>
<!-- Node4 -->
<g id="node4" class="node"><title>Node4</title>
<g id="a_node4"><a xlink:href="menu_8h.html#adea2310d0ce202d0e2e3170b434c0ecc" target="_top" xlink:title="Flag the current menu to be fully redrawn. ">
<polygon fill="white" stroke="red" points="140.5,-39 140.5,-69 259.5,-69 259.5,-39 140.5,-39"/>
<text text-anchor="start" x="148.5" y="-57" font-family="Helvetica,sans-Serif" font-size="10.00">mutt_menu_set_current</text>
<text text-anchor="middle" x="200" y="-46" font-family="Helvetica,sans-Serif" font-size="10.00">_redraw_full</text>
</a>
</g>
</g>
<!-- Node1&#45;&gt;Node4 -->
<g id="edge3" class="edge"><title>Node1&#45;&gt;Node4</title>
<path fill="none" stroke="midnightblue" d="M105.846,-68.9047C117.175,-67.0919 129.093,-65.1851 140.478,-63.3636"/>
<polygon fill="midnightblue" stroke="midnightblue" points="104.96,-65.5018 95.6387,-70.5378 106.066,-72.4139 104.96,-65.5018"/>
</g>
<!-- Node5 -->
<g id="node5" class="node"><title>Node5</title>
<g id="a_node5"><a xlink:href="menu_8h.html#a37b5dcb140bd203a9f32e02d25137fb4" target="_top" xlink:title="Redraw the current menu. ">
<polygon fill="white" stroke="red" points="132.5,-0.5 132.5,-19.5 267.5,-19.5 267.5,-0.5 132.5,-0.5"/>
<text text-anchor="middle" x="200" y="-7.5" font-family="Helvetica,sans-Serif" font-size="10.00">mutt_menu_current_redraw</text>
</a>
</g>
</g>
<!-- Node1&#45;&gt;Node5 -->
<g id="edge4" class="edge"><title>Node1&#45;&gt;Node5</title>
<path fill="none" stroke="midnightblue" d="M71.9325,-62.7762C88.1867,-52.4821 110.79,-39.1481 132,-30 141.252,-26.0097 151.547,-22.5045 161.237,-19.5893"/>
<polygon fill="midnightblue" stroke="midnightblue" points="69.6656,-60.0732 63.1546,-68.4313 73.4566,-65.9577 69.6656,-60.0732"/>
</g>
</g>
</svg>
