<?xml version="1.0" encoding="UTF-8" standalone="no"?>
<!DOCTYPE svg PUBLIC "-//W3C//DTD SVG 1.1//EN"
 "http://www.w3.org/Graphics/SVG/1.1/DTD/svg11.dtd">
<!-- Generated by graphviz version 2.36.0 (20140111.2315)
 -->
<!-- Title: menu_redraw_motion Pages: 1 -->
<svg width="274pt" height="180pt"
 viewBox="0.00 0.00 274.00 180.00" xmlns="http://www.w3.org/2000/svg" xmlns:xlink="http://www.w3.org/1999/xlink">
<g id="graph0" class="graph" transform="scale(1 1) rotate(0) translate(4 176)">
<title>menu_redraw_motion</title>
<polygon fill="white" stroke="none" points="-4,4 -4,-176 270,-176 270,4 -4,4"/>
<!-- Node1 -->
<g id="node1" class="node"><title>Node1</title>
<polygon fill="#bfbfbf" stroke="black" points="0,-76.5 0,-95.5 110,-95.5 110,-76.5 0,-76.5"/>
<text text-anchor="middle" x="55" y="-83.5" font-family="Helvetica,sans-Serif" font-size="10.00">menu_redraw_motion</text>
</g>
<!-- Node2 -->
<g id="node2" class="node"><title>Node2</title>
<g id="a_node2"><a xlink:href="mutt__window_8c.html#a9d73d6b2ea4ab73d2e91b731d21089d7" target="_top" xlink:title="Move the cursor in a Window. ">
<polygon fill="white" stroke="black" points="154,-152.5 154,-171.5 258,-171.5 258,-152.5 154,-152.5"/>
<text text-anchor="middle" x="206" y="-159.5" font-family="Helvetica,sans-Serif" font-size="10.00">mutt_window_move</text>
</a>
</g>
</g>
<!-- Node1&#45;&gt;Node2 -->
<g id="edge1" class="edge"><title>Node1&#45;&gt;Node2</title>
<path fill="none" stroke="midnightblue" d="M68.8163,-95.5964C85.7526,-107.922 116.857,-129.349 146,-143 150.691,-145.197 155.705,-147.24 160.753,-149.109"/>
<polygon fill="midnightblue" stroke="midnightblue" points="159.834,-152.495 170.429,-152.483 162.139,-145.886 159.834,-152.495"/>
</g>
<!-- Node3 -->
<g id="node3" class="node"><title>Node3</title>
<g id="a_node3"><a xlink:href="menu_8c.html#a65c43898520f719053f623c019bebe39" target="_top" xlink:title="Create string to display in a Menu (the index) ">
<polygon fill="white" stroke="black" points="157.5,-114.5 157.5,-133.5 254.5,-133.5 254.5,-114.5 157.5,-114.5"/>
<text text-anchor="middle" x="206" y="-121.5" font-family="Helvetica,sans-Serif" font-size="10.00">menu_make_entry</text>
</a>
</g>
</g>
<!-- Node1&#45;&gt;Node3 -->
<g id="edge2" class="edge"><title>Node1&#45;&gt;Node3</title>
<path fill="none" stroke="midnightblue" d="M93.599,-95.589C113.084,-100.558 137.075,-106.677 157.796,-111.961"/>
<polygon fill="midnightblue" stroke="midnightblue" points="157.117,-115.4 167.671,-114.48 158.846,-108.617 157.117,-115.4"/>
</g>
<!-- Node4 -->
<g id="node4" class="node"><title>Node4</title>
<g id="a_node4"><a xlink:href="menu_8c.html#a817398faa8fdc8d02ddd64dc084a607a" target="_top" xlink:title="Pad a string with spaces for display in the Menu. ">
<polygon fill="white" stroke="red" points="160.5,-76.5 160.5,-95.5 251.5,-95.5 251.5,-76.5 160.5,-76.5"/>
<text text-anchor="middle" x="206" y="-83.5" font-family="Helvetica,sans-Serif" font-size="10.00">menu_pad_string</text>
</a>
</g>
</g>
<!-- Node1&#45;&gt;Node4 -->
<g id="edge3" class="edge"><title>Node1&#45;&gt;Node4</title>
<path fill="none" stroke="midnightblue" d="M110.214,-86C123.214,-86 137.106,-86 150.135,-86"/>
<polygon fill="midnightblue" stroke="midnightblue" points="150.366,-89.5001 160.366,-86 150.366,-82.5001 150.366,-89.5001"/>
</g>
<!-- Node5 -->
<g id="node5" class="node"><title>Node5</title>
<g id="a_node5"><a xlink:href="menu_8c.html#ae1b762f56b55783a43fab318cf996f0e" target="_top" xlink:title="Display a string with embedded colours and graphics. ">
<polygon fill="white" stroke="red" points="152.5,-38.5 152.5,-57.5 259.5,-57.5 259.5,-38.5 152.5,-38.5"/>
<text text-anchor="middle" x="206" y="-45.5" font-family="Helvetica,sans-Serif" font-size="10.00">print_enriched_string</text>
</a>
</g>
</g>
<!-- Node1&#45;&gt;Node5 -->
<g id="edge4" class="edge"><title>Node1&#45;&gt;Node5</title>
<path fill="none" stroke="midnightblue" d="M93.599,-76.411C113.084,-71.4417 137.075,-65.3233 157.796,-60.0387"/>
<polygon fill="midnightblue" stroke="midnightblue" points="158.846,-63.3828 167.671,-57.5201 157.117,-56.5999 158.846,-63.3828"/>
</g>
<!-- Node6 -->
<g id="node6" class="node"><title>Node6</title>
<g id="a_node6"><a xlink:href="mutt__window_8c.html#a93b418d718fa99be8df4d03ba525d027" target="_top" xlink:title="Move the cursor and write a fixed string to a Window. ">
<polygon fill="white" stroke="black" points="146,-0.5 146,-19.5 266,-19.5 266,-0.5 146,-0.5"/>
<text text-anchor="middle" x="206" y="-7.5" font-family="Helvetica,sans-Serif" font-size="10.00">mutt_window_mvaddstr</text>
</a>
</g>
</g>
<!-- Node1&#45;&gt;Node6 -->
<g id="edge5" class="edge"><title>Node1&#45;&gt;Node6</title>
<path fill="none" stroke="midnightblue" d="M68.8163,-76.4036C85.7526,-64.0776 116.857,-42.6508 146,-29 150.691,-26.8025 155.705,-24.7597 160.753,-22.8909"/>
<polygon fill="midnightblue" stroke="midnightblue" points="162.139,-26.1145 170.429,-19.517 159.834,-19.5048 162.139,-26.1145"/>
</g>
</g>
</svg>
