<?xml version="1.0" encoding="UTF-8" standalone="no"?>
<!DOCTYPE svg PUBLIC "-//W3C//DTD SVG 1.1//EN"
 "http://www.w3.org/Graphics/SVG/1.1/DTD/svg11.dtd">
<!-- Generated by graphviz version 2.36.0 (20140111.2315)
 -->
<!-- Title: mutt_menu_set_current_redraw_full Pages: 1 -->
<svg width="440pt" height="267pt"
 viewBox="0.00 0.00 440.00 267.00" xmlns="http://www.w3.org/2000/svg" xmlns:xlink="http://www.w3.org/1999/xlink">
<g id="graph0" class="graph" transform="scale(1 1) rotate(0) translate(4 263)">
<title>mutt_menu_set_current_redraw_full</title>
<polygon fill="white" stroke="none" points="-4,4 -4,-263 436,-263 436,4 -4,4"/>
<!-- Node1 -->
<g id="node1" class="node"><title>Node1</title>
<polygon fill="#bfbfbf" stroke="black" points="0.5,-120 0.5,-150 119.5,-150 119.5,-120 0.5,-120"/>
<text text-anchor="start" x="8.5" y="-138" font-family="Helvetica,sans-Serif" font-size="10.00">mutt_menu_set_current</text>
<text text-anchor="middle" x="60" y="-127" font-family="Helvetica,sans-Serif" font-size="10.00">_redraw_full</text>
</g>
<!-- Node2 -->
<g id="node2" class="node"><title>Node2</title>
<g id="a_node2"><a xlink:href="curs__lib_8h.html#abbd51b0f01f2565da12fddf6716c7b9c" target="_top" xlink:title="Force a hard refresh. ">
<polygon fill="white" stroke="red" points="164.5,-239.5 164.5,-258.5 285.5,-258.5 285.5,-239.5 164.5,-239.5"/>
<text text-anchor="middle" x="225" y="-246.5" font-family="Helvetica,sans-Serif" font-size="10.00">mutt_need_hard_redraw</text>
</a>
</g>
</g>
<!-- Node1&#45;&gt;Node2 -->
<g id="edge1" class="edge"><title>Node1&#45;&gt;Node2</title>
<path fill="none" stroke="midnightblue" d="M78.4025,-158.285C95.7653,-179.921 124.356,-211.505 156,-230 162.561,-233.835 169.933,-236.927 177.338,-239.41"/>
<polygon fill="midnightblue" stroke="midnightblue" points="81.0257,-155.958 72.1008,-150.249 75.5174,-160.278 81.0257,-155.958"/>
</g>
<!-- Node3 -->
<g id="node3" class="node"><title>Node3</title>
<g id="a_node3"><a xlink:href="init_8c.html#a0367e0b0cd983643eb9384a8c0242e18" target="_top" xlink:title="Parse the &#39;alias&#39; command &#45; Implements command_t. ">
<polygon fill="white" stroke="black" points="192,-201.5 192,-220.5 258,-220.5 258,-201.5 192,-201.5"/>
<text text-anchor="middle" x="225" y="-208.5" font-family="Helvetica,sans-Serif" font-size="10.00">parse_alias</text>
</a>
</g>
</g>
<!-- Node1&#45;&gt;Node3 -->
<g id="edge2" class="edge"><title>Node1&#45;&gt;Node3</title>
<path fill="none" stroke="midnightblue" d="M90.7939,-155.713C108.981,-167.623 133.074,-182.133 156,-192 167.372,-196.894 180.355,-200.884 191.908,-203.922"/>
<polygon fill="midnightblue" stroke="midnightblue" points="92.6353,-152.734 82.3714,-150.106 88.7565,-158.561 92.6353,-152.734"/>
</g>
<!-- Node4 -->
<g id="node4" class="node"><title>Node4</title>
<g id="a_node4"><a xlink:href="init_8c.html#a08cd0521c5372bc33d02ed8f1ed2ba35" target="_top" xlink:title="Parse the &#39;unalias&#39; command &#45; Implements command_t. ">
<polygon fill="white" stroke="black" points="186.5,-163.5 186.5,-182.5 263.5,-182.5 263.5,-163.5 186.5,-163.5"/>
<text text-anchor="middle" x="225" y="-170.5" font-family="Helvetica,sans-Serif" font-size="10.00">parse_unalias</text>
</a>
</g>
</g>
<!-- Node1&#45;&gt;Node4 -->
<g id="edge3" class="edge"><title>Node1&#45;&gt;Node4</title>
<path fill="none" stroke="midnightblue" d="M129.809,-151.041C149.075,-155.533 169.311,-160.25 186.067,-164.157"/>
<polygon fill="midnightblue" stroke="midnightblue" points="130.38,-147.581 119.847,-148.719 128.791,-154.398 130.38,-147.581"/>
</g>
<!-- Node5 -->
<g id="node5" class="node"><title>Node5</title>
<g id="a_node5"><a xlink:href="menu_8h.html#afbd7a1cbb5183ed9ddfc0cc4f0195c7b" target="_top" xlink:title="Flag a menu to be fully redrawn. ">
<polygon fill="white" stroke="red" points="156.5,-125.5 156.5,-144.5 293.5,-144.5 293.5,-125.5 156.5,-125.5"/>
<text text-anchor="middle" x="225" y="-132.5" font-family="Helvetica,sans-Serif" font-size="10.00">mutt_menu_set_redraw_full</text>
</a>
</g>
</g>
<!-- Node1&#45;&gt;Node5 -->
<g id="edge4" class="edge"><title>Node1&#45;&gt;Node5</title>
<path fill="none" stroke="midnightblue" d="M129.989,-135C138.727,-135 147.662,-135 156.378,-135"/>
<polygon fill="midnightblue" stroke="midnightblue" points="129.847,-131.5 119.847,-135 129.847,-138.5 129.847,-131.5"/>
</g>
<!-- Node6 -->
<g id="node6" class="node"><title>Node6</title>
<g id="a_node6"><a xlink:href="menu_8h.html#add567f8dfb9db9044cec03c1f92407ee" target="_top" xlink:title="Listen for config changes affecting the menu &#45; Implements cs_listener. ">
<polygon fill="white" stroke="red" points="330,-87.5 330,-106.5 432,-106.5 432,-87.5 330,-87.5"/>
<text text-anchor="middle" x="381" y="-94.5" font-family="Helvetica,sans-Serif" font-size="10.00">mutt_menu_listener</text>
</a>
</g>
</g>
<!-- Node1&#45;&gt;Node6 -->
<g id="edge6" class="edge"><title>Node1&#45;&gt;Node6</title>
<path fill="none" stroke="midnightblue" d="M129.551,-120.336C138.424,-118.719 147.41,-117.219 156,-116 215.507,-107.553 284.481,-102.393 329.997,-99.6223"/>
<polygon fill="midnightblue" stroke="midnightblue" points="128.79,-116.918 119.607,-122.203 130.082,-123.797 128.79,-116.918"/>
</g>
<!-- Node7 -->
<g id="node7" class="node"><title>Node7</title>
<g id="a_node7"><a xlink:href="mutt__window_8h.html#aeff3b6bc4a89ec53751b8a8ed3704533" target="_top" xlink:title="Resize the Windows to fit the screen. ">
<polygon fill="white" stroke="red" points="172,-49.5 172,-68.5 278,-68.5 278,-49.5 172,-49.5"/>
<text text-anchor="middle" x="225" y="-56.5" font-family="Helvetica,sans-Serif" font-size="10.00">mutt_window_reflow</text>
</a>
</g>
</g>
<!-- Node1&#45;&gt;Node7 -->
<g id="edge7" class="edge"><title>Node1&#45;&gt;Node7</title>
<path fill="none" stroke="midnightblue" d="M94.7215,-114.805C112.582,-104.557 135.094,-92.3373 156,-83 168.002,-77.6392 181.599,-72.6385 193.462,-68.6043"/>
<polygon fill="midnightblue" stroke="midnightblue" points="92.7322,-111.913 85.8389,-119.959 96.245,-117.968 92.7322,-111.913"/>
</g>
<!-- Node8 -->
<g id="node8" class="node"><title>Node8</title>
<g id="a_node8"><a xlink:href="mutt__window_8h.html#a4160396432c4dee9830c8ca80a0c1d93" target="_top" xlink:title="Resize the Message Window. ">
<polygon fill="white" stroke="red" points="172,-0 172,-30 278,-30 278,-0 172,-0"/>
<text text-anchor="start" x="180" y="-18" font-family="Helvetica,sans-Serif" font-size="10.00">mutt_window_reflow</text>
<text text-anchor="middle" x="225" y="-7" font-family="Helvetica,sans-Serif" font-size="10.00">_message_rows</text>
</a>
</g>
</g>
<!-- Node1&#45;&gt;Node8 -->
<g id="edge9" class="edge"><title>Node1&#45;&gt;Node8</title>
<path fill="none" stroke="midnightblue" d="M79.0419,-111.915C96.6782,-90.6922 125.293,-59.6326 156,-40 161.829,-36.2735 168.291,-32.9943 174.847,-30.1422"/>
<polygon fill="midnightblue" stroke="midnightblue" points="76.2232,-109.833 72.6198,-119.796 81.6499,-114.255 76.2232,-109.833"/>
</g>
<!-- Node5&#45;&gt;Node6 -->
<g id="edge5" class="edge"><title>Node5&#45;&gt;Node6</title>
<path fill="none" stroke="midnightblue" d="M274.794,-122.96C296.308,-117.651 321.232,-111.501 341.419,-106.52"/>
<polygon fill="midnightblue" stroke="midnightblue" points="273.731,-119.617 264.861,-125.411 275.408,-126.413 273.731,-119.617"/>
</g>
<!-- Node7&#45;&gt;Node6 -->
<g id="edge8" class="edge"><title>Node7&#45;&gt;Node6</title>
<path fill="none" stroke="midnightblue" d="M274.794,-71.04C296.308,-76.3488 321.232,-82.4988 341.419,-87.4799"/>
<polygon fill="midnightblue" stroke="midnightblue" points="275.408,-67.5867 264.861,-68.589 273.731,-74.3828 275.408,-67.5867"/>
</g>
</g>
</svg>
