<?xml version="1.0" encoding="UTF-8" standalone="no"?>
<!DOCTYPE svg PUBLIC "-//W3C//DTD SVG 1.1//EN"
 "http://www.w3.org/Graphics/SVG/1.1/DTD/svg11.dtd">
<!-- Generated by graphviz version 2.36.0 (20140111.2315)
 -->
<!-- Title: mutt_menu_loop Pages: 1 -->
<svg width="408pt" height="484pt"
 viewBox="0.00 0.00 408.00 484.00" xmlns="http://www.w3.org/2000/svg" xmlns:xlink="http://www.w3.org/1999/xlink">
<g id="graph0" class="graph" transform="scale(1 1) rotate(0) translate(4 480)">
<title>mutt_menu_loop</title>
<polygon fill="white" stroke="none" points="-4,4 -4,-480 404,-480 404,4 -4,4"/>
<!-- Node1 -->
<g id="node1" class="node"><title>Node1</title>
<polygon fill="#bfbfbf" stroke="black" points="0.5,-228.5 0.5,-247.5 89.5,-247.5 89.5,-228.5 0.5,-228.5"/>
<text text-anchor="middle" x="45" y="-235.5" font-family="Helvetica,sans-Serif" font-size="10.00">mutt_menu_loop</text>
</g>
<!-- Node2 -->
<g id="node2" class="node"><title>Node2</title>
<g id="a_node2"><a xlink:href="addrbook_8h.html#a59acdb82d3702665725f276de01d7e80" target="_top" xlink:title="Display a menu of Aliases. ">
<polygon fill="white" stroke="red" points="144.5,-456.5 144.5,-475.5 235.5,-475.5 235.5,-456.5 144.5,-456.5"/>
<text text-anchor="middle" x="190" y="-463.5" font-family="Helvetica,sans-Serif" font-size="10.00">mutt_alias_menu</text>
</a>
</g>
</g>
<!-- Node1&#45;&gt;Node2 -->
<g id="edge1" class="edge"><title>Node1&#45;&gt;Node2</title>
<path fill="none" stroke="midnightblue" d="M47.8249,-257.607C52.7137,-298.786 69.8246,-394.765 126,-447 131.187,-451.823 137.557,-455.425 144.232,-458.113"/>
<polygon fill="midnightblue" stroke="midnightblue" points="51.2906,-257.099 46.7478,-247.528 44.3303,-257.843 51.2906,-257.099"/>
</g>
<!-- Node3 -->
<g id="node3" class="node"><title>Node3</title>
<g id="a_node3"><a xlink:href="browser_8h.html#ab036990112b8014c0b84c401e77f96d3" target="_top" xlink:title="Let the user select a file. ">
<polygon fill="white" stroke="red" points="147,-418.5 147,-437.5 233,-437.5 233,-418.5 147,-418.5"/>
<text text-anchor="middle" x="190" y="-425.5" font-family="Helvetica,sans-Serif" font-size="10.00">mutt_select_file</text>
</a>
</g>
</g>
<!-- Node1&#45;&gt;Node3 -->
<g id="edge2" class="edge"><title>Node1&#45;&gt;Node3</title>
<path fill="none" stroke="midnightblue" d="M50.3521,-257.488C58.9677,-291.743 81.3494,-362.996 126,-404 132.81,-410.254 141.417,-414.934 150.063,-418.415"/>
<polygon fill="midnightblue" stroke="midnightblue" points="53.7541,-256.665 48.0277,-247.752 46.9455,-258.291 53.7541,-256.665"/>
</g>
<!-- Node4 -->
<g id="node4" class="node"><title>Node4</title>
<g id="a_node4"><a xlink:href="compose_8h.html#ad69c04d8ece089edb91f7b1178c2262c" target="_top" xlink:title="Allow the user to edit the message envelope. ">
<polygon fill="white" stroke="red" points="290,-190.5 290,-209.5 400,-209.5 400,-190.5 290,-190.5"/>
<text text-anchor="middle" x="345" y="-197.5" font-family="Helvetica,sans-Serif" font-size="10.00">mutt_compose_menu</text>
</a>
</g>
</g>
<!-- Node1&#45;&gt;Node4 -->
<g id="edge3" class="edge"><title>Node1&#45;&gt;Node4</title>
<path fill="none" stroke="midnightblue" d="M51.1294,-257.673C60.308,-288.338 82.7579,-346.548 126,-371 175.52,-399.002 205.299,-400.403 254,-371 315.174,-334.067 336.855,-240.214 342.413,-209.727"/>
<polygon fill="midnightblue" stroke="midnightblue" points="54.4112,-256.414 48.3344,-247.735 47.6727,-258.309 54.4112,-256.414"/>
</g>
<!-- Node5 -->
<g id="node5" class="node"><title>Node5</title>
<g id="a_node5"><a xlink:href="ssl_8c.html#ae0a15dc5df31b626a42f31bd6a5ea7f4" target="_top" xlink:title="Ask the user if a certificate is valid. ">
<polygon fill="white" stroke="red" points="132.5,-342.5 132.5,-361.5 247.5,-361.5 247.5,-342.5 132.5,-342.5"/>
<text text-anchor="middle" x="190" y="-349.5" font-family="Helvetica,sans-Serif" font-size="10.00">interactive_check_cert</text>
</a>
</g>
</g>
<!-- Node1&#45;&gt;Node5 -->
<g id="edge4" class="edge"><title>Node1&#45;&gt;Node5</title>
<path fill="none" stroke="midnightblue" d="M56.8664,-256.48C70.414,-277.944 95.5393,-312.96 126,-333 131.822,-336.83 138.446,-339.914 145.16,-342.389"/>
<polygon fill="midnightblue" stroke="midnightblue" points="59.6835,-254.378 51.4789,-247.675 53.7125,-258.032 59.6835,-254.378"/>
</g>
<!-- Node6 -->
<g id="node6" class="node"><title>Node6</title>
<g id="a_node6"><a xlink:href="ssl__gnutls_8c.html#ad2898199aadc914b669fbc3bab018ee2" target="_top" xlink:title="Check a GnuTLS certificate. ">
<polygon fill="white" stroke="red" points="126,-304.5 126,-323.5 254,-323.5 254,-304.5 126,-304.5"/>
<text text-anchor="middle" x="190" y="-311.5" font-family="Helvetica,sans-Serif" font-size="10.00">tls_check_one_certificate</text>
</a>
</g>
</g>
<!-- Node1&#45;&gt;Node6 -->
<g id="edge5" class="edge"><title>Node1&#45;&gt;Node6</title>
<path fill="none" stroke="midnightblue" d="M64.7104,-254.028C80.2495,-266.652 103.392,-283.912 126,-295 133.59,-298.723 142.056,-301.881 150.258,-304.49"/>
<polygon fill="midnightblue" stroke="midnightblue" points="66.8432,-251.25 56.9114,-247.561 62.3749,-256.639 66.8432,-251.25"/>
</g>
<!-- Node7 -->
<g id="node7" class="node"><title>Node7</title>
<g id="a_node7"><a xlink:href="mutt__history_8c.html#a93bffce8b018c4f24bd91fb9fb471b18" target="_top" xlink:title="Select an item from a history list. ">
<polygon fill="white" stroke="red" points="152.5,-266.5 152.5,-285.5 227.5,-285.5 227.5,-266.5 152.5,-266.5"/>
<text text-anchor="middle" x="190" y="-273.5" font-family="Helvetica,sans-Serif" font-size="10.00">history_menu</text>
</a>
</g>
</g>
<!-- Node1&#45;&gt;Node7 -->
<g id="edge6" class="edge"><title>Node1&#45;&gt;Node7</title>
<path fill="none" stroke="midnightblue" d="M91.8133,-250.174C111.587,-255.429 134.384,-261.487 152.927,-266.414"/>
<polygon fill="midnightblue" stroke="midnightblue" points="92.6484,-246.775 82.0849,-247.589 90.8506,-253.54 92.6484,-246.775"/>
</g>
<!-- Node8 -->
<g id="node8" class="node"><title>Node8</title>
<g id="a_node8"><a xlink:href="crypt__gpgme_8c.html#a53af74e6bda99d7d997ee5ad0ef4db0a" target="_top" xlink:title="Get the user to select a key. ">
<polygon fill="white" stroke="red" points="144.5,-228.5 144.5,-247.5 235.5,-247.5 235.5,-228.5 144.5,-228.5"/>
<text text-anchor="middle" x="190" y="-235.5" font-family="Helvetica,sans-Serif" font-size="10.00">crypt_select_key</text>
</a>
</g>
</g>
<!-- Node1&#45;&gt;Node8 -->
<g id="edge7" class="edge"><title>Node1&#45;&gt;Node8</title>
<path fill="none" stroke="midnightblue" d="M100.044,-238C114.574,-238 130.13,-238 144.103,-238"/>
<polygon fill="midnightblue" stroke="midnightblue" points="99.6818,-234.5 89.6817,-238 99.6817,-241.5 99.6818,-234.5"/>
</g>
<!-- Node9 -->
<g id="node9" class="node"><title>Node9</title>
<g id="a_node9"><a xlink:href="pgpkey_8c.html#ab7f726c14ca4d6deda3fb33b8e5dbf6a" target="_top" xlink:title="Let the user select a key to use. ">
<polygon fill="white" stroke="red" points="147.5,-190.5 147.5,-209.5 232.5,-209.5 232.5,-190.5 147.5,-190.5"/>
<text text-anchor="middle" x="190" y="-197.5" font-family="Helvetica,sans-Serif" font-size="10.00">pgp_select_key</text>
</a>
</g>
</g>
<!-- Node1&#45;&gt;Node9 -->
<g id="edge8" class="edge"><title>Node1&#45;&gt;Node9</title>
<path fill="none" stroke="midnightblue" d="M91.8133,-225.826C111.587,-220.571 134.384,-214.513 152.927,-209.586"/>
<polygon fill="midnightblue" stroke="midnightblue" points="90.8506,-222.46 82.0849,-228.411 92.6484,-229.225 90.8506,-222.46"/>
</g>
<!-- Node10 -->
<g id="node10" class="node"><title>Node10</title>
<g id="a_node10"><a xlink:href="smime_8c.html#a12aa822c9bc747adbecb23dbaa781b11" target="_top" xlink:title="Get the user to select a key. ">
<polygon fill="white" stroke="red" points="141,-152.5 141,-171.5 239,-171.5 239,-152.5 141,-152.5"/>
<text text-anchor="middle" x="190" y="-159.5" font-family="Helvetica,sans-Serif" font-size="10.00">smime_select_key</text>
</a>
</g>
</g>
<!-- Node1&#45;&gt;Node10 -->
<g id="edge9" class="edge"><title>Node1&#45;&gt;Node10</title>
<path fill="none" stroke="midnightblue" d="M64.7104,-221.972C80.2495,-209.348 103.392,-192.088 126,-181 133.59,-177.277 142.056,-174.119 150.258,-171.51"/>
<polygon fill="midnightblue" stroke="midnightblue" points="62.3749,-219.361 56.9114,-228.439 66.8432,-224.75 62.3749,-219.361"/>
</g>
<!-- Node11 -->
<g id="node11" class="node"><title>Node11</title>
<g id="a_node11"><a xlink:href="postpone_8c.html#a52c3666adbfb95453e29046ed90eb57f" target="_top" xlink:title="Create a Menu to select a postponed message. ">
<polygon fill="white" stroke="red" points="156.5,-114.5 156.5,-133.5 223.5,-133.5 223.5,-114.5 156.5,-114.5"/>
<text text-anchor="middle" x="190" y="-121.5" font-family="Helvetica,sans-Serif" font-size="10.00">select_msg</text>
</a>
</g>
</g>
<!-- Node1&#45;&gt;Node11 -->
<g id="edge10" class="edge"><title>Node1&#45;&gt;Node11</title>
<path fill="none" stroke="midnightblue" d="M56.8664,-219.52C70.414,-198.056 95.5393,-163.04 126,-143 135.067,-137.035 146.08,-132.881 156.346,-130.015"/>
<polygon fill="midnightblue" stroke="midnightblue" points="53.7125,-217.968 51.4789,-228.325 59.6835,-221.622 53.7125,-217.968"/>
</g>
<!-- Node12 -->
<g id="node12" class="node"><title>Node12</title>
<g id="a_node12"><a xlink:href="query_8c.html#a1ca9d237583501cf25a206723b5c15ec" target="_top" xlink:title="Get the user to enter an Address Query. ">
<polygon fill="white" stroke="red" points="155,-76.5 155,-95.5 225,-95.5 225,-76.5 155,-76.5"/>
<text text-anchor="middle" x="190" y="-83.5" font-family="Helvetica,sans-Serif" font-size="10.00">query_menu</text>
</a>
</g>
</g>
<!-- Node1&#45;&gt;Node12 -->
<g id="edge11" class="edge"><title>Node1&#45;&gt;Node12</title>
<path fill="none" stroke="midnightblue" d="M52.5253,-218.527C63.2458,-189.497 87.3383,-135.073 126,-105 134.296,-98.547 144.766,-94.2782 154.775,-91.4572"/>
<polygon fill="midnightblue" stroke="midnightblue" points="49.1015,-217.711 49.0688,-228.306 55.7013,-220.044 49.1015,-217.711"/>
</g>
<!-- Node13 -->
<g id="node13" class="node"><title>Node13</title>
<g id="a_node13"><a xlink:href="recvattach_8h.html#a513215b1fd88e123dc01f6fa2b264594" target="_top" xlink:title="Show the attachments in a Menu. ">
<polygon fill="white" stroke="red" points="129.5,-38.5 129.5,-57.5 250.5,-57.5 250.5,-38.5 129.5,-38.5"/>
<text text-anchor="middle" x="190" y="-45.5" font-family="Helvetica,sans-Serif" font-size="10.00">mutt_view_attachments</text>
</a>
</g>
</g>
<!-- Node1&#45;&gt;Node13 -->
<g id="edge12" class="edge"><title>Node1&#45;&gt;Node13</title>
<path fill="none" stroke="midnightblue" d="M49.7696,-218.108C57.5577,-182.508 78.8005,-107.821 126,-67 130.493,-63.114 135.76,-60.0227 141.302,-57.5637"/>
<polygon fill="midnightblue" stroke="midnightblue" points="46.2803,-217.7 47.698,-228.2 53.1373,-219.108 46.2803,-217.7"/>
</g>
<!-- Node14 -->
<g id="node14" class="node"><title>Node14</title>
<g id="a_node14"><a xlink:href="remailer_8c.html#ae49669c6093d966d252f42e356fd9346" target="_top" xlink:title="Create a Mixmaster chain. ">
<polygon fill="white" stroke="black" points="145,-0.5 145,-19.5 235,-19.5 235,-0.5 145,-0.5"/>
<text text-anchor="middle" x="190" y="-7.5" font-family="Helvetica,sans-Serif" font-size="10.00">mix_make_chain</text>
</a>
</g>
</g>
<!-- Node1&#45;&gt;Node14 -->
<g id="edge13" class="edge"><title>Node1&#45;&gt;Node14</title>
<path fill="none" stroke="midnightblue" d="M47.8249,-218.393C52.7137,-177.214 69.8246,-81.2353 126,-29 131.354,-24.0212 137.969,-20.3444 144.879,-17.6296"/>
<polygon fill="midnightblue" stroke="midnightblue" points="44.3303,-218.157 46.7478,-228.472 51.2906,-218.901 44.3303,-218.157"/>
</g>
<!-- Node14&#45;&gt;Node4 -->
<g id="edge14" class="edge"><title>Node14&#45;&gt;Node4</title>
<path fill="none" stroke="midnightblue" d="M244.528,-22.6845C247.898,-24.5134 251.097,-26.6059 254,-29 308.611,-74.0375 334.34,-161 341.697,-190.181"/>
<polygon fill="midnightblue" stroke="midnightblue" points="245.837,-19.4343 235.29,-18.4326 242.91,-25.7931 245.837,-19.4343"/>
</g>
</g>
</svg>
