<?xml version="1.0" encoding="UTF-8" standalone="no"?>
<!DOCTYPE svg PUBLIC "-//W3C//DTD SVG 1.1//EN"
 "http://www.w3.org/Graphics/SVG/1.1/DTD/svg11.dtd">
<!-- Generated by graphviz version 2.36.0 (20140111.2315)
 -->
<!-- Title: msg_parse_flags Pages: 1 -->
<svg width="228pt" height="66pt"
 viewBox="0.00 0.00 228.00 66.00" xmlns="http://www.w3.org/2000/svg" xmlns:xlink="http://www.w3.org/1999/xlink">
<g id="graph0" class="graph" transform="scale(1 1) rotate(0) translate(4 62)">
<title>msg_parse_flags</title>
<polygon fill="white" stroke="none" points="-4,4 -4,-62 224,-62 224,4 -4,4"/>
<!-- Node1 -->
<g id="node1" class="node"><title>Node1</title>
<polygon fill="#bfbfbf" stroke="black" points="0.5,-19.5 0.5,-38.5 91.5,-38.5 91.5,-19.5 0.5,-19.5"/>
<text text-anchor="middle" x="46" y="-26.5" font-family="Helvetica,sans-Serif" font-size="10.00">msg_parse_flags</text>
</g>
<!-- Node2 -->
<g id="node2" class="node"><title>Node2</title>
<g id="a_node2"><a xlink:href="message_8c.html#a544caf6f7e206bfbd88069d4693443b3" target="_top" xlink:title="handle headers returned from header fetch ">
<polygon fill="white" stroke="red" points="128,-38.5 128,-57.5 220,-57.5 220,-38.5 128,-38.5"/>
<text text-anchor="middle" x="174" y="-45.5" font-family="Helvetica,sans-Serif" font-size="10.00">msg_parse_fetch</text>
</a>
</g>
</g>
<!-- Node1&#45;&gt;Node2 -->
<g id="edge1" class="edge"><title>Node1&#45;&gt;Node2</title>
<path fill="none" stroke="midnightblue" d="M101.863,-37.2731C110.572,-38.5863 119.492,-39.9313 127.942,-41.2055"/>
<polygon fill="midnightblue" stroke="midnightblue" points="102.188,-33.7825 91.7777,-35.7522 101.144,-40.7042 102.188,-33.7825"/>
</g>
<!-- Node3 -->
<g id="node3" class="node"><title>Node3</title>
<g id="a_node3"><a xlink:href="message_8c.html#a275fe2b009dba5ce02641eca502b9242" target="_top" xlink:title="fill the message header according to the server flags ">
<polygon fill="white" stroke="red" points="132.5,-0.5 132.5,-19.5 215.5,-19.5 215.5,-0.5 132.5,-0.5"/>
<text text-anchor="middle" x="174" y="-7.5" font-family="Helvetica,sans-Serif" font-size="10.00">imap_set_flags</text>
</a>
</g>
</g>
<!-- Node1&#45;&gt;Node3 -->
<g id="edge2" class="edge"><title>Node1&#45;&gt;Node3</title>
<path fill="none" stroke="midnightblue" d="M101.822,-20.7331C112.004,-19.1978 122.475,-17.6188 132.149,-16.1601"/>
<polygon fill="midnightblue" stroke="midnightblue" points="101.144,-17.2958 91.7777,-22.2478 102.188,-24.2175 101.144,-17.2958"/>
</g>
</g>
</svg>
