<?xml version="1.0" encoding="UTF-8" standalone="no"?>
<!DOCTYPE svg PUBLIC "-//W3C//DTD SVG 1.1//EN"
 "http://www.w3.org/Graphics/SVG/1.1/DTD/svg11.dtd">
<!-- Generated by graphviz version 2.36.0 (20140111.2315)
 -->
<!-- Title: imap_free_header_data Pages: 1 -->
<svg width="282pt" height="104pt"
 viewBox="0.00 0.00 282.00 104.00" xmlns="http://www.w3.org/2000/svg" xmlns:xlink="http://www.w3.org/1999/xlink">
<g id="graph0" class="graph" transform="scale(1 1) rotate(0) translate(4 100)">
<title>imap_free_header_data</title>
<polygon fill="white" stroke="none" points="-4,4 -4,-100 278,-100 278,4 -4,4"/>
<!-- Node1 -->
<g id="node1" class="node"><title>Node1</title>
<polygon fill="#bfbfbf" stroke="black" points="0,-38.5 0,-57.5 118,-57.5 118,-38.5 0,-38.5"/>
<text text-anchor="middle" x="59" y="-45.5" font-family="Helvetica,sans-Serif" font-size="10.00">imap_free_header_data</text>
</g>
<!-- Node2 -->
<g id="node2" class="node"><title>Node2</title>
<g id="a_node2"><a xlink:href="imap__private_8h.html#a5f840a12ee7942010e3085129bc4e055" target="_top" xlink:title="Purge messages from the server. ">
<polygon fill="white" stroke="red" points="154.5,-76.5 154.5,-95.5 273.5,-95.5 273.5,-76.5 154.5,-76.5"/>
<text text-anchor="middle" x="214" y="-83.5" font-family="Helvetica,sans-Serif" font-size="10.00">imap_expunge_mailbox</text>
</a>
</g>
</g>
<!-- Node1&#45;&gt;Node2 -->
<g id="edge1" class="edge"><title>Node1&#45;&gt;Node2</title>
<path fill="none" stroke="midnightblue" d="M108.477,-60.04C129.852,-65.3488 154.613,-71.4988 174.669,-76.4799"/>
<polygon fill="midnightblue" stroke="midnightblue" points="109.157,-56.6027 98.6084,-57.589 107.47,-63.3963 109.157,-56.6027"/>
</g>
<!-- Node3 -->
<g id="node3" class="node"><title>Node3</title>
<g id="a_node3"><a xlink:href="imap_8c.html#abd3cf0fe6d88652e04347cf565e40ff9" target="_top" xlink:title="Implements MxOps::mbox_close() ">
<polygon fill="white" stroke="black" points="166.5,-38.5 166.5,-57.5 261.5,-57.5 261.5,-38.5 166.5,-38.5"/>
<text text-anchor="middle" x="214" y="-45.5" font-family="Helvetica,sans-Serif" font-size="10.00">imap_mbox_close</text>
</a>
</g>
</g>
<!-- Node1&#45;&gt;Node3 -->
<g id="edge2" class="edge"><title>Node1&#45;&gt;Node3</title>
<path fill="none" stroke="midnightblue" d="M128.447,-48C141.24,-48 154.338,-48 166.286,-48"/>
<polygon fill="midnightblue" stroke="midnightblue" points="128.279,-44.5001 118.279,-48 128.279,-51.5001 128.279,-44.5001"/>
</g>
<!-- Node4 -->
<g id="node4" class="node"><title>Node4</title>
<g id="a_node4"><a xlink:href="message_8c.html#a5dae54814b2746142369bbdef40b1b0f" target="_top" xlink:title="Read headers from the server. ">
<polygon fill="white" stroke="red" points="163.5,-0.5 163.5,-19.5 264.5,-19.5 264.5,-0.5 163.5,-0.5"/>
<text text-anchor="middle" x="214" y="-7.5" font-family="Helvetica,sans-Serif" font-size="10.00">imap_read_headers</text>
</a>
</g>
</g>
<!-- Node1&#45;&gt;Node4 -->
<g id="edge3" class="edge"><title>Node1&#45;&gt;Node4</title>
<path fill="none" stroke="midnightblue" d="M108.477,-35.96C129.852,-30.6512 154.613,-24.5012 174.669,-19.5201"/>
<polygon fill="midnightblue" stroke="midnightblue" points="107.47,-32.6037 98.6084,-38.411 109.157,-39.3973 107.47,-32.6037"/>
</g>
</g>
</svg>
