<?xml version="1.0" encoding="UTF-8" standalone="no"?>
<!DOCTYPE svg PUBLIC "-//W3C//DTD SVG 1.1//EN"
 "http://www.w3.org/Graphics/SVG/1.1/DTD/svg11.dtd">
<!-- Generated by graphviz version 2.36.0 (20140111.2315)
 -->
<!-- Title: maildir_flags Pages: 1 -->
<svg width="186pt" height="28pt"
 viewBox="0.00 0.00 186.00 28.00" xmlns="http://www.w3.org/2000/svg" xmlns:xlink="http://www.w3.org/1999/xlink">
<g id="graph0" class="graph" transform="scale(1 1) rotate(0) translate(4 24)">
<title>maildir_flags</title>
<polygon fill="white" stroke="none" points="-4,4 -4,-24 182,-24 182,4 -4,4"/>
<!-- Node1 -->
<g id="node1" class="node"><title>Node1</title>
<polygon fill="#bfbfbf" stroke="black" points="0.5,-0.5 0.5,-19.5 71.5,-19.5 71.5,-0.5 0.5,-0.5"/>
<text text-anchor="middle" x="36" y="-7.5" font-family="Helvetica,sans-Serif" font-size="10.00">maildir_flags</text>
</g>
<!-- Node2 -->
<g id="node2" class="node"><title>Node2</title>
<g id="a_node2"><a xlink:href="mh_8c.html#a2f160cc2eb601c3954afe704a040f637" target="_top" xlink:title="qsort callback to sort characters ">
<polygon fill="white" stroke="black" points="108,-0.5 108,-19.5 178,-19.5 178,-0.5 108,-0.5"/>
<text text-anchor="middle" x="143" y="-7.5" font-family="Helvetica,sans-Serif" font-size="10.00">ch_compare</text>
</a>
</g>
</g>
<!-- Node1&#45;&gt;Node2 -->
<g id="edge1" class="edge"><title>Node1&#45;&gt;Node2</title>
<path fill="none" stroke="midnightblue" d="M71.6719,-10C80.0012,-10 89.0098,-10 97.71,-10"/>
<polygon fill="midnightblue" stroke="midnightblue" points="97.7224,-13.5001 107.722,-10 97.7223,-6.5001 97.7224,-13.5001"/>
</g>
</g>
</svg>
