<?xml version="1.0" encoding="UTF-8" standalone="no"?>
<!DOCTYPE svg PUBLIC "-//W3C//DTD SVG 1.1//EN"
 "http://www.w3.org/Graphics/SVG/1.1/DTD/svg11.dtd">
<!-- Generated by graphviz version 2.36.0 (20140111.2315)
 -->
<!-- Title: maildir_update_mtime Pages: 1 -->
<svg width="242pt" height="66pt"
 viewBox="0.00 0.00 242.00 66.00" xmlns="http://www.w3.org/2000/svg" xmlns:xlink="http://www.w3.org/1999/xlink">
<g id="graph0" class="graph" transform="scale(1 1) rotate(0) translate(4 62)">
<title>maildir_update_mtime</title>
<polygon fill="white" stroke="none" points="-4,4 -4,-62 238,-62 238,4 -4,4"/>
<!-- Node1 -->
<g id="node1" class="node"><title>Node1</title>
<polygon fill="#bfbfbf" stroke="black" points="0,-19.5 0,-38.5 112,-38.5 112,-19.5 0,-19.5"/>
<text text-anchor="middle" x="56" y="-26.5" font-family="Helvetica,sans-Serif" font-size="10.00">maildir_update_mtime</text>
</g>
<!-- Node2 -->
<g id="node2" class="node"><title>Node2</title>
<g id="a_node2"><a xlink:href="mh_8c.html#a3af352908e60f98d8c993b547fd6c5e2" target="_top" xlink:title="Read a MH/maildir style mailbox. ">
<polygon fill="white" stroke="red" points="156,-38.5 156,-57.5 226,-57.5 226,-38.5 156,-38.5"/>
<text text-anchor="middle" x="191" y="-45.5" font-family="Helvetica,sans-Serif" font-size="10.00">mh_read_dir</text>
</a>
</g>
</g>
<!-- Node1&#45;&gt;Node2 -->
<g id="edge1" class="edge"><title>Node1&#45;&gt;Node2</title>
<path fill="none" stroke="midnightblue" d="M122.323,-38.3319C133.841,-39.9772 145.405,-41.6293 155.634,-43.0906"/>
<polygon fill="midnightblue" stroke="midnightblue" points="122.643,-34.8421 112.249,-36.8926 121.653,-41.7718 122.643,-34.8421"/>
</g>
<!-- Node3 -->
<g id="node3" class="node"><title>Node3</title>
<g id="a_node3"><a xlink:href="mh_8c.html#a65426833f674cdd2021e2a6fa296beb0" target="_top" xlink:title="Implements MxOps::mbox_sync() ">
<polygon fill="white" stroke="black" points="148,-0.5 148,-19.5 234,-19.5 234,-0.5 148,-0.5"/>
<text text-anchor="middle" x="191" y="-7.5" font-family="Helvetica,sans-Serif" font-size="10.00">mh_mbox_sync</text>
</a>
</g>
</g>
<!-- Node1&#45;&gt;Node3 -->
<g id="edge2" class="edge"><title>Node1&#45;&gt;Node3</title>
<path fill="none" stroke="midnightblue" d="M122.326,-19.6676C130.951,-18.4355 139.603,-17.1996 147.7,-16.0429"/>
<polygon fill="midnightblue" stroke="midnightblue" points="121.653,-16.2282 112.249,-21.1074 122.643,-23.1579 121.653,-16.2282"/>
</g>
</g>
</svg>
