<?xml version="1.0" encoding="UTF-8" standalone="no"?>
<!DOCTYPE svg PUBLIC "-//W3C//DTD SVG 1.1//EN"
 "http://www.w3.org/Graphics/SVG/1.1/DTD/svg11.dtd">
<!-- Generated by graphviz version 2.36.0 (20140111.2315)
 -->
<!-- Title: mhs_alloc Pages: 1 -->
<svg width="160pt" height="28pt"
 viewBox="0.00 0.00 160.00 28.00" xmlns="http://www.w3.org/2000/svg" xmlns:xlink="http://www.w3.org/1999/xlink">
<g id="graph0" class="graph" transform="scale(1 1) rotate(0) translate(4 24)">
<title>mhs_alloc</title>
<polygon fill="white" stroke="none" points="-4,4 -4,-24 156,-24 156,4 -4,4"/>
<!-- Node1 -->
<g id="node1" class="node"><title>Node1</title>
<polygon fill="#bfbfbf" stroke="black" points="0.5,-0.5 0.5,-19.5 61.5,-19.5 61.5,-0.5 0.5,-0.5"/>
<text text-anchor="middle" x="31" y="-7.5" font-family="Helvetica,sans-Serif" font-size="10.00">mhs_alloc</text>
</g>
<!-- Node2 -->
<g id="node2" class="node"><title>Node2</title>
<g id="a_node2"><a xlink:href="mh_8c.html#a9ae4ede76eb664563b7a881e0903b261" target="_top" xlink:title="Set a flag for a given sequence. ">
<polygon fill="white" stroke="red" points="98,-0.5 98,-19.5 152,-19.5 152,-0.5 98,-0.5"/>
<text text-anchor="middle" x="125" y="-7.5" font-family="Helvetica,sans-Serif" font-size="10.00">mhs_set</text>
</a>
</g>
</g>
<!-- Node1&#45;&gt;Node2 -->
<g id="edge1" class="edge"><title>Node1&#45;&gt;Node2</title>
<path fill="none" stroke="midnightblue" d="M71.7585,-10C80.5891,-10 89.7323,-10 97.8538,-10"/>
<polygon fill="midnightblue" stroke="midnightblue" points="71.6158,-6.5001 61.6158,-10 71.6158,-13.5001 71.6158,-6.5001"/>
</g>
</g>
</svg>
