<?xml version="1.0" encoding="UTF-8" standalone="no"?>
<!DOCTYPE svg PUBLIC "-//W3C//DTD SVG 1.1//EN"
 "http://www.w3.org/Graphics/SVG/1.1/DTD/svg11.dtd">
<!-- Generated by graphviz version 2.36.0 (20140111.2315)
 -->
<!-- Title: mh_read_dir Pages: 1 -->
<svg width="200pt" height="66pt"
 viewBox="0.00 0.00 200.00 66.00" xmlns="http://www.w3.org/2000/svg" xmlns:xlink="http://www.w3.org/1999/xlink">
<g id="graph0" class="graph" transform="scale(1 1) rotate(0) translate(4 62)">
<title>mh_read_dir</title>
<polygon fill="white" stroke="none" points="-4,4 -4,-62 196,-62 196,4 -4,4"/>
<!-- Node1 -->
<g id="node1" class="node"><title>Node1</title>
<polygon fill="#bfbfbf" stroke="black" points="0,-19.5 0,-38.5 70,-38.5 70,-19.5 0,-19.5"/>
<text text-anchor="middle" x="35" y="-26.5" font-family="Helvetica,sans-Serif" font-size="10.00">mh_read_dir</text>
</g>
<!-- Node2 -->
<g id="node2" class="node"><title>Node2</title>
<g id="a_node2"><a xlink:href="mh_8c.html#ad31749a78c690899f216c0a04dcf7e46" target="_top" xlink:title="Read a Maildir style mailbox. ">
<polygon fill="white" stroke="red" points="106.5,-38.5 106.5,-57.5 191.5,-57.5 191.5,-38.5 106.5,-38.5"/>
<text text-anchor="middle" x="149" y="-45.5" font-family="Helvetica,sans-Serif" font-size="10.00">maildir_read_dir</text>
</a>
</g>
</g>
<!-- Node1&#45;&gt;Node2 -->
<g id="edge1" class="edge"><title>Node1&#45;&gt;Node2</title>
<path fill="none" stroke="midnightblue" d="M80.1625,-36.4919C88.8393,-37.9638 97.9134,-39.5032 106.499,-40.9597"/>
<polygon fill="midnightblue" stroke="midnightblue" points="80.6568,-33.0258 70.2123,-34.8039 79.486,-39.9272 80.6568,-33.0258"/>
</g>
<!-- Node3 -->
<g id="node3" class="node"><title>Node3</title>
<g id="a_node3"><a xlink:href="mh_8c.html#a7f6f949578704c348f325b69f09325b1" target="_top" xlink:title="Implements MxOps::mbox_open() ">
<polygon fill="white" stroke="black" points="106,-0.5 106,-19.5 192,-19.5 192,-0.5 106,-0.5"/>
<text text-anchor="middle" x="149" y="-7.5" font-family="Helvetica,sans-Serif" font-size="10.00">mh_mbox_open</text>
</a>
</g>
</g>
<!-- Node1&#45;&gt;Node3 -->
<g id="edge2" class="edge"><title>Node1&#45;&gt;Node3</title>
<path fill="none" stroke="midnightblue" d="M80.2102,-21.5001C88.6012,-20.0766 97.3622,-18.5903 105.693,-17.1772"/>
<polygon fill="midnightblue" stroke="midnightblue" points="79.486,-18.0728 70.2123,-23.1961 80.6568,-24.9742 79.486,-18.0728"/>
</g>
</g>
</svg>
