<?xml version="1.0" encoding="UTF-8" standalone="no"?>
<!DOCTYPE svg PUBLIC "-//W3C//DTD SVG 1.1//EN"
 "http://www.w3.org/Graphics/SVG/1.1/DTD/svg11.dtd">
<!-- Generated by graphviz version 2.36.0 (20140111.2315)
 -->
<!-- Title: mh_mbox_sync Pages: 1 -->
<svg width="420pt" height="332pt"
 viewBox="0.00 0.00 420.00 332.00" xmlns="http://www.w3.org/2000/svg" xmlns:xlink="http://www.w3.org/1999/xlink">
<g id="graph0" class="graph" transform="scale(1 1) rotate(0) translate(4 328)">
<title>mh_mbox_sync</title>
<polygon fill="white" stroke="none" points="-4,4 -4,-328 416,-328 416,4 -4,4"/>
<!-- Node1 -->
<g id="node1" class="node"><title>Node1</title>
<polygon fill="#bfbfbf" stroke="black" points="0,-152.5 0,-171.5 86,-171.5 86,-152.5 0,-152.5"/>
<text text-anchor="middle" x="43" y="-159.5" font-family="Helvetica,sans-Serif" font-size="10.00">mh_mbox_sync</text>
</g>
<!-- Node2 -->
<g id="node2" class="node"><title>Node2</title>
<g id="a_node2"><a xlink:href="mh_8c.html#af91621ad4b7746d00442c35c09436375" target="_top" xlink:title="Implements MxOps::mbox_check() ">
<polygon fill="white" stroke="red" points="146.5,-304.5 146.5,-323.5 237.5,-323.5 237.5,-304.5 146.5,-304.5"/>
<text text-anchor="middle" x="192" y="-311.5" font-family="Helvetica,sans-Serif" font-size="10.00">mh_mbox_check</text>
</a>
</g>
</g>
<!-- Node1&#45;&gt;Node2 -->
<g id="edge1" class="edge"><title>Node1&#45;&gt;Node2</title>
<path fill="none" stroke="midnightblue" d="M46.8703,-171.755C54.637,-196.403 78.4664,-261.592 122,-295 126.436,-298.404 131.444,-301.198 136.687,-303.492"/>
<polygon fill="midnightblue" stroke="midnightblue" points="135.711,-306.864 146.303,-307.104 138.172,-300.311 135.711,-306.864"/>
</g>
<!-- Node3 -->
<g id="node3" class="node"><title>Node3</title>
<g id="a_node3"><a xlink:href="mh_8c.html#a5b46ceb633c03f9bd7c9cf2bf01745bf" target="_top" xlink:title="Implements MxOps::mbox_check() ">
<polygon fill="white" stroke="red" points="139,-266.5 139,-285.5 245,-285.5 245,-266.5 139,-266.5"/>
<text text-anchor="middle" x="192" y="-273.5" font-family="Helvetica,sans-Serif" font-size="10.00">maildir_mbox_check</text>
</a>
</g>
</g>
<!-- Node1&#45;&gt;Node3 -->
<g id="edge2" class="edge"><title>Node1&#45;&gt;Node3</title>
<path fill="none" stroke="midnightblue" d="M49.2312,-171.75C60.112,-191.078 87.1019,-234.334 122,-257 125.155,-259.049 128.53,-260.88 132.027,-262.514"/>
<polygon fill="midnightblue" stroke="midnightblue" points="130.925,-265.845 141.506,-266.4 133.58,-259.368 130.925,-265.845"/>
</g>
<!-- Node4 -->
<g id="node4" class="node"><title>Node4</title>
<g id="a_node4"><a xlink:href="hcache_8c.html#ae01c81d7bc2f290309a28bbb8474ff40" target="_top" xlink:title="Multiplexor for HcacheOps::open. ">
<polygon fill="white" stroke="red" points="142.5,-228.5 142.5,-247.5 241.5,-247.5 241.5,-228.5 142.5,-228.5"/>
<text text-anchor="middle" x="192" y="-235.5" font-family="Helvetica,sans-Serif" font-size="10.00">mutt_hcache_open</text>
</a>
</g>
</g>
<!-- Node1&#45;&gt;Node4 -->
<g id="edge3" class="edge"><title>Node1&#45;&gt;Node4</title>
<path fill="none" stroke="midnightblue" d="M54.7928,-171.892C69.1306,-184.537 95.7204,-206.309 122,-219 126.895,-221.364 132.132,-223.475 137.452,-225.35"/>
<polygon fill="midnightblue" stroke="midnightblue" points="136.467,-228.71 147.059,-228.475 138.632,-222.053 136.467,-228.71"/>
</g>
<!-- Node5 -->
<g id="node5" class="node"><title>Node5</title>
<g id="a_node5"><a xlink:href="progress_8c.html#aa15ea4df7e5b36dca95bcc673b060dcb" target="_top" xlink:title="Set up a progress bar. ">
<polygon fill="white" stroke="red" points="143.5,-190.5 143.5,-209.5 240.5,-209.5 240.5,-190.5 143.5,-190.5"/>
<text text-anchor="middle" x="192" y="-197.5" font-family="Helvetica,sans-Serif" font-size="10.00">mutt_progress_init</text>
</a>
</g>
</g>
<!-- Node1&#45;&gt;Node5 -->
<g id="edge4" class="edge"><title>Node1&#45;&gt;Node5</title>
<path fill="none" stroke="midnightblue" d="M81.0943,-171.589C100.318,-176.558 123.986,-182.677 144.429,-187.961"/>
<polygon fill="midnightblue" stroke="midnightblue" points="143.615,-191.366 154.172,-190.48 145.367,-184.588 143.615,-191.366"/>
</g>
<!-- Node6 -->
<g id="node6" class="node"><title>Node6</title>
<g id="a_node6"><a xlink:href="progress_8c.html#a8aa58d901a100a3ab7886418500e2385" target="_top" xlink:title="Update the state of the progress bar. ">
<polygon fill="white" stroke="red" points="298.5,-171.5 298.5,-190.5 411.5,-190.5 411.5,-171.5 298.5,-171.5"/>
<text text-anchor="middle" x="355" y="-178.5" font-family="Helvetica,sans-Serif" font-size="10.00">mutt_progress_update</text>
</a>
</g>
</g>
<!-- Node1&#45;&gt;Node6 -->
<g id="edge6" class="edge"><title>Node1&#45;&gt;Node6</title>
<path fill="none" stroke="midnightblue" d="M86.1306,-164.582C138.086,-167.767 226.996,-173.216 288.034,-176.957"/>
<polygon fill="midnightblue" stroke="midnightblue" points="288.14,-180.47 298.335,-177.588 288.568,-173.483 288.14,-180.47"/>
</g>
<!-- Node7 -->
<g id="node7" class="node"><title>Node7</title>
<g id="a_node7"><a xlink:href="mh_8c.html#a5f6ec30e8d2207a60e94dc5f0d9a78a1" target="_top" xlink:title="Save changes to the mailbox. ">
<polygon fill="white" stroke="red" points="122,-114.5 122,-133.5 262,-133.5 262,-114.5 122,-114.5"/>
<text text-anchor="middle" x="192" y="-121.5" font-family="Helvetica,sans-Serif" font-size="10.00">mh_sync_mailbox_message</text>
</a>
</g>
</g>
<!-- Node1&#45;&gt;Node7 -->
<g id="edge7" class="edge"><title>Node1&#45;&gt;Node7</title>
<path fill="none" stroke="midnightblue" d="M81.0943,-152.411C100.318,-147.442 123.986,-141.323 144.429,-136.039"/>
<polygon fill="midnightblue" stroke="midnightblue" points="145.367,-139.412 154.172,-133.52 143.615,-132.634 145.367,-139.412"/>
</g>
<!-- Node8 -->
<g id="node8" class="node"><title>Node8</title>
<g id="a_node8"><a xlink:href="hcache_8c.html#ab70197e91a184083ea2ac9d4d75c47f0" target="_top" xlink:title="Multiplexor for HcacheOps::close. ">
<polygon fill="white" stroke="black" points="141.5,-76.5 141.5,-95.5 242.5,-95.5 242.5,-76.5 141.5,-76.5"/>
<text text-anchor="middle" x="192" y="-83.5" font-family="Helvetica,sans-Serif" font-size="10.00">mutt_hcache_close</text>
</a>
</g>
</g>
<!-- Node1&#45;&gt;Node8 -->
<g id="edge8" class="edge"><title>Node1&#45;&gt;Node8</title>
<path fill="none" stroke="midnightblue" d="M54.7928,-152.108C69.1306,-139.463 95.7204,-117.691 122,-105 126.895,-102.636 132.132,-100.525 137.452,-98.65"/>
<polygon fill="midnightblue" stroke="midnightblue" points="138.632,-101.947 147.059,-95.5252 136.467,-95.2898 138.632,-101.947"/>
</g>
<!-- Node9 -->
<g id="node9" class="node"><title>Node9</title>
<g id="a_node9"><a xlink:href="mh_8c.html#a7a31fb7228bc7e06154b229f8108a315" target="_top" xlink:title="Update sequence numbers. ">
<polygon fill="white" stroke="red" points="133.5,-38.5 133.5,-57.5 250.5,-57.5 250.5,-38.5 133.5,-38.5"/>
<text text-anchor="middle" x="192" y="-45.5" font-family="Helvetica,sans-Serif" font-size="10.00">mh_update_sequences</text>
</a>
</g>
</g>
<!-- Node1&#45;&gt;Node9 -->
<g id="edge9" class="edge"><title>Node1&#45;&gt;Node9</title>
<path fill="none" stroke="midnightblue" d="M49.2312,-152.25C60.112,-132.922 87.1019,-89.6665 122,-67 125.155,-64.9506 128.53,-63.1202 132.027,-61.4857"/>
<polygon fill="midnightblue" stroke="midnightblue" points="133.58,-64.6316 141.506,-57.6005 130.925,-58.1546 133.58,-64.6316"/>
</g>
<!-- Node10 -->
<g id="node10" class="node"><title>Node10</title>
<g id="a_node10"><a xlink:href="mh_8c.html#ad26eb8c2168c2c4d9c4b71218e959864" target="_top" xlink:title="Update our record of the Maildir modification time. ">
<polygon fill="white" stroke="red" points="136,-0.5 136,-19.5 248,-19.5 248,-0.5 136,-0.5"/>
<text text-anchor="middle" x="192" y="-7.5" font-family="Helvetica,sans-Serif" font-size="10.00">maildir_update_mtime</text>
</a>
</g>
</g>
<!-- Node1&#45;&gt;Node10 -->
<g id="edge10" class="edge"><title>Node1&#45;&gt;Node10</title>
<path fill="none" stroke="midnightblue" d="M46.8703,-152.245C54.637,-127.597 78.4664,-62.4077 122,-29 124.435,-27.1314 127.043,-25.4465 129.767,-23.9272"/>
<polygon fill="midnightblue" stroke="midnightblue" points="131.279,-27.0837 138.795,-19.6168 128.263,-20.7667 131.279,-27.0837"/>
</g>
<!-- Node5&#45;&gt;Node6 -->
<g id="edge5" class="edge"><title>Node5&#45;&gt;Node6</title>
<path fill="none" stroke="midnightblue" d="M240.869,-194.351C255.697,-192.601 272.301,-190.641 288.126,-188.774"/>
<polygon fill="midnightblue" stroke="midnightblue" points="288.865,-192.211 298.386,-187.563 288.045,-185.259 288.865,-192.211"/>
</g>
</g>
</svg>
