<?xml version="1.0" encoding="UTF-8" standalone="no"?>
<!DOCTYPE svg PUBLIC "-//W3C//DTD SVG 1.1//EN"
 "http://www.w3.org/Graphics/SVG/1.1/DTD/svg11.dtd">
<!-- Generated by graphviz version 2.36.0 (20140111.2315)
 -->
<!-- Title: mh_update_maildir Pages: 1 -->
<svg width="216pt" height="66pt"
 viewBox="0.00 0.00 216.00 66.00" xmlns="http://www.w3.org/2000/svg" xmlns:xlink="http://www.w3.org/1999/xlink">
<g id="graph0" class="graph" transform="scale(1 1) rotate(0) translate(4 62)">
<title>mh_update_maildir</title>
<polygon fill="white" stroke="none" points="-4,4 -4,-62 212,-62 212,4 -4,4"/>
<!-- Node1 -->
<g id="node1" class="node"><title>Node1</title>
<polygon fill="#bfbfbf" stroke="black" points="0,-19.5 0,-38.5 98,-38.5 98,-19.5 0,-19.5"/>
<text text-anchor="middle" x="49" y="-26.5" font-family="Helvetica,sans-Serif" font-size="10.00">mh_update_maildir</text>
</g>
<!-- Node2 -->
<g id="node2" class="node"><title>Node2</title>
<g id="a_node2"><a xlink:href="mutt_2string_8c.html#a28ed71d2f686113e100516424be6ac42" target="_top" xlink:title="Convert ASCII string to an integer. ">
<polygon fill="white" stroke="red" points="134,-38.5 134,-57.5 208,-57.5 208,-38.5 134,-38.5"/>
<text text-anchor="middle" x="171" y="-45.5" font-family="Helvetica,sans-Serif" font-size="10.00">mutt_str_atoi</text>
</a>
</g>
</g>
<!-- Node1&#45;&gt;Node2 -->
<g id="edge1" class="edge"><title>Node1&#45;&gt;Node2</title>
<path fill="none" stroke="midnightblue" d="M98.1172,-36.6185C106.554,-37.9544 115.318,-39.3419 123.704,-40.6697"/>
<polygon fill="midnightblue" stroke="midnightblue" points="123.274,-44.1452 133.698,-42.2522 124.369,-37.2314 123.274,-44.1452"/>
</g>
<!-- Node3 -->
<g id="node3" class="node"><title>Node3</title>
<g id="a_node3"><a xlink:href="mh_8c.html#aa5f097af95ba689ebe3dc2752f023749" target="_top" xlink:title="Get the flags for a given sequence. ">
<polygon fill="white" stroke="black" points="137.5,-0.5 137.5,-19.5 204.5,-19.5 204.5,-0.5 137.5,-0.5"/>
<text text-anchor="middle" x="171" y="-7.5" font-family="Helvetica,sans-Serif" font-size="10.00">mhs_check</text>
</a>
</g>
</g>
<!-- Node1&#45;&gt;Node3 -->
<g id="edge2" class="edge"><title>Node1&#45;&gt;Node3</title>
<path fill="none" stroke="midnightblue" d="M98.1172,-21.3815C107.79,-19.8499 117.892,-18.2505 127.362,-16.751"/>
<polygon fill="midnightblue" stroke="midnightblue" points="128.011,-20.1919 137.341,-15.171 126.916,-13.278 128.011,-20.1919"/>
</g>
</g>
</svg>
