<?xml version="1.0" encoding="UTF-8" standalone="no"?>
<!DOCTYPE svg PUBLIC "-//W3C//DTD SVG 1.1//EN"
 "http://www.w3.org/Graphics/SVG/1.1/DTD/svg11.dtd">
<!-- Generated by graphviz version 2.36.0 (20140111.2315)
 -->
<!-- Title: maildir_parse_flags Pages: 1 -->
<svg width="268pt" height="142pt"
 viewBox="0.00 0.00 268.00 142.00" xmlns="http://www.w3.org/2000/svg" xmlns:xlink="http://www.w3.org/1999/xlink">
<g id="graph0" class="graph" transform="scale(1 1) rotate(0) translate(4 138)">
<title>maildir_parse_flags</title>
<polygon fill="white" stroke="none" points="-4,4 -4,-138 264,-138 264,4 -4,4"/>
<!-- Node1 -->
<g id="node1" class="node"><title>Node1</title>
<polygon fill="#bfbfbf" stroke="black" points="0.5,-57.5 0.5,-76.5 101.5,-76.5 101.5,-57.5 0.5,-57.5"/>
<text text-anchor="middle" x="51" y="-64.5" font-family="Helvetica,sans-Serif" font-size="10.00">maildir_parse_flags</text>
</g>
<!-- Node2 -->
<g id="node2" class="node"><title>Node2</title>
<g id="a_node2"><a xlink:href="mh_8c.html#a265e3c2a1e6e4faa7a7036fd5543f9f4" target="_top" xlink:title="Parse a Maildir message. ">
<polygon fill="white" stroke="red" points="144,-114.5 144,-133.5 254,-133.5 254,-114.5 144,-114.5"/>
<text text-anchor="middle" x="199" y="-121.5" font-family="Helvetica,sans-Serif" font-size="10.00">maildir_parse_stream</text>
</a>
</g>
</g>
<!-- Node1&#45;&gt;Node2 -->
<g id="edge1" class="edge"><title>Node1&#45;&gt;Node2</title>
<path fill="none" stroke="midnightblue" d="M81.0352,-80.7789C97.5512,-88.3758 118.727,-97.7153 138,-105 146.892,-108.361 156.67,-111.632 165.705,-114.486"/>
<polygon fill="midnightblue" stroke="midnightblue" points="82.4428,-77.5736 71.8989,-76.536 79.4944,-83.9224 82.4428,-77.5736"/>
</g>
<!-- Node3 -->
<g id="node3" class="node"><title>Node3</title>
<g id="a_node3"><a xlink:href="mh_8c.html#aa8bb577bac75fec130c55fe1c5ff3543" target="_top" xlink:title="Read a Maildir mailbox. ">
<polygon fill="white" stroke="red" points="154,-76.5 154,-95.5 244,-95.5 244,-76.5 154,-76.5"/>
<text text-anchor="middle" x="199" y="-83.5" font-family="Helvetica,sans-Serif" font-size="10.00">maildir_parse_dir</text>
</a>
</g>
</g>
<!-- Node1&#45;&gt;Node3 -->
<g id="edge2" class="edge"><title>Node1&#45;&gt;Node3</title>
<path fill="none" stroke="midnightblue" d="M111.89,-74.7939C125.901,-76.6173 140.578,-78.5273 153.765,-80.2434"/>
<polygon fill="midnightblue" stroke="midnightblue" points="112.205,-71.3054 101.837,-73.4856 111.301,-78.2469 112.205,-71.3054"/>
</g>
<!-- Node4 -->
<g id="node4" class="node"><title>Node4</title>
<g id="a_node4"><a xlink:href="mh_8c.html#a9d7bb5e8d059ea54e3630245aee0a89a" target="_top" xlink:title="This function does the second parsing pass. ">
<polygon fill="white" stroke="red" points="138.5,-38.5 138.5,-57.5 259.5,-57.5 259.5,-38.5 138.5,-38.5"/>
<text text-anchor="middle" x="199" y="-45.5" font-family="Helvetica,sans-Serif" font-size="10.00">maildir_delayed_parsing</text>
</a>
</g>
</g>
<!-- Node1&#45;&gt;Node4 -->
<g id="edge3" class="edge"><title>Node1&#45;&gt;Node4</title>
<path fill="none" stroke="midnightblue" d="M111.914,-59.2029C120.626,-58.0692 129.595,-56.9021 138.302,-55.7689"/>
<polygon fill="midnightblue" stroke="midnightblue" points="111.301,-55.7531 101.837,-60.5144 112.205,-62.6946 111.301,-55.7531"/>
</g>
<!-- Node5 -->
<g id="node5" class="node"><title>Node5</title>
<g id="a_node5"><a xlink:href="mutt__notmuch_8c.html#a3b6ce1879599d869e18ff55a11547ed0" target="_top" xlink:title="Implements MxOps::mbox_check() ">
<polygon fill="white" stroke="black" points="153.5,-0.5 153.5,-19.5 244.5,-19.5 244.5,-0.5 153.5,-0.5"/>
<text text-anchor="middle" x="199" y="-7.5" font-family="Helvetica,sans-Serif" font-size="10.00">nm_mbox_check</text>
</a>
</g>
</g>
<!-- Node1&#45;&gt;Node5 -->
<g id="edge4" class="edge"><title>Node1&#45;&gt;Node5</title>
<path fill="none" stroke="midnightblue" d="M81.0352,-53.2211C97.5512,-45.6242 118.727,-36.2847 138,-29 146.892,-25.6391 156.67,-22.3682 165.705,-19.5142"/>
<polygon fill="midnightblue" stroke="midnightblue" points="79.4944,-50.0776 71.8989,-57.464 82.4428,-56.4264 79.4944,-50.0776"/>
</g>
</g>
</svg>
