<?xml version="1.0" encoding="UTF-8" standalone="no"?>
<!DOCTYPE svg PUBLIC "-//W3C//DTD SVG 1.1//EN"
 "http://www.w3.org/Graphics/SVG/1.1/DTD/svg11.dtd">
<!-- Generated by graphviz version 2.36.0 (20140111.2315)
 -->
<!-- Title: maildir_delayed_parsing Pages: 1 -->
<svg width="418pt" height="598pt"
 viewBox="0.00 0.00 418.00 598.00" xmlns="http://www.w3.org/2000/svg" xmlns:xlink="http://www.w3.org/1999/xlink">
<g id="graph0" class="graph" transform="scale(1 1) rotate(0) translate(4 594)">
<title>maildir_delayed_parsing</title>
<polygon fill="white" stroke="none" points="-4,4 -4,-594 414,-594 414,4 -4,4"/>
<!-- Node1 -->
<g id="node1" class="node"><title>Node1</title>
<polygon fill="#bfbfbf" stroke="black" points="0.5,-285.5 0.5,-304.5 121.5,-304.5 121.5,-285.5 0.5,-285.5"/>
<text text-anchor="middle" x="61" y="-292.5" font-family="Helvetica,sans-Serif" font-size="10.00">maildir_delayed_parsing</text>
</g>
<!-- Node2 -->
<g id="node2" class="node"><title>Node2</title>
<g id="a_node2"><a xlink:href="hcache_8c.html#ae01c81d7bc2f290309a28bbb8474ff40" target="_top" xlink:title="Multiplexor for HcacheOps::open. ">
<polygon fill="white" stroke="red" points="168.5,-570.5 168.5,-589.5 267.5,-589.5 267.5,-570.5 168.5,-570.5"/>
<text text-anchor="middle" x="218" y="-577.5" font-family="Helvetica,sans-Serif" font-size="10.00">mutt_hcache_open</text>
</a>
</g>
</g>
<!-- Node1&#45;&gt;Node2 -->
<g id="edge1" class="edge"><title>Node1&#45;&gt;Node2</title>
<path fill="none" stroke="midnightblue" d="M62.5339,-304.588C65.1823,-342.801 80.1303,-485.795 158,-561 159.635,-562.579 161.402,-564.027 163.268,-565.355"/>
<polygon fill="midnightblue" stroke="midnightblue" points="161.581,-568.422 171.982,-570.439 165.108,-562.376 161.581,-568.422"/>
</g>
<!-- Node3 -->
<g id="node3" class="node"><title>Node3</title>
<g id="a_node3"><a xlink:href="progress_8c.html#a8aa58d901a100a3ab7886418500e2385" target="_top" xlink:title="Update the state of the progress bar. ">
<polygon fill="white" stroke="red" points="161.5,-532.5 161.5,-551.5 274.5,-551.5 274.5,-532.5 161.5,-532.5"/>
<text text-anchor="middle" x="218" y="-539.5" font-family="Helvetica,sans-Serif" font-size="10.00">mutt_progress_update</text>
</a>
</g>
</g>
<!-- Node1&#45;&gt;Node3 -->
<g id="edge2" class="edge"><title>Node1&#45;&gt;Node3</title>
<path fill="none" stroke="midnightblue" d="M63.2216,-304.878C68.0885,-339.99 89.2954,-460.025 158,-523 159.708,-524.566 161.546,-526.002 163.48,-527.321"/>
<polygon fill="midnightblue" stroke="midnightblue" points="162.039,-530.525 172.471,-532.376 165.469,-524.424 162.039,-530.525"/>
</g>
<!-- Node4 -->
<g id="node4" class="node"><title>Node4</title>
<g id="a_node4"><a xlink:href="mh_8c.html#a078975dfe51e3b7d2ce99ecb0817c4b9" target="_top" xlink:title="Sort Maildir list. ">
<polygon fill="white" stroke="red" points="328.5,-152.5 328.5,-171.5 395.5,-171.5 395.5,-152.5 328.5,-152.5"/>
<text text-anchor="middle" x="362" y="-159.5" font-family="Helvetica,sans-Serif" font-size="10.00">maildir_sort</text>
</a>
</g>
</g>
<!-- Node1&#45;&gt;Node4 -->
<g id="edge3" class="edge"><title>Node1&#45;&gt;Node4</title>
<path fill="none" stroke="midnightblue" d="M95.9532,-304.56C140.747,-315.144 220.612,-326.832 278,-295 321.88,-270.66 345.605,-212.401 355.447,-181.699"/>
<polygon fill="midnightblue" stroke="midnightblue" points="358.912,-182.334 358.457,-171.749 352.211,-180.307 358.912,-182.334"/>
</g>
<!-- Node5 -->
<g id="node5" class="node"><title>Node5</title>
<g id="a_node5"><a xlink:href="mh_8c.html#ad8d2f7f9c3e0876bf27bd7a9102f0065" target="_top" xlink:title="Compare two Maildirs by inode number. ">
<polygon fill="white" stroke="black" points="176.5,-456.5 176.5,-475.5 259.5,-475.5 259.5,-456.5 176.5,-456.5"/>
<text text-anchor="middle" x="218" y="-463.5" font-family="Helvetica,sans-Serif" font-size="10.00">md_cmp_inode</text>
</a>
</g>
</g>
<!-- Node1&#45;&gt;Node5 -->
<g id="edge4" class="edge"><title>Node1&#45;&gt;Node5</title>
<path fill="none" stroke="midnightblue" d="M65.4483,-304.832C75.3855,-331.739 106.695,-407.222 158,-447 160.806,-449.176 163.87,-451.107 167.077,-452.819"/>
<polygon fill="midnightblue" stroke="midnightblue" points="165.854,-456.109 176.403,-457.09 168.769,-449.744 165.854,-456.109"/>
</g>
<!-- Node6 -->
<g id="node6" class="node"><title>Node6</title>
<g id="a_node6"><a xlink:href="mh_8c.html#a0e3ea1952aeb878ce1468092c9a1cf56" target="_top" xlink:title="Find the first non&#45;duplicate message. ">
<polygon fill="white" stroke="black" points="176,-418.5 176,-437.5 260,-437.5 260,-418.5 176,-418.5"/>
<text text-anchor="middle" x="218" y="-425.5" font-family="Helvetica,sans-Serif" font-size="10.00">skip_duplicates</text>
</a>
</g>
</g>
<!-- Node1&#45;&gt;Node6 -->
<g id="edge5" class="edge"><title>Node1&#45;&gt;Node6</title>
<path fill="none" stroke="midnightblue" d="M67.4102,-304.511C80.265,-326.267 114.82,-380.012 158,-409 160.948,-410.979 164.117,-412.764 167.4,-414.372"/>
<polygon fill="midnightblue" stroke="midnightblue" points="166.299,-417.708 176.868,-418.447 169.066,-411.278 166.299,-417.708"/>
</g>
<!-- Node7 -->
<g id="node7" class="node"><title>Node7</title>
<g id="a_node7"><a xlink:href="mh_8c.html#a287a3f4e55a883f5df809e072797dd1b" target="_top" xlink:title="Calculate the length of the Maildir path. ">
<polygon fill="white" stroke="red" points="160,-380.5 160,-399.5 276,-399.5 276,-380.5 160,-380.5"/>
<text text-anchor="middle" x="218" y="-387.5" font-family="Helvetica,sans-Serif" font-size="10.00">maildir_hcache_keylen</text>
</a>
</g>
</g>
<!-- Node1&#45;&gt;Node7 -->
<g id="edge6" class="edge"><title>Node1&#45;&gt;Node7</title>
<path fill="none" stroke="midnightblue" d="M73.1805,-304.738C90.4594,-319.437 125.102,-347.53 158,-366 164.762,-369.796 172.246,-373.313 179.55,-376.42"/>
<polygon fill="midnightblue" stroke="midnightblue" points="178.731,-379.865 189.313,-380.389 181.367,-373.38 178.731,-379.865"/>
</g>
<!-- Node8 -->
<g id="node8" class="node"><title>Node8</title>
<g id="a_node8"><a xlink:href="hcache_8c.html#a328c1cf43151360a9001b2423ffd6ab8" target="_top" xlink:title="Multiplexor for HcacheOps::fetch. ">
<polygon fill="white" stroke="red" points="168,-494.5 168,-513.5 268,-513.5 268,-494.5 168,-494.5"/>
<text text-anchor="middle" x="218" y="-501.5" font-family="Helvetica,sans-Serif" font-size="10.00">mutt_hcache_fetch</text>
</a>
</g>
</g>
<!-- Node1&#45;&gt;Node8 -->
<g id="edge7" class="edge"><title>Node1&#45;&gt;Node8</title>
<path fill="none" stroke="midnightblue" d="M64.0494,-304.515C71.1892,-335.368 97.8801,-433.612 158,-485 160.004,-486.713 162.165,-488.272 164.434,-489.691"/>
<polygon fill="midnightblue" stroke="midnightblue" points="163.139,-492.964 173.622,-494.499 166.385,-486.762 163.139,-492.964"/>
</g>
<!-- Node9 -->
<g id="node9" class="node"><title>Node9</title>
<g id="a_node9"><a xlink:href="hcache_8c.html#a51e16ac36abe59d7df4b6be113efe90c" target="_top" xlink:title="Multiplexor for HcacheOps::free. ">
<polygon fill="white" stroke="black" points="314.5,-418.5 314.5,-437.5 409.5,-437.5 409.5,-418.5 314.5,-418.5"/>
<text text-anchor="middle" x="362" y="-425.5" font-family="Helvetica,sans-Serif" font-size="10.00">mutt_hcache_free</text>
</a>
</g>
</g>
<!-- Node1&#45;&gt;Node9 -->
<g id="edge15" class="edge"><title>Node1&#45;&gt;Node9</title>
<path fill="none" stroke="midnightblue" d="M98.3526,-304.605C142.267,-316.92 217.748,-340.39 278,-371 300.88,-382.624 324.815,-399.662 341.07,-412.081"/>
<polygon fill="midnightblue" stroke="midnightblue" points="339.211,-415.07 349.255,-418.442 343.506,-409.542 339.211,-415.07"/>
</g>
<!-- Node10 -->
<g id="node10" class="node"><title>Node10</title>
<g id="a_node10"><a xlink:href="hcache_8h.html#a556940057108b6e02ff298c2aabe4e6a" target="_top" xlink:title="restore a Header from data retrieved from the cache ">
<polygon fill="white" stroke="black" points="164,-266.5 164,-285.5 272,-285.5 272,-266.5 164,-266.5"/>
<text text-anchor="middle" x="218" y="-273.5" font-family="Helvetica,sans-Serif" font-size="10.00">mutt_hcache_restore</text>
</a>
</g>
</g>
<!-- Node1&#45;&gt;Node10 -->
<g id="edge9" class="edge"><title>Node1&#45;&gt;Node10</title>
<path fill="none" stroke="midnightblue" d="M121.927,-287.654C132.385,-286.372 143.294,-285.035 153.837,-283.743"/>
<polygon fill="midnightblue" stroke="midnightblue" points="154.305,-287.211 163.805,-282.521 153.454,-280.263 154.305,-287.211"/>
</g>
<!-- Node11 -->
<g id="node11" class="node"><title>Node11</title>
<g id="a_node11"><a xlink:href="mutt_2string_8c.html#ae48085384a6545e0fac589a88243ea31" target="_top" xlink:title="Copy a string, safely. ">
<polygon fill="white" stroke="red" points="175.5,-228.5 175.5,-247.5 260.5,-247.5 260.5,-228.5 175.5,-228.5"/>
<text text-anchor="middle" x="218" y="-235.5" font-family="Helvetica,sans-Serif" font-size="10.00">mutt_str_strdup</text>
</a>
</g>
</g>
<!-- Node1&#45;&gt;Node11 -->
<g id="edge10" class="edge"><title>Node1&#45;&gt;Node11</title>
<path fill="none" stroke="midnightblue" d="M85.1171,-285.358C104.462,-277.407 132.859,-266.013 158,-257 163.916,-254.879 170.204,-252.737 176.386,-250.693"/>
<polygon fill="midnightblue" stroke="midnightblue" points="177.52,-254.005 185.945,-247.581 175.352,-247.349 177.52,-254.005"/>
</g>
<!-- Node12 -->
<g id="node12" class="node"><title>Node12</title>
<g id="a_node12"><a xlink:href="header_8c.html#a417d090ecf2e78b1cd86daeea31c9822" target="_top" xlink:title="Free an email Header. ">
<polygon fill="white" stroke="red" points="172,-190.5 172,-209.5 264,-209.5 264,-190.5 172,-190.5"/>
<text text-anchor="middle" x="218" y="-197.5" font-family="Helvetica,sans-Serif" font-size="10.00">mutt_header_free</text>
</a>
</g>
</g>
<!-- Node1&#45;&gt;Node12 -->
<g id="edge11" class="edge"><title>Node1&#45;&gt;Node12</title>
<path fill="none" stroke="midnightblue" d="M71.5213,-285.494C87.875,-269.648 122.937,-237.729 158,-219 162.006,-216.86 166.294,-214.91 170.664,-213.144"/>
<polygon fill="midnightblue" stroke="midnightblue" points="172.123,-216.335 180.279,-209.572 169.686,-209.774 172.123,-216.335"/>
</g>
<!-- Node13 -->
<g id="node13" class="node"><title>Node13</title>
<g id="a_node13"><a xlink:href="mh_8c.html#a6b29d8d2d3aa3dcb001dc335583dff5b" target="_top" xlink:title="Parse Maildir file flags. ">
<polygon fill="white" stroke="red" points="167.5,-152.5 167.5,-171.5 268.5,-171.5 268.5,-152.5 167.5,-152.5"/>
<text text-anchor="middle" x="218" y="-159.5" font-family="Helvetica,sans-Serif" font-size="10.00">maildir_parse_flags</text>
</a>
</g>
</g>
<!-- Node1&#45;&gt;Node13 -->
<g id="edge12" class="edge"><title>Node1&#45;&gt;Node13</title>
<path fill="none" stroke="midnightblue" d="M67.4102,-285.489C80.265,-263.733 114.82,-209.988 158,-181 160.948,-179.021 164.117,-177.236 167.4,-175.628"/>
<polygon fill="midnightblue" stroke="midnightblue" points="169.066,-178.722 176.868,-171.553 166.299,-172.292 169.066,-178.722"/>
</g>
<!-- Node14 -->
<g id="node14" class="node"><title>Node14</title>
<g id="a_node14"><a xlink:href="mh_8c.html#ae5db27589483e05b017e441c7e14a6cc" target="_top" xlink:title="Actually parse a maildir message. ">
<polygon fill="white" stroke="red" points="158.5,-114.5 158.5,-133.5 277.5,-133.5 277.5,-114.5 158.5,-114.5"/>
<text text-anchor="middle" x="218" y="-121.5" font-family="Helvetica,sans-Serif" font-size="10.00">maildir_parse_message</text>
</a>
</g>
</g>
<!-- Node1&#45;&gt;Node14 -->
<g id="edge13" class="edge"><title>Node1&#45;&gt;Node14</title>
<path fill="none" stroke="midnightblue" d="M65.4483,-285.168C75.3855,-258.261 106.695,-182.778 158,-143 160.43,-141.116 163.053,-139.415 165.796,-137.881"/>
<polygon fill="midnightblue" stroke="midnightblue" points="167.369,-141.008 174.871,-133.526 164.341,-134.697 167.369,-141.008"/>
</g>
<!-- Node15 -->
<g id="node15" class="node"><title>Node15</title>
<g id="a_node15"><a xlink:href="hcache_8c.html#a2506fd544924cac6eea25644d7057872" target="_top" xlink:title="Multiplexor for HcacheOps::store. ">
<polygon fill="white" stroke="red" points="168,-76.5 168,-95.5 268,-95.5 268,-76.5 168,-76.5"/>
<text text-anchor="middle" x="218" y="-83.5" font-family="Helvetica,sans-Serif" font-size="10.00">mutt_hcache_store</text>
</a>
</g>
</g>
<!-- Node1&#45;&gt;Node15 -->
<g id="edge14" class="edge"><title>Node1&#45;&gt;Node15</title>
<path fill="none" stroke="midnightblue" d="M64.0494,-285.485C71.1892,-254.632 97.8801,-156.388 158,-105 160.004,-103.287 162.165,-101.728 164.434,-100.309"/>
<polygon fill="midnightblue" stroke="midnightblue" points="166.385,-103.238 173.622,-95.5008 163.139,-97.0362 166.385,-103.238"/>
</g>
<!-- Node16 -->
<g id="node16" class="node"><title>Node16</title>
<g id="a_node16"><a xlink:href="hcache_8c.html#ab70197e91a184083ea2ac9d4d75c47f0" target="_top" xlink:title="Multiplexor for HcacheOps::close. ">
<polygon fill="white" stroke="black" points="167.5,-38.5 167.5,-57.5 268.5,-57.5 268.5,-38.5 167.5,-38.5"/>
<text text-anchor="middle" x="218" y="-45.5" font-family="Helvetica,sans-Serif" font-size="10.00">mutt_hcache_close</text>
</a>
</g>
</g>
<!-- Node1&#45;&gt;Node16 -->
<g id="edge16" class="edge"><title>Node1&#45;&gt;Node16</title>
<path fill="none" stroke="midnightblue" d="M63.2216,-285.122C68.0885,-250.01 89.2954,-129.975 158,-67 159.708,-65.4344 161.546,-63.9978 163.48,-62.6795"/>
<polygon fill="midnightblue" stroke="midnightblue" points="165.469,-65.5764 172.471,-57.6244 162.039,-59.4748 165.469,-65.5764"/>
</g>
<!-- Node17 -->
<g id="node17" class="node"><title>Node17</title>
<g id="a_node17"><a xlink:href="mh_8c.html#ae443dea0b1e85d589fb8936c3416f3ea" target="_top" xlink:title="Sort a Maildir list into its natural order. ">
<polygon fill="white" stroke="red" points="175,-0.5 175,-19.5 261,-19.5 261,-0.5 175,-0.5"/>
<text text-anchor="middle" x="218" y="-7.5" font-family="Helvetica,sans-Serif" font-size="10.00">mh_sort_natural</text>
</a>
</g>
</g>
<!-- Node1&#45;&gt;Node17 -->
<g id="edge17" class="edge"><title>Node1&#45;&gt;Node17</title>
<path fill="none" stroke="midnightblue" d="M62.5339,-285.412C65.1823,-247.199 80.1303,-104.205 158,-29 160.4,-26.6825 163.083,-24.6477 165.947,-22.8611"/>
<polygon fill="midnightblue" stroke="midnightblue" points="167.687,-25.902 174.974,-18.2113 164.481,-19.6791 167.687,-25.902"/>
</g>
<!-- Node8&#45;&gt;Node9 -->
<g id="edge8" class="edge"><title>Node8&#45;&gt;Node9</title>
<path fill="none" stroke="midnightblue" d="M254.29,-494.482C262.262,-491.828 270.563,-488.654 278,-485 301.034,-473.684 324.946,-456.6 341.154,-444.086"/>
<polygon fill="midnightblue" stroke="midnightblue" points="343.615,-446.603 349.311,-437.67 339.287,-441.102 343.615,-446.603"/>
</g>
<!-- Node17&#45;&gt;Node4 -->
<g id="edge18" class="edge"><title>Node17&#45;&gt;Node4</title>
<path fill="none" stroke="midnightblue" d="M261.148,-19.5024C267.16,-21.9826 272.993,-25.0962 278,-29 317.19,-59.5546 342.698,-114.177 354.105,-142.995"/>
<polygon fill="midnightblue" stroke="midnightblue" points="350.839,-144.253 357.669,-152.352 357.381,-141.761 350.839,-144.253"/>
</g>
</g>
</svg>
