<?xml version="1.0" encoding="UTF-8" standalone="no"?>
<!DOCTYPE svg PUBLIC "-//W3C//DTD SVG 1.1//EN"
 "http://www.w3.org/Graphics/SVG/1.1/DTD/svg11.dtd">
<!-- Generated by graphviz version 2.36.0 (20140111.2315)
 -->
<!-- Title: mh_commit_msg Pages: 1 -->
<svg width="246pt" height="66pt"
 viewBox="0.00 0.00 246.00 66.00" xmlns="http://www.w3.org/2000/svg" xmlns:xlink="http://www.w3.org/1999/xlink">
<g id="graph0" class="graph" transform="scale(1 1) rotate(0) translate(4 62)">
<title>mh_commit_msg</title>
<polygon fill="white" stroke="none" points="-4,4 -4,-62 242,-62 242,4 -4,4"/>
<!-- Node1 -->
<g id="node1" class="node"><title>Node1</title>
<polygon fill="#bfbfbf" stroke="black" points="0,-19.5 0,-38.5 92,-38.5 92,-19.5 0,-19.5"/>
<text text-anchor="middle" x="46" y="-26.5" font-family="Helvetica,sans-Serif" font-size="10.00">mh_commit_msg</text>
</g>
<!-- Node2 -->
<g id="node2" class="node"><title>Node2</title>
<g id="a_node2"><a xlink:href="mh_8c.html#afb255f551c4e4d90dd3995d612eafd35" target="_top" xlink:title="Implements MxOps::msg_commit() ">
<polygon fill="white" stroke="black" points="137,-38.5 137,-57.5 229,-57.5 229,-38.5 137,-38.5"/>
<text text-anchor="middle" x="183" y="-45.5" font-family="Helvetica,sans-Serif" font-size="10.00">mh_msg_commit</text>
</a>
</g>
</g>
<!-- Node1&#45;&gt;Node2 -->
<g id="edge1" class="edge"><title>Node1&#45;&gt;Node2</title>
<path fill="none" stroke="midnightblue" d="M102.553,-36.8185C113.869,-38.4111 125.647,-40.0689 136.561,-41.6049"/>
<polygon fill="midnightblue" stroke="midnightblue" points="102.719,-33.3075 92.3286,-35.3796 101.743,-40.2392 102.719,-33.3075"/>
</g>
<!-- Node3 -->
<g id="node3" class="node"><title>Node3</title>
<g id="a_node3"><a xlink:href="mh_8c.html#a7ce071910aa2dc44be43cf7fb9486d16" target="_top" xlink:title="Sync a message in an MH folder. ">
<polygon fill="white" stroke="red" points="128,-0.5 128,-19.5 238,-19.5 238,-0.5 128,-0.5"/>
<text text-anchor="middle" x="183" y="-7.5" font-family="Helvetica,sans-Serif" font-size="10.00">mh_rewrite_message</text>
</a>
</g>
</g>
<!-- Node1&#45;&gt;Node3 -->
<g id="edge2" class="edge"><title>Node1&#45;&gt;Node3</title>
<path fill="none" stroke="midnightblue" d="M102.359,-21.2087C110.716,-20.0326 119.33,-18.8203 127.665,-17.6472"/>
<polygon fill="midnightblue" stroke="midnightblue" points="101.743,-17.7608 92.3286,-22.6204 102.719,-24.6925 101.743,-17.7608"/>
</g>
</g>
</svg>
