<?xml version="1.0" encoding="UTF-8" standalone="no"?>
<!DOCTYPE svg PUBLIC "-//W3C//DTD SVG 1.1//EN"
 "http://www.w3.org/Graphics/SVG/1.1/DTD/svg11.dtd">
<!-- Generated by graphviz version 2.36.0 (20140111.2315)
 -->
<!-- Title: mh_sequences_add_one Pages: 1 -->
<svg width="286pt" height="180pt"
 viewBox="0.00 0.00 286.00 180.00" xmlns="http://www.w3.org/2000/svg" xmlns:xlink="http://www.w3.org/1999/xlink">
<g id="graph0" class="graph" transform="scale(1 1) rotate(0) translate(4 176)">
<title>mh_sequences_add_one</title>
<polygon fill="white" stroke="none" points="-4,4 -4,-176 282,-176 282,4 -4,4"/>
<!-- Node1 -->
<g id="node1" class="node"><title>Node1</title>
<polygon fill="#bfbfbf" stroke="black" points="0.5,-76.5 0.5,-95.5 125.5,-95.5 125.5,-76.5 0.5,-76.5"/>
<text text-anchor="middle" x="63" y="-83.5" font-family="Helvetica,sans-Serif" font-size="10.00">mh_sequences_add_one</text>
</g>
<!-- Node2 -->
<g id="node2" class="node"><title>Node2</title>
<g id="a_node2"><a xlink:href="mh_8c.html#a3ad33d6311c91fa1b152afde8843e1a1" target="_top" xlink:title="Create a temporary file. ">
<polygon fill="white" stroke="red" points="182,-152.5 182,-171.5 258,-171.5 258,-152.5 182,-152.5"/>
<text text-anchor="middle" x="220" y="-159.5" font-family="Helvetica,sans-Serif" font-size="10.00">mh_mkstemp</text>
</a>
</g>
</g>
<!-- Node1&#45;&gt;Node2 -->
<g id="edge1" class="edge"><title>Node1&#45;&gt;Node2</title>
<path fill="none" stroke="midnightblue" d="M78.4388,-95.6695C97.1233,-107.88 130.968,-128.983 162,-143 166.75,-145.146 171.818,-147.178 176.898,-149.059"/>
<polygon fill="midnightblue" stroke="midnightblue" points="176.007,-152.456 186.602,-152.479 178.334,-145.854 176.007,-152.456"/>
</g>
<!-- Node3 -->
<g id="node3" class="node"><title>Node3</title>
<g id="a_node3"><a xlink:href="file_8c.html#a925820fb917e9a6a0542baa02ec7ed2c" target="_top" xlink:title="Read a line from a file. ">
<polygon fill="white" stroke="red" points="171,-114.5 171,-133.5 269,-133.5 269,-114.5 171,-114.5"/>
<text text-anchor="middle" x="220" y="-121.5" font-family="Helvetica,sans-Serif" font-size="10.00">mutt_file_read_line</text>
</a>
</g>
</g>
<!-- Node1&#45;&gt;Node3 -->
<g id="edge2" class="edge"><title>Node1&#45;&gt;Node3</title>
<path fill="none" stroke="midnightblue" d="M103.113,-95.589C123.475,-100.581 148.566,-106.732 170.189,-112.033"/>
<polygon fill="midnightblue" stroke="midnightblue" points="169.622,-115.498 180.168,-114.48 171.289,-108.699 169.622,-115.498"/>
</g>
<!-- Node4 -->
<g id="node4" class="node"><title>Node4</title>
<g id="a_node4"><a xlink:href="mutt_2string_8c.html#aca11f88d08a860c07419df3efb18f35a" target="_top" xlink:title="Calculate the length of a string, safely. ">
<polygon fill="white" stroke="black" points="179,-76.5 179,-95.5 261,-95.5 261,-76.5 179,-76.5"/>
<text text-anchor="middle" x="220" y="-83.5" font-family="Helvetica,sans-Serif" font-size="10.00">mutt_str_strlen</text>
</a>
</g>
</g>
<!-- Node1&#45;&gt;Node4 -->
<g id="edge3" class="edge"><title>Node1&#45;&gt;Node4</title>
<path fill="none" stroke="midnightblue" d="M125.705,-86C139.968,-86 154.975,-86 168.683,-86"/>
<polygon fill="midnightblue" stroke="midnightblue" points="168.879,-89.5001 178.879,-86 168.879,-82.5001 168.879,-89.5001"/>
</g>
<!-- Node5 -->
<g id="node5" class="node"><title>Node5</title>
<g id="a_node5"><a xlink:href="file_8c.html#a4982d9040dfaf38e847729be2af83ed6" target="_top" xlink:title="Close a FILE handle (and NULL the pointer) ">
<polygon fill="white" stroke="black" points="177,-38.5 177,-57.5 263,-57.5 263,-38.5 177,-38.5"/>
<text text-anchor="middle" x="220" y="-45.5" font-family="Helvetica,sans-Serif" font-size="10.00">mutt_file_fclose</text>
</a>
</g>
</g>
<!-- Node1&#45;&gt;Node5 -->
<g id="edge4" class="edge"><title>Node1&#45;&gt;Node5</title>
<path fill="none" stroke="midnightblue" d="M103.113,-76.411C123.475,-71.4191 148.566,-65.2676 170.189,-59.9666"/>
<polygon fill="midnightblue" stroke="midnightblue" points="171.289,-63.3006 180.168,-57.5201 169.622,-56.5019 171.289,-63.3006"/>
</g>
<!-- Node6 -->
<g id="node6" class="node"><title>Node6</title>
<g id="a_node6"><a xlink:href="file_8c.html#a1cdf183d05e03b173070aa506d192822" target="_top" xlink:title="NFS&#45;safe renaming of files. ">
<polygon fill="white" stroke="red" points="162,-0.5 162,-19.5 278,-19.5 278,-0.5 162,-0.5"/>
<text text-anchor="middle" x="220" y="-7.5" font-family="Helvetica,sans-Serif" font-size="10.00">mutt_file_safe_rename</text>
</a>
</g>
</g>
<!-- Node1&#45;&gt;Node6 -->
<g id="edge5" class="edge"><title>Node1&#45;&gt;Node6</title>
<path fill="none" stroke="midnightblue" d="M78.4388,-76.3305C97.1233,-64.1202 130.968,-43.0174 162,-29 166.75,-26.8543 171.818,-24.8223 176.898,-22.9415"/>
<polygon fill="midnightblue" stroke="midnightblue" points="178.334,-26.1462 186.602,-19.5206 176.007,-19.5444 178.334,-26.1462"/>
</g>
</g>
</svg>
