<?xml version="1.0" encoding="UTF-8" standalone="no"?>
<!DOCTYPE svg PUBLIC "-//W3C//DTD SVG 1.1//EN"
 "http://www.w3.org/Graphics/SVG/1.1/DTD/svg11.dtd">
<!-- Generated by graphviz version 2.36.0 (20140111.2315)
 -->
<!-- Title: mh_sort_natural Pages: 1 -->
<svg width="208pt" height="66pt"
 viewBox="0.00 0.00 208.00 66.00" xmlns="http://www.w3.org/2000/svg" xmlns:xlink="http://www.w3.org/1999/xlink">
<g id="graph0" class="graph" transform="scale(1 1) rotate(0) translate(4 62)">
<title>mh_sort_natural</title>
<polygon fill="white" stroke="none" points="-4,4 -4,-62 204,-62 204,4 -4,4"/>
<!-- Node1 -->
<g id="node1" class="node"><title>Node1</title>
<polygon fill="#bfbfbf" stroke="black" points="0,-19.5 0,-38.5 86,-38.5 86,-19.5 0,-19.5"/>
<text text-anchor="middle" x="43" y="-26.5" font-family="Helvetica,sans-Serif" font-size="10.00">mh_sort_natural</text>
</g>
<!-- Node2 -->
<g id="node2" class="node"><title>Node2</title>
<g id="a_node2"><a xlink:href="mh_8c.html#a078975dfe51e3b7d2ce99ecb0817c4b9" target="_top" xlink:title="Sort Maildir list. ">
<polygon fill="white" stroke="red" points="127.5,-38.5 127.5,-57.5 194.5,-57.5 194.5,-38.5 127.5,-38.5"/>
<text text-anchor="middle" x="161" y="-45.5" font-family="Helvetica,sans-Serif" font-size="10.00">maildir_sort</text>
</a>
</g>
</g>
<!-- Node1&#45;&gt;Node2 -->
<g id="edge1" class="edge"><title>Node1&#45;&gt;Node2</title>
<path fill="none" stroke="midnightblue" d="M86.2068,-35.9132C96.4096,-37.5843 107.318,-39.3711 117.533,-41.0442"/>
<polygon fill="midnightblue" stroke="midnightblue" points="117.03,-44.5084 127.465,-42.6709 118.162,-37.6005 117.03,-44.5084"/>
</g>
<!-- Node3 -->
<g id="node3" class="node"><title>Node3</title>
<g id="a_node3"><a xlink:href="mh_8c.html#afcd624bb93bb292cd41f2a9bf5d897f4" target="_top" xlink:title="Compare two Maildirs by path. ">
<polygon fill="white" stroke="black" points="122,-0.5 122,-19.5 200,-19.5 200,-0.5 122,-0.5"/>
<text text-anchor="middle" x="161" y="-7.5" font-family="Helvetica,sans-Serif" font-size="10.00">md_cmp_path</text>
</a>
</g>
</g>
<!-- Node1&#45;&gt;Node3 -->
<g id="edge2" class="edge"><title>Node1&#45;&gt;Node3</title>
<path fill="none" stroke="midnightblue" d="M86.2068,-22.0868C94.4966,-20.729 103.252,-19.2949 111.723,-17.9074"/>
<polygon fill="midnightblue" stroke="midnightblue" points="112.561,-21.3168 121.864,-16.2464 111.43,-14.4089 112.561,-21.3168"/>
</g>
</g>
</svg>
