<?xml version="1.0" encoding="UTF-8" standalone="no"?>
<!DOCTYPE svg PUBLIC "-//W3C//DTD SVG 1.1//EN"
 "http://www.w3.org/Graphics/SVG/1.1/DTD/svg11.dtd">
<!-- Generated by graphviz version 2.36.0 (20140111.2315)
 -->
<!-- Title: mh_mailbox Pages: 1 -->
<svg width="196pt" height="28pt"
 viewBox="0.00 0.00 196.00 28.00" xmlns="http://www.w3.org/2000/svg" xmlns:xlink="http://www.w3.org/1999/xlink">
<g id="graph0" class="graph" transform="scale(1 1) rotate(0) translate(4 24)">
<title>mh_mailbox</title>
<polygon fill="white" stroke="none" points="-4,4 -4,-24 192,-24 192,4 -4,4"/>
<!-- Node1 -->
<g id="node1" class="node"><title>Node1</title>
<polygon fill="#bfbfbf" stroke="black" points="0.5,-0.5 0.5,-19.5 69.5,-19.5 69.5,-0.5 0.5,-0.5"/>
<text text-anchor="middle" x="35" y="-7.5" font-family="Helvetica,sans-Serif" font-size="10.00">mh_mailbox</text>
</g>
<!-- Node2 -->
<g id="node2" class="node"><title>Node2</title>
<g id="a_node2"><a xlink:href="mailbox_8c.html#a6dcf62664c374c653f84bd423eee664e" target="_top" xlink:title="Check a mailbox for new mail. ">
<polygon fill="white" stroke="red" points="106,-0.5 106,-19.5 188,-19.5 188,-0.5 106,-0.5"/>
<text text-anchor="middle" x="147" y="-7.5" font-family="Helvetica,sans-Serif" font-size="10.00">mailbox_check</text>
</a>
</g>
</g>
<!-- Node1&#45;&gt;Node2 -->
<g id="edge1" class="edge"><title>Node1&#45;&gt;Node2</title>
<path fill="none" stroke="midnightblue" d="M79.7676,-10C88.3033,-10 97.2161,-10 105.635,-10"/>
<polygon fill="midnightblue" stroke="midnightblue" points="79.6014,-6.5001 69.6013,-10 79.6013,-13.5001 79.6014,-6.5001"/>
</g>
</g>
</svg>
