<?xml version="1.0" encoding="UTF-8" standalone="no"?>
<!DOCTYPE svg PUBLIC "-//W3C//DTD SVG 1.1//EN"
 "http://www.w3.org/Graphics/SVG/1.1/DTD/svg11.dtd">
<!-- Generated by graphviz version 2.36.0 (20140111.2315)
 -->
<!-- Title: rename_filename Pages: 1 -->
<svg width="382pt" height="256pt"
 viewBox="0.00 0.00 382.00 256.00" xmlns="http://www.w3.org/2000/svg" xmlns:xlink="http://www.w3.org/1999/xlink">
<g id="graph0" class="graph" transform="scale(1 1) rotate(0) translate(4 252)">
<title>rename_filename</title>
<polygon fill="white" stroke="none" points="-4,4 -4,-252 378,-252 378,4 -4,4"/>
<!-- Node1 -->
<g id="node1" class="node"><title>Node1</title>
<polygon fill="#bfbfbf" stroke="black" points="0.5,-114.5 0.5,-133.5 91.5,-133.5 91.5,-114.5 0.5,-114.5"/>
<text text-anchor="middle" x="46" y="-121.5" font-family="Helvetica,sans-Serif" font-size="10.00">rename_filename</text>
</g>
<!-- Node2 -->
<g id="node2" class="node"><title>Node2</title>
<g id="a_node2"><a xlink:href="mutt__notmuch_8c.html#aa70d84c620de4ce4b1c48d32d428bccc" target="_top" xlink:title="Get the Notmuch database. ">
<polygon fill="white" stroke="red" points="168,-228.5 168,-247.5 214,-247.5 214,-228.5 168,-228.5"/>
<text text-anchor="middle" x="191" y="-235.5" font-family="Helvetica,sans-Serif" font-size="10.00">get_db</text>
</a>
</g>
</g>
<!-- Node1&#45;&gt;Node2 -->
<g id="edge1" class="edge"><title>Node1&#45;&gt;Node2</title>
<path fill="none" stroke="midnightblue" d="M52.5877,-133.659C64.1665,-152.823 92.6718,-195.8 128,-219 136.963,-224.886 147.84,-229.023 157.965,-231.896"/>
<polygon fill="midnightblue" stroke="midnightblue" points="157.188,-235.31 167.741,-234.367 158.903,-228.523 157.188,-235.31"/>
</g>
<!-- Node3 -->
<g id="node3" class="node"><title>Node3</title>
<g id="a_node3"><a xlink:href="mutt__notmuch_8c.html#a9595a951806024d29971ceb9a497e6bf" target="_top" xlink:title="Start a Notmuch database transaction. ">
<polygon fill="white" stroke="black" points="149.5,-190.5 149.5,-209.5 232.5,-209.5 232.5,-190.5 149.5,-190.5"/>
<text text-anchor="middle" x="191" y="-197.5" font-family="Helvetica,sans-Serif" font-size="10.00">db_trans_begin</text>
</a>
</g>
</g>
<!-- Node1&#45;&gt;Node3 -->
<g id="edge2" class="edge"><title>Node1&#45;&gt;Node3</title>
<path fill="none" stroke="midnightblue" d="M58.0787,-133.534C73.0459,-145.99 100.973,-167.768 128,-181 132.56,-183.232 137.436,-185.268 142.378,-187.106"/>
<polygon fill="midnightblue" stroke="midnightblue" points="141.297,-190.436 151.892,-190.4 143.587,-183.821 141.297,-190.436"/>
</g>
<!-- Node4 -->
<g id="node4" class="node"><title>Node4</title>
<g id="a_node4"><a xlink:href="mutt__notmuch_8c.html#a9bd61abcef366e06d1f772ad895a2709" target="_top" xlink:title="Rename a Maildir file. ">
<polygon fill="white" stroke="red" points="128.5,-152.5 128.5,-171.5 253.5,-171.5 253.5,-152.5 128.5,-152.5"/>
<text text-anchor="middle" x="191" y="-159.5" font-family="Helvetica,sans-Serif" font-size="10.00">rename_maildir_filename</text>
</a>
</g>
</g>
<!-- Node1&#45;&gt;Node4 -->
<g id="edge3" class="edge"><title>Node1&#45;&gt;Node4</title>
<path fill="none" stroke="midnightblue" d="M83.0849,-133.589C101.63,-138.517 124.426,-144.575 144.199,-149.829"/>
<polygon fill="midnightblue" stroke="midnightblue" points="143.363,-153.228 153.927,-152.414 145.161,-146.463 143.363,-153.228"/>
</g>
<!-- Node5 -->
<g id="node5" class="node"><title>Node5</title>
<g id="a_node5"><a xlink:href="mutt__notmuch_8c.html#a739b1ab09985b62235f7c587e2d17a95" target="_top" xlink:title="Update the Header&#39;s tags from Notmuch. ">
<polygon fill="white" stroke="red" points="139,-114.5 139,-133.5 243,-133.5 243,-114.5 139,-114.5"/>
<text text-anchor="middle" x="191" y="-121.5" font-family="Helvetica,sans-Serif" font-size="10.00">update_header_tags</text>
</a>
</g>
</g>
<!-- Node1&#45;&gt;Node5 -->
<g id="edge4" class="edge"><title>Node1&#45;&gt;Node5</title>
<path fill="none" stroke="midnightblue" d="M91.8537,-124C103.5,-124 116.247,-124 128.585,-124"/>
<polygon fill="midnightblue" stroke="midnightblue" points="128.82,-127.5 138.82,-124 128.82,-120.5 128.82,-127.5"/>
</g>
<!-- Node6 -->
<g id="node6" class="node"><title>Node6</title>
<g id="a_node6"><a xlink:href="tags_8c.html#ace0ffc57812ab1fd3ba00a2cc780653b" target="_top" xlink:title="Get tags. ">
<polygon fill="white" stroke="red" points="290.5,-95.5 290.5,-114.5 373.5,-114.5 373.5,-95.5 290.5,-95.5"/>
<text text-anchor="middle" x="332" y="-102.5" font-family="Helvetica,sans-Serif" font-size="10.00">driver_tags_get</text>
</a>
</g>
</g>
<!-- Node1&#45;&gt;Node6 -->
<g id="edge6" class="edge"><title>Node1&#45;&gt;Node6</title>
<path fill="none" stroke="midnightblue" d="M79.8,-114.493C94.417,-110.729 111.93,-106.86 128,-105 179.639,-99.0247 239.163,-99.935 280.343,-101.78"/>
<polygon fill="midnightblue" stroke="midnightblue" points="280.244,-105.279 290.401,-102.266 280.581,-98.2873 280.244,-105.279"/>
</g>
<!-- Node7 -->
<g id="node7" class="node"><title>Node7</title>
<g id="a_node7"><a xlink:href="mutt__notmuch_8c.html#a745c6210b7b6364f6b052e34f0cfcd2b" target="_top" xlink:title="Update the tags on a message. ">
<polygon fill="white" stroke="red" points="156,-38.5 156,-57.5 226,-57.5 226,-38.5 156,-38.5"/>
<text text-anchor="middle" x="191" y="-45.5" font-family="Helvetica,sans-Serif" font-size="10.00">update_tags</text>
</a>
</g>
</g>
<!-- Node1&#45;&gt;Node7 -->
<g id="edge7" class="edge"><title>Node1&#45;&gt;Node7</title>
<path fill="none" stroke="midnightblue" d="M59.9825,-114.497C75.5859,-103.356 102.821,-84.7908 128,-72 135.692,-68.0924 144.178,-64.4206 152.339,-61.18"/>
<polygon fill="midnightblue" stroke="midnightblue" points="153.621,-64.437 161.702,-57.5856 151.112,-57.9019 153.621,-64.437"/>
</g>
<!-- Node8 -->
<g id="node8" class="node"><title>Node8</title>
<g id="a_node8"><a xlink:href="mutt__notmuch_8c.html#aaeffd14b9bce9c424e205a98de9c158d" target="_top" xlink:title="End a database transaction. ">
<polygon fill="white" stroke="black" points="153.5,-0.5 153.5,-19.5 228.5,-19.5 228.5,-0.5 153.5,-0.5"/>
<text text-anchor="middle" x="191" y="-7.5" font-family="Helvetica,sans-Serif" font-size="10.00">db_trans_end</text>
</a>
</g>
</g>
<!-- Node1&#45;&gt;Node8 -->
<g id="edge8" class="edge"><title>Node1&#45;&gt;Node8</title>
<path fill="none" stroke="midnightblue" d="M52.5877,-114.341C64.1665,-95.1767 92.6718,-52.2 128,-29 132.883,-25.7933 138.334,-23.1059 143.922,-20.8591"/>
<polygon fill="midnightblue" stroke="midnightblue" points="145.14,-24.1407 153.379,-17.4799 142.784,-17.5489 145.14,-24.1407"/>
</g>
<!-- Node5&#45;&gt;Node6 -->
<g id="edge5" class="edge"><title>Node5&#45;&gt;Node6</title>
<path fill="none" stroke="midnightblue" d="M243.364,-116.979C255.326,-115.344 268.06,-113.603 280.007,-111.97"/>
<polygon fill="midnightblue" stroke="midnightblue" points="280.83,-115.39 290.264,-110.568 279.882,-108.455 280.83,-115.39"/>
</g>
</g>
</svg>
