<?xml version="1.0" encoding="UTF-8" standalone="no"?>
<!DOCTYPE svg PUBLIC "-//W3C//DTD SVG 1.1//EN"
 "http://www.w3.org/Graphics/SVG/1.1/DTD/svg11.dtd">
<!-- Generated by graphviz version 2.36.0 (20140111.2315)
 -->
<!-- Title: mutt_md5_process_block Pages: 1 -->
<svg width="302pt" height="66pt"
 viewBox="0.00 0.00 302.00 66.00" xmlns="http://www.w3.org/2000/svg" xmlns:xlink="http://www.w3.org/1999/xlink">
<g id="graph0" class="graph" transform="scale(1 1) rotate(0) translate(4 62)">
<title>mutt_md5_process_block</title>
<polygon fill="white" stroke="none" points="-4,4 -4,-62 298,-62 298,4 -4,4"/>
<!-- Node1 -->
<g id="node1" class="node"><title>Node1</title>
<polygon fill="#bfbfbf" stroke="black" points="0,-19.5 0,-38.5 128,-38.5 128,-19.5 0,-19.5"/>
<text text-anchor="middle" x="64" y="-26.5" font-family="Helvetica,sans-Serif" font-size="10.00">mutt_md5_process_block</text>
</g>
<!-- Node2 -->
<g id="node2" class="node"><title>Node2</title>
<g id="a_node2"><a xlink:href="md5_8h.html#a600cbbaf2837159779659b47eccee2ad" target="_top" xlink:title="Process the remaining bytes in the buffer. ">
<polygon fill="white" stroke="red" points="175.5,-38.5 175.5,-57.5 282.5,-57.5 282.5,-38.5 175.5,-38.5"/>
<text text-anchor="middle" x="229" y="-45.5" font-family="Helvetica,sans-Serif" font-size="10.00">mutt_md5_finish_ctx</text>
</a>
</g>
</g>
<!-- Node1&#45;&gt;Node2 -->
<g id="edge1" class="edge"><title>Node1&#45;&gt;Node2</title>
<path fill="none" stroke="midnightblue" d="M138.046,-37.5146C150.65,-38.9837 163.526,-40.4847 175.452,-41.8748"/>
<polygon fill="midnightblue" stroke="midnightblue" points="138.358,-34.0273 128.02,-36.3459 137.548,-40.9803 138.358,-34.0273"/>
</g>
<!-- Node3 -->
<g id="node3" class="node"><title>Node3</title>
<g id="a_node3"><a xlink:href="md5_8h.html#a496538fb48f5c2900598bb80369a86d5" target="_top" xlink:title="Process a block of data. ">
<polygon fill="white" stroke="red" points="164.5,-0.5 164.5,-19.5 293.5,-19.5 293.5,-0.5 164.5,-0.5"/>
<text text-anchor="middle" x="229" y="-7.5" font-family="Helvetica,sans-Serif" font-size="10.00">mutt_md5_process_bytes</text>
</a>
</g>
</g>
<!-- Node1&#45;&gt;Node3 -->
<g id="edge2" class="edge"><title>Node1&#45;&gt;Node3</title>
<path fill="none" stroke="midnightblue" d="M138.181,-20.4697C146.908,-19.4525 155.763,-18.4203 164.341,-17.4204"/>
<polygon fill="midnightblue" stroke="midnightblue" points="137.548,-17.0198 128.02,-21.6541 138.358,-23.9727 137.548,-17.0198"/>
</g>
</g>
</svg>
