<?xml version="1.0" encoding="UTF-8" standalone="no"?>
<!DOCTYPE svg PUBLIC "-//W3C//DTD SVG 1.1//EN"
 "http://www.w3.org/Graphics/SVG/1.1/DTD/svg11.dtd">
<!-- Generated by graphviz version 2.36.0 (20140111.2315)
 -->
<!-- Title: mutt_log_set_file Pages: 1 -->
<svg width="370pt" height="161pt"
 viewBox="0.00 0.00 370.00 160.64" xmlns="http://www.w3.org/2000/svg" xmlns:xlink="http://www.w3.org/1999/xlink">
<g id="graph0" class="graph" transform="scale(1 1) rotate(0) translate(4 156.637)">
<title>mutt_log_set_file</title>
<polygon fill="white" stroke="none" points="-4,4 -4,-156.637 366,-156.637 366,4 -4,4"/>
<!-- Node1 -->
<g id="node1" class="node"><title>Node1</title>
<polygon fill="#bfbfbf" stroke="black" points="0.5,-76.5 0.5,-95.5 91.5,-95.5 91.5,-76.5 0.5,-76.5"/>
<text text-anchor="middle" x="46" y="-83.5" font-family="Helvetica,sans-Serif" font-size="10.00">mutt_log_set_file</text>
</g>
<!-- Node2 -->
<g id="node2" class="node"><title>Node2</title>
<g id="a_node2"><a xlink:href="mutt_2string_8c.html#ab4aaf8bd2ce3982651f0f949d6c665e2" target="_top" xlink:title="Compare two strings, safely. ">
<polygon fill="white" stroke="black" points="273,-95.5 273,-114.5 361,-114.5 361,-95.5 273,-95.5"/>
<text text-anchor="middle" x="317" y="-102.5" font-family="Helvetica,sans-Serif" font-size="10.00">mutt_str_strcmp</text>
</a>
</g>
</g>
<!-- Node1&#45;&gt;Node2 -->
<g id="edge1" class="edge"><title>Node1&#45;&gt;Node2</title>
<path fill="none" stroke="midnightblue" d="M56.3759,-95.6182C70.4343,-109.273 98.4918,-133.658 128,-143 173.761,-157.487 189.175,-153.556 236,-143 255.999,-138.492 276.866,-128.372 292.273,-119.709"/>
<polygon fill="midnightblue" stroke="midnightblue" points="294.223,-122.623 301.103,-114.566 290.7,-116.574 294.223,-122.623"/>
</g>
<!-- Node3 -->
<g id="node3" class="node"><title>Node3</title>
<g id="a_node3"><a xlink:href="mutt__logging_8c.html#a49200939593f1fe61b70d9d1267b71c8" target="_top" xlink:title="Rotate a set of numbered files. ">
<polygon fill="white" stroke="red" points="149.5,-114.5 149.5,-133.5 214.5,-133.5 214.5,-114.5 149.5,-114.5"/>
<text text-anchor="middle" x="182" y="-121.5" font-family="Helvetica,sans-Serif" font-size="10.00">rotate_logs</text>
</a>
</g>
</g>
<!-- Node1&#45;&gt;Node3 -->
<g id="edge2" class="edge"><title>Node1&#45;&gt;Node3</title>
<path fill="none" stroke="midnightblue" d="M80.8139,-95.589C98.6898,-100.658 120.782,-106.923 139.669,-112.279"/>
<polygon fill="midnightblue" stroke="midnightblue" points="138.923,-115.706 149.498,-115.067 140.833,-108.971 138.923,-115.706"/>
</g>
<!-- Node4 -->
<g id="node4" class="node"><title>Node4</title>
<g id="a_node4"><a xlink:href="logging_8c.html#ae5764884f4e8cb6c8601216f24daf96f" target="_top" xlink:title="Set the filename for the log. ">
<polygon fill="white" stroke="red" points="128,-76.5 128,-95.5 236,-95.5 236,-76.5 128,-76.5"/>
<text text-anchor="middle" x="182" y="-83.5" font-family="Helvetica,sans-Serif" font-size="10.00">log_file_set_filename</text>
</a>
</g>
</g>
<!-- Node1&#45;&gt;Node4 -->
<g id="edge3" class="edge"><title>Node1&#45;&gt;Node4</title>
<path fill="none" stroke="midnightblue" d="M91.6201,-86C99.9377,-86 108.775,-86 117.532,-86"/>
<polygon fill="midnightblue" stroke="midnightblue" points="117.739,-89.5001 127.739,-86 117.739,-82.5001 117.739,-89.5001"/>
</g>
<!-- Node5 -->
<g id="node5" class="node"><title>Node5</title>
<g id="a_node5"><a xlink:href="mutt_2string_8c.html#ad5b66f8059a202f7bfa5fc4fa3047c67" target="_top" xlink:title="Replace one string with another. ">
<polygon fill="white" stroke="red" points="272.5,-48.5 272.5,-67.5 361.5,-67.5 361.5,-48.5 272.5,-48.5"/>
<text text-anchor="middle" x="317" y="-55.5" font-family="Helvetica,sans-Serif" font-size="10.00">mutt_str_replace</text>
</a>
</g>
</g>
<!-- Node1&#45;&gt;Node5 -->
<g id="edge6" class="edge"><title>Node1&#45;&gt;Node5</title>
<path fill="none" stroke="midnightblue" d="M81.4244,-76.4606C95.7208,-72.8828 112.551,-69.1632 128,-67 172.961,-60.7044 224.494,-58.5914 262.223,-57.9754"/>
<polygon fill="midnightblue" stroke="midnightblue" points="262.529,-61.4717 272.482,-57.8391 262.436,-54.4723 262.529,-61.4717"/>
</g>
<!-- Node6 -->
<g id="node6" class="node"><title>Node6</title>
<g id="a_node6"><a xlink:href="config_2set_8c.html#a5b6c4a72c38c2eca93569af53cc82eed" target="_top" xlink:title="Set a config item by string. ">
<polygon fill="white" stroke="red" points="136,-0.5 136,-19.5 228,-19.5 228,-0.5 136,-0.5"/>
<text text-anchor="middle" x="182" y="-7.5" font-family="Helvetica,sans-Serif" font-size="10.00">cs_str_string_set</text>
</a>
</g>
</g>
<!-- Node1&#45;&gt;Node6 -->
<g id="edge7" class="edge"><title>Node1&#45;&gt;Node6</title>
<path fill="none" stroke="midnightblue" d="M60.6729,-76.3483C76.4825,-65.3968 103.482,-47.3294 128,-34 134.589,-30.4178 141.814,-26.8946 148.753,-23.6976"/>
<polygon fill="midnightblue" stroke="midnightblue" points="150.263,-26.8564 157.949,-19.5652 147.393,-20.4713 150.263,-26.8564"/>
</g>
<!-- Node4&#45;&gt;Node2 -->
<g id="edge4" class="edge"><title>Node4&#45;&gt;Node2</title>
<path fill="none" stroke="midnightblue" d="M236.33,-93.6185C245.056,-94.8652 254.098,-96.1569 262.821,-97.403"/>
<polygon fill="midnightblue" stroke="midnightblue" points="262.482,-100.89 272.876,-98.8394 263.472,-93.9603 262.482,-100.89"/>
</g>
<!-- Node4&#45;&gt;Node5 -->
<g id="edge5" class="edge"><title>Node4&#45;&gt;Node5</title>
<path fill="none" stroke="midnightblue" d="M228.399,-76.4423C239.231,-74.162 250.895,-71.7062 262.069,-69.3539"/>
<polygon fill="midnightblue" stroke="midnightblue" points="263.09,-72.7158 272.154,-67.2307 261.648,-65.8659 263.09,-72.7158"/>
</g>
</g>
</svg>
