<?xml version="1.0" encoding="UTF-8" standalone="no"?>
<!DOCTYPE svg PUBLIC "-//W3C//DTD SVG 1.1//EN"
 "http://www.w3.org/Graphics/SVG/1.1/DTD/svg11.dtd">
<!-- Generated by graphviz version 2.36.0 (20140111.2315)
 -->
<!-- Title: mutt_history.c Pages: 1 -->
<svg width="687pt" height="140pt"
 viewBox="0.00 0.00 687.00 140.00" xmlns="http://www.w3.org/2000/svg" xmlns:xlink="http://www.w3.org/1999/xlink">
<g id="graph0" class="graph" transform="scale(1 1) rotate(0) translate(4 136)">
<title>mutt_history.c</title>
<polygon fill="white" stroke="none" points="-4,4 -4,-136 683,-136 683,4 -4,4"/>
<!-- Node1 -->
<g id="node1" class="node"><title>Node1</title>
<polygon fill="#bfbfbf" stroke="black" points="284.5,-112.5 284.5,-131.5 363.5,-131.5 363.5,-112.5 284.5,-112.5"/>
<text text-anchor="middle" x="324" y="-119.5" font-family="Helvetica,sans-Serif" font-size="10.00">mutt_history.c</text>
</g>
<!-- Node2 -->
<g id="node2" class="node"><title>Node2</title>
<polygon fill="white" stroke="#bfbfbf" points="-0.5,-56.5 -0.5,-75.5 50.5,-75.5 50.5,-56.5 -0.5,-56.5"/>
<text text-anchor="middle" x="25" y="-63.5" font-family="Helvetica,sans-Serif" font-size="10.00">config.h</text>
</g>
<!-- Node1&#45;&gt;Node2 -->
<g id="edge1" class="edge"><title>Node1&#45;&gt;Node2</title>
<path fill="none" stroke="midnightblue" d="M284.276,-115.402C234.19,-108.092 145.267,-94.2779 60.3565,-76.1467"/>
<polygon fill="midnightblue" stroke="midnightblue" points="61.0732,-72.7209 50.5597,-74.0313 59.5957,-79.5632 61.0732,-72.7209"/>
</g>
<!-- Node3 -->
<g id="node3" class="node"><title>Node3</title>
<polygon fill="white" stroke="#bfbfbf" points="327,-0.5 327,-19.5 373,-19.5 373,-0.5 327,-0.5"/>
<text text-anchor="middle" x="350" y="-7.5" font-family="Helvetica,sans-Serif" font-size="10.00">stdio.h</text>
</g>
<!-- Node1&#45;&gt;Node3 -->
<g id="edge2" class="edge"><title>Node1&#45;&gt;Node3</title>
<path fill="none" stroke="midnightblue" d="M333.02,-112.34C341.072,-103.932 352.298,-90.3633 357,-76 361.966,-60.8312 359.364,-42.7137 356.01,-29.4642"/>
<polygon fill="midnightblue" stroke="midnightblue" points="359.311,-28.2813 353.165,-19.6512 352.588,-30.2302 359.311,-28.2813"/>
</g>
<!-- Node4 -->
<g id="node4" class="node"><title>Node4</title>
<g id="a_node4"><a xlink:href="mutt_2mutt_8h.html" target="_top" xlink:title="Convenience wrapper for the library headers. ">
<polygon fill="white" stroke="red" points="98.5,-0.5 98.5,-19.5 165.5,-19.5 165.5,-0.5 98.5,-0.5"/>
<text text-anchor="middle" x="132" y="-7.5" font-family="Helvetica,sans-Serif" font-size="10.00">mutt/mutt.h</text>
</a>
</g>
</g>
<!-- Node1&#45;&gt;Node4 -->
<g id="edge3" class="edge"><title>Node1&#45;&gt;Node4</title>
<path fill="none" stroke="midnightblue" d="M290.859,-112.439C265.622,-105.051 230.632,-92.8914 203,-76 181.068,-62.5933 159.86,-41.8321 146.424,-27.3938"/>
<polygon fill="midnightblue" stroke="midnightblue" points="148.777,-24.7785 139.464,-19.7268 143.594,-29.4835 148.777,-24.7785"/>
</g>
<!-- Node5 -->
<g id="node5" class="node"><title>Node5</title>
<g id="a_node5"><a xlink:href="mutt_8h.html" target="_top" xlink:title="Many unsorted constants and some structs. ">
<polygon fill="white" stroke="red" points="195,-0.5 195,-19.5 239,-19.5 239,-0.5 195,-0.5"/>
<text text-anchor="middle" x="217" y="-7.5" font-family="Helvetica,sans-Serif" font-size="10.00">mutt.h</text>
</a>
</g>
</g>
<!-- Node1&#45;&gt;Node5 -->
<g id="edge4" class="edge"><title>Node1&#45;&gt;Node5</title>
<path fill="none" stroke="midnightblue" d="M284.387,-116.127C259.363,-110.771 228.858,-99.5409 213,-76 203.929,-62.5339 206.294,-43.7211 210.119,-29.798"/>
<polygon fill="midnightblue" stroke="midnightblue" points="213.58,-30.4671 213.309,-19.8758 206.916,-28.3246 213.58,-30.4671"/>
</g>
<!-- Node6 -->
<g id="node6" class="node"><title>Node6</title>
<g id="a_node6"><a xlink:href="curs__lib_8h.html" target="_top" xlink:title="GUI miscellaneous curses (window drawing) routines. ">
<polygon fill="white" stroke="red" points="222.5,-56.5 222.5,-75.5 281.5,-75.5 281.5,-56.5 222.5,-56.5"/>
<text text-anchor="middle" x="252" y="-63.5" font-family="Helvetica,sans-Serif" font-size="10.00">curs_lib.h</text>
</a>
</g>
</g>
<!-- Node1&#45;&gt;Node6 -->
<g id="edge5" class="edge"><title>Node1&#45;&gt;Node6</title>
<path fill="none" stroke="midnightblue" d="M312.432,-112.324C301.58,-104.185 285.119,-91.8395 272.117,-82.0874"/>
<polygon fill="midnightblue" stroke="midnightblue" points="273.879,-79.0339 263.779,-75.8339 269.679,-84.6339 273.879,-79.0339"/>
</g>
<!-- Node7 -->
<g id="node7" class="node"><title>Node7</title>
<g id="a_node7"><a xlink:href="format__flags_8h.html" target="_top" xlink:title="Flags to control mutt_expando_format() ">
<polygon fill="white" stroke="red" points="470.5,-0.5 470.5,-19.5 549.5,-19.5 549.5,-0.5 470.5,-0.5"/>
<text text-anchor="middle" x="510" y="-7.5" font-family="Helvetica,sans-Serif" font-size="10.00">format_flags.h</text>
</a>
</g>
</g>
<!-- Node1&#45;&gt;Node7 -->
<g id="edge8" class="edge"><title>Node1&#45;&gt;Node7</title>
<path fill="none" stroke="midnightblue" d="M363.667,-119.653C426.22,-116.602 543.327,-106.818 569,-76 584.261,-57.6811 558.835,-37.4771 536.752,-24.5335"/>
<polygon fill="midnightblue" stroke="midnightblue" points="538.369,-21.428 527.93,-19.6208 534.964,-27.5438 538.369,-21.428"/>
</g>
<!-- Node8 -->
<g id="node8" class="node"><title>Node8</title>
<g id="a_node8"><a xlink:href="keymap_8h.html" target="_top" xlink:title="Manage keymappings. ">
<polygon fill="white" stroke="red" points="68.5,-56.5 68.5,-75.5 127.5,-75.5 127.5,-56.5 68.5,-56.5"/>
<text text-anchor="middle" x="98" y="-63.5" font-family="Helvetica,sans-Serif" font-size="10.00">keymap.h</text>
</a>
</g>
</g>
<!-- Node1&#45;&gt;Node8 -->
<g id="edge9" class="edge"><title>Node1&#45;&gt;Node8</title>
<path fill="none" stroke="midnightblue" d="M288.19,-112.444C247.14,-102.635 180.059,-86.607 137.516,-76.4418"/>
<polygon fill="midnightblue" stroke="midnightblue" points="138.061,-72.9736 127.521,-74.0537 136.434,-79.7819 138.061,-72.9736"/>
</g>
<!-- Node9 -->
<g id="node9" class="node"><title>Node9</title>
<g id="a_node9"><a xlink:href="menu_8h.html" target="_top" xlink:title="GUI present the user with a selectable list. ">
<polygon fill="white" stroke="red" points="299.5,-56.5 299.5,-75.5 348.5,-75.5 348.5,-56.5 299.5,-56.5"/>
<text text-anchor="middle" x="324" y="-63.5" font-family="Helvetica,sans-Serif" font-size="10.00">menu.h</text>
</a>
</g>
</g>
<!-- Node1&#45;&gt;Node9 -->
<g id="edge11" class="edge"><title>Node1&#45;&gt;Node9</title>
<path fill="none" stroke="midnightblue" d="M324,-112.083C324,-105.006 324,-94.8611 324,-85.9865"/>
<polygon fill="midnightblue" stroke="midnightblue" points="327.5,-85.751 324,-75.7511 320.5,-85.7511 327.5,-85.751"/>
</g>
<!-- Node10 -->
<g id="node10" class="node"><title>Node10</title>
<g id="a_node10"><a xlink:href="mutt__window_8h.html" target="_top" xlink:title="Window management. ">
<polygon fill="white" stroke="red" points="477.5,-56.5 477.5,-75.5 560.5,-75.5 560.5,-56.5 477.5,-56.5"/>
<text text-anchor="middle" x="519" y="-63.5" font-family="Helvetica,sans-Serif" font-size="10.00">mutt_window.h</text>
</a>
</g>
</g>
<!-- Node1&#45;&gt;Node10 -->
<g id="edge13" class="edge"><title>Node1&#45;&gt;Node10</title>
<path fill="none" stroke="midnightblue" d="M354.898,-112.444C388.274,-103.201 441.594,-88.4356 478.349,-78.2572"/>
<polygon fill="midnightblue" stroke="midnightblue" points="479.543,-81.5583 488.246,-75.5164 477.675,-74.8122 479.543,-81.5583"/>
</g>
<!-- Node11 -->
<g id="node11" class="node"><title>Node11</title>
<g id="a_node11"><a xlink:href="muttlib_8h.html" target="_top" xlink:title="Some miscellaneous functions. ">
<polygon fill="white" stroke="red" points="405,-56.5 405,-75.5 459,-75.5 459,-56.5 405,-56.5"/>
<text text-anchor="middle" x="432" y="-63.5" font-family="Helvetica,sans-Serif" font-size="10.00">muttlib.h</text>
</a>
</g>
</g>
<!-- Node1&#45;&gt;Node11 -->
<g id="edge14" class="edge"><title>Node1&#45;&gt;Node11</title>
<path fill="none" stroke="midnightblue" d="M341.352,-112.324C358.672,-103.664 385.515,-90.2424 405.502,-80.249"/>
<polygon fill="midnightblue" stroke="midnightblue" points="407.312,-83.2572 414.691,-75.6545 404.181,-76.9962 407.312,-83.2572"/>
</g>
<!-- Node12 -->
<g id="node12" class="node"><title>Node12</title>
<g id="a_node12"><a xlink:href="opcodes_8h.html" target="_top" xlink:title="All user&#45;callable functions. ">
<polygon fill="white" stroke="black" points="617,-56.5 617,-75.5 679,-75.5 679,-56.5 617,-56.5"/>
<text text-anchor="middle" x="648" y="-63.5" font-family="Helvetica,sans-Serif" font-size="10.00">opcodes.h</text>
</a>
</g>
</g>
<!-- Node1&#45;&gt;Node12 -->
<g id="edge17" class="edge"><title>Node1&#45;&gt;Node12</title>
<path fill="none" stroke="midnightblue" d="M363.814,-115.059C418.018,-106.86 518.023,-91.3452 603,-76 604.098,-75.8018 605.21,-75.5983 606.332,-75.3908"/>
<polygon fill="midnightblue" stroke="midnightblue" points="607.388,-78.7527 616.557,-73.4447 606.079,-71.8761 607.388,-78.7527"/>
</g>
<!-- Node6&#45;&gt;Node3 -->
<g id="edge6" class="edge"><title>Node6&#45;&gt;Node3</title>
<path fill="none" stroke="midnightblue" d="M267.745,-56.324C283.319,-47.7428 307.377,-34.486 325.459,-24.5224"/>
<polygon fill="midnightblue" stroke="midnightblue" points="327.224,-27.546 334.294,-19.6545 323.846,-21.4152 327.224,-27.546"/>
</g>
<!-- Node6&#45;&gt;Node5 -->
<g id="edge7" class="edge"><title>Node6&#45;&gt;Node5</title>
<path fill="none" stroke="midnightblue" d="M246.22,-56.083C241.328,-48.5341 234.173,-37.4948 228.167,-28.2298"/>
<polygon fill="midnightblue" stroke="midnightblue" points="231.048,-26.239 222.672,-19.7511 225.174,-30.0463 231.048,-26.239"/>
</g>
<!-- Node8&#45;&gt;Node4 -->
<g id="edge10" class="edge"><title>Node8&#45;&gt;Node4</title>
<path fill="none" stroke="midnightblue" d="M103.614,-56.083C108.367,-48.5341 115.318,-37.4948 121.152,-28.2298"/>
<polygon fill="midnightblue" stroke="midnightblue" points="124.124,-30.0783 126.49,-19.7511 118.2,-26.3486 124.124,-30.0783"/>
</g>
<!-- Node9&#45;&gt;Node3 -->
<g id="edge12" class="edge"><title>Node9&#45;&gt;Node3</title>
<path fill="none" stroke="midnightblue" d="M328.293,-56.083C331.852,-48.6913 337.022,-37.9533 341.424,-28.8111"/>
<polygon fill="midnightblue" stroke="midnightblue" points="344.602,-30.2795 345.787,-19.7511 338.295,-27.2427 344.602,-30.2795"/>
</g>
<!-- Node11&#45;&gt;Node3 -->
<g id="edge15" class="edge"><title>Node11&#45;&gt;Node3</title>
<path fill="none" stroke="midnightblue" d="M418.825,-56.324C406.153,-47.979 386.767,-35.2122 371.794,-25.3524"/>
<polygon fill="midnightblue" stroke="midnightblue" points="373.419,-22.2313 363.142,-19.6545 369.569,-28.0776 373.419,-22.2313"/>
</g>
<!-- Node11&#45;&gt;Node7 -->
<g id="edge16" class="edge"><title>Node11&#45;&gt;Node7</title>
<path fill="none" stroke="midnightblue" d="M444.532,-56.324C456.586,-47.979 475.027,-35.2122 489.269,-25.3524"/>
<polygon fill="midnightblue" stroke="midnightblue" points="491.269,-28.2243 497.499,-19.6545 487.285,-22.469 491.269,-28.2243"/>
</g>
</g>
</svg>
