<?xml version="1.0" encoding="UTF-8" standalone="no"?>
<!DOCTYPE svg PUBLIC "-//W3C//DTD SVG 1.1//EN"
 "http://www.w3.org/Graphics/SVG/1.1/DTD/svg11.dtd">
<!-- Generated by graphviz version 2.36.0 (20140111.2315)
 -->
<!-- Title: mutt_header.c Pages: 1 -->
<svg width="1228pt" height="196pt"
 viewBox="0.00 0.00 1228.00 196.00" xmlns="http://www.w3.org/2000/svg" xmlns:xlink="http://www.w3.org/1999/xlink">
<g id="graph0" class="graph" transform="scale(1 1) rotate(0) translate(4 192)">
<title>mutt_header.c</title>
<polygon fill="white" stroke="none" points="-4,4 -4,-192 1224,-192 1224,4 -4,4"/>
<!-- Node1 -->
<g id="node1" class="node"><title>Node1</title>
<polygon fill="#bfbfbf" stroke="black" points="580.5,-168.5 580.5,-187.5 659.5,-187.5 659.5,-168.5 580.5,-168.5"/>
<text text-anchor="middle" x="620" y="-175.5" font-family="Helvetica,sans-Serif" font-size="10.00">mutt_header.c</text>
</g>
<!-- Node2 -->
<g id="node2" class="node"><title>Node2</title>
<polygon fill="white" stroke="#bfbfbf" points="-0.5,-112.5 -0.5,-131.5 50.5,-131.5 50.5,-112.5 -0.5,-112.5"/>
<text text-anchor="middle" x="25" y="-119.5" font-family="Helvetica,sans-Serif" font-size="10.00">config.h</text>
</g>
<!-- Node1&#45;&gt;Node2 -->
<g id="edge1" class="edge"><title>Node1&#45;&gt;Node2</title>
<path fill="none" stroke="midnightblue" d="M580.414,-175.699C489.103,-172.282 256.854,-161.214 65,-132 63.5486,-131.779 62.0715,-131.535 60.5821,-131.274"/>
<polygon fill="midnightblue" stroke="midnightblue" points="61.2057,-127.829 50.7198,-129.345 59.8623,-134.699 61.2057,-127.829"/>
</g>
<!-- Node3 -->
<g id="node3" class="node"><title>Node3</title>
<polygon fill="white" stroke="#bfbfbf" points="887,-0.5 887,-19.5 935,-19.5 935,-0.5 887,-0.5"/>
<text text-anchor="middle" x="911" y="-7.5" font-family="Helvetica,sans-Serif" font-size="10.00">limits.h</text>
</g>
<!-- Node1&#45;&gt;Node3 -->
<g id="edge2" class="edge"><title>Node1&#45;&gt;Node3</title>
<path fill="none" stroke="midnightblue" d="M659.745,-174.673C745.609,-169.241 942.305,-154.456 962,-132 989.67,-100.451 951.178,-51.7111 927.366,-26.8148"/>
<polygon fill="midnightblue" stroke="midnightblue" points="929.773,-24.2713 920.253,-19.6214 924.796,-29.1931 929.773,-24.2713"/>
</g>
<!-- Node4 -->
<g id="node4" class="node"><title>Node4</title>
<polygon fill="white" stroke="#bfbfbf" points="461,-0.5 461,-19.5 517,-19.5 517,-0.5 461,-0.5"/>
<text text-anchor="middle" x="489" y="-7.5" font-family="Helvetica,sans-Serif" font-size="10.00">stdbool.h</text>
</g>
<!-- Node1&#45;&gt;Node4 -->
<g id="edge3" class="edge"><title>Node1&#45;&gt;Node4</title>
<path fill="none" stroke="midnightblue" d="M580.447,-176.31C470.228,-173.983 165.736,-164.629 136,-132 44.2515,-31.3255 341.308,-14.4003 450.415,-11.5662"/>
<polygon fill="midnightblue" stroke="midnightblue" points="450.752,-15.0594 460.668,-11.3274 450.589,-8.06128 450.752,-15.0594"/>
</g>
<!-- Node5 -->
<g id="node5" class="node"><title>Node5</title>
<polygon fill="white" stroke="#bfbfbf" points="953.5,-0.5 953.5,-19.5 1002.5,-19.5 1002.5,-0.5 953.5,-0.5"/>
<text text-anchor="middle" x="978" y="-7.5" font-family="Helvetica,sans-Serif" font-size="10.00">stdint.h</text>
</g>
<!-- Node1&#45;&gt;Node5 -->
<g id="edge4" class="edge"><title>Node1&#45;&gt;Node5</title>
<path fill="none" stroke="midnightblue" d="M659.587,-174.974C748.903,-169.998 959.966,-155.819 981,-132 1006.06,-103.621 994.36,-55.2513 985.229,-29.0881"/>
<polygon fill="midnightblue" stroke="midnightblue" points="988.482,-27.7927 981.705,-19.6489 981.924,-30.2414 988.482,-27.7927"/>
</g>
<!-- Node6 -->
<g id="node6" class="node"><title>Node6</title>
<polygon fill="white" stroke="#bfbfbf" points="571,-56.5 571,-75.5 617,-75.5 617,-56.5 571,-56.5"/>
<text text-anchor="middle" x="594" y="-63.5" font-family="Helvetica,sans-Serif" font-size="10.00">stdio.h</text>
</g>
<!-- Node1&#45;&gt;Node6 -->
<g id="edge5" class="edge"><title>Node1&#45;&gt;Node6</title>
<path fill="none" stroke="midnightblue" d="M617.96,-168.368C613.764,-150.617 604.085,-109.666 598.396,-85.5974"/>
<polygon fill="midnightblue" stroke="midnightblue" points="601.737,-84.5182 596.031,-75.5914 594.925,-86.1284 601.737,-84.5182"/>
</g>
<!-- Node7 -->
<g id="node7" class="node"><title>Node7</title>
<polygon fill="white" stroke="#bfbfbf" points="1068,-112.5 1068,-131.5 1128,-131.5 1128,-112.5 1068,-112.5"/>
<text text-anchor="middle" x="1098" y="-119.5" font-family="Helvetica,sans-Serif" font-size="10.00">sys/stat.h</text>
</g>
<!-- Node1&#45;&gt;Node7 -->
<g id="edge6" class="edge"><title>Node1&#45;&gt;Node7</title>
<path fill="none" stroke="midnightblue" d="M659.661,-174.202C736.203,-168.511 909.498,-154.215 1054,-132 1055.26,-131.807 1056.53,-131.602 1057.82,-131.387"/>
<polygon fill="midnightblue" stroke="midnightblue" points="1058.55,-134.811 1067.77,-129.59 1057.31,-127.922 1058.55,-134.811"/>
</g>
<!-- Node8 -->
<g id="node8" class="node"><title>Node8</title>
<polygon fill="white" stroke="#bfbfbf" points="679,-56.5 679,-75.5 723,-75.5 723,-56.5 679,-56.5"/>
<text text-anchor="middle" x="701" y="-63.5" font-family="Helvetica,sans-Serif" font-size="10.00">time.h</text>
</g>
<!-- Node1&#45;&gt;Node8 -->
<g id="edge7" class="edge"><title>Node1&#45;&gt;Node8</title>
<path fill="none" stroke="midnightblue" d="M637.458,-168.479C651.457,-160.788 670.588,-148.201 682,-132 691.627,-118.333 696.421,-99.7962 698.781,-86.0149"/>
<polygon fill="midnightblue" stroke="midnightblue" points="702.296,-86.1629 700.244,-75.7686 695.366,-85.1736 702.296,-86.1629"/>
</g>
<!-- Node9 -->
<g id="node9" class="node"><title>Node9</title>
<g id="a_node9"><a xlink:href="mutt_2mutt_8h.html" target="_top" xlink:title="Convenience wrapper for the library headers. ">
<polygon fill="white" stroke="red" points="196.5,-56.5 196.5,-75.5 263.5,-75.5 263.5,-56.5 196.5,-56.5"/>
<text text-anchor="middle" x="230" y="-63.5" font-family="Helvetica,sans-Serif" font-size="10.00">mutt/mutt.h</text>
</a>
</g>
</g>
<!-- Node1&#45;&gt;Node9 -->
<g id="edge8" class="edge"><title>Node1&#45;&gt;Node9</title>
<path fill="none" stroke="midnightblue" d="M580.406,-175.068C487.593,-170.157 261.996,-155.872 238,-132 226.053,-120.115 225.258,-100.203 226.707,-85.5432"/>
<polygon fill="midnightblue" stroke="midnightblue" points="230.182,-85.9657 228.104,-75.5765 223.25,-84.9936 230.182,-85.9657"/>
</g>
<!-- Node10 -->
<g id="node10" class="node"><title>Node10</title>
<g id="a_node10"><a xlink:href="email_8h.html" target="_top" xlink:title="Structs that make up an email. ">
<polygon fill="white" stroke="red" points="1146,-112.5 1146,-131.5 1220,-131.5 1220,-112.5 1146,-112.5"/>
<text text-anchor="middle" x="1183" y="-119.5" font-family="Helvetica,sans-Serif" font-size="10.00">email/email.h</text>
</a>
</g>
</g>
<!-- Node1&#45;&gt;Node10 -->
<g id="edge9" class="edge"><title>Node1&#45;&gt;Node10</title>
<path fill="none" stroke="midnightblue" d="M659.643,-174.928C744.777,-170.181 951.551,-157.057 1135.72,-131.878"/>
<polygon fill="midnightblue" stroke="midnightblue" points="1136.43,-135.312 1145.86,-130.476 1135.47,-128.378 1136.43,-135.312"/>
</g>
<!-- Node11 -->
<g id="node11" class="node"><title>Node11</title>
<g id="a_node11"><a xlink:href="mutt_8h.html" target="_top" xlink:title="Many unsorted constants and some structs. ">
<polygon fill="white" stroke="red" points="889,-56.5 889,-75.5 933,-75.5 933,-56.5 889,-56.5"/>
<text text-anchor="middle" x="911" y="-63.5" font-family="Helvetica,sans-Serif" font-size="10.00">mutt.h</text>
</a>
</g>
</g>
<!-- Node1&#45;&gt;Node11 -->
<g id="edge10" class="edge"><title>Node1&#45;&gt;Node11</title>
<path fill="none" stroke="midnightblue" d="M659.747,-177.683C738.176,-178.088 908.428,-173.985 945,-132 957.845,-117.254 943.046,-96.8099 929.145,-82.8102"/>
<polygon fill="midnightblue" stroke="midnightblue" points="931.369,-80.0961 921.697,-75.7727 926.562,-85.1844 931.369,-80.0961"/>
</g>
<!-- Node12 -->
<g id="node12" class="node"><title>Node12</title>
<g id="a_node12"><a xlink:href="alias_8h.html" target="_top" xlink:title="Representation of a single alias to an email address. ">
<polygon fill="white" stroke="red" points="145.5,-112.5 145.5,-131.5 190.5,-131.5 190.5,-112.5 145.5,-112.5"/>
<text text-anchor="middle" x="168" y="-119.5" font-family="Helvetica,sans-Serif" font-size="10.00">alias.h</text>
</a>
</g>
</g>
<!-- Node1&#45;&gt;Node12 -->
<g id="edge14" class="edge"><title>Node1&#45;&gt;Node12</title>
<path fill="none" stroke="midnightblue" d="M580.276,-174.427C506.109,-169.24 341.703,-155.932 205,-132 203.535,-131.743 202.041,-131.463 200.536,-131.163"/>
<polygon fill="midnightblue" stroke="midnightblue" points="201.116,-127.708 190.6,-128.993 199.622,-134.546 201.116,-127.708"/>
</g>
<!-- Node13 -->
<g id="node13" class="node"><title>Node13</title>
<g id="a_node13"><a xlink:href="context_8h.html" target="_top" xlink:title="The &quot;currently&#45;open&quot; mailbox. ">
<polygon fill="white" stroke="red" points="729.5,-112.5 729.5,-131.5 786.5,-131.5 786.5,-112.5 729.5,-112.5"/>
<text text-anchor="middle" x="758" y="-119.5" font-family="Helvetica,sans-Serif" font-size="10.00">context.h</text>
</a>
</g>
</g>
<!-- Node1&#45;&gt;Node13 -->
<g id="edge17" class="edge"><title>Node1&#45;&gt;Node13</title>
<path fill="none" stroke="midnightblue" d="M641.867,-168.444C664.779,-159.478 700.975,-145.314 726.866,-135.183"/>
<polygon fill="midnightblue" stroke="midnightblue" points="728.199,-138.42 736.236,-131.516 725.648,-131.901 728.199,-138.42"/>
</g>
<!-- Node14 -->
<g id="node14" class="node"><title>Node14</title>
<g id="a_node14"><a xlink:href="curs__lib_8h.html" target="_top" xlink:title="GUI miscellaneous curses (window drawing) routines. ">
<polygon fill="white" stroke="red" points="804.5,-112.5 804.5,-131.5 863.5,-131.5 863.5,-112.5 804.5,-112.5"/>
<text text-anchor="middle" x="834" y="-119.5" font-family="Helvetica,sans-Serif" font-size="10.00">curs_lib.h</text>
</a>
</g>
</g>
<!-- Node1&#45;&gt;Node14 -->
<g id="edge21" class="edge"><title>Node1&#45;&gt;Node14</title>
<path fill="none" stroke="midnightblue" d="M653.909,-168.444C692.153,-158.793 754.26,-143.121 794.62,-132.937"/>
<polygon fill="midnightblue" stroke="midnightblue" points="795.545,-136.313 804.385,-130.473 793.832,-129.526 795.545,-136.313"/>
</g>
<!-- Node15 -->
<g id="node15" class="node"><title>Node15</title>
<g id="a_node15"><a xlink:href="curs__main_8h.html" target="_top" xlink:title="GUI manage the main index (list of emails) ">
<polygon fill="white" stroke="black" points="495,-112.5 495,-131.5 565,-131.5 565,-112.5 495,-112.5"/>
<text text-anchor="middle" x="530" y="-119.5" font-family="Helvetica,sans-Serif" font-size="10.00">curs_main.h</text>
</a>
</g>
</g>
<!-- Node1&#45;&gt;Node15 -->
<g id="edge25" class="edge"><title>Node1&#45;&gt;Node15</title>
<path fill="none" stroke="midnightblue" d="M605.54,-168.324C591.5,-159.9 569.952,-146.971 553.457,-137.074"/>
<polygon fill="midnightblue" stroke="midnightblue" points="554.8,-133.798 544.424,-131.655 551.198,-139.801 554.8,-133.798"/>
</g>
<!-- Node16 -->
<g id="node16" class="node"><title>Node16</title>
<g id="a_node16"><a xlink:href="globals_8h.html" target="_top" xlink:title="Hundreds of global variables to back the user variables. ">
<polygon fill="white" stroke="red" points="247,-112.5 247,-131.5 303,-131.5 303,-112.5 247,-112.5"/>
<text text-anchor="middle" x="275" y="-119.5" font-family="Helvetica,sans-Serif" font-size="10.00">globals.h</text>
</a>
</g>
</g>
<!-- Node1&#45;&gt;Node16 -->
<g id="edge28" class="edge"><title>Node1&#45;&gt;Node16</title>
<path fill="none" stroke="midnightblue" d="M580.418,-172.419C523.435,-165.562 414.814,-151.512 313.047,-132.053"/>
<polygon fill="midnightblue" stroke="midnightblue" points="313.705,-128.615 303.222,-130.153 312.376,-135.488 313.705,-128.615"/>
</g>
<!-- Node17 -->
<g id="node17" class="node"><title>Node17</title>
<g id="a_node17"><a xlink:href="muttlib_8h.html" target="_top" xlink:title="Some miscellaneous functions. ">
<polygon fill="white" stroke="red" points="882,-112.5 882,-131.5 936,-131.5 936,-112.5 882,-112.5"/>
<text text-anchor="middle" x="909" y="-119.5" font-family="Helvetica,sans-Serif" font-size="10.00">muttlib.h</text>
</a>
</g>
</g>
<!-- Node1&#45;&gt;Node17 -->
<g id="edge31" class="edge"><title>Node1&#45;&gt;Node17</title>
<path fill="none" stroke="midnightblue" d="M659.865,-170.664C709.669,-162.569 797.419,-147.714 872,-132 872.101,-131.979 872.202,-131.957 872.304,-131.936"/>
<polygon fill="midnightblue" stroke="midnightblue" points="872.968,-135.374 881.966,-129.78 871.444,-128.542 872.968,-135.374"/>
</g>
<!-- Node18 -->
<g id="node18" class="node"><title>Node18</title>
<g id="a_node18"><a xlink:href="ncrypt_8h.html" target="_top" xlink:title="API for encryption/signing of emails. ">
<polygon fill="white" stroke="black" points="321,-112.5 321,-131.5 403,-131.5 403,-112.5 321,-112.5"/>
<text text-anchor="middle" x="362" y="-119.5" font-family="Helvetica,sans-Serif" font-size="10.00">ncrypt/ncrypt.h</text>
</a>
</g>
</g>
<!-- Node1&#45;&gt;Node18 -->
<g id="edge35" class="edge"><title>Node1&#45;&gt;Node18</title>
<path fill="none" stroke="midnightblue" d="M580.253,-168.681C535.253,-159.262 461.833,-143.895 412.733,-133.619"/>
<polygon fill="midnightblue" stroke="midnightblue" points="413.149,-130.13 402.644,-131.507 411.715,-136.981 413.149,-130.13"/>
</g>
<!-- Node19 -->
<g id="node19" class="node"><title>Node19</title>
<g id="a_node19"><a xlink:href="options_8h.html" target="_top" xlink:title="Handling of global boolean variables. ">
<polygon fill="white" stroke="red" points="33,-56.5 33,-75.5 89,-75.5 89,-56.5 33,-56.5"/>
<text text-anchor="middle" x="61" y="-63.5" font-family="Helvetica,sans-Serif" font-size="10.00">options.h</text>
</a>
</g>
</g>
<!-- Node1&#45;&gt;Node19 -->
<g id="edge38" class="edge"><title>Node1&#45;&gt;Node19</title>
<path fill="none" stroke="midnightblue" d="M580.254,-175.543C466.225,-171.084 143.57,-156.428 103,-132 85.4183,-121.414 73.8648,-100.319 67.4052,-85.0251"/>
<polygon fill="midnightblue" stroke="midnightblue" points="70.615,-83.6217 63.7355,-75.5642 64.0887,-86.1532 70.615,-83.6217"/>
</g>
<!-- Node20 -->
<g id="node20" class="node"><title>Node20</title>
<g id="a_node20"><a xlink:href="protos_8h.html" target="_top" xlink:title="Prototypes for many functions. ">
<polygon fill="white" stroke="red" points="621,-112.5 621,-131.5 673,-131.5 673,-112.5 621,-112.5"/>
<text text-anchor="middle" x="647" y="-119.5" font-family="Helvetica,sans-Serif" font-size="10.00">protos.h</text>
</a>
</g>
</g>
<!-- Node1&#45;&gt;Node20 -->
<g id="edge40" class="edge"><title>Node1&#45;&gt;Node20</title>
<path fill="none" stroke="midnightblue" d="M624.459,-168.083C628.154,-160.691 633.523,-149.953 638.094,-140.811"/>
<polygon fill="midnightblue" stroke="midnightblue" points="641.283,-142.261 642.624,-131.751 635.022,-139.13 641.283,-142.261"/>
</g>
<!-- Node21 -->
<g id="node21" class="node"><title>Node21</title>
<g id="a_node21"><a xlink:href="sendlib_8h.html" target="_top" xlink:title="Miscellaneous functions for sending an email. ">
<polygon fill="white" stroke="black" points="421,-112.5 421,-131.5 477,-131.5 477,-112.5 421,-112.5"/>
<text text-anchor="middle" x="449" y="-119.5" font-family="Helvetica,sans-Serif" font-size="10.00">sendlib.h</text>
</a>
</g>
</g>
<!-- Node1&#45;&gt;Node21 -->
<g id="edge44" class="edge"><title>Node1&#45;&gt;Node21</title>
<path fill="none" stroke="midnightblue" d="M592.905,-168.444C564.012,-159.32 518.075,-144.813 485.895,-134.651"/>
<polygon fill="midnightblue" stroke="midnightblue" points="486.559,-131.19 475.969,-131.516 484.451,-137.865 486.559,-131.19"/>
</g>
<!-- Node11&#45;&gt;Node3 -->
<g id="edge11" class="edge"><title>Node11&#45;&gt;Node3</title>
<path fill="none" stroke="midnightblue" d="M911,-56.083C911,-49.0059 911,-38.8611 911,-29.9865"/>
<polygon fill="midnightblue" stroke="midnightblue" points="914.5,-29.751 911,-19.7511 907.5,-29.7511 914.5,-29.751"/>
</g>
<!-- Node11&#45;&gt;Node4 -->
<g id="edge12" class="edge"><title>Node11&#45;&gt;Node4</title>
<path fill="none" stroke="midnightblue" d="M888.964,-61.1048C879.188,-59.4342 867.536,-57.5214 857,-56 736.969,-38.6669 594.275,-22.4713 527.301,-15.1285"/>
<polygon fill="midnightblue" stroke="midnightblue" points="527.539,-11.6337 517.218,-14.0272 526.779,-18.5923 527.539,-11.6337"/>
</g>
<!-- Node11&#45;&gt;Node5 -->
<g id="edge13" class="edge"><title>Node11&#45;&gt;Node5</title>
<path fill="none" stroke="midnightblue" d="M921.765,-56.324C931.766,-48.2631 946.887,-36.0765 958.93,-26.3695"/>
<polygon fill="midnightblue" stroke="midnightblue" points="961.45,-28.8343 967.039,-19.8339 957.057,-23.3841 961.45,-28.8343"/>
</g>
<!-- Node12&#45;&gt;Node4 -->
<g id="edge15" class="edge"><title>Node12&#45;&gt;Node4</title>
<path fill="none" stroke="midnightblue" d="M167.788,-112.302C167.957,-98.1731 170.519,-70.3727 187,-56 225.65,-22.2946 378.389,-13.8328 450.682,-11.71"/>
<polygon fill="midnightblue" stroke="midnightblue" points="450.838,-15.2071 460.741,-11.4405 450.651,-8.20965 450.838,-15.2071"/>
</g>
<!-- Node12&#45;&gt;Node9 -->
<g id="edge16" class="edge"><title>Node12&#45;&gt;Node9</title>
<path fill="none" stroke="midnightblue" d="M177.961,-112.324C187.127,-104.341 200.937,-92.3128 212.028,-82.6529"/>
<polygon fill="midnightblue" stroke="midnightblue" points="214.615,-85.041 219.857,-75.8339 210.018,-79.7624 214.615,-85.041"/>
</g>
<!-- Node13&#45;&gt;Node4 -->
<g id="edge18" class="edge"><title>Node13&#45;&gt;Node4</title>
<path fill="none" stroke="midnightblue" d="M757.01,-112.286C754.914,-98.1333 748.666,-70.2998 731,-56 700.292,-31.1435 587.701,-18.718 527.527,-13.7334"/>
<polygon fill="midnightblue" stroke="midnightblue" points="527.532,-10.2226 517.285,-12.9149 526.974,-17.2004 527.532,-10.2226"/>
</g>
<!-- Node13&#45;&gt;Node6 -->
<g id="edge19" class="edge"><title>Node13&#45;&gt;Node6</title>
<path fill="none" stroke="midnightblue" d="M732.014,-112.444C703.612,-103.092 658.039,-88.0859 627.099,-77.8984"/>
<polygon fill="midnightblue" stroke="midnightblue" points="627.806,-74.4465 617.213,-74.6433 625.617,-81.0953 627.806,-74.4465"/>
</g>
<!-- Node13&#45;&gt;Node8 -->
<g id="edge20" class="edge"><title>Node13&#45;&gt;Node8</title>
<path fill="none" stroke="midnightblue" d="M748.842,-112.324C740.499,-104.42 727.968,-92.5482 717.823,-82.9377"/>
<polygon fill="midnightblue" stroke="midnightblue" points="719.991,-80.1705 710.325,-75.8339 715.177,-85.2522 719.991,-80.1705"/>
</g>
<!-- Node14&#45;&gt;Node4 -->
<g id="edge22" class="edge"><title>Node14&#45;&gt;Node4</title>
<path fill="none" stroke="midnightblue" d="M826.004,-112.163C812.487,-97.834 783.587,-69.7526 753,-56 678.02,-22.2873 580.672,-13.6773 527.626,-11.5764"/>
<polygon fill="midnightblue" stroke="midnightblue" points="527.427,-8.06777 517.315,-11.2287 527.191,-15.0638 527.427,-8.06777"/>
</g>
<!-- Node14&#45;&gt;Node6 -->
<g id="edge23" class="edge"><title>Node14&#45;&gt;Node6</title>
<path fill="none" stroke="midnightblue" d="M804.194,-114.101C801.09,-113.388 797.981,-112.678 795,-112 735.942,-98.5749 667.052,-83.2173 627.188,-74.3603"/>
<polygon fill="midnightblue" stroke="midnightblue" points="627.745,-70.8988 617.224,-72.1476 626.227,-77.7323 627.745,-70.8988"/>
</g>
<!-- Node14&#45;&gt;Node11 -->
<g id="edge24" class="edge"><title>Node14&#45;&gt;Node11</title>
<path fill="none" stroke="midnightblue" d="M846.371,-112.324C858.158,-104.058 876.132,-91.4527 890.136,-81.6322"/>
<polygon fill="midnightblue" stroke="midnightblue" points="892.482,-84.2619 898.659,-75.6545 888.462,-78.5307 892.482,-84.2619"/>
</g>
<!-- Node15&#45;&gt;Node4 -->
<g id="edge26" class="edge"><title>Node15&#45;&gt;Node4</title>
<path fill="none" stroke="midnightblue" d="M526.783,-112.368C520.136,-94.5366 504.765,-53.2953 495.81,-29.2717"/>
<polygon fill="midnightblue" stroke="midnightblue" points="498.974,-27.7393 492.202,-19.5914 492.415,-30.1841 498.974,-27.7393"/>
</g>
<!-- Node15&#45;&gt;Node6 -->
<g id="edge27" class="edge"><title>Node15&#45;&gt;Node6</title>
<path fill="none" stroke="midnightblue" d="M540.283,-112.324C549.836,-104.263 564.28,-92.0765 575.784,-82.3695"/>
<polygon fill="midnightblue" stroke="midnightblue" points="578.144,-84.9577 583.53,-75.8339 573.63,-79.6076 578.144,-84.9577"/>
</g>
<!-- Node16&#45;&gt;Node4 -->
<g id="edge29" class="edge"><title>Node16&#45;&gt;Node4</title>
<path fill="none" stroke="midnightblue" d="M291.792,-112.368C329.062,-93.2113 418.895,-47.0355 463.287,-24.2172"/>
<polygon fill="midnightblue" stroke="midnightblue" points="464.992,-27.2759 472.286,-19.5914 461.792,-21.0502 464.992,-27.2759"/>
</g>
<!-- Node16&#45;&gt;Node9 -->
<g id="edge30" class="edge"><title>Node16&#45;&gt;Node9</title>
<path fill="none" stroke="midnightblue" d="M267.569,-112.083C261.147,-104.377 251.694,-93.0333 243.878,-83.6531"/>
<polygon fill="midnightblue" stroke="midnightblue" points="246.383,-81.1927 237.293,-75.7511 241.006,-85.674 246.383,-81.1927"/>
</g>
<!-- Node17&#45;&gt;Node4 -->
<g id="edge32" class="edge"><title>Node17&#45;&gt;Node4</title>
<path fill="none" stroke="midnightblue" d="M896.015,-112.478C873.83,-98.3484 826.777,-70.2199 783,-56 694.233,-27.1663 584.252,-16.6159 527.265,-12.9047"/>
<polygon fill="midnightblue" stroke="midnightblue" points="527.454,-9.4098 517.258,-12.2884 527.024,-16.3966 527.454,-9.4098"/>
</g>
<!-- Node17&#45;&gt;Node5 -->
<g id="edge33" class="edge"><title>Node17&#45;&gt;Node5</title>
<path fill="none" stroke="midnightblue" d="M915.645,-112.217C922.313,-103.277 932.751,-88.9313 941,-76 951.016,-60.2975 961.424,-41.7853 968.64,-28.5415"/>
<polygon fill="midnightblue" stroke="midnightblue" points="971.81,-30.0376 973.477,-19.5747 965.649,-26.7145 971.81,-30.0376"/>
</g>
<!-- Node17&#45;&gt;Node6 -->
<g id="edge34" class="edge"><title>Node17&#45;&gt;Node6</title>
<path fill="none" stroke="midnightblue" d="M881.977,-114.169C878.626,-113.398 875.24,-112.655 872,-112 784.127,-94.229 679.508,-78.8285 627.216,-71.5201"/>
<polygon fill="midnightblue" stroke="midnightblue" points="627.562,-68.0347 617.176,-70.1267 626.6,-74.9682 627.562,-68.0347"/>
</g>
<!-- Node18&#45;&gt;Node4 -->
<g id="edge36" class="edge"><title>Node18&#45;&gt;Node4</title>
<path fill="none" stroke="midnightblue" d="M371.965,-112.368C393.388,-93.8137 444.073,-49.9129 471.177,-26.4376"/>
<polygon fill="midnightblue" stroke="midnightblue" points="473.813,-28.7841 479.081,-19.5914 469.23,-23.4929 473.813,-28.7841"/>
</g>
<!-- Node18&#45;&gt;Node6 -->
<g id="edge37" class="edge"><title>Node18&#45;&gt;Node6</title>
<path fill="none" stroke="midnightblue" d="M398.761,-112.444C443.379,-102.058 517.956,-84.6998 560.87,-74.7113"/>
<polygon fill="midnightblue" stroke="midnightblue" points="561.859,-78.0748 570.805,-72.3989 560.272,-71.2571 561.859,-78.0748"/>
</g>
<!-- Node19&#45;&gt;Node4 -->
<g id="edge39" class="edge"><title>Node19&#45;&gt;Node4</title>
<path fill="none" stroke="midnightblue" d="M89.3968,-58.5327C93.933,-57.6101 98.5854,-56.7286 103,-56 229.634,-35.0992 381.214,-20.4122 450.737,-14.2455"/>
<polygon fill="midnightblue" stroke="midnightblue" points="451.125,-17.7249 460.781,-13.3634 450.513,-10.7518 451.125,-17.7249"/>
</g>
<!-- Node20&#45;&gt;Node4 -->
<g id="edge41" class="edge"><title>Node20&#45;&gt;Node4</title>
<path fill="none" stroke="midnightblue" d="M646.604,-112.138C645.507,-98.2793 641.392,-71.4671 626,-56 599.777,-29.6494 557.881,-18.7275 527.317,-14.2014"/>
<polygon fill="midnightblue" stroke="midnightblue" points="527.393,-10.6815 517.023,-12.8523 526.483,-17.6221 527.393,-10.6815"/>
</g>
<!-- Node20&#45;&gt;Node6 -->
<g id="edge42" class="edge"><title>Node20&#45;&gt;Node6</title>
<path fill="none" stroke="midnightblue" d="M638.248,-112.083C630.53,-104.22 619.095,-92.5688 609.783,-83.0813"/>
<polygon fill="midnightblue" stroke="midnightblue" points="612.092,-80.4363 602.589,-75.7511 607.096,-85.3396 612.092,-80.4363"/>
</g>
<!-- Node20&#45;&gt;Node8 -->
<g id="edge43" class="edge"><title>Node20&#45;&gt;Node8</title>
<path fill="none" stroke="midnightblue" d="M655.917,-112.083C663.78,-104.22 675.431,-92.5688 684.919,-83.0813"/>
<polygon fill="midnightblue" stroke="midnightblue" points="687.653,-85.2971 692.249,-75.7511 682.703,-80.3473 687.653,-85.2971"/>
</g>
<!-- Node21&#45;&gt;Node4 -->
<g id="edge45" class="edge"><title>Node21&#45;&gt;Node4</title>
<path fill="none" stroke="midnightblue" d="M452.139,-112.368C458.623,-94.5366 473.62,-53.2953 482.356,-29.2717"/>
<polygon fill="midnightblue" stroke="midnightblue" points="485.748,-30.1855 485.876,-19.5914 479.169,-27.7932 485.748,-30.1855"/>
</g>
<!-- Node21&#45;&gt;Node6 -->
<g id="edge46" class="edge"><title>Node21&#45;&gt;Node6</title>
<path fill="none" stroke="midnightblue" d="M471.976,-112.444C496.157,-103.438 534.418,-89.1891 561.646,-79.049"/>
<polygon fill="midnightblue" stroke="midnightblue" points="562.982,-82.2864 571.132,-75.5164 560.539,-75.7265 562.982,-82.2864"/>
</g>
</g>
</svg>
