<?xml version="1.0" encoding="UTF-8" standalone="no"?>
<!DOCTYPE svg PUBLIC "-//W3C//DTD SVG 1.1//EN"
 "http://www.w3.org/Graphics/SVG/1.1/DTD/svg11.dtd">
<!-- Generated by graphviz version 2.36.0 (20140111.2315)
 -->
<!-- Title: notmuch/mutt_notmuch.h Pages: 1 -->
<svg width="154pt" height="140pt"
 viewBox="0.00 0.00 154.00 140.00" xmlns="http://www.w3.org/2000/svg" xmlns:xlink="http://www.w3.org/1999/xlink">
<g id="graph0" class="graph" transform="scale(1 1) rotate(0) translate(4 136)">
<title>notmuch/mutt_notmuch.h</title>
<polygon fill="white" stroke="none" points="-4,4 -4,-136 150,-136 150,4 -4,4"/>
<!-- Node1 -->
<g id="node1" class="node"><title>Node1</title>
<polygon fill="#bfbfbf" stroke="black" points="16,-112.5 16,-131.5 144,-131.5 144,-112.5 16,-112.5"/>
<text text-anchor="middle" x="80" y="-119.5" font-family="Helvetica,sans-Serif" font-size="10.00">notmuch/mutt_notmuch.h</text>
</g>
<!-- Node2 -->
<g id="node2" class="node"><title>Node2</title>
<polygon fill="white" stroke="#bfbfbf" points="0,-56.5 0,-75.5 52,-75.5 52,-56.5 0,-56.5"/>
<text text-anchor="middle" x="26" y="-63.5" font-family="Helvetica,sans-Serif" font-size="10.00">stddef.h</text>
</g>
<!-- Node1&#45;&gt;Node2 -->
<g id="edge1" class="edge"><title>Node1&#45;&gt;Node2</title>
<path fill="none" stroke="midnightblue" d="M71.083,-112.083C63.2195,-104.22 51.5688,-92.5688 42.0813,-83.0813"/>
<polygon fill="midnightblue" stroke="midnightblue" points="44.2971,-80.3473 34.7511,-75.7511 39.3473,-85.2971 44.2971,-80.3473"/>
</g>
<!-- Node3 -->
<g id="node3" class="node"><title>Node3</title>
<polygon fill="white" stroke="#bfbfbf" points="75,-0.5 75,-19.5 131,-19.5 131,-0.5 75,-0.5"/>
<text text-anchor="middle" x="103" y="-7.5" font-family="Helvetica,sans-Serif" font-size="10.00">stdbool.h</text>
</g>
<!-- Node1&#45;&gt;Node3 -->
<g id="edge2" class="edge"><title>Node1&#45;&gt;Node3</title>
<path fill="none" stroke="midnightblue" d="M81.8048,-112.368C85.5165,-94.617 94.0788,-53.6664 99.1114,-29.5974"/>
<polygon fill="midnightblue" stroke="midnightblue" points="102.583,-30.0961 101.204,-19.5914 95.731,-28.6634 102.583,-30.0961"/>
</g>
<!-- Node4 -->
<g id="node4" class="node"><title>Node4</title>
<g id="a_node4"><a xlink:href="mx_8h.html" target="_top" xlink:title="API for mailboxes. ">
<polygon fill="white" stroke="red" points="108,-56.5 108,-75.5 146,-75.5 146,-56.5 108,-56.5"/>
<text text-anchor="middle" x="127" y="-63.5" font-family="Helvetica,sans-Serif" font-size="10.00">mx.h</text>
</a>
</g>
</g>
<!-- Node1&#45;&gt;Node4 -->
<g id="edge3" class="edge"><title>Node1&#45;&gt;Node4</title>
<path fill="none" stroke="midnightblue" d="M87.7611,-112.083C94.5368,-104.298 104.543,-92.8015 112.755,-83.3665"/>
<polygon fill="midnightblue" stroke="midnightblue" points="115.458,-85.592 119.383,-75.7511 110.178,-80.9963 115.458,-85.592"/>
</g>
<!-- Node4&#45;&gt;Node3 -->
<g id="edge4" class="edge"><title>Node4&#45;&gt;Node3</title>
<path fill="none" stroke="midnightblue" d="M123.037,-56.083C119.787,-48.77 115.081,-38.1814 111.046,-29.1034"/>
<polygon fill="midnightblue" stroke="midnightblue" points="114.149,-27.4677 106.889,-19.7511 107.752,-30.3107 114.149,-27.4677"/>
</g>
</g>
</svg>
