<?xml version="1.0" encoding="UTF-8" standalone="no"?>
<!DOCTYPE svg PUBLIC "-//W3C//DTD SVG 1.1//EN"
 "http://www.w3.org/Graphics/SVG/1.1/DTD/svg11.dtd">
<!-- Generated by graphviz version 2.36.0 (20140111.2315)
 -->
<!-- Title: mutt_conn_find Pages: 1 -->
<svg width="228pt" height="180pt"
 viewBox="0.00 0.00 228.00 180.00" xmlns="http://www.w3.org/2000/svg" xmlns:xlink="http://www.w3.org/1999/xlink">
<g id="graph0" class="graph" transform="scale(1 1) rotate(0) translate(4 176)">
<title>mutt_conn_find</title>
<polygon fill="white" stroke="none" points="-4,4 -4,-176 224,-176 224,4 -4,4"/>
<!-- Node1 -->
<g id="node1" class="node"><title>Node1</title>
<polygon fill="#bfbfbf" stroke="black" points="0.5,-76.5 0.5,-95.5 83.5,-95.5 83.5,-76.5 0.5,-76.5"/>
<text text-anchor="middle" x="42" y="-83.5" font-family="Helvetica,sans-Serif" font-size="10.00">mutt_conn_find</text>
</g>
<!-- Node2 -->
<g id="node2" class="node"><title>Node2</title>
<g id="a_node2"><a xlink:href="imap__private_8h.html#a6710cdbfe7ff868fb47f3e6164878856" target="_top" xlink:title="Find an open IMAP connection. ">
<polygon fill="white" stroke="red" points="127.5,-152.5 127.5,-171.5 212.5,-171.5 212.5,-152.5 127.5,-152.5"/>
<text text-anchor="middle" x="170" y="-159.5" font-family="Helvetica,sans-Serif" font-size="10.00">imap_conn_find</text>
</a>
</g>
</g>
<!-- Node1&#45;&gt;Node2 -->
<g id="edge1" class="edge"><title>Node1&#45;&gt;Node2</title>
<path fill="none" stroke="midnightblue" d="M62.3417,-102.604C77.3476,-114.902 99.0545,-131.46 120,-143 126.393,-146.522 133.576,-149.699 140.43,-152.401"/>
<polygon fill="midnightblue" stroke="midnightblue" points="64.2577,-99.644 54.3372,-95.9246 59.773,-105.019 64.2577,-99.644"/>
</g>
<!-- Node3 -->
<g id="node3" class="node"><title>Node3</title>
<g id="a_node3"><a xlink:href="nntp_8h.html#ac501636e969731011da557bad742f426" target="_top" xlink:title="Open a connection to an NNTP server. ">
<polygon fill="white" stroke="red" points="120.5,-114.5 120.5,-133.5 219.5,-133.5 219.5,-114.5 120.5,-114.5"/>
<text text-anchor="middle" x="170" y="-121.5" font-family="Helvetica,sans-Serif" font-size="10.00">nntp_select_server</text>
</a>
</g>
</g>
<!-- Node1&#45;&gt;Node3 -->
<g id="edge2" class="edge"><title>Node1&#45;&gt;Node3</title>
<path fill="none" stroke="midnightblue" d="M84.5644,-98.5353C101.705,-103.705 121.25,-109.599 137.215,-114.414"/>
<polygon fill="midnightblue" stroke="midnightblue" points="85.3798,-95.1256 74.7951,-95.589 83.3586,-101.827 85.3798,-95.1256"/>
</g>
<!-- Node4 -->
<g id="node4" class="node"><title>Node4</title>
<g id="a_node4"><a xlink:href="pop_8c.html#aadf7390fb24044a0263048451d79cc9c" target="_top" xlink:title="open POP mailbox, fetch only headers ">
<polygon fill="white" stroke="black" points="126,-76.5 126,-95.5 214,-95.5 214,-76.5 126,-76.5"/>
<text text-anchor="middle" x="170" y="-83.5" font-family="Helvetica,sans-Serif" font-size="10.00">pop_mbox_open</text>
</a>
</g>
</g>
<!-- Node1&#45;&gt;Node4 -->
<g id="edge3" class="edge"><title>Node1&#45;&gt;Node4</title>
<path fill="none" stroke="midnightblue" d="M93.6243,-86C104.323,-86 115.518,-86 125.908,-86"/>
<polygon fill="midnightblue" stroke="midnightblue" points="93.5608,-82.5001 83.5608,-86 93.5607,-89.5001 93.5608,-82.5001"/>
</g>
<!-- Node5 -->
<g id="node5" class="node"><title>Node5</title>
<g id="a_node5"><a xlink:href="pop_8h.html#ae41e43ca791955eb76c5709db39a21d7" target="_top" xlink:title="Fetch messages and save them in $spoolfile. ">
<polygon fill="white" stroke="red" points="128.5,-38.5 128.5,-57.5 211.5,-57.5 211.5,-38.5 128.5,-38.5"/>
<text text-anchor="middle" x="170" y="-45.5" font-family="Helvetica,sans-Serif" font-size="10.00">pop_fetch_mail</text>
</a>
</g>
</g>
<!-- Node1&#45;&gt;Node5 -->
<g id="edge4" class="edge"><title>Node1&#45;&gt;Node5</title>
<path fill="none" stroke="midnightblue" d="M84.5644,-73.4647C101.705,-68.2952 121.25,-62.4009 137.215,-57.5859"/>
<polygon fill="midnightblue" stroke="midnightblue" points="83.3586,-70.1726 74.7951,-76.411 85.3798,-76.8744 83.3586,-70.1726"/>
</g>
<!-- Node6 -->
<g id="node6" class="node"><title>Node6</title>
<g id="a_node6"><a xlink:href="smtp_8h.html#a935dac37947ee542858ad8cf03c7654a" target="_top" xlink:title="Send a message using SMTP. ">
<polygon fill="white" stroke="red" points="125.5,-0.5 125.5,-19.5 214.5,-19.5 214.5,-0.5 125.5,-0.5"/>
<text text-anchor="middle" x="170" y="-7.5" font-family="Helvetica,sans-Serif" font-size="10.00">mutt_smtp_send</text>
</a>
</g>
</g>
<!-- Node1&#45;&gt;Node6 -->
<g id="edge5" class="edge"><title>Node1&#45;&gt;Node6</title>
<path fill="none" stroke="midnightblue" d="M62.3417,-69.3963C77.3476,-57.0976 99.0545,-40.5399 120,-29 126.393,-25.4777 133.576,-22.3013 140.43,-19.5987"/>
<polygon fill="midnightblue" stroke="midnightblue" points="59.773,-66.9813 54.3372,-76.0754 64.2577,-72.356 59.773,-66.9813"/>
</g>
</g>
</svg>
