<?xml version="1.0" encoding="UTF-8" standalone="no"?>
<!DOCTYPE svg PUBLIC "-//W3C//DTD SVG 1.1//EN"
 "http://www.w3.org/Graphics/SVG/1.1/DTD/svg11.dtd">
<!-- Generated by graphviz version 2.36.0 (20140111.2315)
 -->
<!-- Title: mutt_save_confirm Pages: 1 -->
<svg width="396pt" height="218pt"
 viewBox="0.00 0.00 396.00 218.00" xmlns="http://www.w3.org/2000/svg" xmlns:xlink="http://www.w3.org/1999/xlink">
<g id="graph0" class="graph" transform="scale(1 1) rotate(0) translate(4 214)">
<title>mutt_save_confirm</title>
<polygon fill="white" stroke="none" points="-4,4 -4,-214 392,-214 392,4 -4,4"/>
<!-- Node1 -->
<g id="node1" class="node"><title>Node1</title>
<polygon fill="#bfbfbf" stroke="black" points="0,-95.5 0,-114.5 100,-114.5 100,-95.5 0,-95.5"/>
<text text-anchor="middle" x="50" y="-102.5" font-family="Helvetica,sans-Serif" font-size="10.00">mutt_save_confirm</text>
</g>
<!-- Node2 -->
<g id="node2" class="node"><title>Node2</title>
<g id="a_node2"><a xlink:href="mx_8c.html#adf47b437bf62efa6dd4b940b8a5b791e" target="_top" xlink:title="Identify the type of mailbox. ">
<polygon fill="white" stroke="red" points="146,-190.5 146,-209.5 226,-209.5 226,-190.5 146,-190.5"/>
<text text-anchor="middle" x="186" y="-197.5" font-family="Helvetica,sans-Serif" font-size="10.00">mx_get_magic</text>
</a>
</g>
</g>
<!-- Node1&#45;&gt;Node2 -->
<g id="edge1" class="edge"><title>Node1&#45;&gt;Node2</title>
<path fill="none" stroke="midnightblue" d="M59.5483,-114.625C73.9601,-130.36 104.605,-161.763 136,-181 139.141,-182.925 142.51,-184.715 145.957,-186.365"/>
<polygon fill="midnightblue" stroke="midnightblue" points="144.597,-189.59 155.161,-190.403 147.41,-183.18 144.597,-189.59"/>
</g>
<!-- Node3 -->
<g id="node3" class="node"><title>Node3</title>
<g id="a_node3"><a xlink:href="mx_8c.html#a3a49664b99f8c9e57f94c02c922922cd" target="_top" xlink:title="Wrapper for access, checks permissions on a given mailbox. ">
<polygon fill="white" stroke="red" points="152.5,-152.5 152.5,-171.5 219.5,-171.5 219.5,-152.5 152.5,-152.5"/>
<text text-anchor="middle" x="186" y="-159.5" font-family="Helvetica,sans-Serif" font-size="10.00">mx_access</text>
</a>
</g>
</g>
<!-- Node1&#45;&gt;Node3 -->
<g id="edge2" class="edge"><title>Node1&#45;&gt;Node3</title>
<path fill="none" stroke="midnightblue" d="M71.4848,-114.507C88.6233,-122.377 113.771,-133.728 136,-143 140.55,-144.898 145.362,-146.841 150.123,-148.726"/>
<polygon fill="midnightblue" stroke="midnightblue" points="149.135,-152.097 159.723,-152.479 151.684,-145.578 149.135,-152.097"/>
</g>
<!-- Node4 -->
<g id="node4" class="node"><title>Node4</title>
<g id="a_node4"><a xlink:href="curs__lib_8c.html#a2ac481c92c3c888c1f658696909a3430" target="_top" xlink:title="Ask the user a Yes/No question. ">
<polygon fill="white" stroke="red" points="148,-114.5 148,-133.5 224,-133.5 224,-114.5 148,-114.5"/>
<text text-anchor="middle" x="186" y="-121.5" font-family="Helvetica,sans-Serif" font-size="10.00">mutt_yesorno</text>
</a>
</g>
</g>
<!-- Node1&#45;&gt;Node4 -->
<g id="edge3" class="edge"><title>Node1&#45;&gt;Node4</title>
<path fill="none" stroke="midnightblue" d="M100.136,-111.967C112.39,-113.705 125.505,-115.564 137.67,-117.289"/>
<polygon fill="midnightblue" stroke="midnightblue" points="137.234,-120.762 147.626,-118.701 138.217,-113.831 137.234,-120.762"/>
</g>
<!-- Node5 -->
<g id="node5" class="node"><title>Node5</title>
<g id="a_node5"><a xlink:href="mutt__window_8c.html#adb0d282e3a7b3cf644485c1aab14774f" target="_top" xlink:title="Clear a row of a Window. ">
<polygon fill="white" stroke="red" points="272,-95.5 272,-114.5 388,-114.5 388,-95.5 272,-95.5"/>
<text text-anchor="middle" x="330" y="-102.5" font-family="Helvetica,sans-Serif" font-size="10.00">mutt_window_clearline</text>
</a>
</g>
</g>
<!-- Node1&#45;&gt;Node5 -->
<g id="edge7" class="edge"><title>Node1&#45;&gt;Node5</title>
<path fill="none" stroke="midnightblue" d="M100.061,-105C144.976,-105 211.848,-105 261.737,-105"/>
<polygon fill="midnightblue" stroke="midnightblue" points="261.793,-108.5 271.793,-105 261.793,-101.5 261.793,-108.5"/>
</g>
<!-- Node6 -->
<g id="node6" class="node"><title>Node6</title>
<g id="a_node6"><a xlink:href="mutt_2path_8c.html#a0a12a3fc273602e3d7e6bb71ed4c9dc2" target="_top" xlink:title="Return a path up to, but not including, the final &#39;/&#39;. ">
<polygon fill="white" stroke="red" points="136,-38.5 136,-57.5 236,-57.5 236,-38.5 136,-38.5"/>
<text text-anchor="middle" x="186" y="-45.5" font-family="Helvetica,sans-Serif" font-size="10.00">mutt_path_dirname</text>
</a>
</g>
</g>
<!-- Node1&#45;&gt;Node6 -->
<g id="edge5" class="edge"><title>Node1&#45;&gt;Node6</title>
<path fill="none" stroke="midnightblue" d="M73.4286,-95.4595C95.2655,-86.1706 128.663,-71.9642 153.23,-61.5143"/>
<polygon fill="midnightblue" stroke="midnightblue" points="154.666,-64.7067 162.498,-57.5716 151.926,-58.2653 154.666,-64.7067"/>
</g>
<!-- Node7 -->
<g id="node7" class="node"><title>Node7</title>
<g id="a_node7"><a xlink:href="file_8c.html#a42b89c4ae9ca386c22de502b37cdf45e" target="_top" xlink:title="Recursively create directories. ">
<polygon fill="white" stroke="red" points="144.5,-0.5 144.5,-19.5 227.5,-19.5 227.5,-0.5 144.5,-0.5"/>
<text text-anchor="middle" x="186" y="-7.5" font-family="Helvetica,sans-Serif" font-size="10.00">mutt_file_mkdir</text>
</a>
</g>
</g>
<!-- Node1&#45;&gt;Node7 -->
<g id="edge6" class="edge"><title>Node1&#45;&gt;Node7</title>
<path fill="none" stroke="midnightblue" d="M59.5483,-95.3753C73.9601,-79.6399 104.605,-48.2367 136,-29 139.141,-27.0753 142.51,-25.2852 145.957,-23.6349"/>
<polygon fill="midnightblue" stroke="midnightblue" points="147.41,-26.8199 155.161,-19.5973 144.597,-20.4096 147.41,-26.8199"/>
</g>
<!-- Node4&#45;&gt;Node5 -->
<g id="edge4" class="edge"><title>Node4&#45;&gt;Node5</title>
<path fill="none" stroke="midnightblue" d="M224.309,-119.008C235.785,-117.472 248.791,-115.732 261.637,-114.013"/>
<polygon fill="midnightblue" stroke="midnightblue" points="262.425,-117.439 271.873,-112.644 261.497,-110.501 262.425,-117.439"/>
</g>
</g>
</svg>
