<?xml version="1.0" encoding="UTF-8" standalone="no"?>
<!DOCTYPE svg PUBLIC "-//W3C//DTD SVG 1.1//EN"
 "http://www.w3.org/Graphics/SVG/1.1/DTD/svg11.dtd">
<!-- Generated by graphviz version 2.36.0 (20140111.2315)
 -->
<!-- Title: mutt_expand_path_regex Pages: 1 -->
<svg width="384pt" height="47pt"
 viewBox="0.00 0.00 384.00 47.00" xmlns="http://www.w3.org/2000/svg" xmlns:xlink="http://www.w3.org/1999/xlink">
<g id="graph0" class="graph" transform="scale(1 1) rotate(0) translate(4 43)">
<title>mutt_expand_path_regex</title>
<polygon fill="white" stroke="none" points="-4,4 -4,-43 380,-43 380,4 -4,4"/>
<!-- Node1 -->
<g id="node1" class="node"><title>Node1</title>
<polygon fill="#bfbfbf" stroke="black" points="0,-19.5 0,-38.5 126,-38.5 126,-19.5 0,-19.5"/>
<text text-anchor="middle" x="63" y="-26.5" font-family="Helvetica,sans-Serif" font-size="10.00">mutt_expand_path_regex</text>
</g>
<!-- Node2 -->
<g id="node2" class="node"><title>Node2</title>
<g id="a_node2"><a xlink:href="hook_8c.html#a1f7402155273ed32b2b3ae49324689ac" target="_top" xlink:title="TAILQ_HEAD">
<polygon fill="white" stroke="black" points="296.5,-19.5 296.5,-38.5 375.5,-38.5 375.5,-19.5 296.5,-19.5"/>
<text text-anchor="middle" x="336" y="-26.5" font-family="Helvetica,sans-Serif" font-size="10.00">TAILQ_HEAD</text>
</a>
</g>
</g>
<!-- Node1&#45;&gt;Node2 -->
<g id="edge1" class="edge"><title>Node1&#45;&gt;Node2</title>
<path fill="none" stroke="midnightblue" d="M136.221,-29C187.565,-29 254.541,-29 296.153,-29"/>
<polygon fill="midnightblue" stroke="midnightblue" points="136.173,-25.5001 126.173,-29 136.173,-32.5001 136.173,-25.5001"/>
</g>
<!-- Node3 -->
<g id="node3" class="node"><title>Node3</title>
<g id="a_node3"><a xlink:href="muttlib_8h.html#a0ea24ab4880787c5f13245d0272c7daf" target="_top" xlink:title="Create the canonical path. ">
<polygon fill="white" stroke="red" points="162.5,-0.5 162.5,-19.5 259.5,-19.5 259.5,-0.5 162.5,-0.5"/>
<text text-anchor="middle" x="211" y="-7.5" font-family="Helvetica,sans-Serif" font-size="10.00">mutt_expand_path</text>
</a>
</g>
</g>
<!-- Node1&#45;&gt;Node3 -->
<g id="edge2" class="edge"><title>Node1&#45;&gt;Node3</title>
<path fill="none" stroke="midnightblue" d="M136.32,-19.5885C145.189,-18.4343 154.072,-17.2784 162.443,-16.1889"/>
<polygon fill="midnightblue" stroke="midnightblue" points="135.805,-16.1259 126.341,-20.8872 136.709,-23.0673 135.805,-16.1259"/>
</g>
<!-- Node3&#45;&gt;Node2 -->
<g id="edge3" class="edge"><title>Node3&#45;&gt;Node2</title>
<path fill="none" stroke="midnightblue" d="M269.668,-18.908C278.703,-20.3037 287.849,-21.7165 296.322,-23.0254"/>
<polygon fill="midnightblue" stroke="midnightblue" points="269.972,-15.4136 259.555,-17.3459 268.903,-22.3316 269.972,-15.4136"/>
</g>
</g>
</svg>
