<?xml version="1.0" encoding="UTF-8" standalone="no"?>
<!DOCTYPE svg PUBLIC "-//W3C//DTD SVG 1.1//EN"
 "http://www.w3.org/Graphics/SVG/1.1/DTD/svg11.dtd">
<!-- Generated by graphviz version 2.36.0 (20140111.2315)
 -->
<!-- Title: mutt_parse_mime_message Pages: 1 -->
<svg width="272pt" height="160pt"
 viewBox="0.00 0.00 272.00 160.00" xmlns="http://www.w3.org/2000/svg" xmlns:xlink="http://www.w3.org/1999/xlink">
<g id="graph0" class="graph" transform="scale(1 1) rotate(0) translate(4 156)">
<title>mutt_parse_mime_message</title>
<polygon fill="white" stroke="none" points="-4,4 -4,-156 268,-156 268,4 -4,4"/>
<!-- Node1 -->
<g id="node1" class="node"><title>Node1</title>
<polygon fill="#bfbfbf" stroke="black" points="0,-66.5 0,-85.5 140,-85.5 140,-66.5 0,-66.5"/>
<text text-anchor="middle" x="70" y="-73.5" font-family="Helvetica,sans-Serif" font-size="10.00">mutt_parse_mime_message</text>
</g>
<!-- Node2 -->
<g id="node2" class="node"><title>Node2</title>
<g id="a_node2"><a xlink:href="mx_8c.html#a023ab20d4926e2bac4206686fb35a33e" target="_top" xlink:title="return a stream pointer for a message ">
<polygon fill="white" stroke="red" points="180,-132.5 180,-151.5 260,-151.5 260,-132.5 180,-132.5"/>
<text text-anchor="middle" x="220" y="-139.5" font-family="Helvetica,sans-Serif" font-size="10.00">mx_msg_open</text>
</a>
</g>
</g>
<!-- Node1&#45;&gt;Node2 -->
<g id="edge1" class="edge"><title>Node1&#45;&gt;Node2</title>
<path fill="none" stroke="midnightblue" d="M92.3034,-85.5718C113.507,-95.0904 146.985,-110.096 176,-123 179.859,-124.716 183.915,-126.515 187.931,-128.293"/>
<polygon fill="midnightblue" stroke="midnightblue" points="186.555,-131.511 197.116,-132.355 189.386,-125.109 186.555,-131.511"/>
</g>
<!-- Node3 -->
<g id="node3" class="node"><title>Node3</title>
<g id="a_node3"><a xlink:href="parse_8c.html#a0b38ac4f44b3414d0e18d26324861369" target="_top" xlink:title="Parse a MIME part. ">
<polygon fill="white" stroke="red" points="176.5,-94.5 176.5,-113.5 263.5,-113.5 263.5,-94.5 176.5,-94.5"/>
<text text-anchor="middle" x="220" y="-101.5" font-family="Helvetica,sans-Serif" font-size="10.00">mutt_parse_part</text>
</a>
</g>
</g>
<!-- Node1&#45;&gt;Node3 -->
<g id="edge2" class="edge"><title>Node1&#45;&gt;Node3</title>
<path fill="none" stroke="midnightblue" d="M121.519,-85.5577C135.943,-88.2866 151.695,-91.2667 166.249,-94.0201"/>
<polygon fill="midnightblue" stroke="midnightblue" points="165.626,-97.4642 176.102,-95.8842 166.927,-90.5862 165.626,-97.4642"/>
</g>
<!-- Node4 -->
<g id="node4" class="node"><title>Node4</title>
<g id="a_node4"><a xlink:href="crypt_8c.html#ab5074ccede10397a636da12338c977ad" target="_top" xlink:title="Check out the type of encryption used. ">
<polygon fill="white" stroke="red" points="186,-38.5 186,-57.5 254,-57.5 254,-38.5 186,-38.5"/>
<text text-anchor="middle" x="220" y="-45.5" font-family="Helvetica,sans-Serif" font-size="10.00">crypt_query</text>
</a>
</g>
</g>
<!-- Node1&#45;&gt;Node4 -->
<g id="edge3" class="edge"><title>Node1&#45;&gt;Node4</title>
<path fill="none" stroke="midnightblue" d="M121.519,-66.4423C139.133,-63.1099 158.727,-59.4029 175.702,-56.1916"/>
<polygon fill="midnightblue" stroke="midnightblue" points="176.716,-59.5619 185.891,-54.2639 175.415,-52.6839 176.716,-59.5619"/>
</g>
<!-- Node5 -->
<g id="node5" class="node"><title>Node5</title>
<g id="a_node5"><a xlink:href="mx_8c.html#a80867e6aff3b2804c4eef734b673982c" target="_top" xlink:title="Close a message. ">
<polygon fill="white" stroke="black" points="178.5,-0.5 178.5,-19.5 261.5,-19.5 261.5,-0.5 178.5,-0.5"/>
<text text-anchor="middle" x="220" y="-7.5" font-family="Helvetica,sans-Serif" font-size="10.00">mx_msg_close</text>
</a>
</g>
</g>
<!-- Node1&#45;&gt;Node5 -->
<g id="edge5" class="edge"><title>Node1&#45;&gt;Node5</title>
<path fill="none" stroke="midnightblue" d="M92.3034,-66.4282C113.507,-56.9096 146.985,-41.9042 176,-29 179.859,-27.2837 183.915,-25.4849 187.931,-23.707"/>
<polygon fill="midnightblue" stroke="midnightblue" points="189.386,-26.8908 197.116,-19.6455 186.555,-20.4887 189.386,-26.8908"/>
</g>
<!-- Node4&#45;&gt;Node4 -->
<g id="edge4" class="edge"><title>Node4&#45;&gt;Node4</title>
<path fill="none" stroke="midnightblue" d="M196.881,-57.7571C185.633,-66.5653 193.34,-76 220,-76 237.496,-76 246.829,-71.9368 247.999,-66.6539"/>
<polygon fill="midnightblue" stroke="midnightblue" points="250.997,-64.8417 243.119,-57.7571 244.86,-68.208 250.997,-64.8417"/>
</g>
</g>
</svg>
