<?xml version="1.0" encoding="UTF-8" standalone="no"?>
<!DOCTYPE svg PUBLIC "-//W3C//DTD SVG 1.1//EN"
 "http://www.w3.org/Graphics/SVG/1.1/DTD/svg11.dtd">
<!-- Generated by graphviz version 2.36.0 (20140111.2315)
 -->
<!-- Title: mutt_window.c Pages: 1 -->
<svg width="553pt" height="140pt"
 viewBox="0.00 0.00 553.00 140.00" xmlns="http://www.w3.org/2000/svg" xmlns:xlink="http://www.w3.org/1999/xlink">
<g id="graph0" class="graph" transform="scale(1 1) rotate(0) translate(4 136)">
<title>mutt_window.c</title>
<polygon fill="white" stroke="none" points="-4,4 -4,-136 549,-136 549,4 -4,4"/>
<!-- Node1 -->
<g id="node1" class="node"><title>Node1</title>
<polygon fill="#bfbfbf" stroke="black" points="210.5,-112.5 210.5,-131.5 293.5,-131.5 293.5,-112.5 210.5,-112.5"/>
<text text-anchor="middle" x="252" y="-119.5" font-family="Helvetica,sans-Serif" font-size="10.00">mutt_window.c</text>
</g>
<!-- Node2 -->
<g id="node2" class="node"><title>Node2</title>
<polygon fill="white" stroke="#bfbfbf" points="-0.5,-56.5 -0.5,-75.5 50.5,-75.5 50.5,-56.5 -0.5,-56.5"/>
<text text-anchor="middle" x="25" y="-63.5" font-family="Helvetica,sans-Serif" font-size="10.00">config.h</text>
</g>
<!-- Node1&#45;&gt;Node2 -->
<g id="edge1" class="edge"><title>Node1&#45;&gt;Node2</title>
<path fill="none" stroke="midnightblue" d="M214.417,-112.443C177.712,-104.029 120.017,-90.6577 60.5441,-76.0929"/>
<polygon fill="midnightblue" stroke="midnightblue" points="61.1445,-72.6364 50.5983,-73.65 59.4747,-79.4343 61.1445,-72.6364"/>
</g>
<!-- Node3 -->
<g id="node3" class="node"><title>Node3</title>
<polygon fill="white" stroke="#bfbfbf" points="69,-56.5 69,-75.5 121,-75.5 121,-56.5 69,-56.5"/>
<text text-anchor="middle" x="95" y="-63.5" font-family="Helvetica,sans-Serif" font-size="10.00">stdarg.h</text>
</g>
<!-- Node1&#45;&gt;Node3 -->
<g id="edge2" class="edge"><title>Node1&#45;&gt;Node3</title>
<path fill="none" stroke="midnightblue" d="M227.123,-112.444C200.711,-103.359 158.785,-88.9388 129.258,-78.7831"/>
<polygon fill="midnightblue" stroke="midnightblue" points="130.355,-75.4593 119.761,-75.5164 128.079,-82.0787 130.355,-75.4593"/>
</g>
<!-- Node4 -->
<g id="node4" class="node"><title>Node4</title>
<polygon fill="white" stroke="#bfbfbf" points="139.5,-56.5 139.5,-75.5 188.5,-75.5 188.5,-56.5 139.5,-56.5"/>
<text text-anchor="middle" x="164" y="-63.5" font-family="Helvetica,sans-Serif" font-size="10.00">string.h</text>
</g>
<!-- Node1&#45;&gt;Node4 -->
<g id="edge3" class="edge"><title>Node1&#45;&gt;Node4</title>
<path fill="none" stroke="midnightblue" d="M237.861,-112.324C224.134,-103.9 203.064,-90.9709 186.936,-81.0741"/>
<polygon fill="midnightblue" stroke="midnightblue" points="188.457,-77.9016 178.104,-75.6545 184.796,-83.8678 188.457,-77.9016"/>
</g>
<!-- Node5 -->
<g id="node5" class="node"><title>Node5</title>
<g id="a_node5"><a xlink:href="mutt_2mutt_8h.html" target="_top" xlink:title="Convenience wrapper for the library headers. ">
<polygon fill="white" stroke="red" points="262.5,-0.5 262.5,-19.5 329.5,-19.5 329.5,-0.5 262.5,-0.5"/>
<text text-anchor="middle" x="296" y="-7.5" font-family="Helvetica,sans-Serif" font-size="10.00">mutt/mutt.h</text>
</a>
</g>
</g>
<!-- Node1&#45;&gt;Node5 -->
<g id="edge4" class="edge"><title>Node1&#45;&gt;Node5</title>
<path fill="none" stroke="midnightblue" d="M246.374,-112.155C238.925,-99.2281 227.753,-74.6831 237,-56 243.603,-42.6595 256.265,-32.1941 268.171,-24.7262"/>
<polygon fill="midnightblue" stroke="midnightblue" points="270.118,-27.6435 277.016,-19.6018 266.609,-21.5866 270.118,-27.6435"/>
</g>
<!-- Node6 -->
<g id="node6" class="node"><title>Node6</title>
<g id="a_node6"><a xlink:href="mutt__window_8h.html" target="_top" xlink:title="Window management. ">
<polygon fill="white" stroke="red" points="245.5,-56.5 245.5,-75.5 328.5,-75.5 328.5,-56.5 245.5,-56.5"/>
<text text-anchor="middle" x="287" y="-63.5" font-family="Helvetica,sans-Serif" font-size="10.00">mutt_window.h</text>
</a>
</g>
</g>
<!-- Node1&#45;&gt;Node6 -->
<g id="edge5" class="edge"><title>Node1&#45;&gt;Node6</title>
<path fill="none" stroke="midnightblue" d="M257.78,-112.083C262.672,-104.534 269.827,-93.4948 275.833,-84.2298"/>
<polygon fill="midnightblue" stroke="midnightblue" points="278.826,-86.0463 281.328,-75.7511 272.952,-82.239 278.826,-86.0463"/>
</g>
<!-- Node7 -->
<g id="node7" class="node"><title>Node7</title>
<g id="a_node7"><a xlink:href="globals_8h.html" target="_top" xlink:title="Hundreds of global variables to back the user variables. ">
<polygon fill="white" stroke="red" points="347,-56.5 347,-75.5 403,-75.5 403,-56.5 347,-56.5"/>
<text text-anchor="middle" x="375" y="-63.5" font-family="Helvetica,sans-Serif" font-size="10.00">globals.h</text>
</a>
</g>
</g>
<!-- Node1&#45;&gt;Node7 -->
<g id="edge6" class="edge"><title>Node1&#45;&gt;Node7</title>
<path fill="none" stroke="midnightblue" d="M271.49,-112.444C291.642,-103.596 323.323,-89.6875 346.331,-79.5865"/>
<polygon fill="midnightblue" stroke="midnightblue" points="347.852,-82.7411 355.601,-75.5164 345.038,-76.3316 347.852,-82.7411"/>
</g>
<!-- Node8 -->
<g id="node8" class="node"><title>Node8</title>
<g id="a_node8"><a xlink:href="menu_8h.html" target="_top" xlink:title="GUI present the user with a selectable list. ">
<polygon fill="white" stroke="red" points="421.5,-56.5 421.5,-75.5 470.5,-75.5 470.5,-56.5 421.5,-56.5"/>
<text text-anchor="middle" x="446" y="-63.5" font-family="Helvetica,sans-Serif" font-size="10.00">menu.h</text>
</a>
</g>
</g>
<!-- Node1&#45;&gt;Node8 -->
<g id="edge8" class="edge"><title>Node1&#45;&gt;Node8</title>
<path fill="none" stroke="midnightblue" d="M282.74,-112.444C317.8,-102.685 374.981,-86.768 411.527,-76.5956"/>
<polygon fill="midnightblue" stroke="midnightblue" points="412.557,-79.9421 421.252,-73.8886 410.68,-73.1984 412.557,-79.9421"/>
</g>
<!-- Node9 -->
<g id="node9" class="node"><title>Node9</title>
<g id="a_node9"><a xlink:href="options_8h.html" target="_top" xlink:title="Handling of global boolean variables. ">
<polygon fill="white" stroke="red" points="489,-56.5 489,-75.5 545,-75.5 545,-56.5 489,-56.5"/>
<text text-anchor="middle" x="517" y="-63.5" font-family="Helvetica,sans-Serif" font-size="10.00">options.h</text>
</a>
</g>
</g>
<!-- Node1&#45;&gt;Node9 -->
<g id="edge9" class="edge"><title>Node1&#45;&gt;Node9</title>
<path fill="none" stroke="midnightblue" d="M293.517,-113.246C339.105,-104.62 414.419,-90.044 479,-76 479.099,-75.9784 479.199,-75.9567 479.299,-75.935"/>
<polygon fill="midnightblue" stroke="midnightblue" points="479.815,-79.4063 488.805,-73.7999 478.281,-72.5765 479.815,-79.4063"/>
</g>
<!-- Node7&#45;&gt;Node5 -->
<g id="edge7" class="edge"><title>Node7&#45;&gt;Node5</title>
<path fill="none" stroke="midnightblue" d="M362.307,-56.324C350.099,-47.979 331.422,-35.2122 316.997,-25.3524"/>
<polygon fill="midnightblue" stroke="midnightblue" points="318.892,-22.4082 308.661,-19.6545 314.942,-28.1871 318.892,-22.4082"/>
</g>
</g>
</svg>
