<?xml version="1.0" encoding="UTF-8" standalone="no"?>
<!DOCTYPE svg PUBLIC "-//W3C//DTD SVG 1.1//EN"
 "http://www.w3.org/Graphics/SVG/1.1/DTD/svg11.dtd">
<!-- Generated by graphviz version 2.36.0 (20140111.2315)
 -->
<!-- Title: mutt_account_fromurl Pages: 1 -->
<svg width="256pt" height="142pt"
 viewBox="0.00 0.00 256.00 142.00" xmlns="http://www.w3.org/2000/svg" xmlns:xlink="http://www.w3.org/1999/xlink">
<g id="graph0" class="graph" transform="scale(1 1) rotate(0) translate(4 138)">
<title>mutt_account_fromurl</title>
<polygon fill="white" stroke="none" points="-4,4 -4,-138 252,-138 252,4 -4,4"/>
<!-- Node1 -->
<g id="node1" class="node"><title>Node1</title>
<polygon fill="#bfbfbf" stroke="black" points="0.5,-57.5 0.5,-76.5 111.5,-76.5 111.5,-57.5 0.5,-57.5"/>
<text text-anchor="middle" x="56" y="-64.5" font-family="Helvetica,sans-Serif" font-size="10.00">mutt_account_fromurl</text>
</g>
<!-- Node2 -->
<g id="node2" class="node"><title>Node2</title>
<g id="a_node2"><a xlink:href="util_8c.html#aebbdfebd6d7aff8e41739a4a8f7f74b4" target="_top" xlink:title="Parse an IMAP mailbox name into name,host,port. ">
<polygon fill="white" stroke="red" points="152.5,-114.5 152.5,-133.5 243.5,-133.5 243.5,-114.5 152.5,-114.5"/>
<text text-anchor="middle" x="198" y="-121.5" font-family="Helvetica,sans-Serif" font-size="10.00">imap_parse_path</text>
</a>
</g>
</g>
<!-- Node1&#45;&gt;Node2 -->
<g id="edge1" class="edge"><title>Node1&#45;&gt;Node2</title>
<path fill="none" stroke="midnightblue" d="M89.0429,-80.6165C106.44,-87.9498 128.351,-97.0895 148,-105 155.787,-108.135 164.305,-111.47 172.024,-114.458"/>
<polygon fill="midnightblue" stroke="midnightblue" points="89.9462,-77.1986 79.3724,-76.5305 87.2217,-83.6466 89.9462,-77.1986"/>
</g>
<!-- Node3 -->
<g id="node3" class="node"><title>Node3</title>
<g id="a_node3"><a xlink:href="nntp_8h.html#ac501636e969731011da557bad742f426" target="_top" xlink:title="Open a connection to an NNTP server. ">
<polygon fill="white" stroke="red" points="148.5,-76.5 148.5,-95.5 247.5,-95.5 247.5,-76.5 148.5,-76.5"/>
<text text-anchor="middle" x="198" y="-83.5" font-family="Helvetica,sans-Serif" font-size="10.00">nntp_select_server</text>
</a>
</g>
</g>
<!-- Node1&#45;&gt;Node3 -->
<g id="edge2" class="edge"><title>Node1&#45;&gt;Node3</title>
<path fill="none" stroke="midnightblue" d="M121.594,-75.7663C130.582,-76.9862 139.69,-78.2223 148.32,-79.3935"/>
<polygon fill="midnightblue" stroke="midnightblue" points="121.908,-72.277 111.529,-74.4003 120.967,-79.2134 121.908,-72.277"/>
</g>
<!-- Node4 -->
<g id="node4" class="node"><title>Node4</title>
<g id="a_node4"><a xlink:href="pop__private_8h.html#a701e7f371e5551a9a68d94905e4bc6b5" target="_top" xlink:title="Parse a POP mailbox name. ">
<polygon fill="white" stroke="red" points="155,-38.5 155,-57.5 241,-57.5 241,-38.5 155,-38.5"/>
<text text-anchor="middle" x="198" y="-45.5" font-family="Helvetica,sans-Serif" font-size="10.00">pop_parse_path</text>
</a>
</g>
</g>
<!-- Node1&#45;&gt;Node4 -->
<g id="edge3" class="edge"><title>Node1&#45;&gt;Node4</title>
<path fill="none" stroke="midnightblue" d="M121.451,-58.2531C132.834,-56.7082 144.415,-55.1366 154.978,-53.703"/>
<polygon fill="midnightblue" stroke="midnightblue" points="120.967,-54.7866 111.529,-59.5997 121.908,-61.723 120.967,-54.7866"/>
</g>
<!-- Node5 -->
<g id="node5" class="node"><title>Node5</title>
<g id="a_node5"><a xlink:href="smtp_8c.html#a1bae1d72999bd75b04f96ef556b5f132" target="_top" xlink:title="Create Account object from SMTP Url. ">
<polygon fill="white" stroke="red" points="151.5,-0.5 151.5,-19.5 244.5,-19.5 244.5,-0.5 151.5,-0.5"/>
<text text-anchor="middle" x="198" y="-7.5" font-family="Helvetica,sans-Serif" font-size="10.00">smtp_fill_account</text>
</a>
</g>
</g>
<!-- Node1&#45;&gt;Node5 -->
<g id="edge4" class="edge"><title>Node1&#45;&gt;Node5</title>
<path fill="none" stroke="midnightblue" d="M89.0429,-53.3835C106.44,-46.0502 128.351,-36.9105 148,-29 155.787,-25.8651 164.305,-22.5295 172.024,-19.5424"/>
<polygon fill="midnightblue" stroke="midnightblue" points="87.2217,-50.3534 79.3724,-57.4695 89.9462,-56.8014 87.2217,-50.3534"/>
</g>
</g>
</svg>
