<?xml version="1.0" encoding="UTF-8" standalone="no"?>
<!DOCTYPE svg PUBLIC "-//W3C//DTD SVG 1.1//EN"
 "http://www.w3.org/Graphics/SVG/1.1/DTD/svg11.dtd">
<!-- Generated by graphviz version 2.36.0 (20140111.2315)
 -->
<!-- Title: mutt_regexlist_add Pages: 1 -->
<svg width="244pt" height="294pt"
 viewBox="0.00 0.00 244.00 294.00" xmlns="http://www.w3.org/2000/svg" xmlns:xlink="http://www.w3.org/1999/xlink">
<g id="graph0" class="graph" transform="scale(1 1) rotate(0) translate(4 290)">
<title>mutt_regexlist_add</title>
<polygon fill="white" stroke="none" points="-4,4 -4,-290 240,-290 240,4 -4,4"/>
<!-- Node1 -->
<g id="node1" class="node"><title>Node1</title>
<polygon fill="#bfbfbf" stroke="black" points="0.5,-133.5 0.5,-152.5 99.5,-152.5 99.5,-133.5 0.5,-133.5"/>
<text text-anchor="middle" x="50" y="-140.5" font-family="Helvetica,sans-Serif" font-size="10.00">mutt_regexlist_add</text>
</g>
<!-- Node2 -->
<g id="node2" class="node"><title>Node2</title>
<g id="a_node2"><a xlink:href="group_8c.html#a3dec0dc31400b69197ffd45839e4b0df" target="_top" xlink:title="Add a Regex to a Group. ">
<polygon fill="white" stroke="red" points="140.5,-266.5 140.5,-285.5 231.5,-285.5 231.5,-266.5 140.5,-266.5"/>
<text text-anchor="middle" x="186" y="-273.5" font-family="Helvetica,sans-Serif" font-size="10.00">group_add_regex</text>
</a>
</g>
</g>
<!-- Node1&#45;&gt;Node2 -->
<g id="edge1" class="edge"><title>Node1&#45;&gt;Node2</title>
<path fill="none" stroke="midnightblue" d="M60.6315,-161.83C74.2732,-186.792 101.453,-230.737 136,-257 141.012,-260.81 146.882,-263.947 152.783,-266.496"/>
<polygon fill="midnightblue" stroke="midnightblue" points="63.5598,-159.881 55.78,-152.689 57.3767,-163.163 63.5598,-159.881"/>
</g>
<!-- Node3 -->
<g id="node3" class="node"><title>Node3</title>
<g id="a_node3"><a xlink:href="init_8c.html#aa4a39513213c0af9653fd8a48d60a749" target="_top" xlink:title="Parse the &#39;alternates&#39; command &#45; Implements command_t. ">
<polygon fill="white" stroke="black" points="141.5,-228.5 141.5,-247.5 230.5,-247.5 230.5,-228.5 141.5,-228.5"/>
<text text-anchor="middle" x="186" y="-235.5" font-family="Helvetica,sans-Serif" font-size="10.00">parse_alternates</text>
</a>
</g>
</g>
<!-- Node1&#45;&gt;Node3 -->
<g id="edge2" class="edge"><title>Node1&#45;&gt;Node3</title>
<path fill="none" stroke="midnightblue" d="M66.5483,-160.115C82.5938,-176.952 109.02,-202.468 136,-219 141.913,-222.623 148.633,-225.769 155.161,-228.403"/>
<polygon fill="midnightblue" stroke="midnightblue" points="68.9334,-157.541 59.5483,-152.625 63.819,-162.321 68.9334,-157.541"/>
</g>
<!-- Node4 -->
<g id="node4" class="node"><title>Node4</title>
<g id="a_node4"><a xlink:href="init_8c.html#a651f6d3c15001ba8a41a3e68e5672681" target="_top" xlink:title="Parse the &#39;lists&#39; command &#45; Implements command_t. ">
<polygon fill="white" stroke="black" points="154,-190.5 154,-209.5 218,-209.5 218,-190.5 154,-190.5"/>
<text text-anchor="middle" x="186" y="-197.5" font-family="Helvetica,sans-Serif" font-size="10.00">parse_lists</text>
</a>
</g>
</g>
<!-- Node1&#45;&gt;Node4 -->
<g id="edge3" class="edge"><title>Node1&#45;&gt;Node4</title>
<path fill="none" stroke="midnightblue" d="M80.9761,-156.845C97.1816,-164.217 117.592,-173.322 136,-181 143.663,-184.196 152.07,-187.521 159.723,-190.479"/>
<polygon fill="midnightblue" stroke="midnightblue" points="82.0348,-153.481 71.4848,-152.507 79.1248,-159.847 82.0348,-153.481"/>
</g>
<!-- Node5 -->
<g id="node5" class="node"><title>Node5</title>
<g id="a_node5"><a xlink:href="init_8c.html#aa472f44caa34ed421f251b87254b3d91" target="_top" xlink:title="Parse the &#39;spam&#39; and &#39;nospam&#39; commands &#45; Implements command_t. ">
<polygon fill="white" stroke="black" points="142,-152.5 142,-171.5 230,-171.5 230,-152.5 142,-152.5"/>
<text text-anchor="middle" x="186" y="-159.5" font-family="Helvetica,sans-Serif" font-size="10.00">parse_spam_list</text>
</a>
</g>
</g>
<!-- Node1&#45;&gt;Node5 -->
<g id="edge4" class="edge"><title>Node1&#45;&gt;Node5</title>
<path fill="none" stroke="midnightblue" d="M109.919,-151.354C120.648,-152.875 131.656,-154.436 141.824,-155.878"/>
<polygon fill="midnightblue" stroke="midnightblue" points="110.148,-147.852 99.7561,-149.913 109.166,-154.782 110.148,-147.852"/>
</g>
<!-- Node6 -->
<g id="node6" class="node"><title>Node6</title>
<g id="a_node6"><a xlink:href="init_8c.html#accb404f874e2b58f3409203b95524d16" target="_top" xlink:title="Parse the &#39;subscribe&#39; command &#45; Implements command_t. ">
<polygon fill="white" stroke="black" points="142,-114.5 142,-133.5 230,-133.5 230,-114.5 142,-114.5"/>
<text text-anchor="middle" x="186" y="-121.5" font-family="Helvetica,sans-Serif" font-size="10.00">parse_subscribe</text>
</a>
</g>
</g>
<!-- Node1&#45;&gt;Node6 -->
<g id="edge5" class="edge"><title>Node1&#45;&gt;Node6</title>
<path fill="none" stroke="midnightblue" d="M109.919,-134.646C120.648,-133.125 131.656,-131.564 141.824,-130.122"/>
<polygon fill="midnightblue" stroke="midnightblue" points="109.166,-131.218 99.7561,-136.087 110.148,-138.148 109.166,-131.218"/>
</g>
<!-- Node7 -->
<g id="node7" class="node"><title>Node7</title>
<g id="a_node7"><a xlink:href="init_8c.html#a74e7ab48a9530cb9159ccca538f757ee" target="_top" xlink:title="Parse the &#39;unalternates&#39; command &#45; Implements command_t. ">
<polygon fill="white" stroke="black" points="136.5,-76.5 136.5,-95.5 235.5,-95.5 235.5,-76.5 136.5,-76.5"/>
<text text-anchor="middle" x="186" y="-83.5" font-family="Helvetica,sans-Serif" font-size="10.00">parse_unalternates</text>
</a>
</g>
</g>
<!-- Node1&#45;&gt;Node7 -->
<g id="edge6" class="edge"><title>Node1&#45;&gt;Node7</title>
<path fill="none" stroke="midnightblue" d="M80.9761,-129.155C97.1816,-121.783 117.592,-112.678 136,-105 143.663,-101.804 152.07,-98.4791 159.723,-95.5211"/>
<polygon fill="midnightblue" stroke="midnightblue" points="79.1248,-126.153 71.4848,-133.493 82.0348,-132.519 79.1248,-126.153"/>
</g>
<!-- Node8 -->
<g id="node8" class="node"><title>Node8</title>
<g id="a_node8"><a xlink:href="init_8c.html#a8564d65e7abe8a05348c3f8c56132bcc" target="_top" xlink:title="Parse the &#39;unlists&#39; command &#45; Implements command_t. ">
<polygon fill="white" stroke="black" points="149,-38.5 149,-57.5 223,-57.5 223,-38.5 149,-38.5"/>
<text text-anchor="middle" x="186" y="-45.5" font-family="Helvetica,sans-Serif" font-size="10.00">parse_unlists</text>
</a>
</g>
</g>
<!-- Node1&#45;&gt;Node8 -->
<g id="edge7" class="edge"><title>Node1&#45;&gt;Node8</title>
<path fill="none" stroke="midnightblue" d="M66.5483,-125.885C82.5938,-109.048 109.02,-83.5315 136,-67 141.913,-63.3771 148.633,-60.2308 155.161,-57.5973"/>
<polygon fill="midnightblue" stroke="midnightblue" points="63.819,-123.679 59.5483,-133.375 68.9334,-128.459 63.819,-123.679"/>
</g>
<!-- Node9 -->
<g id="node9" class="node"><title>Node9</title>
<g id="a_node9"><a xlink:href="init_8c.html#ab813d129490339e4345c66e57251efdf" target="_top" xlink:title="Parse the &#39;unsubscribe&#39; command &#45; Implements command_t. ">
<polygon fill="white" stroke="black" points="137,-0.5 137,-19.5 235,-19.5 235,-0.5 137,-0.5"/>
<text text-anchor="middle" x="186" y="-7.5" font-family="Helvetica,sans-Serif" font-size="10.00">parse_unsubscribe</text>
</a>
</g>
</g>
<!-- Node1&#45;&gt;Node9 -->
<g id="edge8" class="edge"><title>Node1&#45;&gt;Node9</title>
<path fill="none" stroke="midnightblue" d="M60.6315,-124.17C74.2732,-99.2082 101.453,-55.263 136,-29 141.012,-25.1899 146.882,-22.0534 152.783,-19.5042"/>
<polygon fill="midnightblue" stroke="midnightblue" points="57.3767,-122.837 55.78,-133.311 63.5598,-126.119 57.3767,-122.837"/>
</g>
</g>
</svg>
