<?xml version="1.0" encoding="UTF-8" standalone="no"?>
<!DOCTYPE svg PUBLIC "-//W3C//DTD SVG 1.1//EN"
 "http://www.w3.org/Graphics/SVG/1.1/DTD/svg11.dtd">
<!-- Generated by graphviz version 2.36.0 (20140111.2315)
 -->
<!-- Title: mutt_resize_screen Pages: 1 -->
<svg width="242pt" height="294pt"
 viewBox="0.00 0.00 242.00 294.00" xmlns="http://www.w3.org/2000/svg" xmlns:xlink="http://www.w3.org/1999/xlink">
<g id="graph0" class="graph" transform="scale(1 1) rotate(0) translate(4 290)">
<title>mutt_resize_screen</title>
<polygon fill="white" stroke="none" points="-4,4 -4,-290 238,-290 238,4 -4,4"/>
<!-- Node1 -->
<g id="node1" class="node"><title>Node1</title>
<polygon fill="#bfbfbf" stroke="black" points="0,-133.5 0,-152.5 102,-152.5 102,-133.5 0,-133.5"/>
<text text-anchor="middle" x="51" y="-140.5" font-family="Helvetica,sans-Serif" font-size="10.00">mutt_resize_screen</text>
</g>
<!-- Node2 -->
<g id="node2" class="node"><title>Node2</title>
<g id="a_node2"><a xlink:href="curs__lib_8h.html#a704f10745bab754036dc28ccf85a086b" target="_top" xlink:title="Ask the user for a string. ">
<polygon fill="white" stroke="red" points="138,-266.5 138,-285.5 234,-285.5 234,-266.5 138,-266.5"/>
<text text-anchor="middle" x="186" y="-273.5" font-family="Helvetica,sans-Serif" font-size="10.00">mutt_get_field_full</text>
</a>
</g>
</g>
<!-- Node1&#45;&gt;Node2 -->
<g id="edge1" class="edge"><title>Node1&#45;&gt;Node2</title>
<path fill="none" stroke="midnightblue" d="M61.8553,-161.753C75.7821,-186.628 103.422,-230.476 138,-257 142.888,-260.75 148.618,-263.869 154.362,-266.423"/>
<polygon fill="midnightblue" stroke="midnightblue" points="64.7531,-159.756 56.8975,-152.646 58.6051,-163.103 64.7531,-159.756"/>
</g>
<!-- Node3 -->
<g id="node3" class="node"><title>Node3</title>
<g id="a_node3"><a xlink:href="curs__lib_8h.html#a0590f11f42a6242002ea4c842438231b" target="_top" xlink:title="Let the user edit a file. ">
<polygon fill="white" stroke="red" points="148.5,-228.5 148.5,-247.5 223.5,-247.5 223.5,-228.5 148.5,-228.5"/>
<text text-anchor="middle" x="186" y="-235.5" font-family="Helvetica,sans-Serif" font-size="10.00">mutt_edit_file</text>
</a>
</g>
</g>
<!-- Node1&#45;&gt;Node3 -->
<g id="edge2" class="edge"><title>Node1&#45;&gt;Node3</title>
<path fill="none" stroke="midnightblue" d="M67.8206,-160.021C84.1242,-176.784 110.914,-202.245 138,-219 143.838,-222.611 150.482,-225.786 156.899,-228.455"/>
<polygon fill="midnightblue" stroke="midnightblue" points="70.1409,-157.383 60.704,-152.566 65.0778,-162.216 70.1409,-157.383"/>
</g>
<!-- Node4 -->
<g id="node4" class="node"><title>Node4</title>
<g id="a_node4"><a xlink:href="curs__lib_8h.html#a2ac481c92c3c888c1f658696909a3430" target="_top" xlink:title="Ask the user a Yes/No question. ">
<polygon fill="white" stroke="red" points="148,-190.5 148,-209.5 224,-209.5 224,-190.5 148,-190.5"/>
<text text-anchor="middle" x="186" y="-197.5" font-family="Helvetica,sans-Serif" font-size="10.00">mutt_yesorno</text>
</a>
</g>
</g>
<!-- Node1&#45;&gt;Node4 -->
<g id="edge3" class="edge"><title>Node1&#45;&gt;Node4</title>
<path fill="none" stroke="midnightblue" d="M82.258,-156.652C98.6924,-163.995 119.4,-173.134 138,-181 145.458,-184.154 153.625,-187.495 161.029,-190.481"/>
<polygon fill="midnightblue" stroke="midnightblue" points="83.6807,-153.454 73.1238,-152.559 80.8181,-159.842 83.6807,-153.454"/>
</g>
<!-- Node5 -->
<g id="node5" class="node"><title>Node5</title>
<g id="a_node5"><a xlink:href="curs__lib_8h.html#ad254729612c853695367042b7c964d64" target="_top" xlink:title="Offer the user a multiple choice question. ">
<polygon fill="white" stroke="red" points="138,-152.5 138,-171.5 234,-171.5 234,-152.5 138,-152.5"/>
<text text-anchor="middle" x="186" y="-159.5" font-family="Helvetica,sans-Serif" font-size="10.00">mutt_multi_choice</text>
</a>
</g>
</g>
<!-- Node1&#45;&gt;Node5 -->
<g id="edge4" class="edge"><title>Node1&#45;&gt;Node5</title>
<path fill="none" stroke="midnightblue" d="M112.221,-151.603C120.772,-152.825 129.462,-154.066 137.72,-155.246"/>
<polygon fill="midnightblue" stroke="midnightblue" points="112.676,-148.133 102.282,-150.183 111.686,-155.062 112.676,-148.133"/>
</g>
<!-- Node6 -->
<g id="node6" class="node"><title>Node6</title>
<g id="a_node6"><a xlink:href="curs__main_8h.html#af7d9d8649ad205788c9af1bbf871207f" target="_top" xlink:title="Display a list of emails. ">
<polygon fill="white" stroke="red" points="139,-114.5 139,-133.5 233,-133.5 233,-114.5 139,-114.5"/>
<text text-anchor="middle" x="186" y="-121.5" font-family="Helvetica,sans-Serif" font-size="10.00">mutt_index_menu</text>
</a>
</g>
</g>
<!-- Node1&#45;&gt;Node6 -->
<g id="edge5" class="edge"><title>Node1&#45;&gt;Node6</title>
<path fill="none" stroke="midnightblue" d="M112.189,-134.402C121.051,-133.136 130.064,-131.848 138.591,-130.63"/>
<polygon fill="midnightblue" stroke="midnightblue" points="111.686,-130.938 102.282,-135.817 112.676,-137.867 111.686,-130.938"/>
</g>
<!-- Node7 -->
<g id="node7" class="node"><title>Node7</title>
<g id="a_node7"><a xlink:href="protos_8h.html#a2a8b6785cfa3536429d1deb6d9959e5c" target="_top" xlink:title="Ask the user for a string. ">
<polygon fill="white" stroke="red" points="140,-76.5 140,-95.5 232,-95.5 232,-76.5 140,-76.5"/>
<text text-anchor="middle" x="186" y="-83.5" font-family="Helvetica,sans-Serif" font-size="10.00">mutt_enter_string</text>
</a>
</g>
</g>
<!-- Node1&#45;&gt;Node7 -->
<g id="edge6" class="edge"><title>Node1&#45;&gt;Node7</title>
<path fill="none" stroke="midnightblue" d="M82.258,-129.348C98.6924,-122.005 119.4,-112.866 138,-105 145.458,-101.846 153.625,-98.505 161.029,-95.5189"/>
<polygon fill="midnightblue" stroke="midnightblue" points="80.8181,-126.158 73.1238,-133.441 83.6807,-132.546 80.8181,-126.158"/>
</g>
<!-- Node8 -->
<g id="node8" class="node"><title>Node8</title>
<g id="a_node8"><a xlink:href="menu_8h.html#a2a7161a4171307d15f2362f5d55dfdb1" target="_top" xlink:title="Menu event loop. ">
<polygon fill="white" stroke="red" points="141.5,-38.5 141.5,-57.5 230.5,-57.5 230.5,-38.5 141.5,-38.5"/>
<text text-anchor="middle" x="186" y="-45.5" font-family="Helvetica,sans-Serif" font-size="10.00">mutt_menu_loop</text>
</a>
</g>
</g>
<!-- Node1&#45;&gt;Node8 -->
<g id="edge7" class="edge"><title>Node1&#45;&gt;Node8</title>
<path fill="none" stroke="midnightblue" d="M67.8206,-125.979C84.1242,-109.216 110.914,-83.7545 138,-67 143.838,-63.3886 150.482,-60.2141 156.899,-57.5454"/>
<polygon fill="midnightblue" stroke="midnightblue" points="65.0778,-123.784 60.704,-133.434 70.1409,-128.617 65.0778,-123.784"/>
</g>
<!-- Node9 -->
<g id="node9" class="node"><title>Node9</title>
<g id="a_node9"><a xlink:href="pager_8h.html#a1f4fb11389135c8767d9c4adca46f0d4" target="_top" xlink:title="Display a file, or help, in a window. ">
<polygon fill="white" stroke="red" points="153.5,-0.5 153.5,-19.5 218.5,-19.5 218.5,-0.5 153.5,-0.5"/>
<text text-anchor="middle" x="186" y="-7.5" font-family="Helvetica,sans-Serif" font-size="10.00">mutt_pager</text>
</a>
</g>
</g>
<!-- Node1&#45;&gt;Node9 -->
<g id="edge8" class="edge"><title>Node1&#45;&gt;Node9</title>
<path fill="none" stroke="midnightblue" d="M61.8553,-124.247C75.7821,-99.3715 103.422,-55.5236 138,-29 142.888,-25.2503 148.618,-22.1306 154.362,-19.5768"/>
<polygon fill="midnightblue" stroke="midnightblue" points="58.6051,-122.897 56.8975,-133.354 64.7531,-126.244 58.6051,-122.897"/>
</g>
</g>
</svg>
