<?xml version="1.0" encoding="UTF-8" standalone="no"?>
<!DOCTYPE svg PUBLIC "-//W3C//DTD SVG 1.1//EN"
 "http://www.w3.org/Graphics/SVG/1.1/DTD/svg11.dtd">
<!-- Generated by graphviz version 2.36.0 (20140111.2315)
 -->
<!-- Title: nm_tags_commit Pages: 1 -->
<svg width="252pt" height="332pt"
 viewBox="0.00 0.00 252.00 332.00" xmlns="http://www.w3.org/2000/svg" xmlns:xlink="http://www.w3.org/1999/xlink">
<g id="graph0" class="graph" transform="scale(1 1) rotate(0) translate(4 328)">
<title>nm_tags_commit</title>
<polygon fill="white" stroke="none" points="-4,4 -4,-328 248,-328 248,4 -4,4"/>
<!-- Node1 -->
<g id="node1" class="node"><title>Node1</title>
<polygon fill="#bfbfbf" stroke="black" points="0,-152.5 0,-171.5 92,-171.5 92,-152.5 0,-152.5"/>
<text text-anchor="middle" x="46" y="-159.5" font-family="Helvetica,sans-Serif" font-size="10.00">nm_tags_commit</text>
</g>
<!-- Node2 -->
<g id="node2" class="node"><title>Node2</title>
<g id="a_node2"><a xlink:href="mutt__notmuch_8c.html#a42d3d7558a84c64d5ad1ed20ba7db6a9" target="_top" xlink:title="Get the Notmuch data. ">
<polygon fill="white" stroke="black" points="152,-304.5 152,-323.5 220,-323.5 220,-304.5 152,-304.5"/>
<text text-anchor="middle" x="186" y="-311.5" font-family="Helvetica,sans-Serif" font-size="10.00">get_ctxdata</text>
</a>
</g>
</g>
<!-- Node1&#45;&gt;Node2 -->
<g id="edge1" class="edge"><title>Node1&#45;&gt;Node2</title>
<path fill="none" stroke="midnightblue" d="M50.2023,-171.62C58.7879,-195.953 84.6537,-260.464 128,-295 132.334,-298.453 137.324,-301.291 142.511,-303.621"/>
<polygon fill="midnightblue" stroke="midnightblue" points="141.372,-306.933 151.961,-307.289 143.905,-300.408 141.372,-306.933"/>
</g>
<!-- Node3 -->
<g id="node3" class="node"><title>Node3</title>
<g id="a_node3"><a xlink:href="mutt__notmuch_8c.html#aa70d84c620de4ce4b1c48d32d428bccc" target="_top" xlink:title="Get the Notmuch database. ">
<polygon fill="white" stroke="red" points="163,-266.5 163,-285.5 209,-285.5 209,-266.5 163,-266.5"/>
<text text-anchor="middle" x="186" y="-273.5" font-family="Helvetica,sans-Serif" font-size="10.00">get_db</text>
</a>
</g>
</g>
<!-- Node1&#45;&gt;Node3 -->
<g id="edge2" class="edge"><title>Node1&#45;&gt;Node3</title>
<path fill="none" stroke="midnightblue" d="M52.6364,-171.586C64.3025,-190.619 92.9573,-233.371 128,-257 135.522,-262.072 144.511,-265.89 153.103,-268.722"/>
<polygon fill="midnightblue" stroke="midnightblue" points="152.313,-272.138 162.895,-271.608 154.293,-265.424 152.313,-272.138"/>
</g>
<!-- Node4 -->
<g id="node4" class="node"><title>Node4</title>
<g id="a_node4"><a xlink:href="mutt__notmuch_8c.html#a979d619b8282749fbd0b4f1684b9ea3e" target="_top" xlink:title="Find a Notmuch message. ">
<polygon fill="white" stroke="red" points="139,-228.5 139,-247.5 233,-247.5 233,-228.5 139,-228.5"/>
<text text-anchor="middle" x="186" y="-235.5" font-family="Helvetica,sans-Serif" font-size="10.00">get_nm_message</text>
</a>
</g>
</g>
<!-- Node1&#45;&gt;Node4 -->
<g id="edge3" class="edge"><title>Node1&#45;&gt;Node4</title>
<path fill="none" stroke="midnightblue" d="M58.3866,-171.648C73.4691,-184.03 101.29,-205.517 128,-219 132.257,-221.149 136.812,-223.137 141.422,-224.952"/>
<polygon fill="midnightblue" stroke="midnightblue" points="140.291,-228.265 150.885,-228.432 142.707,-221.695 140.291,-228.265"/>
</g>
<!-- Node5 -->
<g id="node5" class="node"><title>Node5</title>
<g id="a_node5"><a xlink:href="mutt__notmuch_8c.html#a745c6210b7b6364f6b052e34f0cfcd2b" target="_top" xlink:title="Update the tags on a message. ">
<polygon fill="white" stroke="red" points="151,-190.5 151,-209.5 221,-209.5 221,-190.5 151,-190.5"/>
<text text-anchor="middle" x="186" y="-197.5" font-family="Helvetica,sans-Serif" font-size="10.00">update_tags</text>
</a>
</g>
</g>
<!-- Node1&#45;&gt;Node5 -->
<g id="edge4" class="edge"><title>Node1&#45;&gt;Node5</title>
<path fill="none" stroke="midnightblue" d="M81.8232,-171.589C99.7737,-176.532 121.853,-182.612 140.974,-187.877"/>
<polygon fill="midnightblue" stroke="midnightblue" points="140.096,-191.265 150.666,-190.546 141.954,-184.516 140.096,-191.265"/>
</g>
<!-- Node6 -->
<g id="node6" class="node"><title>Node6</title>
<g id="a_node6"><a xlink:href="mutt__notmuch_8c.html#a91766a5d2bce8e4d5a1b582f2b06d1a8" target="_top" xlink:title="Update the header flags. ">
<polygon fill="white" stroke="red" points="132.5,-152.5 132.5,-171.5 239.5,-171.5 239.5,-152.5 132.5,-152.5"/>
<text text-anchor="middle" x="186" y="-159.5" font-family="Helvetica,sans-Serif" font-size="10.00">update_header_flags</text>
</a>
</g>
</g>
<!-- Node1&#45;&gt;Node6 -->
<g id="edge5" class="edge"><title>Node1&#45;&gt;Node6</title>
<path fill="none" stroke="midnightblue" d="M92.1864,-162C101.638,-162 111.768,-162 121.738,-162"/>
<polygon fill="midnightblue" stroke="midnightblue" points="122.034,-165.5 132.034,-162 122.034,-158.5 122.034,-165.5"/>
</g>
<!-- Node7 -->
<g id="node7" class="node"><title>Node7</title>
<g id="a_node7"><a xlink:href="mutt__notmuch_8c.html#a739b1ab09985b62235f7c587e2d17a95" target="_top" xlink:title="Update the Header&#39;s tags from Notmuch. ">
<polygon fill="white" stroke="red" points="134,-114.5 134,-133.5 238,-133.5 238,-114.5 134,-114.5"/>
<text text-anchor="middle" x="186" y="-121.5" font-family="Helvetica,sans-Serif" font-size="10.00">update_header_tags</text>
</a>
</g>
</g>
<!-- Node1&#45;&gt;Node7 -->
<g id="edge6" class="edge"><title>Node1&#45;&gt;Node7</title>
<path fill="none" stroke="midnightblue" d="M81.8232,-152.411C99.6377,-147.506 121.518,-141.48 140.539,-136.243"/>
<polygon fill="midnightblue" stroke="midnightblue" points="141.476,-139.615 150.188,-133.586 139.618,-132.866 141.476,-139.615"/>
</g>
<!-- Node8 -->
<g id="node8" class="node"><title>Node8</title>
<g id="a_node8"><a xlink:href="curs__main_8c.html#ab0b068f615db8886ab306cbd8a297e01" target="_top" xlink:title="Select a colour for a message. ">
<polygon fill="white" stroke="red" points="128,-76.5 128,-95.5 244,-95.5 244,-76.5 128,-76.5"/>
<text text-anchor="middle" x="186" y="-83.5" font-family="Helvetica,sans-Serif" font-size="10.00">mutt_set_header_color</text>
</a>
</g>
</g>
<!-- Node1&#45;&gt;Node8 -->
<g id="edge7" class="edge"><title>Node1&#45;&gt;Node8</title>
<path fill="none" stroke="midnightblue" d="M58.3866,-152.352C73.4691,-139.97 101.29,-118.483 128,-105 132.257,-102.851 136.812,-100.863 141.422,-99.0484"/>
<polygon fill="midnightblue" stroke="midnightblue" points="142.707,-102.305 150.885,-95.5685 140.291,-95.7351 142.707,-102.305"/>
</g>
<!-- Node9 -->
<g id="node9" class="node"><title>Node9</title>
<g id="a_node9"><a xlink:href="mutt__notmuch_8c.html#ae8f27b72be837d5e1cb9b77ec8673f14" target="_top" xlink:title="Is Notmuch in the middle of a long&#45;running transaction. ">
<polygon fill="white" stroke="black" points="155.5,-38.5 155.5,-57.5 216.5,-57.5 216.5,-38.5 155.5,-38.5"/>
<text text-anchor="middle" x="186" y="-45.5" font-family="Helvetica,sans-Serif" font-size="10.00">is_longrun</text>
</a>
</g>
</g>
<!-- Node1&#45;&gt;Node9 -->
<g id="edge8" class="edge"><title>Node1&#45;&gt;Node9</title>
<path fill="none" stroke="midnightblue" d="M52.6364,-152.414C64.3025,-133.381 92.9573,-90.629 128,-67 133.392,-63.3643 139.538,-60.3725 145.751,-57.9268"/>
<polygon fill="midnightblue" stroke="midnightblue" points="147.193,-61.1303 155.472,-54.5187 144.877,-54.5245 147.193,-61.1303"/>
</g>
<!-- Node10 -->
<g id="node10" class="node"><title>Node10</title>
<g id="a_node10"><a xlink:href="mutt__notmuch_8c.html#ad59dad043d60e9c4fdeca9ff435dffbd" target="_top" xlink:title="Close the Notmuch database. ">
<polygon fill="white" stroke="black" points="154,-0.5 154,-19.5 218,-19.5 218,-0.5 154,-0.5"/>
<text text-anchor="middle" x="186" y="-7.5" font-family="Helvetica,sans-Serif" font-size="10.00">release_db</text>
</a>
</g>
</g>
<!-- Node1&#45;&gt;Node10 -->
<g id="edge9" class="edge"><title>Node1&#45;&gt;Node10</title>
<path fill="none" stroke="midnightblue" d="M50.2023,-152.38C58.7879,-128.047 84.6537,-63.5364 128,-29 132.756,-25.2106 138.302,-22.1618 144.031,-19.7128"/>
<polygon fill="midnightblue" stroke="midnightblue" points="145.568,-22.8766 153.739,-16.1326 143.146,-16.3089 145.568,-22.8766"/>
</g>
</g>
</svg>
