<?xml version="1.0" encoding="UTF-8" standalone="no"?>
<!DOCTYPE svg PUBLIC "-//W3C//DTD SVG 1.1//EN"
 "http://www.w3.org/Graphics/SVG/1.1/DTD/svg11.dtd">
<!-- Generated by graphviz version 2.36.0 (20140111.2315)
 -->
<!-- Title: append_replies Pages: 1 -->
<svg width="220pt" height="28pt"
 viewBox="0.00 0.00 220.00 28.00" xmlns="http://www.w3.org/2000/svg" xmlns:xlink="http://www.w3.org/1999/xlink">
<g id="graph0" class="graph" transform="scale(1 1) rotate(0) translate(4 24)">
<title>append_replies</title>
<polygon fill="white" stroke="none" points="-4,4 -4,-24 216,-24 216,4 -4,4"/>
<!-- Node1 -->
<g id="node1" class="node"><title>Node1</title>
<polygon fill="#bfbfbf" stroke="black" points="0,-0.5 0,-19.5 82,-19.5 82,-0.5 0,-0.5"/>
<text text-anchor="middle" x="41" y="-7.5" font-family="Helvetica,sans-Serif" font-size="10.00">append_replies</text>
</g>
<!-- Node2 -->
<g id="node2" class="node"><title>Node2</title>
<g id="a_node2"><a xlink:href="mutt__notmuch_8c.html#ab829d343fdc673fe2a1a82157ed5fcc8" target="_top" xlink:title="Associate a message. ">
<polygon fill="white" stroke="red" points="118.5,-0.5 118.5,-19.5 211.5,-19.5 211.5,-0.5 118.5,-0.5"/>
<text text-anchor="middle" x="165" y="-7.5" font-family="Helvetica,sans-Serif" font-size="10.00">append_message</text>
</a>
</g>
</g>
<!-- Node1&#45;&gt;Node2 -->
<g id="edge1" class="edge"><title>Node1&#45;&gt;Node2</title>
<path fill="none" stroke="midnightblue" d="M82.2855,-10C90.5665,-10 99.4254,-10 108.143,-10"/>
<polygon fill="midnightblue" stroke="midnightblue" points="108.269,-13.5001 118.269,-10 108.269,-6.5001 108.269,-13.5001"/>
</g>
</g>
</svg>
