<?xml version="1.0" encoding="UTF-8" standalone="no"?>
<!DOCTYPE svg PUBLIC "-//W3C//DTD SVG 1.1//EN"
 "http://www.w3.org/Graphics/SVG/1.1/DTD/svg11.dtd">
<!-- Generated by graphviz version 2.36.0 (20140111.2315)
 -->
<!-- Title: mutt_make_id_hash Pages: 1 -->
<svg width="244pt" height="66pt"
 viewBox="0.00 0.00 244.00 66.00" xmlns="http://www.w3.org/2000/svg" xmlns:xlink="http://www.w3.org/1999/xlink">
<g id="graph0" class="graph" transform="scale(1 1) rotate(0) translate(4 62)">
<title>mutt_make_id_hash</title>
<polygon fill="white" stroke="none" points="-4,4 -4,-62 240,-62 240,4 -4,4"/>
<!-- Node1 -->
<g id="node1" class="node"><title>Node1</title>
<polygon fill="#bfbfbf" stroke="black" points="0,-19.5 0,-38.5 104,-38.5 104,-19.5 0,-19.5"/>
<text text-anchor="middle" x="52" y="-26.5" font-family="Helvetica,sans-Serif" font-size="10.00">mutt_make_id_hash</text>
</g>
<!-- Node2 -->
<g id="node2" class="node"><title>Node2</title>
<g id="a_node2"><a xlink:href="hash_8c.html#a2ace410f9c8a6b3edffdd842d1347b2e" target="_top" xlink:title="Create a new Hash table (with string keys) ">
<polygon fill="white" stroke="red" points="140.5,-38.5 140.5,-57.5 235.5,-57.5 235.5,-38.5 140.5,-38.5"/>
<text text-anchor="middle" x="188" y="-45.5" font-family="Helvetica,sans-Serif" font-size="10.00">mutt_hash_create</text>
</a>
</g>
</g>
<!-- Node1&#45;&gt;Node2 -->
<g id="edge1" class="edge"><title>Node1&#45;&gt;Node2</title>
<path fill="none" stroke="midnightblue" d="M104.042,-36.2373C112.654,-37.4584 121.639,-38.7324 130.383,-39.9722"/>
<polygon fill="midnightblue" stroke="midnightblue" points="130.107,-43.468 140.499,-41.4066 131.09,-36.5373 130.107,-43.468"/>
</g>
<!-- Node3 -->
<g id="node3" class="node"><title>Node3</title>
<g id="a_node3"><a xlink:href="hash_8c.html#a9b87f06a415a57b428ec196857a03e9e" target="_top" xlink:title="Add a new element to the Hash table (with string keys) ">
<polygon fill="white" stroke="red" points="142,-0.5 142,-19.5 234,-19.5 234,-0.5 142,-0.5"/>
<text text-anchor="middle" x="188" y="-7.5" font-family="Helvetica,sans-Serif" font-size="10.00">mutt_hash_insert</text>
</a>
</g>
</g>
<!-- Node1&#45;&gt;Node3 -->
<g id="edge2" class="edge"><title>Node1&#45;&gt;Node3</title>
<path fill="none" stroke="midnightblue" d="M104.042,-21.7627C113.07,-20.4826 122.508,-19.1444 131.648,-17.8484"/>
<polygon fill="midnightblue" stroke="midnightblue" points="132.393,-21.2778 141.803,-16.4085 131.411,-14.3471 132.393,-21.2778"/>
</g>
</g>
</svg>
