<?xml version="1.0" encoding="UTF-8" standalone="no"?>
<!DOCTYPE svg PUBLIC "-//W3C//DTD SVG 1.1//EN"
 "http://www.w3.org/Graphics/SVG/1.1/DTD/svg11.dtd">
<!-- Generated by graphviz version 2.36.0 (20140111.2315)
 -->
<!-- Title: nm_debug_check Pages: 1 -->
<svg width="206pt" height="66pt"
 viewBox="0.00 0.00 206.00 66.00" xmlns="http://www.w3.org/2000/svg" xmlns:xlink="http://www.w3.org/1999/xlink">
<g id="graph0" class="graph" transform="scale(1 1) rotate(0) translate(4 62)">
<title>nm_debug_check</title>
<polygon fill="white" stroke="none" points="-4,4 -4,-62 202,-62 202,4 -4,4"/>
<!-- Node1 -->
<g id="node1" class="node"><title>Node1</title>
<polygon fill="#bfbfbf" stroke="black" points="0.5,-19.5 0.5,-38.5 93.5,-38.5 93.5,-19.5 0.5,-19.5"/>
<text text-anchor="middle" x="47" y="-26.5" font-family="Helvetica,sans-Serif" font-size="10.00">nm_debug_check</text>
</g>
<!-- Node2 -->
<g id="node2" class="node"><title>Node2</title>
<g id="a_node2"><a xlink:href="mutt__notmuch_8c.html#a42d3d7558a84c64d5ad1ed20ba7db6a9" target="_top" xlink:title="Get the Notmuch data. ">
<polygon fill="white" stroke="black" points="130,-38.5 130,-57.5 198,-57.5 198,-38.5 130,-38.5"/>
<text text-anchor="middle" x="164" y="-45.5" font-family="Helvetica,sans-Serif" font-size="10.00">get_ctxdata</text>
</a>
</g>
</g>
<!-- Node1&#45;&gt;Node2 -->
<g id="edge1" class="edge"><title>Node1&#45;&gt;Node2</title>
<path fill="none" stroke="midnightblue" d="M93.7815,-36.5639C102.331,-37.9765 111.242,-39.4487 119.714,-40.8484"/>
<polygon fill="midnightblue" stroke="midnightblue" points="119.339,-44.3338 129.776,-42.5108 120.48,-37.4274 119.339,-44.3338"/>
</g>
<!-- Node3 -->
<g id="node3" class="node"><title>Node3</title>
<g id="a_node3"><a xlink:href="mutt__notmuch_8c.html#ad59dad043d60e9c4fdeca9ff435dffbd" target="_top" xlink:title="Close the Notmuch database. ">
<polygon fill="white" stroke="black" points="132,-0.5 132,-19.5 196,-19.5 196,-0.5 132,-0.5"/>
<text text-anchor="middle" x="164" y="-7.5" font-family="Helvetica,sans-Serif" font-size="10.00">release_db</text>
</a>
</g>
</g>
<!-- Node1&#45;&gt;Node3 -->
<g id="edge2" class="edge"><title>Node1&#45;&gt;Node3</title>
<path fill="none" stroke="midnightblue" d="M93.7815,-21.4361C103.065,-19.9022 112.775,-18.2981 121.886,-16.7928"/>
<polygon fill="midnightblue" stroke="midnightblue" points="122.567,-20.2278 131.863,-15.1444 121.426,-13.3214 122.567,-20.2278"/>
</g>
</g>
</svg>
