<?xml version="1.0" encoding="UTF-8" standalone="no"?>
<!DOCTYPE svg PUBLIC "-//W3C//DTD SVG 1.1//EN"
 "http://www.w3.org/Graphics/SVG/1.1/DTD/svg11.dtd">
<!-- Generated by graphviz version 2.36.0 (20140111.2315)
 -->
<!-- Title: history_entry Pages: 1 -->
<svg width="230pt" height="84pt"
 viewBox="0.00 0.00 230.00 84.00" xmlns="http://www.w3.org/2000/svg" xmlns:xlink="http://www.w3.org/1999/xlink">
<g id="graph0" class="graph" transform="scale(1 1) rotate(0) translate(4 80)">
<title>history_entry</title>
<polygon fill="white" stroke="none" points="-4,4 -4,-80 226,-80 226,4 -4,4"/>
<!-- Node1 -->
<g id="node1" class="node"><title>Node1</title>
<polygon fill="#bfbfbf" stroke="black" points="0.5,-19.5 0.5,-38.5 73.5,-38.5 73.5,-19.5 0.5,-19.5"/>
<text text-anchor="middle" x="37" y="-26.5" font-family="Helvetica,sans-Serif" font-size="10.00">history_entry</text>
</g>
<!-- Node2 -->
<g id="node2" class="node"><title>Node2</title>
<g id="a_node2"><a xlink:href="muttlib_8c.html#a5efffe8bf1716c24b902f42e1d2166a0" target="_top" xlink:title="Expand expandos (x) in a string. ">
<polygon fill="white" stroke="red" points="110.5,-38.5 110.5,-57.5 221.5,-57.5 221.5,-38.5 110.5,-38.5"/>
<text text-anchor="middle" x="166" y="-45.5" font-family="Helvetica,sans-Serif" font-size="10.00">mutt_expando_format</text>
</a>
</g>
</g>
<!-- Node1&#45;&gt;Node2 -->
<g id="edge1" class="edge"><title>Node1&#45;&gt;Node2</title>
<path fill="none" stroke="midnightblue" d="M73.7146,-34.3431C81.9235,-35.5712 90.9042,-36.9148 99.9273,-38.2647"/>
<polygon fill="midnightblue" stroke="midnightblue" points="99.6859,-41.7675 110.094,-39.7857 100.722,-34.8445 99.6859,-41.7675"/>
</g>
<!-- Node3 -->
<g id="node3" class="node"><title>Node3</title>
<g id="a_node3"><a xlink:href="mutt__history_8c.html#a53d38440d455485d4a592eacc733e9a6" target="_top" xlink:title="Format a string for the history list &#45; Implements format_t. ">
<polygon fill="white" stroke="red" points="118.5,-0.5 118.5,-19.5 213.5,-19.5 213.5,-0.5 118.5,-0.5"/>
<text text-anchor="middle" x="166" y="-7.5" font-family="Helvetica,sans-Serif" font-size="10.00">history_format_str</text>
</a>
</g>
</g>
<!-- Node1&#45;&gt;Node3 -->
<g id="edge3" class="edge"><title>Node1&#45;&gt;Node3</title>
<path fill="none" stroke="midnightblue" d="M73.7146,-23.6569C84.3824,-22.0609 96.3536,-20.2699 108.027,-18.5235"/>
<polygon fill="midnightblue" stroke="midnightblue" points="108.797,-21.9473 118.169,-17.0062 107.761,-15.0244 108.797,-21.9473"/>
</g>
<!-- Node2&#45;&gt;Node2 -->
<g id="edge2" class="edge"><title>Node2&#45;&gt;Node2</title>
<path fill="none" stroke="midnightblue" d="M146.271,-57.7571C136.674,-66.5653 143.25,-76 166,-76 180.574,-76 188.511,-72.128 189.809,-67.0292"/>
<polygon fill="midnightblue" stroke="midnightblue" points="192.96,-65.4998 185.729,-57.7571 186.553,-68.3197 192.96,-65.4998"/>
</g>
</g>
</svg>
