<?xml version="1.0" encoding="UTF-8" standalone="no"?>
<!DOCTYPE svg PUBLIC "-//W3C//DTD SVG 1.1//EN"
 "http://www.w3.org/Graphics/SVG/1.1/DTD/svg11.dtd">
<!-- Generated by graphviz version 2.36.0 (20140111.2315)
 -->
<!-- Title: mutt_save_path Pages: 1 -->
<svg width="218pt" height="66pt"
 viewBox="0.00 0.00 218.00 66.00" xmlns="http://www.w3.org/2000/svg" xmlns:xlink="http://www.w3.org/1999/xlink">
<g id="graph0" class="graph" transform="scale(1 1) rotate(0) translate(4 62)">
<title>mutt_save_path</title>
<polygon fill="white" stroke="none" points="-4,4 -4,-62 214,-62 214,4 -4,4"/>
<!-- Node1 -->
<g id="node1" class="node"><title>Node1</title>
<polygon fill="#bfbfbf" stroke="black" points="0,-19.5 0,-38.5 86,-38.5 86,-19.5 0,-19.5"/>
<text text-anchor="middle" x="43" y="-26.5" font-family="Helvetica,sans-Serif" font-size="10.00">mutt_save_path</text>
</g>
<!-- Node2 -->
<g id="node2" class="node"><title>Node2</title>
<g id="a_node2"><a xlink:href="hdrline_8c.html#a866a350b31c3892fc85562b2a0bd982b" target="_top" xlink:title="Get the first mailing list in the list of addresses. ">
<polygon fill="white" stroke="red" points="122.5,-38.5 122.5,-57.5 209.5,-57.5 209.5,-38.5 122.5,-38.5"/>
<text text-anchor="middle" x="166" y="-45.5" font-family="Helvetica,sans-Serif" font-size="10.00">first_mailing_list</text>
</a>
</g>
</g>
<!-- Node1&#45;&gt;Node2 -->
<g id="edge1" class="edge"><title>Node1&#45;&gt;Node2</title>
<path fill="none" stroke="midnightblue" d="M96.404,-37.2287C105.121,-38.5976 114.067,-40.0023 122.499,-41.3264"/>
<polygon fill="midnightblue" stroke="midnightblue" points="96.7418,-33.739 86.3199,-35.6453 95.6559,-40.6542 96.7418,-33.739"/>
</g>
<!-- Node3 -->
<g id="node3" class="node"><title>Node3</title>
<g id="a_node3"><a xlink:href="muttlib_8h.html#a5cee04bc78c9291452bbe2c81851b2ce" target="_top" xlink:title="Make a safe filename from an email address. ">
<polygon fill="white" stroke="red" points="124,-0.5 124,-19.5 208,-19.5 208,-0.5 124,-0.5"/>
<text text-anchor="middle" x="166" y="-7.5" font-family="Helvetica,sans-Serif" font-size="10.00">mutt_safe_path</text>
</a>
</g>
</g>
<!-- Node1&#45;&gt;Node3 -->
<g id="edge2" class="edge"><title>Node1&#45;&gt;Node3</title>
<path fill="none" stroke="midnightblue" d="M96.4668,-20.7614C105.587,-19.3292 114.956,-17.8581 123.724,-16.4814"/>
<polygon fill="midnightblue" stroke="midnightblue" points="95.6559,-17.3458 86.3199,-22.3547 96.7418,-24.261 95.6559,-17.3458"/>
</g>
</g>
</svg>
