<?xml version="1.0" encoding="UTF-8" standalone="no"?>
<!DOCTYPE svg PUBLIC "-//W3C//DTD SVG 1.1//EN"
 "http://www.w3.org/Graphics/SVG/1.1/DTD/svg11.dtd">
<!-- Generated by graphviz version 2.36.0 (20140111.2315)
 -->
<!-- Title: lua_mutt_enter Pages: 1 -->
<svg width="360pt" height="180pt"
 viewBox="0.00 0.00 360.00 180.00" xmlns="http://www.w3.org/2000/svg" xmlns:xlink="http://www.w3.org/1999/xlink">
<g id="graph0" class="graph" transform="scale(1 1) rotate(0) translate(4 176)">
<title>lua_mutt_enter</title>
<polygon fill="white" stroke="none" points="-4,4 -4,-176 356,-176 356,4 -4,4"/>
<!-- Node1 -->
<g id="node1" class="node"><title>Node1</title>
<polygon fill="#bfbfbf" stroke="black" points="0.5,-76.5 0.5,-95.5 81.5,-95.5 81.5,-76.5 0.5,-76.5"/>
<text text-anchor="middle" x="41" y="-83.5" font-family="Helvetica,sans-Serif" font-size="10.00">lua_mutt_enter</text>
</g>
<!-- Node2 -->
<g id="node2" class="node"><title>Node2</title>
<g id="a_node2"><a xlink:href="mutt_2string_8c.html#ae48085384a6545e0fac589a88243ea31" target="_top" xlink:title="Copy a string, safely. ">
<polygon fill="white" stroke="black" points="125.5,-152.5 125.5,-171.5 210.5,-171.5 210.5,-152.5 125.5,-152.5"/>
<text text-anchor="middle" x="168" y="-159.5" font-family="Helvetica,sans-Serif" font-size="10.00">mutt_str_strdup</text>
</a>
</g>
</g>
<!-- Node1&#45;&gt;Node2 -->
<g id="edge1" class="edge"><title>Node1&#45;&gt;Node2</title>
<path fill="none" stroke="midnightblue" d="M54.8065,-95.6097C69.6198,-106.523 94.9338,-124.555 118,-138 123.8,-141.381 130.145,-144.729 136.287,-147.804"/>
<polygon fill="midnightblue" stroke="midnightblue" points="135.144,-151.141 145.667,-152.376 138.211,-144.848 135.144,-151.141"/>
</g>
<!-- Node3 -->
<g id="node3" class="node"><title>Node3</title>
<g id="a_node3"><a xlink:href="memory_8c.html#a264da4dc58e6dc8983285bd1f538f24d" target="_top" xlink:title="Allocate memory on the heap. ">
<polygon fill="white" stroke="red" points="254.5,-123.5 254.5,-142.5 351.5,-142.5 351.5,-123.5 254.5,-123.5"/>
<text text-anchor="middle" x="303" y="-130.5" font-family="Helvetica,sans-Serif" font-size="10.00">mutt_mem_malloc</text>
</a>
</g>
</g>
<!-- Node1&#45;&gt;Node3 -->
<g id="edge4" class="edge"><title>Node1&#45;&gt;Node3</title>
<path fill="none" stroke="midnightblue" d="M81.7714,-93.1895C125.157,-101.032 195,-113.658 244.385,-122.585"/>
<polygon fill="midnightblue" stroke="midnightblue" points="243.822,-126.04 254.285,-124.375 245.067,-119.151 243.822,-126.04"/>
</g>
<!-- Node4 -->
<g id="node4" class="node"><title>Node4</title>
<g id="a_node4"><a xlink:href="buffer_8c.html#ab31dc6030636f826c60c65d143cb249d" target="_top" xlink:title="Initialise a new Buffer. ">
<polygon fill="white" stroke="black" points="261,-66.5 261,-85.5 345,-85.5 345,-66.5 261,-66.5"/>
<text text-anchor="middle" x="303" y="-73.5" font-family="Helvetica,sans-Serif" font-size="10.00">mutt_buffer_init</text>
</a>
</g>
</g>
<!-- Node1&#45;&gt;Node4 -->
<g id="edge3" class="edge"><title>Node1&#45;&gt;Node4</title>
<path fill="none" stroke="midnightblue" d="M81.7714,-84.4703C127.059,-82.7285 201.173,-79.878 250.756,-77.9709"/>
<polygon fill="midnightblue" stroke="midnightblue" points="251.087,-81.4609 260.945,-77.579 250.818,-74.466 251.087,-81.4609"/>
</g>
<!-- Node5 -->
<g id="node5" class="node"><title>Node5</title>
<g id="a_node5"><a xlink:href="init_8c.html#a5fe0bea7c92d757966c8278e2ce85714" target="_top" xlink:title="Parse a line of user config. ">
<polygon fill="white" stroke="red" points="118.5,-38.5 118.5,-57.5 217.5,-57.5 217.5,-38.5 118.5,-38.5"/>
<text text-anchor="middle" x="168" y="-45.5" font-family="Helvetica,sans-Serif" font-size="10.00">mutt_parse_rc_line</text>
</a>
</g>
</g>
<!-- Node1&#45;&gt;Node5 -->
<g id="edge5" class="edge"><title>Node1&#45;&gt;Node5</title>
<path fill="none" stroke="midnightblue" d="M73.5428,-76.411C89.383,-71.5956 108.773,-65.7012 125.776,-60.532"/>
<polygon fill="midnightblue" stroke="midnightblue" points="126.918,-63.8433 135.467,-57.5859 124.882,-57.1459 126.918,-63.8433"/>
</g>
<!-- Node6 -->
<g id="node6" class="node"><title>Node6</title>
<g id="a_node6"><a xlink:href="mutt__lua_8c.html#a71b55f827c8a03e7491c29c70dfebae3" target="_top" xlink:title="Handle an error in the Lua interpreter. ">
<polygon fill="white" stroke="black" points="133,-0.5 133,-19.5 203,-19.5 203,-0.5 133,-0.5"/>
<text text-anchor="middle" x="168" y="-7.5" font-family="Helvetica,sans-Serif" font-size="10.00">handle_error</text>
</a>
</g>
</g>
<!-- Node1&#45;&gt;Node6 -->
<g id="edge7" class="edge"><title>Node1&#45;&gt;Node6</title>
<path fill="none" stroke="midnightblue" d="M52.6742,-76.4886C66.8153,-64.2546 92.908,-42.927 118,-29 121.49,-27.0628 125.219,-25.2328 129.002,-23.53"/>
<polygon fill="midnightblue" stroke="midnightblue" points="130.554,-26.6742 138.414,-19.5704 127.84,-20.2218 130.554,-26.6742"/>
</g>
<!-- Node2&#45;&gt;Node3 -->
<g id="edge2" class="edge"><title>Node2&#45;&gt;Node3</title>
<path fill="none" stroke="midnightblue" d="M210.717,-152.904C222.619,-150.309 235.757,-147.444 248.269,-144.716"/>
<polygon fill="midnightblue" stroke="midnightblue" points="249.108,-148.115 258.133,-142.565 247.617,-141.276 249.108,-148.115"/>
</g>
<!-- Node5&#45;&gt;Node4 -->
<g id="edge6" class="edge"><title>Node5&#45;&gt;Node4</title>
<path fill="none" stroke="midnightblue" d="M214.399,-57.5577C226.157,-60.0331 238.897,-62.7152 250.925,-65.2473"/>
<polygon fill="midnightblue" stroke="midnightblue" points="250.317,-68.6959 260.823,-67.3312 251.759,-61.8461 250.317,-68.6959"/>
</g>
</g>
</svg>
