<?xml version="1.0" encoding="UTF-8" standalone="no"?>
<!DOCTYPE svg PUBLIC "-//W3C//DTD SVG 1.1//EN"
 "http://www.w3.org/Graphics/SVG/1.1/DTD/svg11.dtd">
<!-- Generated by graphviz version 2.36.0 (20140111.2315)
 -->
<!-- Title: mutt_command_complete Pages: 1 -->
<svg width="446pt" height="202pt"
 viewBox="0.00 0.00 446.00 201.82" xmlns="http://www.w3.org/2000/svg" xmlns:xlink="http://www.w3.org/1999/xlink">
<g id="graph0" class="graph" transform="scale(1 1) rotate(0) translate(4 197.821)">
<title>mutt_command_complete</title>
<polygon fill="white" stroke="none" points="-4,4 -4,-197.821 442,-197.821 442,4 -4,4"/>
<!-- Node1 -->
<g id="node1" class="node"><title>Node1</title>
<polygon fill="#bfbfbf" stroke="black" points="0.5,-95.5 0.5,-114.5 129.5,-114.5 129.5,-95.5 0.5,-95.5"/>
<text text-anchor="middle" x="65" y="-102.5" font-family="Helvetica,sans-Serif" font-size="10.00">mutt_command_complete</text>
</g>
<!-- Node2 -->
<g id="node2" class="node"><title>Node2</title>
<g id="a_node2"><a xlink:href="mutt_2string_8c.html#a3b8965b21d6e21536750f8883cd4333a" target="_top" xlink:title="Copy a string into a buffer (guaranteeing NUL&#45;termination) ">
<polygon fill="white" stroke="black" points="323,-171.5 323,-190.5 411,-190.5 411,-171.5 323,-171.5"/>
<text text-anchor="middle" x="367" y="-178.5" font-family="Helvetica,sans-Serif" font-size="10.00">mutt_str_strfcpy</text>
</a>
</g>
</g>
<!-- Node1&#45;&gt;Node2 -->
<g id="edge1" class="edge"><title>Node1&#45;&gt;Node2</title>
<path fill="none" stroke="midnightblue" d="M74.433,-114.639C90.2911,-131.942 126.53,-167.704 166,-181 213.777,-197.095 271.695,-194.933 312.881,-190.046"/>
<polygon fill="midnightblue" stroke="midnightblue" points="313.501,-193.495 322.976,-188.754 312.612,-186.552 313.501,-193.495"/>
</g>
<!-- Node3 -->
<g id="node3" class="node"><title>Node3</title>
<g id="a_node3"><a xlink:href="init_8c.html#ab51c0fd8a4cf16f3555dcadd00e7f720" target="_top" xlink:title="helper function for completion ">
<polygon fill="white" stroke="black" points="183.5,-152.5 183.5,-171.5 242.5,-171.5 242.5,-152.5 183.5,-152.5"/>
<text text-anchor="middle" x="213" y="-159.5" font-family="Helvetica,sans-Serif" font-size="10.00">candidate</text>
</a>
</g>
</g>
<!-- Node1&#45;&gt;Node3 -->
<g id="edge2" class="edge"><title>Node1&#45;&gt;Node3</title>
<path fill="none" stroke="midnightblue" d="M90.4371,-114.541C114.44,-123.912 151.263,-138.288 178.093,-148.762"/>
<polygon fill="midnightblue" stroke="midnightblue" points="176.895,-152.052 187.483,-152.428 179.441,-145.531 176.895,-152.052"/>
</g>
<!-- Node4 -->
<g id="node4" class="node"><title>Node4</title>
<g id="a_node4"><a xlink:href="init_8c.html#a2f66c7c3b7477ce4c0654fa3bbf0ed90" target="_top" xlink:title="Allocate more space for auto&#45;completion. ">
<polygon fill="white" stroke="red" points="296,-124.5 296,-143.5 438,-143.5 438,-124.5 296,-124.5"/>
<text text-anchor="middle" x="367" y="-131.5" font-family="Helvetica,sans-Serif" font-size="10.00">matches_ensure_morespace</text>
</a>
</g>
</g>
<!-- Node1&#45;&gt;Node4 -->
<g id="edge5" class="edge"><title>Node1&#45;&gt;Node4</title>
<path fill="none" stroke="midnightblue" d="M129.622,-111.15C175.145,-115.551 236.77,-121.508 285.683,-126.236"/>
<polygon fill="midnightblue" stroke="midnightblue" points="285.627,-129.747 295.918,-127.225 286.301,-122.779 285.627,-129.747"/>
</g>
<!-- Node5 -->
<g id="node5" class="node"><title>Node5</title>
<g id="a_node5"><a xlink:href="mutt_2string_8c.html#a0f37dc8085c127cb48df9b47a21236a6" target="_top" xlink:title="Compare two strings (to a maximum), safely. ">
<polygon fill="white" stroke="black" points="166.5,-76.5 166.5,-95.5 259.5,-95.5 259.5,-76.5 166.5,-76.5"/>
<text text-anchor="middle" x="213" y="-83.5" font-family="Helvetica,sans-Serif" font-size="10.00">mutt_str_strncmp</text>
</a>
</g>
</g>
<!-- Node1&#45;&gt;Node5 -->
<g id="edge6" class="edge"><title>Node1&#45;&gt;Node5</title>
<path fill="none" stroke="midnightblue" d="M129.613,-96.7216C138.45,-95.5716 147.474,-94.3973 156.154,-93.2676"/>
<polygon fill="midnightblue" stroke="midnightblue" points="156.691,-96.7274 166.155,-91.9661 155.787,-89.7859 156.691,-96.7274"/>
</g>
<!-- Node6 -->
<g id="node6" class="node"><title>Node6</title>
<g id="a_node6"><a xlink:href="mutt_2string_8c.html#aca11f88d08a860c07419df3efb18f35a" target="_top" xlink:title="Calculate the length of a string, safely. ">
<polygon fill="white" stroke="black" points="172,-38.5 172,-57.5 254,-57.5 254,-38.5 172,-38.5"/>
<text text-anchor="middle" x="213" y="-45.5" font-family="Helvetica,sans-Serif" font-size="10.00">mutt_str_strlen</text>
</a>
</g>
</g>
<!-- Node1&#45;&gt;Node6 -->
<g id="edge7" class="edge"><title>Node1&#45;&gt;Node6</title>
<path fill="none" stroke="midnightblue" d="M90.4371,-95.4595C114.44,-86.0884 151.263,-71.7124 178.093,-61.2377"/>
<polygon fill="midnightblue" stroke="midnightblue" points="179.441,-64.4688 187.483,-57.5716 176.895,-57.9481 179.441,-64.4688"/>
</g>
<!-- Node7 -->
<g id="node7" class="node"><title>Node7</title>
<g id="a_node7"><a xlink:href="keymap_8c.html#ae53c337daf3a703a035565afbab1e925" target="_top" xlink:title="Lookup a menu&#39;s keybindings. ">
<polygon fill="white" stroke="black" points="175.5,-0.5 175.5,-19.5 250.5,-19.5 250.5,-0.5 175.5,-0.5"/>
<text text-anchor="middle" x="213" y="-7.5" font-family="Helvetica,sans-Serif" font-size="10.00">km_get_table</text>
</a>
</g>
</g>
<!-- Node1&#45;&gt;Node7 -->
<g id="edge8" class="edge"><title>Node1&#45;&gt;Node7</title>
<path fill="none" stroke="midnightblue" d="M76.7343,-95.3368C94.3666,-79.8234 131.007,-49.0722 166,-29 169.265,-27.1272 172.751,-25.3415 176.288,-23.6677"/>
<polygon fill="midnightblue" stroke="midnightblue" points="177.93,-26.768 185.653,-19.5148 175.093,-20.369 177.93,-26.768"/>
</g>
<!-- Node3&#45;&gt;Node2 -->
<g id="edge4" class="edge"><title>Node3&#45;&gt;Node2</title>
<path fill="none" stroke="midnightblue" d="M242.59,-165.574C262.292,-168.036 289.071,-171.384 312.649,-174.331"/>
<polygon fill="midnightblue" stroke="midnightblue" points="312.516,-177.842 322.873,-175.609 313.385,-170.896 312.516,-177.842"/>
</g>
<!-- Node3&#45;&gt;Node4 -->
<g id="edge3" class="edge"><title>Node3&#45;&gt;Node4</title>
<path fill="none" stroke="midnightblue" d="M242.59,-156.733C259.962,-153.533 282.837,-149.32 304.168,-145.39"/>
<polygon fill="midnightblue" stroke="midnightblue" points="304.958,-148.804 314.158,-143.55 303.69,-141.919 304.958,-148.804"/>
</g>
</g>
</svg>
