<?xml version="1.0" encoding="UTF-8" standalone="no"?>
<!DOCTYPE svg PUBLIC "-//W3C//DTD SVG 1.1//EN"
 "http://www.w3.org/Graphics/SVG/1.1/DTD/svg11.dtd">
<!-- Generated by graphviz version 2.36.0 (20140111.2315)
 -->
<!-- Title: mutt_replacelist_add Pages: 1 -->
<svg width="248pt" height="66pt"
 viewBox="0.00 0.00 248.00 66.00" xmlns="http://www.w3.org/2000/svg" xmlns:xlink="http://www.w3.org/1999/xlink">
<g id="graph0" class="graph" transform="scale(1 1) rotate(0) translate(4 62)">
<title>mutt_replacelist_add</title>
<polygon fill="white" stroke="none" points="-4,4 -4,-62 244,-62 244,4 -4,4"/>
<!-- Node1 -->
<g id="node1" class="node"><title>Node1</title>
<polygon fill="#bfbfbf" stroke="black" points="0.5,-19.5 0.5,-38.5 107.5,-38.5 107.5,-19.5 0.5,-19.5"/>
<text text-anchor="middle" x="54" y="-26.5" font-family="Helvetica,sans-Serif" font-size="10.00">mutt_replacelist_add</text>
</g>
<!-- Node2 -->
<g id="node2" class="node"><title>Node2</title>
<g id="a_node2"><a xlink:href="init_8c.html#aef7b03242441add7439057b2076d8e78" target="_top" xlink:title="Parse a string replacement rule &#45; Implements command_t. ">
<polygon fill="white" stroke="red" points="144.5,-38.5 144.5,-57.5 239.5,-57.5 239.5,-38.5 144.5,-38.5"/>
<text text-anchor="middle" x="192" y="-45.5" font-family="Helvetica,sans-Serif" font-size="10.00">parse_replace_list</text>
</a>
</g>
</g>
<!-- Node1&#45;&gt;Node2 -->
<g id="edge1" class="edge"><title>Node1&#45;&gt;Node2</title>
<path fill="none" stroke="midnightblue" d="M117.635,-37.7505C126.617,-39.0053 135.725,-40.2777 144.326,-41.4793"/>
<polygon fill="midnightblue" stroke="midnightblue" points="117.969,-34.2633 107.581,-36.3459 117.001,-41.1959 117.969,-34.2633"/>
</g>
<!-- Node3 -->
<g id="node3" class="node"><title>Node3</title>
<g id="a_node3"><a xlink:href="init_8c.html#aa472f44caa34ed421f251b87254b3d91" target="_top" xlink:title="Parse the &#39;spam&#39; and &#39;nospam&#39; commands &#45; Implements command_t. ">
<polygon fill="white" stroke="black" points="148,-0.5 148,-19.5 236,-19.5 236,-0.5 148,-0.5"/>
<text text-anchor="middle" x="192" y="-7.5" font-family="Helvetica,sans-Serif" font-size="10.00">parse_spam_list</text>
</a>
</g>
</g>
<!-- Node1&#45;&gt;Node3 -->
<g id="edge2" class="edge"><title>Node1&#45;&gt;Node3</title>
<path fill="none" stroke="midnightblue" d="M117.682,-20.243C127.87,-18.8197 138.218,-17.374 147.804,-16.0348"/>
<polygon fill="midnightblue" stroke="midnightblue" points="117.001,-16.8041 107.581,-21.6541 117.969,-23.7367 117.001,-16.8041"/>
</g>
</g>
</svg>
