<?xml version="1.0" encoding="UTF-8" standalone="no"?>
<!DOCTYPE svg PUBLIC "-//W3C//DTD SVG 1.1//EN"
 "http://www.w3.org/Graphics/SVG/1.1/DTD/svg11.dtd">
<!-- Generated by graphviz version 2.36.0 (20140111.2315)
 -->
<!-- Title: mutt_window_reflow Pages: 1 -->
<svg width="270pt" height="87pt"
 viewBox="0.00 0.00 270.00 87.00" xmlns="http://www.w3.org/2000/svg" xmlns:xlink="http://www.w3.org/1999/xlink">
<g id="graph0" class="graph" transform="scale(1 1) rotate(0) translate(4 83)">
<title>mutt_window_reflow</title>
<polygon fill="white" stroke="none" points="-4,4 -4,-83 266,-83 266,4 -4,4"/>
<!-- Node1 -->
<g id="node1" class="node"><title>Node1</title>
<polygon fill="#bfbfbf" stroke="black" points="0,-29.5 0,-48.5 106,-48.5 106,-29.5 0,-29.5"/>
<text text-anchor="middle" x="53" y="-36.5" font-family="Helvetica,sans-Serif" font-size="10.00">mutt_window_reflow</text>
</g>
<!-- Node2 -->
<g id="node2" class="node"><title>Node2</title>
<g id="a_node2"><a xlink:href="menu_8c.html#adea2310d0ce202d0e2e3170b434c0ecc" target="_top" xlink:title="Flag the current menu to be fully redrawn. ">
<polygon fill="white" stroke="red" points="142.5,-49 142.5,-79 261.5,-79 261.5,-49 142.5,-49"/>
<text text-anchor="start" x="150.5" y="-67" font-family="Helvetica,sans-Serif" font-size="10.00">mutt_menu_set_current</text>
<text text-anchor="middle" x="202" y="-56" font-family="Helvetica,sans-Serif" font-size="10.00">_redraw_full</text>
</a>
</g>
</g>
<!-- Node1&#45;&gt;Node2 -->
<g id="edge1" class="edge"><title>Node1&#45;&gt;Node2</title>
<path fill="none" stroke="midnightblue" d="M106.241,-47.8845C114.755,-49.3324 123.685,-50.8512 132.519,-52.3535"/>
<polygon fill="midnightblue" stroke="midnightblue" points="131.978,-55.8117 142.423,-54.038 133.152,-48.9108 131.978,-55.8117"/>
</g>
<!-- Node3 -->
<g id="node3" class="node"><title>Node3</title>
<g id="a_node3"><a xlink:href="menu_8c.html#ac7c599cfeb401ad9750c8827c2d6daa4" target="_top" xlink:title="Set redraw flags on the current menu. ">
<polygon fill="white" stroke="red" points="142.5,-0 142.5,-30 261.5,-30 261.5,-0 142.5,-0"/>
<text text-anchor="start" x="150.5" y="-18" font-family="Helvetica,sans-Serif" font-size="10.00">mutt_menu_set_current</text>
<text text-anchor="middle" x="202" y="-7" font-family="Helvetica,sans-Serif" font-size="10.00">_redraw</text>
</a>
</g>
</g>
<!-- Node1&#45;&gt;Node3 -->
<g id="edge2" class="edge"><title>Node1&#45;&gt;Node3</title>
<path fill="none" stroke="midnightblue" d="M106.241,-30.4709C114.755,-29.0809 123.685,-27.6228 132.519,-26.1806"/>
<polygon fill="midnightblue" stroke="midnightblue" points="133.118,-29.6292 142.423,-24.5636 131.99,-22.7207 133.118,-29.6292"/>
</g>
</g>
</svg>
