<?xml version="1.0" encoding="UTF-8" standalone="no"?>
<!DOCTYPE svg PUBLIC "-//W3C//DTD SVG 1.1//EN"
 "http://www.w3.org/Graphics/SVG/1.1/DTD/svg11.dtd">
<!-- Generated by graphviz version 2.36.0 (20140111.2315)
 -->
<!-- Title: mutt_account_getlogin Pages: 1 -->
<svg width="398pt" height="47pt"
 viewBox="0.00 0.00 398.00 47.00" xmlns="http://www.w3.org/2000/svg" xmlns:xlink="http://www.w3.org/1999/xlink">
<g id="graph0" class="graph" transform="scale(1 1) rotate(0) translate(4 43)">
<title>mutt_account_getlogin</title>
<polygon fill="white" stroke="none" points="-4,4 -4,-43 394,-43 394,4 -4,4"/>
<!-- Node1 -->
<g id="node1" class="node"><title>Node1</title>
<polygon fill="#bfbfbf" stroke="black" points="0.5,-19.5 0.5,-38.5 115.5,-38.5 115.5,-19.5 0.5,-19.5"/>
<text text-anchor="middle" x="58" y="-26.5" font-family="Helvetica,sans-Serif" font-size="10.00">mutt_account_getlogin</text>
</g>
<!-- Node2 -->
<g id="node2" class="node"><title>Node2</title>
<g id="a_node2"><a xlink:href="mutt_2string_8c.html#a3b8965b21d6e21536750f8883cd4333a" target="_top" xlink:title="Copy a string into a buffer (guaranteeing NUL&#45;termination) ">
<polygon fill="white" stroke="black" points="302,-19.5 302,-38.5 390,-38.5 390,-19.5 302,-19.5"/>
<text text-anchor="middle" x="346" y="-26.5" font-family="Helvetica,sans-Serif" font-size="10.00">mutt_str_strfcpy</text>
</a>
</g>
</g>
<!-- Node1&#45;&gt;Node2 -->
<g id="edge1" class="edge"><title>Node1&#45;&gt;Node2</title>
<path fill="none" stroke="midnightblue" d="M115.504,-29C166.57,-29 241.208,-29 291.365,-29"/>
<polygon fill="midnightblue" stroke="midnightblue" points="291.679,-32.5001 301.679,-29 291.679,-25.5001 291.679,-32.5001"/>
</g>
<!-- Node3 -->
<g id="node3" class="node"><title>Node3</title>
<g id="a_node3"><a xlink:href="mutt__account_8c.html#a81c27f98b6c49d96964eced1db64d117" target="_top" xlink:title="Retrieve username into Account, if necessary. ">
<polygon fill="white" stroke="red" points="152.5,-0.5 152.5,-19.5 265.5,-19.5 265.5,-0.5 152.5,-0.5"/>
<text text-anchor="middle" x="209" y="-7.5" font-family="Helvetica,sans-Serif" font-size="10.00">mutt_account_getuser</text>
</a>
</g>
</g>
<!-- Node1&#45;&gt;Node3 -->
<g id="edge2" class="edge"><title>Node1&#45;&gt;Node3</title>
<path fill="none" stroke="midnightblue" d="M115.756,-21.7627C124.48,-20.6503 133.548,-19.4939 142.444,-18.3595"/>
<polygon fill="midnightblue" stroke="midnightblue" points="142.91,-21.8285 152.387,-17.0916 142.025,-14.8847 142.91,-21.8285"/>
</g>
<!-- Node3&#45;&gt;Node2 -->
<g id="edge3" class="edge"><title>Node3&#45;&gt;Node2</title>
<path fill="none" stroke="midnightblue" d="M265.689,-17.8377C274.355,-19.0574 283.289,-20.3147 291.895,-21.526"/>
<polygon fill="midnightblue" stroke="midnightblue" points="291.422,-24.9938 301.812,-22.9217 292.398,-18.0621 291.422,-24.9938"/>
</g>
</g>
</svg>
