<?xml version="1.0" encoding="UTF-8" standalone="no"?>
<!DOCTYPE svg PUBLIC "-//W3C//DTD SVG 1.1//EN"
 "http://www.w3.org/Graphics/SVG/1.1/DTD/svg11.dtd">
<!-- Generated by graphviz version 2.36.0 (20140111.2315)
 -->
<!-- Title: mutt_randbuf Pages: 1 -->
<svg width="216pt" height="142pt"
 viewBox="0.00 0.00 216.00 142.00" xmlns="http://www.w3.org/2000/svg" xmlns:xlink="http://www.w3.org/1999/xlink">
<g id="graph0" class="graph" transform="scale(1 1) rotate(0) translate(4 138)">
<title>mutt_randbuf</title>
<polygon fill="white" stroke="none" points="-4,4 -4,-138 212,-138 212,4 -4,4"/>
<!-- Node1 -->
<g id="node1" class="node"><title>Node1</title>
<polygon fill="#bfbfbf" stroke="black" points="0,-57.5 0,-76.5 74,-76.5 74,-57.5 0,-57.5"/>
<text text-anchor="middle" x="37" y="-64.5" font-family="Helvetica,sans-Serif" font-size="10.00">mutt_randbuf</text>
</g>
<!-- Node2 -->
<g id="node2" class="node"><title>Node2</title>
<g id="a_node2"><a xlink:href="main_8c.html#adedb285b02c41bde2158ded9cc9fd7ac" target="_top" xlink:title="Start NeoMutt. ">
<polygon fill="white" stroke="black" points="140,-114.5 140,-133.5 178,-133.5 178,-114.5 140,-114.5"/>
<text text-anchor="middle" x="159" y="-121.5" font-family="Helvetica,sans-Serif" font-size="10.00">main</text>
</a>
</g>
</g>
<!-- Node1&#45;&gt;Node2 -->
<g id="edge1" class="edge"><title>Node1&#45;&gt;Node2</title>
<path fill="none" stroke="midnightblue" d="M63.6954,-81.4329C77.2839,-88.842 94.3513,-97.7992 110,-105 119.607,-109.421 130.556,-113.803 139.569,-117.243"/>
<polygon fill="midnightblue" stroke="midnightblue" points="65.3519,-78.3495 54.9039,-76.5914 61.9751,-84.4812 65.3519,-78.3495"/>
</g>
<!-- Node3 -->
<g id="node3" class="node"><title>Node3</title>
<g id="a_node3"><a xlink:href="muttlib_8h.html#a5e688506c1a1e514511b21d2c43cab66" target="_top" xlink:title="Fill a buffer with a base32&#45;encoded random string. ">
<polygon fill="white" stroke="red" points="110.5,-76.5 110.5,-95.5 207.5,-95.5 207.5,-76.5 110.5,-76.5"/>
<text text-anchor="middle" x="159" y="-83.5" font-family="Helvetica,sans-Serif" font-size="10.00">mutt_rand_base32</text>
</a>
</g>
</g>
<!-- Node1&#45;&gt;Node3 -->
<g id="edge2" class="edge"><title>Node1&#45;&gt;Node3</title>
<path fill="none" stroke="midnightblue" d="M83.9583,-74.2767C92.6405,-75.6514 101.738,-77.0919 110.468,-78.4741"/>
<polygon fill="midnightblue" stroke="midnightblue" points="84.4283,-70.8076 74.004,-72.7006 83.3335,-77.7215 84.4283,-70.8076"/>
</g>
<!-- Node4 -->
<g id="node4" class="node"><title>Node4</title>
<g id="a_node4"><a xlink:href="muttlib_8h.html#a8ccfb7a1f8c74cb588ceb3ad978fb084" target="_top" xlink:title="Create a 32&#45;bit random number. ">
<polygon fill="white" stroke="black" points="123.5,-38.5 123.5,-57.5 194.5,-57.5 194.5,-38.5 123.5,-38.5"/>
<text text-anchor="middle" x="159" y="-45.5" font-family="Helvetica,sans-Serif" font-size="10.00">mutt_rand32</text>
</a>
</g>
</g>
<!-- Node1&#45;&gt;Node4 -->
<g id="edge3" class="edge"><title>Node1&#45;&gt;Node4</title>
<path fill="none" stroke="midnightblue" d="M84.1732,-59.6892C97.1601,-57.633 111.061,-55.432 123.258,-53.5008"/>
<polygon fill="midnightblue" stroke="midnightblue" points="83.3335,-56.2785 74.004,-61.2994 84.4283,-63.1924 83.3335,-56.2785"/>
</g>
<!-- Node5 -->
<g id="node5" class="node"><title>Node5</title>
<g id="a_node5"><a xlink:href="muttlib_8h.html#a642006ba161a78cbefb5667ff780feca" target="_top" xlink:title="Create a 64&#45;bit random number. ">
<polygon fill="white" stroke="red" points="123.5,-0.5 123.5,-19.5 194.5,-19.5 194.5,-0.5 123.5,-0.5"/>
<text text-anchor="middle" x="159" y="-7.5" font-family="Helvetica,sans-Serif" font-size="10.00">mutt_rand64</text>
</a>
</g>
</g>
<!-- Node1&#45;&gt;Node5 -->
<g id="edge4" class="edge"><title>Node1&#45;&gt;Node5</title>
<path fill="none" stroke="midnightblue" d="M63.6954,-52.5671C77.2839,-45.158 94.3513,-36.2008 110,-29 117.165,-25.7031 125.076,-22.4277 132.373,-19.5486"/>
<polygon fill="midnightblue" stroke="midnightblue" points="61.9751,-49.5188 54.9039,-57.4086 65.3519,-55.6505 61.9751,-49.5188"/>
</g>
</g>
</svg>
