<?xml version="1.0" encoding="UTF-8" standalone="no"?>
<!DOCTYPE svg PUBLIC "-//W3C//DTD SVG 1.1//EN"
 "http://www.w3.org/Graphics/SVG/1.1/DTD/svg11.dtd">
<!-- Generated by graphviz version 2.36.0 (20140111.2315)
 -->
<!-- Title: label_message Pages: 1 -->
<svg width="216pt" height="142pt"
 viewBox="0.00 0.00 216.00 142.00" xmlns="http://www.w3.org/2000/svg" xmlns:xlink="http://www.w3.org/1999/xlink">
<g id="graph0" class="graph" transform="scale(1 1) rotate(0) translate(4 138)">
<title>label_message</title>
<polygon fill="white" stroke="none" points="-4,4 -4,-138 212,-138 212,4 -4,4"/>
<!-- Node1 -->
<g id="node1" class="node"><title>Node1</title>
<polygon fill="#bfbfbf" stroke="black" points="0,-57.5 0,-76.5 82,-76.5 82,-57.5 0,-57.5"/>
<text text-anchor="middle" x="41" y="-64.5" font-family="Helvetica,sans-Serif" font-size="10.00">label_message</text>
</g>
<!-- Node2 -->
<g id="node2" class="node"><title>Node2</title>
<g id="a_node2"><a xlink:href="mutt_2string_8c.html#ab4aaf8bd2ce3982651f0f949d6c665e2" target="_top" xlink:title="Compare two strings, safely. ">
<polygon fill="white" stroke="black" points="119,-114.5 119,-133.5 207,-133.5 207,-114.5 119,-114.5"/>
<text text-anchor="middle" x="163" y="-121.5" font-family="Helvetica,sans-Serif" font-size="10.00">mutt_str_strcmp</text>
</a>
</g>
</g>
<!-- Node1&#45;&gt;Node2 -->
<g id="edge1" class="edge"><title>Node1&#45;&gt;Node2</title>
<path fill="none" stroke="midnightblue" d="M60.2886,-76.505C75.5962,-84.3734 98.0727,-95.7246 118,-105 121.819,-106.778 125.848,-108.595 129.855,-110.367"/>
<polygon fill="midnightblue" stroke="midnightblue" points="128.49,-113.59 139.055,-114.38 131.288,-107.174 128.49,-113.59"/>
</g>
<!-- Node3 -->
<g id="node3" class="node"><title>Node3</title>
<g id="a_node3"><a xlink:href="mutt__header_8c.html#ad284c1e2d898e1ec17f83597b5eba1a0" target="_top" xlink:title="Decrease the refcount of a label. ">
<polygon fill="white" stroke="red" points="126,-76.5 126,-95.5 200,-95.5 200,-76.5 126,-76.5"/>
<text text-anchor="middle" x="163" y="-83.5" font-family="Helvetica,sans-Serif" font-size="10.00">label_ref_dec</text>
</a>
</g>
</g>
<!-- Node1&#45;&gt;Node3 -->
<g id="edge2" class="edge"><title>Node1&#45;&gt;Node3</title>
<path fill="none" stroke="midnightblue" d="M82.2921,-73.3796C93.0309,-75.0799 104.717,-76.9302 115.748,-78.6768"/>
<polygon fill="midnightblue" stroke="midnightblue" points="115.224,-82.1374 125.649,-80.2444 116.319,-75.2235 115.224,-82.1374"/>
</g>
<!-- Node4 -->
<g id="node4" class="node"><title>Node4</title>
<g id="a_node4"><a xlink:href="mutt_2string_8c.html#ad5b66f8059a202f7bfa5fc4fa3047c67" target="_top" xlink:title="Replace one string with another. ">
<polygon fill="white" stroke="red" points="118.5,-38.5 118.5,-57.5 207.5,-57.5 207.5,-38.5 118.5,-38.5"/>
<text text-anchor="middle" x="163" y="-45.5" font-family="Helvetica,sans-Serif" font-size="10.00">mutt_str_replace</text>
</a>
</g>
</g>
<!-- Node1&#45;&gt;Node4 -->
<g id="edge3" class="edge"><title>Node1&#45;&gt;Node4</title>
<path fill="none" stroke="midnightblue" d="M82.2921,-60.6204C90.6116,-59.3032 99.4999,-57.8959 108.212,-56.5165"/>
<polygon fill="midnightblue" stroke="midnightblue" points="108.983,-59.938 118.313,-54.9172 107.888,-53.0242 108.983,-59.938"/>
</g>
<!-- Node5 -->
<g id="node5" class="node"><title>Node5</title>
<g id="a_node5"><a xlink:href="mutt__header_8c.html#a003cf36d33890cd37ecb84aa8c6da54a" target="_top" xlink:title="Increase the refcount of a label. ">
<polygon fill="white" stroke="red" points="127.5,-0.5 127.5,-19.5 198.5,-19.5 198.5,-0.5 127.5,-0.5"/>
<text text-anchor="middle" x="163" y="-7.5" font-family="Helvetica,sans-Serif" font-size="10.00">label_ref_inc</text>
</a>
</g>
</g>
<!-- Node1&#45;&gt;Node5 -->
<g id="edge4" class="edge"><title>Node1&#45;&gt;Node5</title>
<path fill="none" stroke="midnightblue" d="M60.2886,-57.495C75.5962,-49.6266 98.0727,-38.2754 118,-29 121.819,-27.2224 125.848,-25.4049 129.855,-23.6327"/>
<polygon fill="midnightblue" stroke="midnightblue" points="131.288,-26.8261 139.055,-19.62 128.49,-20.4099 131.288,-26.8261"/>
</g>
</g>
</svg>
