<?xml version="1.0" encoding="UTF-8" standalone="no"?>
<!DOCTYPE svg PUBLIC "-//W3C//DTD SVG 1.1//EN"
 "http://www.w3.org/Graphics/SVG/1.1/DTD/svg11.dtd">
<!-- Generated by graphviz version 2.36.0 (20140111.2315)
 -->
<!-- Title: mutt_dump_variables Pages: 1 -->
<svg width="374pt" height="79pt"
 viewBox="0.00 0.00 374.00 78.84" xmlns="http://www.w3.org/2000/svg" xmlns:xlink="http://www.w3.org/1999/xlink">
<g id="graph0" class="graph" transform="scale(1 1) rotate(0) translate(4 74.8352)">
<title>mutt_dump_variables</title>
<polygon fill="white" stroke="none" points="-4,4 -4,-74.8352 370,-74.8352 370,4 -4,4"/>
<!-- Node1 -->
<g id="node1" class="node"><title>Node1</title>
<polygon fill="#bfbfbf" stroke="black" points="0,-38.5 0,-57.5 110,-57.5 110,-38.5 0,-38.5"/>
<text text-anchor="middle" x="55" y="-45.5" font-family="Helvetica,sans-Serif" font-size="10.00">mutt_dump_variables</text>
</g>
<!-- Node2 -->
<g id="node2" class="node"><title>Node2</title>
<g id="a_node2"><a xlink:href="buffer_8c.html#ab31dc6030636f826c60c65d143cb249d" target="_top" xlink:title="Initialise a new Buffer. ">
<polygon fill="white" stroke="black" points="282,-38.5 282,-57.5 366,-57.5 366,-38.5 282,-38.5"/>
<text text-anchor="middle" x="324" y="-45.5" font-family="Helvetica,sans-Serif" font-size="10.00">mutt_buffer_init</text>
</a>
</g>
</g>
<!-- Node1&#45;&gt;Node2 -->
<g id="edge1" class="edge"><title>Node1&#45;&gt;Node2</title>
<path fill="none" stroke="midnightblue" d="M92.5079,-57.509C108.761,-61.2739 128.211,-65.1427 146,-67 190.204,-71.6151 201.88,-72.3629 246,-67 257.84,-65.5608 270.484,-62.92 282.032,-60.0557"/>
<polygon fill="midnightblue" stroke="midnightblue" points="283.051,-63.4072 291.85,-57.5056 281.291,-56.632 283.051,-63.4072"/>
</g>
<!-- Node3 -->
<g id="node3" class="node"><title>Node3</title>
<g id="a_node3"><a xlink:href="memory_8c.html#a264da4dc58e6dc8983285bd1f538f24d" target="_top" xlink:title="Allocate memory on the heap. ">
<polygon fill="white" stroke="red" points="147.5,-38.5 147.5,-57.5 244.5,-57.5 244.5,-38.5 147.5,-38.5"/>
<text text-anchor="middle" x="196" y="-45.5" font-family="Helvetica,sans-Serif" font-size="10.00">mutt_mem_malloc</text>
</a>
</g>
</g>
<!-- Node1&#45;&gt;Node3 -->
<g id="edge2" class="edge"><title>Node1&#45;&gt;Node3</title>
<path fill="none" stroke="midnightblue" d="M110.139,-48C118.905,-48 128.015,-48 136.871,-48"/>
<polygon fill="midnightblue" stroke="midnightblue" points="137.115,-51.5001 147.115,-48 137.115,-44.5001 137.115,-51.5001"/>
</g>
<!-- Node4 -->
<g id="node4" class="node"><title>Node4</title>
<g id="a_node4"><a xlink:href="init_8c.html#a5fe0bea7c92d757966c8278e2ce85714" target="_top" xlink:title="Parse a line of user config. ">
<polygon fill="white" stroke="red" points="146.5,-0.5 146.5,-19.5 245.5,-19.5 245.5,-0.5 146.5,-0.5"/>
<text text-anchor="middle" x="196" y="-7.5" font-family="Helvetica,sans-Serif" font-size="10.00">mutt_parse_rc_line</text>
</a>
</g>
</g>
<!-- Node1&#45;&gt;Node4 -->
<g id="edge3" class="edge"><title>Node1&#45;&gt;Node4</title>
<path fill="none" stroke="midnightblue" d="M91.0756,-38.411C109.019,-33.5056 131.058,-27.4804 150.217,-22.2429"/>
<polygon fill="midnightblue" stroke="midnightblue" points="151.213,-25.5992 159.936,-19.5859 149.367,-18.8469 151.213,-25.5992"/>
</g>
<!-- Node4&#45;&gt;Node2 -->
<g id="edge4" class="edge"><title>Node4&#45;&gt;Node2</title>
<path fill="none" stroke="midnightblue" d="M228.795,-19.589C244.762,-24.4044 264.307,-30.2988 281.447,-35.468"/>
<polygon fill="midnightblue" stroke="midnightblue" points="280.63,-38.8775 291.215,-38.4141 282.652,-32.1756 280.63,-38.8775"/>
</g>
</g>
</svg>
