<?xml version="1.0" encoding="UTF-8" standalone="no"?>
<!DOCTYPE svg PUBLIC "-//W3C//DTD SVG 1.1//EN"
 "http://www.w3.org/Graphics/SVG/1.1/DTD/svg11.dtd">
<!-- Generated by graphviz version 2.36.0 (20140111.2315)
 -->
<!-- Title: mutt_window_clearline Pages: 1 -->
<svg width="986pt" height="702pt"
 viewBox="0.00 0.00 986.00 702.00" xmlns="http://www.w3.org/2000/svg" xmlns:xlink="http://www.w3.org/1999/xlink">
<g id="graph0" class="graph" transform="scale(1 1) rotate(0) translate(4 698)">
<title>mutt_window_clearline</title>
<polygon fill="white" stroke="none" points="-4,4 -4,-698 982,-698 982,4 -4,4"/>
<!-- Node1 -->
<g id="node1" class="node"><title>Node1</title>
<polygon fill="#bfbfbf" stroke="black" points="0,-294.5 0,-313.5 116,-313.5 116,-294.5 0,-294.5"/>
<text text-anchor="middle" x="58" y="-301.5" font-family="Helvetica,sans-Serif" font-size="10.00">mutt_window_clearline</text>
</g>
<!-- Node2 -->
<g id="node2" class="node"><title>Node2</title>
<g id="a_node2"><a xlink:href="commands_8h.html#a2815f046da32dd09b3c3f4f93a1537b4" target="_top" xlink:title="Bounce an email. ">
<polygon fill="white" stroke="red" points="596,-494.5 596,-513.5 702,-513.5 702,-494.5 596,-494.5"/>
<text text-anchor="middle" x="649" y="-501.5" font-family="Helvetica,sans-Serif" font-size="10.00">ci_bounce_message</text>
</a>
</g>
</g>
<!-- Node1&#45;&gt;Node2 -->
<g id="edge1" class="edge"><title>Node1&#45;&gt;Node2</title>
<path fill="none" stroke="midnightblue" d="M63.1655,-323.579C72.1655,-360.533 97.1999,-440.072 152,-476 297.7,-571.523 522.286,-533.732 610.551,-513.539"/>
<polygon fill="midnightblue" stroke="midnightblue" points="66.5178,-322.538 60.872,-313.572 59.6947,-324.102 66.5178,-322.538"/>
</g>
<!-- Node3 -->
<g id="node3" class="node"><title>Node3</title>
<g id="a_node3"><a xlink:href="curs__main_8h.html#af7d9d8649ad205788c9af1bbf871207f" target="_top" xlink:title="Display a list of emails. ">
<polygon fill="white" stroke="red" points="738,-532.5 738,-551.5 832,-551.5 832,-532.5 738,-532.5"/>
<text text-anchor="middle" x="785" y="-539.5" font-family="Helvetica,sans-Serif" font-size="10.00">mutt_index_menu</text>
</a>
</g>
</g>
<!-- Node1&#45;&gt;Node3 -->
<g id="edge23" class="edge"><title>Node1&#45;&gt;Node3</title>
<path fill="none" stroke="midnightblue" d="M61.5034,-324.021C68.1963,-369.943 90.386,-484.251 152,-554 217.014,-627.598 249.799,-656 348,-656 348,-656 348,-656 502,-656 591.289,-656 622.666,-677.971 702,-637 740.136,-617.305 768.137,-571.665 779.018,-551.674"/>
<polygon fill="midnightblue" stroke="midnightblue" points="64.9408,-323.324 60.1212,-313.889 58.005,-324.27 64.9408,-323.324"/>
</g>
<!-- Node4 -->
<g id="node4" class="node"><title>Node4</title>
<g id="a_node4"><a xlink:href="compose_8h.html#ad69c04d8ece089edb91f7b1178c2262c" target="_top" xlink:title="Allow the user to edit the message envelope. ">
<polygon fill="white" stroke="red" points="868,-380.5 868,-399.5 978,-399.5 978,-380.5 868,-380.5"/>
<text text-anchor="middle" x="923" y="-387.5" font-family="Helvetica,sans-Serif" font-size="10.00">mutt_compose_menu</text>
</a>
</g>
</g>
<!-- Node1&#45;&gt;Node4 -->
<g id="edge8" class="edge"><title>Node1&#45;&gt;Node4</title>
<path fill="none" stroke="midnightblue" d="M59.4379,-323.789C61.6565,-377.041 74.8284,-525.145 152,-611 215.24,-681.355 253.4,-694 348,-694 348,-694 348,-694 650,-694 811.823,-694 901.468,-451.805 918.86,-399.77"/>
<polygon fill="midnightblue" stroke="midnightblue" points="62.9317,-323.541 59.1054,-313.661 55.9355,-323.771 62.9317,-323.541"/>
</g>
<!-- Node5 -->
<g id="node5" class="node"><title>Node5</title>
<g id="a_node5"><a xlink:href="commands_8h.html#a1d7e589609c99aec9285cdce17d0679e" target="_top" xlink:title="invoke a command in a subshell ">
<polygon fill="white" stroke="red" points="155,-418.5 155,-437.5 253,-437.5 253,-418.5 155,-418.5"/>
<text text-anchor="middle" x="204" y="-425.5" font-family="Helvetica,sans-Serif" font-size="10.00">mutt_shell_escape</text>
</a>
</g>
</g>
<!-- Node1&#45;&gt;Node5 -->
<g id="edge4" class="edge"><title>Node1&#45;&gt;Node5</title>
<path fill="none" stroke="midnightblue" d="M77.353,-320.138C96.0573,-336.549 125.941,-362.669 152,-385 165.543,-396.606 181.248,-409.809 191.613,-418.488"/>
<polygon fill="midnightblue" stroke="midnightblue" points="79.656,-317.502 69.8324,-313.534 75.0372,-322.762 79.656,-317.502"/>
</g>
<!-- Node6 -->
<g id="node6" class="node"><title>Node6</title>
<g id="a_node6"><a xlink:href="menu_8h.html#a2a7161a4171307d15f2362f5d55dfdb1" target="_top" xlink:title="Menu event loop. ">
<polygon fill="white" stroke="red" points="304.5,-418.5 304.5,-437.5 393.5,-437.5 393.5,-418.5 304.5,-418.5"/>
<text text-anchor="middle" x="349" y="-425.5" font-family="Helvetica,sans-Serif" font-size="10.00">mutt_menu_loop</text>
</a>
</g>
</g>
<!-- Node1&#45;&gt;Node6 -->
<g id="edge28" class="edge"><title>Node1&#45;&gt;Node6</title>
<path fill="none" stroke="midnightblue" d="M88.4352,-317.987C106.659,-326.552 130.589,-337.631 152,-347 213.559,-373.938 286.958,-403.633 324.031,-418.465"/>
<polygon fill="midnightblue" stroke="midnightblue" points="89.7479,-314.736 79.2102,-313.637 86.7622,-321.068 89.7479,-314.736"/>
</g>
<!-- Node7 -->
<g id="node7" class="node"><title>Node7</title>
<g id="a_node7"><a xlink:href="curs__lib_8h.html#a704f10745bab754036dc28ccf85a086b" target="_top" xlink:title="Ask the user for a string. ">
<polygon fill="white" stroke="black" points="156,-114.5 156,-133.5 252,-133.5 252,-114.5 156,-114.5"/>
<text text-anchor="middle" x="204" y="-121.5" font-family="Helvetica,sans-Serif" font-size="10.00">mutt_get_field_full</text>
</a>
</g>
</g>
<!-- Node1&#45;&gt;Node7 -->
<g id="edge9" class="edge"><title>Node1&#45;&gt;Node7</title>
<path fill="none" stroke="midnightblue" d="M66.1324,-284.678C78.8698,-252.503 108.349,-187.58 152,-148 158.597,-142.018 166.948,-137.257 174.973,-133.604"/>
<polygon fill="midnightblue" stroke="midnightblue" points="62.7742,-283.66 62.4583,-294.25 69.3093,-286.168 62.7742,-283.66"/>
</g>
<!-- Node8 -->
<g id="node8" class="node"><title>Node8</title>
<g id="a_node8"><a xlink:href="curs__lib_8h.html#a4070f68e1706543c636627bfd4edfcad" target="_top" xlink:title="Ask the user to select a file. ">
<polygon fill="white" stroke="black" points="292.5,-114.5 292.5,-133.5 405.5,-133.5 405.5,-114.5 292.5,-114.5"/>
<text text-anchor="middle" x="349" y="-121.5" font-family="Helvetica,sans-Serif" font-size="10.00">mutt_enter_fname_full</text>
</a>
</g>
</g>
<!-- Node1&#45;&gt;Node8 -->
<g id="edge21" class="edge"><title>Node1&#45;&gt;Node8</title>
<path fill="none" stroke="midnightblue" d="M61.362,-284.138C67.5325,-242.277 88.3455,-145.515 152,-105 207.375,-69.7553 289.937,-98.0651 327.758,-114.423"/>
<polygon fill="midnightblue" stroke="midnightblue" points="57.8754,-283.805 60.0123,-294.182 64.813,-284.738 57.8754,-283.805"/>
</g>
<!-- Node9 -->
<g id="node9" class="node"><title>Node9</title>
<g id="a_node9"><a xlink:href="curs__lib_8h.html#a2ac481c92c3c888c1f658696909a3430" target="_top" xlink:title="Ask the user a Yes/No question. ">
<polygon fill="white" stroke="red" points="311,-266.5 311,-285.5 387,-285.5 387,-266.5 311,-266.5"/>
<text text-anchor="middle" x="349" y="-273.5" font-family="Helvetica,sans-Serif" font-size="10.00">mutt_yesorno</text>
</a>
</g>
</g>
<!-- Node1&#45;&gt;Node9 -->
<g id="edge12" class="edge"><title>Node1&#45;&gt;Node9</title>
<path fill="none" stroke="midnightblue" d="M126.183,-297.491C183.633,-291.925 264.194,-284.12 310.757,-279.608"/>
<polygon fill="midnightblue" stroke="midnightblue" points="125.713,-294.02 116.097,-298.468 126.388,-300.987 125.713,-294.02"/>
</g>
<!-- Node10 -->
<g id="node10" class="node"><title>Node10</title>
<g id="a_node10"><a xlink:href="mutt_8h.html#a620eb80c92ac555970111949ad0b7c56" target="_top" xlink:title="Ask the user a quad&#45;question. ">
<polygon fill="white" stroke="red" points="454.5,-437.5 454.5,-456.5 547.5,-456.5 547.5,-437.5 454.5,-437.5"/>
<text text-anchor="middle" x="501" y="-444.5" font-family="Helvetica,sans-Serif" font-size="10.00">query_quadoption</text>
</a>
</g>
</g>
<!-- Node1&#45;&gt;Node10 -->
<g id="edge26" class="edge"><title>Node1&#45;&gt;Node10</title>
<path fill="none" stroke="midnightblue" d="M64.8806,-323.406C75.912,-355.93 103.121,-420.482 152,-447 255.554,-503.181 403.265,-473.774 467.779,-456.57"/>
<polygon fill="midnightblue" stroke="midnightblue" points="68.1525,-322.149 61.7518,-313.706 61.4904,-324.297 68.1525,-322.149"/>
</g>
<!-- Node11 -->
<g id="node11" class="node"><title>Node11</title>
<g id="a_node11"><a xlink:href="recvcmd_8h.html#a4894c4b5eb8d84ca5007940b13e5087e" target="_top" xlink:title="Bounce function, from the attachment menu. ">
<polygon fill="white" stroke="red" points="596.5,-304.5 596.5,-323.5 701.5,-323.5 701.5,-304.5 596.5,-304.5"/>
<text text-anchor="middle" x="649" y="-311.5" font-family="Helvetica,sans-Serif" font-size="10.00">mutt_attach_bounce</text>
</a>
</g>
</g>
<!-- Node1&#45;&gt;Node11 -->
<g id="edge37" class="edge"><title>Node1&#45;&gt;Node11</title>
<path fill="none" stroke="midnightblue" d="M73.9933,-286.86C90.9844,-268.636 120.445,-240.486 152,-226 234.899,-187.944 479.652,-137.819 560,-181 610.484,-208.131 636.862,-278.345 645.111,-304.229"/>
<polygon fill="midnightblue" stroke="midnightblue" points="71.2324,-284.694 67.1013,-294.451 76.4149,-289.4 71.2324,-284.694"/>
</g>
<!-- Node12 -->
<g id="node12" class="node"><title>Node12</title>
<g id="a_node12"><a xlink:href="muttlib_8h.html#aec67d3d77b0418f6ae01995579c09ad2" target="_top" xlink:title="Ask the user to save. ">
<polygon fill="white" stroke="red" points="451,-228.5 451,-247.5 551,-247.5 551,-228.5 451,-228.5"/>
<text text-anchor="middle" x="501" y="-235.5" font-family="Helvetica,sans-Serif" font-size="10.00">mutt_save_confirm</text>
</a>
</g>
</g>
<!-- Node1&#45;&gt;Node12 -->
<g id="edge35" class="edge"><title>Node1&#45;&gt;Node12</title>
<path fill="none" stroke="midnightblue" d="M105.088,-291.899C120.004,-288.172 136.656,-284.208 152,-281 213.794,-268.08 229.406,-265.211 292,-257 346.11,-249.902 408.486,-244.583 450.709,-241.404"/>
<polygon fill="midnightblue" stroke="midnightblue" points="103.913,-288.586 95.0759,-294.43 105.629,-295.373 103.913,-288.586"/>
</g>
<!-- Node13 -->
<g id="node13" class="node"><title>Node13</title>
<g id="a_node13"><a xlink:href="recvattach_8c.html#af9a91b1708bff64bf5e3d46c6b3efce1" target="_top" xlink:title="Ask the user if we should pipe the attachment. ">
<polygon fill="white" stroke="red" points="442,-190.5 442,-209.5 560,-209.5 560,-190.5 442,-190.5"/>
<text text-anchor="middle" x="501" y="-197.5" font-family="Helvetica,sans-Serif" font-size="10.00">query_pipe_attachment</text>
</a>
</g>
</g>
<!-- Node1&#45;&gt;Node13 -->
<g id="edge36" class="edge"><title>Node1&#45;&gt;Node13</title>
<path fill="none" stroke="midnightblue" d="M82.9631,-289.313C101.245,-278.756 127.394,-265.022 152,-257 250.806,-224.788 371.588,-210.233 441.759,-204.081"/>
<polygon fill="midnightblue" stroke="midnightblue" points="81.0067,-286.403 74.1695,-294.496 84.5615,-292.433 81.0067,-286.403"/>
</g>
<!-- Node14 -->
<g id="node14" class="node"><title>Node14</title>
<g id="a_node14"><a xlink:href="curs__lib_8h.html#ad254729612c853695367042b7c964d64" target="_top" xlink:title="Offer the user a multiple choice question. ">
<polygon fill="white" stroke="red" points="156,-38.5 156,-57.5 252,-57.5 252,-38.5 156,-38.5"/>
<text text-anchor="middle" x="204" y="-45.5" font-family="Helvetica,sans-Serif" font-size="10.00">mutt_multi_choice</text>
</a>
</g>
</g>
<!-- Node1&#45;&gt;Node14 -->
<g id="edge22" class="edge"><title>Node1&#45;&gt;Node14</title>
<path fill="none" stroke="midnightblue" d="M61.8975,-284.37C69.2748,-240.825 92.5686,-135.02 152,-72 157.774,-65.8775 165.424,-61.1601 173.038,-57.5946"/>
<polygon fill="midnightblue" stroke="midnightblue" points="58.4394,-283.83 60.3194,-294.257 65.3519,-284.934 58.4394,-283.83"/>
</g>
<!-- Node15 -->
<g id="node15" class="node"><title>Node15</title>
<g id="a_node15"><a xlink:href="protos_8h.html#a30d905c7406b5cda5857aec3fe9a7813" target="_top" xlink:title="Change the flag on a Message. ">
<polygon fill="white" stroke="red" points="602,-608.5 602,-627.5 696,-627.5 696,-608.5 602,-608.5"/>
<text text-anchor="middle" x="649" y="-615.5" font-family="Helvetica,sans-Serif" font-size="10.00">mutt_change_flag</text>
</a>
</g>
</g>
<!-- Node1&#45;&gt;Node15 -->
<g id="edge24" class="edge"><title>Node1&#45;&gt;Node15</title>
<path fill="none" stroke="midnightblue" d="M61.8237,-323.662C68.8876,-365.292 91.3289,-462.558 152,-512 286.131,-621.307 506.581,-625.263 601.811,-621.198"/>
<polygon fill="midnightblue" stroke="midnightblue" points="65.2668,-323.026 60.2509,-313.694 58.3523,-324.118 65.2668,-323.026"/>
</g>
<!-- Node16 -->
<g id="node16" class="node"><title>Node16</title>
<g id="a_node16"><a xlink:href="menu_8h.html#a39b631a566b12a37364e82049e708dfa" target="_top" xlink:title="Force the redraw of the index. ">
<polygon fill="white" stroke="red" points="152,-0.5 152,-19.5 256,-19.5 256,-0.5 152,-0.5"/>
<text text-anchor="middle" x="204" y="-7.5" font-family="Helvetica,sans-Serif" font-size="10.00">menu_redraw_index</text>
</a>
</g>
</g>
<!-- Node1&#45;&gt;Node16 -->
<g id="edge27" class="edge"><title>Node1&#45;&gt;Node16</title>
<path fill="none" stroke="midnightblue" d="M60.036,-284.457C63.6977,-234.931 80.0555,-103.174 152,-29 155.75,-25.1341 160.358,-22.0477 165.257,-19.5855"/>
<polygon fill="midnightblue" stroke="midnightblue" points="56.5413,-284.264 59.3911,-294.468 63.5268,-284.714 56.5413,-284.264"/>
</g>
<!-- Node17 -->
<g id="node17" class="node"><title>Node17</title>
<g id="a_node17"><a xlink:href="mutt__logging_8h.html#af068b3f524a31fad293b2fb61dfc4534" target="_top" xlink:title="Clear the message line (bottom line of screen) ">
<polygon fill="white" stroke="red" points="160.5,-318.5 160.5,-337.5 247.5,-337.5 247.5,-318.5 160.5,-318.5"/>
<text text-anchor="middle" x="204" y="-325.5" font-family="Helvetica,sans-Serif" font-size="10.00">mutt_clear_error</text>
</a>
</g>
</g>
<!-- Node1&#45;&gt;Node17 -->
<g id="edge29" class="edge"><title>Node1&#45;&gt;Node17</title>
<path fill="none" stroke="midnightblue" d="M126.342,-315.224C137.818,-317.136 149.453,-319.076 160.074,-320.846"/>
<polygon fill="midnightblue" stroke="midnightblue" points="126.766,-311.746 116.326,-313.554 125.615,-318.651 126.766,-311.746"/>
</g>
<!-- Node2&#45;&gt;Node3 -->
<g id="edge2" class="edge"><title>Node2&#45;&gt;Node3</title>
<path fill="none" stroke="midnightblue" d="M693.438,-516.318C711.849,-521.539 732.98,-527.532 750.197,-532.414"/>
<polygon fill="midnightblue" stroke="midnightblue" points="694.389,-512.95 683.814,-513.589 692.48,-519.685 694.389,-512.95"/>
</g>
<!-- Node3&#45;&gt;Node4 -->
<g id="edge3" class="edge"><title>Node3&#45;&gt;Node4</title>
<path fill="none" stroke="midnightblue" d="M801.39,-524.799C830.132,-492.676 891.079,-424.558 913.496,-399.505"/>
<polygon fill="midnightblue" stroke="midnightblue" points="798.567,-522.705 794.507,-532.492 803.784,-527.373 798.567,-522.705"/>
</g>
<!-- Node5&#45;&gt;Node3 -->
<g id="edge5" class="edge"><title>Node5&#45;&gt;Node3</title>
<path fill="none" stroke="midnightblue" d="M225.436,-443.672C264.747,-472.715 354.751,-533.945 442,-556 546.711,-582.469 675.124,-564.298 740.805,-551.53"/>
<polygon fill="midnightblue" stroke="midnightblue" points="227.513,-440.855 217.41,-437.666 223.319,-446.459 227.513,-440.855"/>
</g>
<!-- Node5&#45;&gt;Node6 -->
<g id="edge6" class="edge"><title>Node5&#45;&gt;Node6</title>
<path fill="none" stroke="midnightblue" d="M263.3,-428C276.966,-428 291.298,-428 304.206,-428"/>
<polygon fill="midnightblue" stroke="midnightblue" points="263.015,-424.5 253.015,-428 263.015,-431.5 263.015,-424.5"/>
</g>
<!-- Node6&#45;&gt;Node4 -->
<g id="edge7" class="edge"><title>Node6&#45;&gt;Node4</title>
<path fill="none" stroke="midnightblue" d="M404.053,-424.409C513.1,-417.165 758.332,-400.873 867.637,-393.612"/>
<polygon fill="midnightblue" stroke="midnightblue" points="403.68,-420.926 393.934,-425.081 404.144,-427.911 403.68,-420.926"/>
</g>
<!-- Node7&#45;&gt;Node8 -->
<g id="edge10" class="edge"><title>Node7&#45;&gt;Node8</title>
<path fill="none" stroke="midnightblue" d="M262.365,-124C272.263,-124 282.537,-124 292.388,-124"/>
<polygon fill="midnightblue" stroke="midnightblue" points="262.22,-120.5 252.22,-124 262.22,-127.5 262.22,-120.5"/>
</g>
<!-- Node8&#45;&gt;Node4 -->
<g id="edge11" class="edge"><title>Node8&#45;&gt;Node4</title>
<path fill="none" stroke="midnightblue" d="M416.039,-130.182C458.031,-135.36 513.122,-144.484 560,-160 688.691,-202.596 722.702,-217.814 832,-298 866.59,-323.377 899.92,-362.438 914.423,-380.383"/>
<polygon fill="midnightblue" stroke="midnightblue" points="416.275,-126.685 405.932,-128.98 415.448,-133.637 416.275,-126.685"/>
</g>
<!-- Node9&#45;&gt;Node4 -->
<g id="edge13" class="edge"><title>Node9&#45;&gt;Node4</title>
<path fill="none" stroke="midnightblue" d="M397.516,-274.599C465.597,-273.484 594.541,-274.703 702,-295 761.799,-306.295 776.474,-313.092 832,-338 859.826,-350.482 890.135,-369.146 907.523,-380.39"/>
<polygon fill="midnightblue" stroke="midnightblue" points="397.057,-271.107 387.125,-274.795 397.19,-278.105 397.057,-271.107"/>
</g>
<!-- Node9&#45;&gt;Node10 -->
<g id="edge14" class="edge"><title>Node9&#45;&gt;Node10</title>
<path fill="none" stroke="midnightblue" d="M365.222,-293.353C396.536,-329.051 467.275,-409.693 491.599,-437.423"/>
<polygon fill="midnightblue" stroke="midnightblue" points="367.72,-290.893 358.494,-285.684 362.458,-295.509 367.72,-290.893"/>
</g>
<!-- Node9&#45;&gt;Node12 -->
<g id="edge19" class="edge"><title>Node9&#45;&gt;Node12</title>
<path fill="none" stroke="midnightblue" d="M396.799,-264.144C417.878,-258.804 442.436,-252.583 462.306,-247.549"/>
<polygon fill="midnightblue" stroke="midnightblue" points="395.913,-260.758 387.079,-266.607 397.632,-267.544 395.913,-260.758"/>
</g>
<!-- Node9&#45;&gt;Node13 -->
<g id="edge20" class="edge"><title>Node9&#45;&gt;Node13</title>
<path fill="none" stroke="midnightblue" d="M371.782,-260.434C389.917,-247.992 416.76,-230.748 442,-219 449.685,-215.423 458.231,-212.226 466.349,-209.521"/>
<polygon fill="midnightblue" stroke="midnightblue" points="369.353,-257.861 363.147,-266.448 373.354,-263.605 369.353,-257.861"/>
</g>
<!-- Node10&#45;&gt;Node2 -->
<g id="edge15" class="edge"><title>Node10&#45;&gt;Node2</title>
<path fill="none" stroke="midnightblue" d="M535.818,-460.203C562.626,-470.669 599.452,-485.046 623.483,-494.428"/>
<polygon fill="midnightblue" stroke="midnightblue" points="537.025,-456.917 526.437,-456.541 534.479,-463.438 537.025,-456.917"/>
</g>
<!-- Node10&#45;&gt;Node3 -->
<g id="edge17" class="edge"><title>Node10&#45;&gt;Node3</title>
<path fill="none" stroke="midnightblue" d="M557.758,-451.292C598.911,-455.943 655.587,-465.508 702,-485 730.134,-496.815 758.342,-519.326 773.224,-532.241"/>
<polygon fill="midnightblue" stroke="midnightblue" points="557.961,-447.794 547.646,-450.213 557.218,-454.754 557.961,-447.794"/>
</g>
<!-- Node10&#45;&gt;Node4 -->
<g id="edge16" class="edge"><title>Node10&#45;&gt;Node4</title>
<path fill="none" stroke="midnightblue" d="M557.82,-440.154C623.488,-432.001 735.77,-417.752 832,-404 843.584,-402.345 855.991,-400.476 867.777,-398.657"/>
<polygon fill="midnightblue" stroke="midnightblue" points="557.184,-436.706 547.69,-441.409 558.045,-443.653 557.184,-436.706"/>
</g>
<!-- Node10&#45;&gt;Node11 -->
<g id="edge18" class="edge"><title>Node10&#45;&gt;Node11</title>
<path fill="none" stroke="midnightblue" d="M519.936,-430.661C550.623,-402.706 612.296,-346.525 637.201,-323.837"/>
<polygon fill="midnightblue" stroke="midnightblue" points="517.535,-428.113 512.5,-437.435 522.25,-433.288 517.535,-428.113"/>
</g>
<!-- Node15&#45;&gt;Node3 -->
<g id="edge25" class="edge"><title>Node15&#45;&gt;Node3</title>
<path fill="none" stroke="midnightblue" d="M681.89,-604.095C688.614,-600.938 695.605,-597.483 702,-594 726.722,-580.534 754.085,-562.508 770.122,-551.602"/>
<polygon fill="midnightblue" stroke="midnightblue" points="679.964,-601.127 672.332,-608.476 682.881,-607.491 679.964,-601.127"/>
</g>
<!-- Node17&#45;&gt;Node3 -->
<g id="edge32" class="edge"><title>Node17&#45;&gt;Node3</title>
<path fill="none" stroke="midnightblue" d="M251.736,-341.157C253.184,-341.752 254.609,-342.367 256,-343 273.28,-350.868 275.026,-357.493 292,-366 340.411,-390.264 364.033,-374.778 406,-409 429.221,-427.936 418.72,-447.137 442,-466 498.704,-511.947 524.9,-506.532 596,-523 643.619,-534.03 699.493,-538.656 737.882,-540.597"/>
<polygon fill="midnightblue" stroke="midnightblue" points="252.542,-337.723 241.95,-337.514 250.1,-344.283 252.542,-337.723"/>
</g>
<!-- Node17&#45;&gt;Node4 -->
<g id="edge30" class="edge"><title>Node17&#45;&gt;Node4</title>
<path fill="none" stroke="midnightblue" d="M258.092,-334.93C317.07,-342.019 415.17,-352 500,-352 500,-352 500,-352 650,-352 732.011,-352 826.605,-369.154 879.852,-380.411"/>
<polygon fill="midnightblue" stroke="midnightblue" points="258.254,-331.424 247.904,-333.688 257.406,-338.373 258.254,-331.424"/>
</g>
<!-- Node17&#45;&gt;Node6 -->
<g id="edge33" class="edge"><title>Node17&#45;&gt;Node6</title>
<path fill="none" stroke="midnightblue" d="M235.046,-342.44C242.29,-346.616 249.738,-351.54 256,-357 275.832,-374.293 271.23,-387.846 292,-404 299.681,-409.974 309.074,-414.754 317.956,-418.427"/>
<polygon fill="midnightblue" stroke="midnightblue" points="236.543,-339.269 226.085,-337.566 233.198,-345.419 236.543,-339.269"/>
</g>
<!-- Node17&#45;&gt;Node9 -->
<g id="edge31" class="edge"><title>Node17&#45;&gt;Node9</title>
<path fill="none" stroke="midnightblue" d="M240.744,-315.002C265.791,-305.894 298.722,-293.919 321.454,-285.653"/>
<polygon fill="midnightblue" stroke="midnightblue" points="239.43,-311.756 231.228,-318.462 241.822,-318.334 239.43,-311.756"/>
</g>
<!-- Node17&#45;&gt;Node11 -->
<g id="edge34" class="edge"><title>Node17&#45;&gt;Node11</title>
<path fill="none" stroke="midnightblue" d="M257.903,-326.328C343.529,-323.622 511.435,-318.316 596.291,-315.634"/>
<polygon fill="midnightblue" stroke="midnightblue" points="257.764,-322.831 247.879,-326.645 257.985,-329.827 257.764,-322.831"/>
</g>
</g>
</svg>
