<?xml version="1.0" encoding="UTF-8" standalone="no"?>
<!DOCTYPE svg PUBLIC "-//W3C//DTD SVG 1.1//EN"
 "http://www.w3.org/Graphics/SVG/1.1/DTD/svg11.dtd">
<!-- Generated by graphviz version 2.36.0 (20140111.2315)
 -->
<!-- Title: nm_get_all_tags Pages: 1 -->
<svg width="218pt" height="180pt"
 viewBox="0.00 0.00 218.00 180.00" xmlns="http://www.w3.org/2000/svg" xmlns:xlink="http://www.w3.org/1999/xlink">
<g id="graph0" class="graph" transform="scale(1 1) rotate(0) translate(4 176)">
<title>nm_get_all_tags</title>
<polygon fill="white" stroke="none" points="-4,4 -4,-176 214,-176 214,4 -4,4"/>
<!-- Node1 -->
<g id="node1" class="node"><title>Node1</title>
<polygon fill="#bfbfbf" stroke="black" points="0,-76.5 0,-95.5 88,-95.5 88,-76.5 0,-76.5"/>
<text text-anchor="middle" x="44" y="-83.5" font-family="Helvetica,sans-Serif" font-size="10.00">nm_get_all_tags</text>
</g>
<!-- Node2 -->
<g id="node2" class="node"><title>Node2</title>
<g id="a_node2"><a xlink:href="mutt__notmuch_8c.html#a42d3d7558a84c64d5ad1ed20ba7db6a9" target="_top" xlink:title="Get the Notmuch data. ">
<polygon fill="white" stroke="black" points="133,-152.5 133,-171.5 201,-171.5 201,-152.5 133,-152.5"/>
<text text-anchor="middle" x="167" y="-159.5" font-family="Helvetica,sans-Serif" font-size="10.00">get_ctxdata</text>
</a>
</g>
</g>
<!-- Node1&#45;&gt;Node2 -->
<g id="edge1" class="edge"><title>Node1&#45;&gt;Node2</title>
<path fill="none" stroke="midnightblue" d="M56.8042,-95.6747C71.8183,-107.702 98.8269,-128.422 124,-143 127,-144.737 130.186,-146.43 133.411,-148.045"/>
<polygon fill="midnightblue" stroke="midnightblue" points="131.943,-151.222 142.477,-152.357 134.95,-144.901 131.943,-151.222"/>
</g>
<!-- Node3 -->
<g id="node3" class="node"><title>Node3</title>
<g id="a_node3"><a xlink:href="mutt__notmuch_8c.html#aa70d84c620de4ce4b1c48d32d428bccc" target="_top" xlink:title="Get the Notmuch database. ">
<polygon fill="white" stroke="red" points="144,-114.5 144,-133.5 190,-133.5 190,-114.5 144,-114.5"/>
<text text-anchor="middle" x="167" y="-121.5" font-family="Helvetica,sans-Serif" font-size="10.00">get_db</text>
</a>
</g>
</g>
<!-- Node1&#45;&gt;Node3 -->
<g id="edge2" class="edge"><title>Node1&#45;&gt;Node3</title>
<path fill="none" stroke="midnightblue" d="M75.5334,-95.589C93.491,-101.229 116.161,-108.348 134.315,-114.049"/>
<polygon fill="midnightblue" stroke="midnightblue" points="133.288,-117.395 143.877,-117.052 135.385,-110.717 133.288,-117.395"/>
</g>
<!-- Node4 -->
<g id="node4" class="node"><title>Node4</title>
<g id="a_node4"><a xlink:href="mutt_2string_8c.html#ae48085384a6545e0fac589a88243ea31" target="_top" xlink:title="Copy a string, safely. ">
<polygon fill="white" stroke="red" points="124.5,-76.5 124.5,-95.5 209.5,-95.5 209.5,-76.5 124.5,-76.5"/>
<text text-anchor="middle" x="167" y="-83.5" font-family="Helvetica,sans-Serif" font-size="10.00">mutt_str_strdup</text>
</a>
</g>
</g>
<!-- Node1&#45;&gt;Node4 -->
<g id="edge3" class="edge"><title>Node1&#45;&gt;Node4</title>
<path fill="none" stroke="midnightblue" d="M88.0008,-86C96.496,-86 105.495,-86 114.244,-86"/>
<polygon fill="midnightblue" stroke="midnightblue" points="114.356,-89.5001 124.356,-86 114.356,-82.5001 114.356,-89.5001"/>
</g>
<!-- Node5 -->
<g id="node5" class="node"><title>Node5</title>
<g id="a_node5"><a xlink:href="mutt__notmuch_8c.html#ae8f27b72be837d5e1cb9b77ec8673f14" target="_top" xlink:title="Is Notmuch in the middle of a long&#45;running transaction. ">
<polygon fill="white" stroke="black" points="136.5,-38.5 136.5,-57.5 197.5,-57.5 197.5,-38.5 136.5,-38.5"/>
<text text-anchor="middle" x="167" y="-45.5" font-family="Helvetica,sans-Serif" font-size="10.00">is_longrun</text>
</a>
</g>
</g>
<!-- Node1&#45;&gt;Node5 -->
<g id="edge4" class="edge"><title>Node1&#45;&gt;Node5</title>
<path fill="none" stroke="midnightblue" d="M75.5334,-76.411C90.9554,-71.5677 109.853,-65.633 126.381,-60.4425"/>
<polygon fill="midnightblue" stroke="midnightblue" points="127.821,-63.6587 136.313,-57.3232 125.724,-56.9803 127.821,-63.6587"/>
</g>
<!-- Node6 -->
<g id="node6" class="node"><title>Node6</title>
<g id="a_node6"><a xlink:href="mutt__notmuch_8c.html#ad59dad043d60e9c4fdeca9ff435dffbd" target="_top" xlink:title="Close the Notmuch database. ">
<polygon fill="white" stroke="black" points="135,-0.5 135,-19.5 199,-19.5 199,-0.5 135,-0.5"/>
<text text-anchor="middle" x="167" y="-7.5" font-family="Helvetica,sans-Serif" font-size="10.00">release_db</text>
</a>
</g>
</g>
<!-- Node1&#45;&gt;Node6 -->
<g id="edge5" class="edge"><title>Node1&#45;&gt;Node6</title>
<path fill="none" stroke="midnightblue" d="M56.8042,-76.3253C71.8183,-64.2977 98.8269,-43.5783 124,-29 127,-27.2628 130.186,-25.5696 133.411,-23.9552"/>
<polygon fill="midnightblue" stroke="midnightblue" points="134.95,-27.0993 142.477,-19.643 131.943,-20.778 134.95,-27.0993"/>
</g>
</g>
</svg>
