<?xml version="1.0" encoding="UTF-8" standalone="no"?>
<!DOCTYPE svg PUBLIC "-//W3C//DTD SVG 1.1//EN"
 "http://www.w3.org/Graphics/SVG/1.1/DTD/svg11.dtd">
<!-- Generated by graphviz version 2.36.0 (20140111.2315)
 -->
<!-- Title: query_quadoption Pages: 1 -->
<svg width="366pt" height="47pt"
 viewBox="0.00 0.00 366.00 47.00" xmlns="http://www.w3.org/2000/svg" xmlns:xlink="http://www.w3.org/1999/xlink">
<g id="graph0" class="graph" transform="scale(1 1) rotate(0) translate(4 43)">
<title>query_quadoption</title>
<polygon fill="white" stroke="none" points="-4,4 -4,-43 362,-43 362,4 -4,4"/>
<!-- Node1 -->
<g id="node1" class="node"><title>Node1</title>
<polygon fill="#bfbfbf" stroke="black" points="0.5,-0.5 0.5,-19.5 93.5,-19.5 93.5,-0.5 0.5,-0.5"/>
<text text-anchor="middle" x="47" y="-7.5" font-family="Helvetica,sans-Serif" font-size="10.00">query_quadoption</text>
</g>
<!-- Node2 -->
<g id="node2" class="node"><title>Node2</title>
<g id="a_node2"><a xlink:href="curs__lib_8c.html#a2ac481c92c3c888c1f658696909a3430" target="_top" xlink:title="Ask the user a Yes/No question. ">
<polygon fill="white" stroke="red" points="130,-19.5 130,-38.5 206,-38.5 206,-19.5 130,-19.5"/>
<text text-anchor="middle" x="168" y="-26.5" font-family="Helvetica,sans-Serif" font-size="10.00">mutt_yesorno</text>
</a>
</g>
</g>
<!-- Node1&#45;&gt;Node2 -->
<g id="edge1" class="edge"><title>Node1&#45;&gt;Node2</title>
<path fill="none" stroke="midnightblue" d="M93.6682,-17.2916C102.242,-18.6605 111.222,-20.0942 119.84,-21.4703"/>
<polygon fill="midnightblue" stroke="midnightblue" points="119.319,-24.9313 129.745,-23.0518 120.422,-18.0188 119.319,-24.9313"/>
</g>
<!-- Node3 -->
<g id="node3" class="node"><title>Node3</title>
<g id="a_node3"><a xlink:href="mutt__window_8c.html#adb0d282e3a7b3cf644485c1aab14774f" target="_top" xlink:title="Clear a row of a Window. ">
<polygon fill="white" stroke="red" points="242,-0.5 242,-19.5 358,-19.5 358,-0.5 242,-0.5"/>
<text text-anchor="middle" x="300" y="-7.5" font-family="Helvetica,sans-Serif" font-size="10.00">mutt_window_clearline</text>
</a>
</g>
</g>
<!-- Node1&#45;&gt;Node3 -->
<g id="edge3" class="edge"><title>Node1&#45;&gt;Node3</title>
<path fill="none" stroke="midnightblue" d="M93.7454,-10C132.232,-10 187.804,-10 231.421,-10"/>
<polygon fill="midnightblue" stroke="midnightblue" points="231.665,-13.5001 241.665,-10 231.665,-6.5001 231.665,-13.5001"/>
</g>
<!-- Node2&#45;&gt;Node3 -->
<g id="edge2" class="edge"><title>Node2&#45;&gt;Node3</title>
<path fill="none" stroke="midnightblue" d="M206.253,-23.5554C214.321,-22.3762 223.091,-21.0944 231.912,-19.8051"/>
<polygon fill="midnightblue" stroke="midnightblue" points="232.47,-23.2609 241.859,-18.3514 231.458,-16.3344 232.47,-23.2609"/>
</g>
</g>
</svg>
