<?xml version="1.0" encoding="UTF-8" standalone="no"?>
<!DOCTYPE svg PUBLIC "-//W3C//DTD SVG 1.1//EN"
 "http://www.w3.org/Graphics/SVG/1.1/DTD/svg11.dtd">
<!-- Generated by graphviz version 2.36.0 (20140111.2315)
 -->
<!-- Title: mutt_account_getuser Pages: 1 -->
<svg width="434pt" height="446pt"
 viewBox="0.00 0.00 434.00 446.00" xmlns="http://www.w3.org/2000/svg" xmlns:xlink="http://www.w3.org/1999/xlink">
<g id="graph0" class="graph" transform="scale(1 1) rotate(0) translate(4 442)">
<title>mutt_account_getuser</title>
<polygon fill="white" stroke="none" points="-4,4 -4,-442 430,-442 430,4 -4,4"/>
<!-- Node1 -->
<g id="node1" class="node"><title>Node1</title>
<polygon fill="#bfbfbf" stroke="black" points="0.5,-209.5 0.5,-228.5 113.5,-228.5 113.5,-209.5 0.5,-209.5"/>
<text text-anchor="middle" x="57" y="-216.5" font-family="Helvetica,sans-Serif" font-size="10.00">mutt_account_getuser</text>
</g>
<!-- Node2 -->
<g id="node2" class="node"><title>Node2</title>
<g id="a_node2"><a xlink:href="sasl_8c.html#a27f79aa92f9ee0eff38ba8ba9b783c15" target="_top" xlink:title="callback to retrieve authname or user from Account ">
<polygon fill="white" stroke="red" points="302.5,-209.5 302.5,-228.5 425.5,-228.5 425.5,-209.5 302.5,-209.5"/>
<text text-anchor="middle" x="364" y="-216.5" font-family="Helvetica,sans-Serif" font-size="10.00">mutt_sasl_cb_authname</text>
</a>
</g>
</g>
<!-- Node1&#45;&gt;Node2 -->
<g id="edge1" class="edge"><title>Node1&#45;&gt;Node2</title>
<path fill="none" stroke="midnightblue" d="M66.5893,-237.955C79.9918,-264.916 108.696,-313.257 150,-333 196.515,-355.234 219.2,-354.628 266,-333 313.887,-310.87 346.822,-252.154 358.406,-228.79"/>
<polygon fill="midnightblue" stroke="midnightblue" points="69.6732,-236.29 62.2075,-228.773 63.3557,-239.305 69.6732,-236.29"/>
</g>
<!-- Node3 -->
<g id="node3" class="node"><title>Node3</title>
<g id="a_node3"><a xlink:href="ssl_8c.html#a4711c35cc17a4ce6ec4b20bfb94604f1" target="_top" xlink:title="Callback to get a password. ">
<polygon fill="white" stroke="black" points="166,-418.5 166,-437.5 250,-437.5 250,-418.5 166,-418.5"/>
<text text-anchor="middle" x="208" y="-425.5" font-family="Helvetica,sans-Serif" font-size="10.00">ssl_passwd_cb</text>
</a>
</g>
</g>
<!-- Node1&#45;&gt;Node3 -->
<g id="edge2" class="edge"><title>Node1&#45;&gt;Node3</title>
<path fill="none" stroke="midnightblue" d="M62.9412,-238.994C73.1114,-276.262 99.7594,-356.827 150,-404 156.575,-410.174 164.972,-414.88 173.288,-418.417"/>
<polygon fill="midnightblue" stroke="midnightblue" points="66.2192,-237.695 60.306,-228.904 59.4464,-239.463 66.2192,-237.695"/>
</g>
<!-- Node4 -->
<g id="node4" class="node"><title>Node4</title>
<g id="a_node4"><a xlink:href="ssl_8c.html#ad249269819bbf126758110522b538d62" target="_top" xlink:title="Get the client certificate for an SSL connection. ">
<polygon fill="white" stroke="red" points="315,-399.5 315,-418.5 413,-418.5 413,-399.5 315,-399.5"/>
<text text-anchor="middle" x="364" y="-406.5" font-family="Helvetica,sans-Serif" font-size="10.00">ssl_get_client_cert</text>
</a>
</g>
</g>
<!-- Node1&#45;&gt;Node4 -->
<g id="edge4" class="edge"><title>Node1&#45;&gt;Node4</title>
<path fill="none" stroke="midnightblue" d="M65.495,-237.937C78.2411,-267.618 107.01,-324.815 150,-355 199.33,-389.637 268.904,-402.088 314.943,-406.546"/>
<polygon fill="midnightblue" stroke="midnightblue" points="68.7189,-236.574 61.6578,-228.676 62.252,-239.254 68.7189,-236.574"/>
</g>
<!-- Node5 -->
<g id="node5" class="node"><title>Node5</title>
<g id="a_node5"><a xlink:href="ssl__gnutls_8c.html#ac78a03ed1e6f606a618f474c0dd798ca" target="_top" xlink:title="Get the client certificate for a TLS connection. ">
<polygon fill="white" stroke="red" points="160,-304.5 160,-323.5 256,-323.5 256,-304.5 160,-304.5"/>
<text text-anchor="middle" x="208" y="-311.5" font-family="Helvetica,sans-Serif" font-size="10.00">tls_get_client_cert</text>
</a>
</g>
</g>
<!-- Node1&#45;&gt;Node5 -->
<g id="edge5" class="edge"><title>Node1&#45;&gt;Node5</title>
<path fill="none" stroke="midnightblue" d="M74.4564,-235.856C91.8532,-252.844 120.773,-278.801 150,-295 156.66,-298.691 164.157,-301.822 171.471,-304.413"/>
<polygon fill="midnightblue" stroke="midnightblue" points="76.8717,-233.322 67.3144,-228.75 71.9342,-238.284 76.8717,-233.322"/>
</g>
<!-- Node6 -->
<g id="node6" class="node"><title>Node6</title>
<g id="a_node6"><a xlink:href="auth__anon_8c.html#abf7c86a7705f1b21eb39aa3a473fe5c4" target="_top" xlink:title="Authenticate anonymously. ">
<polygon fill="white" stroke="black" points="164,-266.5 164,-285.5 252,-285.5 252,-266.5 164,-266.5"/>
<text text-anchor="middle" x="208" y="-273.5" font-family="Helvetica,sans-Serif" font-size="10.00">imap_auth_anon</text>
</a>
</g>
</g>
<!-- Node1&#45;&gt;Node6 -->
<g id="edge6" class="edge"><title>Node1&#45;&gt;Node6</title>
<path fill="none" stroke="midnightblue" d="M89.4122,-232.613C107.092,-240.114 129.642,-249.413 150,-257 158.699,-260.242 168.239,-263.526 176.984,-266.431"/>
<polygon fill="midnightblue" stroke="midnightblue" points="90.7073,-229.361 80.136,-228.654 87.9592,-235.799 90.7073,-229.361"/>
</g>
<!-- Node7 -->
<g id="node7" class="node"><title>Node7</title>
<g id="a_node7"><a xlink:href="auth__gss_8c.html#a013a06b2578393579585808f9763e83b" target="_top" xlink:title="GSS Authentication support. ">
<polygon fill="white" stroke="black" points="166.5,-228.5 166.5,-247.5 249.5,-247.5 249.5,-228.5 166.5,-228.5"/>
<text text-anchor="middle" x="208" y="-235.5" font-family="Helvetica,sans-Serif" font-size="10.00">imap_auth_gss</text>
</a>
</g>
</g>
<!-- Node1&#45;&gt;Node7 -->
<g id="edge7" class="edge"><title>Node1&#45;&gt;Node7</title>
<path fill="none" stroke="midnightblue" d="M124.201,-227.442C138.48,-229.263 153.172,-231.136 166.142,-232.79"/>
<polygon fill="midnightblue" stroke="midnightblue" points="124.268,-223.922 113.906,-226.129 123.383,-230.866 124.268,-223.922"/>
</g>
<!-- Node8 -->
<g id="node8" class="node"><title>Node8</title>
<g id="a_node8"><a xlink:href="auth__login_8c.html#abb26a091e960e3d234ca8d3e33700d62" target="_top" xlink:title="Plain LOGIN support. ">
<polygon fill="white" stroke="black" points="164.5,-190.5 164.5,-209.5 251.5,-209.5 251.5,-190.5 164.5,-190.5"/>
<text text-anchor="middle" x="208" y="-197.5" font-family="Helvetica,sans-Serif" font-size="10.00">imap_auth_login</text>
</a>
</g>
</g>
<!-- Node1&#45;&gt;Node8 -->
<g id="edge8" class="edge"><title>Node1&#45;&gt;Node8</title>
<path fill="none" stroke="midnightblue" d="M124.205,-210.558C137.807,-208.823 151.783,-207.041 164.289,-205.446"/>
<polygon fill="midnightblue" stroke="midnightblue" points="123.383,-207.134 113.906,-211.871 124.268,-214.078 123.383,-207.134"/>
</g>
<!-- Node9 -->
<g id="node9" class="node"><title>Node9</title>
<g id="a_node9"><a xlink:href="auth__plain_8c.html#a29a95145f0e0e5c19d2d8e085cff9aba" target="_top" xlink:title="SASL PLAIN support. ">
<polygon fill="white" stroke="black" points="164.5,-152.5 164.5,-171.5 251.5,-171.5 251.5,-152.5 164.5,-152.5"/>
<text text-anchor="middle" x="208" y="-159.5" font-family="Helvetica,sans-Serif" font-size="10.00">imap_auth_plain</text>
</a>
</g>
</g>
<!-- Node1&#45;&gt;Node9 -->
<g id="edge9" class="edge"><title>Node1&#45;&gt;Node9</title>
<path fill="none" stroke="midnightblue" d="M89.4122,-205.387C107.092,-197.886 129.642,-188.587 150,-181 158.699,-177.758 168.239,-174.474 176.984,-171.569"/>
<polygon fill="midnightblue" stroke="midnightblue" points="87.9592,-202.201 80.136,-209.346 90.7073,-208.639 87.9592,-202.201"/>
</g>
<!-- Node10 -->
<g id="node10" class="node"><title>Node10</title>
<g id="a_node10"><a xlink:href="auth__sasl_8c.html#a20df19153f0a84479482001b8f911099" target="_top" xlink:title="Default authenticator if available. ">
<polygon fill="white" stroke="black" points="165.5,-114.5 165.5,-133.5 250.5,-133.5 250.5,-114.5 165.5,-114.5"/>
<text text-anchor="middle" x="208" y="-121.5" font-family="Helvetica,sans-Serif" font-size="10.00">imap_auth_sasl</text>
</a>
</g>
</g>
<!-- Node1&#45;&gt;Node10 -->
<g id="edge10" class="edge"><title>Node1&#45;&gt;Node10</title>
<path fill="none" stroke="midnightblue" d="M74.4564,-202.144C91.8532,-185.156 120.773,-159.199 150,-143 156.66,-139.309 164.157,-136.178 171.471,-133.587"/>
<polygon fill="midnightblue" stroke="midnightblue" points="71.9342,-199.716 67.3144,-209.25 76.8717,-204.678 71.9342,-199.716"/>
</g>
<!-- Node11 -->
<g id="node11" class="node"><title>Node11</title>
<g id="a_node11"><a xlink:href="mutt__account_8h.html#a5516f13e123fbd697b159a529d916406" target="_top" xlink:title="Retrieve login info into Account, if necessary. ">
<polygon fill="white" stroke="red" points="150.5,-76.5 150.5,-95.5 265.5,-95.5 265.5,-76.5 150.5,-76.5"/>
<text text-anchor="middle" x="208" y="-83.5" font-family="Helvetica,sans-Serif" font-size="10.00">mutt_account_getlogin</text>
</a>
</g>
</g>
<!-- Node1&#45;&gt;Node11 -->
<g id="edge11" class="edge"><title>Node1&#45;&gt;Node11</title>
<path fill="none" stroke="midnightblue" d="M68.422,-200.278C83.3438,-175.119 113.111,-130.605 150,-105 155.484,-101.193 161.789,-98.1024 168.161,-95.6074"/>
<polygon fill="midnightblue" stroke="midnightblue" points="65.249,-198.774 63.2825,-209.185 71.312,-202.273 65.249,-198.774"/>
</g>
<!-- Node12 -->
<g id="node12" class="node"><title>Node12</title>
<g id="a_node12"><a xlink:href="nntp_8c.html#aedcf4307ed69f367cbfad56e292a1f63" target="_top" xlink:title="Get login, password and authenticate. ">
<polygon fill="white" stroke="red" points="178.5,-38.5 178.5,-57.5 237.5,-57.5 237.5,-38.5 178.5,-38.5"/>
<text text-anchor="middle" x="208" y="-45.5" font-family="Helvetica,sans-Serif" font-size="10.00">nntp_auth</text>
</a>
</g>
</g>
<!-- Node1&#45;&gt;Node12 -->
<g id="edge13" class="edge"><title>Node1&#45;&gt;Node12</title>
<path fill="none" stroke="midnightblue" d="M64.6505,-199.608C76.6557,-167.428 104.966,-102.982 150,-67 158.149,-60.4887 168.629,-56.1652 178.376,-53.3138"/>
<polygon fill="midnightblue" stroke="midnightblue" points="61.2929,-198.602 61.2036,-209.197 67.8802,-200.97 61.2929,-198.602"/>
</g>
<!-- Node13 -->
<g id="node13" class="node"><title>Node13</title>
<g id="a_node13"><a xlink:href="pop__private_8h.html#a20cf4ea869ec23f8877e1d574854ac11" target="_top" xlink:title="Authenticate with a POP server. ">
<polygon fill="white" stroke="red" points="162.5,-0.5 162.5,-19.5 253.5,-19.5 253.5,-0.5 162.5,-0.5"/>
<text text-anchor="middle" x="208" y="-7.5" font-family="Helvetica,sans-Serif" font-size="10.00">pop_authenticate</text>
</a>
</g>
</g>
<!-- Node1&#45;&gt;Node13 -->
<g id="edge14" class="edge"><title>Node1&#45;&gt;Node13</title>
<path fill="none" stroke="midnightblue" d="M62.1949,-199.141C71.3286,-160.723 96.6218,-75.8924 150,-29 154.389,-25.1447 159.585,-22.0669 165.025,-19.611"/>
<polygon fill="midnightblue" stroke="midnightblue" points="58.7393,-198.555 59.951,-209.08 65.5674,-200.096 58.7393,-198.555"/>
</g>
<!-- Node3&#45;&gt;Node4 -->
<g id="edge3" class="edge"><title>Node3&#45;&gt;Node4</title>
<path fill="none" stroke="midnightblue" d="M260.345,-421.665C277.907,-419.498 297.48,-417.084 314.787,-414.948"/>
<polygon fill="midnightblue" stroke="midnightblue" points="259.765,-418.21 250.269,-422.908 260.623,-425.157 259.765,-418.21"/>
</g>
<!-- Node11&#45;&gt;Node2 -->
<g id="edge12" class="edge"><title>Node11&#45;&gt;Node2</title>
<path fill="none" stroke="midnightblue" d="M256.759,-99.6762C259.986,-101.274 263.102,-103.044 266,-105 309.077,-134.079 344.05,-187.302 357.29,-209.196"/>
<polygon fill="midnightblue" stroke="midnightblue" points="258.022,-96.4086 247.457,-95.6123 255.22,-102.823 258.022,-96.4086"/>
</g>
</g>
</svg>
