<?xml version="1.0" encoding="UTF-8" standalone="no"?>
<!DOCTYPE svg PUBLIC "-//W3C//DTD SVG 1.1//EN"
 "http://www.w3.org/Graphics/SVG/1.1/DTD/svg11.dtd">
<!-- Generated by graphviz version 2.36.0 (20140111.2315)
 -->
<!-- Title: mutt_pipe_attachment Pages: 1 -->
<svg width="276pt" height="66pt"
 viewBox="0.00 0.00 276.00 66.00" xmlns="http://www.w3.org/2000/svg" xmlns:xlink="http://www.w3.org/1999/xlink">
<g id="graph0" class="graph" transform="scale(1 1) rotate(0) translate(4 62)">
<title>mutt_pipe_attachment</title>
<polygon fill="white" stroke="none" points="-4,4 -4,-62 272,-62 272,4 -4,4"/>
<!-- Node1 -->
<g id="node1" class="node"><title>Node1</title>
<polygon fill="#bfbfbf" stroke="black" points="0.5,-19.5 0.5,-38.5 113.5,-38.5 113.5,-19.5 0.5,-19.5"/>
<text text-anchor="middle" x="57" y="-26.5" font-family="Helvetica,sans-Serif" font-size="10.00">mutt_pipe_attachment</text>
</g>
<!-- Node2 -->
<g id="node2" class="node"><title>Node2</title>
<g id="a_node2"><a xlink:href="mutt__attach_8h.html#a55e06a71a4e4180b7279d5eb5439d9d5" target="_top" xlink:title="Print out an attachment. ">
<polygon fill="white" stroke="red" points="152,-38.5 152,-57.5 266,-57.5 266,-38.5 152,-38.5"/>
<text text-anchor="middle" x="209" y="-45.5" font-family="Helvetica,sans-Serif" font-size="10.00">mutt_print_attachment</text>
</a>
</g>
</g>
<!-- Node1&#45;&gt;Node2 -->
<g id="edge1" class="edge"><title>Node1&#45;&gt;Node2</title>
<path fill="none" stroke="midnightblue" d="M123.875,-37.3442C133.205,-38.526 142.726,-39.7319 151.849,-40.8875"/>
<polygon fill="midnightblue" stroke="midnightblue" points="124.215,-33.8594 113.854,-36.0749 123.335,-40.8039 124.215,-33.8594"/>
</g>
<!-- Node3 -->
<g id="node3" class="node"><title>Node3</title>
<g id="a_node3"><a xlink:href="recvattach_8c.html#af9a91b1708bff64bf5e3d46c6b3efce1" target="_top" xlink:title="Ask the user if we should pipe the attachment. ">
<polygon fill="white" stroke="red" points="150,-0.5 150,-19.5 268,-19.5 268,-0.5 150,-0.5"/>
<text text-anchor="middle" x="209" y="-7.5" font-family="Helvetica,sans-Serif" font-size="10.00">query_pipe_attachment</text>
</a>
</g>
</g>
<!-- Node1&#45;&gt;Node3 -->
<g id="edge2" class="edge"><title>Node1&#45;&gt;Node3</title>
<path fill="none" stroke="midnightblue" d="M123.895,-20.6533C132.536,-19.5587 141.341,-18.4434 149.842,-17.3667"/>
<polygon fill="midnightblue" stroke="midnightblue" points="123.335,-17.1961 113.854,-21.9251 124.215,-24.1406 123.335,-17.1961"/>
</g>
</g>
</svg>
