<?xml version="1.0" encoding="UTF-8" standalone="no"?>
<!DOCTYPE svg PUBLIC "-//W3C//DTD SVG 1.1//EN"
 "http://www.w3.org/Graphics/SVG/1.1/DTD/svg11.dtd">
<!-- Generated by graphviz version 2.36.0 (20140111.2315)
 -->
<!-- Title: mutt_pipe_attachment_list Pages: 1 -->
<svg width="310pt" height="256pt"
 viewBox="0.00 0.00 310.00 256.00" xmlns="http://www.w3.org/2000/svg" xmlns:xlink="http://www.w3.org/1999/xlink">
<g id="graph0" class="graph" transform="scale(1 1) rotate(0) translate(4 252)">
<title>mutt_pipe_attachment_list</title>
<polygon fill="white" stroke="none" points="-4,4 -4,-252 306,-252 306,4 -4,4"/>
<!-- Node1 -->
<g id="node1" class="node"><title>Node1</title>
<polygon fill="#bfbfbf" stroke="black" points="0.5,-114.5 0.5,-133.5 131.5,-133.5 131.5,-114.5 0.5,-114.5"/>
<text text-anchor="middle" x="66" y="-121.5" font-family="Helvetica,sans-Serif" font-size="10.00">mutt_pipe_attachment_list</text>
</g>
<!-- Node2 -->
<g id="node2" class="node"><title>Node2</title>
<g id="a_node2"><a xlink:href="muttlib_8c.html#a483f037de523c624d449b4296a3ddfb2" target="_top" xlink:title="Create the canonical path. ">
<polygon fill="white" stroke="red" points="186.5,-228.5 186.5,-247.5 283.5,-247.5 283.5,-228.5 186.5,-228.5"/>
<text text-anchor="middle" x="235" y="-235.5" font-family="Helvetica,sans-Serif" font-size="10.00">mutt_expand_path</text>
</a>
</g>
</g>
<!-- Node1&#45;&gt;Node2 -->
<g id="edge1" class="edge"><title>Node1&#45;&gt;Node2</title>
<path fill="none" stroke="midnightblue" d="M74.5223,-133.655C89.9575,-152.812 127.206,-195.776 168,-219 171.894,-221.217 176.067,-223.192 180.353,-224.949"/>
<polygon fill="midnightblue" stroke="midnightblue" points="179.259,-228.276 189.852,-228.456 181.683,-221.709 179.259,-228.276"/>
</g>
<!-- Node3 -->
<g id="node3" class="node"><title>Node3</title>
<g id="a_node3"><a xlink:href="curs__lib_8c.html#acd14d074d8b9e6cb21e851dd573cdec2" target="_top" xlink:title="Shutdown curses/slang. ">
<polygon fill="white" stroke="red" points="199,-190.5 199,-209.5 271,-209.5 271,-190.5 199,-190.5"/>
<text text-anchor="middle" x="235" y="-197.5" font-family="Helvetica,sans-Serif" font-size="10.00">mutt_endwin</text>
</a>
</g>
</g>
<!-- Node1&#45;&gt;Node3 -->
<g id="edge2" class="edge"><title>Node1&#45;&gt;Node3</title>
<path fill="none" stroke="midnightblue" d="M81.5047,-133.628C100.643,-145.989 135.692,-167.452 168,-181 174.728,-183.821 182.011,-186.379 189.198,-188.639"/>
<polygon fill="midnightblue" stroke="midnightblue" points="188.295,-192.022 198.879,-191.532 190.299,-185.315 188.295,-192.022"/>
</g>
<!-- Node4 -->
<g id="node4" class="node"><title>Node4</title>
<g id="a_node4"><a xlink:href="filter_8c.html#a9175e055396a99789d648cd43000f126" target="_top" xlink:title="Set up filter program. ">
<polygon fill="white" stroke="red" points="189,-152.5 189,-171.5 281,-171.5 281,-152.5 189,-152.5"/>
<text text-anchor="middle" x="235" y="-159.5" font-family="Helvetica,sans-Serif" font-size="10.00">mutt_create_filter</text>
</a>
</g>
</g>
<!-- Node1&#45;&gt;Node4 -->
<g id="edge3" class="edge"><title>Node1&#45;&gt;Node4</title>
<path fill="none" stroke="midnightblue" d="M109.141,-133.589C131.377,-138.649 158.848,-144.9 182.356,-150.249"/>
<polygon fill="midnightblue" stroke="midnightblue" points="181.635,-153.674 192.162,-152.48 183.188,-146.848 181.635,-153.674"/>
</g>
<!-- Node5 -->
<g id="node5" class="node"><title>Node5</title>
<g id="a_node5"><a xlink:href="recvattach_8c.html#a98d36f893b4f2d703f4d42b564623eab" target="_top" xlink:title="Pipe a list of attachments to a command. ">
<polygon fill="white" stroke="red" points="181.5,-114.5 181.5,-133.5 288.5,-133.5 288.5,-114.5 181.5,-114.5"/>
<text text-anchor="middle" x="235" y="-121.5" font-family="Helvetica,sans-Serif" font-size="10.00">pipe_attachment_list</text>
</a>
</g>
</g>
<!-- Node1&#45;&gt;Node5 -->
<g id="edge4" class="edge"><title>Node1&#45;&gt;Node5</title>
<path fill="none" stroke="midnightblue" d="M131.567,-124C144.603,-124 158.289,-124 171.261,-124"/>
<polygon fill="midnightblue" stroke="midnightblue" points="171.486,-127.5 181.486,-124 171.486,-120.5 171.486,-127.5"/>
</g>
<!-- Node6 -->
<g id="node6" class="node"><title>Node6</title>
<g id="a_node6"><a xlink:href="file_8c.html#a4982d9040dfaf38e847729be2af83ed6" target="_top" xlink:title="Close a FILE handle (and NULL the pointer) ">
<polygon fill="white" stroke="black" points="192,-76.5 192,-95.5 278,-95.5 278,-76.5 192,-76.5"/>
<text text-anchor="middle" x="235" y="-83.5" font-family="Helvetica,sans-Serif" font-size="10.00">mutt_file_fclose</text>
</a>
</g>
</g>
<!-- Node1&#45;&gt;Node6 -->
<g id="edge5" class="edge"><title>Node1&#45;&gt;Node6</title>
<path fill="none" stroke="midnightblue" d="M109.141,-114.411C131.377,-109.351 158.848,-103.1 182.356,-97.7512"/>
<polygon fill="midnightblue" stroke="midnightblue" points="183.188,-101.152 192.162,-95.5201 181.635,-94.3261 183.188,-101.152"/>
</g>
<!-- Node7 -->
<g id="node7" class="node"><title>Node7</title>
<g id="a_node7"><a xlink:href="filter_8c.html#a2d652b11c7d2ea31208315aaf61537d2" target="_top" xlink:title="Wait for the exit of a process and return its status. ">
<polygon fill="white" stroke="red" points="193.5,-38.5 193.5,-57.5 276.5,-57.5 276.5,-38.5 193.5,-38.5"/>
<text text-anchor="middle" x="235" y="-45.5" font-family="Helvetica,sans-Serif" font-size="10.00">mutt_wait_filter</text>
</a>
</g>
</g>
<!-- Node1&#45;&gt;Node7 -->
<g id="edge6" class="edge"><title>Node1&#45;&gt;Node7</title>
<path fill="none" stroke="midnightblue" d="M81.5047,-114.372C100.643,-102.011 135.692,-80.5475 168,-67 173.495,-64.696 179.359,-62.5676 185.239,-60.6339"/>
<polygon fill="midnightblue" stroke="midnightblue" points="186.58,-63.8821 195.087,-57.567 184.499,-57.1986 186.58,-63.8821"/>
</g>
<!-- Node8 -->
<g id="node8" class="node"><title>Node8</title>
<g id="a_node8"><a xlink:href="curs__lib_8c.html#ab6a61cdfcf8c2c73ee59381c79c79774" target="_top" xlink:title="Prompt the user to &#39;press any key&#39; and wait. ">
<polygon fill="white" stroke="red" points="168,-0.5 168,-19.5 302,-19.5 302,-0.5 168,-0.5"/>
<text text-anchor="middle" x="235" y="-7.5" font-family="Helvetica,sans-Serif" font-size="10.00">mutt_any_key_to_continue</text>
</a>
</g>
</g>
<!-- Node1&#45;&gt;Node8 -->
<g id="edge7" class="edge"><title>Node1&#45;&gt;Node8</title>
<path fill="none" stroke="midnightblue" d="M74.5223,-114.345C89.9575,-95.1883 127.206,-52.2243 168,-29 171.894,-26.7832 176.067,-24.8078 180.353,-23.0507"/>
<polygon fill="midnightblue" stroke="midnightblue" points="181.683,-26.2906 189.852,-19.5438 179.259,-19.7238 181.683,-26.2906"/>
</g>
</g>
</svg>
