<?xml version="1.0" encoding="UTF-8" standalone="no"?>
<!DOCTYPE svg PUBLIC "-//W3C//DTD SVG 1.1//EN"
 "http://www.w3.org/Graphics/SVG/1.1/DTD/svg11.dtd">
<!-- Generated by graphviz version 2.36.0 (20140111.2315)
 -->
<!-- Title: mutt_str_append_item Pages: 1 -->
<svg width="274pt" height="142pt"
 viewBox="0.00 0.00 274.00 142.00" xmlns="http://www.w3.org/2000/svg" xmlns:xlink="http://www.w3.org/1999/xlink">
<g id="graph0" class="graph" transform="scale(1 1) rotate(0) translate(4 138)">
<title>mutt_str_append_item</title>
<polygon fill="white" stroke="none" points="-4,4 -4,-138 270,-138 270,4 -4,4"/>
<!-- Node1 -->
<g id="node1" class="node"><title>Node1</title>
<polygon fill="#bfbfbf" stroke="black" points="0.5,-57.5 0.5,-76.5 113.5,-76.5 113.5,-57.5 0.5,-57.5"/>
<text text-anchor="middle" x="57" y="-64.5" font-family="Helvetica,sans-Serif" font-size="10.00">mutt_str_append_item</text>
</g>
<!-- Node2 -->
<g id="node2" class="node"><title>Node2</title>
<g id="a_node2"><a xlink:href="tags_8c.html#a64e445048fcbb1b0058e80f24de6056f" target="_top" xlink:title="Get transformed tags. ">
<polygon fill="white" stroke="red" points="160.5,-114.5 160.5,-133.5 255.5,-133.5 255.5,-114.5 160.5,-114.5"/>
<text text-anchor="middle" x="208" y="-121.5" font-family="Helvetica,sans-Serif" font-size="10.00">driver_tags_getter</text>
</a>
</g>
</g>
<!-- Node1&#45;&gt;Node2 -->
<g id="edge1" class="edge"><title>Node1&#45;&gt;Node2</title>
<path fill="none" stroke="midnightblue" d="M89.4122,-80.6132C107.092,-88.1137 129.642,-97.4133 150,-105 158.699,-108.242 168.239,-111.526 176.984,-114.431"/>
<polygon fill="midnightblue" stroke="midnightblue" points="90.7073,-77.3606 80.136,-76.6537 87.9592,-83.7986 90.7073,-77.3606"/>
</g>
<!-- Node3 -->
<g id="node3" class="node"><title>Node3</title>
<g id="a_node3"><a xlink:href="message_8c.html#ae2caafd14e477d7a51501898a4e4fdc8" target="_top" xlink:title="read a FLAGS token into an ImapHeader ">
<polygon fill="white" stroke="red" points="162.5,-76.5 162.5,-95.5 253.5,-95.5 253.5,-76.5 162.5,-76.5"/>
<text text-anchor="middle" x="208" y="-83.5" font-family="Helvetica,sans-Serif" font-size="10.00">msg_parse_flags</text>
</a>
</g>
</g>
<!-- Node1&#45;&gt;Node3 -->
<g id="edge2" class="edge"><title>Node1&#45;&gt;Node3</title>
<path fill="none" stroke="midnightblue" d="M124.177,-75.4387C137.112,-77.0881 150.386,-78.7808 162.413,-80.3145"/>
<polygon fill="midnightblue" stroke="midnightblue" points="124.268,-71.9221 113.906,-74.129 123.383,-78.8659 124.268,-71.9221"/>
</g>
<!-- Node4 -->
<g id="node4" class="node"><title>Node4</title>
<g id="a_node4"><a xlink:href="mutt__notmuch_8c.html#a739b1ab09985b62235f7c587e2d17a95" target="_top" xlink:title="Update the Header&#39;s tags from Notmuch. ">
<polygon fill="white" stroke="red" points="156,-38.5 156,-57.5 260,-57.5 260,-38.5 156,-38.5"/>
<text text-anchor="middle" x="208" y="-45.5" font-family="Helvetica,sans-Serif" font-size="10.00">update_header_tags</text>
</a>
</g>
</g>
<!-- Node1&#45;&gt;Node4 -->
<g id="edge3" class="edge"><title>Node1&#45;&gt;Node4</title>
<path fill="none" stroke="midnightblue" d="M123.995,-58.5846C134.622,-57.2294 145.483,-55.8444 155.698,-54.5418"/>
<polygon fill="midnightblue" stroke="midnightblue" points="123.383,-55.1341 113.906,-59.871 124.268,-62.0779 123.383,-55.1341"/>
</g>
<!-- Node5 -->
<g id="node5" class="node"><title>Node5</title>
<g id="a_node5"><a xlink:href="mutt__notmuch_8h.html#a0ded7df239e46a63158aa72747d3ece5" target="_top" xlink:title="Get the entire thread of an email. ">
<polygon fill="white" stroke="red" points="150,-0.5 150,-19.5 266,-19.5 266,-0.5 150,-0.5"/>
<text text-anchor="middle" x="208" y="-7.5" font-family="Helvetica,sans-Serif" font-size="10.00">nm_read_entire_thread</text>
</a>
</g>
</g>
<!-- Node1&#45;&gt;Node5 -->
<g id="edge4" class="edge"><title>Node1&#45;&gt;Node5</title>
<path fill="none" stroke="midnightblue" d="M89.4122,-53.3868C107.092,-45.8863 129.642,-36.5867 150,-29 158.699,-25.7581 168.239,-22.4739 176.984,-19.5686"/>
<polygon fill="midnightblue" stroke="midnightblue" points="87.9592,-50.2014 80.136,-57.3463 90.7073,-56.6394 87.9592,-50.2014"/>
</g>
</g>
</svg>
