<?xml version="1.0" encoding="UTF-8" standalone="no"?>
<!DOCTYPE svg PUBLIC "-//W3C//DTD SVG 1.1//EN"
 "http://www.w3.org/Graphics/SVG/1.1/DTD/svg11.dtd">
<!-- Generated by graphviz version 2.36.0 (20140111.2315)
 -->
<!-- Title: mutt_make_version Pages: 1 -->
<svg width="252pt" height="294pt"
 viewBox="0.00 0.00 252.00 294.00" xmlns="http://www.w3.org/2000/svg" xmlns:xlink="http://www.w3.org/1999/xlink">
<g id="graph0" class="graph" transform="scale(1 1) rotate(0) translate(4 290)">
<title>mutt_make_version</title>
<polygon fill="white" stroke="none" points="-4,4 -4,-290 248,-290 248,4 -4,4"/>
<!-- Node1 -->
<g id="node1" class="node"><title>Node1</title>
<polygon fill="#bfbfbf" stroke="black" points="0,-133.5 0,-152.5 102,-152.5 102,-133.5 0,-133.5"/>
<text text-anchor="middle" x="51" y="-140.5" font-family="Helvetica,sans-Serif" font-size="10.00">mutt_make_version</text>
</g>
<!-- Node2 -->
<g id="node2" class="node"><title>Node2</title>
<g id="a_node2"><a xlink:href="compose_8c.html#aae8a6a225143c6ef3a573de27ef15957" target="_top" xlink:title="Create the status bar string for compose mode &#45; Implements format_t. ">
<polygon fill="white" stroke="red" points="138,-266.5 138,-285.5 244,-285.5 244,-266.5 138,-266.5"/>
<text text-anchor="middle" x="191" y="-273.5" font-family="Helvetica,sans-Serif" font-size="10.00">compose_format_str</text>
</a>
</g>
</g>
<!-- Node1&#45;&gt;Node2 -->
<g id="edge1" class="edge"><title>Node1&#45;&gt;Node2</title>
<path fill="none" stroke="midnightblue" d="M61.5416,-161.593C75.2598,-186.606 102.822,-230.95 138,-257 143.175,-260.832 149.203,-263.96 155.284,-266.49"/>
<polygon fill="midnightblue" stroke="midnightblue" points="64.6168,-159.922 56.825,-152.743 58.4392,-163.214 64.6168,-159.922"/>
</g>
<!-- Node3 -->
<g id="node3" class="node"><title>Node3</title>
<g id="a_node3"><a xlink:href="curs__main_8h.html#af7d9d8649ad205788c9af1bbf871207f" target="_top" xlink:title="Display a list of emails. ">
<polygon fill="white" stroke="red" points="144,-228.5 144,-247.5 238,-247.5 238,-228.5 144,-228.5"/>
<text text-anchor="middle" x="191" y="-235.5" font-family="Helvetica,sans-Serif" font-size="10.00">mutt_index_menu</text>
</a>
</g>
</g>
<!-- Node1&#45;&gt;Node3 -->
<g id="edge2" class="edge"><title>Node1&#45;&gt;Node3</title>
<path fill="none" stroke="midnightblue" d="M67.7022,-160.216C83.914,-177.13 110.634,-202.706 138,-219 144.194,-222.688 151.222,-225.846 158.063,-228.467"/>
<polygon fill="midnightblue" stroke="midnightblue" points="70.0282,-157.58 60.631,-152.687 64.9257,-162.372 70.0282,-157.58"/>
</g>
<!-- Node4 -->
<g id="node4" class="node"><title>Node4</title>
<g id="a_node4"><a xlink:href="main_8c.html#ad96d407a911fbb914fa8e4cfbf2faf0f" target="_top" xlink:title="Display NeoMutt command line. ">
<polygon fill="white" stroke="red" points="169.5,-190.5 169.5,-209.5 212.5,-209.5 212.5,-190.5 169.5,-190.5"/>
<text text-anchor="middle" x="191" y="-197.5" font-family="Helvetica,sans-Serif" font-size="10.00">usage</text>
</a>
</g>
</g>
<!-- Node1&#45;&gt;Node4 -->
<g id="edge3" class="edge"><title>Node1&#45;&gt;Node4</title>
<path fill="none" stroke="midnightblue" d="M81.8216,-156.755C98.2775,-164.198 119.143,-173.399 138,-181 148.252,-185.133 159.786,-189.386 169.383,-192.819"/>
<polygon fill="midnightblue" stroke="midnightblue" points="83.2423,-153.556 72.6906,-152.6 80.3433,-159.928 83.2423,-153.556"/>
</g>
<!-- Node5 -->
<g id="node5" class="node"><title>Node5</title>
<g id="a_node5"><a xlink:href="mutt__lua_8c.html#ae56f5cd7bf675c8c68d1094f7b0daea1" target="_top" xlink:title="Declare some NeoMutt types to the Lua interpreter. ">
<polygon fill="white" stroke="red" points="142,-152.5 142,-171.5 240,-171.5 240,-152.5 142,-152.5"/>
<text text-anchor="middle" x="191" y="-159.5" font-family="Helvetica,sans-Serif" font-size="10.00">luaopen_mutt_decl</text>
</a>
</g>
</g>
<!-- Node1&#45;&gt;Node5 -->
<g id="edge4" class="edge"><title>Node1&#45;&gt;Node5</title>
<path fill="none" stroke="midnightblue" d="M112.381,-151.313C122.256,-152.673 132.37,-154.065 141.898,-155.377"/>
<polygon fill="midnightblue" stroke="midnightblue" points="112.596,-147.81 102.212,-149.913 111.641,-154.745 112.596,-147.81"/>
</g>
<!-- Node6 -->
<g id="node6" class="node"><title>Node6</title>
<g id="a_node6"><a xlink:href="pager_8h.html#a1f4fb11389135c8767d9c4adca46f0d4" target="_top" xlink:title="Display a file, or help, in a window. ">
<polygon fill="white" stroke="red" points="158.5,-114.5 158.5,-133.5 223.5,-133.5 223.5,-114.5 158.5,-114.5"/>
<text text-anchor="middle" x="191" y="-121.5" font-family="Helvetica,sans-Serif" font-size="10.00">mutt_pager</text>
</a>
</g>
</g>
<!-- Node1&#45;&gt;Node6 -->
<g id="edge5" class="edge"><title>Node1&#45;&gt;Node6</title>
<path fill="none" stroke="midnightblue" d="M112.507,-134.669C128.363,-132.486 144.825,-130.22 158.478,-128.34"/>
<polygon fill="midnightblue" stroke="midnightblue" points="111.641,-131.255 102.212,-136.087 112.596,-138.19 111.641,-131.255"/>
</g>
<!-- Node7 -->
<g id="node7" class="node"><title>Node7</title>
<g id="a_node7"><a xlink:href="status_8c.html#a92f5e92c0ed851b635ca764b9102059e" target="_top" xlink:title="Create the status bar string &#45; Implements format_t. ">
<polygon fill="white" stroke="red" points="144.5,-76.5 144.5,-95.5 237.5,-95.5 237.5,-76.5 144.5,-76.5"/>
<text text-anchor="middle" x="191" y="-83.5" font-family="Helvetica,sans-Serif" font-size="10.00">status_format_str</text>
</a>
</g>
</g>
<!-- Node1&#45;&gt;Node7 -->
<g id="edge6" class="edge"><title>Node1&#45;&gt;Node7</title>
<path fill="none" stroke="midnightblue" d="M81.8216,-129.245C98.2775,-121.802 119.143,-112.601 138,-105 146.023,-101.766 154.832,-98.4573 162.882,-95.5265"/>
<polygon fill="midnightblue" stroke="midnightblue" points="80.3433,-126.072 72.6906,-133.4 83.2423,-132.444 80.3433,-126.072"/>
</g>
<!-- Node8 -->
<g id="node8" class="node"><title>Node8</title>
<g id="a_node8"><a xlink:href="version_8h.html#ac6230d495fc909bb61195c45f703d492" target="_top" xlink:title="Print system and compile info. ">
<polygon fill="white" stroke="red" points="155,-38.5 155,-57.5 227,-57.5 227,-38.5 155,-38.5"/>
<text text-anchor="middle" x="191" y="-45.5" font-family="Helvetica,sans-Serif" font-size="10.00">print_version</text>
</a>
</g>
</g>
<!-- Node1&#45;&gt;Node8 -->
<g id="edge7" class="edge"><title>Node1&#45;&gt;Node8</title>
<path fill="none" stroke="midnightblue" d="M67.7022,-125.784C83.914,-108.87 110.634,-83.2937 138,-67 144.194,-63.3121 151.222,-60.1544 158.063,-57.5326"/>
<polygon fill="midnightblue" stroke="midnightblue" points="64.9257,-123.628 60.631,-133.313 70.0282,-128.42 64.9257,-123.628"/>
</g>
<!-- Node9 -->
<g id="node9" class="node"><title>Node9</title>
<g id="a_node9"><a xlink:href="version_8h.html#aa0f2c94a8723f9941d3e38cff586af00" target="_top" xlink:title="Print copyright message. ">
<polygon fill="white" stroke="red" points="151,-0.5 151,-19.5 231,-19.5 231,-0.5 151,-0.5"/>
<text text-anchor="middle" x="191" y="-7.5" font-family="Helvetica,sans-Serif" font-size="10.00">print_copyright</text>
</a>
</g>
</g>
<!-- Node1&#45;&gt;Node9 -->
<g id="edge8" class="edge"><title>Node1&#45;&gt;Node9</title>
<path fill="none" stroke="midnightblue" d="M61.5416,-124.407C75.2598,-99.3944 102.822,-55.0498 138,-29 143.175,-25.1676 149.203,-22.0399 155.284,-19.5103"/>
<polygon fill="midnightblue" stroke="midnightblue" points="58.4392,-122.786 56.825,-133.257 64.6168,-126.078 58.4392,-122.786"/>
</g>
</g>
</svg>
