<?xml version="1.0" encoding="UTF-8" standalone="no"?>
<!DOCTYPE svg PUBLIC "-//W3C//DTD SVG 1.1//EN"
 "http://www.w3.org/Graphics/SVG/1.1/DTD/svg11.dtd">
<!-- Generated by graphviz version 2.36.0 (20140111.2315)
 -->
<!-- Title: get_db Pages: 1 -->
<svg width="188pt" height="66pt"
 viewBox="0.00 0.00 188.00 66.00" xmlns="http://www.w3.org/2000/svg" xmlns:xlink="http://www.w3.org/1999/xlink">
<g id="graph0" class="graph" transform="scale(1 1) rotate(0) translate(4 62)">
<title>get_db</title>
<polygon fill="white" stroke="none" points="-4,4 -4,-62 184,-62 184,4 -4,4"/>
<!-- Node1 -->
<g id="node1" class="node"><title>Node1</title>
<polygon fill="#bfbfbf" stroke="black" points="0,-19.5 0,-38.5 46,-38.5 46,-19.5 0,-19.5"/>
<text text-anchor="middle" x="23" y="-26.5" font-family="Helvetica,sans-Serif" font-size="10.00">get_db</text>
</g>
<!-- Node2 -->
<g id="node2" class="node"><title>Node2</title>
<g id="a_node2"><a xlink:href="mutt__notmuch_8c.html#a5f33877fe3c8ec9bc5a2975da24c53d9" target="_top" xlink:title="Get the filename of the Notmuch database. ">
<polygon fill="white" stroke="black" points="87,-38.5 87,-57.5 175,-57.5 175,-38.5 87,-38.5"/>
<text text-anchor="middle" x="131" y="-45.5" font-family="Helvetica,sans-Serif" font-size="10.00">get_db_filename</text>
</a>
</g>
</g>
<!-- Node1&#45;&gt;Node2 -->
<g id="edge1" class="edge"><title>Node1&#45;&gt;Node2</title>
<path fill="none" stroke="midnightblue" d="M46.2211,-32.983C55.2381,-34.5993 66.0742,-36.5416 76.915,-38.4848"/>
<polygon fill="midnightblue" stroke="midnightblue" points="76.3594,-41.9409 86.8201,-40.2602 77.5945,-35.0507 76.3594,-41.9409"/>
</g>
<!-- Node3 -->
<g id="node3" class="node"><title>Node3</title>
<g id="a_node3"><a xlink:href="mutt__notmuch_8c.html#abc7e957f012b22e60c564de1533b7853" target="_top" xlink:title="Open a Notmuch database. ">
<polygon fill="white" stroke="red" points="82,-0.5 82,-19.5 180,-19.5 180,-0.5 82,-0.5"/>
<text text-anchor="middle" x="131" y="-7.5" font-family="Helvetica,sans-Serif" font-size="10.00">do_database_open</text>
</a>
</g>
</g>
<!-- Node1&#45;&gt;Node3 -->
<g id="edge2" class="edge"><title>Node1&#45;&gt;Node3</title>
<path fill="none" stroke="midnightblue" d="M46.2211,-25.017C53.8001,-23.6585 62.6642,-22.0696 71.7361,-20.4435"/>
<polygon fill="midnightblue" stroke="midnightblue" points="72.385,-23.8831 81.6106,-18.6736 71.1499,-16.9929 72.385,-23.8831"/>
</g>
</g>
</svg>
