<?xml version="1.0" encoding="UTF-8" standalone="no"?>
<!DOCTYPE svg PUBLIC "-//W3C//DTD SVG 1.1//EN"
 "http://www.w3.org/Graphics/SVG/1.1/DTD/svg11.dtd">
<!-- Generated by graphviz version 2.36.0 (20140111.2315)
 -->
<!-- Title: mutt_inbox_cmp Pages: 1 -->
<svg width="266pt" height="66pt"
 viewBox="0.00 0.00 266.00 66.00" xmlns="http://www.w3.org/2000/svg" xmlns:xlink="http://www.w3.org/1999/xlink">
<g id="graph0" class="graph" transform="scale(1 1) rotate(0) translate(4 62)">
<title>mutt_inbox_cmp</title>
<polygon fill="white" stroke="none" points="-4,4 -4,-62 262,-62 262,4 -4,4"/>
<!-- Node1 -->
<g id="node1" class="node"><title>Node1</title>
<polygon fill="#bfbfbf" stroke="black" points="0.5,-19.5 0.5,-38.5 89.5,-38.5 89.5,-19.5 0.5,-19.5"/>
<text text-anchor="middle" x="45" y="-26.5" font-family="Helvetica,sans-Serif" font-size="10.00">mutt_inbox_cmp</text>
</g>
<!-- Node2 -->
<g id="node2" class="node"><title>Node2</title>
<g id="a_node2"><a xlink:href="browser_8c.html#af9190b0147359661eacaa7266e2d9e1c" target="_top" xlink:title="Compare the subject of two browser entries. ">
<polygon fill="white" stroke="red" points="126.5,-38.5 126.5,-57.5 257.5,-57.5 257.5,-38.5 126.5,-38.5"/>
<text text-anchor="middle" x="192" y="-45.5" font-family="Helvetica,sans-Serif" font-size="10.00">browser_compare_subject</text>
</a>
</g>
</g>
<!-- Node1&#45;&gt;Node2 -->
<g id="edge1" class="edge"><title>Node1&#45;&gt;Node2</title>
<path fill="none" stroke="midnightblue" d="M99.5361,-36.0151C108.264,-37.1587 117.386,-38.3541 126.347,-39.5282"/>
<polygon fill="midnightblue" stroke="midnightblue" points="99.8748,-32.5296 89.5048,-34.7006 98.9653,-39.4703 99.8748,-32.5296"/>
</g>
<!-- Node3 -->
<g id="node3" class="node"><title>Node3</title>
<g id="a_node3"><a xlink:href="sidebar_8c.html#a12f640df3ef9b1df1d856cbadd899eb8" target="_top" xlink:title="qsort callback to sort SbEntry&#39;s ">
<polygon fill="white" stroke="red" points="154.5,-0.5 154.5,-19.5 229.5,-19.5 229.5,-0.5 154.5,-0.5"/>
<text text-anchor="middle" x="192" y="-7.5" font-family="Helvetica,sans-Serif" font-size="10.00">cb_qsort_sbe</text>
</a>
</g>
</g>
<!-- Node1&#45;&gt;Node3 -->
<g id="edge2" class="edge"><title>Node1&#45;&gt;Node3</title>
<path fill="none" stroke="midnightblue" d="M99.446,-21.9967C117.721,-19.6021 137.734,-16.9797 154.375,-14.7991"/>
<polygon fill="midnightblue" stroke="midnightblue" points="98.9653,-18.5297 89.5048,-23.2994 99.8748,-25.4704 98.9653,-18.5297"/>
</g>
</g>
</svg>
