<?xml version="1.0" encoding="UTF-8" standalone="no"?>
<!DOCTYPE svg PUBLIC "-//W3C//DTD SVG 1.1//EN"
 "http://www.w3.org/Graphics/SVG/1.1/DTD/svg11.dtd">
<!-- Generated by graphviz version 2.36.0 (20140111.2315)
 -->
<!-- Title: mutt_conn_find Pages: 1 -->
<svg width="236pt" height="218pt"
 viewBox="0.00 0.00 236.00 218.00" xmlns="http://www.w3.org/2000/svg" xmlns:xlink="http://www.w3.org/1999/xlink">
<g id="graph0" class="graph" transform="scale(1 1) rotate(0) translate(4 214)">
<title>mutt_conn_find</title>
<polygon fill="white" stroke="none" points="-4,4 -4,-214 232,-214 232,4 -4,4"/>
<!-- Node1 -->
<g id="node1" class="node"><title>Node1</title>
<polygon fill="#bfbfbf" stroke="black" points="0.5,-95.5 0.5,-114.5 83.5,-114.5 83.5,-95.5 0.5,-95.5"/>
<text text-anchor="middle" x="42" y="-102.5" font-family="Helvetica,sans-Serif" font-size="10.00">mutt_conn_find</text>
</g>
<!-- Node2 -->
<g id="node2" class="node"><title>Node2</title>
<g id="a_node2"><a xlink:href="mutt__account_8c.html#a7853b8b5072b04320ad7a356a54c4e8e" target="_top" xlink:title="Fill URL with info from account. ">
<polygon fill="white" stroke="black" points="124,-190.5 124,-209.5 224,-209.5 224,-190.5 124,-190.5"/>
<text text-anchor="middle" x="174" y="-197.5" font-family="Helvetica,sans-Serif" font-size="10.00">mutt_account_tourl</text>
</a>
</g>
</g>
<!-- Node1&#45;&gt;Node2 -->
<g id="edge1" class="edge"><title>Node1&#45;&gt;Node2</title>
<path fill="none" stroke="midnightblue" d="M50.2866,-114.511C62.8875,-130.365 90.2697,-162.297 120,-181 123.165,-182.991 126.567,-184.811 130.065,-186.467"/>
<polygon fill="midnightblue" stroke="midnightblue" points="128.88,-189.767 139.451,-190.471 131.627,-183.328 128.88,-189.767"/>
</g>
<!-- Node3 -->
<g id="node3" class="node"><title>Node3</title>
<g id="a_node3"><a xlink:href="url_8c.html#a9a25aab1cc9763713277d2282c31af79" target="_top" xlink:title="Output the URL string for a given Url object. ">
<polygon fill="white" stroke="red" points="141.5,-152.5 141.5,-171.5 206.5,-171.5 206.5,-152.5 141.5,-152.5"/>
<text text-anchor="middle" x="174" y="-159.5" font-family="Helvetica,sans-Serif" font-size="10.00">url_tostring</text>
</a>
</g>
</g>
<!-- Node1&#45;&gt;Node3 -->
<g id="edge2" class="edge"><title>Node1&#45;&gt;Node3</title>
<path fill="none" stroke="midnightblue" d="M61.0846,-114.657C76.5178,-122.72 99.4158,-134.265 120,-143 124.77,-145.024 129.838,-147.025 134.875,-148.925"/>
<polygon fill="midnightblue" stroke="midnightblue" points="133.844,-152.275 144.438,-152.435 136.256,-145.704 133.844,-152.275"/>
</g>
<!-- Node4 -->
<g id="node4" class="node"><title>Node4</title>
<g id="a_node4"><a xlink:href="hook_8c.html#a4d4e38013bebd1e23d668454609a3def" target="_top" xlink:title="Perform an account hook. ">
<polygon fill="white" stroke="red" points="123,-114.5 123,-133.5 225,-133.5 225,-114.5 123,-114.5"/>
<text text-anchor="middle" x="174" y="-121.5" font-family="Helvetica,sans-Serif" font-size="10.00">mutt_account_hook</text>
</a>
</g>
</g>
<!-- Node1&#45;&gt;Node4 -->
<g id="edge3" class="edge"><title>Node1&#45;&gt;Node4</title>
<path fill="none" stroke="midnightblue" d="M83.7761,-110.96C92.9501,-112.3 102.875,-113.751 112.659,-115.181"/>
<polygon fill="midnightblue" stroke="midnightblue" points="112.365,-118.675 122.766,-116.658 113.378,-111.749 112.365,-118.675"/>
</g>
<!-- Node5 -->
<g id="node5" class="node"><title>Node5</title>
<g id="a_node5"><a xlink:href="socket_8c.html#ad5ecccfa77b2a38711422cbff3cf868a" target="_top" xlink:title="Get the first socket. ">
<polygon fill="white" stroke="black" points="125.5,-76.5 125.5,-95.5 222.5,-95.5 222.5,-76.5 125.5,-76.5"/>
<text text-anchor="middle" x="174" y="-83.5" font-family="Helvetica,sans-Serif" font-size="10.00">mutt_socket_head</text>
</a>
</g>
</g>
<!-- Node1&#45;&gt;Node5 -->
<g id="edge4" class="edge"><title>Node1&#45;&gt;Node5</title>
<path fill="none" stroke="midnightblue" d="M83.7761,-99.0404C93.7076,-97.5889 104.519,-96.0087 115.079,-94.4654"/>
<polygon fill="midnightblue" stroke="midnightblue" points="115.7,-97.9118 125.089,-93.0024 114.688,-90.9854 115.7,-97.9118"/>
</g>
<!-- Node6 -->
<g id="node6" class="node"><title>Node6</title>
<g id="a_node6"><a xlink:href="mutt__account_8c.html#a761a305955603fd616cd8cc1ba810803" target="_top" xlink:title="Compare account info (host/port/user) ">
<polygon fill="white" stroke="red" points="120,-38.5 120,-57.5 228,-57.5 228,-38.5 120,-38.5"/>
<text text-anchor="middle" x="174" y="-45.5" font-family="Helvetica,sans-Serif" font-size="10.00">mutt_account_match</text>
</a>
</g>
</g>
<!-- Node1&#45;&gt;Node6 -->
<g id="edge5" class="edge"><title>Node1&#45;&gt;Node6</title>
<path fill="none" stroke="midnightblue" d="M61.0846,-95.3431C76.5178,-87.2801 99.4158,-75.7351 120,-67 124.77,-64.9756 129.838,-62.9749 134.875,-61.0747"/>
<polygon fill="midnightblue" stroke="midnightblue" points="136.256,-64.2962 144.438,-57.565 133.844,-57.7248 136.256,-64.2962"/>
</g>
<!-- Node7 -->
<g id="node7" class="node"><title>Node7</title>
<g id="a_node7"><a xlink:href="socket_8c.html#a1e3195d6b1472777b64d1d9633e3b2cc" target="_top" xlink:title="allocate and initialise a new connection ">
<polygon fill="white" stroke="red" points="127,-0.5 127,-19.5 221,-19.5 221,-0.5 127,-0.5"/>
<text text-anchor="middle" x="174" y="-7.5" font-family="Helvetica,sans-Serif" font-size="10.00">mutt_socket_new</text>
</a>
</g>
</g>
<!-- Node1&#45;&gt;Node7 -->
<g id="edge6" class="edge"><title>Node1&#45;&gt;Node7</title>
<path fill="none" stroke="midnightblue" d="M50.2866,-95.4889C62.8875,-79.6346 90.2697,-47.7032 120,-29 123.165,-27.0091 126.567,-25.189 130.065,-23.533"/>
<polygon fill="midnightblue" stroke="midnightblue" points="131.627,-26.672 139.451,-19.5286 128.88,-20.2334 131.627,-26.672"/>
</g>
</g>
</svg>
