<?xml version="1.0" encoding="UTF-8" standalone="no"?>
<!DOCTYPE svg PUBLIC "-//W3C//DTD SVG 1.1//EN"
 "http://www.w3.org/Graphics/SVG/1.1/DTD/svg11.dtd">
<!-- Generated by graphviz version 2.36.0 (20140111.2315)
 -->
<!-- Title: mutt_label_hash_remove Pages: 1 -->
<svg width="266pt" height="66pt"
 viewBox="0.00 0.00 266.00 66.00" xmlns="http://www.w3.org/2000/svg" xmlns:xlink="http://www.w3.org/1999/xlink">
<g id="graph0" class="graph" transform="scale(1 1) rotate(0) translate(4 62)">
<title>mutt_label_hash_remove</title>
<polygon fill="white" stroke="none" points="-4,4 -4,-62 262,-62 262,4 -4,4"/>
<!-- Node1 -->
<g id="node1" class="node"><title>Node1</title>
<polygon fill="#bfbfbf" stroke="black" points="0.5,-19.5 0.5,-38.5 125.5,-38.5 125.5,-19.5 0.5,-19.5"/>
<text text-anchor="middle" x="63" y="-26.5" font-family="Helvetica,sans-Serif" font-size="10.00">mutt_label_hash_remove</text>
</g>
<!-- Node2 -->
<g id="node2" class="node"><title>Node2</title>
<g id="a_node2"><a xlink:href="mx_8h.html#a650f15b54caff8e416c6ad5100a41546" target="_top" xlink:title="Update a Context structure&#39;s internal tables. ">
<polygon fill="white" stroke="red" points="162,-38.5 162,-57.5 258,-57.5 258,-38.5 162,-38.5"/>
<text text-anchor="middle" x="210" y="-45.5" font-family="Helvetica,sans-Serif" font-size="10.00">mx_update_tables</text>
</a>
</g>
</g>
<!-- Node1&#45;&gt;Node2 -->
<g id="edge1" class="edge"><title>Node1&#45;&gt;Node2</title>
<path fill="none" stroke="midnightblue" d="M136.109,-38.4488C144.823,-39.5906 153.544,-40.7333 161.769,-41.8111"/>
<polygon fill="midnightblue" stroke="midnightblue" points="136.284,-34.9418 125.914,-37.1128 135.374,-41.8825 136.284,-34.9418"/>
</g>
<!-- Node3 -->
<g id="node3" class="node"><title>Node3</title>
<g id="a_node3"><a xlink:href="pop_8c.html#acdcd617038ac12a95b869352680d587b" target="_top" xlink:title="fetch message from POP server ">
<polygon fill="white" stroke="black" points="168.5,-0.5 168.5,-19.5 251.5,-19.5 251.5,-0.5 168.5,-0.5"/>
<text text-anchor="middle" x="210" y="-7.5" font-family="Helvetica,sans-Serif" font-size="10.00">pop_msg_open</text>
</a>
</g>
</g>
<!-- Node1&#45;&gt;Node3 -->
<g id="edge2" class="edge"><title>Node1&#45;&gt;Node3</title>
<path fill="none" stroke="midnightblue" d="M136.044,-19.5598C147.11,-18.1097 158.192,-16.6577 168.255,-15.339"/>
<polygon fill="midnightblue" stroke="midnightblue" points="135.374,-16.1175 125.914,-20.8872 136.284,-23.0582 135.374,-16.1175"/>
</g>
</g>
</svg>
