<?xml version="1.0" encoding="UTF-8" standalone="no"?>
<!DOCTYPE svg PUBLIC "-//W3C//DTD SVG 1.1//EN"
 "http://www.w3.org/Graphics/SVG/1.1/DTD/svg11.dtd">
<!-- Generated by graphviz version 2.36.0 (20140111.2315)
 -->
<!-- Title: myvar_set Pages: 1 -->
<svg width="180pt" height="104pt"
 viewBox="0.00 0.00 180.00 104.00" xmlns="http://www.w3.org/2000/svg" xmlns:xlink="http://www.w3.org/1999/xlink">
<g id="graph0" class="graph" transform="scale(1 1) rotate(0) translate(4 100)">
<title>myvar_set</title>
<polygon fill="white" stroke="none" points="-4,4 -4,-100 176,-100 176,4 -4,4"/>
<!-- Node1 -->
<g id="node1" class="node"><title>Node1</title>
<polygon fill="#bfbfbf" stroke="black" points="0,-38.5 0,-57.5 62,-57.5 62,-38.5 0,-38.5"/>
<text text-anchor="middle" x="31" y="-45.5" font-family="Helvetica,sans-Serif" font-size="10.00">myvar_set</text>
</g>
<!-- Node2 -->
<g id="node2" class="node"><title>Node2</title>
<g id="a_node2"><a xlink:href="init_8c.html#a8f0f3d5856d7f876c0dbf004faeeb8ad" target="_top" xlink:title="Parse the &#39;set&#39; family of commands &#45; Implements command_t. ">
<polygon fill="white" stroke="black" points="105.5,-76.5 105.5,-95.5 164.5,-95.5 164.5,-76.5 105.5,-76.5"/>
<text text-anchor="middle" x="135" y="-83.5" font-family="Helvetica,sans-Serif" font-size="10.00">parse_set</text>
</a>
</g>
</g>
<!-- Node1&#45;&gt;Node2 -->
<g id="edge1" class="edge"><title>Node1&#45;&gt;Node2</title>
<path fill="none" stroke="midnightblue" d="M67.2115,-61.118C80.7022,-66.1439 95.8281,-71.7791 108.269,-76.4141"/>
<polygon fill="midnightblue" stroke="midnightblue" points="68.3316,-57.8004 57.7389,-57.589 65.8878,-64.3599 68.3316,-57.8004"/>
</g>
<!-- Node3 -->
<g id="node3" class="node"><title>Node3</title>
<g id="a_node3"><a xlink:href="main_8c.html#adedb285b02c41bde2158ded9cc9fd7ac" target="_top" xlink:title="Start NeoMutt. ">
<polygon fill="white" stroke="black" points="116,-38.5 116,-57.5 154,-57.5 154,-38.5 116,-38.5"/>
<text text-anchor="middle" x="135" y="-45.5" font-family="Helvetica,sans-Serif" font-size="10.00">main</text>
</a>
</g>
</g>
<!-- Node1&#45;&gt;Node3 -->
<g id="edge2" class="edge"><title>Node1&#45;&gt;Node3</title>
<path fill="none" stroke="midnightblue" d="M72.253,-48C87.3945,-48 103.86,-48 115.977,-48"/>
<polygon fill="midnightblue" stroke="midnightblue" points="72.0517,-44.5001 62.0517,-48 72.0516,-51.5001 72.0517,-44.5001"/>
</g>
<!-- Node4 -->
<g id="node4" class="node"><title>Node4</title>
<g id="a_node4"><a xlink:href="mutt__lua_8c.html#af96bea1efde57c78432367ad9e0b62d0" target="_top" xlink:title="Set a NeoMutt variable. ">
<polygon fill="white" stroke="black" points="98.5,-0.5 98.5,-19.5 171.5,-19.5 171.5,-0.5 98.5,-0.5"/>
<text text-anchor="middle" x="135" y="-7.5" font-family="Helvetica,sans-Serif" font-size="10.00">lua_mutt_set</text>
</a>
</g>
</g>
<!-- Node1&#45;&gt;Node4 -->
<g id="edge3" class="edge"><title>Node1&#45;&gt;Node4</title>
<path fill="none" stroke="midnightblue" d="M67.2115,-34.882C80.7022,-29.8561 95.8281,-24.2209 108.269,-19.5859"/>
<polygon fill="midnightblue" stroke="midnightblue" points="65.8878,-31.6401 57.7389,-38.411 68.3316,-38.1996 65.8878,-31.6401"/>
</g>
</g>
</svg>
