<?xml version="1.0" encoding="UTF-8" standalone="no"?>
<!DOCTYPE svg PUBLIC "-//W3C//DTD SVG 1.1//EN"
 "http://www.w3.org/Graphics/SVG/1.1/DTD/svg11.dtd">
<!-- Generated by graphviz version 2.36.0 (20140111.2315)
 -->
<!-- Title: mutt_hist_complete Pages: 1 -->
<svg width="364pt" height="142pt"
 viewBox="0.00 0.00 364.00 142.00" xmlns="http://www.w3.org/2000/svg" xmlns:xlink="http://www.w3.org/1999/xlink">
<g id="graph0" class="graph" transform="scale(1 1) rotate(0) translate(4 138)">
<title>mutt_hist_complete</title>
<polygon fill="white" stroke="none" points="-4,4 -4,-138 360,-138 360,4 -4,4"/>
<!-- Node1 -->
<g id="node1" class="node"><title>Node1</title>
<polygon fill="#bfbfbf" stroke="black" points="0,-57.5 0,-76.5 102,-76.5 102,-57.5 0,-57.5"/>
<text text-anchor="middle" x="51" y="-64.5" font-family="Helvetica,sans-Serif" font-size="10.00">mutt_hist_complete</text>
</g>
<!-- Node2 -->
<g id="node2" class="node"><title>Node2</title>
<g id="a_node2"><a xlink:href="memory_8c.html#a4c1612d209c7825d55e6a014df352f03" target="_top" xlink:title="Allocate zeroed memory on the heap. ">
<polygon fill="white" stroke="red" points="138,-114.5 138,-133.5 232,-133.5 232,-114.5 138,-114.5"/>
<text text-anchor="middle" x="185" y="-121.5" font-family="Helvetica,sans-Serif" font-size="10.00">mutt_mem_calloc</text>
</a>
</g>
</g>
<!-- Node1&#45;&gt;Node2 -->
<g id="edge1" class="edge"><title>Node1&#45;&gt;Node2</title>
<path fill="none" stroke="midnightblue" d="M73.1428,-76.5139C90.5128,-84.2888 115.785,-95.506 138,-105 142.226,-106.806 146.681,-108.682 151.089,-110.52"/>
<polygon fill="midnightblue" stroke="midnightblue" points="149.974,-113.847 160.552,-114.444 152.656,-107.381 149.974,-113.847"/>
</g>
<!-- Node3 -->
<g id="node3" class="node"><title>Node3</title>
<g id="a_node3"><a xlink:href="history_8c.html#a005f30de35d49e92f06bfb4289722dce" target="_top" xlink:title="Find matches in a history list. ">
<polygon fill="white" stroke="red" points="139,-76.5 139,-95.5 231,-95.5 231,-76.5 139,-76.5"/>
<text text-anchor="middle" x="185" y="-83.5" font-family="Helvetica,sans-Serif" font-size="10.00">mutt_hist_search</text>
</a>
</g>
</g>
<!-- Node1&#45;&gt;Node3 -->
<g id="edge2" class="edge"><title>Node1&#45;&gt;Node3</title>
<path fill="none" stroke="midnightblue" d="M102.28,-74.2373C110.868,-75.4735 119.833,-76.7639 128.547,-78.0181"/>
<polygon fill="midnightblue" stroke="midnightblue" points="128.225,-81.5078 138.622,-79.4683 129.223,-74.5792 128.225,-81.5078"/>
</g>
<!-- Node4 -->
<g id="node4" class="node"><title>Node4</title>
<g id="a_node4"><a xlink:href="mutt_2string_8c.html#a3b8965b21d6e21536750f8883cd4333a" target="_top" xlink:title="Copy a string into a buffer (guaranteeing NUL&#45;termination) ">
<polygon fill="white" stroke="black" points="268,-19.5 268,-38.5 356,-38.5 356,-19.5 268,-19.5"/>
<text text-anchor="middle" x="312" y="-26.5" font-family="Helvetica,sans-Serif" font-size="10.00">mutt_str_strfcpy</text>
</a>
</g>
</g>
<!-- Node1&#45;&gt;Node4 -->
<g id="edge3" class="edge"><title>Node1&#45;&gt;Node4</title>
<path fill="none" stroke="midnightblue" d="M102.245,-59.6282C146.966,-53.0667 212.178,-43.499 257.78,-36.8083"/>
<polygon fill="midnightblue" stroke="midnightblue" points="258.387,-40.2569 267.773,-35.3422 257.371,-33.331 258.387,-40.2569"/>
</g>
<!-- Node5 -->
<g id="node5" class="node"><title>Node5</title>
<g id="a_node5"><a xlink:href="mutt__history_8c.html#a93bffce8b018c4f24bd91fb9fb471b18" target="_top" xlink:title="Select an item from a history list. ">
<polygon fill="white" stroke="red" points="147.5,-0.5 147.5,-19.5 222.5,-19.5 222.5,-0.5 147.5,-0.5"/>
<text text-anchor="middle" x="185" y="-7.5" font-family="Helvetica,sans-Serif" font-size="10.00">history_menu</text>
</a>
</g>
</g>
<!-- Node1&#45;&gt;Node5 -->
<g id="edge4" class="edge"><title>Node1&#45;&gt;Node5</title>
<path fill="none" stroke="midnightblue" d="M74.0938,-57.4595C95.5097,-48.2117 128.213,-34.0898 152.382,-23.6532"/>
<polygon fill="midnightblue" stroke="midnightblue" points="154.041,-26.7493 161.834,-19.5716 151.266,-20.3228 154.041,-26.7493"/>
</g>
<!-- Node5&#45;&gt;Node4 -->
<g id="edge5" class="edge"><title>Node5&#45;&gt;Node4</title>
<path fill="none" stroke="midnightblue" d="M222.828,-15.5979C233.745,-17.2573 245.927,-19.1089 257.668,-20.8935"/>
<polygon fill="midnightblue" stroke="midnightblue" points="257.417,-24.3954 267.829,-22.438 258.468,-17.4749 257.417,-24.3954"/>
</g>
</g>
</svg>
