<?xml version="1.0" encoding="UTF-8" standalone="no"?>
<!DOCTYPE svg PUBLIC "-//W3C//DTD SVG 1.1//EN"
 "http://www.w3.org/Graphics/SVG/1.1/DTD/svg11.dtd">
<!-- Generated by graphviz version 2.36.0 (20140111.2315)
 -->
<!-- Title: mutt_replacelist_remove Pages: 1 -->
<svg width="256pt" height="66pt"
 viewBox="0.00 0.00 256.00 66.00" xmlns="http://www.w3.org/2000/svg" xmlns:xlink="http://www.w3.org/1999/xlink">
<g id="graph0" class="graph" transform="scale(1 1) rotate(0) translate(4 62)">
<title>mutt_replacelist_remove</title>
<polygon fill="white" stroke="none" points="-4,4 -4,-62 252,-62 252,4 -4,4"/>
<!-- Node1 -->
<g id="node1" class="node"><title>Node1</title>
<polygon fill="#bfbfbf" stroke="black" points="0.5,-19.5 0.5,-38.5 123.5,-38.5 123.5,-19.5 0.5,-19.5"/>
<text text-anchor="middle" x="62" y="-26.5" font-family="Helvetica,sans-Serif" font-size="10.00">mutt_replacelist_remove</text>
</g>
<!-- Node2 -->
<g id="node2" class="node"><title>Node2</title>
<g id="a_node2"><a xlink:href="mutt_2string_8c.html#ab4aaf8bd2ce3982651f0f949d6c665e2" target="_top" xlink:title="Compare two strings, safely. ">
<polygon fill="white" stroke="black" points="160,-38.5 160,-57.5 248,-57.5 248,-38.5 160,-38.5"/>
<text text-anchor="middle" x="204" y="-45.5" font-family="Helvetica,sans-Serif" font-size="10.00">mutt_str_strcmp</text>
</a>
</g>
</g>
<!-- Node1&#45;&gt;Node2 -->
<g id="edge1" class="edge"><title>Node1&#45;&gt;Node2</title>
<path fill="none" stroke="midnightblue" d="M123.592,-37.2232C132.208,-38.3925 141.018,-39.5882 149.487,-40.7375"/>
<polygon fill="midnightblue" stroke="midnightblue" points="149.231,-44.2348 159.611,-42.1115 150.173,-37.2984 149.231,-44.2348"/>
</g>
<!-- Node3 -->
<g id="node3" class="node"><title>Node3</title>
<g id="a_node3"><a xlink:href="mutt_2regex_8c.html#aaff3892e138113fb1eaa76d65a58a308" target="_top" xlink:title="Free a Regex object. ">
<polygon fill="white" stroke="black" points="160.5,-0.5 160.5,-19.5 247.5,-19.5 247.5,-0.5 160.5,-0.5"/>
<text text-anchor="middle" x="204" y="-7.5" font-family="Helvetica,sans-Serif" font-size="10.00">mutt_regex_free</text>
</a>
</g>
</g>
<!-- Node1&#45;&gt;Node3 -->
<g id="edge2" class="edge"><title>Node1&#45;&gt;Node3</title>
<path fill="none" stroke="midnightblue" d="M123.592,-20.7768C132.515,-19.5658 141.646,-18.3266 150.391,-17.1398"/>
<polygon fill="midnightblue" stroke="midnightblue" points="151.005,-20.5887 160.443,-15.7756 150.063,-13.6523 151.005,-20.5887"/>
</g>
</g>
</svg>
