<?xml version="1.0" encoding="UTF-8" standalone="no"?>
<!DOCTYPE svg PUBLIC "-//W3C//DTD SVG 1.1//EN"
 "http://www.w3.org/Graphics/SVG/1.1/DTD/svg11.dtd">
<!-- Generated by graphviz version 2.36.0 (20140111.2315)
 -->
<!-- Title: mutt_body_copy Pages: 1 -->
<svg width="438pt" height="124pt"
 viewBox="0.00 0.00 438.00 124.08" xmlns="http://www.w3.org/2000/svg" xmlns:xlink="http://www.w3.org/1999/xlink">
<g id="graph0" class="graph" transform="scale(1 1) rotate(0) translate(4 120.082)">
<title>mutt_body_copy</title>
<polygon fill="white" stroke="none" points="-4,4 -4,-120.082 434,-120.082 434,4 -4,4"/>
<!-- Node1 -->
<g id="node1" class="node"><title>Node1</title>
<polygon fill="#bfbfbf" stroke="black" points="0.5,-57.5 0.5,-76.5 89.5,-76.5 89.5,-57.5 0.5,-57.5"/>
<text text-anchor="middle" x="45" y="-64.5" font-family="Helvetica,sans-Serif" font-size="10.00">mutt_body_copy</text>
</g>
<!-- Node2 -->
<g id="node2" class="node"><title>Node2</title>
<g id="a_node2"><a xlink:href="recvcmd_8c.html#a3ece8162f54f872f718dc0b8a7efcd83" target="_top" xlink:title="Attach the body parts which can&#39;t be decoded. ">
<polygon fill="white" stroke="black" points="126,-76.5 126,-95.5 278,-95.5 278,-76.5 126,-76.5"/>
<text text-anchor="middle" x="202" y="-83.5" font-family="Helvetica,sans-Serif" font-size="10.00">copy_problematic_attachments</text>
</a>
</g>
</g>
<!-- Node1&#45;&gt;Node2 -->
<g id="edge1" class="edge"><title>Node1&#45;&gt;Node2</title>
<path fill="none" stroke="midnightblue" d="M99.6411,-73.5754C108.077,-74.6095 116.932,-75.6949 125.747,-76.7755"/>
<polygon fill="midnightblue" stroke="midnightblue" points="99.9402,-70.0859 89.5886,-72.3431 99.0885,-77.0339 99.9402,-70.0859"/>
</g>
<!-- Node3 -->
<g id="node3" class="node"><title>Node3</title>
<g id="a_node3"><a xlink:href="recvcmd_8c.html#ad985f78448cd381d34cb45b710eddc90" target="_top" xlink:title="forward one or several MIME bodies ">
<polygon fill="white" stroke="red" points="314.5,-95.5 314.5,-114.5 429.5,-114.5 429.5,-95.5 314.5,-95.5"/>
<text text-anchor="middle" x="372" y="-102.5" font-family="Helvetica,sans-Serif" font-size="10.00">attach_forward_bodies</text>
</a>
</g>
</g>
<!-- Node1&#45;&gt;Node3 -->
<g id="edge4" class="edge"><title>Node1&#45;&gt;Node3</title>
<path fill="none" stroke="midnightblue" d="M69.7275,-81.7087C85.134,-90.372 106.001,-100.492 126,-105 189.278,-119.265 264.107,-116.534 314.271,-111.995"/>
<polygon fill="midnightblue" stroke="midnightblue" points="71.2998,-78.5742 60.897,-76.566 67.777,-84.6231 71.2998,-78.5742"/>
</g>
<!-- Node4 -->
<g id="node4" class="node"><title>Node4</title>
<g id="a_node4"><a xlink:href="recvcmd_8h.html#a40682fa92a787a3a065716d851677599" target="_top" xlink:title="Attach a reply. ">
<polygon fill="white" stroke="red" points="324.5,-48.5 324.5,-67.5 419.5,-67.5 419.5,-48.5 324.5,-48.5"/>
<text text-anchor="middle" x="372" y="-55.5" font-family="Helvetica,sans-Serif" font-size="10.00">mutt_attach_reply</text>
</a>
</g>
</g>
<!-- Node1&#45;&gt;Node4 -->
<g id="edge6" class="edge"><title>Node1&#45;&gt;Node4</title>
<path fill="none" stroke="midnightblue" d="M99.919,-65.5069C162.622,-63.7705 265.089,-60.9329 324.456,-59.2889"/>
<polygon fill="midnightblue" stroke="midnightblue" points="99.7302,-62.0106 89.8309,-65.7862 99.924,-69.008 99.7302,-62.0106"/>
</g>
<!-- Node5 -->
<g id="node5" class="node"><title>Node5</title>
<g id="a_node5"><a xlink:href="recvcmd_8c.html#ab5979027a0a9e06fb96e3e54ad77b9a7" target="_top" xlink:title="Forward one or several message&#45;type attachments. ">
<polygon fill="white" stroke="red" points="147,-0.5 147,-19.5 257,-19.5 257,-0.5 147,-0.5"/>
<text text-anchor="middle" x="202" y="-7.5" font-family="Helvetica,sans-Serif" font-size="10.00">attach_forward_msgs</text>
</a>
</g>
</g>
<!-- Node1&#45;&gt;Node5 -->
<g id="edge5" class="edge"><title>Node1&#45;&gt;Node5</title>
<path fill="none" stroke="midnightblue" d="M77.4721,-53.3229C92.116,-47.1387 109.834,-39.9096 126,-34 139.996,-28.8837 155.67,-23.7733 169.056,-19.5913"/>
<polygon fill="midnightblue" stroke="midnightblue" points="75.7104,-50.269 67.8821,-57.4082 78.4539,-56.709 75.7104,-50.269"/>
</g>
<!-- Node2&#45;&gt;Node3 -->
<g id="edge2" class="edge"><title>Node2&#45;&gt;Node3</title>
<path fill="none" stroke="midnightblue" d="M288.152,-95.6303C297.018,-96.633 305.867,-97.6338 314.304,-98.588"/>
<polygon fill="midnightblue" stroke="midnightblue" points="288.485,-92.1457 278.155,-94.4997 287.699,-99.1014 288.485,-92.1457"/>
</g>
<!-- Node2&#45;&gt;Node4 -->
<g id="edge3" class="edge"><title>Node2&#45;&gt;Node4</title>
<path fill="none" stroke="midnightblue" d="M270.306,-74.7823C288.476,-71.754 307.732,-68.5447 324.485,-65.7525"/>
<polygon fill="midnightblue" stroke="midnightblue" points="269.635,-71.3458 260.346,-76.4423 270.786,-78.2506 269.635,-71.3458"/>
</g>
</g>
</svg>
