<?xml version="1.0" encoding="UTF-8" standalone="no"?>
<!DOCTYPE svg PUBLIC "-//W3C//DTD SVG 1.1//EN"
 "http://www.w3.org/Graphics/SVG/1.1/DTD/svg11.dtd">
<!-- Generated by graphviz version 2.36.0 (20140111.2315)
 -->
<!-- Title: url_parse_mailto Pages: 1 -->
<svg width="564pt" height="452pt"
 viewBox="0.00 0.00 564.00 452.07" xmlns="http://www.w3.org/2000/svg" xmlns:xlink="http://www.w3.org/1999/xlink">
<g id="graph0" class="graph" transform="scale(1 1) rotate(0) translate(4 448.07)">
<title>url_parse_mailto</title>
<polygon fill="white" stroke="none" points="-4,4 -4,-448.07 560,-448.07 560,4 -4,4"/>
<!-- Node1 -->
<g id="node1" class="node"><title>Node1</title>
<polygon fill="#bfbfbf" stroke="black" points="0,-209.5 0,-228.5 88,-228.5 88,-209.5 0,-209.5"/>
<text text-anchor="middle" x="44" y="-216.5" font-family="Helvetica,sans-Serif" font-size="10.00">url_parse_mailto</text>
</g>
<!-- Node2 -->
<g id="node2" class="node"><title>Node2</title>
<g id="a_node2"><a xlink:href="mutt_2string_8c.html#ae48085384a6545e0fac589a88243ea31" target="_top" xlink:title="Copy a string, safely. ">
<polygon fill="white" stroke="red" points="449.5,-209.5 449.5,-228.5 534.5,-228.5 534.5,-209.5 449.5,-209.5"/>
<text text-anchor="middle" x="492" y="-216.5" font-family="Helvetica,sans-Serif" font-size="10.00">mutt_str_strdup</text>
</a>
</g>
</g>
<!-- Node1&#45;&gt;Node2 -->
<g id="edge1" class="edge"><title>Node1&#45;&gt;Node2</title>
<path fill="none" stroke="midnightblue" d="M76.3315,-209.49C137.45,-192.276 276.696,-159.631 392,-181 416.932,-185.621 443.693,-196.269 463.098,-205.121"/>
<polygon fill="midnightblue" stroke="midnightblue" points="461.719,-208.34 472.259,-209.416 464.69,-202.002 461.719,-208.34"/>
</g>
<!-- Node3 -->
<g id="node3" class="node"><title>Node3</title>
<g id="a_node3"><a xlink:href="url_8c.html#a04f548a80bf78fcc748e6dd70a0059b2" target="_top" xlink:title="Decode a percent&#45;encoded string. ">
<polygon fill="white" stroke="black" points="143.5,-380.5 143.5,-399.5 226.5,-399.5 226.5,-380.5 143.5,-380.5"/>
<text text-anchor="middle" x="185" y="-387.5" font-family="Helvetica,sans-Serif" font-size="10.00">url_pct_decode</text>
</a>
</g>
</g>
<!-- Node1&#45;&gt;Node3 -->
<g id="edge2" class="edge"><title>Node1&#45;&gt;Node3</title>
<path fill="none" stroke="midnightblue" d="M47.6589,-228.704C55.2257,-254.593 79.2727,-326.046 124,-366 128.449,-369.974 133.638,-373.333 139.068,-376.16"/>
<polygon fill="midnightblue" stroke="midnightblue" points="137.799,-379.429 148.346,-380.432 140.726,-373.07 137.799,-379.429"/>
</g>
<!-- Node4 -->
<g id="node4" class="node"><title>Node4</title>
<g id="a_node4"><a xlink:href="email_2address_8c.html#abc55e4ec2195cdbfc45eaa22cbce9c64" target="_top" xlink:title="Parse a list of email addresses. ">
<polygon fill="white" stroke="red" points="283.5,-332.5 283.5,-351.5 390.5,-351.5 390.5,-332.5 283.5,-332.5"/>
<text text-anchor="middle" x="337" y="-339.5" font-family="Helvetica,sans-Serif" font-size="10.00">mutt_addr_parse_list</text>
</a>
</g>
</g>
<!-- Node1&#45;&gt;Node4 -->
<g id="edge3" class="edge"><title>Node1&#45;&gt;Node4</title>
<path fill="none" stroke="midnightblue" d="M49.7226,-228.672C60.0596,-248.678 86.7753,-294.448 124,-315 169.653,-340.205 229.08,-345.872 273.395,-345.858"/>
<polygon fill="midnightblue" stroke="midnightblue" points="273.498,-349.357 283.463,-345.757 273.428,-342.357 273.498,-349.357"/>
</g>
<!-- Node5 -->
<g id="node5" class="node"><title>Node5</title>
<g id="a_node5"><a xlink:href="mutt_2string_8c.html#aa5fb929533630a48c6d2e893267ce208" target="_top" xlink:title="Skip over whitespace as defined by RFC5322. ">
<polygon fill="white" stroke="black" points="428,-375.5 428,-394.5 556,-394.5 556,-375.5 428,-375.5"/>
<text text-anchor="middle" x="492" y="-382.5" font-family="Helvetica,sans-Serif" font-size="10.00">mutt_str_skip_email_wsp</text>
</a>
</g>
</g>
<!-- Node1&#45;&gt;Node5 -->
<g id="edge12" class="edge"><title>Node1&#45;&gt;Node5</title>
<path fill="none" stroke="midnightblue" d="M45.5136,-228.779C47.8133,-261.331 60.1093,-366.372 124,-409 229.589,-479.449 392.497,-426.012 460.031,-398.613"/>
<polygon fill="midnightblue" stroke="midnightblue" points="461.761,-401.684 469.656,-394.619 459.079,-395.219 461.761,-401.684"/>
</g>
<!-- Node6 -->
<g id="node6" class="node"><title>Node6</title>
<g id="a_node6"><a xlink:href="list_8c.html#ae6e78596bbf371c69064967d7386def0" target="_top" xlink:title="Is the string in the list (see notes) ">
<polygon fill="white" stroke="red" points="142,-266.5 142,-285.5 228,-285.5 228,-266.5 142,-266.5"/>
<text text-anchor="middle" x="185" y="-273.5" font-family="Helvetica,sans-Serif" font-size="10.00">mutt_list_match</text>
</a>
</g>
</g>
<!-- Node1&#45;&gt;Node6 -->
<g id="edge6" class="edge"><title>Node1&#45;&gt;Node6</title>
<path fill="none" stroke="midnightblue" d="M63.1864,-228.659C78.9902,-236.83 102.637,-248.529 124,-257 129.531,-259.193 135.423,-261.313 141.274,-263.291"/>
<polygon fill="midnightblue" stroke="midnightblue" points="140.415,-266.693 151.008,-266.475 142.592,-260.04 140.415,-266.693"/>
</g>
<!-- Node7 -->
<g id="node7" class="node"><title>Node7</title>
<g id="a_node7"><a xlink:href="mutt_2string_8c.html#a011e5b6fad43bc608584d585987cf9c1" target="_top" xlink:title="Compare two strings ignoring case, safely. ">
<polygon fill="white" stroke="black" points="282.5,-275.5 282.5,-294.5 391.5,-294.5 391.5,-275.5 282.5,-275.5"/>
<text text-anchor="middle" x="337" y="-282.5" font-family="Helvetica,sans-Serif" font-size="10.00">mutt_str_strcasecmp</text>
</a>
</g>
</g>
<!-- Node1&#45;&gt;Node7 -->
<g id="edge7" class="edge"><title>Node1&#45;&gt;Node7</title>
<path fill="none" stroke="midnightblue" d="M51.1718,-228.583C62.9026,-245.795 90.2836,-281.415 124,-295 179.645,-317.421 250.264,-307.277 294.301,-296.922"/>
<polygon fill="midnightblue" stroke="midnightblue" points="295.214,-300.302 304.088,-294.514 293.541,-293.504 295.214,-300.302"/>
</g>
<!-- Node8 -->
<g id="node8" class="node"><title>Node8</title>
<g id="a_node8"><a xlink:href="mutt_2string_8c.html#ad5b66f8059a202f7bfa5fc4fa3047c67" target="_top" xlink:title="Replace one string with another. ">
<polygon fill="white" stroke="black" points="292.5,-190.5 292.5,-209.5 381.5,-209.5 381.5,-190.5 292.5,-190.5"/>
<text text-anchor="middle" x="337" y="-197.5" font-family="Helvetica,sans-Serif" font-size="10.00">mutt_str_replace</text>
</a>
</g>
</g>
<!-- Node1&#45;&gt;Node8 -->
<g id="edge8" class="edge"><title>Node1&#45;&gt;Node8</title>
<path fill="none" stroke="midnightblue" d="M88.2514,-216.176C139.823,-212.809 226.048,-207.179 281.962,-203.528"/>
<polygon fill="midnightblue" stroke="midnightblue" points="282.284,-207.015 292.034,-202.871 281.827,-200.03 282.284,-207.015"/>
</g>
<!-- Node9 -->
<g id="node9" class="node"><title>Node9</title>
<g id="a_node9"><a xlink:href="mutt_2string_8c.html#aca11f88d08a860c07419df3efb18f35a" target="_top" xlink:title="Calculate the length of a string, safely. ">
<polygon fill="white" stroke="black" points="451,-57.5 451,-76.5 533,-76.5 533,-57.5 451,-57.5"/>
<text text-anchor="middle" x="492" y="-64.5" font-family="Helvetica,sans-Serif" font-size="10.00">mutt_str_strlen</text>
</a>
</g>
</g>
<!-- Node1&#45;&gt;Node9 -->
<g id="edge10" class="edge"><title>Node1&#45;&gt;Node9</title>
<path fill="none" stroke="midnightblue" d="M48.4735,-209.227C57.1496,-186.423 82.131,-129.756 124,-105 176.322,-74.0628 352.769,-68.1114 440.545,-67.1024"/>
<polygon fill="midnightblue" stroke="midnightblue" points="440.83,-70.5999 450.795,-67.0025 440.761,-63.6002 440.83,-70.5999"/>
</g>
<!-- Node10 -->
<g id="node10" class="node"><title>Node10</title>
<g id="a_node10"><a xlink:href="mutt_8h.html#ad1a388959f6ee550c4a75ae7b1e93a16" target="_top" xlink:title="safe_asprintf">
<polygon fill="white" stroke="red" points="148.5,-114.5 148.5,-133.5 221.5,-133.5 221.5,-114.5 148.5,-114.5"/>
<text text-anchor="middle" x="185" y="-121.5" font-family="Helvetica,sans-Serif" font-size="10.00">safe_asprintf</text>
</a>
</g>
</g>
<!-- Node1&#45;&gt;Node10 -->
<g id="edge11" class="edge"><title>Node1&#45;&gt;Node10</title>
<path fill="none" stroke="midnightblue" d="M53.8425,-209.075C67.5939,-194.131 95.4992,-165.722 124,-148 130.419,-144.008 137.615,-140.456 144.735,-137.387"/>
<polygon fill="midnightblue" stroke="midnightblue" points="146.361,-140.505 154.316,-133.507 143.733,-134.016 146.361,-140.505"/>
</g>
<!-- Node11 -->
<g id="node11" class="node"><title>Node11</title>
<g id="a_node11"><a xlink:href="parse_8c.html#a8a7093d918de1a8a681701742eb5a3d2" target="_top" xlink:title="Parse an email header. ">
<polygon fill="white" stroke="red" points="126,-228.5 126,-247.5 244,-247.5 244,-228.5 126,-228.5"/>
<text text-anchor="middle" x="185" y="-235.5" font-family="Helvetica,sans-Serif" font-size="10.00">mutt_rfc822_parse_line</text>
</a>
</g>
</g>
<!-- Node1&#45;&gt;Node11 -->
<g id="edge13" class="edge"><title>Node1&#45;&gt;Node11</title>
<path fill="none" stroke="midnightblue" d="M88.2185,-224.908C96.9974,-226.108 106.432,-227.397 115.835,-228.682"/>
<polygon fill="midnightblue" stroke="midnightblue" points="115.61,-232.184 125.992,-230.071 116.558,-225.249 115.61,-232.184"/>
</g>
<!-- Node12 -->
<g id="node12" class="node"><title>Node12</title>
<g id="a_node12"><a xlink:href="email_2rfc2047_8c.html#a89c57c82465740567f73641c9397d760" target="_top" xlink:title="Decode any RFC2047&#45;encoded header fields. ">
<polygon fill="white" stroke="red" points="294,-38.5 294,-57.5 380,-57.5 380,-38.5 294,-38.5"/>
<text text-anchor="middle" x="337" y="-45.5" font-family="Helvetica,sans-Serif" font-size="10.00">rfc2047_decode</text>
</a>
</g>
</g>
<!-- Node1&#45;&gt;Node12 -->
<g id="edge22" class="edge"><title>Node1&#45;&gt;Node12</title>
<path fill="none" stroke="midnightblue" d="M46.9405,-209.388C52.9341,-182.444 73.8597,-105.95 124,-72 171.049,-40.1427 237.833,-37.8467 283.808,-41.1235"/>
<polygon fill="midnightblue" stroke="midnightblue" points="283.611,-44.619 293.865,-41.9522 284.186,-37.6427 283.611,-44.619"/>
</g>
<!-- Node13 -->
<g id="node13" class="node"><title>Node13</title>
<g id="a_node13"><a xlink:href="email_2rfc2047_8c.html#a5b4551c4258a843325609099be84f39a" target="_top" xlink:title="Decode any RFC2047 headers in an Address list. ">
<polygon fill="white" stroke="black" points="124,-0.5 124,-19.5 246,-19.5 246,-0.5 124,-0.5"/>
<text text-anchor="middle" x="185" y="-7.5" font-family="Helvetica,sans-Serif" font-size="10.00">rfc2047_decode_addrlist</text>
</a>
</g>
</g>
<!-- Node1&#45;&gt;Node13 -->
<g id="edge20" class="edge"><title>Node1&#45;&gt;Node13</title>
<path fill="none" stroke="midnightblue" d="M46.4347,-209.495C51.4371,-179.536 70.7963,-85.9897 124,-34 128.012,-30.0795 132.746,-26.7749 137.766,-23.9952"/>
<polygon fill="midnightblue" stroke="midnightblue" points="139.528,-27.0316 147.018,-19.5389 136.49,-20.725 139.528,-27.0316"/>
</g>
<!-- Node4&#45;&gt;Node2 -->
<g id="edge5" class="edge"><title>Node4&#45;&gt;Node2</title>
<path fill="none" stroke="midnightblue" d="M352.483,-332.366C363.515,-324.895 378.973,-314.138 392,-304 421.252,-281.235 453.555,-252.846 473.058,-235.323"/>
<polygon fill="midnightblue" stroke="midnightblue" points="475.509,-237.825 480.587,-228.526 470.819,-232.629 475.509,-237.825"/>
</g>
<!-- Node4&#45;&gt;Node5 -->
<g id="edge4" class="edge"><title>Node4&#45;&gt;Node5</title>
<path fill="none" stroke="midnightblue" d="M371.956,-351.543C394.141,-357.778 423.326,-365.981 447.246,-372.703"/>
<polygon fill="midnightblue" stroke="midnightblue" points="446.565,-376.147 457.139,-375.484 448.459,-369.408 446.565,-376.147"/>
</g>
<!-- Node8&#45;&gt;Node2 -->
<g id="edge9" class="edge"><title>Node8&#45;&gt;Node2</title>
<path fill="none" stroke="midnightblue" d="M381.844,-205.445C399.725,-207.665 420.537,-210.25 439.164,-212.563"/>
<polygon fill="midnightblue" stroke="midnightblue" points="438.9,-216.057 449.255,-213.816 439.763,-209.11 438.9,-216.057"/>
</g>
<!-- Node11&#45;&gt;Node2 -->
<g id="edge19" class="edge"><title>Node11&#45;&gt;Node2</title>
<path fill="none" stroke="midnightblue" d="M244.086,-234.382C300.43,-230.872 385.121,-225.596 439.221,-222.226"/>
<polygon fill="midnightblue" stroke="midnightblue" points="439.521,-225.714 449.284,-221.599 439.086,-218.727 439.521,-225.714"/>
</g>
<!-- Node11&#45;&gt;Node4 -->
<g id="edge15" class="edge"><title>Node11&#45;&gt;Node4</title>
<path fill="none" stroke="midnightblue" d="M227.907,-247.613C234.282,-250.088 240.544,-253.171 246,-257 267.538,-272.115 263.022,-285.774 282,-304 290.736,-312.39 301.459,-320.327 311.041,-326.756"/>
<polygon fill="midnightblue" stroke="midnightblue" points="309.138,-329.694 319.43,-332.206 312.951,-323.824 309.138,-329.694"/>
</g>
<!-- Node11&#45;&gt;Node7 -->
<g id="edge14" class="edge"><title>Node11&#45;&gt;Node7</title>
<path fill="none" stroke="midnightblue" d="M216.355,-247.511C239.254,-254.686 270.883,-264.597 295.87,-272.426"/>
<polygon fill="midnightblue" stroke="midnightblue" points="294.844,-275.772 305.433,-275.422 296.937,-269.092 294.844,-275.772"/>
</g>
<!-- Node11&#45;&gt;Node8 -->
<g id="edge16" class="edge"><title>Node11&#45;&gt;Node8</title>
<path fill="none" stroke="midnightblue" d="M223.851,-228.411C243.467,-223.442 267.619,-217.323 288.479,-212.039"/>
<polygon fill="midnightblue" stroke="midnightblue" points="289.587,-215.369 298.421,-209.52 287.868,-208.583 289.587,-215.369"/>
</g>
<!-- Node11&#45;&gt;Node12 -->
<g id="edge17" class="edge"><title>Node11&#45;&gt;Node12</title>
<path fill="none" stroke="midnightblue" d="M193.645,-228.317C217.511,-198.086 290.893,-105.135 321.918,-65.8371"/>
<polygon fill="midnightblue" stroke="midnightblue" points="324.741,-67.9093 328.191,-57.8917 319.247,-63.5718 324.741,-67.9093"/>
</g>
<!-- Node12&#45;&gt;Node9 -->
<g id="edge18" class="edge"><title>Node12&#45;&gt;Node9</title>
<path fill="none" stroke="midnightblue" d="M380.213,-53.2421C398.968,-55.5712 421.19,-58.3308 440.79,-60.7648"/>
<polygon fill="midnightblue" stroke="midnightblue" points="440.414,-64.2449 450.769,-62.004 441.277,-57.2982 440.414,-64.2449"/>
</g>
<!-- Node13&#45;&gt;Node12 -->
<g id="edge21" class="edge"><title>Node13&#45;&gt;Node12</title>
<path fill="none" stroke="midnightblue" d="M223.851,-19.589C243.467,-24.5583 267.619,-30.6767 288.479,-35.9613"/>
<polygon fill="midnightblue" stroke="midnightblue" points="287.868,-39.4169 298.421,-38.4799 289.587,-32.6313 287.868,-39.4169"/>
</g>
</g>
</svg>
