<?xml version="1.0" encoding="UTF-8" standalone="no"?>
<!DOCTYPE svg PUBLIC "-//W3C//DTD SVG 1.1//EN"
 "http://www.w3.org/Graphics/SVG/1.1/DTD/svg11.dtd">
<!-- Generated by graphviz version 2.36.0 (20140111.2315)
 -->
<!-- Title: mutt_expando_format Pages: 1 -->
<svg width="938pt" height="1853pt"
 viewBox="0.00 0.00 938.00 1853.17" xmlns="http://www.w3.org/2000/svg" xmlns:xlink="http://www.w3.org/1999/xlink">
<g id="graph0" class="graph" transform="scale(1 1) rotate(0) translate(4 1849.17)">
<title>mutt_expando_format</title>
<polygon fill="white" stroke="none" points="-4,4 -4,-1849.17 934,-1849.17 934,4 -4,4"/>
<!-- Node1 -->
<g id="node1" class="node"><title>Node1</title>
<polygon fill="#bfbfbf" stroke="black" points="0.5,-1218.01 0.5,-1237.01 111.5,-1237.01 111.5,-1218.01 0.5,-1218.01"/>
<text text-anchor="middle" x="56" y="-1225.01" font-family="Helvetica,sans-Serif" font-size="10.00">mutt_expando_format</text>
</g>
<!-- Node2 -->
<g id="node2" class="node"><title>Node2</title>
<g id="a_node2"><a xlink:href="addrbook_8c.html#ae2d3edeeabf51cb0c9c84f82b0a372af" target="_top" xlink:title="Format a menu item for the alias list. ">
<polygon fill="white" stroke="red" points="324,-1484.01 324,-1503.01 388,-1503.01 388,-1484.01 324,-1484.01"/>
<text text-anchor="middle" x="356" y="-1491.01" font-family="Helvetica,sans-Serif" font-size="10.00">alias_entry</text>
</a>
</g>
</g>
<!-- Node1&#45;&gt;Node2 -->
<g id="edge1" class="edge"><title>Node1&#45;&gt;Node2</title>
<path fill="none" stroke="midnightblue" d="M60.2808,-1247.05C68.0516,-1287.21 91.3552,-1379.46 148,-1429.51 198.457,-1474.09 279.557,-1487.62 323.778,-1491.72"/>
<polygon fill="midnightblue" stroke="midnightblue" points="63.7191,-1246.39 58.4862,-1237.18 56.832,-1247.64 63.7191,-1246.39"/>
</g>
<!-- Node3 -->
<g id="node3" class="node"><title>Node3</title>
<g id="a_node3"><a xlink:href="browser_8c.html#a8b932318a91a4f070fad24c67677643b" target="_top" xlink:title="Format a string for the folder browser &#45; Implements format_t. ">
<polygon fill="white" stroke="black" points="311,-1446.01 311,-1465.01 401,-1465.01 401,-1446.01 311,-1446.01"/>
<text text-anchor="middle" x="356" y="-1453.01" font-family="Helvetica,sans-Serif" font-size="10.00">folder_format_str</text>
</a>
</g>
</g>
<!-- Node1&#45;&gt;Node3 -->
<g id="edge2" class="edge"><title>Node1&#45;&gt;Node3</title>
<path fill="none" stroke="midnightblue" d="M62.5882,-1246.95C73.3873,-1281.06 100.36,-1351.75 148,-1390.51 195.336,-1429.02 265.656,-1444.82 310.915,-1451.23"/>
<polygon fill="midnightblue" stroke="midnightblue" points="65.8968,-1245.8 59.6446,-1237.25 59.1982,-1247.83 65.8968,-1245.8"/>
</g>
<!-- Node4 -->
<g id="node4" class="node"><title>Node4</title>
<g id="a_node4"><a xlink:href="browser_8c.html#ac8c4a59b758c37d5b1d9dbbfac136dd5" target="_top" xlink:title="Format a menu item for the folder browser. ">
<polygon fill="white" stroke="red" points="479,-1408.01 479,-1427.01 547,-1427.01 547,-1408.01 479,-1408.01"/>
<text text-anchor="middle" x="513" y="-1415.01" font-family="Helvetica,sans-Serif" font-size="10.00">folder_entry</text>
</a>
</g>
</g>
<!-- Node1&#45;&gt;Node4 -->
<g id="edge7" class="edge"><title>Node1&#45;&gt;Node4</title>
<path fill="none" stroke="midnightblue" d="M57.2531,-1247.33C59.0361,-1298.06 71.1369,-1433.43 148,-1502.51 237.222,-1582.69 317.634,-1603.17 416,-1534.51 454.049,-1507.95 418.454,-1468.57 452,-1436.51 459.346,-1429.49 469.274,-1425.06 478.937,-1422.27"/>
<polygon fill="midnightblue" stroke="midnightblue" points="60.7461,-1247 56.9986,-1237.09 53.7482,-1247.17 60.7461,-1247"/>
</g>
<!-- Node5 -->
<g id="node5" class="node"><title>Node5</title>
<g id="a_node5"><a xlink:href="browser_8c.html#a815ed37e2a0b581a082ae19b16a95726" target="_top" xlink:title="Format a menu item for the virtual folder list. ">
<polygon fill="white" stroke="red" points="476.5,-1446.01 476.5,-1465.01 549.5,-1465.01 549.5,-1446.01 476.5,-1446.01"/>
<text text-anchor="middle" x="513" y="-1453.01" font-family="Helvetica,sans-Serif" font-size="10.00">vfolder_entry</text>
</a>
</g>
</g>
<!-- Node1&#45;&gt;Node5 -->
<g id="edge8" class="edge"><title>Node1&#45;&gt;Node5</title>
<path fill="none" stroke="midnightblue" d="M59.7247,-1247.26C68.9203,-1310.92 100.892,-1508.89 148,-1549.51 238.437,-1627.48 307.624,-1618.64 416,-1568.51 463.427,-1546.57 496.003,-1488.37 507.458,-1465.21"/>
<polygon fill="midnightblue" stroke="midnightblue" points="63.1833,-1246.72 58.3163,-1237.31 56.2524,-1247.7 63.1833,-1246.72"/>
</g>
<!-- Node6 -->
<g id="node6" class="node"><title>Node6</title>
<g id="a_node6"><a xlink:href="browser_8c.html#ae26372541f6a4133d2eac12721f53deb" target="_top" xlink:title="Format a string for the newsgroup menu &#45; Implements format_t. ">
<polygon fill="white" stroke="black" points="296.5,-1408.01 296.5,-1427.01 415.5,-1427.01 415.5,-1408.01 296.5,-1408.01"/>
<text text-anchor="middle" x="356" y="-1415.01" font-family="Helvetica,sans-Serif" font-size="10.00">group_index_format_str</text>
</a>
</g>
</g>
<!-- Node1&#45;&gt;Node6 -->
<g id="edge5" class="edge"><title>Node1&#45;&gt;Node6</title>
<path fill="none" stroke="midnightblue" d="M65.6636,-1246.33C79.2969,-1273.9 108.347,-1325.05 148,-1353.51 192.004,-1385.1 251.999,-1401.4 296.073,-1409.62"/>
<polygon fill="midnightblue" stroke="midnightblue" points="68.6796,-1244.53 61.2034,-1237.02 62.3663,-1247.55 68.6796,-1244.53"/>
</g>
<!-- Node7 -->
<g id="node7" class="node"><title>Node7</title>
<g id="a_node7"><a xlink:href="compose_8c.html#a960cc34e1fd3d276e76cb02f81c4d3e3" target="_top" xlink:title="Format a menu item for the attachment list. ">
<polygon fill="white" stroke="red" points="754.5,-999.009 754.5,-1018.01 813.5,-1018.01 813.5,-999.009 754.5,-999.009"/>
<text text-anchor="middle" x="784" y="-1006.01" font-family="Helvetica,sans-Serif" font-size="10.00">snd_entry</text>
</a>
</g>
</g>
<!-- Node1&#45;&gt;Node7 -->
<g id="edge9" class="edge"><title>Node1&#45;&gt;Node7</title>
<path fill="none" stroke="midnightblue" d="M58.4286,-1247.33C66.5462,-1343.79 115.429,-1759.51 355,-1759.51 355,-1759.51 355,-1759.51 514,-1759.51 618.368,-1759.51 653.776,-1713 704,-1621.51 766.677,-1507.34 674.434,-1149.05 740,-1036.51 744.574,-1028.66 752.33,-1022.62 760.005,-1018.19"/>
<polygon fill="midnightblue" stroke="midnightblue" points="61.9051,-1246.89 57.6306,-1237.2 54.9267,-1247.44 61.9051,-1246.89"/>
</g>
<!-- Node8 -->
<g id="node8" class="node"><title>Node8</title>
<g id="a_node8"><a xlink:href="compose_8c.html#a1531d785d4faa4bc82cd8c43ff6e9f04" target="_top" xlink:title="Compose the string for the status bar. ">
<polygon fill="white" stroke="red" points="301.5,-1370.01 301.5,-1389.01 410.5,-1389.01 410.5,-1370.01 301.5,-1370.01"/>
<text text-anchor="middle" x="356" y="-1377.01" font-family="Helvetica,sans-Serif" font-size="10.00">compose_status_line</text>
</a>
</g>
</g>
<!-- Node1&#45;&gt;Node8 -->
<g id="edge10" class="edge"><title>Node1&#45;&gt;Node8</title>
<path fill="none" stroke="midnightblue" d="M70.1404,-1245.22C86.279,-1265.75 115.538,-1299.23 148,-1318.51 195.834,-1346.92 257.827,-1362.9 301.456,-1371.3"/>
<polygon fill="midnightblue" stroke="midnightblue" points="72.733,-1242.85 63.8698,-1237.04 67.1786,-1247.11 72.733,-1242.85"/>
</g>
<!-- Node9 -->
<g id="node9" class="node"><title>Node9</title>
<g id="a_node9"><a xlink:href="compress_8c.html#a38c262a0e2ec6aff1458dd32b57e1acd" target="_top" xlink:title="Expand placeholders in command string. ">
<polygon fill="white" stroke="red" points="299.5,-1332.01 299.5,-1351.01 412.5,-1351.01 412.5,-1332.01 299.5,-1332.01"/>
<text text-anchor="middle" x="356" y="-1339.01" font-family="Helvetica,sans-Serif" font-size="10.00">expand_command_str</text>
</a>
</g>
</g>
<!-- Node1&#45;&gt;Node9 -->
<g id="edge11" class="edge"><title>Node1&#45;&gt;Node9</title>
<path fill="none" stroke="midnightblue" d="M77.2913,-1243.72C95.0253,-1257.16 121.945,-1275.9 148,-1287.51 197.024,-1309.35 256.656,-1323.74 299.302,-1332.13"/>
<polygon fill="midnightblue" stroke="midnightblue" points="78.9593,-1240.58 68.9081,-1237.23 74.6762,-1246.12 78.9593,-1240.58"/>
</g>
<!-- Node10 -->
<g id="node10" class="node"><title>Node10</title>
<g id="a_node10"><a xlink:href="hdrline_8c.html#afa4aeab4df484044d13f6fb7d7f08901" target="_top" xlink:title="Format a string for the index list &#45; Implements format_t. ">
<polygon fill="white" stroke="black" points="311.5,-1256.01 311.5,-1275.01 400.5,-1275.01 400.5,-1256.01 311.5,-1256.01"/>
<text text-anchor="middle" x="356" y="-1263.01" font-family="Helvetica,sans-Serif" font-size="10.00">index_format_str</text>
</a>
</g>
</g>
<!-- Node1&#45;&gt;Node10 -->
<g id="edge12" class="edge"><title>Node1&#45;&gt;Node10</title>
<path fill="none" stroke="midnightblue" d="M121.983,-1237.81C130.722,-1239.1 139.575,-1240.37 148,-1241.51 204.29,-1249.1 269.393,-1256.41 311.327,-1260.92"/>
<polygon fill="midnightblue" stroke="midnightblue" points="122.219,-1234.3 111.81,-1236.28 121.179,-1241.23 122.219,-1234.3"/>
</g>
<!-- Node11 -->
<g id="node11" class="node"><title>Node11</title>
<g id="a_node11"><a xlink:href="hdrline_8h.html#a6de0878ccf20f84d785878dad420eef0" target="_top" xlink:title="Create formatted strings using mailbox expandos. ">
<polygon fill="white" stroke="red" points="452.5,-1256.01 452.5,-1275.01 573.5,-1275.01 573.5,-1256.01 452.5,-1256.01"/>
<text text-anchor="middle" x="513" y="-1263.01" font-family="Helvetica,sans-Serif" font-size="10.00">mutt_make_string_flags</text>
</a>
</g>
</g>
<!-- Node1&#45;&gt;Node11 -->
<g id="edge25" class="edge"><title>Node1&#45;&gt;Node11</title>
<path fill="none" stroke="midnightblue" d="M58.6851,-1247.64C63.6276,-1293.66 82.1965,-1407.28 148,-1468.51 198.24,-1515.25 228.092,-1502.63 296,-1512.51 348.778,-1520.19 375.453,-1547.16 416,-1512.51 493.993,-1445.86 385.101,-1362.28 452,-1284.51 455.349,-1280.62 459.49,-1277.51 464.021,-1275.04"/>
<polygon fill="midnightblue" stroke="midnightblue" points="62.148,-1247.09 57.7016,-1237.47 55.1805,-1247.76 62.148,-1247.09"/>
</g>
<!-- Node12 -->
<g id="node12" class="node"><title>Node12</title>
<g id="a_node12"><a xlink:href="recvattach_8h.html#a98b2ae112e8353253ba30462bfef777b" target="_top" xlink:title="Format a string for the attachment menu &#45; Implements format_t. ">
<polygon fill="white" stroke="black" points="610.5,-990.009 610.5,-1009.01 703.5,-1009.01 703.5,-990.009 610.5,-990.009"/>
<text text-anchor="middle" x="657" y="-997.009" font-family="Helvetica,sans-Serif" font-size="10.00">attach_format_str</text>
</a>
</g>
</g>
<!-- Node1&#45;&gt;Node12 -->
<g id="edge78" class="edge"><title>Node1&#45;&gt;Node12</title>
<path fill="none" stroke="midnightblue" d="M91.5147,-1214.37C200.592,-1172.85 536.263,-1045.09 630.918,-1009.06"/>
<polygon fill="midnightblue" stroke="midnightblue" points="90.0764,-1211.17 81.9757,-1218 92.5666,-1217.72 90.0764,-1211.17"/>
</g>
<!-- Node13 -->
<g id="node13" class="node"><title>Node13</title>
<g id="a_node13"><a xlink:href="crypt__gpgme_8c.html#a40d07d9c1d42f50976324b170272906f" target="_top" xlink:title="Format a string for the key selection menu &#45; Implements format_t. ">
<polygon fill="white" stroke="black" points="740,-1046.01 740,-1065.01 828,-1065.01 828,-1046.01 740,-1046.01"/>
<text text-anchor="middle" x="784" y="-1053.01" font-family="Helvetica,sans-Serif" font-size="10.00">crypt_format_str</text>
</a>
</g>
</g>
<!-- Node1&#45;&gt;Node13 -->
<g id="edge67" class="edge"><title>Node1&#45;&gt;Node13</title>
<path fill="none" stroke="midnightblue" d="M57.2514,-1247.28C58.817,-1336.37 69.9644,-1699.26 148,-1773.51 215.097,-1837.35 262.384,-1797.51 355,-1797.51 355,-1797.51 355,-1797.51 514,-1797.51 599.115,-1797.51 644.3,-1834.18 704,-1773.51 756.281,-1720.38 779.592,-1146.66 782.65,-1065.13"/>
<polygon fill="midnightblue" stroke="midnightblue" points="60.7497,-1247.14 57.0959,-1237.2 53.7505,-1247.25 60.7497,-1247.14"/>
</g>
<!-- Node14 -->
<g id="node14" class="node"><title>Node14</title>
<g id="a_node14"><a xlink:href="crypt__gpgme_8c.html#aadfbad730c8e2258e872742b3d209a01" target="_top" xlink:title="Format a menu item for the key selection list. ">
<polygon fill="white" stroke="red" points="864.5,-1046.01 864.5,-1065.01 929.5,-1065.01 929.5,-1046.01 864.5,-1046.01"/>
<text text-anchor="middle" x="897" y="-1053.01" font-family="Helvetica,sans-Serif" font-size="10.00">crypt_entry</text>
</a>
</g>
</g>
<!-- Node1&#45;&gt;Node14 -->
<g id="edge68" class="edge"><title>Node1&#45;&gt;Node14</title>
<path fill="none" stroke="midnightblue" d="M57.1049,-1247.5C58.0235,-1339.97 66.741,-1725.24 148,-1805.51 214.134,-1870.84 262.039,-1835.51 355,-1835.51 355,-1835.51 355,-1835.51 658,-1835.51 725.167,-1835.51 787.564,-1752.6 828,-1659.51 877.296,-1546.03 893.338,-1133.64 895.685,-1065.17"/>
<polygon fill="midnightblue" stroke="midnightblue" points="60.6032,-1247.26 57.0248,-1237.28 53.6034,-1247.31 60.6032,-1247.26"/>
</g>
<!-- Node15 -->
<g id="node15" class="node"><title>Node15</title>
<g id="a_node15"><a xlink:href="pgpkey_8c.html#a48bfb11bc71b8c6d58b6aeaa643fe5ff" target="_top" xlink:title="Format an entry on the PGP key selection menu &#45; Implements format_t. ">
<polygon fill="white" stroke="black" points="744.5,-800.009 744.5,-819.009 823.5,-819.009 823.5,-800.009 744.5,-800.009"/>
<text text-anchor="middle" x="784" y="-807.009" font-family="Helvetica,sans-Serif" font-size="10.00">pgp_entry_fmt</text>
</a>
</g>
</g>
<!-- Node1&#45;&gt;Node15 -->
<g id="edge71" class="edge"><title>Node1&#45;&gt;Node15</title>
<path fill="none" stroke="midnightblue" d="M60.5414,-1207.92C81.9586,-1092.43 198.503,-505.509 355,-505.509 355,-505.509 355,-505.509 514,-505.509 675.659,-505.509 612.113,-691.622 740,-790.509 744.778,-794.203 750.386,-797.349 755.946,-799.956"/>
<polygon fill="midnightblue" stroke="midnightblue" points="57.0817,-1207.38 58.7203,-1217.85 63.9668,-1208.64 57.0817,-1207.38"/>
</g>
<!-- Node16 -->
<g id="node16" class="node"><title>Node16</title>
<g id="a_node16"><a xlink:href="pgpkey_8c.html#a4bffe761842cc19608b1e542effe80aa" target="_top" xlink:title="Format a menu item for the pgp key list. ">
<polygon fill="white" stroke="red" points="867.5,-838.009 867.5,-857.009 926.5,-857.009 926.5,-838.009 867.5,-838.009"/>
<text text-anchor="middle" x="897" y="-845.009" font-family="Helvetica,sans-Serif" font-size="10.00">pgp_entry</text>
</a>
</g>
</g>
<!-- Node1&#45;&gt;Node16 -->
<g id="edge72" class="edge"><title>Node1&#45;&gt;Node16</title>
<path fill="none" stroke="midnightblue" d="M56.646,-1247.19C56.6972,-1303.51 64.419,-1467.29 148,-1561.51 213.889,-1635.78 255.714,-1645.51 355,-1645.51 355,-1645.51 355,-1645.51 658,-1645.51 744.563,-1645.51 877.467,-947.061 894.24,-857.027"/>
<polygon fill="midnightblue" stroke="midnightblue" points="60.1462,-1247.17 56.7224,-1237.14 53.1464,-1247.11 60.1462,-1247.17"/>
</g>
<!-- Node17 -->
<g id="node17" class="node"><title>Node17</title>
<g id="a_node17"><a xlink:href="recvattach_8c.html#ae338f31584f65c5bcec0ebfb803b3c68" target="_top" xlink:title="Format a menu item for the attachment list. ">
<polygon fill="white" stroke="red" points="748.5,-961.009 748.5,-980.009 819.5,-980.009 819.5,-961.009 748.5,-961.009"/>
<text text-anchor="middle" x="784" y="-968.009" font-family="Helvetica,sans-Serif" font-size="10.00">attach_entry</text>
</a>
</g>
</g>
<!-- Node1&#45;&gt;Node17 -->
<g id="edge79" class="edge"><title>Node1&#45;&gt;Node17</title>
<path fill="none" stroke="midnightblue" d="M58.4477,-1247.22C63.0089,-1296.12 81.0479,-1424.69 148,-1502.51 215.279,-1580.71 251.841,-1607.51 355,-1607.51 355,-1607.51 355,-1607.51 514,-1607.51 578.848,-1607.51 550.141,-1534.81 574,-1474.51 615.913,-1368.58 662.999,-1073.46 740,-989.509 743.531,-985.66 747.984,-982.547 752.677,-980.044"/>
<polygon fill="midnightblue" stroke="midnightblue" points="61.9192,-1246.73 57.5923,-1237.06 54.9439,-1247.32 61.9192,-1246.73"/>
</g>
<!-- Node18 -->
<g id="node18" class="node"><title>Node18</title>
<g id="a_node18"><a xlink:href="remailer_8c.html#a00f293965c485cb7a94e042a28df1f4b" target="_top" xlink:title="Format a string for the remailer menu &#45; Implements format_t. ">
<polygon fill="white" stroke="black" points="743,-762.009 743,-781.009 825,-781.009 825,-762.009 743,-762.009"/>
<text text-anchor="middle" x="784" y="-769.009" font-family="Helvetica,sans-Serif" font-size="10.00">mix_format_str</text>
</a>
</g>
</g>
<!-- Node1&#45;&gt;Node18 -->
<g id="edge80" class="edge"><title>Node1&#45;&gt;Node18</title>
<path fill="none" stroke="midnightblue" d="M57.8633,-1207.67C63.0954,-1091.78 92.2119,-505.44 148,-450.509 213.892,-385.629 262.528,-429.509 355,-429.509 355,-429.509 355,-429.509 514,-429.509 613.876,-429.509 645.475,-468.576 704,-549.509 755.539,-620.781 776.23,-728.923 781.536,-761.734"/>
<polygon fill="midnightblue" stroke="midnightblue" points="54.3559,-1207.76 57.4086,-1217.91 61.349,-1208.07 54.3559,-1207.76"/>
</g>
<!-- Node19 -->
<g id="node19" class="node"><title>Node19</title>
<g id="a_node19"><a xlink:href="remailer_8c.html#a7c65826afd3d8235f372535484e0be1e" target="_top" xlink:title="Format a menu item for the mixmaster chain list. ">
<polygon fill="white" stroke="red" points="867.5,-724.009 867.5,-743.009 926.5,-743.009 926.5,-724.009 867.5,-724.009"/>
<text text-anchor="middle" x="897" y="-731.009" font-family="Helvetica,sans-Serif" font-size="10.00">mix_entry</text>
</a>
</g>
</g>
<!-- Node1&#45;&gt;Node19 -->
<g id="edge81" class="edge"><title>Node1&#45;&gt;Node19</title>
<path fill="none" stroke="midnightblue" d="M57.4521,-1207.46C60.5671,-1077.9 80.7601,-362.04 148,-295.509 213.644,-230.556 262.653,-277.509 355,-277.509 355,-277.509 355,-277.509 658,-277.509 866.964,-277.509 892.767,-658.502 895.659,-723.985"/>
<polygon fill="midnightblue" stroke="midnightblue" points="53.9442,-1207.77 57.2094,-1217.85 60.9422,-1207.93 53.9442,-1207.77"/>
</g>
<!-- Node20 -->
<g id="node20" class="node"><title>Node20</title>
<g id="a_node20"><a xlink:href="hdrline_8h.html#afc3550eab1c41d947cc3d33634af2b6f" target="_top" xlink:title="Create pager status bar string. ">
<polygon fill="white" stroke="red" points="455,-1294.01 455,-1313.01 571,-1313.01 571,-1294.01 455,-1294.01"/>
<text text-anchor="middle" x="513" y="-1301.01" font-family="Helvetica,sans-Serif" font-size="10.00">mutt_make_string_info</text>
</a>
</g>
</g>
<!-- Node1&#45;&gt;Node20 -->
<g id="edge26" class="edge"><title>Node1&#45;&gt;Node20</title>
<path fill="none" stroke="midnightblue" d="M58.6851,-1247.64C63.6276,-1293.66 82.1965,-1407.28 148,-1468.51 198.24,-1515.25 228.092,-1502.63 296,-1512.51 348.778,-1520.19 372.983,-1544.04 416,-1512.51 458.856,-1481.1 429.629,-1446.7 452,-1398.51 467.441,-1365.24 492.562,-1329.6 504.817,-1313.02"/>
<polygon fill="midnightblue" stroke="midnightblue" points="62.148,-1247.09 57.7016,-1237.47 55.1805,-1247.76 62.148,-1247.09"/>
</g>
<!-- Node21 -->
<g id="node21" class="node"><title>Node21</title>
<g id="a_node21"><a xlink:href="mutt__history_8c.html#adbc5c3dee8d3a87d6e1ad9cbba5fe0c4" target="_top" xlink:title="Format a menu item for the history list. ">
<polygon fill="white" stroke="red" points="319.5,-1294.01 319.5,-1313.01 392.5,-1313.01 392.5,-1294.01 319.5,-1294.01"/>
<text text-anchor="middle" x="356" y="-1301.01" font-family="Helvetica,sans-Serif" font-size="10.00">history_entry</text>
</a>
</g>
</g>
<!-- Node1&#45;&gt;Node21 -->
<g id="edge27" class="edge"><title>Node1&#45;&gt;Node21</title>
<path fill="none" stroke="midnightblue" d="M89.0655,-1240.9C106.312,-1247.74 128.076,-1255.8 148,-1261.51 207.225,-1278.47 277.865,-1291.26 319.431,-1298.04"/>
<polygon fill="midnightblue" stroke="midnightblue" points="90.0644,-1237.53 79.4809,-1237.04 87.4492,-1244.02 90.0644,-1237.53"/>
</g>
<!-- Node22 -->
<g id="node22" class="node"><title>Node22</title>
<g id="a_node22"><a xlink:href="muttlib_8h.html#a5efffe8bf1716c24b902f42e1d2166a0" target="_top" xlink:title="Expand expandos (x) in a string. ">
<polygon fill="white" stroke="black" points="148.5,-876.009 148.5,-895.009 259.5,-895.009 259.5,-876.009 148.5,-876.009"/>
<text text-anchor="middle" x="204" y="-883.009" font-family="Helvetica,sans-Serif" font-size="10.00">mutt_expando_format</text>
</a>
</g>
</g>
<!-- Node1&#45;&gt;Node22 -->
<g id="edge28" class="edge"><title>Node1&#45;&gt;Node22</title>
<path fill="none" stroke="midnightblue" d="M65.1423,-1208.44C92.2677,-1144.9 178.973,-941.791 198.893,-895.129"/>
<polygon fill="midnightblue" stroke="midnightblue" points="61.7646,-1207.43 61.0573,-1218 68.2025,-1210.18 61.7646,-1207.43"/>
</g>
<!-- Node23 -->
<g id="node23" class="node"><title>Node23</title>
<g id="a_node23"><a xlink:href="pgpinvoke_8c.html#a0effb59dd56a33c4189b28bead374191" target="_top" xlink:title="Format a PGP command string &#45; Implements format_t. ">
<polygon fill="white" stroke="black" points="306,-458.009 306,-477.009 406,-477.009 406,-458.009 306,-458.009"/>
<text text-anchor="middle" x="356" y="-465.009" font-family="Helvetica,sans-Serif" font-size="10.00">fmt_pgp_command</text>
</a>
</g>
</g>
<!-- Node1&#45;&gt;Node23 -->
<g id="edge69" class="edge"><title>Node1&#45;&gt;Node23</title>
<path fill="none" stroke="midnightblue" d="M58.0096,-1207.69C63.9092,-1095.55 95.4842,-543.628 148,-491.509 189.214,-450.606 260.115,-451.558 307.279,-457.96"/>
<polygon fill="midnightblue" stroke="midnightblue" points="54.5027,-1207.74 57.4799,-1217.9 61.4933,-1208.1 54.5027,-1207.74"/>
</g>
<!-- Node24 -->
<g id="node24" class="node"><title>Node24</title>
<g id="a_node24"><a xlink:href="pgpinvoke_8c.html#a678575e9a2c4c11d950da5ed1ba03740" target="_top" xlink:title="Prepare a PGP Command. ">
<polygon fill="white" stroke="red" points="460.5,-458.009 460.5,-477.009 565.5,-477.009 565.5,-458.009 460.5,-458.009"/>
<text text-anchor="middle" x="513" y="-465.009" font-family="Helvetica,sans-Serif" font-size="10.00">mutt_pgp_command</text>
</a>
</g>
</g>
<!-- Node1&#45;&gt;Node24 -->
<g id="edge70" class="edge"><title>Node1&#45;&gt;Node24</title>
<path fill="none" stroke="midnightblue" d="M57.2294,-1207.92C58.9991,-1073.51 72.5176,-290.941 148,-221.509 191.833,-181.19 370.135,-182.518 416,-220.509 482.189,-275.335 410.859,-335.048 452,-410.509 463.004,-430.693 483.691,-447.912 497.658,-457.989"/>
<polygon fill="midnightblue" stroke="midnightblue" points="53.7289,-1207.94 57.1033,-1217.99 60.7283,-1208.03 53.7289,-1207.94"/>
</g>
<!-- Node25 -->
<g id="node25" class="node"><title>Node25</title>
<g id="a_node25"><a xlink:href="smime_8c.html#a8a3ae4dbf82358a84f298a9fd1eafaf6" target="_top" xlink:title="Format an SMIME command &#45; Implements format_t. ">
<polygon fill="white" stroke="black" points="299.5,-382.009 299.5,-401.009 412.5,-401.009 412.5,-382.009 299.5,-382.009"/>
<text text-anchor="middle" x="356" y="-389.009" font-family="Helvetica,sans-Serif" font-size="10.00">fmt_smime_command</text>
</a>
</g>
</g>
<!-- Node1&#45;&gt;Node25 -->
<g id="edge73" class="edge"><title>Node1&#45;&gt;Node25</title>
<path fill="none" stroke="midnightblue" d="M57.7764,-1207.54C62.6,-1088.29 90.1699,-473.561 148,-415.509 189.236,-374.115 260.826,-375.397 308.061,-381.984"/>
<polygon fill="midnightblue" stroke="midnightblue" points="54.27,-1207.63 57.3699,-1217.76 61.2645,-1207.91 54.27,-1207.63"/>
</g>
<!-- Node26 -->
<g id="node26" class="node"><title>Node26</title>
<g id="a_node26"><a xlink:href="smime_8c.html#a61cdf32d1db4e2725b27a3576505eaef" target="_top" xlink:title="Format an SMIME command string. ">
<polygon fill="white" stroke="red" points="466,-382.009 466,-401.009 560,-401.009 560,-382.009 466,-382.009"/>
<text text-anchor="middle" x="513" y="-389.009" font-family="Helvetica,sans-Serif" font-size="10.00">smime_command</text>
</a>
</g>
</g>
<!-- Node1&#45;&gt;Node26 -->
<g id="edge74" class="edge"><title>Node1&#45;&gt;Node26</title>
<path fill="none" stroke="midnightblue" d="M57.0999,-1207.76C58.0093,-1067.11 66.8461,-220.632 148,-145.509 191.705,-105.052 367.964,-109.304 416,-144.509 458.856,-175.917 433.042,-208.873 452,-258.509 470.076,-305.837 496.529,-360.392 507.238,-381.995"/>
<polygon fill="midnightblue" stroke="midnightblue" points="53.5991,-1207.9 57.0405,-1217.92 60.599,-1207.94 53.5991,-1207.9"/>
</g>
<!-- Node27 -->
<g id="node27" class="node"><title>Node27</title>
<g id="a_node27"><a xlink:href="nntp_8h.html#ac501636e969731011da557bad742f426" target="_top" xlink:title="Open a connection to an NNTP server. ">
<polygon fill="white" stroke="red" points="306.5,-344.009 306.5,-363.009 405.5,-363.009 405.5,-344.009 306.5,-344.009"/>
<text text-anchor="middle" x="356" y="-351.009" font-family="Helvetica,sans-Serif" font-size="10.00">nntp_select_server</text>
</a>
</g>
</g>
<!-- Node1&#45;&gt;Node27 -->
<g id="edge75" class="edge"><title>Node1&#45;&gt;Node27</title>
<path fill="none" stroke="midnightblue" d="M57.647,-1207.67C61.8295,-1085.22 86.8222,-435.371 148,-374.509 190.894,-331.837 266.275,-336.015 313.267,-344.004"/>
<polygon fill="midnightblue" stroke="midnightblue" points="54.1433,-1207.73 57.3067,-1217.84 61.1394,-1207.96 54.1433,-1207.73"/>
</g>
<!-- Node28 -->
<g id="node28" class="node"><title>Node28</title>
<g id="a_node28"><a xlink:href="query_8c.html#a5f07bf1c28fa6b4d0a38b56138f068a1" target="_top" xlink:title="Format a string for the query menu &#45; Implements format_t. ">
<polygon fill="white" stroke="black" points="311,-230.009 311,-249.009 401,-249.009 401,-230.009 311,-230.009"/>
<text text-anchor="middle" x="356" y="-237.009" font-family="Helvetica,sans-Serif" font-size="10.00">query_format_str</text>
</a>
</g>
</g>
<!-- Node1&#45;&gt;Node28 -->
<g id="edge76" class="edge"><title>Node1&#45;&gt;Node28</title>
<path fill="none" stroke="midnightblue" d="M57.405,-1207.62C60.2738,-1075.99 79.4386,-333.547 148,-263.509 189.758,-220.852 263.679,-223.212 310.956,-230.28"/>
<polygon fill="midnightblue" stroke="midnightblue" points="53.9014,-1207.76 57.1889,-1217.83 60.8998,-1207.91 53.9014,-1207.76"/>
</g>
<!-- Node29 -->
<g id="node29" class="node"><title>Node29</title>
<g id="a_node29"><a xlink:href="query_8c.html#aa8dcbe1f9d351239c89d2dc1124331a4" target="_top" xlink:title="Format a menu item for the query list. ">
<polygon fill="white" stroke="red" points="479,-230.009 479,-249.009 547,-249.009 547,-230.009 479,-230.009"/>
<text text-anchor="middle" x="513" y="-237.009" font-family="Helvetica,sans-Serif" font-size="10.00">query_entry</text>
</a>
</g>
</g>
<!-- Node1&#45;&gt;Node29 -->
<g id="edge77" class="edge"><title>Node1&#45;&gt;Node29</title>
<path fill="none" stroke="midnightblue" d="M56.9921,-1207.77C57.1318,-1061.66 61.4838,-151.579 148,-70.5089 191.459,-29.7858 367.963,-33.3029 416,-68.5089 458.856,-99.9174 423.846,-137.448 452,-182.509 464.181,-202.005 484.573,-219.397 498.155,-229.699"/>
<polygon fill="midnightblue" stroke="midnightblue" points="53.4922,-1207.93 56.9885,-1217.93 60.4922,-1207.93 53.4922,-1207.93"/>
</g>
<!-- Node30 -->
<g id="node30" class="node"><title>Node30</title>
<g id="a_node30"><a xlink:href="sendlib_8h.html#ab4c0786d3bd0279716711f0b89bdb316" target="_top" xlink:title="Run sendmail. ">
<polygon fill="white" stroke="red" points="299,-306.009 299,-325.009 413,-325.009 413,-306.009 299,-306.009"/>
<text text-anchor="middle" x="356" y="-313.009" font-family="Helvetica,sans-Serif" font-size="10.00">mutt_invoke_sendmail</text>
</a>
</g>
</g>
<!-- Node1&#45;&gt;Node30 -->
<g id="edge82" class="edge"><title>Node1&#45;&gt;Node30</title>
<path fill="none" stroke="midnightblue" d="M57.5328,-1207.91C61.1238,-1082.74 83.6319,-398.235 148,-334.509 191.726,-291.219 269.028,-297.164 315.786,-305.965"/>
<polygon fill="midnightblue" stroke="midnightblue" points="54.0327,-1207.87 57.2511,-1217.97 61.0299,-1208.07 54.0327,-1207.87"/>
</g>
<!-- Node31 -->
<g id="node31" class="node"><title>Node31</title>
<g id="a_node31"><a xlink:href="sidebar_8c.html#a95ced0f456ea36eea51641d78af34c35" target="_top" xlink:title="Format a string for the sidebar &#45; Implements format_t. ">
<polygon fill="white" stroke="black" points="307,-154.009 307,-173.009 405,-173.009 405,-154.009 307,-154.009"/>
<text text-anchor="middle" x="356" y="-161.009" font-family="Helvetica,sans-Serif" font-size="10.00">sidebar_format_str</text>
</a>
</g>
</g>
<!-- Node1&#45;&gt;Node31 -->
<g id="edge83" class="edge"><title>Node1&#45;&gt;Node31</title>
<path fill="none" stroke="midnightblue" d="M57.2649,-1207.35C59.2738,-1069.04 74.1106,-263.508 148,-187.509 189.107,-145.228 261.787,-147.059 309.168,-153.97"/>
<polygon fill="midnightblue" stroke="midnightblue" points="53.7603,-1207.66 57.1208,-1217.71 60.7596,-1207.76 53.7603,-1207.66"/>
</g>
<!-- Node32 -->
<g id="node32" class="node"><title>Node32</title>
<g id="a_node32"><a xlink:href="sidebar_8c.html#a3830c13aded95a5b10971729a09f198e" target="_top" xlink:title="Turn mailbox data into a sidebar string. ">
<polygon fill="white" stroke="red" points="461,-154.009 461,-173.009 565,-173.009 565,-154.009 461,-154.009"/>
<text text-anchor="middle" x="513" y="-161.009" font-family="Helvetica,sans-Serif" font-size="10.00">make_sidebar_entry</text>
</a>
</g>
</g>
<!-- Node1&#45;&gt;Node32 -->
<g id="edge84" class="edge"><title>Node1&#45;&gt;Node32</title>
<path fill="none" stroke="midnightblue" d="M56.9428,-1207.68C56.713,-1058.97 58.8198,-121.686 148,-38.5089 191.553,2.11215 365.071,-6.63635 416,-37.5089 445.579,-55.4395 431.178,-78.8883 452,-106.509 466.184,-125.325 486.819,-143.426 499.818,-154.006"/>
<polygon fill="midnightblue" stroke="midnightblue" points="53.4434,-1208 56.9649,-1218 60.4433,-1207.99 53.4434,-1208"/>
</g>
<!-- Node33 -->
<g id="node33" class="node"><title>Node33</title>
<g id="a_node33"><a xlink:href="status_8c.html#a92f5e92c0ed851b635ca764b9102059e" target="_top" xlink:title="Create the status bar string &#45; Implements format_t. ">
<polygon fill="white" stroke="black" points="309.5,-78.0089 309.5,-97.0089 402.5,-97.0089 402.5,-78.0089 309.5,-78.0089"/>
<text text-anchor="middle" x="356" y="-85.0089" font-family="Helvetica,sans-Serif" font-size="10.00">status_format_str</text>
</a>
</g>
</g>
<!-- Node1&#45;&gt;Node33 -->
<g id="edge85" class="edge"><title>Node1&#45;&gt;Node33</title>
<path fill="none" stroke="midnightblue" d="M57.1359,-1207.68C58.305,-1064.63 68.6663,-193.592 148,-111.509 189.108,-68.9762 262.143,-70.9828 309.555,-77.9858"/>
<polygon fill="midnightblue" stroke="midnightblue" points="53.6338,-1207.96 57.0577,-1217.99 60.6336,-1208.01 53.6338,-1207.96"/>
</g>
<!-- Node34 -->
<g id="node34" class="node"><title>Node34</title>
<g id="a_node34"><a xlink:href="status_8h.html#af7b580cf4960ac8f05f1bd08365ba556" target="_top" xlink:title="Create the status line. ">
<polygon fill="white" stroke="red" points="466.5,-78.0089 466.5,-97.0089 559.5,-97.0089 559.5,-78.0089 466.5,-78.0089"/>
<text text-anchor="middle" x="513" y="-85.0089" font-family="Helvetica,sans-Serif" font-size="10.00">menu_status_line</text>
</a>
</g>
</g>
<!-- Node1&#45;&gt;Node34 -->
<g id="edge86" class="edge"><title>Node1&#45;&gt;Node34</title>
<path fill="none" stroke="midnightblue" d="M56.8967,-1207.62C56.3123,-1056.47 56.2105,-92.7068 148,-7.50893 158.351,2.09838 383.614,3.22054 416,-8.50893 454.965,-22.6214 489.483,-60.0026 504.306,-77.8113"/>
<polygon fill="midnightblue" stroke="midnightblue" points="53.3972,-1207.76 56.9417,-1217.75 60.3971,-1207.73 53.3972,-1207.76"/>
</g>
<!-- Node3&#45;&gt;Node4 -->
<g id="edge3" class="edge"><title>Node3&#45;&gt;Node4</title>
<path fill="none" stroke="midnightblue" d="M406.016,-1443.49C429.789,-1437.66 457.716,-1430.82 478.933,-1425.62"/>
<polygon fill="midnightblue" stroke="midnightblue" points="404.992,-1440.14 396.113,-1445.92 406.659,-1446.94 404.992,-1440.14"/>
</g>
<!-- Node3&#45;&gt;Node5 -->
<g id="edge4" class="edge"><title>Node3&#45;&gt;Node5</title>
<path fill="none" stroke="midnightblue" d="M411.068,-1455.51C432.746,-1455.51 457.125,-1455.51 476.492,-1455.51"/>
<polygon fill="midnightblue" stroke="midnightblue" points="411.002,-1452.01 401.002,-1455.51 411.002,-1459.01 411.002,-1452.01"/>
</g>
<!-- Node6&#45;&gt;Node4 -->
<g id="edge6" class="edge"><title>Node6&#45;&gt;Node4</title>
<path fill="none" stroke="midnightblue" d="M425.769,-1417.51C444.247,-1417.51 463.396,-1417.51 478.942,-1417.51"/>
<polygon fill="midnightblue" stroke="midnightblue" points="425.599,-1414.01 415.599,-1417.51 425.599,-1421.01 425.599,-1414.01"/>
</g>
<!-- Node10&#45;&gt;Node11 -->
<g id="edge13" class="edge"><title>Node10&#45;&gt;Node11</title>
<path fill="none" stroke="midnightblue" d="M410.623,-1265.51C424.056,-1265.51 438.549,-1265.51 452.259,-1265.51"/>
<polygon fill="midnightblue" stroke="midnightblue" points="410.589,-1262.01 400.589,-1265.51 410.589,-1269.01 410.589,-1262.01"/>
</g>
<!-- Node10&#45;&gt;Node20 -->
<g id="edge24" class="edge"><title>Node10&#45;&gt;Node20</title>
<path fill="none" stroke="midnightblue" d="M406.111,-1277.55C427.765,-1282.86 452.85,-1289.01 473.168,-1293.99"/>
<polygon fill="midnightblue" stroke="midnightblue" points="406.659,-1274.08 396.113,-1275.1 404.992,-1280.88 406.659,-1274.08"/>
</g>
<!-- Node11&#45;&gt;Node12 -->
<g id="edge14" class="edge"><title>Node11&#45;&gt;Node12</title>
<path fill="none" stroke="midnightblue" d="M561.446,-1251.28C566.07,-1248.56 570.379,-1245.33 574,-1241.51 640.517,-1171.31 653.21,-1045.18 655.513,-1009.28"/>
<polygon fill="midnightblue" stroke="midnightblue" points="559.615,-1248.28 552.266,-1255.91 562.77,-1254.53 559.615,-1248.28"/>
</g>
<!-- Node12&#45;&gt;Node7 -->
<g id="edge15" class="edge"><title>Node12&#45;&gt;Node7</title>
<path fill="none" stroke="midnightblue" d="M713.875,-1003.53C727.826,-1004.54 742.223,-1005.57 754.242,-1006.44"/>
<polygon fill="midnightblue" stroke="midnightblue" points="714.061,-1000.04 703.836,-1002.81 713.558,-1007.02 714.061,-1000.04"/>
</g>
<!-- Node12&#45;&gt;Node12 -->
<g id="edge20" class="edge"><title>Node12&#45;&gt;Node12</title>
<path fill="none" stroke="midnightblue" d="M633.563,-1018.54C634.841,-1023.64 642.654,-1027.51 657,-1027.51 679.395,-1027.51 685.868,-1018.07 676.42,-1009.27"/>
<polygon fill="midnightblue" stroke="midnightblue" points="636.816,-1019.83 637.58,-1009.27 630.393,-1017.05 636.816,-1019.83"/>
</g>
<!-- Node12&#45;&gt;Node13 -->
<g id="edge16" class="edge"><title>Node12&#45;&gt;Node13</title>
<path fill="none" stroke="midnightblue" d="M688.698,-1013.26C711.399,-1023.43 741.732,-1037.02 761.792,-1046.01"/>
<polygon fill="midnightblue" stroke="midnightblue" points="690.045,-1010.03 679.488,-1009.14 687.183,-1016.42 690.045,-1010.03"/>
</g>
<!-- Node12&#45;&gt;Node15 -->
<g id="edge18" class="edge"><title>Node12&#45;&gt;Node15</title>
<path fill="none" stroke="midnightblue" d="M669.884,-981.445C695.764,-942.108 756.5,-849.79 776.492,-819.401"/>
<polygon fill="midnightblue" stroke="midnightblue" points="666.943,-979.548 664.371,-989.826 672.791,-983.395 666.943,-979.548"/>
</g>
<!-- Node12&#45;&gt;Node17 -->
<g id="edge21" class="edge"><title>Node12&#45;&gt;Node17</title>
<path fill="none" stroke="midnightblue" d="M709.2,-987.63C722.41,-984.566 736.315,-981.34 748.45,-978.524"/>
<polygon fill="midnightblue" stroke="midnightblue" points="708.226,-984.263 699.276,-989.933 709.808,-991.082 708.226,-984.263"/>
</g>
<!-- Node12&#45;&gt;Node18 -->
<g id="edge22" class="edge"><title>Node12&#45;&gt;Node18</title>
<path fill="none" stroke="midnightblue" d="M660.638,-979.861C667.044,-939.369 686.99,-845.803 740,-790.509 743.615,-786.738 748.11,-783.666 752.819,-781.177"/>
<polygon fill="midnightblue" stroke="midnightblue" points="657.169,-979.395 659.174,-989.798 664.094,-980.415 657.169,-979.395"/>
</g>
<!-- Node13&#45;&gt;Node14 -->
<g id="edge17" class="edge"><title>Node13&#45;&gt;Node14</title>
<path fill="none" stroke="midnightblue" d="M838.253,-1055.51C847.201,-1055.51 856.227,-1055.51 864.398,-1055.51"/>
<polygon fill="midnightblue" stroke="midnightblue" points="838.233,-1052.01 828.233,-1055.51 838.233,-1059.01 838.233,-1052.01"/>
</g>
<!-- Node15&#45;&gt;Node16 -->
<g id="edge19" class="edge"><title>Node15&#45;&gt;Node16</title>
<path fill="none" stroke="midnightblue" d="M822.891,-822.481C837.68,-827.543 854.329,-833.243 867.999,-837.923"/>
<polygon fill="midnightblue" stroke="midnightblue" points="823.605,-819.026 813.01,-819.098 821.337,-825.648 823.605,-819.026"/>
</g>
<!-- Node18&#45;&gt;Node19 -->
<g id="edge23" class="edge"><title>Node18&#45;&gt;Node19</title>
<path fill="none" stroke="midnightblue" d="M822.891,-758.537C837.68,-753.474 854.329,-747.775 867.999,-743.095"/>
<polygon fill="midnightblue" stroke="midnightblue" points="821.337,-755.37 813.01,-761.92 823.605,-761.992 821.337,-755.37"/>
</g>
<!-- Node22&#45;&gt;Node2 -->
<g id="edge29" class="edge"><title>Node22&#45;&gt;Node2</title>
<path fill="none" stroke="midnightblue" d="M205.36,-905.578C207.422,-998.48 220.494,-1386 296,-1474.51 302.984,-1482.7 313.514,-1487.39 323.755,-1490.06"/>
<polygon fill="midnightblue" stroke="midnightblue" points="208.854,-905.248 205.152,-895.321 201.855,-905.39 208.854,-905.248"/>
</g>
<!-- Node22&#45;&gt;Node3 -->
<g id="edge30" class="edge"><title>Node22&#45;&gt;Node3</title>
<path fill="none" stroke="midnightblue" d="M205.58,-905.123C208.577,-993.529 225.042,-1354.2 296,-1436.51 300.005,-1441.15 305.152,-1444.67 310.733,-1447.34"/>
<polygon fill="midnightblue" stroke="midnightblue" points="209.077,-904.997 205.26,-895.114 202.081,-905.22 209.077,-904.997"/>
</g>
<!-- Node22&#45;&gt;Node4 -->
<g id="edge32" class="edge"><title>Node22&#45;&gt;Node4</title>
<path fill="none" stroke="midnightblue" d="M207.057,-905.315C212.782,-950.662 232.882,-1063.06 296,-1127.51 336.192,-1168.55 378.33,-1132.14 416,-1175.51 460.111,-1226.29 425.698,-1260.6 452,-1322.51 466.264,-1356.08 491.704,-1391.3 504.382,-1407.84"/>
<polygon fill="midnightblue" stroke="midnightblue" points="210.525,-904.831 205.894,-895.301 203.571,-905.638 210.525,-904.831"/>
</g>
<!-- Node22&#45;&gt;Node5 -->
<g id="edge33" class="edge"><title>Node22&#45;&gt;Node5</title>
<path fill="none" stroke="midnightblue" d="M207,-905.401C212.791,-954.285 233.359,-1082.36 296,-1165.51 334.718,-1216.9 380.621,-1192.76 416,-1246.51 463.255,-1318.3 394.961,-1372.22 452,-1436.51 458.309,-1443.62 467.259,-1448.09 476.327,-1450.9"/>
<polygon fill="midnightblue" stroke="midnightblue" points="210.454,-904.79 205.878,-895.234 203.497,-905.558 210.454,-904.79"/>
</g>
<!-- Node22&#45;&gt;Node6 -->
<g id="edge31" class="edge"><title>Node22&#45;&gt;Node6</title>
<path fill="none" stroke="midnightblue" d="M205.854,-905.369C209.897,-990.364 229.766,-1322.59 296,-1398.51 299.396,-1402.4 303.592,-1405.5 308.17,-1407.97"/>
<polygon fill="midnightblue" stroke="midnightblue" points="209.345,-905.095 205.394,-895.265 202.353,-905.414 209.345,-905.095"/>
</g>
<!-- Node22&#45;&gt;Node7 -->
<g id="edge34" class="edge"><title>Node22&#45;&gt;Node7</title>
<path fill="none" stroke="midnightblue" d="M236.251,-899.037C253.573,-906.061 275.662,-914.251 296,-919.509 473.513,-965.401 526.105,-936.123 704,-980.509 723.201,-985.3 744.297,-992.903 759.855,-998.978"/>
<polygon fill="midnightblue" stroke="midnightblue" points="237.231,-895.654 226.652,-895.066 234.555,-902.123 237.231,-895.654"/>
</g>
<!-- Node22&#45;&gt;Node8 -->
<g id="edge35" class="edge"><title>Node22&#45;&gt;Node8</title>
<path fill="none" stroke="midnightblue" d="M206.182,-905.682C211.346,-987.168 234.49,-1290.98 296,-1360.51 299.422,-1364.38 303.636,-1367.46 308.223,-1369.92"/>
<polygon fill="midnightblue" stroke="midnightblue" points="209.652,-905.094 205.548,-895.327 202.665,-905.522 209.652,-905.094"/>
</g>
<!-- Node22&#45;&gt;Node9 -->
<g id="edge36" class="edge"><title>Node22&#45;&gt;Node9</title>
<path fill="none" stroke="midnightblue" d="M206.535,-905.536C212.832,-982.648 239.081,-1259.2 296,-1322.51 299.453,-1326.35 303.686,-1329.42 308.284,-1331.87"/>
<polygon fill="midnightblue" stroke="midnightblue" points="210.003,-904.985 205.722,-895.293 203.025,-905.539 210.003,-904.985"/>
</g>
<!-- Node22&#45;&gt;Node10 -->
<g id="edge37" class="edge"><title>Node22&#45;&gt;Node10</title>
<path fill="none" stroke="midnightblue" d="M207.343,-905.468C214.146,-957.592 237.278,-1100.87 296,-1203.51 308.249,-1224.92 329.42,-1244.63 342.792,-1255.85"/>
<polygon fill="midnightblue" stroke="midnightblue" points="210.781,-904.754 206.071,-895.263 203.835,-905.619 210.781,-904.754"/>
</g>
<!-- Node22&#45;&gt;Node11 -->
<g id="edge38" class="edge"><title>Node22&#45;&gt;Node11</title>
<path fill="none" stroke="midnightblue" d="M210.795,-904.938C221.918,-939.101 249.382,-1010.21 296,-1051.51 338.998,-1089.6 372.569,-1061.91 416,-1099.51 468.86,-1145.27 499.596,-1227.66 508.935,-1255.79"/>
<polygon fill="midnightblue" stroke="midnightblue" points="214.083,-903.726 207.754,-895.229 207.403,-905.818 214.083,-903.726"/>
</g>
<!-- Node22&#45;&gt;Node12 -->
<g id="edge56" class="edge"><title>Node22&#45;&gt;Node12</title>
<path fill="none" stroke="midnightblue" d="M216.842,-903.337C232.222,-924.785 261.255,-959.858 296,-975.509 400.515,-1022.59 539.567,-1014.62 610.371,-1006.25"/>
<polygon fill="midnightblue" stroke="midnightblue" points="219.686,-901.296 211.109,-895.075 213.935,-905.287 219.686,-901.296"/>
</g>
<!-- Node22&#45;&gt;Node13 -->
<g id="edge42" class="edge"><title>Node22&#45;&gt;Node13</title>
<path fill="none" stroke="midnightblue" d="M213.573,-904.564C226.926,-931.798 255.436,-981.136 296,-1004.51 440.739,-1087.91 650.21,-1073.32 739.762,-1062.04"/>
<polygon fill="midnightblue" stroke="midnightblue" points="216.638,-902.858 209.204,-895.309 210.308,-905.847 216.638,-902.858"/>
</g>
<!-- Node22&#45;&gt;Node14 -->
<g id="edge43" class="edge"><title>Node22&#45;&gt;Node14</title>
<path fill="none" stroke="midnightblue" d="M269.673,-885.509C331.801,-885.509 428.316,-885.509 512,-885.509 512,-885.509 512,-885.509 658,-885.509 739.05,-885.509 765.03,-900.481 828,-951.509 861.018,-978.265 883.487,-1025.43 892.091,-1045.75"/>
<polygon fill="midnightblue" stroke="midnightblue" points="269.624,-882.009 259.624,-885.509 269.624,-889.009 269.624,-882.009"/>
</g>
<!-- Node22&#45;&gt;Node15 -->
<g id="edge47" class="edge"><title>Node22&#45;&gt;Node15</title>
<path fill="none" stroke="midnightblue" d="M225.756,-869.84C243.409,-857.484 269.971,-841.112 296,-833.509 457.089,-786.455 660.741,-797.886 744.426,-805.438"/>
<polygon fill="midnightblue" stroke="midnightblue" points="223.455,-867.183 217.386,-875.867 227.546,-872.864 223.455,-867.183"/>
</g>
<!-- Node22&#45;&gt;Node16 -->
<g id="edge48" class="edge"><title>Node22&#45;&gt;Node16</title>
<path fill="none" stroke="midnightblue" d="M262.263,-874.142C323.73,-862.946 424.371,-847.509 512,-847.509 512,-847.509 512,-847.509 658,-847.509 733.615,-847.509 822.742,-847.509 867.424,-847.509"/>
<polygon fill="midnightblue" stroke="midnightblue" points="261.569,-870.711 252.371,-875.969 262.84,-877.595 261.569,-870.711"/>
</g>
<!-- Node22&#45;&gt;Node17 -->
<g id="edge57" class="edge"><title>Node22&#45;&gt;Node17</title>
<path fill="none" stroke="midnightblue" d="M269.985,-895.794C278.723,-897.093 287.575,-898.366 296,-899.509 476.926,-924.061 525.063,-911.198 704,-947.509 720.939,-950.946 739.515,-956.273 754.395,-960.934"/>
<polygon fill="midnightblue" stroke="midnightblue" points="270.222,-892.291 259.812,-894.264 269.18,-899.213 270.222,-892.291"/>
</g>
<!-- Node22&#45;&gt;Node18 -->
<g id="edge58" class="edge"><title>Node22&#45;&gt;Node18</title>
<path fill="none" stroke="midnightblue" d="M218.741,-867.963C234.91,-848.791 263.683,-819.012 296,-805.509 450.646,-740.894 656.967,-755.816 742.852,-765.953"/>
<polygon fill="midnightblue" stroke="midnightblue" points="215.849,-865.97 212.231,-875.928 221.269,-870.4 215.849,-865.97"/>
</g>
<!-- Node22&#45;&gt;Node19 -->
<g id="edge59" class="edge"><title>Node22&#45;&gt;Node19</title>
<path fill="none" stroke="midnightblue" d="M213.706,-866.763C227.224,-839.945 255.939,-791.251 296,-767.509 379.603,-717.962 414.818,-733.509 512,-733.509 512,-733.509 512,-733.509 658,-733.509 733.615,-733.509 822.742,-733.509 867.424,-733.509"/>
<polygon fill="midnightblue" stroke="midnightblue" points="210.502,-865.349 209.277,-875.873 216.797,-868.41 210.502,-865.349"/>
</g>
<!-- Node22&#45;&gt;Node20 -->
<g id="edge39" class="edge"><title>Node22&#45;&gt;Node20</title>
<path fill="none" stroke="midnightblue" d="M208.611,-905.128C216.95,-945.134 241.184,-1036.79 296,-1089.51 337.403,-1129.32 378.33,-1094.14 416,-1137.51 460.111,-1188.29 406.045,-1235.39 452,-1284.51 455.658,-1288.42 460.114,-1291.53 464.928,-1294"/>
<polygon fill="midnightblue" stroke="midnightblue" points="211.999,-904.217 206.63,-895.083 205.131,-905.572 211.999,-904.217"/>
</g>
<!-- Node22&#45;&gt;Node21 -->
<g id="edge40" class="edge"><title>Node22&#45;&gt;Node21</title>
<path fill="none" stroke="midnightblue" d="M206.929,-905.18C214.393,-977.487 243.604,-1227.33 296,-1284.51 302.179,-1291.25 310.76,-1295.61 319.465,-1298.43"/>
<polygon fill="midnightblue" stroke="midnightblue" points="210.404,-904.754 205.917,-895.156 203.439,-905.457 210.404,-904.754"/>
</g>
<!-- Node22&#45;&gt;Node22 -->
<g id="edge41" class="edge"><title>Node22&#45;&gt;Node22</title>
<path fill="none" stroke="midnightblue" d="M176.374,-904.163C177.529,-909.446 186.738,-913.509 204,-913.509 230.305,-913.509 237.908,-904.074 226.811,-895.266"/>
<polygon fill="midnightblue" stroke="midnightblue" points="179.508,-905.727 181.189,-895.266 173.351,-902.395 179.508,-905.727"/>
</g>
<!-- Node22&#45;&gt;Node23 -->
<g id="edge44" class="edge"><title>Node22&#45;&gt;Node23</title>
<path fill="none" stroke="midnightblue" d="M206.541,-865.789C211.625,-809.773 231.415,-646.218 296,-529.509 307.943,-507.928 329.205,-488.265 342.679,-477.108"/>
<polygon fill="midnightblue" stroke="midnightblue" points="203.051,-865.524 205.69,-875.785 210.026,-866.118 203.051,-865.524"/>
</g>
<!-- Node22&#45;&gt;Node24 -->
<g id="edge46" class="edge"><title>Node22&#45;&gt;Node24</title>
<path fill="none" stroke="midnightblue" d="M210.795,-866.08C221.918,-831.917 249.382,-760.804 296,-719.509 338.998,-681.421 374.196,-710.904 416,-671.509 477.246,-613.793 503.33,-509.133 510.114,-477.089"/>
<polygon fill="midnightblue" stroke="midnightblue" points="207.403,-865.2 207.754,-875.789 214.083,-867.292 207.403,-865.2"/>
</g>
<!-- Node22&#45;&gt;Node25 -->
<g id="edge49" class="edge"><title>Node22&#45;&gt;Node25</title>
<path fill="none" stroke="midnightblue" d="M205.082,-865.536C206.16,-800.948 216.027,-593.527 296,-448.509 307.004,-428.554 327.3,-411.277 340.975,-401.126"/>
<polygon fill="midnightblue" stroke="midnightblue" points="201.579,-865.848 204.968,-875.886 208.578,-865.925 201.579,-865.848"/>
</g>
<!-- Node22&#45;&gt;Node26 -->
<g id="edge51" class="edge"><title>Node22&#45;&gt;Node26</title>
<path fill="none" stroke="midnightblue" d="M207.802,-865.722C214.79,-823.747 236.887,-725.236 296,-671.509 337.399,-633.882 378.77,-675.265 416,-633.509 471.745,-570.987 411.723,-521.954 452,-448.509 463.054,-428.352 483.728,-411.126 497.679,-401.041"/>
<polygon fill="midnightblue" stroke="midnightblue" points="204.319,-865.345 206.244,-875.764 211.236,-866.418 204.319,-865.345"/>
</g>
<!-- Node22&#45;&gt;Node27 -->
<g id="edge52" class="edge"><title>Node22&#45;&gt;Node27</title>
<path fill="none" stroke="midnightblue" d="M205.854,-865.649C209.897,-780.654 229.766,-448.423 296,-372.509 299.396,-368.617 303.592,-365.516 308.17,-363.047"/>
<polygon fill="midnightblue" stroke="midnightblue" points="202.353,-865.604 205.394,-875.753 209.345,-865.923 202.353,-865.604"/>
</g>
<!-- Node22&#45;&gt;Node28 -->
<g id="edge53" class="edge"><title>Node22&#45;&gt;Node28</title>
<path fill="none" stroke="midnightblue" d="M206.376,-865.516C212.895,-774.531 242.6,-399.593 296,-296.509 306.416,-276.401 326.653,-259.283 340.494,-249.197"/>
<polygon fill="midnightblue" stroke="midnightblue" points="202.878,-865.367 205.667,-875.588 209.861,-865.859 202.878,-865.367"/>
</g>
<!-- Node22&#45;&gt;Node29 -->
<g id="edge55" class="edge"><title>Node22&#45;&gt;Node29</title>
<path fill="none" stroke="midnightblue" d="M206.345,-865.838C210.625,-818.796 227.987,-698.863 296,-633.509 336.339,-594.747 379.446,-637.858 416,-595.509 481.599,-519.51 423.107,-468.656 452,-372.509 466.507,-324.233 494.716,-270.644 506.559,-249.173"/>
<polygon fill="midnightblue" stroke="midnightblue" points="202.848,-865.667 205.532,-875.916 209.825,-866.229 202.848,-865.667"/>
</g>
<!-- Node22&#45;&gt;Node30 -->
<g id="edge60" class="edge"><title>Node22&#45;&gt;Node30</title>
<path fill="none" stroke="midnightblue" d="M205.58,-865.895C208.577,-777.489 225.042,-416.82 296,-334.509 299.302,-330.678 303.381,-327.614 307.839,-325.163"/>
<polygon fill="midnightblue" stroke="midnightblue" points="202.081,-865.797 205.26,-875.904 209.077,-866.021 202.081,-865.797"/>
</g>
<!-- Node22&#45;&gt;Node31 -->
<g id="edge61" class="edge"><title>Node22&#45;&gt;Node31</title>
<path fill="none" stroke="midnightblue" d="M205.982,-865.483C211.053,-767.447 236.367,-338.104 296,-220.509 306.242,-200.312 326.521,-183.215 340.419,-173.159"/>
<polygon fill="midnightblue" stroke="midnightblue" points="202.473,-865.589 205.463,-875.753 209.464,-865.943 202.473,-865.589"/>
</g>
<!-- Node22&#45;&gt;Node32 -->
<g id="edge63" class="edge"><title>Node22&#45;&gt;Node32</title>
<path fill="none" stroke="midnightblue" d="M205.263,-865.746C207.044,-813.889 219.091,-672.619 296,-595.509 335.506,-555.899 380.594,-600.823 416,-557.509 463.666,-499.196 418.65,-288.038 452,-220.509 462.116,-200.026 482.811,-182.998 497.042,-173.036"/>
<polygon fill="midnightblue" stroke="midnightblue" points="201.76,-865.827 205.012,-875.911 208.758,-866 201.76,-865.827"/>
</g>
<!-- Node22&#45;&gt;Node33 -->
<g id="edge64" class="edge"><title>Node22&#45;&gt;Node33</title>
<path fill="none" stroke="midnightblue" d="M205.664,-865.538C209.407,-761.014 230.096,-276.723 296,-144.509 306.102,-124.242 326.415,-107.162 340.358,-97.1286"/>
<polygon fill="midnightblue" stroke="midnightblue" points="202.162,-865.538 205.313,-875.653 209.158,-865.781 202.162,-865.538"/>
</g>
<!-- Node22&#45;&gt;Node34 -->
<g id="edge66" class="edge"><title>Node22&#45;&gt;Node34</title>
<path fill="none" stroke="midnightblue" d="M205.509,-865.683C207.874,-810.921 221.193,-655.185 296,-557.509 333.679,-508.311 382.523,-538.657 416,-486.509 498.568,-357.891 384.427,-281.6 452,-144.509 462.1,-124.018 482.799,-106.993 497.036,-97.0322"/>
<polygon fill="midnightblue" stroke="midnightblue" points="202.008,-865.661 205.152,-875.779 209.003,-865.909 202.008,-865.661"/>
</g>
<!-- Node23&#45;&gt;Node24 -->
<g id="edge45" class="edge"><title>Node23&#45;&gt;Node24</title>
<path fill="none" stroke="midnightblue" d="M416.397,-467.509C430.876,-467.509 446.247,-467.509 460.333,-467.509"/>
<polygon fill="midnightblue" stroke="midnightblue" points="416.043,-464.009 406.043,-467.509 416.043,-471.009 416.043,-464.009"/>
</g>
<!-- Node25&#45;&gt;Node26 -->
<g id="edge50" class="edge"><title>Node25&#45;&gt;Node26</title>
<path fill="none" stroke="midnightblue" d="M422.855,-391.509C437.22,-391.509 452.132,-391.509 465.554,-391.509"/>
<polygon fill="midnightblue" stroke="midnightblue" points="422.521,-388.009 412.521,-391.509 422.521,-395.009 422.521,-388.009"/>
</g>
<!-- Node28&#45;&gt;Node29 -->
<g id="edge54" class="edge"><title>Node28&#45;&gt;Node29</title>
<path fill="none" stroke="midnightblue" d="M411.111,-239.509C433.625,-239.509 459.045,-239.509 478.737,-239.509"/>
<polygon fill="midnightblue" stroke="midnightblue" points="411.002,-236.009 401.002,-239.509 411.002,-243.009 411.002,-236.009"/>
</g>
<!-- Node31&#45;&gt;Node32 -->
<g id="edge62" class="edge"><title>Node31&#45;&gt;Node32</title>
<path fill="none" stroke="midnightblue" d="M415.363,-163.509C430.33,-163.509 446.313,-163.509 460.883,-163.509"/>
<polygon fill="midnightblue" stroke="midnightblue" points="415.193,-160.009 405.193,-163.509 415.193,-167.009 415.193,-160.009"/>
</g>
<!-- Node33&#45;&gt;Node34 -->
<g id="edge65" class="edge"><title>Node33&#45;&gt;Node34</title>
<path fill="none" stroke="midnightblue" d="M412.804,-87.5089C430.392,-87.5089 449.602,-87.5089 466.392,-87.5089"/>
<polygon fill="midnightblue" stroke="midnightblue" points="412.667,-84.009 402.667,-87.5089 412.667,-91.009 412.667,-84.009"/>
</g>
</g>
</svg>
