<?xml version="1.0" encoding="UTF-8" standalone="no"?>
<!DOCTYPE svg PUBLIC "-//W3C//DTD SVG 1.1//EN"
 "http://www.w3.org/Graphics/SVG/1.1/DTD/svg11.dtd">
<!-- Generated by graphviz version 2.36.0 (20140111.2315)
 -->
<!-- Title: string_to_query_type Pages: 1 -->
<svg width="252pt" height="66pt"
 viewBox="0.00 0.00 252.00 66.00" xmlns="http://www.w3.org/2000/svg" xmlns:xlink="http://www.w3.org/1999/xlink">
<g id="graph0" class="graph" transform="scale(1 1) rotate(0) translate(4 62)">
<title>string_to_query_type</title>
<polygon fill="white" stroke="none" points="-4,4 -4,-62 248,-62 248,4 -4,4"/>
<!-- Node1 -->
<g id="node1" class="node"><title>Node1</title>
<polygon fill="#bfbfbf" stroke="black" points="0.5,-19.5 0.5,-38.5 107.5,-38.5 107.5,-19.5 0.5,-19.5"/>
<text text-anchor="middle" x="54" y="-26.5" font-family="Helvetica,sans-Serif" font-size="10.00">string_to_query_type</text>
</g>
<!-- Node2 -->
<g id="node2" class="node"><title>Node2</title>
<g id="a_node2"><a xlink:href="mutt__notmuch_8c.html#a3fcb4d5ea05858f5d614c92ebad80c54" target="_top" xlink:title="builds the notmuch vfolder search string ">
<polygon fill="white" stroke="red" points="149.5,-38.5 149.5,-57.5 238.5,-57.5 238.5,-38.5 149.5,-38.5"/>
<text text-anchor="middle" x="194" y="-45.5" font-family="Helvetica,sans-Serif" font-size="10.00">get_query_string</text>
</a>
</g>
</g>
<!-- Node1&#45;&gt;Node2 -->
<g id="edge1" class="edge"><title>Node1&#45;&gt;Node2</title>
<path fill="none" stroke="midnightblue" d="M117.656,-37.6265C128.279,-39.0891 139.105,-40.5796 149.114,-41.9577"/>
<polygon fill="midnightblue" stroke="midnightblue" points="117.95,-34.134 107.566,-36.2373 116.995,-41.0686 117.95,-34.134"/>
</g>
<!-- Node3 -->
<g id="node3" class="node"><title>Node3</title>
<g id="a_node3"><a xlink:href="mutt__notmuch_8h.html#acd30ce9b92071791bcf43602850e64d2" target="_top" xlink:title="Turn a query into a URI. ">
<polygon fill="white" stroke="red" points="144,-0.5 144,-19.5 244,-19.5 244,-0.5 144,-0.5"/>
<text text-anchor="middle" x="194" y="-7.5" font-family="Helvetica,sans-Serif" font-size="10.00">nm_uri_from_query</text>
</a>
</g>
</g>
<!-- Node1&#45;&gt;Node3 -->
<g id="edge2" class="edge"><title>Node1&#45;&gt;Node3</title>
<path fill="none" stroke="midnightblue" d="M117.721,-20.3645C126.454,-19.1621 135.323,-17.9411 143.76,-16.7794"/>
<polygon fill="midnightblue" stroke="midnightblue" points="116.995,-16.9314 107.566,-21.7627 117.95,-23.866 116.995,-16.9314"/>
</g>
</g>
</svg>
