<?xml version="1.0" encoding="UTF-8" standalone="no"?>
<!DOCTYPE svg PUBLIC "-//W3C//DTD SVG 1.1//EN"
 "http://www.w3.org/Graphics/SVG/1.1/DTD/svg11.dtd">
<!-- Generated by graphviz version 2.36.0 (20140111.2315)
 -->
<!-- Title: mutt_expando_format Pages: 1 -->
<svg width="790pt" height="1205pt"
 viewBox="0.00 0.00 790.00 1204.85" xmlns="http://www.w3.org/2000/svg" xmlns:xlink="http://www.w3.org/1999/xlink">
<g id="graph0" class="graph" transform="scale(1 1) rotate(0) translate(4 1200.85)">
<title>mutt_expando_format</title>
<polygon fill="white" stroke="none" points="-4,4 -4,-1200.85 786,-1200.85 786,4 -4,4"/>
<!-- Node1 -->
<g id="node1" class="node"><title>Node1</title>
<polygon fill="#bfbfbf" stroke="black" points="0.5,-588.35 0.5,-607.35 111.5,-607.35 111.5,-588.35 0.5,-588.35"/>
<text text-anchor="middle" x="56" y="-595.35" font-family="Helvetica,sans-Serif" font-size="10.00">mutt_expando_format</text>
</g>
<!-- Node1&#45;&gt;Node1 -->
<g id="edge28" class="edge"><title>Node1&#45;&gt;Node1</title>
<path fill="none" stroke="midnightblue" d="M27.6275,-616.503C28.8135,-621.786 38.271,-625.85 56,-625.85 83.0156,-625.85 90.8248,-616.415 79.4276,-607.607"/>
<polygon fill="midnightblue" stroke="midnightblue" points="30.7735,-618.048 32.5724,-607.607 24.6551,-614.647 30.7735,-618.048"/>
</g>
<!-- Node2 -->
<g id="node2" class="node"><title>Node2</title>
<g id="a_node2"><a xlink:href="addrbook_8c.html#ae2d3edeeabf51cb0c9c84f82b0a372af" target="_top" xlink:title="Format a menu item for the alias list. ">
<polygon fill="white" stroke="red" points="176,-1177.35 176,-1196.35 240,-1196.35 240,-1177.35 176,-1177.35"/>
<text text-anchor="middle" x="208" y="-1184.35" font-family="Helvetica,sans-Serif" font-size="10.00">alias_entry</text>
</a>
</g>
</g>
<!-- Node1&#45;&gt;Node2 -->
<g id="edge1" class="edge"><title>Node1&#45;&gt;Node2</title>
<path fill="none" stroke="midnightblue" d="M57.6548,-617.835C60.9801,-707.932 78.664,-1075.7 148,-1162.85 154.954,-1171.59 165.604,-1177.17 175.952,-1180.72"/>
<polygon fill="midnightblue" stroke="midnightblue" points="61.1455,-617.506 57.2971,-607.635 54.1498,-617.751 61.1455,-617.506"/>
</g>
<!-- Node3 -->
<g id="node3" class="node"><title>Node3</title>
<g id="a_node3"><a xlink:href="browser_8c.html#a8b932318a91a4f070fad24c67677643b" target="_top" xlink:title="Format a string for the folder browser &#45; Implements format_t. ">
<polygon fill="white" stroke="black" points="163,-1063.35 163,-1082.35 253,-1082.35 253,-1063.35 163,-1063.35"/>
<text text-anchor="middle" x="208" y="-1070.35" font-family="Helvetica,sans-Serif" font-size="10.00">folder_format_str</text>
</a>
</g>
</g>
<!-- Node1&#45;&gt;Node3 -->
<g id="edge2" class="edge"><title>Node1&#45;&gt;Node3</title>
<path fill="none" stroke="midnightblue" d="M58.5501,-617.873C64.9823,-696.236 91.9006,-981.124 148,-1048.85 153.22,-1055.15 160.352,-1059.82 167.855,-1063.26"/>
<polygon fill="midnightblue" stroke="midnightblue" points="62.0063,-617.184 57.7203,-607.495 55.0286,-617.742 62.0063,-617.184"/>
</g>
<!-- Node4 -->
<g id="node4" class="node"><title>Node4</title>
<g id="a_node4"><a xlink:href="browser_8c.html#ac8c4a59b758c37d5b1d9dbbfac136dd5" target="_top" xlink:title="Format a menu item for the folder browser. ">
<polygon fill="white" stroke="red" points="331,-1101.35 331,-1120.35 399,-1120.35 399,-1101.35 331,-1101.35"/>
<text text-anchor="middle" x="365" y="-1108.35" font-family="Helvetica,sans-Serif" font-size="10.00">folder_entry</text>
</a>
</g>
</g>
<!-- Node1&#45;&gt;Node4 -->
<g id="edge7" class="edge"><title>Node1&#45;&gt;Node4</title>
<path fill="none" stroke="midnightblue" d="M57.1506,-617.602C58.2775,-705.795 67.7986,-1062.2 148,-1129.85 205.263,-1178.15 304.021,-1139.88 345.16,-1120.44"/>
<polygon fill="midnightblue" stroke="midnightblue" points="60.6484,-617.358 57.044,-607.395 53.6487,-617.431 60.6484,-617.358"/>
</g>
<!-- Node5 -->
<g id="node5" class="node"><title>Node5</title>
<g id="a_node5"><a xlink:href="browser_8c.html#a815ed37e2a0b581a082ae19b16a95726" target="_top" xlink:title="Format a menu item for the virtual folder list. ">
<polygon fill="white" stroke="red" points="328.5,-1044.35 328.5,-1063.35 401.5,-1063.35 401.5,-1044.35 328.5,-1044.35"/>
<text text-anchor="middle" x="365" y="-1051.35" font-family="Helvetica,sans-Serif" font-size="10.00">vfolder_entry</text>
</a>
</g>
</g>
<!-- Node1&#45;&gt;Node5 -->
<g id="edge8" class="edge"><title>Node1&#45;&gt;Node5</title>
<path fill="none" stroke="midnightblue" d="M58.5722,-617.922C64.8527,-692.831 90.629,-954.635 148,-1010.85 173.126,-1035.47 273.719,-1046.91 328.316,-1051.4"/>
<polygon fill="midnightblue" stroke="midnightblue" points="62.029,-617.247 57.7298,-607.564 55.052,-617.815 62.029,-617.247"/>
</g>
<!-- Node6 -->
<g id="node6" class="node"><title>Node6</title>
<g id="a_node6"><a xlink:href="browser_8c.html#ae26372541f6a4133d2eac12721f53deb" target="_top" xlink:title="Format a string for the newsgroup menu &#45; Implements format_t. ">
<polygon fill="white" stroke="black" points="148.5,-1101.35 148.5,-1120.35 267.5,-1120.35 267.5,-1101.35 148.5,-1101.35"/>
<text text-anchor="middle" x="208" y="-1108.35" font-family="Helvetica,sans-Serif" font-size="10.00">group_index_format_str</text>
</a>
</g>
</g>
<!-- Node1&#45;&gt;Node6 -->
<g id="edge5" class="edge"><title>Node1&#45;&gt;Node6</title>
<path fill="none" stroke="midnightblue" d="M58.0053,-617.765C62.5879,-700.876 84.1042,-1019.1 148,-1091.85 151.409,-1095.73 155.613,-1098.82 160.196,-1101.29"/>
<polygon fill="midnightblue" stroke="midnightblue" points="61.4935,-617.448 57.4684,-607.648 54.5034,-617.819 61.4935,-617.448"/>
</g>
<!-- Node7 -->
<g id="node7" class="node"><title>Node7</title>
<g id="a_node7"><a xlink:href="compose_8c.html#a960cc34e1fd3d276e76cb02f81c4d3e3" target="_top" xlink:title="Format a menu item for the attachment list. ">
<polygon fill="white" stroke="red" points="606.5,-873.35 606.5,-892.35 665.5,-892.35 665.5,-873.35 606.5,-873.35"/>
<text text-anchor="middle" x="636" y="-880.35" font-family="Helvetica,sans-Serif" font-size="10.00">snd_entry</text>
</a>
</g>
</g>
<!-- Node1&#45;&gt;Node7 -->
<g id="edge9" class="edge"><title>Node1&#45;&gt;Node7</title>
<path fill="none" stroke="midnightblue" d="M57.9546,-617.497C61.3722,-664.342 76.9747,-782.928 148,-839.85 286.756,-951.053 524.557,-909.045 606.368,-890.116"/>
<polygon fill="midnightblue" stroke="midnightblue" points="61.4438,-617.213 57.3335,-607.448 54.4571,-617.644 61.4438,-617.213"/>
</g>
<!-- Node8 -->
<g id="node8" class="node"><title>Node8</title>
<g id="a_node8"><a xlink:href="compose_8c.html#a1531d785d4faa4bc82cd8c43ff6e9f04" target="_top" xlink:title="Compose the string for the status bar. ">
<polygon fill="white" stroke="red" points="153.5,-949.35 153.5,-968.35 262.5,-968.35 262.5,-949.35 153.5,-949.35"/>
<text text-anchor="middle" x="208" y="-956.35" font-family="Helvetica,sans-Serif" font-size="10.00">compose_status_line</text>
</a>
</g>
</g>
<!-- Node1&#45;&gt;Node8 -->
<g id="edge10" class="edge"><title>Node1&#45;&gt;Node8</title>
<path fill="none" stroke="midnightblue" d="M59.7433,-617.593C69.218,-683.117 102.496,-891.94 148,-939.85 151.705,-943.751 156.214,-946.853 161.071,-949.319"/>
<polygon fill="midnightblue" stroke="midnightblue" points="63.1679,-616.814 58.2966,-607.406 56.2375,-617.799 63.1679,-616.814"/>
</g>
<!-- Node9 -->
<g id="node9" class="node"><title>Node9</title>
<g id="a_node9"><a xlink:href="compress_8c.html#a38c262a0e2ec6aff1458dd32b57e1acd" target="_top" xlink:title="Expand placeholders in command string. ">
<polygon fill="white" stroke="red" points="151.5,-911.35 151.5,-930.35 264.5,-930.35 264.5,-911.35 151.5,-911.35"/>
<text text-anchor="middle" x="208" y="-918.35" font-family="Helvetica,sans-Serif" font-size="10.00">expand_command_str</text>
</a>
</g>
</g>
<!-- Node1&#45;&gt;Node9 -->
<g id="edge11" class="edge"><title>Node1&#45;&gt;Node9</title>
<path fill="none" stroke="midnightblue" d="M57.4208,-617.866C59.5867,-670.452 72.4914,-814.145 148,-896.85 153.741,-903.138 161.366,-907.814 169.223,-911.28"/>
<polygon fill="midnightblue" stroke="midnightblue" points="60.9093,-617.446 57.0912,-607.563 53.9128,-617.67 60.9093,-617.446"/>
</g>
<!-- Node10 -->
<g id="node10" class="node"><title>Node10</title>
<g id="a_node10"><a xlink:href="hdrline_8c.html#afa4aeab4df484044d13f6fb7d7f08901" target="_top" xlink:title="Format a string for the index list &#45; Implements format_t. ">
<polygon fill="white" stroke="black" points="163.5,-721.35 163.5,-740.35 252.5,-740.35 252.5,-721.35 163.5,-721.35"/>
<text text-anchor="middle" x="208" y="-728.35" font-family="Helvetica,sans-Serif" font-size="10.00">index_format_str</text>
</a>
</g>
</g>
<!-- Node1&#45;&gt;Node10 -->
<g id="edge12" class="edge"><title>Node1&#45;&gt;Node10</title>
<path fill="none" stroke="midnightblue" d="M68.1278,-616.08C83.462,-639.86 113.18,-681.422 148,-706.85 156.216,-712.849 166.147,-717.636 175.498,-721.307"/>
<polygon fill="midnightblue" stroke="midnightblue" points="70.9226,-613.95 62.633,-607.352 64.9988,-617.679 70.9226,-613.95"/>
</g>
<!-- Node11 -->
<g id="node11" class="node"><title>Node11</title>
<g id="a_node11"><a xlink:href="hdrline_8h.html#a6de0878ccf20f84d785878dad420eef0" target="_top" xlink:title="Create formatted strings using mailbox expandos. ">
<polygon fill="white" stroke="red" points="304.5,-759.35 304.5,-778.35 425.5,-778.35 425.5,-759.35 304.5,-759.35"/>
<text text-anchor="middle" x="365" y="-766.35" font-family="Helvetica,sans-Serif" font-size="10.00">mutt_make_string_flags</text>
</a>
</g>
</g>
<!-- Node1&#45;&gt;Node11 -->
<g id="edge25" class="edge"><title>Node1&#45;&gt;Node11</title>
<path fill="none" stroke="midnightblue" d="M62.3672,-617.469C72.7032,-651.086 98.8204,-719.048 148,-749.85 194.58,-779.023 258.285,-781.1 304.431,-777.499"/>
<polygon fill="midnightblue" stroke="midnightblue" points="65.6163,-616.108 59.4564,-607.488 58.8962,-618.068 65.6163,-616.108"/>
</g>
<!-- Node12 -->
<g id="node12" class="node"><title>Node12</title>
<g id="a_node12"><a xlink:href="recvattach_8h.html#a98b2ae112e8353253ba30462bfef777b" target="_top" xlink:title="Format a string for the attachment menu &#45; Implements format_t. ">
<polygon fill="white" stroke="black" points="462.5,-759.35 462.5,-778.35 555.5,-778.35 555.5,-759.35 462.5,-759.35"/>
<text text-anchor="middle" x="509" y="-766.35" font-family="Helvetica,sans-Serif" font-size="10.00">attach_format_str</text>
</a>
</g>
</g>
<!-- Node1&#45;&gt;Node12 -->
<g id="edge43" class="edge"><title>Node1&#45;&gt;Node12</title>
<path fill="none" stroke="midnightblue" d="M60.3578,-617.366C68.0948,-655.683 91.0769,-740.281 148,-777.85 254.447,-848.103 419.847,-800.675 482.65,-778.509"/>
<polygon fill="midnightblue" stroke="midnightblue" points="63.7831,-616.642 58.4942,-607.462 56.9038,-617.936 63.7831,-616.642"/>
</g>
<!-- Node13 -->
<g id="node13" class="node"><title>Node13</title>
<g id="a_node13"><a xlink:href="crypt__gpgme_8c.html#a40d07d9c1d42f50976324b170272906f" target="_top" xlink:title="Format a string for the key selection menu &#45; Implements format_t. ">
<polygon fill="white" stroke="black" points="592,-835.35 592,-854.35 680,-854.35 680,-835.35 592,-835.35"/>
<text text-anchor="middle" x="636" y="-842.35" font-family="Helvetica,sans-Serif" font-size="10.00">crypt_format_str</text>
</a>
</g>
</g>
<!-- Node1&#45;&gt;Node13 -->
<g id="edge29" class="edge"><title>Node1&#45;&gt;Node13</title>
<path fill="none" stroke="midnightblue" d="M58.8515,-617.696C64.0563,-660.959 82.9968,-763.586 148,-809.85 218.529,-860.046 486.523,-852.423 591.99,-847.291"/>
<polygon fill="midnightblue" stroke="midnightblue" points="62.315,-617.169 57.7621,-607.602 55.3554,-617.92 62.315,-617.169"/>
</g>
<!-- Node14 -->
<g id="node14" class="node"><title>Node14</title>
<g id="a_node14"><a xlink:href="crypt__gpgme_8c.html#aadfbad730c8e2258e872742b3d209a01" target="_top" xlink:title="Format a menu item for the key selection list. ">
<polygon fill="white" stroke="red" points="716.5,-911.35 716.5,-930.35 781.5,-930.35 781.5,-911.35 716.5,-911.35"/>
<text text-anchor="middle" x="749" y="-918.35" font-family="Helvetica,sans-Serif" font-size="10.00">crypt_entry</text>
</a>
</g>
</g>
<!-- Node1&#45;&gt;Node14 -->
<g id="edge30" class="edge"><title>Node1&#45;&gt;Node14</title>
<path fill="none" stroke="midnightblue" d="M58.7746,-617.88C65.5355,-689.285 92.1634,-929.687 148,-977.85 184.487,-1009.32 315.815,-996.85 364,-996.85 364,-996.85 364,-996.85 510,-996.85 596.316,-996.85 692.252,-950.925 730.695,-930.475"/>
<polygon fill="midnightblue" stroke="midnightblue" points="62.2293,-617.225 57.8286,-607.588 55.2587,-617.866 62.2293,-617.225"/>
</g>
<!-- Node15 -->
<g id="node15" class="node"><title>Node15</title>
<g id="a_node15"><a xlink:href="pgpkey_8c.html#a48bfb11bc71b8c6d58b6aeaa643fe5ff" target="_top" xlink:title="Format an entry on the PGP key selection menu &#45; Implements format_t. ">
<polygon fill="white" stroke="black" points="596.5,-645.35 596.5,-664.35 675.5,-664.35 675.5,-645.35 596.5,-645.35"/>
<text text-anchor="middle" x="636" y="-652.35" font-family="Helvetica,sans-Serif" font-size="10.00">pgp_entry_fmt</text>
</a>
</g>
</g>
<!-- Node1&#45;&gt;Node15 -->
<g id="edge34" class="edge"><title>Node1&#45;&gt;Node15</title>
<path fill="none" stroke="midnightblue" d="M109.701,-609.345C122.209,-611.775 135.538,-614.124 148,-615.85 313.935,-638.827 513.694,-649.563 596.325,-653.27"/>
<polygon fill="midnightblue" stroke="midnightblue" points="110.37,-605.909 99.8784,-607.388 109.002,-612.774 110.37,-605.909"/>
</g>
<!-- Node16 -->
<g id="node16" class="node"><title>Node16</title>
<g id="a_node16"><a xlink:href="pgpkey_8c.html#a4bffe761842cc19608b1e542effe80aa" target="_top" xlink:title="Format a menu item for the pgp key list. ">
<polygon fill="white" stroke="red" points="719.5,-578.35 719.5,-597.35 778.5,-597.35 778.5,-578.35 719.5,-578.35"/>
<text text-anchor="middle" x="749" y="-585.35" font-family="Helvetica,sans-Serif" font-size="10.00">pgp_entry</text>
</a>
</g>
</g>
<!-- Node1&#45;&gt;Node16 -->
<g id="edge35" class="edge"><title>Node1&#45;&gt;Node16</title>
<path fill="none" stroke="midnightblue" d="M121.601,-591.524C183.677,-585.997 280.156,-578.85 364,-578.85 364,-578.85 364,-578.85 510,-578.85 585.669,-578.85 674.773,-583.449 719.438,-586.071"/>
<polygon fill="midnightblue" stroke="midnightblue" points="121.206,-588.045 111.561,-592.43 121.836,-595.017 121.206,-588.045"/>
</g>
<!-- Node17 -->
<g id="node17" class="node"><title>Node17</title>
<g id="a_node17"><a xlink:href="recvattach_8c.html#ae338f31584f65c5bcec0ebfb803b3c68" target="_top" xlink:title="Format a menu item for the attachment list. ">
<polygon fill="white" stroke="red" points="600.5,-607.35 600.5,-626.35 671.5,-626.35 671.5,-607.35 600.5,-607.35"/>
<text text-anchor="middle" x="636" y="-614.35" font-family="Helvetica,sans-Serif" font-size="10.00">attach_entry</text>
</a>
</g>
</g>
<!-- Node1&#45;&gt;Node17 -->
<g id="edge44" class="edge"><title>Node1&#45;&gt;Node17</title>
<path fill="none" stroke="midnightblue" d="M122.001,-599.986C244.666,-604.018 506.402,-612.622 600.45,-615.714"/>
<polygon fill="midnightblue" stroke="midnightblue" points="121.747,-596.476 111.637,-599.646 121.517,-603.472 121.747,-596.476"/>
</g>
<!-- Node18 -->
<g id="node18" class="node"><title>Node18</title>
<g id="a_node18"><a xlink:href="remailer_8c.html#a00f293965c485cb7a94e042a28df1f4b" target="_top" xlink:title="Format a string for the remailer menu &#45; Implements format_t. ">
<polygon fill="white" stroke="black" points="595,-531.35 595,-550.35 677,-550.35 677,-531.35 595,-531.35"/>
<text text-anchor="middle" x="636" y="-538.35" font-family="Helvetica,sans-Serif" font-size="10.00">mix_format_str</text>
</a>
</g>
</g>
<!-- Node1&#45;&gt;Node18 -->
<g id="edge45" class="edge"><title>Node1&#45;&gt;Node18</title>
<path fill="none" stroke="midnightblue" d="M87.4134,-584.233C104.792,-577.115 127.204,-569.034 148,-564.85 311.071,-532.037 510.731,-535.457 594.733,-538.819"/>
<polygon fill="midnightblue" stroke="midnightblue" points="85.6709,-581.169 77.8131,-588.275 88.3876,-587.62 85.6709,-581.169"/>
</g>
<!-- Node19 -->
<g id="node19" class="node"><title>Node19</title>
<g id="a_node19"><a xlink:href="remailer_8c.html#a7c65826afd3d8235f372535484e0be1e" target="_top" xlink:title="Format a menu item for the mixmaster chain list. ">
<polygon fill="white" stroke="red" points="719.5,-521.35 719.5,-540.35 778.5,-540.35 778.5,-521.35 719.5,-521.35"/>
<text text-anchor="middle" x="749" y="-528.35" font-family="Helvetica,sans-Serif" font-size="10.00">mix_entry</text>
</a>
</g>
</g>
<!-- Node1&#45;&gt;Node19 -->
<g id="edge46" class="edge"><title>Node1&#45;&gt;Node19</title>
<path fill="none" stroke="midnightblue" d="M77.9207,-582.186C95.673,-569.659 122.287,-552.627 148,-542.85 239.257,-508.148 266.368,-502.85 364,-502.85 364,-502.85 364,-502.85 510,-502.85 585.928,-502.85 674.554,-517.079 719.186,-525.251"/>
<polygon fill="midnightblue" stroke="midnightblue" points="75.5585,-579.574 69.4968,-588.264 79.6543,-585.251 75.5585,-579.574"/>
</g>
<!-- Node20 -->
<g id="node20" class="node"><title>Node20</title>
<g id="a_node20"><a xlink:href="hdrline_8h.html#afc3550eab1c41d947cc3d33634af2b6f" target="_top" xlink:title="Create pager status bar string. ">
<polygon fill="white" stroke="red" points="307,-702.35 307,-721.35 423,-721.35 423,-702.35 307,-702.35"/>
<text text-anchor="middle" x="365" y="-709.35" font-family="Helvetica,sans-Serif" font-size="10.00">mutt_make_string_info</text>
</a>
</g>
</g>
<!-- Node1&#45;&gt;Node20 -->
<g id="edge26" class="edge"><title>Node1&#45;&gt;Node20</title>
<path fill="none" stroke="midnightblue" d="M73.5459,-614.73C90.6466,-631.149 118.88,-655.511 148,-668.85 198.753,-692.097 261.871,-702.814 306.743,-707.732"/>
<polygon fill="midnightblue" stroke="midnightblue" points="75.672,-611.911 66.0901,-607.39 70.7614,-616.9 75.672,-611.911"/>
</g>
<!-- Node21 -->
<g id="node21" class="node"><title>Node21</title>
<g id="a_node21"><a xlink:href="mutt__history_8c.html#adbc5c3dee8d3a87d6e1ad9cbba5fe0c4" target="_top" xlink:title="Format a menu item for the history list. ">
<polygon fill="white" stroke="red" points="171.5,-455.35 171.5,-474.35 244.5,-474.35 244.5,-455.35 171.5,-455.35"/>
<text text-anchor="middle" x="208" y="-462.35" font-family="Helvetica,sans-Serif" font-size="10.00">history_entry</text>
</a>
</g>
</g>
<!-- Node1&#45;&gt;Node21 -->
<g id="edge27" class="edge"><title>Node1&#45;&gt;Node21</title>
<path fill="none" stroke="midnightblue" d="M68.1278,-579.619C83.462,-555.839 113.18,-514.277 148,-488.85 156.216,-482.85 166.147,-478.063 175.498,-474.392"/>
<polygon fill="midnightblue" stroke="midnightblue" points="64.9988,-578.02 62.633,-588.347 70.9226,-581.749 64.9988,-578.02"/>
</g>
<!-- Node22 -->
<g id="node22" class="node"><title>Node22</title>
<g id="a_node22"><a xlink:href="pgpinvoke_8c.html#a0effb59dd56a33c4189b28bead374191" target="_top" xlink:title="Format a PGP command string &#45; Implements format_t. ">
<polygon fill="white" stroke="black" points="158,-417.35 158,-436.35 258,-436.35 258,-417.35 158,-417.35"/>
<text text-anchor="middle" x="208" y="-424.35" font-family="Helvetica,sans-Serif" font-size="10.00">fmt_pgp_command</text>
</a>
</g>
</g>
<!-- Node1&#45;&gt;Node22 -->
<g id="edge31" class="edge"><title>Node1&#45;&gt;Node22</title>
<path fill="none" stroke="midnightblue" d="M63.4787,-578.408C75.2071,-546.156 103,-481.607 148,-445.85 152.887,-441.967 158.587,-438.868 164.483,-436.397"/>
<polygon fill="midnightblue" stroke="midnightblue" points="60.1148,-577.425 60.1154,-588.02 66.7219,-579.737 60.1148,-577.425"/>
</g>
<!-- Node23 -->
<g id="node23" class="node"><title>Node23</title>
<g id="a_node23"><a xlink:href="pgpinvoke_8c.html#a678575e9a2c4c11d950da5ed1ba03740" target="_top" xlink:title="Prepare a PGP Command. ">
<polygon fill="white" stroke="red" points="312.5,-398.35 312.5,-417.35 417.5,-417.35 417.5,-398.35 312.5,-398.35"/>
<text text-anchor="middle" x="365" y="-405.35" font-family="Helvetica,sans-Serif" font-size="10.00">mutt_pgp_command</text>
</a>
</g>
</g>
<!-- Node1&#45;&gt;Node23 -->
<g id="edge33" class="edge"><title>Node1&#45;&gt;Node23</title>
<path fill="none" stroke="midnightblue" d="M59.6049,-578.051C66.1119,-537.619 87.1808,-446.155 148,-407.85 205.116,-371.876 288.699,-386.49 333.294,-398.338"/>
<polygon fill="midnightblue" stroke="midnightblue" points="56.1319,-577.611 58.1348,-588.015 63.057,-578.633 56.1319,-577.611"/>
</g>
<!-- Node24 -->
<g id="node24" class="node"><title>Node24</title>
<g id="a_node24"><a xlink:href="smime_8c.html#a8a3ae4dbf82358a84f298a9fd1eafaf6" target="_top" xlink:title="Format an SMIME command &#45; Implements format_t. ">
<polygon fill="white" stroke="black" points="151.5,-341.35 151.5,-360.35 264.5,-360.35 264.5,-341.35 151.5,-341.35"/>
<text text-anchor="middle" x="208" y="-348.35" font-family="Helvetica,sans-Serif" font-size="10.00">fmt_smime_command</text>
</a>
</g>
</g>
<!-- Node1&#45;&gt;Node24 -->
<g id="edge36" class="edge"><title>Node1&#45;&gt;Node24</title>
<path fill="none" stroke="midnightblue" d="M59.8461,-577.889C66.9575,-535.05 89.3408,-433.444 148,-374.85 154.259,-368.598 162.368,-363.909 170.559,-360.418"/>
<polygon fill="midnightblue" stroke="midnightblue" points="56.3687,-577.474 58.2905,-587.893 63.2855,-578.549 56.3687,-577.474"/>
</g>
<!-- Node25 -->
<g id="node25" class="node"><title>Node25</title>
<g id="a_node25"><a xlink:href="smime_8c.html#a61cdf32d1db4e2725b27a3576505eaef" target="_top" xlink:title="Format an SMIME command string. ">
<polygon fill="white" stroke="red" points="318,-322.35 318,-341.35 412,-341.35 412,-322.35 318,-322.35"/>
<text text-anchor="middle" x="365" y="-329.35" font-family="Helvetica,sans-Serif" font-size="10.00">smime_command</text>
</a>
</g>
</g>
<!-- Node1&#45;&gt;Node25 -->
<g id="edge38" class="edge"><title>Node1&#45;&gt;Node25</title>
<path fill="none" stroke="midnightblue" d="M56.6977,-578.008C57.1301,-526.831 66.2324,-390.296 148,-331.85 204.134,-291.725 291.161,-309.28 335.674,-322.328"/>
<polygon fill="midnightblue" stroke="midnightblue" points="53.1977,-578.092 56.7206,-588.084 60.1977,-578.076 53.1977,-578.092"/>
</g>
<!-- Node26 -->
<g id="node26" class="node"><title>Node26</title>
<g id="a_node26"><a xlink:href="nntp_8h.html#ac501636e969731011da557bad742f426" target="_top" xlink:title="Open a connection to an NNTP server. ">
<polygon fill="white" stroke="red" points="158.5,-265.35 158.5,-284.35 257.5,-284.35 257.5,-265.35 158.5,-265.35"/>
<text text-anchor="middle" x="208" y="-272.35" font-family="Helvetica,sans-Serif" font-size="10.00">nntp_select_server</text>
</a>
</g>
</g>
<!-- Node1&#45;&gt;Node26 -->
<g id="edge39" class="edge"><title>Node1&#45;&gt;Node26</title>
<path fill="none" stroke="midnightblue" d="M57.4208,-577.833C59.5867,-525.247 72.4914,-381.554 148,-298.85 153.741,-292.561 161.366,-287.885 169.223,-284.419"/>
<polygon fill="midnightblue" stroke="midnightblue" points="53.9128,-578.029 57.0912,-588.136 60.9093,-578.253 53.9128,-578.029"/>
</g>
<!-- Node27 -->
<g id="node27" class="node"><title>Node27</title>
<g id="a_node27"><a xlink:href="query_8c.html#a5f07bf1c28fa6b4d0a38b56138f068a1" target="_top" xlink:title="Format a string for the query menu &#45; Implements format_t. ">
<polygon fill="white" stroke="black" points="163,-227.35 163,-246.35 253,-246.35 253,-227.35 163,-227.35"/>
<text text-anchor="middle" x="208" y="-234.35" font-family="Helvetica,sans-Serif" font-size="10.00">query_format_str</text>
</a>
</g>
</g>
<!-- Node1&#45;&gt;Node27 -->
<g id="edge40" class="edge"><title>Node1&#45;&gt;Node27</title>
<path fill="none" stroke="midnightblue" d="M59.7433,-578.106C69.218,-512.582 102.496,-303.759 148,-255.85 152.15,-251.48 157.308,-248.113 162.834,-245.519"/>
<polygon fill="midnightblue" stroke="midnightblue" points="56.2375,-577.9 58.2966,-588.293 63.1679,-578.885 56.2375,-577.9"/>
</g>
<!-- Node28 -->
<g id="node28" class="node"><title>Node28</title>
<g id="a_node28"><a xlink:href="query_8c.html#aa8dcbe1f9d351239c89d2dc1124331a4" target="_top" xlink:title="Format a menu item for the query list. ">
<polygon fill="white" stroke="red" points="331,-208.35 331,-227.35 399,-227.35 399,-208.35 331,-208.35"/>
<text text-anchor="middle" x="365" y="-215.35" font-family="Helvetica,sans-Serif" font-size="10.00">query_entry</text>
</a>
</g>
</g>
<!-- Node1&#45;&gt;Node28 -->
<g id="edge42" class="edge"><title>Node1&#45;&gt;Node28</title>
<path fill="none" stroke="midnightblue" d="M58.6342,-577.649C64.9147,-505.661 90.1049,-263.517 148,-217.85 202.911,-174.536 292.454,-194.332 337.025,-208.272"/>
<polygon fill="midnightblue" stroke="midnightblue" points="55.1118,-577.768 57.7587,-588.027 62.0871,-578.356 55.1118,-577.768"/>
</g>
<!-- Node29 -->
<g id="node29" class="node"><title>Node29</title>
<g id="a_node29"><a xlink:href="sendlib_8h.html#ab4c0786d3bd0279716711f0b89bdb316" target="_top" xlink:title="Run sendmail. ">
<polygon fill="white" stroke="red" points="151,-151.35 151,-170.35 265,-170.35 265,-151.35 151,-151.35"/>
<text text-anchor="middle" x="208" y="-158.35" font-family="Helvetica,sans-Serif" font-size="10.00">mutt_invoke_sendmail</text>
</a>
</g>
</g>
<!-- Node1&#45;&gt;Node29 -->
<g id="edge47" class="edge"><title>Node1&#45;&gt;Node29</title>
<path fill="none" stroke="midnightblue" d="M58.9262,-578.106C66.4763,-504.375 96.2149,-246.248 148,-184.85 153.347,-178.51 160.625,-173.825 168.244,-170.369"/>
<polygon fill="midnightblue" stroke="midnightblue" points="55.4195,-577.999 57.9049,-588.298 62.3846,-578.697 55.4195,-577.999"/>
</g>
<!-- Node30 -->
<g id="node30" class="node"><title>Node30</title>
<g id="a_node30"><a xlink:href="sidebar_8c.html#a95ced0f456ea36eea51641d78af34c35" target="_top" xlink:title="Format a string for the sidebar &#45; Implements format_t. ">
<polygon fill="white" stroke="black" points="159,-113.35 159,-132.35 257,-132.35 257,-113.35 159,-113.35"/>
<text text-anchor="middle" x="208" y="-120.35" font-family="Helvetica,sans-Serif" font-size="10.00">sidebar_format_str</text>
</a>
</g>
</g>
<!-- Node1&#45;&gt;Node30 -->
<g id="edge48" class="edge"><title>Node1&#45;&gt;Node30</title>
<path fill="none" stroke="midnightblue" d="M58.3361,-577.967C64.0287,-498.966 88.7326,-208.328 148,-141.85 151.437,-137.994 155.66,-134.916 160.252,-132.46"/>
<polygon fill="midnightblue" stroke="midnightblue" points="54.8382,-577.816 57.6323,-588.036 61.8212,-578.304 54.8382,-577.816"/>
</g>
<!-- Node31 -->
<g id="node31" class="node"><title>Node31</title>
<g id="a_node31"><a xlink:href="sidebar_8c.html#a3830c13aded95a5b10971729a09f198e" target="_top" xlink:title="Turn mailbox data into a sidebar string. ">
<polygon fill="white" stroke="red" points="313,-94.3495 313,-113.35 417,-113.35 417,-94.3495 313,-94.3495"/>
<text text-anchor="middle" x="365" y="-101.35" font-family="Helvetica,sans-Serif" font-size="10.00">make_sidebar_entry</text>
</a>
</g>
</g>
<!-- Node1&#45;&gt;Node31 -->
<g id="edge50" class="edge"><title>Node1&#45;&gt;Node31</title>
<path fill="none" stroke="midnightblue" d="M57.4288,-578.171C59.713,-494.034 73.3553,-166 148,-103.85 202.179,-58.7395 293.273,-79.8848 337.844,-94.3011"/>
<polygon fill="midnightblue" stroke="midnightblue" points="53.9297,-578.094 57.181,-588.178 60.9276,-578.267 53.9297,-578.094"/>
</g>
<!-- Node32 -->
<g id="node32" class="node"><title>Node32</title>
<g id="a_node32"><a xlink:href="status_8c.html#a92f5e92c0ed851b635ca764b9102059e" target="_top" xlink:title="Create the status bar string &#45; Implements format_t. ">
<polygon fill="white" stroke="black" points="161.5,-37.3495 161.5,-56.3495 254.5,-56.3495 254.5,-37.3495 161.5,-37.3495"/>
<text text-anchor="middle" x="208" y="-44.3495" font-family="Helvetica,sans-Serif" font-size="10.00">status_format_str</text>
</a>
</g>
</g>
<!-- Node1&#45;&gt;Node32 -->
<g id="edge51" class="edge"><title>Node1&#45;&gt;Node32</title>
<path fill="none" stroke="midnightblue" d="M57.8969,-578.133C62.169,-492.259 83.0184,-151.582 148,-70.8495 153.062,-64.5611 160.034,-59.9075 167.416,-56.4677"/>
<polygon fill="midnightblue" stroke="midnightblue" points="54.392,-578.153 57.4102,-588.309 61.384,-578.488 54.392,-578.153"/>
</g>
<!-- Node33 -->
<g id="node33" class="node"><title>Node33</title>
<g id="a_node33"><a xlink:href="status_8h.html#af7b580cf4960ac8f05f1bd08365ba556" target="_top" xlink:title="Create the status line. ">
<polygon fill="white" stroke="red" points="318.5,-18.3495 318.5,-37.3495 411.5,-37.3495 411.5,-18.3495 318.5,-18.3495"/>
<text text-anchor="middle" x="365" y="-25.3495" font-family="Helvetica,sans-Serif" font-size="10.00">menu_status_line</text>
</a>
</g>
</g>
<!-- Node1&#45;&gt;Node33 -->
<g id="edge53" class="edge"><title>Node1&#45;&gt;Node33</title>
<path fill="none" stroke="midnightblue" d="M56.9069,-577.872C56.9374,-485.476 62.2733,-100.976 148,-27.8495 201.779,18.0252 293.471,-3.65777 338.085,-18.2815"/>
<polygon fill="midnightblue" stroke="midnightblue" points="53.4072,-578.084 56.9262,-588.077 60.4072,-578.07 53.4072,-578.084"/>
</g>
<!-- Node3&#45;&gt;Node4 -->
<g id="edge3" class="edge"><title>Node3&#45;&gt;Node4</title>
<path fill="none" stroke="midnightblue" d="M258.016,-1084.87C281.789,-1090.69 309.716,-1097.54 330.933,-1102.74"/>
<polygon fill="midnightblue" stroke="midnightblue" points="258.659,-1081.42 248.113,-1082.44 256.992,-1088.22 258.659,-1081.42"/>
</g>
<!-- Node3&#45;&gt;Node5 -->
<g id="edge4" class="edge"><title>Node3&#45;&gt;Node5</title>
<path fill="none" stroke="midnightblue" d="M263.068,-1066.22C284.746,-1063.56 309.125,-1060.58 328.492,-1058.2"/>
<polygon fill="midnightblue" stroke="midnightblue" points="262.502,-1062.76 253.002,-1067.46 263.354,-1069.71 262.502,-1062.76"/>
</g>
<!-- Node6&#45;&gt;Node4 -->
<g id="edge6" class="edge"><title>Node6&#45;&gt;Node4</title>
<path fill="none" stroke="midnightblue" d="M277.769,-1110.85C296.247,-1110.85 315.396,-1110.85 330.942,-1110.85"/>
<polygon fill="midnightblue" stroke="midnightblue" points="277.599,-1107.35 267.599,-1110.85 277.599,-1114.35 277.599,-1107.35"/>
</g>
<!-- Node10&#45;&gt;Node11 -->
<g id="edge13" class="edge"><title>Node10&#45;&gt;Node11</title>
<path fill="none" stroke="midnightblue" d="M258.111,-742.89C279.765,-748.198 304.85,-754.348 325.168,-759.329"/>
<polygon fill="midnightblue" stroke="midnightblue" points="258.659,-739.42 248.113,-740.439 256.992,-746.219 258.659,-739.42"/>
</g>
<!-- Node10&#45;&gt;Node20 -->
<g id="edge24" class="edge"><title>Node10&#45;&gt;Node20</title>
<path fill="none" stroke="midnightblue" d="M262.725,-724.264C276.977,-722.517 292.417,-720.624 306.844,-718.856"/>
<polygon fill="midnightblue" stroke="midnightblue" points="262.088,-720.816 252.589,-725.506 262.94,-727.764 262.088,-720.816"/>
</g>
<!-- Node11&#45;&gt;Node12 -->
<g id="edge14" class="edge"><title>Node11&#45;&gt;Node12</title>
<path fill="none" stroke="midnightblue" d="M435.828,-768.85C444.737,-768.85 453.671,-768.85 462.068,-768.85"/>
<polygon fill="midnightblue" stroke="midnightblue" points="435.809,-765.35 425.809,-768.85 435.809,-772.35 435.809,-765.35"/>
</g>
<!-- Node12&#45;&gt;Node7 -->
<g id="edge15" class="edge"><title>Node12&#45;&gt;Node7</title>
<path fill="none" stroke="midnightblue" d="M521.919,-787C536.389,-807.866 562.543,-842.037 592,-863.85 596.854,-867.444 602.494,-870.548 608.061,-873.144"/>
<polygon fill="midnightblue" stroke="midnightblue" points="524.628,-784.758 516.122,-778.441 518.832,-788.683 524.628,-784.758"/>
</g>
<!-- Node12&#45;&gt;Node12 -->
<g id="edge20" class="edge"><title>Node12&#45;&gt;Node12</title>
<path fill="none" stroke="midnightblue" d="M485.563,-787.879C486.841,-792.977 494.654,-796.85 509,-796.85 531.395,-796.85 537.868,-787.415 528.42,-778.607"/>
<polygon fill="midnightblue" stroke="midnightblue" points="488.816,-789.174 489.58,-778.607 482.393,-786.391 488.816,-789.174"/>
</g>
<!-- Node12&#45;&gt;Node13 -->
<g id="edge16" class="edge"><title>Node12&#45;&gt;Node13</title>
<path fill="none" stroke="midnightblue" d="M534.433,-783.705C559.562,-798.983 597.951,-822.324 619.297,-835.302"/>
<polygon fill="midnightblue" stroke="midnightblue" points="536.194,-780.68 525.831,-778.475 532.558,-786.661 536.194,-780.68"/>
</g>
<!-- Node12&#45;&gt;Node15 -->
<g id="edge18" class="edge"><title>Node12&#45;&gt;Node15</title>
<path fill="none" stroke="midnightblue" d="M528.112,-752.331C554.579,-728.194 602.99,-684.042 624.37,-664.544"/>
<polygon fill="midnightblue" stroke="midnightblue" points="525.688,-749.805 520.657,-759.13 530.405,-754.977 525.688,-749.805"/>
</g>
<!-- Node12&#45;&gt;Node17 -->
<g id="edge21" class="edge"><title>Node12&#45;&gt;Node17</title>
<path fill="none" stroke="midnightblue" d="M517.484,-749.55C529.358,-721.18 555.019,-668.101 592,-635.85 596.306,-632.094 601.472,-628.972 606.706,-626.418"/>
<polygon fill="midnightblue" stroke="midnightblue" points="514.119,-748.535 513.613,-759.118 520.608,-751.161 514.119,-748.535"/>
</g>
<!-- Node12&#45;&gt;Node18 -->
<g id="edge22" class="edge"><title>Node12&#45;&gt;Node18</title>
<path fill="none" stroke="midnightblue" d="M517.711,-749.676C531.03,-717.354 560.013,-650.408 592,-597.85 602.698,-580.272 617.602,-561.523 626.76,-550.513"/>
<polygon fill="midnightblue" stroke="midnightblue" points="514.346,-748.657 513.812,-759.239 520.828,-751.3 514.346,-748.657"/>
</g>
<!-- Node13&#45;&gt;Node14 -->
<g id="edge17" class="edge"><title>Node13&#45;&gt;Node14</title>
<path fill="none" stroke="midnightblue" d="M671.26,-858.918C674.273,-860.474 677.229,-862.124 680,-863.85 702.493,-877.853 725.457,-898.77 738.106,-910.989"/>
<polygon fill="midnightblue" stroke="midnightblue" points="672.697,-855.725 662.167,-854.55 669.665,-862.035 672.697,-855.725"/>
</g>
<!-- Node15&#45;&gt;Node16 -->
<g id="edge19" class="edge"><title>Node15&#45;&gt;Node16</title>
<path fill="none" stroke="midnightblue" d="M670.355,-640.905C673.658,-639.288 676.924,-637.592 680,-635.85 700.621,-624.17 722.728,-607.755 735.955,-597.466"/>
<polygon fill="midnightblue" stroke="midnightblue" points="668.664,-637.831 661.071,-645.22 671.614,-644.179 668.664,-637.831"/>
</g>
<!-- Node18&#45;&gt;Node19 -->
<g id="edge23" class="edge"><title>Node18&#45;&gt;Node19</title>
<path fill="none" stroke="midnightblue" d="M687.126,-536.334C698.216,-535.335 709.595,-534.309 719.469,-533.42"/>
<polygon fill="midnightblue" stroke="midnightblue" points="686.719,-532.856 677.074,-537.239 687.347,-539.828 686.719,-532.856"/>
</g>
<!-- Node22&#45;&gt;Node23 -->
<g id="edge32" class="edge"><title>Node22&#45;&gt;Node23</title>
<path fill="none" stroke="midnightblue" d="M267.975,-419.62C282.577,-417.83 298.111,-415.926 312.333,-414.183"/>
<polygon fill="midnightblue" stroke="midnightblue" points="267.543,-416.147 258.043,-420.838 268.395,-423.095 267.543,-416.147"/>
</g>
<!-- Node24&#45;&gt;Node25 -->
<g id="edge37" class="edge"><title>Node24&#45;&gt;Node25</title>
<path fill="none" stroke="midnightblue" d="M274.855,-342.777C289.22,-341.016 304.132,-339.188 317.554,-337.543"/>
<polygon fill="midnightblue" stroke="midnightblue" points="274.021,-339.353 264.521,-344.044 274.872,-346.301 274.021,-339.353"/>
</g>
<!-- Node27&#45;&gt;Node28 -->
<g id="edge41" class="edge"><title>Node27&#45;&gt;Node28</title>
<path fill="none" stroke="midnightblue" d="M263.111,-230.217C285.625,-227.457 311.045,-224.341 330.737,-221.927"/>
<polygon fill="midnightblue" stroke="midnightblue" points="262.502,-226.765 253.002,-231.456 263.354,-233.713 262.502,-226.765"/>
</g>
<!-- Node30&#45;&gt;Node31 -->
<g id="edge49" class="edge"><title>Node30&#45;&gt;Node31</title>
<path fill="none" stroke="midnightblue" d="M267.363,-115.695C282.33,-113.861 298.313,-111.901 312.883,-110.115"/>
<polygon fill="midnightblue" stroke="midnightblue" points="266.693,-112.251 257.193,-116.942 267.545,-119.199 266.693,-112.251"/>
</g>
<!-- Node32&#45;&gt;Node33 -->
<g id="edge52" class="edge"><title>Node32&#45;&gt;Node33</title>
<path fill="none" stroke="midnightblue" d="M264.804,-40.009C282.392,-37.853 301.602,-35.4983 318.392,-33.4402"/>
<polygon fill="midnightblue" stroke="midnightblue" points="264.167,-36.5609 254.667,-41.2516 265.018,-43.5089 264.167,-36.5609"/>
</g>
</g>
</svg>
