<?xml version="1.0" encoding="UTF-8" standalone="no"?>
<!DOCTYPE svg PUBLIC "-//W3C//DTD SVG 1.1//EN"
 "http://www.w3.org/Graphics/SVG/1.1/DTD/svg11.dtd">
<!-- Generated by graphviz version 2.36.0 (20140111.2315)
 -->
<!-- Title: mutt/regex3.h Pages: 1 -->
<svg width="358pt" height="84pt"
 viewBox="0.00 0.00 358.00 84.00" xmlns="http://www.w3.org/2000/svg" xmlns:xlink="http://www.w3.org/1999/xlink">
<g id="graph0" class="graph" transform="scale(1 1) rotate(0) translate(4 80)">
<title>mutt/regex3.h</title>
<polygon fill="white" stroke="none" points="-4,4 -4,-80 354,-80 354,4 -4,4"/>
<!-- Node1 -->
<g id="node1" class="node"><title>Node1</title>
<polygon fill="#bfbfbf" stroke="black" points="133.5,-56.5 133.5,-75.5 210.5,-75.5 210.5,-56.5 133.5,-56.5"/>
<text text-anchor="middle" x="172" y="-63.5" font-family="Helvetica,sans-Serif" font-size="10.00">mutt/regex3.h</text>
</g>
<!-- Node2 -->
<g id="node2" class="node"><title>Node2</title>
<g id="a_node2"><a xlink:href="mutt_2mutt_8h.html" target="_top" xlink:title="Convenience wrapper for the library headers. ">
<polygon fill="white" stroke="red" points="-0.5,-0.5 -0.5,-19.5 66.5,-19.5 66.5,-0.5 -0.5,-0.5"/>
<text text-anchor="middle" x="33" y="-7.5" font-family="Helvetica,sans-Serif" font-size="10.00">mutt/mutt.h</text>
</a>
</g>
</g>
<!-- Node1&#45;&gt;Node2 -->
<g id="edge1" class="edge"><title>Node1&#45;&gt;Node2</title>
<path fill="none" stroke="midnightblue" d="M140.524,-52.772C114.415,-42.6287 77.961,-28.4669 54.9219,-19.5164"/>
<polygon fill="midnightblue" stroke="midnightblue" points="139.386,-56.0847 149.975,-56.4435 141.921,-49.5598 139.386,-56.0847"/>
</g>
<!-- Node3 -->
<g id="node3" class="node"><title>Node3</title>
<g id="a_node3"><a xlink:href="config_2regex_8c.html" target="_top" xlink:title="Type representing a regular expression. ">
<polygon fill="white" stroke="black" points="85,-0.5 85,-19.5 163,-19.5 163,-0.5 85,-0.5"/>
<text text-anchor="middle" x="124" y="-7.5" font-family="Helvetica,sans-Serif" font-size="10.00">config/regex.c</text>
</a>
</g>
</g>
<!-- Node1&#45;&gt;Node3 -->
<g id="edge2" class="edge"><title>Node1&#45;&gt;Node3</title>
<path fill="none" stroke="midnightblue" d="M157.272,-48.4314C148.86,-38.9673 138.651,-27.4827 131.779,-19.7511"/>
<polygon fill="midnightblue" stroke="midnightblue" points="154.814,-50.9342 164.074,-56.083 160.046,-46.2836 154.814,-50.9342"/>
</g>
<!-- Node4 -->
<g id="node4" class="node"><title>Node4</title>
<g id="a_node4"><a xlink:href="charset_8c.html" target="_top" xlink:title="Conversion between different character encodings. ">
<polygon fill="white" stroke="black" points="181,-0.5 181,-19.5 261,-19.5 261,-0.5 181,-0.5"/>
<text text-anchor="middle" x="221" y="-7.5" font-family="Helvetica,sans-Serif" font-size="10.00">mutt/charset.c</text>
</a>
</g>
</g>
<!-- Node1&#45;&gt;Node4 -->
<g id="edge3" class="edge"><title>Node1&#45;&gt;Node4</title>
<path fill="none" stroke="midnightblue" d="M187.034,-48.4314C195.622,-38.9673 206.043,-27.4827 213.059,-19.7511"/>
<polygon fill="midnightblue" stroke="midnightblue" points="184.219,-46.3254 180.091,-56.083 189.403,-51.0293 184.219,-46.3254"/>
</g>
<!-- Node5 -->
<g id="node5" class="node"><title>Node5</title>
<g id="a_node5"><a xlink:href="mutt_2regex_8c.html" target="_top" xlink:title="Manage regular expressions. ">
<polygon fill="white" stroke="black" points="279.5,-0.5 279.5,-19.5 350.5,-19.5 350.5,-0.5 279.5,-0.5"/>
<text text-anchor="middle" x="315" y="-7.5" font-family="Helvetica,sans-Serif" font-size="10.00">mutt/regex.c</text>
</a>
</g>
</g>
<!-- Node1&#45;&gt;Node5 -->
<g id="edge4" class="edge"><title>Node1&#45;&gt;Node5</title>
<path fill="none" stroke="midnightblue" d="M204.027,-52.9058C230.912,-42.7536 268.641,-28.5063 292.447,-19.5164"/>
<polygon fill="midnightblue" stroke="midnightblue" points="202.778,-49.6364 194.659,-56.4435 205.25,-56.1851 202.778,-49.6364"/>
</g>
</g>
</svg>
