<?xml version="1.0" encoding="UTF-8" standalone="no"?>
<!DOCTYPE svg PUBLIC "-//W3C//DTD SVG 1.1//EN"
 "http://www.w3.org/Graphics/SVG/1.1/DTD/svg11.dtd">
<!-- Generated by graphviz version 2.36.0 (20140111.2315)
 -->
<!-- Title: mutt_socket.c Pages: 1 -->
<svg width="694pt" height="140pt"
 viewBox="0.00 0.00 694.00 140.00" xmlns="http://www.w3.org/2000/svg" xmlns:xlink="http://www.w3.org/1999/xlink">
<g id="graph0" class="graph" transform="scale(1 1) rotate(0) translate(4 136)">
<title>mutt_socket.c</title>
<polygon fill="white" stroke="none" points="-4,4 -4,-136 690,-136 690,4 -4,4"/>
<!-- Node1 -->
<g id="node1" class="node"><title>Node1</title>
<polygon fill="#bfbfbf" stroke="black" points="257.5,-112.5 257.5,-131.5 336.5,-131.5 336.5,-112.5 257.5,-112.5"/>
<text text-anchor="middle" x="297" y="-119.5" font-family="Helvetica,sans-Serif" font-size="10.00">mutt_socket.c</text>
</g>
<!-- Node2 -->
<g id="node2" class="node"><title>Node2</title>
<polygon fill="white" stroke="#bfbfbf" points="-0.5,-56.5 -0.5,-75.5 50.5,-75.5 50.5,-56.5 -0.5,-56.5"/>
<text text-anchor="middle" x="25" y="-63.5" font-family="Helvetica,sans-Serif" font-size="10.00">config.h</text>
</g>
<!-- Node1&#45;&gt;Node2 -->
<g id="edge1" class="edge"><title>Node1&#45;&gt;Node2</title>
<path fill="none" stroke="midnightblue" d="M257.107,-113.635C210.827,-105.005 132.263,-90.0873 65,-76 63.5631,-75.6991 62.0981,-75.3882 60.6188,-75.0709"/>
<polygon fill="midnightblue" stroke="midnightblue" points="61.3132,-71.6402 50.7962,-72.9224 59.8174,-78.4785 61.3132,-71.6402"/>
</g>
<!-- Node3 -->
<g id="node3" class="node"><title>Node3</title>
<polygon fill="white" stroke="#bfbfbf" points="364,-0.5 364,-19.5 410,-19.5 410,-0.5 364,-0.5"/>
<text text-anchor="middle" x="387" y="-7.5" font-family="Helvetica,sans-Serif" font-size="10.00">stdio.h</text>
</g>
<!-- Node1&#45;&gt;Node3 -->
<g id="edge2" class="edge"><title>Node1&#45;&gt;Node3</title>
<path fill="none" stroke="midnightblue" d="M257.396,-120.782C187.243,-119.064 52.6109,-109.004 98,-56 130.605,-17.9252 284.818,-11.8135 353.667,-11.0098"/>
<polygon fill="midnightblue" stroke="midnightblue" points="353.983,-14.5073 363.952,-10.9223 353.923,-7.50759 353.983,-14.5073"/>
</g>
<!-- Node4 -->
<g id="node4" class="node"><title>Node4</title>
<polygon fill="white" stroke="#bfbfbf" points="107.5,-56.5 107.5,-75.5 156.5,-75.5 156.5,-56.5 107.5,-56.5"/>
<text text-anchor="middle" x="132" y="-63.5" font-family="Helvetica,sans-Serif" font-size="10.00">string.h</text>
</g>
<!-- Node1&#45;&gt;Node4 -->
<g id="edge3" class="edge"><title>Node1&#45;&gt;Node4</title>
<path fill="none" stroke="midnightblue" d="M270.855,-112.444C242.567,-103.185 197.344,-88.3854 166.239,-78.2054"/>
<polygon fill="midnightblue" stroke="midnightblue" points="167.268,-74.8595 156.675,-75.0755 165.09,-81.5123 167.268,-74.8595"/>
</g>
<!-- Node5 -->
<g id="node5" class="node"><title>Node5</title>
<g id="a_node5"><a xlink:href="mutt_2mutt_8h.html" target="_top" xlink:title="Convenience wrapper for the library headers. ">
<polygon fill="white" stroke="red" points="174.5,-56.5 174.5,-75.5 241.5,-75.5 241.5,-56.5 174.5,-56.5"/>
<text text-anchor="middle" x="208" y="-63.5" font-family="Helvetica,sans-Serif" font-size="10.00">mutt/mutt.h</text>
</a>
</g>
</g>
<!-- Node1&#45;&gt;Node5 -->
<g id="edge4" class="edge"><title>Node1&#45;&gt;Node5</title>
<path fill="none" stroke="midnightblue" d="M282.701,-112.324C268.817,-103.9 247.508,-90.9709 231.196,-81.0741"/>
<polygon fill="midnightblue" stroke="midnightblue" points="232.629,-77.8495 222.264,-75.6545 228.998,-83.8341 232.629,-77.8495"/>
</g>
<!-- Node6 -->
<g id="node6" class="node"><title>Node6</title>
<g id="a_node6"><a xlink:href="email_8h.html" target="_top" xlink:title="Structs that make up an email. ">
<polygon fill="white" stroke="red" points="260,-56.5 260,-75.5 334,-75.5 334,-56.5 260,-56.5"/>
<text text-anchor="middle" x="297" y="-63.5" font-family="Helvetica,sans-Serif" font-size="10.00">email/email.h</text>
</a>
</g>
</g>
<!-- Node1&#45;&gt;Node6 -->
<g id="edge5" class="edge"><title>Node1&#45;&gt;Node6</title>
<path fill="none" stroke="midnightblue" d="M297,-112.083C297,-105.006 297,-94.8611 297,-85.9865"/>
<polygon fill="midnightblue" stroke="midnightblue" points="300.5,-85.751 297,-75.7511 293.5,-85.7511 300.5,-85.751"/>
</g>
<!-- Node7 -->
<g id="node7" class="node"><title>Node7</title>
<g id="a_node7"><a xlink:href="conn_8h.html" target="_top" xlink:title="Connection Library. ">
<polygon fill="white" stroke="red" points="352,-56.5 352,-75.5 422,-75.5 422,-56.5 352,-56.5"/>
<text text-anchor="middle" x="387" y="-63.5" font-family="Helvetica,sans-Serif" font-size="10.00">conn/conn.h</text>
</a>
</g>
</g>
<!-- Node1&#45;&gt;Node7 -->
<g id="edge6" class="edge"><title>Node1&#45;&gt;Node7</title>
<path fill="none" stroke="midnightblue" d="M311.46,-112.324C325.5,-103.9 347.048,-90.9709 363.543,-81.0741"/>
<polygon fill="midnightblue" stroke="midnightblue" points="365.802,-83.8007 372.576,-75.6545 362.2,-77.7983 365.802,-83.8007"/>
</g>
<!-- Node8 -->
<g id="node8" class="node"><title>Node8</title>
<g id="a_node8"><a xlink:href="mutt__socket_8h.html" target="_top" xlink:title="NeoMutt connections. ">
<polygon fill="white" stroke="black" points="440.5,-56.5 440.5,-75.5 519.5,-75.5 519.5,-56.5 440.5,-56.5"/>
<text text-anchor="middle" x="480" y="-63.5" font-family="Helvetica,sans-Serif" font-size="10.00">mutt_socket.h</text>
</a>
</g>
</g>
<!-- Node1&#45;&gt;Node8 -->
<g id="edge8" class="edge"><title>Node1&#45;&gt;Node8</title>
<path fill="none" stroke="midnightblue" d="M325.997,-112.444C357.185,-103.241 406.93,-88.5617 441.408,-78.3879"/>
<polygon fill="midnightblue" stroke="midnightblue" points="442.538,-81.7036 451.139,-75.5164 440.557,-74.9898 442.538,-81.7036"/>
</g>
<!-- Node9 -->
<g id="node9" class="node"><title>Node9</title>
<g id="a_node9"><a xlink:href="hook_8h.html" target="_top" xlink:title="Parse and execute user&#45;defined hooks. ">
<polygon fill="white" stroke="red" points="538,-56.5 538,-75.5 584,-75.5 584,-56.5 538,-56.5"/>
<text text-anchor="middle" x="561" y="-63.5" font-family="Helvetica,sans-Serif" font-size="10.00">hook.h</text>
</a>
</g>
</g>
<!-- Node1&#45;&gt;Node9 -->
<g id="edge9" class="edge"><title>Node1&#45;&gt;Node9</title>
<path fill="none" stroke="midnightblue" d="M336.839,-114.162C383.029,-106.021 461.354,-91.5571 528,-76 528.101,-75.9764 528.203,-75.9527 528.304,-75.9288"/>
<polygon fill="midnightblue" stroke="midnightblue" points="529.123,-79.3319 537.976,-73.5122 527.426,-72.5407 529.123,-79.3319"/>
</g>
<!-- Node10 -->
<g id="node10" class="node"><title>Node10</title>
<g id="a_node10"><a xlink:href="mutt__account_8h.html" target="_top" xlink:title="Account object used by POP and IMAP. ">
<polygon fill="white" stroke="black" points="602,-56.5 602,-75.5 686,-75.5 686,-56.5 602,-56.5"/>
<text text-anchor="middle" x="644" y="-63.5" font-family="Helvetica,sans-Serif" font-size="10.00">mutt_account.h</text>
</a>
</g>
</g>
<!-- Node1&#45;&gt;Node10 -->
<g id="edge11" class="edge"><title>Node1&#45;&gt;Node10</title>
<path fill="none" stroke="midnightblue" d="M336.785,-115.259C391.768,-107.257 494.342,-92.0864 591.952,-76.1407"/>
<polygon fill="midnightblue" stroke="midnightblue" points="592.687,-79.567 601.989,-74.4954 591.554,-72.6592 592.687,-79.567"/>
</g>
<!-- Node7&#45;&gt;Node3 -->
<g id="edge7" class="edge"><title>Node7&#45;&gt;Node3</title>
<path fill="none" stroke="midnightblue" d="M387,-56.083C387,-49.0059 387,-38.8611 387,-29.9865"/>
<polygon fill="midnightblue" stroke="midnightblue" points="390.5,-29.751 387,-19.7511 383.5,-29.7511 390.5,-29.751"/>
</g>
<!-- Node9&#45;&gt;Node3 -->
<g id="edge10" class="edge"><title>Node9&#45;&gt;Node3</title>
<path fill="none" stroke="midnightblue" d="M537.894,-57.8292C507.604,-48.4289 454.285,-31.8817 419.817,-21.1847"/>
<polygon fill="midnightblue" stroke="midnightblue" points="420.789,-17.8218 410.201,-18.2004 418.715,-24.5072 420.789,-17.8218"/>
</g>
</g>
</svg>
