<?xml version="1.0" encoding="UTF-8" standalone="no"?>
<!DOCTYPE svg PUBLIC "-//W3C//DTD SVG 1.1//EN"
 "http://www.w3.org/Graphics/SVG/1.1/DTD/svg11.dtd">
<!-- Generated by graphviz version 2.36.0 (20140111.2315)
 -->
<!-- Title: mutt_regex_free Pages: 1 -->
<svg width="408pt" height="285pt"
 viewBox="0.00 0.00 408.00 284.95" xmlns="http://www.w3.org/2000/svg" xmlns:xlink="http://www.w3.org/1999/xlink">
<g id="graph0" class="graph" transform="scale(1 1) rotate(0) translate(4 280.951)">
<title>mutt_regex_free</title>
<polygon fill="white" stroke="none" points="-4,4 -4,-280.951 404,-280.951 404,4 -4,4"/>
<!-- Node1 -->
<g id="node1" class="node"><title>Node1</title>
<polygon fill="#bfbfbf" stroke="black" points="0.5,-133.5 0.5,-152.5 87.5,-152.5 87.5,-133.5 0.5,-133.5"/>
<text text-anchor="middle" x="44" y="-140.5" font-family="Helvetica,sans-Serif" font-size="10.00">mutt_regex_free</text>
</g>
<!-- Node2 -->
<g id="node2" class="node"><title>Node2</title>
<g id="a_node2"><a xlink:href="mutt_2regex3_8h.html#a73c8d3ccb577177ae092d69d16b97daa" target="_top" xlink:title="Create an Regex from a string. ">
<polygon fill="white" stroke="red" points="134,-228.5 134,-247.5 238,-247.5 238,-228.5 134,-228.5"/>
<text text-anchor="middle" x="186" y="-235.5" font-family="Helvetica,sans-Serif" font-size="10.00">mutt_regex_compile</text>
</a>
</g>
</g>
<!-- Node1&#45;&gt;Node2 -->
<g id="edge1" class="edge"><title>Node1&#45;&gt;Node2</title>
<path fill="none" stroke="midnightblue" d="M60.8375,-160.423C75.8577,-176.121 99.6872,-198.977 124,-214 133.391,-219.803 144.423,-224.654 154.504,-228.441"/>
<polygon fill="midnightblue" stroke="midnightblue" points="63.2219,-157.849 53.8299,-152.946 58.1143,-162.636 63.2219,-157.849"/>
</g>
<!-- Node3 -->
<g id="node3" class="node"><title>Node3</title>
<g id="a_node3"><a xlink:href="mutt_2regex3_8h.html#a05c970bdeff2f1e8640d253a8c664437" target="_top" xlink:title="Compile a regex string and add it to a list. ">
<polygon fill="white" stroke="red" points="292.5,-247.5 292.5,-266.5 391.5,-266.5 391.5,-247.5 292.5,-247.5"/>
<text text-anchor="middle" x="342" y="-254.5" font-family="Helvetica,sans-Serif" font-size="10.00">mutt_regexlist_add</text>
</a>
</g>
</g>
<!-- Node1&#45;&gt;Node3 -->
<g id="edge5" class="edge"><title>Node1&#45;&gt;Node3</title>
<path fill="none" stroke="midnightblue" d="M51.741,-162.214C62.3514,-189.124 85.7714,-236.981 124,-257 181.738,-287.235 260.539,-276.606 305.567,-266.535"/>
<polygon fill="midnightblue" stroke="midnightblue" points="54.9708,-160.859 48.1881,-152.72 48.4148,-163.312 54.9708,-160.859"/>
</g>
<!-- Node4 -->
<g id="node4" class="node"><title>Node4</title>
<g id="a_node4"><a xlink:href="mutt_2regex3_8h.html#ae19b25cfb8ccc57cade3148dad482bdd" target="_top" xlink:title="Add a pattern and a template to a list. ">
<polygon fill="white" stroke="red" points="288.5,-190.5 288.5,-209.5 395.5,-209.5 395.5,-190.5 288.5,-190.5"/>
<text text-anchor="middle" x="342" y="-197.5" font-family="Helvetica,sans-Serif" font-size="10.00">mutt_replacelist_add</text>
</a>
</g>
</g>
<!-- Node1&#45;&gt;Node4 -->
<g id="edge9" class="edge"><title>Node1&#45;&gt;Node4</title>
<path fill="none" stroke="midnightblue" d="M69.414,-157.588C84.5856,-165.92 104.796,-175.73 124,-181 178.704,-196.013 243.803,-199.955 288.334,-200.647"/>
<polygon fill="midnightblue" stroke="midnightblue" points="71.1001,-154.521 60.6727,-152.645 67.6544,-160.614 71.1001,-154.521"/>
</g>
<!-- Node5 -->
<g id="node5" class="node"><title>Node5</title>
<g id="a_node5"><a xlink:href="mutt_2regex3_8h.html#aeda3b03010a5f1632d2500711015f02a" target="_top" xlink:title="Create an Regex from a string. ">
<polygon fill="white" stroke="black" points="137,-152.5 137,-171.5 235,-171.5 235,-152.5 137,-152.5"/>
<text text-anchor="middle" x="186" y="-159.5" font-family="Helvetica,sans-Serif" font-size="10.00">mutt_regex_create</text>
</a>
</g>
</g>
<!-- Node1&#45;&gt;Node5 -->
<g id="edge4" class="edge"><title>Node1&#45;&gt;Node5</title>
<path fill="none" stroke="midnightblue" d="M97.7799,-150.163C110.528,-151.893 124.089,-153.734 136.624,-155.435"/>
<polygon fill="midnightblue" stroke="midnightblue" points="98.1452,-146.681 87.7653,-148.804 97.2038,-153.617 98.1452,-146.681"/>
</g>
<!-- Node6 -->
<g id="node6" class="node"><title>Node6</title>
<g id="a_node6"><a xlink:href="mutt_2regex3_8h.html#a9a6d027b931c395b2b4a9efc59489aab" target="_top" xlink:title="Free a RegexList object. ">
<polygon fill="white" stroke="red" points="136,-0.5 136,-19.5 236,-19.5 236,-0.5 136,-0.5"/>
<text text-anchor="middle" x="186" y="-7.5" font-family="Helvetica,sans-Serif" font-size="10.00">mutt_regexlist_free</text>
</a>
</g>
</g>
<!-- Node1&#45;&gt;Node6 -->
<g id="edge6" class="edge"><title>Node1&#45;&gt;Node6</title>
<path fill="none" stroke="midnightblue" d="M53.1806,-124.193C65.1265,-98.8937 89.7123,-54.1773 124,-29 129.275,-25.1266 135.359,-22.0294 141.598,-19.5564"/>
<polygon fill="midnightblue" stroke="midnightblue" points="49.9279,-122.89 48.9705,-133.442 56.2989,-125.79 49.9279,-122.89"/>
</g>
<!-- Node7 -->
<g id="node7" class="node"><title>Node7</title>
<g id="a_node7"><a xlink:href="mutt_2regex3_8h.html#ad6b7185d2513f4900798cd54994d5015" target="_top" xlink:title="Remove a Regex from a list. ">
<polygon fill="white" stroke="red" points="284,-38.5 284,-57.5 400,-57.5 400,-38.5 284,-38.5"/>
<text text-anchor="middle" x="342" y="-45.5" font-family="Helvetica,sans-Serif" font-size="10.00">mutt_regexlist_remove</text>
</a>
</g>
</g>
<!-- Node1&#45;&gt;Node7 -->
<g id="edge8" class="edge"><title>Node1&#45;&gt;Node7</title>
<path fill="none" stroke="midnightblue" d="M71.68,-128.587C86.7361,-120.859 106.074,-111.597 124,-105 181.392,-83.8808 250.006,-67.2271 294.491,-57.5049"/>
<polygon fill="midnightblue" stroke="midnightblue" points="69.706,-125.669 62.4621,-133.401 72.9464,-131.874 69.706,-125.669"/>
</g>
<!-- Node8 -->
<g id="node8" class="node"><title>Node8</title>
<g id="a_node8"><a xlink:href="mutt_2regex3_8h.html#a38918417df8c0418dc49df54cbaf978e" target="_top" xlink:title="Free a ReplaceList object. ">
<polygon fill="white" stroke="red" points="132.5,-38.5 132.5,-57.5 239.5,-57.5 239.5,-38.5 132.5,-38.5"/>
<text text-anchor="middle" x="186" y="-45.5" font-family="Helvetica,sans-Serif" font-size="10.00">mutt_replacelist_free</text>
</a>
</g>
</g>
<!-- Node1&#45;&gt;Node8 -->
<g id="edge10" class="edge"><title>Node1&#45;&gt;Node8</title>
<path fill="none" stroke="midnightblue" d="M60.8375,-125.577C75.8577,-109.879 99.6872,-87.0229 124,-72 133.391,-66.1973 144.423,-61.3463 154.504,-57.5589"/>
<polygon fill="midnightblue" stroke="midnightblue" points="58.1143,-123.364 53.8299,-133.054 63.2219,-128.151 58.1143,-123.364"/>
</g>
<!-- Node9 -->
<g id="node9" class="node"><title>Node9</title>
<g id="a_node9"><a xlink:href="mutt_2regex3_8h.html#ab954905653928c174a251d7a16d811e9" target="_top" xlink:title="Remove a pattern from a list. ">
<polygon fill="white" stroke="red" points="124.5,-114.5 124.5,-133.5 247.5,-133.5 247.5,-114.5 124.5,-114.5"/>
<text text-anchor="middle" x="186" y="-121.5" font-family="Helvetica,sans-Serif" font-size="10.00">mutt_replacelist_remove</text>
</a>
</g>
</g>
<!-- Node1&#45;&gt;Node9 -->
<g id="edge11" class="edge"><title>Node1&#45;&gt;Node9</title>
<path fill="none" stroke="midnightblue" d="M97.7799,-135.837C106.489,-134.655 115.578,-133.422 124.459,-132.216"/>
<polygon fill="midnightblue" stroke="midnightblue" points="97.2038,-132.383 87.7653,-137.196 98.1452,-139.319 97.2038,-132.383"/>
</g>
<!-- Node2&#45;&gt;Node3 -->
<g id="edge2" class="edge"><title>Node2&#45;&gt;Node3</title>
<path fill="none" stroke="midnightblue" d="M248.256,-245.558C262.888,-247.363 278.312,-249.266 292.292,-250.991"/>
<polygon fill="midnightblue" stroke="midnightblue" points="248.633,-242.078 238.28,-244.327 247.776,-249.025 248.633,-242.078"/>
</g>
<!-- Node2&#45;&gt;Node4 -->
<g id="edge3" class="edge"><title>Node2&#45;&gt;Node4</title>
<path fill="none" stroke="midnightblue" d="M235.794,-225.96C257.308,-220.651 282.232,-214.501 302.419,-209.52"/>
<polygon fill="midnightblue" stroke="midnightblue" points="234.731,-222.617 225.861,-228.411 236.408,-229.413 234.731,-222.617"/>
</g>
<!-- Node6&#45;&gt;Node7 -->
<g id="edge7" class="edge"><title>Node6&#45;&gt;Node7</title>
<path fill="none" stroke="midnightblue" d="M235.794,-22.04C257.308,-27.3488 282.232,-33.4988 302.419,-38.4799"/>
<polygon fill="midnightblue" stroke="midnightblue" points="236.408,-18.5867 225.861,-19.589 234.731,-25.3828 236.408,-18.5867"/>
</g>
<!-- Node9&#45;&gt;Node4 -->
<g id="edge12" class="edge"><title>Node9&#45;&gt;Node4</title>
<path fill="none" stroke="midnightblue" d="M232.524,-136.803C237.815,-138.694 243.076,-140.766 248,-143 278.007,-156.613 310.187,-178.054 327.723,-190.392"/>
<polygon fill="midnightblue" stroke="midnightblue" points="233.629,-133.482 223.035,-133.599 231.39,-140.114 233.629,-133.482"/>
</g>
</g>
</svg>
