<?xml version="1.0" encoding="UTF-8" standalone="no"?>
<!DOCTYPE svg PUBLIC "-//W3C//DTD SVG 1.1//EN"
 "http://www.w3.org/Graphics/SVG/1.1/DTD/svg11.dtd">
<!-- Generated by graphviz version 2.36.0 (20140111.2315)
 -->
<!-- Title: mutt_path_tidy Pages: 1 -->
<svg width="230pt" height="104pt"
 viewBox="0.00 0.00 230.00 104.00" xmlns="http://www.w3.org/2000/svg" xmlns:xlink="http://www.w3.org/1999/xlink">
<g id="graph0" class="graph" transform="scale(1 1) rotate(0) translate(4 100)">
<title>mutt_path_tidy</title>
<polygon fill="white" stroke="none" points="-4,4 -4,-100 226,-100 226,4 -4,4"/>
<!-- Node1 -->
<g id="node1" class="node"><title>Node1</title>
<polygon fill="#bfbfbf" stroke="black" points="0.5,-38.5 0.5,-57.5 81.5,-57.5 81.5,-38.5 0.5,-38.5"/>
<text text-anchor="middle" x="41" y="-45.5" font-family="Helvetica,sans-Serif" font-size="10.00">mutt_path_tidy</text>
</g>
<!-- Node2 -->
<g id="node2" class="node"><title>Node2</title>
<g id="a_node2"><a xlink:href="mutt_2path_8h.html#a958d2c9b5b0043b168ec8b2dc0d18ffb" target="_top" xlink:title="Tidy a filesystem path. ">
<polygon fill="white" stroke="black" points="125,-76.5 125,-95.5 215,-95.5 215,-76.5 125,-76.5"/>
<text text-anchor="middle" x="170" y="-83.5" font-family="Helvetica,sans-Serif" font-size="10.00">mutt_path_pretty</text>
</a>
</g>
</g>
<!-- Node1&#45;&gt;Node2 -->
<g id="edge1" class="edge"><title>Node1&#45;&gt;Node2</title>
<path fill="none" stroke="midnightblue" d="M83.8943,-60.5353C101.171,-65.7048 120.871,-71.5991 136.963,-76.4141"/>
<polygon fill="midnightblue" stroke="midnightblue" points="84.6311,-57.1025 74.0475,-57.589 82.6245,-63.8088 84.6311,-57.1025"/>
</g>
<!-- Node3 -->
<g id="node3" class="node"><title>Node3</title>
<g id="a_node3"><a xlink:href="mutt_2path_8h.html#a817f8893dfa814cd3adacf6df9d06988" target="_top" xlink:title="Create the canonical version of a path. ">
<polygon fill="white" stroke="black" points="124,-38.5 124,-57.5 216,-57.5 216,-38.5 124,-38.5"/>
<text text-anchor="middle" x="170" y="-45.5" font-family="Helvetica,sans-Serif" font-size="10.00">mutt_path_canon</text>
</a>
</g>
</g>
<!-- Node1&#45;&gt;Node3 -->
<g id="edge2" class="edge"><title>Node1&#45;&gt;Node3</title>
<path fill="none" stroke="midnightblue" d="M92.1354,-48C102.652,-48 113.68,-48 123.996,-48"/>
<polygon fill="midnightblue" stroke="midnightblue" points="91.8352,-44.5001 81.8351,-48 91.8351,-51.5001 91.8352,-44.5001"/>
</g>
<!-- Node4 -->
<g id="node4" class="node"><title>Node4</title>
<g id="a_node4"><a xlink:href="test_2path_8c.html#a4a788244ec14ec6bb284ab485ec6c5ad" target="_top" xlink:title="test_mutt_path_tidy">
<polygon fill="white" stroke="black" points="118.5,-0.5 118.5,-19.5 221.5,-19.5 221.5,-0.5 118.5,-0.5"/>
<text text-anchor="middle" x="170" y="-7.5" font-family="Helvetica,sans-Serif" font-size="10.00">test_mutt_path_tidy</text>
</a>
</g>
</g>
<!-- Node1&#45;&gt;Node4 -->
<g id="edge3" class="edge"><title>Node1&#45;&gt;Node4</title>
<path fill="none" stroke="midnightblue" d="M83.8943,-35.4647C101.171,-30.2952 120.871,-24.4009 136.963,-19.5859"/>
<polygon fill="midnightblue" stroke="midnightblue" points="82.6245,-32.1912 74.0475,-38.411 84.6311,-38.8975 82.6245,-32.1912"/>
</g>
</g>
</svg>
