<?xml version="1.0" encoding="UTF-8" standalone="no"?>
<!DOCTYPE svg PUBLIC "-//W3C//DTD SVG 1.1//EN"
 "http://www.w3.org/Graphics/SVG/1.1/DTD/svg11.dtd">
<!-- Generated by graphviz version 2.36.0 (20140111.2315)
 -->
<!-- Title: nm_get_all_tags Pages: 1 -->
<svg width="246pt" height="28pt"
 viewBox="0.00 0.00 246.00 28.00" xmlns="http://www.w3.org/2000/svg" xmlns:xlink="http://www.w3.org/1999/xlink">
<g id="graph0" class="graph" transform="scale(1 1) rotate(0) translate(4 24)">
<title>nm_get_all_tags</title>
<polygon fill="white" stroke="none" points="-4,4 -4,-24 242,-24 242,4 -4,4"/>
<!-- Node1 -->
<g id="node1" class="node"><title>Node1</title>
<polygon fill="#bfbfbf" stroke="black" points="0,-0.5 0,-19.5 88,-19.5 88,-0.5 0,-0.5"/>
<text text-anchor="middle" x="44" y="-7.5" font-family="Helvetica,sans-Serif" font-size="10.00">nm_get_all_tags</text>
</g>
<!-- Node2 -->
<g id="node2" class="node"><title>Node2</title>
<g id="a_node2"><a xlink:href="init_8c.html#a60382d35e2f0edeb0b736323d76894fd" target="_top" xlink:title="Pass a list of Notmuch tags to the completion code. ">
<polygon fill="white" stroke="red" points="124,-0.5 124,-19.5 238,-19.5 238,-0.5 124,-0.5"/>
<text text-anchor="middle" x="181" y="-7.5" font-family="Helvetica,sans-Serif" font-size="10.00">complete_all_nm_tags</text>
</a>
</g>
</g>
<!-- Node1&#45;&gt;Node2 -->
<g id="edge1" class="edge"><title>Node1&#45;&gt;Node2</title>
<path fill="none" stroke="midnightblue" d="M98.3576,-10C106.623,-10 115.185,-10 123.516,-10"/>
<polygon fill="midnightblue" stroke="midnightblue" points="98.0861,-6.5001 88.086,-10 98.086,-13.5001 98.0861,-6.5001"/>
</g>
</g>
</svg>
