<?xml version="1.0" encoding="UTF-8" standalone="no"?>
<!DOCTYPE svg PUBLIC "-//W3C//DTD SVG 1.1//EN"
 "http://www.w3.org/Graphics/SVG/1.1/DTD/svg11.dtd">
<!-- Generated by graphviz version 2.36.0 (20140111.2315)
 -->
<!-- Title: mutt_md5_bytes Pages: 1 -->
<svg width="264pt" height="104pt"
 viewBox="0.00 0.00 264.00 104.00" xmlns="http://www.w3.org/2000/svg" xmlns:xlink="http://www.w3.org/1999/xlink">
<g id="graph0" class="graph" transform="scale(1 1) rotate(0) translate(4 100)">
<title>mutt_md5_bytes</title>
<polygon fill="white" stroke="none" points="-4,4 -4,-100 260,-100 260,4 -4,4"/>
<!-- Node1 -->
<g id="node1" class="node"><title>Node1</title>
<polygon fill="#bfbfbf" stroke="black" points="0.5,-38.5 0.5,-57.5 89.5,-57.5 89.5,-38.5 0.5,-38.5"/>
<text text-anchor="middle" x="45" y="-45.5" font-family="Helvetica,sans-Serif" font-size="10.00">mutt_md5_bytes</text>
</g>
<!-- Node2 -->
<g id="node2" class="node"><title>Node2</title>
<g id="a_node2"><a xlink:href="mutt_2md5_8c.html#a0f252d1c765e8f6ecd48321929e4c760" target="_top" xlink:title="Initialise the MD5 computation. ">
<polygon fill="white" stroke="black" points="142.5,-76.5 142.5,-95.5 239.5,-95.5 239.5,-76.5 142.5,-76.5"/>
<text text-anchor="middle" x="191" y="-83.5" font-family="Helvetica,sans-Serif" font-size="10.00">mutt_md5_init_ctx</text>
</a>
</g>
</g>
<!-- Node1&#45;&gt;Node2 -->
<g id="edge1" class="edge"><title>Node1&#45;&gt;Node2</title>
<path fill="none" stroke="midnightblue" d="M82.3373,-57.589C101.083,-62.5358 124.143,-68.6211 144.107,-73.8892"/>
<polygon fill="midnightblue" stroke="midnightblue" points="143.362,-77.3125 153.924,-76.4799 145.148,-70.5442 143.362,-77.3125"/>
</g>
<!-- Node3 -->
<g id="node3" class="node"><title>Node3</title>
<g id="a_node3"><a xlink:href="mutt_2md5_8c.html#a496538fb48f5c2900598bb80369a86d5" target="_top" xlink:title="Process a block of data. ">
<polygon fill="white" stroke="red" points="126.5,-38.5 126.5,-57.5 255.5,-57.5 255.5,-38.5 126.5,-38.5"/>
<text text-anchor="middle" x="191" y="-45.5" font-family="Helvetica,sans-Serif" font-size="10.00">mutt_md5_process_bytes</text>
</a>
</g>
</g>
<!-- Node1&#45;&gt;Node3 -->
<g id="edge2" class="edge"><title>Node1&#45;&gt;Node3</title>
<path fill="none" stroke="midnightblue" d="M89.5955,-48C98.0157,-48 107.053,-48 116.13,-48"/>
<polygon fill="midnightblue" stroke="midnightblue" points="116.365,-51.5001 126.365,-48 116.365,-44.5001 116.365,-51.5001"/>
</g>
<!-- Node4 -->
<g id="node4" class="node"><title>Node4</title>
<g id="a_node4"><a xlink:href="mutt_2md5_8c.html#a600cbbaf2837159779659b47eccee2ad" target="_top" xlink:title="Process the remaining bytes in the buffer. ">
<polygon fill="white" stroke="red" points="137.5,-0.5 137.5,-19.5 244.5,-19.5 244.5,-0.5 137.5,-0.5"/>
<text text-anchor="middle" x="191" y="-7.5" font-family="Helvetica,sans-Serif" font-size="10.00">mutt_md5_finish_ctx</text>
</a>
</g>
</g>
<!-- Node1&#45;&gt;Node4 -->
<g id="edge3" class="edge"><title>Node1&#45;&gt;Node4</title>
<path fill="none" stroke="midnightblue" d="M82.3373,-38.411C101.083,-33.4642 124.143,-27.3789 144.107,-22.1108"/>
<polygon fill="midnightblue" stroke="midnightblue" points="145.148,-25.4558 153.924,-19.5201 143.362,-18.6875 145.148,-25.4558"/>
</g>
</g>
</svg>
