<?xml version="1.0" encoding="UTF-8" standalone="no"?>
<!DOCTYPE svg PUBLIC "-//W3C//DTD SVG 1.1//EN"
 "http://www.w3.org/Graphics/SVG/1.1/DTD/svg11.dtd">
<!-- Generated by graphviz version 2.36.0 (20140111.2315)
 -->
<!-- Title: mutt_decode_save_attachment Pages: 1 -->
<svg width="458pt" height="153pt"
 viewBox="0.00 0.00 458.00 153.00" xmlns="http://www.w3.org/2000/svg" xmlns:xlink="http://www.w3.org/1999/xlink">
<g id="graph0" class="graph" transform="scale(1 1) rotate(0) translate(4 149)">
<title>mutt_decode_save_attachment</title>
<polygon fill="white" stroke="none" points="-4,4 -4,-149 454,-149 454,4 -4,4"/>
<!-- Node1 -->
<g id="node1" class="node"><title>Node1</title>
<polygon fill="#bfbfbf" stroke="black" points="0.5,-68.5 0.5,-87.5 153.5,-87.5 153.5,-68.5 0.5,-68.5"/>
<text text-anchor="middle" x="77" y="-75.5" font-family="Helvetica,sans-Serif" font-size="10.00">mutt_decode_save_attachment</text>
</g>
<!-- Node2 -->
<g id="node2" class="node"><title>Node2</title>
<g id="a_node2"><a xlink:href="mutt__attach_8h.html#afbb8b45ca96f6108f920ec8752084c21" target="_top" xlink:title="View an attachment. ">
<polygon fill="white" stroke="red" points="190,-125.5 190,-144.5 306,-144.5 306,-125.5 190,-125.5"/>
<text text-anchor="middle" x="248" y="-132.5" font-family="Helvetica,sans-Serif" font-size="10.00">mutt_view_attachment</text>
</a>
</g>
</g>
<!-- Node1&#45;&gt;Node2 -->
<g id="edge1" class="edge"><title>Node1&#45;&gt;Node2</title>
<path fill="none" stroke="midnightblue" d="M115.584,-90.8076C137.318,-98.1998 165.19,-107.656 190,-116 199.195,-119.092 209.232,-122.445 218.285,-125.462"/>
<polygon fill="midnightblue" stroke="midnightblue" points="116.658,-87.4759 106.063,-87.5678 114.403,-94.1027 116.658,-87.4759"/>
</g>
<!-- Node3 -->
<g id="node3" class="node"><title>Node3</title>
<g id="a_node3"><a xlink:href="mutt__attach_8h.html#a55e06a71a4e4180b7279d5eb5439d9d5" target="_top" xlink:title="Print out an attachment. ">
<polygon fill="white" stroke="black" points="191,-87.5 191,-106.5 305,-106.5 305,-87.5 191,-87.5"/>
<text text-anchor="middle" x="248" y="-94.5" font-family="Helvetica,sans-Serif" font-size="10.00">mutt_print_attachment</text>
</a>
</g>
</g>
<!-- Node1&#45;&gt;Node3 -->
<g id="edge2" class="edge"><title>Node1&#45;&gt;Node3</title>
<path fill="none" stroke="midnightblue" d="M163.652,-87.6296C172.927,-88.6722 182.183,-89.7128 190.973,-90.7011"/>
<polygon fill="midnightblue" stroke="midnightblue" points="163.931,-84.1389 153.603,-86.4997 163.149,-91.0951 163.931,-84.1389"/>
</g>
<!-- Node4 -->
<g id="node4" class="node"><title>Node4</title>
<g id="a_node4"><a xlink:href="recvattach_8c.html#a54f776fcfc922681ca8c99d4aa497198" target="_top" xlink:title="Print a list of Attachments. ">
<polygon fill="white" stroke="red" points="342.5,-68.5 342.5,-87.5 449.5,-87.5 449.5,-68.5 342.5,-68.5"/>
<text text-anchor="middle" x="396" y="-75.5" font-family="Helvetica,sans-Serif" font-size="10.00">print_attachment_list</text>
</a>
</g>
</g>
<!-- Node1&#45;&gt;Node4 -->
<g id="edge5" class="edge"><title>Node1&#45;&gt;Node4</title>
<path fill="none" stroke="midnightblue" d="M163.614,-78C220.628,-78 293.727,-78 342.35,-78"/>
<polygon fill="midnightblue" stroke="midnightblue" points="163.527,-74.5001 153.527,-78 163.527,-81.5001 163.527,-74.5001"/>
</g>
<!-- Node5 -->
<g id="node5" class="node"><title>Node5</title>
<g id="a_node5"><a xlink:href="crypt__gpgme_8c.html#a88d302145d6de54860223e5e2b726b21" target="_top" xlink:title="Check one inline PGP body part. ">
<polygon fill="white" stroke="red" points="192.5,-0 192.5,-30 303.5,-30 303.5,-0 192.5,-0"/>
<text text-anchor="start" x="200.5" y="-18" font-family="Helvetica,sans-Serif" font-size="10.00">pgp_check_traditional</text>
<text text-anchor="middle" x="248" y="-7" font-family="Helvetica,sans-Serif" font-size="10.00">_one_body</text>
</a>
</g>
</g>
<!-- Node1&#45;&gt;Node5 -->
<g id="edge4" class="edge"><title>Node1&#45;&gt;Node5</title>
<path fill="none" stroke="midnightblue" d="M113.184,-64.884C140.405,-54.7366 178.13,-40.6736 206.587,-30.065"/>
<polygon fill="midnightblue" stroke="midnightblue" points="111.815,-61.6591 103.667,-68.4317 114.26,-68.2181 111.815,-61.6591"/>
</g>
<!-- Node3&#45;&gt;Node4 -->
<g id="edge3" class="edge"><title>Node3&#45;&gt;Node4</title>
<path fill="none" stroke="midnightblue" d="M315.177,-88.3879C324.245,-87.2079 333.454,-86.0094 342.239,-84.8662"/>
<polygon fill="midnightblue" stroke="midnightblue" points="314.495,-84.9471 305.03,-89.7084 315.398,-91.8886 314.495,-84.9471"/>
</g>
</g>
</svg>
