<?xml version="1.0" encoding="UTF-8" standalone="no"?>
<!DOCTYPE svg PUBLIC "-//W3C//DTD SVG 1.1//EN"
 "http://www.w3.org/Graphics/SVG/1.1/DTD/svg11.dtd">
<!-- Generated by graphviz version 2.36.0 (20140111.2315)
 -->
<!-- Title: mutt_link_threads Pages: 1 -->
<svg width="242pt" height="66pt"
 viewBox="0.00 0.00 242.00 66.00" xmlns="http://www.w3.org/2000/svg" xmlns:xlink="http://www.w3.org/1999/xlink">
<g id="graph0" class="graph" transform="scale(1 1) rotate(0) translate(4 62)">
<title>mutt_link_threads</title>
<polygon fill="white" stroke="none" points="-4,4 -4,-62 238,-62 238,4 -4,4"/>
<!-- Node1 -->
<g id="node1" class="node"><title>Node1</title>
<polygon fill="#bfbfbf" stroke="black" points="0,-19.5 0,-38.5 94,-38.5 94,-19.5 0,-19.5"/>
<text text-anchor="middle" x="47" y="-26.5" font-family="Helvetica,sans-Serif" font-size="10.00">mutt_link_threads</text>
</g>
<!-- Node2 -->
<g id="node2" class="node"><title>Node2</title>
<g id="a_node2"><a xlink:href="curs__lib_8c.html#a25532ef8e160d4f2e43c20325e5f1cdc" target="_top" xlink:title="Is a message in the index tagged (and within limit) ">
<polygon fill="white" stroke="red" points="130,-38.5 130,-57.5 234,-57.5 234,-38.5 130,-38.5"/>
<text text-anchor="middle" x="182" y="-45.5" font-family="Helvetica,sans-Serif" font-size="10.00">message_is_tagged</text>
</a>
</g>
</g>
<!-- Node1&#45;&gt;Node2 -->
<g id="edge1" class="edge"><title>Node1&#45;&gt;Node2</title>
<path fill="none" stroke="midnightblue" d="M94.1437,-35.592C102.448,-36.7783 111.221,-38.0316 119.873,-39.2675"/>
<polygon fill="midnightblue" stroke="midnightblue" points="119.542,-42.7558 129.937,-40.7053 120.532,-35.8261 119.542,-42.7558"/>
</g>
<!-- Node3 -->
<g id="node3" class="node"><title>Node3</title>
<g id="a_node3"><a xlink:href="mutt__thread_8c.html#a63d90d1e71b5d8709b78234b2b202da4" target="_top" xlink:title="Forcibly link messages together. ">
<polygon fill="white" stroke="red" points="147.5,-0.5 147.5,-19.5 216.5,-19.5 216.5,-0.5 147.5,-0.5"/>
<text text-anchor="middle" x="182" y="-7.5" font-family="Helvetica,sans-Serif" font-size="10.00">link_threads</text>
</a>
</g>
</g>
<!-- Node1&#45;&gt;Node3 -->
<g id="edge2" class="edge"><title>Node1&#45;&gt;Node3</title>
<path fill="none" stroke="midnightblue" d="M94.1437,-22.408C108.014,-20.4265 123.192,-18.2582 136.925,-16.2964"/>
<polygon fill="midnightblue" stroke="midnightblue" points="137.695,-19.722 147.1,-14.8429 136.705,-12.7924 137.695,-19.722"/>
</g>
</g>
</svg>
