<?xml version="1.0" encoding="UTF-8" standalone="no"?>
<!DOCTYPE svg PUBLIC "-//W3C//DTD SVG 1.1//EN"
 "http://www.w3.org/Graphics/SVG/1.1/DTD/svg11.dtd">
<!-- Generated by graphviz version 2.36.0 (20140111.2315)
 -->
<!-- Title: append_thread Pages: 1 -->
<svg width="336pt" height="47pt"
 viewBox="0.00 0.00 336.00 47.00" xmlns="http://www.w3.org/2000/svg" xmlns:xlink="http://www.w3.org/1999/xlink">
<g id="graph0" class="graph" transform="scale(1 1) rotate(0) translate(4 43)">
<title>append_thread</title>
<polygon fill="white" stroke="none" points="-4,4 -4,-43 332,-43 332,4 -4,4"/>
<!-- Node1 -->
<g id="node1" class="node"><title>Node1</title>
<polygon fill="#bfbfbf" stroke="black" points="0,-19.5 0,-38.5 80,-38.5 80,-19.5 0,-19.5"/>
<text text-anchor="middle" x="40" y="-26.5" font-family="Helvetica,sans-Serif" font-size="10.00">append_thread</text>
</g>
<!-- Node2 -->
<g id="node2" class="node"><title>Node2</title>
<g id="a_node2"><a xlink:href="mutt__notmuch_8c.html#ab829d343fdc673fe2a1a82157ed5fcc8" target="_top" xlink:title="Associate a message. ">
<polygon fill="white" stroke="red" points="234.5,-19.5 234.5,-38.5 327.5,-38.5 327.5,-19.5 234.5,-19.5"/>
<text text-anchor="middle" x="281" y="-26.5" font-family="Helvetica,sans-Serif" font-size="10.00">append_message</text>
</a>
</g>
</g>
<!-- Node1&#45;&gt;Node2 -->
<g id="edge1" class="edge"><title>Node1&#45;&gt;Node2</title>
<path fill="none" stroke="midnightblue" d="M80.1984,-29C119.39,-29 180.03,-29 224.229,-29"/>
<polygon fill="midnightblue" stroke="midnightblue" points="224.24,-32.5001 234.24,-29 224.24,-25.5001 224.24,-32.5001"/>
</g>
<!-- Node3 -->
<g id="node3" class="node"><title>Node3</title>
<g id="a_node3"><a xlink:href="mutt__notmuch_8c.html#ade9443917f27684db11e83a18c817d1b" target="_top" xlink:title="add all the replies to a given messages into the display ">
<polygon fill="white" stroke="black" points="116,-0.5 116,-19.5 198,-19.5 198,-0.5 116,-0.5"/>
<text text-anchor="middle" x="157" y="-7.5" font-family="Helvetica,sans-Serif" font-size="10.00">append_replies</text>
</a>
</g>
</g>
<!-- Node1&#45;&gt;Node3 -->
<g id="edge2" class="edge"><title>Node1&#45;&gt;Node3</title>
<path fill="none" stroke="midnightblue" d="M80.2548,-22.5144C88.4859,-21.1545 97.2734,-19.7027 105.84,-18.2873"/>
<polygon fill="midnightblue" stroke="midnightblue" points="106.453,-21.7336 115.748,-16.6503 105.311,-14.8273 106.453,-21.7336"/>
</g>
<!-- Node3&#45;&gt;Node2 -->
<g id="edge3" class="edge"><title>Node3&#45;&gt;Node2</title>
<path fill="none" stroke="midnightblue" d="M198.285,-16.274C206.566,-17.5636 215.425,-18.9433 224.143,-20.301"/>
<polygon fill="midnightblue" stroke="midnightblue" points="223.85,-23.7974 234.269,-21.878 224.927,-16.8808 223.85,-23.7974"/>
</g>
</g>
</svg>
