<?xml version="1.0" encoding="UTF-8" standalone="no"?>
<!DOCTYPE svg PUBLIC "-//W3C//DTD SVG 1.1//EN"
 "http://www.w3.org/Graphics/SVG/1.1/DTD/svg11.dtd">
<!-- Generated by graphviz version 2.36.0 (20140111.2315)
 -->
<!-- Title: mutt/mutt.h Pages: 1 -->
<svg width="3112pt" height="196pt"
 viewBox="0.00 0.00 3112.35 196.00" xmlns="http://www.w3.org/2000/svg" xmlns:xlink="http://www.w3.org/1999/xlink">
<g id="graph0" class="graph" transform="scale(1 1) rotate(0) translate(4 192)">
<title>mutt/mutt.h</title>
<polygon fill="white" stroke="none" points="-4,4 -4,-192 3108.35,-192 3108.35,4 -4,4"/>
<!-- Node1 -->
<g id="node1" class="node"><title>Node1</title>
<polygon fill="#bfbfbf" stroke="black" points="1706.85,-168.5 1706.85,-187.5 1773.85,-187.5 1773.85,-168.5 1706.85,-168.5"/>
<text text-anchor="middle" x="1740.35" y="-175.5" font-family="Helvetica,sans-Serif" font-size="10.00">mutt/mutt.h</text>
</g>
<!-- Node2 -->
<g id="node2" class="node"><title>Node2</title>
<g id="a_node2"><a xlink:href="addrbook_8c.html" target="_top" xlink:title="Address book handling aliases. ">
<polygon fill="white" stroke="black" points="2041.85,-56.5 2041.85,-75.5 2106.85,-75.5 2106.85,-56.5 2041.85,-56.5"/>
<text text-anchor="middle" x="2074.35" y="-63.5" font-family="Helvetica,sans-Serif" font-size="10.00">addrbook.c</text>
</a>
</g>
</g>
<!-- Node1&#45;&gt;Node2 -->
<g id="edge1" class="edge"><title>Node1&#45;&gt;Node2</title>
<path fill="none" stroke="midnightblue" d="M1783.9,-169.048C1822.64,-161.409 1880.54,-148.587 1929.35,-132 1935.76,-129.82 2017.76,-92.6901 2055.53,-75.5484"/>
<polygon fill="midnightblue" stroke="midnightblue" points="1783.15,-165.629 1774,-170.971 1784.48,-172.501 1783.15,-165.629"/>
</g>
<!-- Node3 -->
<g id="node3" class="node"><title>Node3</title>
<g id="a_node3"><a xlink:href="alias_8h.html" target="_top" xlink:title="Representation of a single alias to an email address. ">
<polygon fill="white" stroke="red" points="1844.85,-112.5 1844.85,-131.5 1889.85,-131.5 1889.85,-112.5 1844.85,-112.5"/>
<text text-anchor="middle" x="1867.35" y="-119.5" font-family="Helvetica,sans-Serif" font-size="10.00">alias.h</text>
</a>
</g>
</g>
<!-- Node1&#45;&gt;Node3 -->
<g id="edge2" class="edge"><title>Node1&#45;&gt;Node3</title>
<path fill="none" stroke="midnightblue" d="M1769.74,-164.503C1793.55,-154.38 1826.45,-140.388 1847.32,-131.516"/>
<polygon fill="midnightblue" stroke="midnightblue" points="1768.3,-161.31 1760.47,-168.444 1771.04,-167.751 1768.3,-161.31"/>
</g>
<!-- Node4 -->
<g id="node4" class="node"><title>Node4</title>
<g id="a_node4"><a xlink:href="alias_8c.html" target="_top" xlink:title="Representation of a single alias to an email address. ">
<polygon fill="white" stroke="black" points="1413.85,-56.5 1413.85,-75.5 1458.85,-75.5 1458.85,-56.5 1413.85,-56.5"/>
<text text-anchor="middle" x="1436.35" y="-63.5" font-family="Helvetica,sans-Serif" font-size="10.00">alias.c</text>
</a>
</g>
</g>
<!-- Node1&#45;&gt;Node4 -->
<g id="edge94" class="edge"><title>Node1&#45;&gt;Node4</title>
<path fill="none" stroke="midnightblue" d="M1696.3,-169.768C1657.97,-162.675 1601.34,-150.25 1554.35,-132 1514.01,-116.336 1470.35,-89.3662 1449.23,-75.6114"/>
<polygon fill="midnightblue" stroke="midnightblue" points="1696.14,-173.296 1706.61,-171.628 1697.39,-166.408 1696.14,-173.296"/>
</g>
<!-- Node5 -->
<g id="node5" class="node"><title>Node5</title>
<g id="a_node5"><a xlink:href="commands_8c.html" target="_top" xlink:title="Manage where the email is piped to external commands. ">
<polygon fill="white" stroke="black" points="2163.85,-56.5 2163.85,-75.5 2236.85,-75.5 2236.85,-56.5 2163.85,-56.5"/>
<text text-anchor="middle" x="2200.35" y="-63.5" font-family="Helvetica,sans-Serif" font-size="10.00">commands.c</text>
</a>
</g>
</g>
<!-- Node1&#45;&gt;Node5 -->
<g id="edge106" class="edge"><title>Node1&#45;&gt;Node5</title>
<path fill="none" stroke="midnightblue" d="M1784.03,-175.235C1845.31,-171.75 1959.68,-161.536 2052.35,-132 2070.91,-126.085 2073.66,-120.168 2091.35,-112 2120.9,-98.3505 2155.79,-84.2972 2177.99,-75.607"/>
<polygon fill="midnightblue" stroke="midnightblue" points="1783.74,-171.746 1773.94,-175.775 1784.12,-178.736 1783.74,-171.746"/>
</g>
<!-- Node6 -->
<g id="node6" class="node"><title>Node6</title>
<g id="a_node6"><a xlink:href="compose_8c.html" target="_top" xlink:title="GUI editor for an email&#39;s headers. ">
<polygon fill="white" stroke="black" points="1958.85,-56.5 1958.85,-75.5 2023.85,-75.5 2023.85,-56.5 1958.85,-56.5"/>
<text text-anchor="middle" x="1991.35" y="-63.5" font-family="Helvetica,sans-Serif" font-size="10.00">compose.c</text>
</a>
</g>
</g>
<!-- Node1&#45;&gt;Node6 -->
<g id="edge108" class="edge"><title>Node1&#45;&gt;Node6</title>
<path fill="none" stroke="midnightblue" d="M1783.98,-168.675C1816.51,-161.503 1861.51,-149.512 1898.35,-132 1931.26,-116.355 1965.17,-89.3767 1981.45,-75.6157"/>
<polygon fill="midnightblue" stroke="midnightblue" points="1782.92,-165.321 1773.88,-170.835 1784.39,-172.166 1782.92,-165.321"/>
</g>
<!-- Node7 -->
<g id="node7" class="node"><title>Node7</title>
<g id="a_node7"><a xlink:href="curs__main_8c.html" target="_top" xlink:title="GUI manage the main index (list of emails) ">
<polygon fill="white" stroke="black" points="2384.35,-56.5 2384.35,-75.5 2454.35,-75.5 2454.35,-56.5 2384.35,-56.5"/>
<text text-anchor="middle" x="2419.35" y="-63.5" font-family="Helvetica,sans-Serif" font-size="10.00">curs_main.c</text>
</a>
</g>
</g>
<!-- Node1&#45;&gt;Node7 -->
<g id="edge112" class="edge"><title>Node1&#45;&gt;Node7</title>
<path fill="none" stroke="midnightblue" d="M1784.18,-176.544C1902.24,-174.856 2224.72,-167.071 2324.35,-132 2342.54,-125.597 2387.3,-91.9039 2408.22,-75.7087"/>
<polygon fill="midnightblue" stroke="midnightblue" points="1784.01,-173.046 1774.06,-176.681 1784.11,-180.046 1784.01,-173.046"/>
</g>
<!-- Node8 -->
<g id="node8" class="node"><title>Node8</title>
<g id="a_node8"><a xlink:href="edit_8c.html" target="_top" xlink:title="GUI basic built&#45;in text editor. ">
<polygon fill="white" stroke="black" points="1476.85,-56.5 1476.85,-75.5 1517.85,-75.5 1517.85,-56.5 1476.85,-56.5"/>
<text text-anchor="middle" x="1497.35" y="-63.5" font-family="Helvetica,sans-Serif" font-size="10.00">edit.c</text>
</a>
</g>
</g>
<!-- Node1&#45;&gt;Node8 -->
<g id="edge116" class="edge"><title>Node1&#45;&gt;Node8</title>
<path fill="none" stroke="midnightblue" d="M1696.77,-167.822C1666.08,-160.435 1624.54,-148.547 1590.35,-132 1557.54,-116.125 1523.58,-89.2492 1507.27,-75.5627"/>
<polygon fill="midnightblue" stroke="midnightblue" points="1696.21,-171.283 1706.74,-170.155 1697.8,-164.468 1696.21,-171.283"/>
</g>
<!-- Node9 -->
<g id="node9" class="node"><title>Node9</title>
<g id="a_node9"><a xlink:href="enter_8c.html" target="_top" xlink:title="GUI ask the user to enter a string. ">
<polygon fill="white" stroke="black" points="2254.85,-56.5 2254.85,-75.5 2301.85,-75.5 2301.85,-56.5 2254.85,-56.5"/>
<text text-anchor="middle" x="2278.35" y="-63.5" font-family="Helvetica,sans-Serif" font-size="10.00">enter.c</text>
</a>
</g>
</g>
<!-- Node1&#45;&gt;Node9 -->
<g id="edge119" class="edge"><title>Node1&#45;&gt;Node9</title>
<path fill="none" stroke="midnightblue" d="M1784.27,-177.3C1860.43,-176.702 2021.23,-170.475 2150.35,-132 2161.99,-128.53 2230.16,-92.6325 2261.99,-75.7219"/>
<polygon fill="midnightblue" stroke="midnightblue" points="1784.08,-173.801 1774.1,-177.35 1784.12,-180.801 1784.08,-173.801"/>
</g>
<!-- Node10 -->
<g id="node10" class="node"><title>Node10</title>
<g id="a_node10"><a xlink:href="hdrline_8c.html" target="_top" xlink:title="String processing routines to generate the mail index. ">
<polygon fill="white" stroke="black" points="1848.85,-56.5 1848.85,-75.5 1901.85,-75.5 1901.85,-56.5 1848.85,-56.5"/>
<text text-anchor="middle" x="1875.35" y="-63.5" font-family="Helvetica,sans-Serif" font-size="10.00">hdrline.c</text>
</a>
</g>
</g>
<!-- Node1&#45;&gt;Node10 -->
<g id="edge128" class="edge"><title>Node1&#45;&gt;Node10</title>
<path fill="none" stroke="midnightblue" d="M1758.98,-161.816C1787.74,-138.387 1841.98,-94.1898 1864.8,-75.5914"/>
<polygon fill="midnightblue" stroke="midnightblue" points="1756.48,-159.338 1750.94,-168.368 1760.9,-164.765 1756.48,-159.338"/>
</g>
<!-- Node11 -->
<g id="node11" class="node"><title>Node11</title>
<g id="a_node11"><a xlink:href="hook_8c.html" target="_top" xlink:title="Parse and execute user&#45;defined hooks. ">
<polygon fill="white" stroke="black" points="1117.35,-56.5 1117.35,-75.5 1163.35,-75.5 1163.35,-56.5 1117.35,-56.5"/>
<text text-anchor="middle" x="1140.35" y="-63.5" font-family="Helvetica,sans-Serif" font-size="10.00">hook.c</text>
</a>
</g>
</g>
<!-- Node1&#45;&gt;Node11 -->
<g id="edge130" class="edge"><title>Node1&#45;&gt;Node11</title>
<path fill="none" stroke="midnightblue" d="M1696.36,-176.786C1615.78,-175.465 1439.57,-168.251 1296.35,-132 1243.16,-118.538 1184.44,-90.0599 1156.64,-75.6867"/>
<polygon fill="midnightblue" stroke="midnightblue" points="1696.58,-180.289 1706.63,-176.931 1696.68,-173.29 1696.58,-180.289"/>
</g>
<!-- Node12 -->
<g id="node12" class="node"><title>Node12</title>
<g id="a_node12"><a xlink:href="init_8c.html" target="_top" xlink:title="Config/command parsing. ">
<polygon fill="white" stroke="black" points="1911.35,-0.5 1911.35,-19.5 1949.35,-19.5 1949.35,-0.5 1911.35,-0.5"/>
<text text-anchor="middle" x="1930.35" y="-7.5" font-family="Helvetica,sans-Serif" font-size="10.00">init.c</text>
</a>
</g>
</g>
<!-- Node1&#45;&gt;Node12 -->
<g id="edge131" class="edge"><title>Node1&#45;&gt;Node12</title>
<path fill="none" stroke="midnightblue" d="M1696.47,-176.601C1457.42,-174.311 317.257,-161.892 163.347,-132 89.593,-117.675 -40.1527,-109.746 12.347,-56 47.3675,-20.1482 1712.81,-11.9302 1911.11,-11.0784"/>
<polygon fill="midnightblue" stroke="midnightblue" points="1696.49,-180.101 1706.52,-176.696 1696.56,-173.101 1696.49,-180.101"/>
</g>
<!-- Node13 -->
<g id="node13" class="node"><title>Node13</title>
<g id="a_node13"><a xlink:href="main_8c.html" target="_top" xlink:title="Command line processing. ">
<polygon fill="white" stroke="black" points="2320.35,-56.5 2320.35,-75.5 2366.35,-75.5 2366.35,-56.5 2320.35,-56.5"/>
<text text-anchor="middle" x="2343.35" y="-63.5" font-family="Helvetica,sans-Serif" font-size="10.00">main.c</text>
</a>
</g>
</g>
<!-- Node1&#45;&gt;Node13 -->
<g id="edge135" class="edge"><title>Node1&#45;&gt;Node13</title>
<path fill="none" stroke="midnightblue" d="M1784.31,-177.493C1865.24,-177.323 2042.56,-171.916 2185.35,-132 2205.26,-126.434 2208.36,-120.189 2227.35,-112 2259.08,-98.3109 2296.46,-84.155 2320.03,-75.4632"/>
<polygon fill="midnightblue" stroke="midnightblue" points="1784.01,-173.993 1774.01,-177.487 1784,-180.993 1784.01,-173.993"/>
</g>
<!-- Node14 -->
<g id="node14" class="node"><title>Node14</title>
<g id="a_node14"><a xlink:href="mutt__header_8c.html" target="_top" xlink:title="Manipulate an email&#39;s header. ">
<polygon fill="white" stroke="black" points="1181.85,-56.5 1181.85,-75.5 1260.85,-75.5 1260.85,-56.5 1181.85,-56.5"/>
<text text-anchor="middle" x="1221.35" y="-63.5" font-family="Helvetica,sans-Serif" font-size="10.00">mutt_header.c</text>
</a>
</g>
</g>
<!-- Node1&#45;&gt;Node14 -->
<g id="edge140" class="edge"><title>Node1&#45;&gt;Node14</title>
<path fill="none" stroke="midnightblue" d="M1696.52,-177.154C1622.64,-176.283 1469.35,-169.593 1346.35,-132 1302.6,-118.631 1256.07,-90.1101 1234.16,-75.707"/>
<polygon fill="midnightblue" stroke="midnightblue" points="1696.8,-180.656 1706.83,-177.243 1696.86,-173.656 1696.8,-180.656"/>
</g>
<!-- Node15 -->
<g id="node15" class="node"><title>Node15</title>
<g id="a_node15"><a xlink:href="globals_8h.html" target="_top" xlink:title="Hundreds of global variables to back the user variables. ">
<polygon fill="white" stroke="red" points="1404.35,-112.5 1404.35,-131.5 1460.35,-131.5 1460.35,-112.5 1404.35,-112.5"/>
<text text-anchor="middle" x="1432.35" y="-119.5" font-family="Helvetica,sans-Serif" font-size="10.00">globals.h</text>
</a>
</g>
</g>
<!-- Node1&#45;&gt;Node15 -->
<g id="edge15" class="edge"><title>Node1&#45;&gt;Node15</title>
<path fill="none" stroke="midnightblue" d="M1696.82,-170.131C1644.24,-161.712 1553.15,-146.742 1475.35,-132 1470.55,-131.091 1465.47,-130.074 1460.54,-129.06"/>
<polygon fill="midnightblue" stroke="midnightblue" points="1696.38,-173.605 1706.81,-171.725 1697.48,-166.692 1696.38,-173.605"/>
</g>
<!-- Node16 -->
<g id="node16" class="node"><title>Node16</title>
<g id="a_node16"><a xlink:href="browser_8c.html" target="_top" xlink:title="GUI component for displaying/selecting items from a list. ">
<polygon fill="white" stroke="black" points="2472.85,-56.5 2472.85,-75.5 2531.85,-75.5 2531.85,-56.5 2472.85,-56.5"/>
<text text-anchor="middle" x="2502.35" y="-63.5" font-family="Helvetica,sans-Serif" font-size="10.00">browser.c</text>
</a>
</g>
</g>
<!-- Node1&#45;&gt;Node16 -->
<g id="edge96" class="edge"><title>Node1&#45;&gt;Node16</title>
<path fill="none" stroke="midnightblue" d="M1784.15,-176.031C1928.15,-172.591 2381.07,-159.663 2440.35,-132 2466.92,-119.602 2487.9,-90.3587 2497.17,-75.6979"/>
<polygon fill="midnightblue" stroke="midnightblue" points="1783.85,-172.537 1773.93,-176.271 1784.01,-179.535 1783.85,-172.537"/>
</g>
<!-- Node17 -->
<g id="node17" class="node"><title>Node17</title>
<g id="a_node17"><a xlink:href="color_8c.html" target="_top" xlink:title="Color and attribute parsing. ">
<polygon fill="white" stroke="black" points="1536.35,-56.5 1536.35,-75.5 1582.35,-75.5 1582.35,-56.5 1536.35,-56.5"/>
<text text-anchor="middle" x="1559.35" y="-63.5" font-family="Helvetica,sans-Serif" font-size="10.00">color.c</text>
</a>
</g>
</g>
<!-- Node1&#45;&gt;Node17 -->
<g id="edge105" class="edge"><title>Node1&#45;&gt;Node17</title>
<path fill="none" stroke="midnightblue" d="M1696.99,-167.558C1671.38,-160.567 1639.21,-149.223 1614.35,-132 1591.99,-116.512 1573.36,-89.7091 1564.65,-75.8574"/>
<polygon fill="midnightblue" stroke="midnightblue" points="1696.25,-170.982 1706.81,-170.115 1698.01,-164.208 1696.25,-170.982"/>
</g>
<!-- Node18 -->
<g id="node18" class="node"><title>Node18</title>
<g id="a_node18"><a xlink:href="complete_8c.html" target="_top" xlink:title="String auto&#45;completion routines. ">
<polygon fill="white" stroke="black" points="21.847,-56.5 21.847,-75.5 86.847,-75.5 86.847,-56.5 21.847,-56.5"/>
<text text-anchor="middle" x="54.347" y="-63.5" font-family="Helvetica,sans-Serif" font-size="10.00">complete.c</text>
</a>
</g>
</g>
<!-- Node1&#45;&gt;Node18 -->
<g id="edge107" class="edge"><title>Node1&#45;&gt;Node18</title>
<path fill="none" stroke="midnightblue" d="M1696.42,-176.482C1464.39,-173.64 386.524,-159.067 240.347,-132 176.777,-120.229 105.691,-90.4097 72.8363,-75.6075"/>
<polygon fill="midnightblue" stroke="midnightblue" points="1696.47,-179.983 1706.51,-176.605 1696.56,-172.984 1696.47,-179.983"/>
</g>
<!-- Node19 -->
<g id="node19" class="node"><title>Node19</title>
<g id="a_node19"><a xlink:href="compress_8c.html" target="_top" xlink:title="Compressed mbox local mailbox type. ">
<polygon fill="white" stroke="black" points="839.347,-56.5 839.347,-75.5 907.347,-75.5 907.347,-56.5 839.347,-56.5"/>
<text text-anchor="middle" x="873.347" y="-63.5" font-family="Helvetica,sans-Serif" font-size="10.00">compress.c</text>
</a>
</g>
</g>
<!-- Node1&#45;&gt;Node19 -->
<g id="edge109" class="edge"><title>Node1&#45;&gt;Node19</title>
<path fill="none" stroke="midnightblue" d="M1696.57,-177.326C1591.13,-177.388 1315.08,-173.23 1089.35,-132 1016.92,-118.771 934.381,-89.9174 895.641,-75.5221"/>
<polygon fill="midnightblue" stroke="midnightblue" points="1696.83,-180.826 1706.82,-177.306 1696.82,-173.826 1696.83,-180.826"/>
</g>
<!-- Node20 -->
<g id="node20" class="node"><title>Node20</title>
<g id="a_node20"><a xlink:href="copy_8c.html" target="_top" xlink:title="Duplicate the structure of an entire email. ">
<polygon fill="white" stroke="black" points="105.347,-56.5 105.347,-75.5 151.347,-75.5 151.347,-56.5 105.347,-56.5"/>
<text text-anchor="middle" x="128.347" y="-63.5" font-family="Helvetica,sans-Serif" font-size="10.00">copy.c</text>
</a>
</g>
</g>
<!-- Node1&#45;&gt;Node20 -->
<g id="edge110" class="edge"><title>Node1&#45;&gt;Node20</title>
<path fill="none" stroke="midnightblue" d="M1696.58,-176.39C1472.25,-173.159 456.55,-157.239 318.347,-132 253.528,-120.163 180.857,-90.3751 147.258,-75.5939"/>
<polygon fill="midnightblue" stroke="midnightblue" points="1696.61,-179.891 1706.65,-176.534 1696.71,-172.891 1696.61,-179.891"/>
</g>
<!-- Node21 -->
<g id="node21" class="node"><title>Node21</title>
<g id="a_node21"><a xlink:href="curs__lib_8c.html" target="_top" xlink:title="GUI miscellaneous curses (window drawing) routines. ">
<polygon fill="white" stroke="black" points="761.847,-56.5 761.847,-75.5 820.847,-75.5 820.847,-56.5 761.847,-56.5"/>
<text text-anchor="middle" x="791.347" y="-63.5" font-family="Helvetica,sans-Serif" font-size="10.00">curs_lib.c</text>
</a>
</g>
</g>
<!-- Node1&#45;&gt;Node21 -->
<g id="edge111" class="edge"><title>Node1&#45;&gt;Node21</title>
<path fill="none" stroke="midnightblue" d="M1696.47,-175.636C1559.5,-171.169 1140.98,-155.878 1007.35,-132 934.872,-119.05 852.354,-90.0656 813.63,-75.5811"/>
<polygon fill="midnightblue" stroke="midnightblue" points="1696.49,-179.138 1706.6,-175.963 1696.71,-172.142 1696.49,-179.138"/>
</g>
<!-- Node22 -->
<g id="node22" class="node"><title>Node22</title>
<g id="a_node22"><a xlink:href="editmsg_8c.html" target="_top" xlink:title="Prepare an email to be edited. ">
<polygon fill="white" stroke="black" points="169.847,-56.5 169.847,-75.5 228.847,-75.5 228.847,-56.5 169.847,-56.5"/>
<text text-anchor="middle" x="199.347" y="-63.5" font-family="Helvetica,sans-Serif" font-size="10.00">editmsg.c</text>
</a>
</g>
</g>
<!-- Node1&#45;&gt;Node22 -->
<g id="edge117" class="edge"><title>Node1&#45;&gt;Node22</title>
<path fill="none" stroke="midnightblue" d="M1696.45,-177.168C1495,-177.687 657.845,-177.042 400.347,-132 332.068,-120.057 255.05,-90.3195 219.413,-75.5721"/>
<polygon fill="midnightblue" stroke="midnightblue" points="1696.66,-180.667 1706.65,-177.139 1696.64,-173.667 1696.66,-180.667"/>
</g>
<!-- Node23 -->
<g id="node23" class="node"><title>Node23</title>
<g id="a_node23"><a xlink:href="flags_8c.html" target="_top" xlink:title="Manipulate the flags in an email header. ">
<polygon fill="white" stroke="black" points="1784.35,-56.5 1784.35,-75.5 1830.35,-75.5 1830.35,-56.5 1784.35,-56.5"/>
<text text-anchor="middle" x="1807.35" y="-63.5" font-family="Helvetica,sans-Serif" font-size="10.00">flags.c</text>
</a>
</g>
</g>
<!-- Node1&#45;&gt;Node23 -->
<g id="edge125" class="edge"><title>Node1&#45;&gt;Node23</title>
<path fill="none" stroke="midnightblue" d="M1750.92,-159.64C1765.48,-135.744 1791.13,-93.6286 1802.11,-75.5914"/>
<polygon fill="midnightblue" stroke="midnightblue" points="1747.82,-158.007 1745.6,-168.368 1753.8,-161.649 1747.82,-158.007"/>
</g>
<!-- Node24 -->
<g id="node24" class="node"><title>Node24</title>
<g id="a_node24"><a xlink:href="group_8c.html" target="_top" xlink:title="Handling for email address groups. ">
<polygon fill="white" stroke="black" points="246.847,-56.5 246.847,-75.5 295.847,-75.5 295.847,-56.5 246.847,-56.5"/>
<text text-anchor="middle" x="271.347" y="-63.5" font-family="Helvetica,sans-Serif" font-size="10.00">group.c</text>
</a>
</g>
</g>
<!-- Node1&#45;&gt;Node24 -->
<g id="edge126" class="edge"><title>Node1&#45;&gt;Node24</title>
<path fill="none" stroke="midnightblue" d="M1696.6,-176.912C1503.81,-176.299 729.011,-171.381 489.347,-132 415.692,-119.897 331.97,-90.236 293.192,-75.5393"/>
<polygon fill="midnightblue" stroke="midnightblue" points="1696.63,-180.412 1706.64,-176.942 1696.65,-173.413 1696.63,-180.412"/>
</g>
<!-- Node25 -->
<g id="node25" class="node"><title>Node25</title>
<g id="a_node25"><a xlink:href="handler_8c.html" target="_top" xlink:title="Decide how to display email content. ">
<polygon fill="white" stroke="black" points="1278.35,-56.5 1278.35,-75.5 1334.35,-75.5 1334.35,-56.5 1278.35,-56.5"/>
<text text-anchor="middle" x="1306.35" y="-63.5" font-family="Helvetica,sans-Serif" font-size="10.00">handler.c</text>
</a>
</g>
</g>
<!-- Node1&#45;&gt;Node25 -->
<g id="edge127" class="edge"><title>Node1&#45;&gt;Node25</title>
<path fill="none" stroke="midnightblue" d="M1696.39,-174.836C1612.77,-170.183 1434.13,-157.516 1378.35,-132 1349.56,-118.83 1324.22,-89.9487 1312.79,-75.5345"/>
<polygon fill="midnightblue" stroke="midnightblue" points="1696.41,-178.342 1706.59,-175.39 1696.79,-171.352 1696.41,-178.342"/>
</g>
<!-- Node26 -->
<g id="node26" class="node"><title>Node26</title>
<g id="a_node26"><a xlink:href="help_8c.html" target="_top" xlink:title="Generate the help&#45;line and help&#45;page and GUI display them. ">
<polygon fill="white" stroke="black" points="1352.85,-56.5 1352.85,-75.5 1395.85,-75.5 1395.85,-56.5 1352.85,-56.5"/>
<text text-anchor="middle" x="1374.35" y="-63.5" font-family="Helvetica,sans-Serif" font-size="10.00">help.c</text>
</a>
</g>
</g>
<!-- Node1&#45;&gt;Node26 -->
<g id="edge129" class="edge"><title>Node1&#45;&gt;Node26</title>
<path fill="none" stroke="midnightblue" d="M1696.7,-176.947C1614.34,-175.96 1440.26,-169.375 1395.35,-132 1378.39,-117.891 1374.99,-89.9713 1374.4,-75.7574"/>
<polygon fill="midnightblue" stroke="midnightblue" points="1696.71,-180.447 1706.74,-177.045 1696.78,-173.447 1696.71,-180.447"/>
</g>
<!-- Node27 -->
<g id="node27" class="node"><title>Node27</title>
<g id="a_node27"><a xlink:href="init_8h.html" target="_top" xlink:title="Definitions of user variables, sort methods and commands. ">
<polygon fill="white" stroke="black" points="2550.35,-56.5 2550.35,-75.5 2588.35,-75.5 2588.35,-56.5 2550.35,-56.5"/>
<text text-anchor="middle" x="2569.35" y="-63.5" font-family="Helvetica,sans-Serif" font-size="10.00">init.h</text>
</a>
</g>
</g>
<!-- Node1&#45;&gt;Node27 -->
<g id="edge132" class="edge"><title>Node1&#45;&gt;Node27</title>
<path fill="none" stroke="midnightblue" d="M1784.42,-176.086C1950.33,-172.454 2529.28,-157.959 2558.35,-132 2574.22,-117.819 2572.84,-89.9315 2570.89,-75.7411"/>
<polygon fill="midnightblue" stroke="midnightblue" points="1784.03,-172.594 1774.1,-176.31 1784.18,-179.593 1784.03,-172.594"/>
</g>
<!-- Node28 -->
<g id="node28" class="node"><title>Node28</title>
<g id="a_node28"><a xlink:href="keymap_8c.html" target="_top" xlink:title="Manage keymappings. ">
<polygon fill="white" stroke="black" points="1600.85,-56.5 1600.85,-75.5 1659.85,-75.5 1659.85,-56.5 1600.85,-56.5"/>
<text text-anchor="middle" x="1630.35" y="-63.5" font-family="Helvetica,sans-Serif" font-size="10.00">keymap.c</text>
</a>
</g>
</g>
<!-- Node1&#45;&gt;Node28 -->
<g id="edge133" class="edge"><title>Node1&#45;&gt;Node28</title>
<path fill="none" stroke="midnightblue" d="M1696.8,-172.378C1670.82,-167.125 1639.77,-155.914 1623.35,-132 1611.65,-114.972 1620.12,-89.3027 1626,-75.8853"/>
<polygon fill="midnightblue" stroke="midnightblue" points="1696.37,-175.857 1706.83,-174.17 1697.61,-168.966 1696.37,-175.857"/>
</g>
<!-- Node29 -->
<g id="node29" class="node"><title>Node29</title>
<g id="a_node29"><a xlink:href="mailbox_8c.html" target="_top" xlink:title="Representation of a mailbox. ">
<polygon fill="white" stroke="black" points="2703.85,-56.5 2703.85,-75.5 2762.85,-75.5 2762.85,-56.5 2703.85,-56.5"/>
<text text-anchor="middle" x="2733.35" y="-63.5" font-family="Helvetica,sans-Serif" font-size="10.00">mailbox.c</text>
</a>
</g>
</g>
<!-- Node1&#45;&gt;Node29 -->
<g id="edge134" class="edge"><title>Node1&#45;&gt;Node29</title>
<path fill="none" stroke="midnightblue" d="M1784.01,-176.859C1982.26,-176.01 2789.69,-170.209 2826.35,-132 2850.14,-107.196 2798.29,-86.0056 2762.86,-75.0272"/>
<polygon fill="midnightblue" stroke="midnightblue" points="1783.94,-173.359 1773.96,-176.9 1783.97,-180.359 1783.94,-173.359"/>
</g>
<!-- Node30 -->
<g id="node30" class="node"><title>Node30</title>
<g id="a_node30"><a xlink:href="menu_8c.html" target="_top" xlink:title="GUI present the user with a selectable list. ">
<polygon fill="white" stroke="black" points="1716.85,-56.5 1716.85,-75.5 1765.85,-75.5 1765.85,-56.5 1716.85,-56.5"/>
<text text-anchor="middle" x="1741.35" y="-63.5" font-family="Helvetica,sans-Serif" font-size="10.00">menu.c</text>
</a>
</g>
</g>
<!-- Node1&#45;&gt;Node30 -->
<g id="edge136" class="edge"><title>Node1&#45;&gt;Node30</title>
<path fill="none" stroke="midnightblue" d="M1740.52,-158.348C1740.74,-134.254 1741.11,-93.3079 1741.27,-75.5914"/>
<polygon fill="midnightblue" stroke="midnightblue" points="1737.02,-158.337 1740.43,-168.368 1744.02,-158.401 1737.02,-158.337"/>
</g>
<!-- Node31 -->
<g id="node31" class="node"><title>Node31</title>
<g id="a_node31"><a xlink:href="mutt__account_8c.html" target="_top" xlink:title="Account object used by POP and IMAP. ">
<polygon fill="white" stroke="black" points="313.347,-56.5 313.347,-75.5 397.347,-75.5 397.347,-56.5 313.347,-56.5"/>
<text text-anchor="middle" x="355.347" y="-63.5" font-family="Helvetica,sans-Serif" font-size="10.00">mutt_account.c</text>
</a>
</g>
</g>
<!-- Node1&#45;&gt;Node31 -->
<g id="edge137" class="edge"><title>Node1&#45;&gt;Node31</title>
<path fill="none" stroke="midnightblue" d="M1696.55,-176.719C1512.54,-175.321 801.385,-167.672 580.347,-132 504.481,-119.757 417.998,-90.1625 377.926,-75.5105"/>
<polygon fill="midnightblue" stroke="midnightblue" points="1696.64,-180.22 1706.66,-176.794 1696.69,-173.22 1696.64,-180.22"/>
</g>
<!-- Node32 -->
<g id="node32" class="node"><title>Node32</title>
<g id="a_node32"><a xlink:href="mutt__attach_8c.html" target="_top" xlink:title="Handling of email attachments. ">
<polygon fill="white" stroke="black" points="415.847,-56.5 415.847,-75.5 492.847,-75.5 492.847,-56.5 415.847,-56.5"/>
<text text-anchor="middle" x="454.347" y="-63.5" font-family="Helvetica,sans-Serif" font-size="10.00">mutt_attach.c</text>
</a>
</g>
</g>
<!-- Node1&#45;&gt;Node32 -->
<g id="edge138" class="edge"><title>Node1&#45;&gt;Node32</title>
<path fill="none" stroke="midnightblue" d="M1696.73,-176.647C1521.73,-175.004 870.31,-166.642 667.347,-132 595.316,-119.706 513.546,-90.1359 475.678,-75.5"/>
<polygon fill="midnightblue" stroke="midnightblue" points="1696.81,-180.148 1706.85,-176.74 1696.88,-173.148 1696.81,-180.148"/>
</g>
<!-- Node33 -->
<g id="node33" class="node"><title>Node33</title>
<g id="a_node33"><a xlink:href="mutt__logging_8c.html" target="_top" xlink:title="Mutt Logging. ">
<polygon fill="white" stroke="black" points="1019.35,-56.5 1019.35,-75.5 1099.35,-75.5 1099.35,-56.5 1019.35,-56.5"/>
<text text-anchor="middle" x="1059.35" y="-63.5" font-family="Helvetica,sans-Serif" font-size="10.00">mutt_logging.c</text>
</a>
</g>
</g>
<!-- Node1&#45;&gt;Node33 -->
<g id="edge142" class="edge"><title>Node1&#45;&gt;Node33</title>
<path fill="none" stroke="midnightblue" d="M1696.61,-176.972C1608.31,-176.071 1402.86,-169.693 1235.35,-132 1175.76,-118.593 1109.05,-89.9563 1077.61,-75.5913"/>
<polygon fill="midnightblue" stroke="midnightblue" points="1696.76,-180.473 1706.79,-177.056 1696.82,-173.473 1696.76,-180.473"/>
</g>
<!-- Node34 -->
<g id="node34" class="node"><title>Node34</title>
<g id="a_node34"><a xlink:href="mutt__lua_8c.html" target="_top" xlink:title="Integrated Lua scripting. ">
<polygon fill="white" stroke="black" points="511.347,-56.5 511.347,-75.5 573.347,-75.5 573.347,-56.5 511.347,-56.5"/>
<text text-anchor="middle" x="542.347" y="-63.5" font-family="Helvetica,sans-Serif" font-size="10.00">mutt_lua.c</text>
</a>
</g>
</g>
<!-- Node1&#45;&gt;Node34 -->
<g id="edge143" class="edge"><title>Node1&#45;&gt;Node34</title>
<path fill="none" stroke="midnightblue" d="M1696.48,-176.474C1530.16,-174.252 938.555,-164.211 753.347,-132 682.162,-119.62 601.408,-90.2296 563.772,-75.5917"/>
<polygon fill="midnightblue" stroke="midnightblue" points="1696.76,-179.978 1706.81,-176.609 1696.86,-172.979 1696.76,-179.978"/>
</g>
<!-- Node35 -->
<g id="node35" class="node"><title>Node35</title>
<g id="a_node35"><a xlink:href="mutt__parse_8c.html" target="_top" xlink:title="Miscellaneous email parsing routines. ">
<polygon fill="white" stroke="black" points="591.347,-56.5 591.347,-75.5 665.347,-75.5 665.347,-56.5 591.347,-56.5"/>
<text text-anchor="middle" x="628.347" y="-63.5" font-family="Helvetica,sans-Serif" font-size="10.00">mutt_parse.c</text>
</a>
</g>
</g>
<!-- Node1&#45;&gt;Node35 -->
<g id="edge144" class="edge"><title>Node1&#45;&gt;Node35</title>
<path fill="none" stroke="midnightblue" d="M1696.2,-176.248C1538.99,-173.344 1006.9,-161.516 839.347,-132 768.189,-119.465 687.423,-90.1482 649.778,-75.5595"/>
<polygon fill="midnightblue" stroke="midnightblue" points="1696.37,-179.752 1706.43,-176.434 1696.5,-172.753 1696.37,-179.752"/>
</g>
<!-- Node36 -->
<g id="node36" class="node"><title>Node36</title>
<g id="a_node36"><a xlink:href="mutt__signal_8c.html" target="_top" xlink:title="Signal handling. ">
<polygon fill="white" stroke="black" points="925.847,-56.5 925.847,-75.5 1000.85,-75.5 1000.85,-56.5 925.847,-56.5"/>
<text text-anchor="middle" x="963.347" y="-63.5" font-family="Helvetica,sans-Serif" font-size="10.00">mutt_signal.c</text>
</a>
</g>
</g>
<!-- Node1&#45;&gt;Node36 -->
<g id="edge145" class="edge"><title>Node1&#45;&gt;Node36</title>
<path fill="none" stroke="midnightblue" d="M1696.46,-176.975C1599.88,-176.176 1362.02,-170.129 1167.35,-132 1098.95,-118.604 1021.31,-89.9622 984.657,-75.5936"/>
<polygon fill="midnightblue" stroke="midnightblue" points="1696.7,-180.476 1706.72,-177.044 1696.74,-173.477 1696.7,-180.476"/>
</g>
<!-- Node37 -->
<g id="node37" class="node"><title>Node37</title>
<g id="a_node37"><a xlink:href="mutt__url_8c.html" target="_top" xlink:title="Parse and identify different URL schemes. ">
<polygon fill="white" stroke="black" points="683.347,-56.5 683.347,-75.5 743.347,-75.5 743.347,-56.5 683.347,-56.5"/>
<text text-anchor="middle" x="713.347" y="-63.5" font-family="Helvetica,sans-Serif" font-size="10.00">mutt_url.c</text>
</a>
</g>
</g>
<!-- Node1&#45;&gt;Node37 -->
<g id="edge148" class="edge"><title>Node1&#45;&gt;Node37</title>
<path fill="none" stroke="midnightblue" d="M1696.55,-175.98C1549.7,-172.342 1075.55,-158.764 925.347,-132 853.906,-119.27 772.731,-90.0455 734.891,-75.5189"/>
<polygon fill="midnightblue" stroke="midnightblue" points="1696.47,-179.479 1706.55,-176.225 1696.64,-172.481 1696.47,-179.479"/>
</g>
<!-- Node38 -->
<g id="node38" class="node"><title>Node38</title>
<g id="a_node38"><a xlink:href="keymap_8h.html" target="_top" xlink:title="Manage keymappings. ">
<polygon fill="white" stroke="red" points="1984.85,-112.5 1984.85,-131.5 2043.85,-131.5 2043.85,-112.5 1984.85,-112.5"/>
<text text-anchor="middle" x="2014.35" y="-119.5" font-family="Helvetica,sans-Serif" font-size="10.00">keymap.h</text>
</a>
</g>
</g>
<!-- Node1&#45;&gt;Node38 -->
<g id="edge50" class="edge"><title>Node1&#45;&gt;Node38</title>
<path fill="none" stroke="midnightblue" d="M1783.87,-168.6C1830.13,-159.643 1905.44,-144.988 1970.35,-132 1974.93,-131.082 1979.79,-130.1 1984.53,-129.134"/>
<polygon fill="midnightblue" stroke="midnightblue" points="1783.04,-165.196 1773.88,-170.532 1784.37,-172.068 1783.04,-165.196"/>
</g>
<!-- Node39 -->
<g id="node39" class="node"><title>Node39</title>
<g id="a_node39"><a xlink:href="mutt__history_8c.html" target="_top" xlink:title="Read/write command history from/to a file. ">
<polygon fill="white" stroke="black" points="2606.85,-56.5 2606.85,-75.5 2685.85,-75.5 2685.85,-56.5 2606.85,-56.5"/>
<text text-anchor="middle" x="2646.35" y="-63.5" font-family="Helvetica,sans-Serif" font-size="10.00">mutt_history.c</text>
</a>
</g>
</g>
<!-- Node1&#45;&gt;Node39 -->
<g id="edge141" class="edge"><title>Node1&#45;&gt;Node39</title>
<path fill="none" stroke="midnightblue" d="M1784.27,-176.54C1964.53,-174.441 2639.44,-164.434 2670.35,-132 2685.62,-115.975 2666.54,-89.4069 2654.6,-75.7299"/>
<polygon fill="midnightblue" stroke="midnightblue" points="1784.06,-173.042 1774.1,-176.656 1784.14,-180.042 1784.06,-173.042"/>
</g>
<!-- Node40 -->
<g id="node40" class="node"><title>Node40</title>
<g id="a_node40"><a xlink:href="mutt__curses_8h.html" target="_top" xlink:title="Define wrapper functions around Curses/Slang. ">
<polygon fill="white" stroke="red" points="1632.85,-112.5 1632.85,-131.5 1711.85,-131.5 1711.85,-112.5 1632.85,-112.5"/>
<text text-anchor="middle" x="1672.35" y="-119.5" font-family="Helvetica,sans-Serif" font-size="10.00">mutt_curses.h</text>
</a>
</g>
</g>
<!-- Node1&#45;&gt;Node40 -->
<g id="edge66" class="edge"><title>Node1&#45;&gt;Node40</title>
<path fill="none" stroke="midnightblue" d="M1721.58,-162.101C1709.35,-152.382 1693.79,-140.027 1683.47,-131.834"/>
<polygon fill="midnightblue" stroke="midnightblue" points="1719.41,-164.846 1729.42,-168.324 1723.77,-159.364 1719.41,-164.846"/>
</g>
<!-- Node41 -->
<g id="node41" class="node"><title>Node41</title>
<g id="a_node41"><a xlink:href="sort_8h.html" target="_top" xlink:title="Assorted sorting methods. ">
<polygon fill="white" stroke="red" points="2100.85,-112.5 2100.85,-131.5 2141.85,-131.5 2141.85,-112.5 2100.85,-112.5"/>
<text text-anchor="middle" x="2121.35" y="-119.5" font-family="Helvetica,sans-Serif" font-size="10.00">sort.h</text>
</a>
</g>
</g>
<!-- Node1&#45;&gt;Node41 -->
<g id="edge84" class="edge"><title>Node1&#45;&gt;Node41</title>
<path fill="none" stroke="midnightblue" d="M1783.99,-173.054C1849.88,-166.706 1978.51,-152.796 2086.35,-132 2091.03,-131.097 2096.02,-129.937 2100.71,-128.752"/>
<polygon fill="midnightblue" stroke="midnightblue" points="1783.59,-169.576 1773.97,-174.007 1784.25,-176.544 1783.59,-169.576"/>
</g>
<!-- Node42 -->
<g id="node42" class="node"><title>Node42</title>
<g id="a_node42"><a xlink:href="mutt__thread_8c.html" target="_top" xlink:title="Create/manipulate threading in emails. ">
<polygon fill="white" stroke="black" points="2780.85,-56.5 2780.85,-75.5 2857.85,-75.5 2857.85,-56.5 2780.85,-56.5"/>
<text text-anchor="middle" x="2819.35" y="-63.5" font-family="Helvetica,sans-Serif" font-size="10.00">mutt_thread.c</text>
</a>
</g>
</g>
<!-- Node1&#45;&gt;Node42 -->
<g id="edge147" class="edge"><title>Node1&#45;&gt;Node42</title>
<path fill="none" stroke="midnightblue" d="M1784.2,-177.259C1946.46,-177.855 2512.38,-176.616 2686.35,-132 2733.4,-119.933 2783.47,-90.2548 2806.45,-75.5467"/>
<polygon fill="midnightblue" stroke="midnightblue" points="1784.12,-173.759 1774.1,-177.218 1784.09,-180.759 1784.12,-173.759"/>
</g>
<!-- Node43 -->
<g id="node43" class="node"><title>Node43</title>
<g id="a_node43"><a xlink:href="bcache_8c.html" target="_top" xlink:title="Body Caching &#45; local copies of email bodies. ">
<polygon fill="white" stroke="black" points="2606.35,-112.5 2606.35,-131.5 2662.35,-131.5 2662.35,-112.5 2606.35,-112.5"/>
<text text-anchor="middle" x="2634.35" y="-119.5" font-family="Helvetica,sans-Serif" font-size="10.00">bcache.c</text>
</a>
</g>
</g>
<!-- Node1&#45;&gt;Node43 -->
<g id="edge95" class="edge"><title>Node1&#45;&gt;Node43</title>
<path fill="none" stroke="midnightblue" d="M1784.26,-177.125C1910.49,-176.961 2284.93,-172.795 2592.35,-132 2596.78,-131.411 2601.45,-130.604 2605.99,-129.714"/>
<polygon fill="midnightblue" stroke="midnightblue" points="1784.21,-173.625 1774.21,-177.131 1784.21,-180.625 1784.21,-173.625"/>
</g>
<!-- Node44 -->
<g id="node44" class="node"><title>Node44</title>
<g id="a_node44"><a xlink:href="mailbox_8h.html" target="_top" xlink:title="Representation of a mailbox. ">
<polygon fill="white" stroke="red" points="2372.85,-112.5 2372.85,-131.5 2431.85,-131.5 2431.85,-112.5 2372.85,-112.5"/>
<text text-anchor="middle" x="2402.35" y="-119.5" font-family="Helvetica,sans-Serif" font-size="10.00">mailbox.h</text>
</a>
</g>
</g>
<!-- Node1&#45;&gt;Node44 -->
<g id="edge97" class="edge"><title>Node1&#45;&gt;Node44</title>
<path fill="none" stroke="midnightblue" d="M1784.17,-175.752C1885.61,-172.439 2144.27,-161.563 2358.35,-132 2362.98,-131.36 2367.86,-130.526 2372.61,-129.623"/>
<polygon fill="midnightblue" stroke="midnightblue" points="1783.89,-172.259 1774,-176.075 1784.11,-179.255 1783.89,-172.259"/>
</g>
<!-- Node45 -->
<g id="node45" class="node"><title>Node45</title>
<g id="a_node45"><a xlink:href="progress_8h.html" target="_top" xlink:title="Progress bar. ">
<polygon fill="white" stroke="red" points="2488.35,-112.5 2488.35,-131.5 2550.35,-131.5 2550.35,-112.5 2488.35,-112.5"/>
<text text-anchor="middle" x="2519.35" y="-119.5" font-family="Helvetica,sans-Serif" font-size="10.00">progress.h</text>
</a>
</g>
</g>
<!-- Node1&#45;&gt;Node45 -->
<g id="edge113" class="edge"><title>Node1&#45;&gt;Node45</title>
<path fill="none" stroke="midnightblue" d="M1784.26,-176.39C1898.47,-174.352 2214.07,-165.846 2474.35,-132 2478.77,-131.425 2483.41,-130.67 2487.97,-129.843"/>
<polygon fill="midnightblue" stroke="midnightblue" points="1784.1,-172.892 1774.16,-176.562 1784.21,-179.891 1784.1,-172.892"/>
</g>
<!-- Node46 -->
<g id="node46" class="node"><title>Node46</title>
<g id="a_node46"><a xlink:href="enriched_8c.html" target="_top" xlink:title="Rich text handler. ">
<polygon fill="white" stroke="black" points="2756.35,-112.5 2756.35,-131.5 2818.35,-131.5 2818.35,-112.5 2756.35,-112.5"/>
<text text-anchor="middle" x="2787.35" y="-119.5" font-family="Helvetica,sans-Serif" font-size="10.00">enriched.c</text>
</a>
</g>
</g>
<!-- Node1&#45;&gt;Node46 -->
<g id="edge118" class="edge"><title>Node1&#45;&gt;Node46</title>
<path fill="none" stroke="midnightblue" d="M1784.59,-177.412C1925.2,-178.209 2374.24,-176.811 2742.35,-132 2746.78,-131.461 2751.42,-130.727 2755.97,-129.909"/>
<polygon fill="midnightblue" stroke="midnightblue" points="1784.26,-173.91 1774.24,-177.346 1784.21,-180.91 1784.26,-173.91"/>
</g>
<!-- Node47 -->
<g id="node47" class="node"><title>Node47</title>
<g id="a_node47"><a xlink:href="mutt__history_8h.html" target="_top" xlink:title="Read/write command history from/to a file. ">
<polygon fill="white" stroke="black" points="2236.85,-112.5 2236.85,-131.5 2315.85,-131.5 2315.85,-112.5 2236.85,-112.5"/>
<text text-anchor="middle" x="2276.35" y="-119.5" font-family="Helvetica,sans-Serif" font-size="10.00">mutt_history.h</text>
</a>
</g>
</g>
<!-- Node1&#45;&gt;Node47 -->
<g id="edge120" class="edge"><title>Node1&#45;&gt;Node47</title>
<path fill="none" stroke="midnightblue" d="M1784.07,-173.978C1868.84,-167.886 2061.33,-152.907 2222.35,-132 2226.97,-131.4 2231.79,-130.701 2236.58,-129.961"/>
<polygon fill="midnightblue" stroke="midnightblue" points="1783.77,-170.491 1774.04,-174.694 1784.26,-177.474 1783.77,-170.491"/>
</g>
<!-- Node48 -->
<g id="node48" class="node"><title>Node48</title>
<g id="a_node48"><a xlink:href="filter_8c.html" target="_top" xlink:title="Pass files through external commands (filters) ">
<polygon fill="white" stroke="black" points="2874.35,-112.5 2874.35,-131.5 2918.35,-131.5 2918.35,-112.5 2874.35,-112.5"/>
<text text-anchor="middle" x="2896.35" y="-119.5" font-family="Helvetica,sans-Serif" font-size="10.00">filter.c</text>
</a>
</g>
</g>
<!-- Node1&#45;&gt;Node48 -->
<g id="edge124" class="edge"><title>Node1&#45;&gt;Node48</title>
<path fill="none" stroke="midnightblue" d="M1784.05,-176.44C1963.85,-173.951 2646.93,-162.634 2860.35,-132 2864.81,-131.359 2869.53,-130.396 2874.02,-129.335"/>
<polygon fill="midnightblue" stroke="midnightblue" points="1783.87,-172.942 1773.92,-176.578 1783.96,-179.941 1783.87,-172.942"/>
</g>
<!-- Node49 -->
<g id="node49" class="node"><title>Node49</title>
<g id="a_node49"><a xlink:href="mutt__body_8c.html" target="_top" xlink:title="Representation of the body of an email. ">
<polygon fill="white" stroke="black" points="2936.85,-112.5 2936.85,-131.5 3007.85,-131.5 3007.85,-112.5 2936.85,-112.5"/>
<text text-anchor="middle" x="2972.35" y="-119.5" font-family="Helvetica,sans-Serif" font-size="10.00">mutt_body.c</text>
</a>
</g>
</g>
<!-- Node1&#45;&gt;Node49 -->
<g id="edge139" class="edge"><title>Node1&#45;&gt;Node49</title>
<path fill="none" stroke="midnightblue" d="M1784.12,-176.25C1970.48,-172.918 2698.59,-158.439 2926.35,-132 2929.74,-131.606 2933.26,-131.099 2936.77,-130.527"/>
<polygon fill="midnightblue" stroke="midnightblue" points="1783.83,-172.755 1773.89,-176.432 1783.95,-179.754 1783.83,-172.755"/>
</g>
<!-- Node50 -->
<g id="node50" class="node"><title>Node50</title>
<g id="a_node50"><a xlink:href="mutt__socket_8c.html" target="_top" xlink:title="NeoMutt connections. ">
<polygon fill="white" stroke="black" points="3025.85,-112.5 3025.85,-131.5 3104.85,-131.5 3104.85,-112.5 3025.85,-112.5"/>
<text text-anchor="middle" x="3065.35" y="-119.5" font-family="Helvetica,sans-Serif" font-size="10.00">mutt_socket.c</text>
</a>
</g>
</g>
<!-- Node1&#45;&gt;Node50 -->
<g id="edge146" class="edge"><title>Node1&#45;&gt;Node50</title>
<path fill="none" stroke="midnightblue" d="M1784.24,-176.316C1979.42,-173.14 2769.81,-158.843 3016.35,-132 3019.44,-131.663 3022.64,-131.243 3025.84,-130.769"/>
<polygon fill="midnightblue" stroke="midnightblue" points="1784.02,-172.819 1774.08,-176.48 1784.13,-179.818 1784.02,-172.819"/>
</g>
<!-- Node3&#45;&gt;Node2 -->
<g id="edge3" class="edge"><title>Node3&#45;&gt;Node2</title>
<path fill="none" stroke="midnightblue" d="M1899.61,-112.583C1938.3,-102.492 2002.77,-85.672 2041.65,-75.5299"/>
<polygon fill="midnightblue" stroke="midnightblue" points="1898.69,-109.207 1889.89,-115.118 1900.45,-115.981 1898.69,-109.207"/>
</g>
<!-- Node3&#45;&gt;Node4 -->
<g id="edge4" class="edge"><title>Node3&#45;&gt;Node4</title>
<path fill="none" stroke="midnightblue" d="M1834.38,-119.199C1765.59,-115.023 1601.99,-102.915 1467.35,-76 1464.6,-75.4508 1461.74,-74.7727 1458.92,-74.0372"/>
<polygon fill="midnightblue" stroke="midnightblue" points="1834.39,-122.706 1844.58,-119.802 1834.81,-115.718 1834.39,-122.706"/>
</g>
<!-- Node3&#45;&gt;Node5 -->
<g id="edge5" class="edge"><title>Node3&#45;&gt;Node5</title>
<path fill="none" stroke="midnightblue" d="M1900.05,-115.697C1962.51,-105.569 2098.36,-83.5387 2163.74,-72.9358"/>
<polygon fill="midnightblue" stroke="midnightblue" points="1899.28,-112.275 1889.97,-117.331 1900.4,-119.185 1899.28,-112.275"/>
</g>
<!-- Node3&#45;&gt;Node6 -->
<g id="edge6" class="edge"><title>Node3&#45;&gt;Node6</title>
<path fill="none" stroke="midnightblue" d="M1896.35,-108.368C1919.58,-98.2553 1951.51,-84.3486 1971.79,-75.5164"/>
<polygon fill="midnightblue" stroke="midnightblue" points="1894.77,-105.242 1887,-112.444 1897.56,-111.66 1894.77,-105.242"/>
</g>
<!-- Node3&#45;&gt;Node7 -->
<g id="edge7" class="edge"><title>Node3&#45;&gt;Node7</title>
<path fill="none" stroke="midnightblue" d="M1899.95,-118.214C2008.44,-108.932 2351.77,-79.4448 2375.35,-76 2378.28,-75.5717 2381.31,-75.0723 2384.35,-74.5322"/>
<polygon fill="midnightblue" stroke="midnightblue" points="1899.58,-114.733 1889.92,-119.073 1900.18,-121.708 1899.58,-114.733"/>
</g>
<!-- Node3&#45;&gt;Node8 -->
<g id="edge8" class="edge"><title>Node3&#45;&gt;Node8</title>
<path fill="none" stroke="midnightblue" d="M1834.25,-118.39C1773.12,-113.179 1638.56,-99.8805 1527.35,-76 1524.26,-75.3379 1521.04,-74.5138 1517.89,-73.6351"/>
<polygon fill="midnightblue" stroke="midnightblue" points="1834.19,-121.897 1844.45,-119.242 1834.78,-114.922 1834.19,-121.897"/>
</g>
<!-- Node3&#45;&gt;Node9 -->
<g id="edge9" class="edge"><title>Node3&#45;&gt;Node9</title>
<path fill="none" stroke="midnightblue" d="M1900.27,-117.713C1979.55,-109.695 2179.36,-88.852 2245.35,-76 2248.38,-75.4096 2251.54,-74.6877 2254.65,-73.9122"/>
<polygon fill="midnightblue" stroke="midnightblue" points="1899.51,-114.272 1889.91,-118.757 1900.21,-121.236 1899.51,-114.272"/>
</g>
<!-- Node3&#45;&gt;Node10 -->
<g id="edge10" class="edge"><title>Node3&#45;&gt;Node10</title>
<path fill="none" stroke="midnightblue" d="M1870.15,-102.101C1871.48,-93.1357 1873,-82.8579 1874.05,-75.7511"/>
<polygon fill="midnightblue" stroke="midnightblue" points="1866.67,-101.678 1868.67,-112.083 1873.6,-102.704 1866.67,-101.678"/>
</g>
<!-- Node3&#45;&gt;Node11 -->
<g id="edge11" class="edge"><title>Node3&#45;&gt;Node11</title>
<path fill="none" stroke="midnightblue" d="M1834.68,-118.978C1699.34,-110.589 1188.88,-78.8284 1172.35,-76 1169.5,-75.5135 1166.55,-74.8737 1163.64,-74.1591"/>
<polygon fill="midnightblue" stroke="midnightblue" points="1834.64,-122.482 1844.83,-119.607 1835.07,-115.495 1834.64,-122.482"/>
</g>
<!-- Node3&#45;&gt;Node12 -->
<g id="edge12" class="edge"><title>Node3&#45;&gt;Node12</title>
<path fill="none" stroke="midnightblue" d="M1885.69,-105.501C1894.22,-97.4564 1903.88,-87.0181 1910.35,-76 1921.22,-57.466 1926.74,-32.4319 1929.03,-19.5078"/>
<polygon fill="midnightblue" stroke="midnightblue" points="1883.09,-103.13 1878,-112.421 1887.77,-108.333 1883.09,-103.13"/>
</g>
<!-- Node3&#45;&gt;Node13 -->
<g id="edge13" class="edge"><title>Node3&#45;&gt;Node13</title>
<path fill="none" stroke="midnightblue" d="M1900.09,-117.989C1995.71,-109.152 2270.28,-83.4452 2310.35,-76 2313.5,-75.4141 2316.79,-74.6749 2320.02,-73.8732"/>
<polygon fill="midnightblue" stroke="midnightblue" points="1899.75,-114.505 1890.12,-118.91 1900.39,-121.476 1899.75,-114.505"/>
</g>
<!-- Node3&#45;&gt;Node14 -->
<g id="edge14" class="edge"><title>Node3&#45;&gt;Node14</title>
<path fill="none" stroke="midnightblue" d="M1834.55,-119.011C1726.19,-112.364 1380.24,-90.5238 1269.35,-76 1266.66,-75.6477 1263.89,-75.2428 1261.11,-74.804"/>
<polygon fill="midnightblue" stroke="midnightblue" points="1834.37,-122.507 1844.57,-119.624 1834.8,-115.52 1834.37,-122.507"/>
</g>
<!-- Node15&#45;&gt;Node2 -->
<g id="edge16" class="edge"><title>Node15&#45;&gt;Node2</title>
<path fill="none" stroke="midnightblue" d="M1470.68,-118.811C1585.12,-112.168 1923.06,-91.7328 2032.35,-76 2035.3,-75.575 2038.35,-75.063 2041.41,-74.5017"/>
<polygon fill="midnightblue" stroke="midnightblue" points="1470.41,-115.321 1460.63,-119.392 1470.82,-122.309 1470.41,-115.321"/>
</g>
<!-- Node15&#45;&gt;Node4 -->
<g id="edge17" class="edge"><title>Node15&#45;&gt;Node4</title>
<path fill="none" stroke="midnightblue" d="M1433.75,-102.101C1434.41,-93.1357 1435.17,-82.8579 1435.7,-75.7511"/>
<polygon fill="midnightblue" stroke="midnightblue" points="1430.26,-101.852 1433.01,-112.083 1437.24,-102.369 1430.26,-101.852"/>
</g>
<!-- Node15&#45;&gt;Node5 -->
<g id="edge20" class="edge"><title>Node15&#45;&gt;Node5</title>
<path fill="none" stroke="midnightblue" d="M1470.65,-119.011C1574.48,-113.503 1870.06,-97.0576 2115.35,-76 2131.17,-74.6419 2148.61,-72.8468 2163.56,-71.2172"/>
<polygon fill="midnightblue" stroke="midnightblue" points="1470.15,-115.532 1460.35,-119.555 1470.52,-122.522 1470.15,-115.532"/>
</g>
<!-- Node15&#45;&gt;Node6 -->
<g id="edge22" class="edge"><title>Node15&#45;&gt;Node6</title>
<path fill="none" stroke="midnightblue" d="M1470.6,-117.619C1551.7,-110.401 1746.88,-92.7753 1910.35,-76 1926.25,-74.3679 1943.9,-72.423 1958.65,-70.7596"/>
<polygon fill="midnightblue" stroke="midnightblue" points="1470.03,-114.155 1460.38,-118.527 1470.65,-121.128 1470.03,-114.155"/>
</g>
<!-- Node15&#45;&gt;Node7 -->
<g id="edge26" class="edge"><title>Node15&#45;&gt;Node7</title>
<path fill="none" stroke="midnightblue" d="M1470.45,-119.201C1646.13,-110.906 2369.63,-76.7165 2375.35,-76 2378.13,-75.6508 2381,-75.2219 2383.88,-74.7425"/>
<polygon fill="midnightblue" stroke="midnightblue" points="1470.21,-115.709 1460.38,-119.677 1470.54,-122.701 1470.21,-115.709"/>
</g>
<!-- Node15&#45;&gt;Node8 -->
<g id="edge27" class="edge"><title>Node15&#45;&gt;Node8</title>
<path fill="none" stroke="midnightblue" d="M1450.62,-105.82C1462.26,-96.1452 1476.95,-83.9481 1486.71,-75.8339"/>
<polygon fill="midnightblue" stroke="midnightblue" points="1448.25,-103.242 1442.79,-112.324 1452.72,-108.626 1448.25,-103.242"/>
</g>
<!-- Node15&#45;&gt;Node9 -->
<g id="edge29" class="edge"><title>Node15&#45;&gt;Node9</title>
<path fill="none" stroke="midnightblue" d="M1470.74,-119.101C1626.76,-111.354 2206.73,-82.263 2245.35,-76 2248.4,-75.5057 2251.57,-74.8408 2254.69,-74.0951"/>
<polygon fill="midnightblue" stroke="midnightblue" points="1470.49,-115.609 1460.67,-119.6 1470.83,-122.6 1470.49,-115.609"/>
</g>
<!-- Node15&#45;&gt;Node10 -->
<g id="edge33" class="edge"><title>Node15&#45;&gt;Node10</title>
<path fill="none" stroke="midnightblue" d="M1470.69,-118.493C1543.14,-113.374 1704.96,-100.114 1839.35,-76 1842.39,-75.4538 1845.56,-74.7961 1848.7,-74.0878"/>
<polygon fill="midnightblue" stroke="midnightblue" points="1470.39,-115.005 1460.66,-119.19 1470.88,-121.988 1470.39,-115.005"/>
</g>
<!-- Node15&#45;&gt;Node11 -->
<g id="edge35" class="edge"><title>Node15&#45;&gt;Node11</title>
<path fill="none" stroke="midnightblue" d="M1394.17,-115.648C1343.27,-108.228 1250.51,-93.7065 1172.35,-76 1169.53,-75.3625 1166.6,-74.6307 1163.69,-73.8657"/>
<polygon fill="midnightblue" stroke="midnightblue" points="1393.67,-119.114 1404.07,-117.08 1394.68,-112.186 1393.67,-119.114"/>
</g>
<!-- Node15&#45;&gt;Node13 -->
<g id="edge40" class="edge"><title>Node15&#45;&gt;Node13</title>
<path fill="none" stroke="midnightblue" d="M1471.08,-119.128C1638.11,-111.042 2289.33,-79.364 2310.35,-76 2313.51,-75.4931 2316.81,-74.7996 2320.05,-74.0208"/>
<polygon fill="midnightblue" stroke="midnightblue" points="1470.61,-115.647 1460.79,-119.626 1470.95,-122.639 1470.61,-115.647"/>
</g>
<!-- Node15&#45;&gt;Node14 -->
<g id="edge44" class="edge"><title>Node15&#45;&gt;Node14</title>
<path fill="none" stroke="midnightblue" d="M1394.47,-111.307C1354.68,-101.124 1292.71,-85.2632 1254.71,-75.5371"/>
<polygon fill="midnightblue" stroke="midnightblue" points="1393.77,-114.741 1404.33,-113.829 1395.51,-107.959 1393.77,-114.741"/>
</g>
<!-- Node15&#45;&gt;Node16 -->
<g id="edge18" class="edge"><title>Node15&#45;&gt;Node16</title>
<path fill="none" stroke="midnightblue" d="M1470.75,-119.142C1509.32,-117.288 1570.45,-114.38 1623.35,-112 1996.65,-95.2058 2093.06,-126.225 2463.35,-76 2466.38,-75.5891 2469.52,-75.0535 2472.64,-74.4483"/>
<polygon fill="midnightblue" stroke="midnightblue" points="1470.32,-115.659 1460.5,-119.636 1470.66,-122.651 1470.32,-115.659"/>
</g>
<!-- Node15&#45;&gt;Node17 -->
<g id="edge19" class="edge"><title>Node15&#45;&gt;Node17</title>
<path fill="none" stroke="midnightblue" d="M1461.74,-108.503C1485.55,-98.3795 1518.45,-84.388 1539.32,-75.5164"/>
<polygon fill="midnightblue" stroke="midnightblue" points="1460.3,-105.31 1452.47,-112.444 1463.04,-111.751 1460.3,-105.31"/>
</g>
<!-- Node15&#45;&gt;Node18 -->
<g id="edge21" class="edge"><title>Node15&#45;&gt;Node18</title>
<path fill="none" stroke="midnightblue" d="M1394.15,-120.629C1203.9,-118.641 357.454,-108.115 96.347,-76 93.3864,-75.6359 90.3256,-75.1658 87.2682,-74.6318"/>
<polygon fill="midnightblue" stroke="midnightblue" points="1394.19,-124.129 1404.22,-120.733 1394.26,-117.13 1394.19,-124.129"/>
</g>
<!-- Node15&#45;&gt;Node19 -->
<g id="edge23" class="edge"><title>Node15&#45;&gt;Node19</title>
<path fill="none" stroke="midnightblue" d="M1394.19,-119.234C1308.42,-114.922 1093.97,-102.238 916.347,-76 913.48,-75.5765 910.516,-75.0804 907.548,-74.5426"/>
<polygon fill="midnightblue" stroke="midnightblue" points="1394.08,-122.732 1404.24,-119.73 1394.43,-115.741 1394.08,-122.732"/>
</g>
<!-- Node15&#45;&gt;Node20 -->
<g id="edge24" class="edge"><title>Node15&#45;&gt;Node20</title>
<path fill="none" stroke="midnightblue" d="M1394.17,-120.877C1209.43,-120.092 407.047,-114.488 160.347,-76 157.496,-75.5552 154.538,-74.9408 151.623,-74.2401"/>
<polygon fill="midnightblue" stroke="midnightblue" points="1394.21,-124.377 1404.22,-120.917 1394.24,-117.377 1394.21,-124.377"/>
</g>
<!-- Node15&#45;&gt;Node21 -->
<g id="edge25" class="edge"><title>Node15&#45;&gt;Node21</title>
<path fill="none" stroke="midnightblue" d="M1394.23,-120.161C1298.74,-117.625 1041.83,-108.115 830.347,-76 827.324,-75.541 824.188,-74.9739 821.068,-74.3494"/>
<polygon fill="midnightblue" stroke="midnightblue" points="1394.19,-123.661 1404.27,-120.418 1394.36,-116.663 1394.19,-123.661"/>
</g>
<!-- Node15&#45;&gt;Node22 -->
<g id="edge28" class="edge"><title>Node15&#45;&gt;Node22</title>
<path fill="none" stroke="midnightblue" d="M1393.98,-120.561C1215.88,-118.371 468.685,-107.445 237.347,-76 234.66,-75.6347 231.885,-75.1639 229.115,-74.6294"/>
<polygon fill="midnightblue" stroke="midnightblue" points="1394.13,-124.063 1404.17,-120.685 1394.21,-117.064 1394.13,-124.063"/>
</g>
<!-- Node15&#45;&gt;Node23 -->
<g id="edge30" class="edge"><title>Node15&#45;&gt;Node23</title>
<path fill="none" stroke="midnightblue" d="M1470.83,-117.651C1534.43,-111.734 1665.29,-97.9411 1774.35,-76 1777.49,-75.3675 1780.78,-74.6014 1784,-73.7862"/>
<polygon fill="midnightblue" stroke="midnightblue" points="1470.13,-114.201 1460.49,-118.599 1470.77,-121.172 1470.13,-114.201"/>
</g>
<!-- Node15&#45;&gt;Node24 -->
<g id="edge31" class="edge"><title>Node15&#45;&gt;Node24</title>
<path fill="none" stroke="midnightblue" d="M1394.18,-120.637C1222.58,-118.825 521.345,-109.476 304.347,-76 301.647,-75.5835 298.852,-75.0261 296.083,-74.3919"/>
<polygon fill="midnightblue" stroke="midnightblue" points="1394.22,-124.137 1404.26,-120.741 1394.29,-117.137 1394.22,-124.137"/>
</g>
<!-- Node15&#45;&gt;Node25 -->
<g id="edge32" class="edge"><title>Node15&#45;&gt;Node25</title>
<path fill="none" stroke="midnightblue" d="M1403.19,-108.503C1379.57,-98.3795 1346.92,-84.388 1326.22,-75.5164"/>
<polygon fill="midnightblue" stroke="midnightblue" points="1401.81,-111.721 1412.38,-112.444 1404.57,-105.287 1401.81,-111.721"/>
</g>
<!-- Node15&#45;&gt;Node26 -->
<g id="edge34" class="edge"><title>Node15&#45;&gt;Node26</title>
<path fill="none" stroke="midnightblue" d="M1415.43,-105.253C1405.14,-95.6731 1392.38,-83.7906 1383.84,-75.8339"/>
<polygon fill="midnightblue" stroke="midnightblue" points="1413.32,-108.071 1423.03,-112.324 1418.09,-102.948 1413.32,-108.071"/>
</g>
<!-- Node15&#45;&gt;Node27 -->
<g id="edge36" class="edge"><title>Node15&#45;&gt;Node27</title>
<path fill="none" stroke="midnightblue" d="M1470.75,-119.102C1509.32,-117.216 1570.45,-114.285 1623.35,-112 1827.09,-103.201 2339.35,-110.518 2540.35,-76 2543.57,-75.4468 2546.93,-74.6336 2550.18,-73.7189"/>
<polygon fill="midnightblue" stroke="midnightblue" points="1470.32,-115.619 1460.5,-119.604 1470.66,-122.61 1470.32,-115.619"/>
</g>
<!-- Node15&#45;&gt;Node28 -->
<g id="edge38" class="edge"><title>Node15&#45;&gt;Node28</title>
<path fill="none" stroke="midnightblue" d="M1470.4,-110.621C1508.41,-100.256 1566.02,-84.5431 1600.74,-75.0752"/>
<polygon fill="midnightblue" stroke="midnightblue" points="1469.44,-107.255 1460.72,-113.263 1471.28,-114.009 1469.44,-107.255"/>
</g>
<!-- Node15&#45;&gt;Node29 -->
<g id="edge39" class="edge"><title>Node15&#45;&gt;Node29</title>
<path fill="none" stroke="midnightblue" d="M1470.75,-119.038C1509.31,-117.104 1570.44,-114.136 1623.35,-112 2099.23,-92.791 2222.11,-137.835 2694.35,-76 2697.38,-75.603 2700.52,-75.0767 2703.64,-74.4771"/>
<polygon fill="midnightblue" stroke="midnightblue" points="1470.31,-115.556 1460.5,-119.555 1470.66,-122.547 1470.31,-115.556"/>
</g>
<!-- Node15&#45;&gt;Node30 -->
<g id="edge41" class="edge"><title>Node15&#45;&gt;Node30</title>
<path fill="none" stroke="midnightblue" d="M1470.73,-114.293C1535.11,-103.042 1663.08,-80.6774 1716.75,-71.2977"/>
<polygon fill="midnightblue" stroke="midnightblue" points="1469.84,-110.895 1460.59,-116.065 1471.04,-117.791 1469.84,-110.895"/>
</g>
<!-- Node15&#45;&gt;Node31 -->
<g id="edge42" class="edge"><title>Node15&#45;&gt;Node31</title>
<path fill="none" stroke="midnightblue" d="M1393.8,-121.123C1258.09,-121.17 789.862,-118.067 406.347,-76 403.487,-75.6863 400.545,-75.3104 397.587,-74.8927"/>
<polygon fill="midnightblue" stroke="midnightblue" points="1394.09,-124.623 1404.09,-121.113 1394.09,-117.623 1394.09,-124.623"/>
</g>
<!-- Node15&#45;&gt;Node32 -->
<g id="edge43" class="edge"><title>Node15&#45;&gt;Node32</title>
<path fill="none" stroke="midnightblue" d="M1394.05,-121.022C1266.8,-120.698 846.669,-116.418 502.347,-76 499.316,-75.6442 496.187,-75.2104 493.05,-74.7277"/>
<polygon fill="midnightblue" stroke="midnightblue" points="1394.07,-124.522 1404.08,-121.041 1394.08,-117.522 1394.07,-124.522"/>
</g>
<!-- Node15&#45;&gt;Node33 -->
<g id="edge45" class="edge"><title>Node15&#45;&gt;Node33</title>
<path fill="none" stroke="midnightblue" d="M1393.85,-116.205C1333.07,-108.512 1211.22,-92.5832 1108.35,-76 1105.44,-75.532 1102.45,-75.0295 1099.43,-74.5101"/>
<polygon fill="midnightblue" stroke="midnightblue" points="1393.76,-119.721 1404.12,-117.5 1394.63,-112.776 1393.76,-119.721"/>
</g>
<!-- Node15&#45;&gt;Node34 -->
<g id="edge46" class="edge"><title>Node15&#45;&gt;Node34</title>
<path fill="none" stroke="midnightblue" d="M1394.15,-121.261C1274.04,-121.594 893.547,-118.936 582.347,-76 579.526,-75.6109 576.611,-75.1236 573.699,-74.5784"/>
<polygon fill="midnightblue" stroke="midnightblue" points="1394.32,-124.76 1404.3,-121.224 1394.29,-117.76 1394.32,-124.76"/>
</g>
<!-- Node15&#45;&gt;Node35 -->
<g id="edge47" class="edge"><title>Node15&#45;&gt;Node35</title>
<path fill="none" stroke="midnightblue" d="M1394.29,-120.539C1283.04,-118.807 948.954,-110.856 674.347,-76 671.441,-75.6311 668.442,-75.188 665.435,-74.6988"/>
<polygon fill="midnightblue" stroke="midnightblue" points="1394.3,-124.04 1404.35,-120.688 1394.4,-117.041 1394.3,-124.04"/>
</g>
<!-- Node15&#45;&gt;Node36 -->
<g id="edge48" class="edge"><title>Node15&#45;&gt;Node36</title>
<path fill="none" stroke="midnightblue" d="M1394.09,-117.991C1319.86,-111.916 1151.18,-96.9558 1010.35,-76 1007.31,-75.5476 1004.16,-75.0379 1001.01,-74.497"/>
<polygon fill="midnightblue" stroke="midnightblue" points="1394.1,-121.503 1404.35,-118.823 1394.66,-114.526 1394.1,-121.503"/>
</g>
<!-- Node15&#45;&gt;Node37 -->
<g id="edge49" class="edge"><title>Node15&#45;&gt;Node37</title>
<path fill="none" stroke="midnightblue" d="M1394.03,-120.617C1290.18,-119.114 994.832,-111.765 752.347,-76 749.46,-75.5741 746.47,-75.0458 743.489,-74.46"/>
<polygon fill="midnightblue" stroke="midnightblue" points="1394.28,-124.12 1404.32,-120.755 1394.37,-117.121 1394.28,-124.12"/>
</g>
<!-- Node27&#45;&gt;Node12 -->
<g id="edge37" class="edge"><title>Node27&#45;&gt;Node12</title>
<path fill="none" stroke="midnightblue" d="M2540.65,-56.0577C2540.55,-56.0383 2540.45,-56.019 2540.35,-56 2310.81,-12.5034 2025.29,-10.5329 1949.53,-10.8389"/>
<polygon fill="midnightblue" stroke="midnightblue" points="2539.61,-59.408 2550.16,-58.3764 2541.27,-52.6072 2539.61,-59.408"/>
</g>
<!-- Node38&#45;&gt;Node2 -->
<g id="edge51" class="edge"><title>Node38&#45;&gt;Node2</title>
<path fill="none" stroke="midnightblue" d="M2031.53,-105.537C2042.23,-95.9087 2055.6,-83.8694 2064.53,-75.8339"/>
<polygon fill="midnightblue" stroke="midnightblue" points="2029.08,-103.033 2023.99,-112.324 2033.76,-108.236 2029.08,-103.033"/>
</g>
<!-- Node38&#45;&gt;Node5 -->
<g id="edge54" class="edge"><title>Node38&#45;&gt;Node5</title>
<path fill="none" stroke="midnightblue" d="M2053.72,-109.568C2088.81,-99.381 2139.37,-84.7034 2171.01,-75.5164"/>
<polygon fill="midnightblue" stroke="midnightblue" points="2052.45,-106.294 2043.82,-112.444 2054.4,-113.017 2052.45,-106.294"/>
</g>
<!-- Node38&#45;&gt;Node6 -->
<g id="edge55" class="edge"><title>Node38&#45;&gt;Node6</title>
<path fill="none" stroke="midnightblue" d="M2006.55,-102.69C2002.67,-93.589 1998.17,-83.0141 1995.07,-75.7511"/>
<polygon fill="midnightblue" stroke="midnightblue" points="2003.41,-104.254 2010.55,-112.083 2009.85,-101.511 2003.41,-104.254"/>
</g>
<!-- Node38&#45;&gt;Node7 -->
<g id="edge56" class="edge"><title>Node38&#45;&gt;Node7</title>
<path fill="none" stroke="midnightblue" d="M2053.99,-116.235C2141.14,-105.735 2344.17,-81.1241 2375.35,-76 2378.27,-75.5195 2381.3,-74.9834 2384.33,-74.4187"/>
<polygon fill="midnightblue" stroke="midnightblue" points="2053.46,-112.773 2043.95,-117.444 2054.3,-119.723 2053.46,-112.773"/>
</g>
<!-- Node38&#45;&gt;Node9 -->
<g id="edge57" class="edge"><title>Node38&#45;&gt;Node9</title>
<path fill="none" stroke="midnightblue" d="M2053.93,-114.207C2100.09,-106.074 2178.58,-91.5857 2245.35,-76 2248.35,-75.298 2251.5,-74.5099 2254.61,-73.6996"/>
<polygon fill="midnightblue" stroke="midnightblue" points="2053.28,-110.768 2044.03,-115.941 2054.49,-117.663 2053.28,-110.768"/>
</g>
<!-- Node38&#45;&gt;Node12 -->
<g id="edge61" class="edge"><title>Node38&#45;&gt;Node12</title>
<path fill="none" stroke="midnightblue" d="M2054.1,-111.759C2090.61,-101.377 2136.13,-82.4501 2115.35,-56 2094.82,-29.8812 1992.48,-17.0359 1949.45,-12.722"/>
<polygon fill="midnightblue" stroke="midnightblue" points="2052.84,-108.473 2044.1,-114.46 2054.66,-115.23 2052.84,-108.473"/>
</g>
<!-- Node38&#45;&gt;Node13 -->
<g id="edge63" class="edge"><title>Node38&#45;&gt;Node13</title>
<path fill="none" stroke="midnightblue" d="M2054,-116.449C2111.03,-109.569 2219.39,-95.2506 2310.35,-76 2313.48,-75.336 2316.77,-74.5517 2319.99,-73.7274"/>
<polygon fill="midnightblue" stroke="midnightblue" points="2053.47,-112.986 2043.96,-117.647 2054.3,-119.937 2053.47,-112.986"/>
</g>
<!-- Node38&#45;&gt;Node16 -->
<g id="edge52" class="edge"><title>Node38&#45;&gt;Node16</title>
<path fill="none" stroke="midnightblue" d="M2054.1,-116.201C2066.07,-114.797 2079.24,-113.294 2091.35,-112 2256.51,-94.3573 2299.41,-102.732 2463.35,-76 2466.36,-75.508 2469.5,-74.9192 2472.62,-74.2815"/>
<polygon fill="midnightblue" stroke="midnightblue" points="2053.47,-112.751 2043.95,-117.401 2054.29,-119.702 2053.47,-112.751"/>
</g>
<!-- Node38&#45;&gt;Node17 -->
<g id="edge53" class="edge"><title>Node38&#45;&gt;Node17</title>
<path fill="none" stroke="midnightblue" d="M1974.63,-117.636C1884.04,-109.822 1664.33,-90.0424 1591.35,-76 1588.51,-75.4548 1585.57,-74.7793 1582.66,-74.0451"/>
<polygon fill="midnightblue" stroke="midnightblue" points="1974.51,-121.138 1984.77,-118.507 1975.11,-114.163 1974.51,-121.138"/>
</g>
<!-- Node38&#45;&gt;Node25 -->
<g id="edge58" class="edge"><title>Node38&#45;&gt;Node25</title>
<path fill="none" stroke="midnightblue" d="M1974.65,-117.795C1952.25,-116.018 1923.74,-113.809 1898.35,-112 1651.79,-94.4393 1587.69,-113.352 1343.35,-76 1340.47,-75.5604 1337.49,-75.0061 1334.53,-74.3895"/>
<polygon fill="midnightblue" stroke="midnightblue" points="1974.55,-121.298 1984.79,-118.603 1975.1,-114.32 1974.55,-121.298"/>
</g>
<!-- Node38&#45;&gt;Node26 -->
<g id="edge59" class="edge"><title>Node38&#45;&gt;Node26</title>
<path fill="none" stroke="midnightblue" d="M1974.64,-117.873C1952.24,-116.121 1923.73,-113.91 1898.35,-112 1678.83,-95.4857 1620.84,-115.866 1404.35,-76 1401.67,-75.5076 1398.9,-74.8643 1396.17,-74.1477"/>
<polygon fill="midnightblue" stroke="midnightblue" points="1974.55,-121.376 1984.79,-118.668 1975.09,-114.398 1974.55,-121.376"/>
</g>
<!-- Node38&#45;&gt;Node27 -->
<g id="edge60" class="edge"><title>Node38&#45;&gt;Node27</title>
<path fill="none" stroke="midnightblue" d="M2054.09,-116.076C2066.05,-114.668 2079.23,-113.194 2091.35,-112 2290.58,-92.3761 2343.77,-113.9 2540.35,-76 2543.56,-75.3812 2546.91,-74.5343 2550.16,-73.606"/>
<polygon fill="midnightblue" stroke="midnightblue" points="2053.45,-112.626 2043.94,-117.287 2054.28,-119.577 2053.45,-112.626"/>
</g>
<!-- Node38&#45;&gt;Node28 -->
<g id="edge62" class="edge"><title>Node38&#45;&gt;Node28</title>
<path fill="none" stroke="midnightblue" d="M1974.22,-115.358C1896.73,-104.46 1728.1,-80.7462 1659.88,-71.1526"/>
<polygon fill="midnightblue" stroke="midnightblue" points="1974.14,-118.881 1984.53,-116.808 1975.12,-111.949 1974.14,-118.881"/>
</g>
<!-- Node38&#45;&gt;Node30 -->
<g id="edge64" class="edge"><title>Node38&#45;&gt;Node30</title>
<path fill="none" stroke="midnightblue" d="M1974.88,-114.475C1927.35,-106.407 1845.17,-91.7936 1775.35,-76 1772.37,-75.3265 1769.26,-74.5727 1766.18,-73.7958"/>
<polygon fill="midnightblue" stroke="midnightblue" points="1974.33,-117.93 1984.77,-116.143 1975.49,-111.028 1974.33,-117.93"/>
</g>
<!-- Node38&#45;&gt;Node39 -->
<g id="edge65" class="edge"><title>Node38&#45;&gt;Node39</title>
<path fill="none" stroke="midnightblue" d="M2054.08,-116.007C2066.05,-114.598 2079.22,-113.139 2091.35,-112 2315.82,-90.9076 2373.69,-104.408 2597.35,-76 2600.44,-75.6077 2603.63,-75.1477 2606.83,-74.6469"/>
<polygon fill="midnightblue" stroke="midnightblue" points="2053.44,-112.559 2043.93,-117.224 2054.28,-119.509 2053.44,-112.559"/>
</g>
<!-- Node40&#45;&gt;Node4 -->
<g id="edge67" class="edge"><title>Node40&#45;&gt;Node4</title>
<path fill="none" stroke="midnightblue" d="M1622.59,-111.043C1580.94,-102.477 1520.03,-89.4141 1467.35,-76 1464.63,-75.3086 1461.79,-74.544 1458.99,-73.7611"/>
<polygon fill="midnightblue" stroke="midnightblue" points="1621.98,-114.491 1632.48,-113.067 1623.38,-107.633 1621.98,-114.491"/>
</g>
<!-- Node40&#45;&gt;Node5 -->
<g id="edge69" class="edge"><title>Node40&#45;&gt;Node5</title>
<path fill="none" stroke="midnightblue" d="M1722.1,-116.016C1804.07,-107.789 1972.66,-90.8008 2115.35,-76 2131.14,-74.3617 2148.58,-72.5207 2163.53,-70.9325"/>
<polygon fill="midnightblue" stroke="midnightblue" points="1721.66,-112.542 1712.06,-117.023 1722.36,-119.507 1721.66,-112.542"/>
</g>
<!-- Node40&#45;&gt;Node6 -->
<g id="edge70" class="edge"><title>Node40&#45;&gt;Node6</title>
<path fill="none" stroke="midnightblue" d="M1722.27,-112.549C1788.33,-101.366 1902.93,-81.9663 1958.82,-72.5059"/>
<polygon fill="midnightblue" stroke="midnightblue" points="1721.38,-109.15 1712.1,-114.27 1722.55,-116.052 1721.38,-109.15"/>
</g>
<!-- Node40&#45;&gt;Node7 -->
<g id="edge73" class="edge"><title>Node40&#45;&gt;Node7</title>
<path fill="none" stroke="midnightblue" d="M1722.52,-118.19C1872.52,-109.733 2311.2,-84.572 2375.35,-76 2378.13,-75.6282 2381,-75.183 2383.88,-74.6924"/>
<polygon fill="midnightblue" stroke="midnightblue" points="1722.01,-114.713 1712.22,-118.77 1722.4,-121.702 1722.01,-114.713"/>
</g>
<!-- Node40&#45;&gt;Node8 -->
<g id="edge74" class="edge"><title>Node40&#45;&gt;Node8</title>
<path fill="none" stroke="midnightblue" d="M1635.04,-109.487C1599.36,-98.4783 1546.87,-82.2808 1518.1,-73.4026"/>
<polygon fill="midnightblue" stroke="midnightblue" points="1634.03,-112.839 1644.62,-112.444 1636.09,-106.151 1634.03,-112.839"/>
</g>
<!-- Node40&#45;&gt;Node9 -->
<g id="edge75" class="edge"><title>Node40&#45;&gt;Node9</title>
<path fill="none" stroke="midnightblue" d="M1722.02,-118.302C1842.04,-111.588 2145.29,-93.4145 2245.35,-76 2248.39,-75.4705 2251.56,-74.7848 2254.67,-74.0282"/>
<polygon fill="midnightblue" stroke="midnightblue" points="1721.79,-114.809 1712,-118.859 1722.18,-121.798 1721.79,-114.809"/>
</g>
<!-- Node40&#45;&gt;Node10 -->
<g id="edge77" class="edge"><title>Node40&#45;&gt;Node10</title>
<path fill="none" stroke="midnightblue" d="M1714.34,-109.829C1754.76,-99.078 1814.63,-83.1507 1848.83,-74.0537"/>
<polygon fill="midnightblue" stroke="midnightblue" points="1713.28,-106.49 1704.51,-112.444 1715.08,-113.255 1713.28,-106.49"/>
</g>
<!-- Node40&#45;&gt;Node12 -->
<g id="edge78" class="edge"><title>Node40&#45;&gt;Node12</title>
<path fill="none" stroke="midnightblue" d="M1677.47,-102.588C1682.58,-87.7091 1691.94,-67.425 1707.35,-56 1739.87,-31.8891 1863.3,-17.537 1911.19,-12.7756"/>
<polygon fill="midnightblue" stroke="midnightblue" points="1674.09,-101.675 1674.47,-112.263 1680.78,-103.747 1674.09,-101.675"/>
</g>
<!-- Node40&#45;&gt;Node13 -->
<g id="edge80" class="edge"><title>Node40&#45;&gt;Node13</title>
<path fill="none" stroke="midnightblue" d="M1722.16,-118.051C1862.22,-109.678 2253.01,-85.7439 2310.35,-76 2313.51,-75.4627 2316.8,-74.7517 2320.04,-73.9641"/>
<polygon fill="midnightblue" stroke="midnightblue" points="1721.9,-114.56 1712.13,-118.649 1722.32,-121.547 1721.9,-114.56"/>
</g>
<!-- Node40&#45;&gt;Node17 -->
<g id="edge68" class="edge"><title>Node40&#45;&gt;Node17</title>
<path fill="none" stroke="midnightblue" d="M1645.34,-108.096C1624.23,-98.0073 1595.49,-84.2697 1577.17,-75.5164"/>
<polygon fill="midnightblue" stroke="midnightblue" points="1643.91,-111.29 1654.44,-112.444 1646.93,-104.974 1643.91,-111.29"/>
</g>
<!-- Node40&#45;&gt;Node19 -->
<g id="edge71" class="edge"><title>Node40&#45;&gt;Node19</title>
<path fill="none" stroke="midnightblue" d="M1622.17,-118.443C1464.58,-110.351 985.857,-85.2919 916.347,-76 913.474,-75.616 910.507,-75.1477 907.536,-74.6285"/>
<polygon fill="midnightblue" stroke="midnightblue" points="1622.35,-121.956 1632.52,-118.973 1622.71,-114.965 1622.35,-121.956"/>
</g>
<!-- Node40&#45;&gt;Node21 -->
<g id="edge72" class="edge"><title>Node40&#45;&gt;Node21</title>
<path fill="none" stroke="midnightblue" d="M1622.5,-118.841C1453.51,-111.453 908.57,-87.031 830.347,-76 827.319,-75.5731 824.181,-75.027 821.058,-74.4154"/>
<polygon fill="midnightblue" stroke="midnightblue" points="1622.46,-122.343 1632.61,-119.282 1622.77,-115.35 1622.46,-122.343"/>
</g>
<!-- Node40&#45;&gt;Node23 -->
<g id="edge76" class="edge"><title>Node40&#45;&gt;Node23</title>
<path fill="none" stroke="midnightblue" d="M1703.25,-108.638C1728.59,-98.504 1763.78,-84.4274 1786.06,-75.5164"/>
<polygon fill="midnightblue" stroke="midnightblue" points="1701.72,-105.48 1693.74,-112.444 1704.32,-111.979 1701.72,-105.48"/>
</g>
<!-- Node40&#45;&gt;Node28 -->
<g id="edge79" class="edge"><title>Node40&#45;&gt;Node28</title>
<path fill="none" stroke="midnightblue" d="M1659.24,-104.144C1651.92,-94.7357 1643.11,-83.4046 1637.15,-75.7511"/>
<polygon fill="midnightblue" stroke="midnightblue" points="1656.51,-106.338 1665.41,-112.083 1662.03,-102.041 1656.51,-106.338"/>
</g>
<!-- Node40&#45;&gt;Node30 -->
<g id="edge81" class="edge"><title>Node40&#45;&gt;Node30</title>
<path fill="none" stroke="midnightblue" d="M1691.38,-106.101C1703.8,-96.3824 1719.59,-84.0269 1730.06,-75.8339"/>
<polygon fill="midnightblue" stroke="midnightblue" points="1689.15,-103.405 1683.43,-112.324 1693.47,-108.917 1689.15,-103.405"/>
</g>
<!-- Node40&#45;&gt;Node33 -->
<g id="edge82" class="edge"><title>Node40&#45;&gt;Node33</title>
<path fill="none" stroke="midnightblue" d="M1622.27,-118.723C1523.6,-113.857 1297.22,-100.815 1108.35,-76 1105.43,-75.6169 1102.43,-75.1769 1099.41,-74.7017"/>
<polygon fill="midnightblue" stroke="midnightblue" points="1622.38,-122.233 1632.54,-119.223 1622.72,-115.241 1622.38,-122.233"/>
</g>
<!-- Node40&#45;&gt;Node36 -->
<g id="edge83" class="edge"><title>Node40&#45;&gt;Node36</title>
<path fill="none" stroke="midnightblue" d="M1622.14,-118.379C1488.93,-111.3 1128.67,-91.2932 1010.35,-76 1007.3,-75.606 1004.15,-75.1378 1000.99,-74.6253"/>
<polygon fill="midnightblue" stroke="midnightblue" points="1622.28,-121.892 1632.45,-118.926 1622.65,-114.901 1622.28,-121.892"/>
</g>
<!-- Node41&#45;&gt;Node2 -->
<g id="edge85" class="edge"><title>Node41&#45;&gt;Node2</title>
<path fill="none" stroke="midnightblue" d="M2106.93,-104.431C2098.69,-94.9673 2088.69,-83.4827 2081.96,-75.7511"/>
<polygon fill="midnightblue" stroke="midnightblue" points="2104.38,-106.838 2113.59,-112.083 2109.66,-102.242 2104.38,-106.838"/>
</g>
<!-- Node41&#45;&gt;Node5 -->
<g id="edge87" class="edge"><title>Node41&#45;&gt;Node5</title>
<path fill="none" stroke="midnightblue" d="M2142.38,-106.622C2156.81,-96.7574 2175.49,-83.9919 2187.69,-75.6545"/>
<polygon fill="midnightblue" stroke="midnightblue" points="2140.32,-103.791 2134.04,-112.324 2144.27,-109.57 2140.32,-103.791"/>
</g>
<!-- Node41&#45;&gt;Node6 -->
<g id="edge88" class="edge"><title>Node41&#45;&gt;Node6</title>
<path fill="none" stroke="midnightblue" d="M2091.26,-108.503C2066.89,-98.3795 2033.21,-84.388 2011.85,-75.5164"/>
<polygon fill="midnightblue" stroke="midnightblue" points="2090.17,-111.84 2100.75,-112.444 2092.86,-105.375 2090.17,-111.84"/>
</g>
<!-- Node41&#45;&gt;Node7 -->
<g id="edge89" class="edge"><title>Node41&#45;&gt;Node7</title>
<path fill="none" stroke="midnightblue" d="M2152.14,-115.815C2199.97,-107.699 2294.98,-91.3349 2375.35,-76 2378.26,-75.4446 2381.27,-74.8559 2384.3,-74.2558"/>
<polygon fill="midnightblue" stroke="midnightblue" points="2151.4,-112.39 2142.12,-117.51 2152.57,-119.292 2151.4,-112.39"/>
</g>
<!-- Node41&#45;&gt;Node10 -->
<g id="edge91" class="edge"><title>Node41&#45;&gt;Node10</title>
<path fill="none" stroke="midnightblue" d="M2090.87,-114.309C2042.23,-103.633 1947.89,-82.9236 1901.87,-72.8228"/>
<polygon fill="midnightblue" stroke="midnightblue" points="2090.28,-117.763 2100.8,-116.489 2091.78,-110.926 2090.28,-117.763"/>
</g>
<!-- Node41&#45;&gt;Node16 -->
<g id="edge86" class="edge"><title>Node41&#45;&gt;Node16</title>
<path fill="none" stroke="midnightblue" d="M2152.2,-117.945C2212.33,-111.767 2349.34,-96.6064 2463.35,-76 2466.36,-75.4562 2469.48,-74.8335 2472.6,-74.175"/>
<polygon fill="midnightblue" stroke="midnightblue" points="2151.48,-114.499 2141.88,-118.993 2152.19,-121.463 2151.48,-114.499"/>
</g>
<!-- Node41&#45;&gt;Node23 -->
<g id="edge90" class="edge"><title>Node41&#45;&gt;Node23</title>
<path fill="none" stroke="midnightblue" d="M2090.56,-116.548C2027.79,-107.397 1886.95,-86.4561 1839.35,-76 1836.53,-75.381 1833.59,-74.6604 1830.69,-73.9017"/>
<polygon fill="midnightblue" stroke="midnightblue" points="2090.23,-120.038 2100.63,-118.014 2091.24,-113.111 2090.23,-120.038"/>
</g>
<!-- Node41&#45;&gt;Node27 -->
<g id="edge92" class="edge"><title>Node41&#45;&gt;Node27</title>
<path fill="none" stroke="midnightblue" d="M2152,-118.485C2235.52,-111.511 2465.79,-91.4205 2540.35,-76 2543.55,-75.338 2546.9,-74.4688 2550.14,-73.5315"/>
<polygon fill="midnightblue" stroke="midnightblue" points="2151.57,-115.009 2141.89,-119.325 2152.15,-121.985 2151.57,-115.009"/>
</g>
<!-- Node41&#45;&gt;Node42 -->
<g id="edge93" class="edge"><title>Node41&#45;&gt;Node42</title>
<path fill="none" stroke="midnightblue" d="M2152.07,-118.239C2173.23,-116.375 2201.98,-113.916 2227.35,-112 2468.97,-93.7495 2530.95,-106.381 2771.35,-76 2774.38,-75.6173 2777.5,-75.1642 2780.64,-74.6682"/>
<polygon fill="midnightblue" stroke="midnightblue" points="2151.71,-114.758 2142.06,-119.127 2152.33,-121.73 2151.71,-114.758"/>
</g>
<!-- Node44&#45;&gt;Node5 -->
<g id="edge99" class="edge"><title>Node44&#45;&gt;Node5</title>
<path fill="none" stroke="midnightblue" d="M2362.79,-110.427C2324.64,-100.228 2267.63,-84.986 2232.28,-75.536"/>
<polygon fill="midnightblue" stroke="midnightblue" points="2361.98,-113.831 2372.54,-113.032 2363.78,-107.068 2361.98,-113.831"/>
</g>
<!-- Node44&#45;&gt;Node7 -->
<g id="edge100" class="edge"><title>Node44&#45;&gt;Node7</title>
<path fill="none" stroke="midnightblue" d="M2408.2,-102.396C2411.05,-93.362 2414.33,-82.936 2416.59,-75.7511"/>
<polygon fill="midnightblue" stroke="midnightblue" points="2404.82,-101.493 2405.15,-112.083 2411.5,-103.596 2404.82,-101.493"/>
</g>
<!-- Node44&#45;&gt;Node9 -->
<g id="edge101" class="edge"><title>Node44&#45;&gt;Node9</title>
<path fill="none" stroke="midnightblue" d="M2373.34,-108.368C2350.12,-98.2553 2318.18,-84.3486 2297.9,-75.5164"/>
<polygon fill="midnightblue" stroke="midnightblue" points="2372.13,-111.66 2382.7,-112.444 2374.93,-105.242 2372.13,-111.66"/>
</g>
<!-- Node44&#45;&gt;Node13 -->
<g id="edge104" class="edge"><title>Node44&#45;&gt;Node13</title>
<path fill="none" stroke="midnightblue" d="M2385.45,-105.537C2374.93,-95.9087 2361.78,-83.8694 2353,-75.8339"/>
<polygon fill="midnightblue" stroke="midnightblue" points="2383.13,-108.154 2392.87,-112.324 2387.85,-102.99 2383.13,-108.154"/>
</g>
<!-- Node44&#45;&gt;Node16 -->
<g id="edge98" class="edge"><title>Node44&#45;&gt;Node16</title>
<path fill="none" stroke="midnightblue" d="M2427.43,-107.453C2445.9,-97.4835 2470.44,-84.2279 2486.32,-75.6545"/>
<polygon fill="midnightblue" stroke="midnightblue" points="2425.55,-104.493 2418.41,-112.324 2428.88,-110.652 2425.55,-104.493"/>
</g>
<!-- Node44&#45;&gt;Node27 -->
<g id="edge102" class="edge"><title>Node44&#45;&gt;Node27</title>
<path fill="none" stroke="midnightblue" d="M2438.47,-109.318C2472.81,-98.2144 2523.13,-81.9446 2550.28,-73.1649"/>
<polygon fill="midnightblue" stroke="midnightblue" points="2437.25,-106.037 2428.81,-112.444 2439.4,-112.697 2437.25,-106.037"/>
</g>
<!-- Node44&#45;&gt;Node29 -->
<g id="edge103" class="edge"><title>Node44&#45;&gt;Node29</title>
<path fill="none" stroke="midnightblue" d="M2442.16,-115.815C2498.51,-108.26 2604.67,-93.2324 2694.35,-76 2697.35,-75.423 2700.47,-74.7785 2703.58,-74.1067"/>
<polygon fill="midnightblue" stroke="midnightblue" points="2441.35,-112.391 2431.9,-117.181 2442.27,-119.33 2441.35,-112.391"/>
</g>
<!-- Node45&#45;&gt;Node7 -->
<g id="edge114" class="edge"><title>Node45&#45;&gt;Node7</title>
<path fill="none" stroke="midnightblue" d="M2494.26,-107.453C2475.8,-97.4835 2451.25,-84.2279 2435.37,-75.6545"/>
<polygon fill="midnightblue" stroke="midnightblue" points="2492.82,-110.652 2503.28,-112.324 2496.14,-104.493 2492.82,-110.652"/>
</g>
<!-- Node45&#45;&gt;Node27 -->
<g id="edge115" class="edge"><title>Node45&#45;&gt;Node27</title>
<path fill="none" stroke="midnightblue" d="M2534.42,-104.718C2543.24,-95.1997 2554.01,-83.5608 2561.24,-75.7511"/>
<polygon fill="midnightblue" stroke="midnightblue" points="2531.83,-102.367 2527.6,-112.083 2536.97,-107.123 2531.83,-102.367"/>
</g>
<!-- Node47&#45;&gt;Node9 -->
<g id="edge121" class="edge"><title>Node47&#45;&gt;Node9</title>
<path fill="none" stroke="midnightblue" d="M2277.06,-101.805C2277.39,-92.9102 2277.76,-82.7798 2278.02,-75.7511"/>
<polygon fill="midnightblue" stroke="midnightblue" points="2273.55,-101.96 2276.68,-112.083 2280.55,-102.219 2273.55,-101.96"/>
</g>
<!-- Node47&#45;&gt;Node13 -->
<g id="edge123" class="edge"><title>Node47&#45;&gt;Node13</title>
<path fill="none" stroke="midnightblue" d="M2295.18,-105.82C2307.19,-96.1452 2322.32,-83.9481 2332.39,-75.8339"/>
<polygon fill="midnightblue" stroke="midnightblue" points="2292.7,-103.324 2287.11,-112.324 2297.09,-108.774 2292.7,-103.324"/>
</g>
<!-- Node47&#45;&gt;Node27 -->
<g id="edge122" class="edge"><title>Node47&#45;&gt;Node27</title>
<path fill="none" stroke="midnightblue" d="M2326.25,-114.498C2379.63,-107.079 2466.59,-93.6506 2540.35,-76 2543.53,-75.2394 2546.87,-74.3193 2550.1,-73.3616"/>
<polygon fill="midnightblue" stroke="midnightblue" points="2325.47,-111.073 2316.04,-115.902 2326.42,-118.008 2325.47,-111.073"/>
</g>
</g>
</svg>
