<?xml version="1.0" encoding="UTF-8" standalone="no"?>
<!DOCTYPE svg PUBLIC "-//W3C//DTD SVG 1.1//EN"
 "http://www.w3.org/Graphics/SVG/1.1/DTD/svg11.dtd">
<!-- Generated by graphviz version 2.36.0 (20140111.2315)
 -->
<!-- Title: mutt_count_body_parts Pages: 1 -->
<svg width="304pt" height="122pt"
 viewBox="0.00 0.00 304.00 122.00" xmlns="http://www.w3.org/2000/svg" xmlns:xlink="http://www.w3.org/1999/xlink">
<g id="graph0" class="graph" transform="scale(1 1) rotate(0) translate(4 118)">
<title>mutt_count_body_parts</title>
<polygon fill="white" stroke="none" points="-4,4 -4,-118 300,-118 300,4 -4,4"/>
<!-- Node1 -->
<g id="node1" class="node"><title>Node1</title>
<polygon fill="#bfbfbf" stroke="black" points="0.5,-56.5 0.5,-75.5 119.5,-75.5 119.5,-56.5 0.5,-56.5"/>
<text text-anchor="middle" x="60" y="-63.5" font-family="Helvetica,sans-Serif" font-size="10.00">mutt_count_body_parts</text>
</g>
<!-- Node2 -->
<g id="node2" class="node"><title>Node2</title>
<g id="a_node2"><a xlink:href="mutt__parse_8c.html#afa9b05dc295f1a3a537fd04532252d62" target="_top" xlink:title="Parse a MIME email. ">
<polygon fill="white" stroke="red" points="156,-94.5 156,-113.5 296,-113.5 296,-94.5 156,-94.5"/>
<text text-anchor="middle" x="226" y="-101.5" font-family="Helvetica,sans-Serif" font-size="10.00">mutt_parse_mime_message</text>
</a>
</g>
</g>
<!-- Node1&#45;&gt;Node2 -->
<g id="edge1" class="edge"><title>Node1&#45;&gt;Node2</title>
<path fill="none" stroke="midnightblue" d="M102.384,-75.589C124.123,-80.6261 150.957,-86.8438 173.975,-92.1771"/>
<polygon fill="midnightblue" stroke="midnightblue" points="173.381,-95.6323 183.913,-94.4799 174.962,-88.8129 173.381,-95.6323"/>
</g>
<!-- Node3 -->
<g id="node3" class="node"><title>Node3</title>
<g id="a_node3"><a xlink:href="mutt__parse_8c.html#a7a07c80ae06f6cf47ced7b331c94e76a" target="_top" xlink:title="Count the MIME Body parts. ">
<polygon fill="white" stroke="red" points="179,-56.5 179,-75.5 273,-75.5 273,-56.5 179,-56.5"/>
<text text-anchor="middle" x="226" y="-63.5" font-family="Helvetica,sans-Serif" font-size="10.00">count_body_parts</text>
</a>
</g>
</g>
<!-- Node1&#45;&gt;Node3 -->
<g id="edge2" class="edge"><title>Node1&#45;&gt;Node3</title>
<path fill="none" stroke="midnightblue" d="M119.745,-66C135.653,-66 152.834,-66 168.61,-66"/>
<polygon fill="midnightblue" stroke="midnightblue" points="168.746,-69.5001 178.746,-66 168.746,-62.5001 168.746,-69.5001"/>
</g>
<!-- Node4 -->
<g id="node4" class="node"><title>Node4</title>
<g id="a_node4"><a xlink:href="body_8c.html#a43826190bac1662a61f5b08d915ee000" target="_top" xlink:title="Free a Body. ">
<polygon fill="white" stroke="red" points="184,-0.5 184,-19.5 268,-19.5 268,-0.5 184,-0.5"/>
<text text-anchor="middle" x="226" y="-7.5" font-family="Helvetica,sans-Serif" font-size="10.00">mutt_body_free</text>
</a>
</g>
</g>
<!-- Node1&#45;&gt;Node4 -->
<g id="edge3" class="edge"><title>Node1&#45;&gt;Node4</title>
<path fill="none" stroke="midnightblue" d="M89.1926,-56.3733C116.345,-47.1016 157.591,-33.0178 187.502,-22.804"/>
<polygon fill="midnightblue" stroke="midnightblue" points="188.843,-26.0449 197.175,-19.5011 186.581,-19.4204 188.843,-26.0449"/>
</g>
<!-- Node4&#45;&gt;Node4 -->
<g id="edge4" class="edge"><title>Node4&#45;&gt;Node4</title>
<path fill="none" stroke="midnightblue" d="M200.415,-19.7571C187.968,-28.5653 196.496,-38 226,-38 245.823,-38 256.177,-33.741 257.063,-28.2746"/>
<polygon fill="midnightblue" stroke="midnightblue" points="259.938,-26.2749 251.585,-19.7571 254.051,-30.0611 259.938,-26.2749"/>
</g>
</g>
</svg>
