<?xml version="1.0" encoding="UTF-8" standalone="no"?>
<!DOCTYPE svg PUBLIC "-//W3C//DTD SVG 1.1//EN"
 "http://www.w3.org/Graphics/SVG/1.1/DTD/svg11.dtd">
<!-- Generated by graphviz version 2.36.0 (20140111.2315)
 -->
<!-- Title: nm_msg_open Pages: 1 -->
<svg width="262pt" height="66pt"
 viewBox="0.00 0.00 262.00 66.00" xmlns="http://www.w3.org/2000/svg" xmlns:xlink="http://www.w3.org/1999/xlink">
<g id="graph0" class="graph" transform="scale(1 1) rotate(0) translate(4 62)">
<title>nm_msg_open</title>
<polygon fill="white" stroke="none" points="-4,4 -4,-62 258,-62 258,4 -4,4"/>
<!-- Node1 -->
<g id="node1" class="node"><title>Node1</title>
<polygon fill="#bfbfbf" stroke="black" points="0,-19.5 0,-38.5 80,-38.5 80,-19.5 0,-19.5"/>
<text text-anchor="middle" x="40" y="-26.5" font-family="Helvetica,sans-Serif" font-size="10.00">nm_msg_open</text>
</g>
<!-- Node2 -->
<g id="node2" class="node"><title>Node2</title>
<g id="a_node2"><a xlink:href="mutt__notmuch_8c.html#a34695fdaf9d58609e255e4fc2f942108" target="_top" xlink:title="Get the folder for a Header. ">
<polygon fill="white" stroke="black" points="128.5,-38.5 128.5,-57.5 241.5,-57.5 241.5,-38.5 128.5,-38.5"/>
<text text-anchor="middle" x="185" y="-45.5" font-family="Helvetica,sans-Serif" font-size="10.00">nm_header_get_folder</text>
</a>
</g>
</g>
<!-- Node1&#45;&gt;Node2 -->
<g id="edge1" class="edge"><title>Node1&#45;&gt;Node2</title>
<path fill="none" stroke="midnightblue" d="M80.0754,-34.1918C91.9369,-35.7678 105.309,-37.5445 118.414,-39.2858"/>
<polygon fill="midnightblue" stroke="midnightblue" points="117.98,-42.7588 128.354,-40.6065 118.902,-35.8198 117.98,-42.7588"/>
</g>
<!-- Node3 -->
<g id="node3" class="node"><title>Node3</title>
<g id="a_node3"><a xlink:href="maildir_8h.html#a8c1dd82fc41fced471926501135b95d4" target="_top" xlink:title="Find a new. ">
<polygon fill="white" stroke="red" points="116.5,-0.5 116.5,-19.5 253.5,-19.5 253.5,-0.5 116.5,-0.5"/>
<text text-anchor="middle" x="185" y="-7.5" font-family="Helvetica,sans-Serif" font-size="10.00">maildir_open_find_message</text>
</a>
</g>
</g>
<!-- Node1&#45;&gt;Node3 -->
<g id="edge2" class="edge"><title>Node1&#45;&gt;Node3</title>
<path fill="none" stroke="midnightblue" d="M80.0754,-23.8082C88.3345,-22.7108 97.326,-21.5161 106.45,-20.3039"/>
<polygon fill="midnightblue" stroke="midnightblue" points="106.922,-23.772 116.374,-18.9853 106,-16.833 106.922,-23.772"/>
</g>
</g>
</svg>
