<?xml version="1.0" encoding="UTF-8" standalone="no"?>
<!DOCTYPE svg PUBLIC "-//W3C//DTD SVG 1.1//EN"
 "http://www.w3.org/Graphics/SVG/1.1/DTD/svg11.dtd">
<!-- Generated by graphviz version 2.36.0 (20140111.2315)
 -->
<!-- Title: mutt_log_start Pages: 1 -->
<svg width="216pt" height="104pt"
 viewBox="0.00 0.00 216.00 104.00" xmlns="http://www.w3.org/2000/svg" xmlns:xlink="http://www.w3.org/1999/xlink">
<g id="graph0" class="graph" transform="scale(1 1) rotate(0) translate(4 100)">
<title>mutt_log_start</title>
<polygon fill="white" stroke="none" points="-4,4 -4,-100 212,-100 212,4 -4,4"/>
<!-- Node1 -->
<g id="node1" class="node"><title>Node1</title>
<polygon fill="#bfbfbf" stroke="black" points="0.5,-38.5 0.5,-57.5 79.5,-57.5 79.5,-38.5 0.5,-38.5"/>
<text text-anchor="middle" x="40" y="-45.5" font-family="Helvetica,sans-Serif" font-size="10.00">mutt_log_start</text>
</g>
<!-- Node2 -->
<g id="node2" class="node"><title>Node2</title>
<g id="a_node2"><a xlink:href="logging_8c.html#a466c0ad8cf2298608b1054579ece0018" target="_top" xlink:title="Is the log file running? ">
<polygon fill="white" stroke="black" points="120,-76.5 120,-95.5 204,-95.5 204,-76.5 120,-76.5"/>
<text text-anchor="middle" x="162" y="-83.5" font-family="Helvetica,sans-Serif" font-size="10.00">log_file_running</text>
</a>
</g>
</g>
<!-- Node1&#45;&gt;Node2 -->
<g id="edge1" class="edge"><title>Node1&#45;&gt;Node2</title>
<path fill="none" stroke="midnightblue" d="M71.2811,-57.589C86.3456,-62.3594 104.754,-68.1888 120.967,-73.3229"/>
<polygon fill="midnightblue" stroke="midnightblue" points="120.139,-76.7318 130.729,-76.4141 122.252,-70.0584 120.139,-76.7318"/>
</g>
<!-- Node3 -->
<g id="node3" class="node"><title>Node3</title>
<g id="a_node3"><a xlink:href="mutt__logging_8c.html#ad4f467432144a2a9f23e60eb2af9c5c2" target="_top" xlink:title="Change the logging file. ">
<polygon fill="white" stroke="red" points="116.5,-38.5 116.5,-57.5 207.5,-57.5 207.5,-38.5 116.5,-38.5"/>
<text text-anchor="middle" x="162" y="-45.5" font-family="Helvetica,sans-Serif" font-size="10.00">mutt_log_set_file</text>
</a>
</g>
</g>
<!-- Node1&#45;&gt;Node3 -->
<g id="edge2" class="edge"><title>Node1&#45;&gt;Node3</title>
<path fill="none" stroke="midnightblue" d="M79.6293,-48C88.092,-48 97.2072,-48 106.167,-48"/>
<polygon fill="midnightblue" stroke="midnightblue" points="106.175,-51.5001 116.175,-48 106.175,-44.5001 106.175,-51.5001"/>
</g>
<!-- Node4 -->
<g id="node4" class="node"><title>Node4</title>
<g id="a_node4"><a xlink:href="logging_8c.html#a50a406e73083a7cb6c976a82e532b46d" target="_top" xlink:title="Set the logging level. ">
<polygon fill="white" stroke="red" points="116,-0.5 116,-19.5 208,-19.5 208,-0.5 116,-0.5"/>
<text text-anchor="middle" x="162" y="-7.5" font-family="Helvetica,sans-Serif" font-size="10.00">log_file_set_level</text>
</a>
</g>
</g>
<!-- Node1&#45;&gt;Node4 -->
<g id="edge3" class="edge"><title>Node1&#45;&gt;Node4</title>
<path fill="none" stroke="midnightblue" d="M71.2811,-38.411C86.3456,-33.6406 104.754,-27.8112 120.967,-22.6771"/>
<polygon fill="midnightblue" stroke="midnightblue" points="122.252,-25.9416 130.729,-19.5859 120.139,-19.2682 122.252,-25.9416"/>
</g>
</g>
</svg>
