<?xml version="1.0" encoding="UTF-8" standalone="no"?>
<!DOCTYPE svg PUBLIC "-//W3C//DTD SVG 1.1//EN"
 "http://www.w3.org/Graphics/SVG/1.1/DTD/svg11.dtd">
<!-- Generated by graphviz version 2.36.0 (20140111.2315)
 -->
<!-- Title: mutt_path_tidy Pages: 1 -->
<svg width="240pt" height="66pt"
 viewBox="0.00 0.00 240.00 66.00" xmlns="http://www.w3.org/2000/svg" xmlns:xlink="http://www.w3.org/1999/xlink">
<g id="graph0" class="graph" transform="scale(1 1) rotate(0) translate(4 62)">
<title>mutt_path_tidy</title>
<polygon fill="white" stroke="none" points="-4,4 -4,-62 236,-62 236,4 -4,4"/>
<!-- Node1 -->
<g id="node1" class="node"><title>Node1</title>
<polygon fill="#bfbfbf" stroke="black" points="0.5,-19.5 0.5,-38.5 81.5,-38.5 81.5,-19.5 0.5,-19.5"/>
<text text-anchor="middle" x="41" y="-26.5" font-family="Helvetica,sans-Serif" font-size="10.00">mutt_path_tidy</text>
</g>
<!-- Node2 -->
<g id="node2" class="node"><title>Node2</title>
<g id="a_node2"><a xlink:href="mutt_2path_8c.html#af2606ce791f2d0945f814587ce870276" target="_top" xlink:title="Remove unnecessary slashes and dots. ">
<polygon fill="white" stroke="black" points="120,-38.5 120,-57.5 230,-57.5 230,-38.5 120,-38.5"/>
<text text-anchor="middle" x="175" y="-45.5" font-family="Helvetica,sans-Serif" font-size="10.00">mutt_path_tidy_slash</text>
</a>
</g>
</g>
<!-- Node1&#45;&gt;Node2 -->
<g id="edge1" class="edge"><title>Node1&#45;&gt;Node2</title>
<path fill="none" stroke="midnightblue" d="M81.6044,-34.7006C90.5095,-35.9824 100.182,-37.3747 109.804,-38.7597"/>
<polygon fill="midnightblue" stroke="midnightblue" points="109.381,-42.2348 119.778,-40.1953 110.379,-35.3062 109.381,-42.2348"/>
</g>
<!-- Node3 -->
<g id="node3" class="node"><title>Node3</title>
<g id="a_node3"><a xlink:href="mutt_2path_8c.html#a11272305d911007887e69d3c9283b897" target="_top" xlink:title="Remove dot&#45;dot&#45;slash from a path. ">
<polygon fill="white" stroke="black" points="118.5,-0.5 118.5,-19.5 231.5,-19.5 231.5,-0.5 118.5,-0.5"/>
<text text-anchor="middle" x="175" y="-7.5" font-family="Helvetica,sans-Serif" font-size="10.00">mutt_path_tidy_dotdot</text>
</a>
</g>
</g>
<!-- Node1&#45;&gt;Node3 -->
<g id="edge2" class="edge"><title>Node1&#45;&gt;Node3</title>
<path fill="none" stroke="midnightblue" d="M81.6044,-23.2994C90.0812,-22.0792 99.2535,-20.759 108.415,-19.4402"/>
<polygon fill="midnightblue" stroke="midnightblue" points="108.92,-22.9038 118.319,-18.0147 107.922,-15.9752 108.92,-22.9038"/>
</g>
</g>
</svg>
