<?xml version="1.0" encoding="UTF-8" standalone="no"?>
<!DOCTYPE svg PUBLIC "-//W3C//DTD SVG 1.1//EN"
 "http://www.w3.org/Graphics/SVG/1.1/DTD/svg11.dtd">
<!-- Generated by graphviz version 2.36.0 (20140111.2315)
 -->
<!-- Title: mutt_expand_path_regex Pages: 1 -->
<svg width="268pt" height="382pt"
 viewBox="0.00 0.00 268.00 382.00" xmlns="http://www.w3.org/2000/svg" xmlns:xlink="http://www.w3.org/1999/xlink">
<g id="graph0" class="graph" transform="scale(1 1) rotate(0) translate(4 378)">
<title>mutt_expand_path_regex</title>
<polygon fill="white" stroke="none" points="-4,4 -4,-378 264,-378 264,4 -4,4"/>
<!-- Node1 -->
<g id="node1" class="node"><title>Node1</title>
<polygon fill="#bfbfbf" stroke="black" points="0,-183.5 0,-202.5 126,-202.5 126,-183.5 0,-183.5"/>
<text text-anchor="middle" x="63" y="-190.5" font-family="Helvetica,sans-Serif" font-size="10.00">mutt_expand_path_regex</text>
</g>
<!-- Node2 -->
<g id="node2" class="node"><title>Node2</title>
<g id="a_node2"><a xlink:href="mutt_2string_8c.html#a3b8965b21d6e21536750f8883cd4333a" target="_top" xlink:title="Copy a string into a buffer (guaranteeing NUL&#45;termination) ">
<polygon fill="white" stroke="black" points="167,-354.5 167,-373.5 255,-373.5 255,-354.5 167,-354.5"/>
<text text-anchor="middle" x="211" y="-361.5" font-family="Helvetica,sans-Serif" font-size="10.00">mutt_str_strfcpy</text>
</a>
</g>
</g>
<!-- Node1&#45;&gt;Node2 -->
<g id="edge1" class="edge"><title>Node1&#45;&gt;Node2</title>
<path fill="none" stroke="midnightblue" d="M67.7208,-202.656C78.3778,-229.114 111.528,-303.554 162,-345 164.03,-346.667 166.225,-348.202 168.52,-349.612"/>
<polygon fill="midnightblue" stroke="midnightblue" points="167.251,-352.899 177.731,-354.454 170.508,-346.703 167.251,-352.899"/>
</g>
<!-- Node3 -->
<g id="node3" class="node"><title>Node3</title>
<g id="a_node3"><a xlink:href="mx_8c.html#a7cee0fd7066e1a6d816fa9bd6e3a7978" target="_top" xlink:title="Is this an IMAP mailbox. ">
<polygon fill="white" stroke="red" points="176.5,-316.5 176.5,-335.5 245.5,-335.5 245.5,-316.5 176.5,-316.5"/>
<text text-anchor="middle" x="211" y="-323.5" font-family="Helvetica,sans-Serif" font-size="10.00">mx_is_imap</text>
</a>
</g>
</g>
<!-- Node1&#45;&gt;Node3 -->
<g id="edge2" class="edge"><title>Node1&#45;&gt;Node3</title>
<path fill="none" stroke="midnightblue" d="M69.9129,-202.632C83.5833,-224.173 119.481,-276.721 162,-307 164.546,-308.813 167.289,-310.485 170.129,-312.02"/>
<polygon fill="midnightblue" stroke="midnightblue" points="168.871,-315.298 179.401,-316.465 171.896,-308.986 168.871,-315.298"/>
</g>
<!-- Node4 -->
<g id="node4" class="node"><title>Node4</title>
<g id="a_node4"><a xlink:href="mx_8c.html#ad9268dd7c422c8af3b90f489847fb5d8" target="_top" xlink:title="Is this a Notmuch mailbox. ">
<polygon fill="white" stroke="red" points="168,-278.5 168,-297.5 254,-297.5 254,-278.5 168,-278.5"/>
<text text-anchor="middle" x="211" y="-285.5" font-family="Helvetica,sans-Serif" font-size="10.00">mx_is_notmuch</text>
</a>
</g>
</g>
<!-- Node1&#45;&gt;Node4 -->
<g id="edge3" class="edge"><title>Node1&#45;&gt;Node4</title>
<path fill="none" stroke="midnightblue" d="M74.4486,-202.742C91.6286,-218.365 127.399,-249.268 162,-269 165.406,-270.942 169.05,-272.776 172.751,-274.481"/>
<polygon fill="midnightblue" stroke="midnightblue" points="171.395,-277.708 181.964,-278.443 174.161,-271.277 171.395,-277.708"/>
</g>
<!-- Node5 -->
<g id="node5" class="node"><title>Node5</title>
<g id="a_node5"><a xlink:href="alias_8c.html#ab5a91bf6ab1fcd9342e90f9da30a4954" target="_top" xlink:title="Find an Alias. ">
<polygon fill="white" stroke="red" points="163.5,-240.5 163.5,-259.5 258.5,-259.5 258.5,-240.5 163.5,-240.5"/>
<text text-anchor="middle" x="211" y="-247.5" font-family="Helvetica,sans-Serif" font-size="10.00">mutt_alias_lookup</text>
</a>
</g>
</g>
<!-- Node1&#45;&gt;Node5 -->
<g id="edge4" class="edge"><title>Node1&#45;&gt;Node5</title>
<path fill="none" stroke="midnightblue" d="M88.4371,-202.541C112.44,-211.912 149.263,-226.288 176.093,-236.762"/>
<polygon fill="midnightblue" stroke="midnightblue" points="174.895,-240.052 185.483,-240.428 177.441,-233.531 174.895,-240.052"/>
</g>
<!-- Node6 -->
<g id="node6" class="node"><title>Node6</title>
<g id="a_node6"><a xlink:href="header_8c.html#a6462f919c4f96d1a37866b16e6acb93b" target="_top" xlink:title="Create a new email Header. ">
<polygon fill="white" stroke="red" points="164,-202.5 164,-221.5 258,-221.5 258,-202.5 164,-202.5"/>
<text text-anchor="middle" x="211" y="-209.5" font-family="Helvetica,sans-Serif" font-size="10.00">mutt_header_new</text>
</a>
</g>
</g>
<!-- Node1&#45;&gt;Node6 -->
<g id="edge5" class="edge"><title>Node1&#45;&gt;Node6</title>
<path fill="none" stroke="midnightblue" d="M126.341,-201.113C135.463,-202.3 144.813,-203.517 153.803,-204.687"/>
<polygon fill="midnightblue" stroke="midnightblue" points="153.401,-208.164 163.769,-205.984 154.304,-201.222 153.401,-208.164"/>
</g>
<!-- Node7 -->
<g id="node7" class="node"><title>Node7</title>
<g id="a_node7"><a xlink:href="envelope_8c.html#a51f04365c2b348d829e7cd3710c55b5b" target="_top" xlink:title="Create a new Envelope. ">
<polygon fill="white" stroke="red" points="171,-164.5 171,-183.5 251,-183.5 251,-164.5 171,-164.5"/>
<text text-anchor="middle" x="211" y="-171.5" font-family="Helvetica,sans-Serif" font-size="10.00">mutt_env_new</text>
</a>
</g>
</g>
<!-- Node1&#45;&gt;Node7 -->
<g id="edge6" class="edge"><title>Node1&#45;&gt;Node7</title>
<path fill="none" stroke="midnightblue" d="M126.341,-184.887C137.735,-183.404 149.484,-181.875 160.443,-180.449"/>
<polygon fill="midnightblue" stroke="midnightblue" points="161.207,-183.879 170.672,-179.118 160.304,-176.938 161.207,-183.879"/>
</g>
<!-- Node8 -->
<g id="node8" class="node"><title>Node8</title>
<g id="a_node8"><a xlink:href="hook_8c.html#afe1cd5dad9961d84e9195403fcdcba0a" target="_top" xlink:title="Find the default save path for an email. ">
<polygon fill="white" stroke="red" points="162.5,-126.5 162.5,-145.5 259.5,-145.5 259.5,-126.5 162.5,-126.5"/>
<text text-anchor="middle" x="211" y="-133.5" font-family="Helvetica,sans-Serif" font-size="10.00">mutt_default_save</text>
</a>
</g>
</g>
<!-- Node1&#45;&gt;Node8 -->
<g id="edge7" class="edge"><title>Node1&#45;&gt;Node8</title>
<path fill="none" stroke="midnightblue" d="M88.4371,-183.459C112.44,-174.088 149.263,-159.712 176.093,-149.238"/>
<polygon fill="midnightblue" stroke="midnightblue" points="177.441,-152.469 185.483,-145.572 174.895,-145.948 177.441,-152.469"/>
</g>
<!-- Node9 -->
<g id="node9" class="node"><title>Node9</title>
<g id="a_node9"><a xlink:href="header_8c.html#a417d090ecf2e78b1cd86daeea31c9822" target="_top" xlink:title="Free an email Header. ">
<polygon fill="white" stroke="red" points="165,-88.5 165,-107.5 257,-107.5 257,-88.5 165,-88.5"/>
<text text-anchor="middle" x="211" y="-95.5" font-family="Helvetica,sans-Serif" font-size="10.00">mutt_header_free</text>
</a>
</g>
</g>
<!-- Node1&#45;&gt;Node9 -->
<g id="edge8" class="edge"><title>Node1&#45;&gt;Node9</title>
<path fill="none" stroke="midnightblue" d="M74.4486,-183.258C91.6286,-167.635 127.399,-136.732 162,-117 165.406,-115.058 169.05,-113.224 172.751,-111.519"/>
<polygon fill="midnightblue" stroke="midnightblue" points="174.161,-114.723 181.964,-107.557 171.395,-108.292 174.161,-114.723"/>
</g>
<!-- Node10 -->
<g id="node10" class="node"><title>Node10</title>
<g id="a_node10"><a xlink:href="file_8c.html#ac9967d7aa075619e8aa57588004cb652" target="_top" xlink:title="Escape any regex&#45;magic characters in a string. ">
<polygon fill="white" stroke="black" points="164.5,-39 164.5,-69 257.5,-69 257.5,-39 164.5,-39"/>
<text text-anchor="start" x="172.5" y="-57" font-family="Helvetica,sans-Serif" font-size="10.00">mutt_file_sanitize</text>
<text text-anchor="middle" x="211" y="-46" font-family="Helvetica,sans-Serif" font-size="10.00">_regex</text>
</a>
</g>
</g>
<!-- Node1&#45;&gt;Node10 -->
<g id="edge9" class="edge"><title>Node1&#45;&gt;Node10</title>
<path fill="none" stroke="midnightblue" d="M70.3592,-183.361C84.66,-162.257 121.304,-111.271 162,-79 163.997,-77.4164 166.11,-75.8878 168.291,-74.4202"/>
<polygon fill="midnightblue" stroke="midnightblue" points="170.277,-77.3074 176.946,-69.0752 166.599,-71.3515 170.277,-77.3074"/>
</g>
<!-- Node11 -->
<g id="node11" class="node"><title>Node11</title>
<g id="a_node11"><a xlink:href="imap_8h.html#ac73c9fa56f722a90950fe705a05a287d" target="_top" xlink:title="Canonicalise an IMAP path. ">
<polygon fill="white" stroke="red" points="162,-0.5 162,-19.5 260,-19.5 260,-0.5 162,-0.5"/>
<text text-anchor="middle" x="211" y="-7.5" font-family="Helvetica,sans-Serif" font-size="10.00">imap_expand_path</text>
</a>
</g>
</g>
<!-- Node1&#45;&gt;Node11 -->
<g id="edge10" class="edge"><title>Node1&#45;&gt;Node11</title>
<path fill="none" stroke="midnightblue" d="M67.2712,-183.492C77.1914,-155.968 109.511,-75.3108 162,-30 164.46,-27.8763 167.178,-25.9544 170.031,-24.2195"/>
<polygon fill="midnightblue" stroke="midnightblue" points="171.662,-27.3165 178.88,-19.5611 168.401,-21.1223 171.662,-27.3165"/>
</g>
</g>
</svg>
