<?xml version="1.0" encoding="UTF-8" standalone="no"?>
<!DOCTYPE svg PUBLIC "-//W3C//DTD SVG 1.1//EN"
 "http://www.w3.org/Graphics/SVG/1.1/DTD/svg11.dtd">
<!-- Generated by graphviz version 2.36.0 (20140111.2315)
 -->
<!-- Title: mutt_str_stristr Pages: 1 -->
<svg width="400pt" height="164pt"
 viewBox="0.00 0.00 400.00 164.33" xmlns="http://www.w3.org/2000/svg" xmlns:xlink="http://www.w3.org/1999/xlink">
<g id="graph0" class="graph" transform="scale(1 1) rotate(0) translate(4 160.331)">
<title>mutt_str_stristr</title>
<polygon fill="white" stroke="none" points="-4,4 -4,-160.331 396,-160.331 396,4 -4,4"/>
<!-- Node1 -->
<g id="node1" class="node"><title>Node1</title>
<polygon fill="#bfbfbf" stroke="black" points="0.5,-60.8315 0.5,-79.8315 83.5,-79.8315 83.5,-60.8315 0.5,-60.8315"/>
<text text-anchor="middle" x="42" y="-67.8315" font-family="Helvetica,sans-Serif" font-size="10.00">mutt_str_stristr</text>
</g>
<!-- Node2 -->
<g id="node2" class="node"><title>Node2</title>
<g id="a_node2"><a xlink:href="history_8h.html#a005f30de35d49e92f06bfb4289722dce" target="_top" xlink:title="Find matches in a history list. ">
<polygon fill="white" stroke="red" points="133,-136.831 133,-155.831 225,-155.831 225,-136.831 133,-136.831"/>
<text text-anchor="middle" x="179" y="-143.831" font-family="Helvetica,sans-Serif" font-size="10.00">mutt_hist_search</text>
</a>
</g>
</g>
<!-- Node1&#45;&gt;Node2 -->
<g id="edge1" class="edge"><title>Node1&#45;&gt;Node2</title>
<path fill="none" stroke="midnightblue" d="M61.651,-86.8263C76.5803,-99.3397 98.5072,-116.227 120,-127.331 127.06,-130.979 134.962,-134.121 142.606,-136.739"/>
<polygon fill="midnightblue" stroke="midnightblue" points="63.5982,-83.8858 53.7257,-80.0406 59.0455,-89.2031 63.5982,-83.8858"/>
</g>
<!-- Node3 -->
<g id="node3" class="node"><title>Node3</title>
<g id="a_node3"><a xlink:href="crypt__gpgme_8c.html#ab76dd341f3dafb968e9467a0cfb8b4ca" target="_top" xlink:title="Find a key by string. ">
<polygon fill="white" stroke="red" points="131.5,-98.8315 131.5,-117.831 226.5,-117.831 226.5,-98.8315 131.5,-98.8315"/>
<text text-anchor="middle" x="179" y="-105.831" font-family="Helvetica,sans-Serif" font-size="10.00">crypt_getkeybystr</text>
</a>
</g>
</g>
<!-- Node1&#45;&gt;Node3 -->
<g id="edge2" class="edge"><title>Node1&#45;&gt;Node3</title>
<path fill="none" stroke="midnightblue" d="M86.7625,-82.6498C105.311,-87.8708 126.599,-93.8631 143.945,-98.7455"/>
<polygon fill="midnightblue" stroke="midnightblue" points="87.6405,-79.261 77.0662,-79.9205 85.7438,-85.9992 87.6405,-79.261"/>
</g>
<!-- Node4 -->
<g id="node4" class="node"><title>Node4</title>
<g id="a_node4"><a xlink:href="pgpkey_8h.html#aa82025cf02aa8e7738d82ffe4463ba1f" target="_top" xlink:title="Find a PGP key by string. ">
<polygon fill="white" stroke="red" points="134.5,-60.8315 134.5,-79.8315 223.5,-79.8315 223.5,-60.8315 134.5,-60.8315"/>
<text text-anchor="middle" x="179" y="-67.8315" font-family="Helvetica,sans-Serif" font-size="10.00">pgp_getkeybystr</text>
</a>
</g>
</g>
<!-- Node1&#45;&gt;Node4 -->
<g id="edge3" class="edge"><title>Node1&#45;&gt;Node4</title>
<path fill="none" stroke="midnightblue" d="M93.5158,-70.3315C106.9,-70.3315 121.237,-70.3315 134.231,-70.3315"/>
<polygon fill="midnightblue" stroke="midnightblue" points="93.5045,-66.8316 83.5045,-70.3315 93.5044,-73.8316 93.5045,-66.8316"/>
</g>
<!-- Node5 -->
<g id="node5" class="node"><title>Node5</title>
<g id="a_node5"><a xlink:href="smime_8c.html#ac837837a2c391aa397d1ae2f427a2ac2" target="_top" xlink:title="Find keys matching a string. ">
<polygon fill="white" stroke="red" points="120.5,-22.8315 120.5,-41.8315 237.5,-41.8315 237.5,-22.8315 120.5,-22.8315"/>
<text text-anchor="middle" x="179" y="-29.8315" font-family="Helvetica,sans-Serif" font-size="10.00">smime_get_candidates</text>
</a>
</g>
</g>
<!-- Node1&#45;&gt;Node5 -->
<g id="edge4" class="edge"><title>Node1&#45;&gt;Node5</title>
<path fill="none" stroke="midnightblue" d="M86.7625,-58.0132C105.311,-52.7922 126.599,-46.7999 143.945,-41.9174"/>
<polygon fill="midnightblue" stroke="midnightblue" points="85.7438,-54.6638 77.0662,-60.7425 87.6405,-61.402 85.7438,-54.6638"/>
</g>
<!-- Node6 -->
<g id="node6" class="node"><title>Node6</title>
<g id="a_node6"><a xlink:href="smime_8c.html#a889d687dcc99f2b8ae1bacc990a95124" target="_top" xlink:title="Find an SMIME key by string. ">
<polygon fill="white" stroke="red" points="274,-3.83148 274,-22.8315 392,-22.8315 392,-3.83148 274,-3.83148"/>
<text text-anchor="middle" x="333" y="-10.8315" font-family="Helvetica,sans-Serif" font-size="10.00">smime_get_key_by_str</text>
</a>
</g>
</g>
<!-- Node1&#45;&gt;Node6 -->
<g id="edge6" class="edge"><title>Node1&#45;&gt;Node6</title>
<path fill="none" stroke="midnightblue" d="M58.9473,-53.6401C73.3847,-39.8301 96.0111,-21.2444 120,-13.3315 170.332,3.27106 231.119,1.19574 274.673,-3.79799"/>
<polygon fill="midnightblue" stroke="midnightblue" points="56.4436,-51.1939 51.8124,-60.7229 61.3752,-56.1617 56.4436,-51.1939"/>
</g>
<!-- Node5&#45;&gt;Node6 -->
<g id="edge5" class="edge"><title>Node5&#45;&gt;Node6</title>
<path fill="none" stroke="midnightblue" d="M247.927,-23.8406C256.548,-22.763 265.309,-21.6679 273.759,-20.6116"/>
<polygon fill="midnightblue" stroke="midnightblue" points="247.387,-20.3808 237.898,-25.0942 248.255,-27.3267 247.387,-20.3808"/>
</g>
</g>
</svg>
