<?xml version="1.0" encoding="UTF-8" standalone="no"?>
<!DOCTYPE svg PUBLIC "-//W3C//DTD SVG 1.1//EN"
 "http://www.w3.org/Graphics/SVG/1.1/DTD/svg11.dtd">
<!-- Generated by graphviz version 2.36.0 (20140111.2315)
 -->
<!-- Title: nm_longrun_init Pages: 1 -->
<svg width="374pt" height="104pt"
 viewBox="0.00 0.00 374.00 104.00" xmlns="http://www.w3.org/2000/svg" xmlns:xlink="http://www.w3.org/1999/xlink">
<g id="graph0" class="graph" transform="scale(1 1) rotate(0) translate(4 100)">
<title>nm_longrun_init</title>
<polygon fill="white" stroke="none" points="-4,4 -4,-100 370,-100 370,4 -4,4"/>
<!-- Node1 -->
<g id="node1" class="node"><title>Node1</title>
<polygon fill="#bfbfbf" stroke="black" points="0.5,-38.5 0.5,-57.5 85.5,-57.5 85.5,-38.5 0.5,-38.5"/>
<text text-anchor="middle" x="43" y="-45.5" font-family="Helvetica,sans-Serif" font-size="10.00">nm_longrun_init</text>
</g>
<!-- Node2 -->
<g id="node2" class="node"><title>Node2</title>
<g id="a_node2"><a xlink:href="commands_8h.html#aba91885b9f8d6c999aa5028baa845fa6" target="_top" xlink:title="Save an email. ">
<polygon fill="white" stroke="red" points="125.5,-76.5 125.5,-95.5 232.5,-95.5 232.5,-76.5 125.5,-76.5"/>
<text text-anchor="middle" x="179" y="-83.5" font-family="Helvetica,sans-Serif" font-size="10.00">mutt_save_message</text>
</a>
</g>
</g>
<!-- Node1&#45;&gt;Node2 -->
<g id="edge1" class="edge"><title>Node1&#45;&gt;Node2</title>
<path fill="none" stroke="midnightblue" d="M87.4383,-60.3183C105.849,-65.5393 126.98,-71.5316 144.197,-76.4141"/>
<polygon fill="midnightblue" stroke="midnightblue" points="88.3894,-56.9501 77.8139,-57.589 86.4796,-63.6845 88.3894,-56.9501"/>
</g>
<!-- Node3 -->
<g id="node3" class="node"><title>Node3</title>
<g id="a_node3"><a xlink:href="curs__main_8h.html#af7d9d8649ad205788c9af1bbf871207f" target="_top" xlink:title="Display a list of emails. ">
<polygon fill="white" stroke="red" points="272,-57.5 272,-76.5 366,-76.5 366,-57.5 272,-57.5"/>
<text text-anchor="middle" x="319" y="-64.5" font-family="Helvetica,sans-Serif" font-size="10.00">mutt_index_menu</text>
</a>
</g>
</g>
<!-- Node1&#45;&gt;Node3 -->
<g id="edge3" class="edge"><title>Node1&#45;&gt;Node3</title>
<path fill="none" stroke="midnightblue" d="M95.7164,-51.5862C146.464,-55.1051 223.133,-60.4216 271.866,-63.8009"/>
<polygon fill="midnightblue" stroke="midnightblue" points="95.8329,-48.0859 85.6147,-50.8857 95.3486,-55.0692 95.8329,-48.0859"/>
</g>
<!-- Node4 -->
<g id="node4" class="node"><title>Node4</title>
<g id="a_node4"><a xlink:href="init_8c.html#a60382d35e2f0edeb0b736323d76894fd" target="_top" xlink:title="Pass a list of Notmuch tags to the completion code. ">
<polygon fill="white" stroke="red" points="122,-0.5 122,-19.5 236,-19.5 236,-0.5 122,-0.5"/>
<text text-anchor="middle" x="179" y="-7.5" font-family="Helvetica,sans-Serif" font-size="10.00">complete_all_nm_tags</text>
</a>
</g>
</g>
<!-- Node1&#45;&gt;Node4 -->
<g id="edge4" class="edge"><title>Node1&#45;&gt;Node4</title>
<path fill="none" stroke="midnightblue" d="M87.4383,-35.6817C105.849,-30.4607 126.98,-24.4684 144.197,-19.5859"/>
<polygon fill="midnightblue" stroke="midnightblue" points="86.4796,-32.3155 77.8139,-38.411 88.3894,-39.0499 86.4796,-32.3155"/>
</g>
<!-- Node2&#45;&gt;Node3 -->
<g id="edge2" class="edge"><title>Node2&#45;&gt;Node3</title>
<path fill="none" stroke="midnightblue" d="M242.71,-77.366C252.537,-76.013 262.536,-74.6364 271.9,-73.3472"/>
<polygon fill="midnightblue" stroke="midnightblue" points="241.995,-73.9314 232.566,-78.7627 242.95,-80.866 241.995,-73.9314"/>
</g>
</g>
</svg>
