<?xml version="1.0" encoding="UTF-8" standalone="no"?>
<!DOCTYPE svg PUBLIC "-//W3C//DTD SVG 1.1//EN"
 "http://www.w3.org/Graphics/SVG/1.1/DTD/svg11.dtd">
<!-- Generated by graphviz version 2.36.0 (20140111.2315)
 -->
<!-- Title: mutt_label_hash_add Pages: 1 -->
<svg width="256pt" height="66pt"
 viewBox="0.00 0.00 256.00 66.00" xmlns="http://www.w3.org/2000/svg" xmlns:xlink="http://www.w3.org/1999/xlink">
<g id="graph0" class="graph" transform="scale(1 1) rotate(0) translate(4 62)">
<title>mutt_label_hash_add</title>
<polygon fill="white" stroke="none" points="-4,4 -4,-62 252,-62 252,4 -4,4"/>
<!-- Node1 -->
<g id="node1" class="node"><title>Node1</title>
<polygon fill="#bfbfbf" stroke="black" points="0.5,-19.5 0.5,-38.5 109.5,-38.5 109.5,-19.5 0.5,-19.5"/>
<text text-anchor="middle" x="55" y="-26.5" font-family="Helvetica,sans-Serif" font-size="10.00">mutt_label_hash_add</text>
</g>
<!-- Node2 -->
<g id="node2" class="node"><title>Node2</title>
<g id="a_node2"><a xlink:href="mx_8h.html#ad21c1965b85bbc9a7879c083a5bdb07f" target="_top" xlink:title="Update the Context&#39;s message counts. ">
<polygon fill="white" stroke="red" points="146,-38.5 146,-57.5 248,-57.5 248,-38.5 146,-38.5"/>
<text text-anchor="middle" x="197" y="-45.5" font-family="Helvetica,sans-Serif" font-size="10.00">mx_update_context</text>
</a>
</g>
</g>
<!-- Node1&#45;&gt;Node2 -->
<g id="edge1" class="edge"><title>Node1&#45;&gt;Node2</title>
<path fill="none" stroke="midnightblue" d="M119.871,-37.6682C128.59,-38.8515 137.437,-40.0521 145.865,-41.1959"/>
<polygon fill="midnightblue" stroke="midnightblue" points="120.107,-34.1682 109.727,-36.2916 119.166,-41.1047 120.107,-34.1682"/>
</g>
<!-- Node3 -->
<g id="node3" class="node"><title>Node3</title>
<g id="a_node3"><a xlink:href="pop_8c.html#acdcd617038ac12a95b869352680d587b" target="_top" xlink:title="fetch message from POP server ">
<polygon fill="white" stroke="black" points="155.5,-0.5 155.5,-19.5 238.5,-19.5 238.5,-0.5 155.5,-0.5"/>
<text text-anchor="middle" x="197" y="-7.5" font-family="Helvetica,sans-Serif" font-size="10.00">pop_msg_open</text>
</a>
</g>
</g>
<!-- Node1&#45;&gt;Node3 -->
<g id="edge2" class="edge"><title>Node1&#45;&gt;Node3</title>
<path fill="none" stroke="midnightblue" d="M119.768,-20.3458C131.828,-18.7091 144.137,-17.0385 155.248,-15.5307"/>
<polygon fill="midnightblue" stroke="midnightblue" points="119.166,-16.8953 109.727,-21.7084 120.107,-23.8317 119.166,-16.8953"/>
</g>
</g>
</svg>
