<?xml version="1.0" encoding="UTF-8" standalone="no"?>
<!DOCTYPE svg PUBLIC "-//W3C//DTD SVG 1.1//EN"
 "http://www.w3.org/Graphics/SVG/1.1/DTD/svg11.dtd">
<!-- Generated by graphviz version 2.36.0 (20140111.2315)
 -->
<!-- Title: pseudo_threads Pages: 1 -->
<svg width="344pt" height="180pt"
 viewBox="0.00 0.00 344.00 180.00" xmlns="http://www.w3.org/2000/svg" xmlns:xlink="http://www.w3.org/1999/xlink">
<g id="graph0" class="graph" transform="scale(1 1) rotate(0) translate(4 176)">
<title>pseudo_threads</title>
<polygon fill="white" stroke="none" points="-4,4 -4,-176 340,-176 340,4 -4,4"/>
<!-- Node1 -->
<g id="node1" class="node"><title>Node1</title>
<polygon fill="#bfbfbf" stroke="black" points="0,-76.5 0,-95.5 86,-95.5 86,-76.5 0,-76.5"/>
<text text-anchor="middle" x="43" y="-83.5" font-family="Helvetica,sans-Serif" font-size="10.00">pseudo_threads</text>
</g>
<!-- Node2 -->
<g id="node2" class="node"><title>Node2</title>
<g id="a_node2"><a xlink:href="mutt__thread_8c.html#aa9b4be9085b89ac3e901b39b6cad127b" target="_top" xlink:title="Create a Hash Table for the email subjects. ">
<polygon fill="white" stroke="red" points="122,-152.5 122,-171.5 212,-171.5 212,-152.5 122,-152.5"/>
<text text-anchor="middle" x="167" y="-159.5" font-family="Helvetica,sans-Serif" font-size="10.00">make_subj_hash</text>
</a>
</g>
</g>
<!-- Node1&#45;&gt;Node2 -->
<g id="edge1" class="edge"><title>Node1&#45;&gt;Node2</title>
<path fill="none" stroke="midnightblue" d="M55.3372,-95.5484C70.045,-107.631 96.8103,-128.599 122,-143 125.223,-144.843 128.66,-146.621 132.138,-148.3"/>
<polygon fill="midnightblue" stroke="midnightblue" points="130.77,-151.523 141.32,-152.492 133.677,-145.155 130.77,-151.523"/>
</g>
<!-- Node3 -->
<g id="node3" class="node"><title>Node3</title>
<g id="a_node3"><a xlink:href="mutt__thread_8c.html#a8ddaaf92cbc99e5095fb062dc1d693df" target="_top" xlink:title="Find the best possible match for a parent based on subject. ">
<polygon fill="white" stroke="red" points="132.5,-114.5 132.5,-133.5 201.5,-133.5 201.5,-114.5 132.5,-114.5"/>
<text text-anchor="middle" x="167" y="-121.5" font-family="Helvetica,sans-Serif" font-size="10.00">find_subject</text>
</a>
</g>
</g>
<!-- Node1&#45;&gt;Node3 -->
<g id="edge2" class="edge"><title>Node1&#45;&gt;Node3</title>
<path fill="none" stroke="midnightblue" d="M74.7858,-95.589C90.1013,-100.359 108.817,-106.189 125.3,-111.323"/>
<polygon fill="midnightblue" stroke="midnightblue" points="124.636,-114.782 135.224,-114.414 126.717,-108.099 124.636,-114.782"/>
</g>
<!-- Node4 -->
<g id="node4" class="node"><title>Node4</title>
<g id="a_node4"><a xlink:href="mutt_2string_8c.html#ab4aaf8bd2ce3982651f0f949d6c665e2" target="_top" xlink:title="Compare two strings, safely. ">
<polygon fill="white" stroke="black" points="248,-95.5 248,-114.5 336,-114.5 336,-95.5 248,-95.5"/>
<text text-anchor="middle" x="292" y="-102.5" font-family="Helvetica,sans-Serif" font-size="10.00">mutt_str_strcmp</text>
</a>
</g>
</g>
<!-- Node1&#45;&gt;Node4 -->
<g id="edge6" class="edge"><title>Node1&#45;&gt;Node4</title>
<path fill="none" stroke="midnightblue" d="M86.1802,-89.2446C127.98,-92.46 192.153,-97.3964 237.511,-100.885"/>
<polygon fill="midnightblue" stroke="midnightblue" points="237.51,-104.396 247.749,-101.673 238.047,-97.4163 237.51,-104.396"/>
</g>
<!-- Node5 -->
<g id="node5" class="node"><title>Node5</title>
<g id="a_node5"><a xlink:href="thread_8c.html#a0fd268c12ac9d5c96aaff581ee341878" target="_top" xlink:title="Break the message out of the thread. ">
<polygon fill="white" stroke="black" points="123.5,-38.5 123.5,-57.5 210.5,-57.5 210.5,-38.5 123.5,-38.5"/>
<text text-anchor="middle" x="167" y="-45.5" font-family="Helvetica,sans-Serif" font-size="10.00">unlink_message</text>
</a>
</g>
</g>
<!-- Node1&#45;&gt;Node5 -->
<g id="edge4" class="edge"><title>Node1&#45;&gt;Node5</title>
<path fill="none" stroke="midnightblue" d="M74.7858,-76.411C90.1013,-71.6406 108.817,-65.8112 125.3,-60.6771"/>
<polygon fill="midnightblue" stroke="midnightblue" points="126.717,-63.9015 135.224,-57.5859 124.636,-57.2182 126.717,-63.9015"/>
</g>
<!-- Node6 -->
<g id="node6" class="node"><title>Node6</title>
<g id="a_node6"><a xlink:href="thread_8c.html#a52eed4791abf70d079e26ac989d4a2f4" target="_top" xlink:title="Insert a message into a thread. ">
<polygon fill="white" stroke="black" points="124,-0.5 124,-19.5 210,-19.5 210,-0.5 124,-0.5"/>
<text text-anchor="middle" x="167" y="-7.5" font-family="Helvetica,sans-Serif" font-size="10.00">insert_message</text>
</a>
</g>
</g>
<!-- Node1&#45;&gt;Node6 -->
<g id="edge5" class="edge"><title>Node1&#45;&gt;Node6</title>
<path fill="none" stroke="midnightblue" d="M55.3372,-76.4516C70.045,-64.369 96.8103,-43.4011 122,-29 125.223,-27.1571 128.66,-25.3794 132.138,-23.7001"/>
<polygon fill="midnightblue" stroke="midnightblue" points="133.677,-26.8448 141.32,-19.5077 130.77,-20.4771 133.677,-26.8448"/>
</g>
<!-- Node3&#45;&gt;Node4 -->
<g id="edge3" class="edge"><title>Node3&#45;&gt;Node4</title>
<path fill="none" stroke="midnightblue" d="M201.61,-118.808C212.724,-117.091 225.38,-115.136 237.601,-113.249"/>
<polygon fill="midnightblue" stroke="midnightblue" points="238.373,-116.671 247.721,-111.685 237.304,-109.753 238.373,-116.671"/>
</g>
</g>
</svg>
