<?xml version="1.0" encoding="UTF-8" standalone="no"?>
<!DOCTYPE svg PUBLIC "-//W3C//DTD SVG 1.1//EN"
 "http://www.w3.org/Graphics/SVG/1.1/DTD/svg11.dtd">
<!-- Generated by graphviz version 2.36.0 (20140111.2315)
 -->
<!-- Title: mutt_get_tmp_attachment Pages: 1 -->
<svg width="304pt" height="332pt"
 viewBox="0.00 0.00 304.00 332.00" xmlns="http://www.w3.org/2000/svg" xmlns:xlink="http://www.w3.org/1999/xlink">
<g id="graph0" class="graph" transform="scale(1 1) rotate(0) translate(4 328)">
<title>mutt_get_tmp_attachment</title>
<polygon fill="white" stroke="none" points="-4,4 -4,-328 300,-328 300,4 -4,4"/>
<!-- Node1 -->
<g id="node1" class="node"><title>Node1</title>
<polygon fill="#bfbfbf" stroke="black" points="0.5,-152.5 0.5,-171.5 131.5,-171.5 131.5,-152.5 0.5,-152.5"/>
<text text-anchor="middle" x="66" y="-159.5" font-family="Helvetica,sans-Serif" font-size="10.00">mutt_get_tmp_attachment</text>
</g>
<!-- Node2 -->
<g id="node2" class="node"><title>Node2</title>
<g id="a_node2"><a xlink:href="rfc1524_8c.html#a0599175abc299750c01cb97eebc76509" target="_top" xlink:title="Allocate memory for a new rfc1524 entry. ">
<polygon fill="white" stroke="red" points="182.5,-304.5 182.5,-323.5 281.5,-323.5 281.5,-304.5 182.5,-304.5"/>
<text text-anchor="middle" x="232" y="-311.5" font-family="Helvetica,sans-Serif" font-size="10.00">rfc1524_new_entry</text>
</a>
</g>
</g>
<!-- Node1&#45;&gt;Node2 -->
<g id="edge1" class="edge"><title>Node1&#45;&gt;Node2</title>
<path fill="none" stroke="midnightblue" d="M71.6162,-171.695C83.7838,-196.203 119.185,-261.092 168,-295 170.854,-296.983 173.92,-298.763 177.106,-300.36"/>
<polygon fill="midnightblue" stroke="midnightblue" points="175.766,-303.594 186.331,-304.394 178.571,-297.18 175.766,-303.594"/>
</g>
<!-- Node3 -->
<g id="node3" class="node"><title>Node3</title>
<g id="a_node3"><a xlink:href="rfc1524_8c.html#a834f5cab63e131c8056521ae1029c942" target="_top" xlink:title="Find given type in the list of mailcap files. ">
<polygon fill="white" stroke="red" points="171,-266.5 171,-285.5 293,-285.5 293,-266.5 171,-266.5"/>
<text text-anchor="middle" x="232" y="-273.5" font-family="Helvetica,sans-Serif" font-size="10.00">rfc1524_mailcap_lookup</text>
</a>
</g>
</g>
<!-- Node1&#45;&gt;Node3 -->
<g id="edge2" class="edge"><title>Node1&#45;&gt;Node3</title>
<path fill="none" stroke="midnightblue" d="M74.5474,-171.612C90.0276,-190.689 127.353,-233.519 168,-257 171.728,-259.154 175.724,-261.085 179.828,-262.813"/>
<polygon fill="midnightblue" stroke="midnightblue" points="178.933,-266.216 189.525,-266.484 181.412,-259.67 178.933,-266.216"/>
</g>
<!-- Node4 -->
<g id="node4" class="node"><title>Node4</title>
<g id="a_node4"><a xlink:href="rfc1524_8c.html#ab4ec83386c57ef71ba37f35e1685dae3" target="_top" xlink:title="Expand a new filename from a template or existing filename. ">
<polygon fill="white" stroke="red" points="168,-228.5 168,-247.5 296,-247.5 296,-228.5 168,-228.5"/>
<text text-anchor="middle" x="232" y="-235.5" font-family="Helvetica,sans-Serif" font-size="10.00">rfc1524_expand_filename</text>
</a>
</g>
</g>
<!-- Node1&#45;&gt;Node4 -->
<g id="edge3" class="edge"><title>Node1&#45;&gt;Node4</title>
<path fill="none" stroke="midnightblue" d="M81.5312,-171.566C100.698,-183.858 135.778,-205.249 168,-219 173.385,-221.298 179.139,-223.437 184.898,-225.39"/>
<polygon fill="midnightblue" stroke="midnightblue" points="183.939,-228.758 194.531,-228.493 186.086,-222.095 183.939,-228.758"/>
</g>
<!-- Node5 -->
<g id="node5" class="node"><title>Node5</title>
<g id="a_node5"><a xlink:href="rfc1524_8c.html#a5d85b38ef1b25945fde8980bf2306d66" target="_top" xlink:title="Deallocate an struct Rfc1524MailcapEntry. ">
<polygon fill="white" stroke="black" points="183,-190.5 183,-209.5 281,-209.5 281,-190.5 183,-190.5"/>
<text text-anchor="middle" x="232" y="-197.5" font-family="Helvetica,sans-Serif" font-size="10.00">rfc1524_free_entry</text>
</a>
</g>
</g>
<!-- Node1&#45;&gt;Node5 -->
<g id="edge4" class="edge"><title>Node1&#45;&gt;Node5</title>
<path fill="none" stroke="midnightblue" d="M108.384,-171.589C130.123,-176.626 156.957,-182.844 179.975,-188.177"/>
<polygon fill="midnightblue" stroke="midnightblue" points="179.381,-191.632 189.913,-190.48 180.962,-184.813 179.381,-191.632"/>
</g>
<!-- Node6 -->
<g id="node6" class="node"><title>Node6</title>
<g id="a_node6"><a xlink:href="file_8c.html#ae1c0c19fec03274220b3ca065ad1e2e5" target="_top" xlink:title="Call fopen() safely. ">
<polygon fill="white" stroke="red" points="190.5,-152.5 190.5,-171.5 273.5,-171.5 273.5,-152.5 190.5,-152.5"/>
<text text-anchor="middle" x="232" y="-159.5" font-family="Helvetica,sans-Serif" font-size="10.00">mutt_file_fopen</text>
</a>
</g>
</g>
<!-- Node1&#45;&gt;Node6 -->
<g id="edge5" class="edge"><title>Node1&#45;&gt;Node6</title>
<path fill="none" stroke="midnightblue" d="M131.817,-162C147.821,-162 164.739,-162 179.983,-162"/>
<polygon fill="midnightblue" stroke="midnightblue" points="180.237,-165.5 190.237,-162 180.237,-158.5 180.237,-165.5"/>
</g>
<!-- Node7 -->
<g id="node7" class="node"><title>Node7</title>
<g id="a_node7"><a xlink:href="file_8c.html#acde526723322b2df0564e5eeae5fbc76" target="_top" xlink:title="Copy the contents of one file into another. ">
<polygon fill="white" stroke="black" points="174,-114.5 174,-133.5 290,-133.5 290,-114.5 174,-114.5"/>
<text text-anchor="middle" x="232" y="-121.5" font-family="Helvetica,sans-Serif" font-size="10.00">mutt_file_copy_stream</text>
</a>
</g>
</g>
<!-- Node1&#45;&gt;Node7 -->
<g id="edge6" class="edge"><title>Node1&#45;&gt;Node7</title>
<path fill="none" stroke="midnightblue" d="M108.384,-152.411C130.123,-147.374 156.957,-141.156 179.975,-135.823"/>
<polygon fill="midnightblue" stroke="midnightblue" points="180.962,-139.187 189.913,-133.52 179.381,-132.368 180.962,-139.187"/>
</g>
<!-- Node8 -->
<g id="node8" class="node"><title>Node8</title>
<g id="a_node8"><a xlink:href="mutt_2string_8c.html#ad5b66f8059a202f7bfa5fc4fa3047c67" target="_top" xlink:title="Replace one string with another. ">
<polygon fill="white" stroke="red" points="187.5,-76.5 187.5,-95.5 276.5,-95.5 276.5,-76.5 187.5,-76.5"/>
<text text-anchor="middle" x="232" y="-83.5" font-family="Helvetica,sans-Serif" font-size="10.00">mutt_str_replace</text>
</a>
</g>
</g>
<!-- Node1&#45;&gt;Node8 -->
<g id="edge7" class="edge"><title>Node1&#45;&gt;Node8</title>
<path fill="none" stroke="midnightblue" d="M81.5312,-152.434C100.698,-140.142 135.778,-118.751 168,-105 173.385,-102.702 179.139,-100.563 184.898,-98.6103"/>
<polygon fill="midnightblue" stroke="midnightblue" points="186.086,-101.905 194.531,-95.5067 183.939,-95.242 186.086,-101.905"/>
</g>
<!-- Node9 -->
<g id="node9" class="node"><title>Node9</title>
<g id="a_node9"><a xlink:href="sendlib_8c.html#a0ee1ea636faabfacf94efbd968b0bea9" target="_top" xlink:title="Timestamp an Attachment. ">
<polygon fill="white" stroke="black" points="171,-38.5 171,-57.5 293,-57.5 293,-38.5 171,-38.5"/>
<text text-anchor="middle" x="232" y="-45.5" font-family="Helvetica,sans-Serif" font-size="10.00">mutt_stamp_attachment</text>
</a>
</g>
</g>
<!-- Node1&#45;&gt;Node9 -->
<g id="edge8" class="edge"><title>Node1&#45;&gt;Node9</title>
<path fill="none" stroke="midnightblue" d="M74.5474,-152.388C90.0276,-133.311 127.353,-90.4811 168,-67 171.728,-64.8463 175.724,-62.915 179.828,-61.1872"/>
<polygon fill="midnightblue" stroke="midnightblue" points="181.412,-64.3301 189.525,-57.5162 178.933,-57.7835 181.412,-64.3301"/>
</g>
<!-- Node10 -->
<g id="node10" class="node"><title>Node10</title>
<g id="a_node10"><a xlink:href="file_8c.html#a4982d9040dfaf38e847729be2af83ed6" target="_top" xlink:title="Close a FILE handle (and NULL the pointer) ">
<polygon fill="white" stroke="black" points="189,-0.5 189,-19.5 275,-19.5 275,-0.5 189,-0.5"/>
<text text-anchor="middle" x="232" y="-7.5" font-family="Helvetica,sans-Serif" font-size="10.00">mutt_file_fclose</text>
</a>
</g>
</g>
<!-- Node1&#45;&gt;Node10 -->
<g id="edge9" class="edge"><title>Node1&#45;&gt;Node10</title>
<path fill="none" stroke="midnightblue" d="M71.6162,-152.305C83.7838,-127.797 119.185,-62.9085 168,-29 171.536,-26.5438 175.396,-24.3989 179.409,-22.5271"/>
<polygon fill="midnightblue" stroke="midnightblue" points="181.024,-25.6486 188.966,-18.6367 178.385,-19.1651 181.024,-25.6486"/>
</g>
</g>
</svg>
