<?xml version="1.0" encoding="UTF-8" standalone="no"?>
<!DOCTYPE svg PUBLIC "-//W3C//DTD SVG 1.1//EN"
 "http://www.w3.org/Graphics/SVG/1.1/DTD/svg11.dtd">
<!-- Generated by graphviz version 2.36.0 (20140111.2315)
 -->
<!-- Title: nm2mutt_message_id Pages: 1 -->
<svg width="248pt" height="66pt"
 viewBox="0.00 0.00 248.00 66.00" xmlns="http://www.w3.org/2000/svg" xmlns:xlink="http://www.w3.org/1999/xlink">
<g id="graph0" class="graph" transform="scale(1 1) rotate(0) translate(4 62)">
<title>nm2mutt_message_id</title>
<polygon fill="white" stroke="none" points="-4,4 -4,-62 244,-62 244,4 -4,4"/>
<!-- Node1 -->
<g id="node1" class="node"><title>Node1</title>
<polygon fill="#bfbfbf" stroke="black" points="0.5,-19.5 0.5,-38.5 113.5,-38.5 113.5,-19.5 0.5,-19.5"/>
<text text-anchor="middle" x="57" y="-26.5" font-family="Helvetica,sans-Serif" font-size="10.00">nm2mutt_message_id</text>
</g>
<!-- Node2 -->
<g id="node2" class="node"><title>Node2</title>
<g id="a_node2"><a xlink:href="mutt__notmuch_8c.html#ab46485015c50674778bea5743417c2c2" target="_top" xlink:title="Set up an email&#39;s Notmuch data. ">
<polygon fill="white" stroke="red" points="163,-38.5 163,-57.5 227,-57.5 227,-38.5 163,-38.5"/>
<text text-anchor="middle" x="195" y="-45.5" font-family="Helvetica,sans-Serif" font-size="10.00">init_header</text>
</a>
</g>
</g>
<!-- Node1&#45;&gt;Node2 -->
<g id="edge1" class="edge"><title>Node1&#45;&gt;Node2</title>
<path fill="none" stroke="midnightblue" d="M123.992,-38.2195C137.513,-40.1085 151.14,-42.0122 162.732,-43.6317"/>
<polygon fill="midnightblue" stroke="midnightblue" points="124.097,-34.7002 113.709,-36.7828 123.128,-41.6329 124.097,-34.7002"/>
</g>
<!-- Node3 -->
<g id="node3" class="node"><title>Node3</title>
<g id="a_node3"><a xlink:href="mutt__notmuch_8c.html#a5dfd2f321afe308931ba8bd5c3ea818e" target="_top" xlink:title="Get the Header of a Notmuch message. ">
<polygon fill="white" stroke="red" points="150.5,-0.5 150.5,-19.5 239.5,-19.5 239.5,-0.5 150.5,-0.5"/>
<text text-anchor="middle" x="195" y="-7.5" font-family="Helvetica,sans-Serif" font-size="10.00">get_mutt_header</text>
</a>
</g>
</g>
<!-- Node1&#45;&gt;Node3 -->
<g id="edge2" class="edge"><title>Node1&#45;&gt;Node3</title>
<path fill="none" stroke="midnightblue" d="M123.786,-19.8092C132.761,-18.5554 141.788,-17.2944 150.239,-16.1136"/>
<polygon fill="midnightblue" stroke="midnightblue" points="123.128,-16.3671 113.709,-21.2172 124.097,-23.2998 123.128,-16.3671"/>
</g>
</g>
</svg>
