<?xml version="1.0" encoding="UTF-8" standalone="no"?>
<!DOCTYPE svg PUBLIC "-//W3C//DTD SVG 1.1//EN"
 "http://www.w3.org/Graphics/SVG/1.1/DTD/svg11.dtd">
<!-- Generated by graphviz version 2.36.0 (20140111.2315)
 -->
<!-- Title: deinit_header Pages: 1 -->
<svg width="190pt" height="28pt"
 viewBox="0.00 0.00 190.00 28.00" xmlns="http://www.w3.org/2000/svg" xmlns:xlink="http://www.w3.org/1999/xlink">
<g id="graph0" class="graph" transform="scale(1 1) rotate(0) translate(4 24)">
<title>deinit_header</title>
<polygon fill="white" stroke="none" points="-4,4 -4,-24 186,-24 186,4 -4,4"/>
<!-- Node1 -->
<g id="node1" class="node"><title>Node1</title>
<polygon fill="#bfbfbf" stroke="black" points="0,-0.5 0,-19.5 74,-19.5 74,-0.5 0,-0.5"/>
<text text-anchor="middle" x="37" y="-7.5" font-family="Helvetica,sans-Serif" font-size="10.00">deinit_header</text>
</g>
<!-- Node2 -->
<g id="node2" class="node"><title>Node2</title>
<g id="a_node2"><a xlink:href="mutt__notmuch_8c.html#a1c5d4d868e91c58c3432c3da13f98501" target="_top" xlink:title="Free header data attached to an email. ">
<polygon fill="white" stroke="black" points="110.5,-0.5 110.5,-19.5 181.5,-19.5 181.5,-0.5 110.5,-0.5"/>
<text text-anchor="middle" x="146" y="-7.5" font-family="Helvetica,sans-Serif" font-size="10.00">free_hdrdata</text>
</a>
</g>
</g>
<!-- Node1&#45;&gt;Node2 -->
<g id="edge1" class="edge"><title>Node1&#45;&gt;Node2</title>
<path fill="none" stroke="midnightblue" d="M74.2253,-10C82.501,-10 91.3945,-10 99.9882,-10"/>
<polygon fill="midnightblue" stroke="midnightblue" points="100.26,-13.5001 110.26,-10 100.26,-6.5001 100.26,-13.5001"/>
</g>
</g>
</svg>
