<?xml version="1.0" encoding="UTF-8" standalone="no"?>
<!DOCTYPE svg PUBLIC "-//W3C//DTD SVG 1.1//EN"
 "http://www.w3.org/Graphics/SVG/1.1/DTD/svg11.dtd">
<!-- Generated by graphviz version 2.36.0 (20140111.2315)
 -->
<!-- Title: mutt_print_attachment Pages: 1 -->
<svg width="482pt" height="808pt"
 viewBox="0.00 0.00 482.00 808.42" xmlns="http://www.w3.org/2000/svg" xmlns:xlink="http://www.w3.org/1999/xlink">
<g id="graph0" class="graph" transform="scale(1 1) rotate(0) translate(4 804.421)">
<title>mutt_print_attachment</title>
<polygon fill="white" stroke="none" points="-4,4 -4,-804.421 478,-804.421 478,4 -4,4"/>
<!-- Node1 -->
<g id="node1" class="node"><title>Node1</title>
<polygon fill="#bfbfbf" stroke="black" points="0,-400.921 0,-419.921 114,-419.921 114,-400.921 0,-400.921"/>
<text text-anchor="middle" x="57" y="-407.921" font-family="Helvetica,sans-Serif" font-size="10.00">mutt_print_attachment</text>
</g>
<!-- Node2 -->
<g id="node2" class="node"><title>Node2</title>
<g id="a_node2"><a xlink:href="rfc1524_8c.html#a834f5cab63e131c8056521ae1029c942" target="_top" xlink:title="Find given type in the list of mailcap files. ">
<polygon fill="white" stroke="red" points="166,-780.921 166,-799.921 288,-799.921 288,-780.921 166,-780.921"/>
<text text-anchor="middle" x="227" y="-787.921" font-family="Helvetica,sans-Serif" font-size="10.00">rfc1524_mailcap_lookup</text>
</a>
</g>
</g>
<!-- Node1&#45;&gt;Node2 -->
<g id="edge1" class="edge"><title>Node1&#45;&gt;Node2</title>
<path fill="none" stroke="midnightblue" d="M59.1439,-420.219C65.4528,-472.614 97.6306,-719.29 150,-771.421 152.124,-773.535 154.445,-775.426 156.913,-777.116"/>
<polygon fill="midnightblue" stroke="midnightblue" points="155.373,-780.266 165.803,-782.125 158.809,-774.167 155.373,-780.266"/>
</g>
<!-- Node3 -->
<g id="node3" class="node"><title>Node3</title>
<g id="a_node3"><a xlink:href="rfc1524_8c.html#a0599175abc299750c01cb97eebc76509" target="_top" xlink:title="Allocate memory for a new rfc1524 entry. ">
<polygon fill="white" stroke="red" points="177.5,-742.921 177.5,-761.921 276.5,-761.921 276.5,-742.921 177.5,-742.921"/>
<text text-anchor="middle" x="227" y="-749.921" font-family="Helvetica,sans-Serif" font-size="10.00">rfc1524_new_entry</text>
</a>
</g>
</g>
<!-- Node1&#45;&gt;Node3 -->
<g id="edge2" class="edge"><title>Node1&#45;&gt;Node3</title>
<path fill="none" stroke="midnightblue" d="M57.7338,-420.051C57.0961,-462.698 60.28,-636.498 150,-728.421 155.116,-733.663 161.366,-737.763 168.063,-740.97"/>
<polygon fill="midnightblue" stroke="midnightblue" points="166.826,-744.246 177.406,-744.812 169.488,-737.772 166.826,-744.246"/>
</g>
<!-- Node4 -->
<g id="node4" class="node"><title>Node4</title>
<g id="a_node4"><a xlink:href="rfc1524_8c.html#ab4ec83386c57ef71ba37f35e1685dae3" target="_top" xlink:title="Expand a new filename from a template or existing filename. ">
<polygon fill="white" stroke="red" points="163,-666.921 163,-685.921 291,-685.921 291,-666.921 163,-666.921"/>
<text text-anchor="middle" x="227" y="-673.921" font-family="Helvetica,sans-Serif" font-size="10.00">rfc1524_expand_filename</text>
</a>
</g>
</g>
<!-- Node1&#45;&gt;Node4 -->
<g id="edge3" class="edge"><title>Node1&#45;&gt;Node4</title>
<path fill="none" stroke="midnightblue" d="M58.5112,-419.97C61.0135,-456.741 75.1264,-590.468 150,-657.421 151.73,-658.968 153.567,-660.393 155.489,-661.706"/>
<polygon fill="midnightblue" stroke="midnightblue" points="153.969,-664.868 164.392,-666.77 157.43,-658.784 153.969,-664.868"/>
</g>
<!-- Node5 -->
<g id="node5" class="node"><title>Node5</title>
<g id="a_node5"><a xlink:href="mutt_2string_8c.html#a3b8965b21d6e21536750f8883cd4333a" target="_top" xlink:title="Copy a string into a buffer (guaranteeing NUL&#45;termination) ">
<polygon fill="white" stroke="black" points="363,-666.921 363,-685.921 451,-685.921 451,-666.921 363,-666.921"/>
<text text-anchor="middle" x="407" y="-673.921" font-family="Helvetica,sans-Serif" font-size="10.00">mutt_str_strfcpy</text>
</a>
</g>
</g>
<!-- Node1&#45;&gt;Node5 -->
<g id="edge8" class="edge"><title>Node1&#45;&gt;Node5</title>
<path fill="none" stroke="midnightblue" d="M57.5193,-420.006C56.0236,-461.569 56.2637,-627.181 150,-695.421 218.036,-744.952 324.987,-711.075 376.428,-689.889"/>
<polygon fill="midnightblue" stroke="midnightblue" points="377.816,-693.102 385.656,-685.976 375.084,-686.657 377.816,-693.102"/>
</g>
<!-- Node6 -->
<g id="node6" class="node"><title>Node6</title>
<g id="a_node6"><a xlink:href="file_8c.html#a8f150fbd8c72f544d733440b861eda9c" target="_top" xlink:title="Create a symlink. ">
<polygon fill="white" stroke="red" points="180.5,-590.921 180.5,-609.921 273.5,-609.921 273.5,-590.921 180.5,-590.921"/>
<text text-anchor="middle" x="227" y="-597.921" font-family="Helvetica,sans-Serif" font-size="10.00">mutt_file_symlink</text>
</a>
</g>
</g>
<!-- Node1&#45;&gt;Node6 -->
<g id="edge5" class="edge"><title>Node1&#45;&gt;Node6</title>
<path fill="none" stroke="midnightblue" d="M60.2197,-419.951C67.5158,-449.067 93.5885,-537.541 150,-581.421 155.978,-586.071 162.952,-589.597 170.205,-592.269"/>
<polygon fill="midnightblue" stroke="midnightblue" points="169.612,-595.751 180.201,-595.406 171.708,-589.072 169.612,-595.751"/>
</g>
<!-- Node7 -->
<g id="node7" class="node"><title>Node7</title>
<g id="a_node7"><a xlink:href="curs__lib_8c.html#a2ac481c92c3c888c1f658696909a3430" target="_top" xlink:title="Ask the user a Yes/No question. ">
<polygon fill="white" stroke="red" points="189,-552.921 189,-571.921 265,-571.921 265,-552.921 189,-552.921"/>
<text text-anchor="middle" x="227" y="-559.921" font-family="Helvetica,sans-Serif" font-size="10.00">mutt_yesorno</text>
</a>
</g>
</g>
<!-- Node1&#45;&gt;Node7 -->
<g id="edge6" class="edge"><title>Node1&#45;&gt;Node7</title>
<path fill="none" stroke="midnightblue" d="M61.8638,-420.254C72.1469,-445.086 102.67,-510.671 150,-543.421 158.556,-549.341 168.785,-553.42 178.923,-556.229"/>
<polygon fill="midnightblue" stroke="midnightblue" points="178.425,-559.709 188.966,-558.636 180.057,-552.902 178.425,-559.709"/>
</g>
<!-- Node8 -->
<g id="node8" class="node"><title>Node8</title>
<g id="a_node8"><a xlink:href="rfc1524_8c.html#a5d85b38ef1b25945fde8980bf2306d66" target="_top" xlink:title="Deallocate an struct Rfc1524MailcapEntry. ">
<polygon fill="white" stroke="black" points="178,-514.921 178,-533.921 276,-533.921 276,-514.921 178,-514.921"/>
<text text-anchor="middle" x="227" y="-521.921" font-family="Helvetica,sans-Serif" font-size="10.00">rfc1524_free_entry</text>
</a>
</g>
</g>
<!-- Node1&#45;&gt;Node8 -->
<g id="edge7" class="edge"><title>Node1&#45;&gt;Node8</title>
<path fill="none" stroke="midnightblue" d="M65.2532,-420.061C79.5062,-438.352 113.016,-478.244 150,-500.421 157.335,-504.82 165.559,-508.493 173.815,-511.535"/>
<polygon fill="midnightblue" stroke="midnightblue" points="172.875,-514.913 183.469,-514.823 175.131,-508.286 172.875,-514.913"/>
</g>
<!-- Node9 -->
<g id="node9" class="node"><title>Node9</title>
<g id="a_node9"><a xlink:href="mutt__attach_8c.html#a7eca34952ac9afff3ff8ac5706fa6bc8" target="_top" xlink:title="Save an attachment. ">
<polygon fill="white" stroke="red" points="169,-362.921 169,-381.921 285,-381.921 285,-362.921 169,-362.921"/>
<text text-anchor="middle" x="227" y="-369.921" font-family="Helvetica,sans-Serif" font-size="10.00">mutt_save_attachment</text>
</a>
</g>
</g>
<!-- Node1&#45;&gt;Node9 -->
<g id="edge9" class="edge"><title>Node1&#45;&gt;Node9</title>
<path fill="none" stroke="midnightblue" d="M100.393,-400.832C122.763,-395.773 150.398,-389.522 174.047,-384.172"/>
<polygon fill="midnightblue" stroke="midnightblue" points="174.93,-387.561 183.911,-381.941 173.386,-380.734 174.93,-387.561"/>
</g>
<!-- Node10 -->
<g id="node10" class="node"><title>Node10</title>
<g id="a_node10"><a xlink:href="file_8c.html#a4982d9040dfaf38e847729be2af83ed6" target="_top" xlink:title="Close a FILE handle (and NULL the pointer) ">
<polygon fill="white" stroke="black" points="364,-400.921 364,-419.921 450,-419.921 450,-400.921 364,-400.921"/>
<text text-anchor="middle" x="407" y="-407.921" font-family="Helvetica,sans-Serif" font-size="10.00">mutt_file_fclose</text>
</a>
</g>
</g>
<!-- Node1&#45;&gt;Node10 -->
<g id="edge16" class="edge"><title>Node1&#45;&gt;Node10</title>
<path fill="none" stroke="midnightblue" d="M68.9102,-420.061C85.2029,-433.743 117.472,-458.161 150,-467.421 215.829,-486.161 237.765,-484.672 304,-467.421 334.643,-459.44 365.839,-440 385.522,-426.042"/>
<polygon fill="midnightblue" stroke="midnightblue" points="387.69,-428.793 393.711,-420.076 383.568,-423.135 387.69,-428.793"/>
</g>
<!-- Node11 -->
<g id="node11" class="node"><title>Node11</title>
<g id="a_node11"><a xlink:href="file_8c.html#acde526723322b2df0564e5eeae5fbc76" target="_top" xlink:title="Copy the contents of one file into another. ">
<polygon fill="white" stroke="black" points="349,-324.921 349,-343.921 465,-343.921 465,-324.921 349,-324.921"/>
<text text-anchor="middle" x="407" y="-331.921" font-family="Helvetica,sans-Serif" font-size="10.00">mutt_file_copy_stream</text>
</a>
</g>
</g>
<!-- Node1&#45;&gt;Node11 -->
<g id="edge17" class="edge"><title>Node1&#45;&gt;Node11</title>
<path fill="none" stroke="midnightblue" d="M69.2818,-400.876C85.7799,-387.545 118.016,-363.821 150,-353.421 211.686,-333.363 285.98,-329.971 338.605,-330.778"/>
<polygon fill="midnightblue" stroke="midnightblue" points="338.76,-334.282 348.831,-330.992 338.907,-327.284 338.76,-334.282"/>
</g>
<!-- Node12 -->
<g id="node12" class="node"><title>Node12</title>
<g id="a_node12"><a xlink:href="rfc1524_8c.html#a660eed26810b8c8fa6dcd101f0df6555" target="_top" xlink:title="Expand expandos in a command. ">
<polygon fill="white" stroke="red" points="160,-628.921 160,-647.921 294,-647.921 294,-628.921 160,-628.921"/>
<text text-anchor="middle" x="227" y="-635.921" font-family="Helvetica,sans-Serif" font-size="10.00">rfc1524_expand_command</text>
</a>
</g>
</g>
<!-- Node1&#45;&gt;Node12 -->
<g id="edge12" class="edge"><title>Node1&#45;&gt;Node12</title>
<path fill="none" stroke="midnightblue" d="M59.2416,-420.091C64.0462,-453.38 84.5354,-564.219 150,-619.421 152.001,-621.109 154.132,-622.65 156.36,-624.058"/>
<polygon fill="midnightblue" stroke="midnightblue" points="154.903,-627.247 165.376,-628.849 158.188,-621.065 154.903,-627.247"/>
</g>
<!-- Node13 -->
<g id="node13" class="node"><title>Node13</title>
<g id="a_node13"><a xlink:href="curs__lib_8c.html#acd14d074d8b9e6cb21e851dd573cdec2" target="_top" xlink:title="Shutdown curses/slang. ">
<polygon fill="white" stroke="red" points="371,-267.921 371,-286.921 443,-286.921 443,-267.921 371,-267.921"/>
<text text-anchor="middle" x="407" y="-274.921" font-family="Helvetica,sans-Serif" font-size="10.00">mutt_endwin</text>
</a>
</g>
</g>
<!-- Node1&#45;&gt;Node13 -->
<g id="edge14" class="edge"><title>Node1&#45;&gt;Node13</title>
<path fill="none" stroke="midnightblue" d="M65.4139,-400.785C79.6872,-382.973 112.874,-345.026 150,-326.421 218.269,-292.21 307.772,-281.81 360.85,-278.695"/>
<polygon fill="midnightblue" stroke="midnightblue" points="361.16,-282.184 370.963,-278.164 360.793,-275.193 361.16,-282.184"/>
</g>
<!-- Node14 -->
<g id="node14" class="node"><title>Node14</title>
<g id="a_node14"><a xlink:href="filter_8c.html#a9175e055396a99789d648cd43000f126" target="_top" xlink:title="Set up filter program. ">
<polygon fill="white" stroke="red" points="361,-219.921 361,-238.921 453,-238.921 453,-219.921 361,-219.921"/>
<text text-anchor="middle" x="407" y="-226.921" font-family="Helvetica,sans-Serif" font-size="10.00">mutt_create_filter</text>
</a>
</g>
</g>
<!-- Node1&#45;&gt;Node14 -->
<g id="edge15" class="edge"><title>Node1&#45;&gt;Node14</title>
<path fill="none" stroke="midnightblue" d="M59.7596,-400.787C65.849,-370.575 89.0911,-277.449 150,-239.421 212.914,-200.142 302.486,-207.791 357.292,-217.898"/>
<polygon fill="midnightblue" stroke="midnightblue" points="356.955,-221.398 367.439,-219.871 358.291,-214.527 356.955,-221.398"/>
</g>
<!-- Node15 -->
<g id="node15" class="node"><title>Node15</title>
<g id="a_node15"><a xlink:href="filter_8c.html#a2d652b11c7d2ea31208315aaf61537d2" target="_top" xlink:title="Wait for the exit of a process and return its status. ">
<polygon fill="white" stroke="red" points="365.5,-176.921 365.5,-195.921 448.5,-195.921 448.5,-176.921 365.5,-176.921"/>
<text text-anchor="middle" x="407" y="-183.921" font-family="Helvetica,sans-Serif" font-size="10.00">mutt_wait_filter</text>
</a>
</g>
</g>
<!-- Node1&#45;&gt;Node15 -->
<g id="edge18" class="edge"><title>Node1&#45;&gt;Node15</title>
<path fill="none" stroke="midnightblue" d="M58.9833,-400.514C62.9441,-366.481 81.0086,-253.797 150,-205.421 210.46,-163.028 299.894,-167.551 355.471,-176.018"/>
<polygon fill="midnightblue" stroke="midnightblue" points="355.009,-179.489 365.44,-177.635 356.129,-172.579 355.009,-179.489"/>
</g>
<!-- Node16 -->
<g id="node16" class="node"><title>Node16</title>
<g id="a_node16"><a xlink:href="curs__lib_8c.html#ab6a61cdfcf8c2c73ee59381c79c79774" target="_top" xlink:title="Prompt the user to &#39;press any key&#39; and wait. ">
<polygon fill="white" stroke="red" points="340,-136.921 340,-155.921 474,-155.921 474,-136.921 340,-136.921"/>
<text text-anchor="middle" x="407" y="-143.921" font-family="Helvetica,sans-Serif" font-size="10.00">mutt_any_key_to_continue</text>
</a>
</g>
</g>
<!-- Node1&#45;&gt;Node16 -->
<g id="edge19" class="edge"><title>Node1&#45;&gt;Node16</title>
<path fill="none" stroke="midnightblue" d="M58.1999,-400.804C59.5542,-363.212 69.9947,-225.341 150,-165.421 208.767,-121.407 297.917,-126.174 354.006,-135.165"/>
<polygon fill="midnightblue" stroke="midnightblue" points="353.634,-138.652 364.08,-136.882 354.81,-131.751 353.634,-138.652"/>
</g>
<!-- Node17 -->
<g id="node17" class="node"><title>Node17</title>
<g id="a_node17"><a xlink:href="protos_8h.html#aa1d4ad04b000036513ca3f741059942c" target="_top" xlink:title="Run an external command. ">
<polygon fill="white" stroke="red" points="190,-96.9212 190,-115.921 264,-115.921 264,-96.9212 190,-96.9212"/>
<text text-anchor="middle" x="227" y="-103.921" font-family="Helvetica,sans-Serif" font-size="10.00">mutt_system</text>
</a>
</g>
</g>
<!-- Node1&#45;&gt;Node17 -->
<g id="edge20" class="edge"><title>Node1&#45;&gt;Node17</title>
<path fill="none" stroke="midnightblue" d="M58.1706,-400.877C59.4007,-361.513 69.3961,-210.097 150,-130.421 158.22,-122.296 169.167,-116.918 180.187,-113.359"/>
<polygon fill="midnightblue" stroke="midnightblue" points="181.127,-116.731 189.823,-110.677 179.25,-109.987 181.127,-116.731"/>
</g>
<!-- Node18 -->
<g id="node18" class="node"><title>Node18</title>
<g id="a_node18"><a xlink:href="file_8c.html#ae57463c2854c006a3c67b78736e9056e" target="_top" xlink:title="Delete a file, carefully. ">
<polygon fill="white" stroke="black" points="184.5,-438.921 184.5,-457.921 269.5,-457.921 269.5,-438.921 184.5,-438.921"/>
<text text-anchor="middle" x="227" y="-445.921" font-family="Helvetica,sans-Serif" font-size="10.00">mutt_file_unlink</text>
</a>
</g>
</g>
<!-- Node1&#45;&gt;Node18 -->
<g id="edge21" class="edge"><title>Node1&#45;&gt;Node18</title>
<path fill="none" stroke="midnightblue" d="M100.393,-420.01C122.933,-425.108 150.819,-431.416 174.586,-436.792"/>
<polygon fill="midnightblue" stroke="midnightblue" points="173.966,-440.24 184.492,-439.033 175.511,-433.412 173.966,-440.24"/>
</g>
<!-- Node19 -->
<g id="node19" class="node"><title>Node19</title>
<g id="a_node19"><a xlink:href="mutt_2string_8c.html#a011e5b6fad43bc608584d585987cf9c1" target="_top" xlink:title="Compare two strings ignoring case, safely. ">
<polygon fill="white" stroke="black" points="352.5,-21.9212 352.5,-40.9212 461.5,-40.9212 461.5,-21.9212 352.5,-21.9212"/>
<text text-anchor="middle" x="407" y="-28.9212" font-family="Helvetica,sans-Serif" font-size="10.00">mutt_str_strcasecmp</text>
</a>
</g>
</g>
<!-- Node1&#45;&gt;Node19 -->
<g id="edge23" class="edge"><title>Node1&#45;&gt;Node19</title>
<path fill="none" stroke="midnightblue" d="M58.79,-400.622C63.4162,-345.96 88.923,-79.4458 150,-31.4212 213.511,18.5173 315.908,-2.4663 369.942,-18.8299"/>
<polygon fill="midnightblue" stroke="midnightblue" points="369.173,-22.2572 379.763,-21.916 371.272,-15.5791 369.173,-22.2572"/>
</g>
<!-- Node20 -->
<g id="node20" class="node"><title>Node20</title>
<g id="a_node20"><a xlink:href="mutt__attach_8c.html#a0d463fe47dc745c39cddb1e4d1c10982" target="_top" xlink:title="Pipe an attachment to a command. ">
<polygon fill="white" stroke="red" points="170.5,-248.921 170.5,-267.921 283.5,-267.921 283.5,-248.921 170.5,-248.921"/>
<text text-anchor="middle" x="227" y="-255.921" font-family="Helvetica,sans-Serif" font-size="10.00">mutt_pipe_attachment</text>
</a>
</g>
</g>
<!-- Node1&#45;&gt;Node20 -->
<g id="edge24" class="edge"><title>Node1&#45;&gt;Node20</title>
<path fill="none" stroke="midnightblue" d="M62.2486,-400.776C73.2094,-377.005 104.782,-315.165 150,-282.421 155.933,-278.125 162.662,-274.58 169.604,-271.658"/>
<polygon fill="midnightblue" stroke="midnightblue" points="171.032,-274.86 179.148,-268.048 168.556,-268.312 171.032,-274.86"/>
</g>
<!-- Node21 -->
<g id="node21" class="node"><title>Node21</title>
<g id="a_node21"><a xlink:href="handler_8c.html#ad8ffd2d9dd15e18644b821ec35c7ce52" target="_top" xlink:title="Will decoding the attachment produce any output. ">
<polygon fill="white" stroke="red" points="180,-40.9212 180,-59.9212 274,-59.9212 274,-40.9212 180,-40.9212"/>
<text text-anchor="middle" x="227" y="-47.9212" font-family="Helvetica,sans-Serif" font-size="10.00">mutt_can_decode</text>
</a>
</g>
</g>
<!-- Node1&#45;&gt;Node21 -->
<g id="edge31" class="edge"><title>Node1&#45;&gt;Node21</title>
<path fill="none" stroke="midnightblue" d="M58.0283,-400.671C58.6561,-358.206 66.4746,-187.069 150,-87.4212 158.554,-77.2157 170.593,-69.5963 182.571,-64.012"/>
<polygon fill="midnightblue" stroke="midnightblue" points="184.266,-67.0949 192.097,-59.9592 181.525,-60.6536 184.266,-67.0949"/>
</g>
<!-- Node22 -->
<g id="node22" class="node"><title>Node22</title>
<g id="a_node22"><a xlink:href="mutt__attach_8c.html#a786920bfa92274d3dfce23347a0442eb" target="_top" xlink:title="Decode, then save an attachment. ">
<polygon fill="white" stroke="red" points="150.5,-400.921 150.5,-419.921 303.5,-419.921 303.5,-400.921 150.5,-400.921"/>
<text text-anchor="middle" x="227" y="-407.921" font-family="Helvetica,sans-Serif" font-size="10.00">mutt_decode_save_attachment</text>
</a>
</g>
</g>
<!-- Node1&#45;&gt;Node22 -->
<g id="edge34" class="edge"><title>Node1&#45;&gt;Node22</title>
<path fill="none" stroke="midnightblue" d="M114.409,-410.421C122.699,-410.421 131.393,-410.421 140.113,-410.421"/>
<polygon fill="midnightblue" stroke="midnightblue" points="140.341,-413.921 150.341,-410.421 140.34,-406.921 140.341,-413.921"/>
</g>
<!-- Node4&#45;&gt;Node5 -->
<g id="edge4" class="edge"><title>Node4&#45;&gt;Node5</title>
<path fill="none" stroke="midnightblue" d="M291.007,-676.421C311.183,-676.421 333.313,-676.421 352.724,-676.421"/>
<polygon fill="midnightblue" stroke="midnightblue" points="352.9,-679.921 362.9,-676.421 352.9,-672.921 352.9,-679.921"/>
</g>
<!-- Node9&#45;&gt;Node10 -->
<g id="edge10" class="edge"><title>Node9&#45;&gt;Node10</title>
<path fill="none" stroke="midnightblue" d="M272.917,-382.01C297.557,-387.27 328.227,-393.818 353.912,-399.301"/>
<polygon fill="midnightblue" stroke="midnightblue" points="353.341,-402.758 363.852,-401.423 354.803,-395.913 353.341,-402.758"/>
</g>
<!-- Node9&#45;&gt;Node11 -->
<g id="edge11" class="edge"><title>Node9&#45;&gt;Node11</title>
<path fill="none" stroke="midnightblue" d="M272.917,-362.832C296.829,-357.727 326.421,-351.41 351.625,-346.029"/>
<polygon fill="midnightblue" stroke="midnightblue" points="352.357,-349.452 361.406,-343.941 350.896,-342.606 352.357,-349.452"/>
</g>
<!-- Node12&#45;&gt;Node5 -->
<g id="edge13" class="edge"><title>Node12&#45;&gt;Node5</title>
<path fill="none" stroke="midnightblue" d="M272.917,-648.01C297.284,-653.212 327.549,-659.673 353.057,-665.119"/>
<polygon fill="midnightblue" stroke="midnightblue" points="352.429,-668.564 362.94,-667.229 353.891,-661.718 352.429,-668.564"/>
</g>
<!-- Node18&#45;&gt;Node10 -->
<g id="edge22" class="edge"><title>Node18&#45;&gt;Node10</title>
<path fill="none" stroke="midnightblue" d="M269.733,-439.512C294.881,-434.143 327.122,-427.26 353.93,-421.537"/>
<polygon fill="midnightblue" stroke="midnightblue" points="354.863,-424.917 363.912,-419.406 353.401,-418.071 354.863,-424.917"/>
</g>
<!-- Node20&#45;&gt;Node10 -->
<g id="edge27" class="edge"><title>Node20&#45;&gt;Node10</title>
<path fill="none" stroke="midnightblue" d="M239.135,-267.929C268.729,-293.201 349.61,-362.268 386.813,-394.037"/>
<polygon fill="midnightblue" stroke="midnightblue" points="384.992,-397.084 394.87,-400.917 389.538,-391.761 384.992,-397.084"/>
</g>
<!-- Node20&#45;&gt;Node11 -->
<g id="edge28" class="edge"><title>Node20&#45;&gt;Node11</title>
<path fill="none" stroke="midnightblue" d="M250.544,-268.047C281.84,-281.409 338.609,-305.648 374.201,-320.844"/>
<polygon fill="midnightblue" stroke="midnightblue" points="373.068,-324.166 383.639,-324.874 375.817,-317.728 373.068,-324.166"/>
</g>
<!-- Node20&#45;&gt;Node13 -->
<g id="edge25" class="edge"><title>Node20&#45;&gt;Node13</title>
<path fill="none" stroke="midnightblue" d="M283.832,-264.381C308.611,-267.026 337.393,-270.098 360.794,-272.596"/>
<polygon fill="midnightblue" stroke="midnightblue" points="360.484,-276.083 370.799,-273.664 361.227,-269.122 360.484,-276.083"/>
</g>
<!-- Node20&#45;&gt;Node14 -->
<g id="edge26" class="edge"><title>Node20&#45;&gt;Node14</title>
<path fill="none" stroke="midnightblue" d="M283.832,-249.325C305.22,-245.84 329.59,-241.87 350.909,-238.397"/>
<polygon fill="midnightblue" stroke="midnightblue" points="351.477,-241.85 360.784,-236.788 350.351,-234.942 351.477,-241.85"/>
</g>
<!-- Node20&#45;&gt;Node15 -->
<g id="edge29" class="edge"><title>Node20&#45;&gt;Node15</title>
<path fill="none" stroke="midnightblue" d="M249.323,-248.86C271.748,-238.904 308.134,-223.032 340,-210.421 349.34,-206.725 359.503,-202.922 368.993,-199.465"/>
<polygon fill="midnightblue" stroke="midnightblue" points="370.359,-202.693 378.576,-196.005 367.982,-196.109 370.359,-202.693"/>
</g>
<!-- Node20&#45;&gt;Node16 -->
<g id="edge30" class="edge"><title>Node20&#45;&gt;Node16</title>
<path fill="none" stroke="midnightblue" d="M237.28,-248.775C255.402,-230.452 297.455,-190.398 340,-167.421 345.624,-164.384 351.758,-161.703 357.948,-159.36"/>
<polygon fill="midnightblue" stroke="midnightblue" points="359.377,-162.568 367.655,-155.956 357.06,-155.963 359.377,-162.568"/>
</g>
<!-- Node21&#45;&gt;Node19 -->
<g id="edge32" class="edge"><title>Node21&#45;&gt;Node19</title>
<path fill="none" stroke="midnightblue" d="M274.303,-45.4788C295.027,-43.2666 319.799,-40.6224 342.238,-38.2273"/>
<polygon fill="midnightblue" stroke="midnightblue" points="342.788,-41.6885 352.36,-37.1468 342.045,-34.728 342.788,-41.6885"/>
</g>
<!-- Node21&#45;&gt;Node21 -->
<g id="edge33" class="edge"><title>Node21&#45;&gt;Node21</title>
<path fill="none" stroke="midnightblue" d="M200.798,-60.1783C188.051,-68.9865 196.785,-78.4212 227,-78.4212 247.301,-78.4212 257.904,-74.1622 258.811,-68.6958"/>
<polygon fill="midnightblue" stroke="midnightblue" points="261.625,-66.6048 253.202,-60.1783 255.779,-70.4549 261.625,-66.6048"/>
</g>
<!-- Node22&#45;&gt;Node10 -->
<g id="edge35" class="edge"><title>Node22&#45;&gt;Node10</title>
<path fill="none" stroke="midnightblue" d="M303.746,-410.421C320.667,-410.421 338.243,-410.421 353.951,-410.421"/>
<polygon fill="midnightblue" stroke="midnightblue" points="353.978,-413.921 363.978,-410.421 353.978,-406.921 353.978,-413.921"/>
</g>
</g>
</svg>
