<?xml version="1.0" encoding="UTF-8" standalone="no"?>
<!DOCTYPE svg PUBLIC "-//W3C//DTD SVG 1.1//EN"
 "http://www.w3.org/Graphics/SVG/1.1/DTD/svg11.dtd">
<!-- Generated by graphviz version 2.36.0 (20140111.2315)
 -->
<!-- Title: handle_error Pages: 1 -->
<svg width="196pt" height="66pt"
 viewBox="0.00 0.00 196.00 66.00" xmlns="http://www.w3.org/2000/svg" xmlns:xlink="http://www.w3.org/1999/xlink">
<g id="graph0" class="graph" transform="scale(1 1) rotate(0) translate(4 62)">
<title>handle_error</title>
<polygon fill="white" stroke="none" points="-4,4 -4,-62 192,-62 192,4 -4,4"/>
<!-- Node1 -->
<g id="node1" class="node"><title>Node1</title>
<polygon fill="#bfbfbf" stroke="black" points="0,-19.5 0,-38.5 70,-38.5 70,-19.5 0,-19.5"/>
<text text-anchor="middle" x="35" y="-26.5" font-family="Helvetica,sans-Serif" font-size="10.00">handle_error</text>
</g>
<!-- Node2 -->
<g id="node2" class="node"><title>Node2</title>
<g id="a_node2"><a xlink:href="mutt__lua_8c.html#a6ac684435aaab276911459678f6c2dc8" target="_top" xlink:title="Call a NeoMutt command by name. ">
<polygon fill="white" stroke="black" points="110,-38.5 110,-57.5 184,-57.5 184,-38.5 110,-38.5"/>
<text text-anchor="middle" x="147" y="-45.5" font-family="Helvetica,sans-Serif" font-size="10.00">lua_mutt_call</text>
</a>
</g>
</g>
<!-- Node1&#45;&gt;Node2 -->
<g id="edge1" class="edge"><title>Node1&#45;&gt;Node2</title>
<path fill="none" stroke="midnightblue" d="M80.2429,-36.642C90.0986,-38.3443 100.434,-40.1295 109.915,-41.7672"/>
<polygon fill="midnightblue" stroke="midnightblue" points="80.6515,-33.1608 70.2017,-34.9076 79.46,-40.0586 80.6515,-33.1608"/>
</g>
<!-- Node3 -->
<g id="node3" class="node"><title>Node3</title>
<g id="a_node3"><a xlink:href="mutt__lua_8c.html#a13c7e223465388b2512f5b07e006fc51" target="_top" xlink:title="Execute NeoMutt config from Lua. ">
<polygon fill="white" stroke="black" points="106.5,-0.5 106.5,-19.5 187.5,-19.5 187.5,-0.5 106.5,-0.5"/>
<text text-anchor="middle" x="147" y="-7.5" font-family="Helvetica,sans-Serif" font-size="10.00">lua_mutt_enter</text>
</a>
</g>
</g>
<!-- Node1&#45;&gt;Node3 -->
<g id="edge2" class="edge"><title>Node1&#45;&gt;Node3</title>
<path fill="none" stroke="midnightblue" d="M80.1682,-21.3709C88.8516,-19.8711 97.91,-18.3065 106.431,-16.8347"/>
<polygon fill="midnightblue" stroke="midnightblue" points="79.46,-17.9414 70.2017,-23.0924 80.6515,-24.8392 79.46,-17.9414"/>
</g>
</g>
</svg>
