<?xml version="1.0" encoding="UTF-8" standalone="no"?>
<!DOCTYPE svg PUBLIC "-//W3C//DTD SVG 1.1//EN"
 "http://www.w3.org/Graphics/SVG/1.1/DTD/svg11.dtd">
<!-- Generated by graphviz version 2.36.0 (20140111.2315)
 -->
<!-- Title: label_ref_dec Pages: 1 -->
<svg width="244pt" height="66pt"
 viewBox="0.00 0.00 244.00 66.00" xmlns="http://www.w3.org/2000/svg" xmlns:xlink="http://www.w3.org/1999/xlink">
<g id="graph0" class="graph" transform="scale(1 1) rotate(0) translate(4 62)">
<title>label_ref_dec</title>
<polygon fill="white" stroke="none" points="-4,4 -4,-62 240,-62 240,4 -4,4"/>
<!-- Node1 -->
<g id="node1" class="node"><title>Node1</title>
<polygon fill="#bfbfbf" stroke="black" points="0,-19.5 0,-38.5 74,-38.5 74,-19.5 0,-19.5"/>
<text text-anchor="middle" x="37" y="-26.5" font-family="Helvetica,sans-Serif" font-size="10.00">label_ref_dec</text>
</g>
<!-- Node2 -->
<g id="node2" class="node"><title>Node2</title>
<g id="a_node2"><a xlink:href="mutt__header_8c.html#a2f2b038ec8d1a4f0db48310e57ba4449" target="_top" xlink:title="add an X&#45;Label: field ">
<polygon fill="white" stroke="red" points="132,-38.5 132,-57.5 214,-57.5 214,-38.5 132,-38.5"/>
<text text-anchor="middle" x="173" y="-45.5" font-family="Helvetica,sans-Serif" font-size="10.00">label_message</text>
</a>
</g>
</g>
<!-- Node1&#45;&gt;Node2 -->
<g id="edge1" class="edge"><title>Node1&#45;&gt;Node2</title>
<path fill="none" stroke="midnightblue" d="M84.1911,-35.5495C99.7241,-37.7519 116.914,-40.1893 131.936,-42.3193"/>
<polygon fill="midnightblue" stroke="midnightblue" points="84.6547,-32.0803 74.2623,-34.1417 83.6719,-39.011 84.6547,-32.0803"/>
</g>
<!-- Node3 -->
<g id="node3" class="node"><title>Node3</title>
<g id="a_node3"><a xlink:href="mutt__header_8h.html#a2f690638ad4f12e949e30d735fa9119b" target="_top" xlink:title="Rmove a message&#39;s labels from the Hash Table. ">
<polygon fill="white" stroke="red" points="110.5,-0.5 110.5,-19.5 235.5,-19.5 235.5,-0.5 110.5,-0.5"/>
<text text-anchor="middle" x="173" y="-7.5" font-family="Helvetica,sans-Serif" font-size="10.00">mutt_label_hash_remove</text>
</a>
</g>
</g>
<!-- Node1&#45;&gt;Node3 -->
<g id="edge2" class="edge"><title>Node1&#45;&gt;Node3</title>
<path fill="none" stroke="midnightblue" d="M84.2644,-22.4401C92.6956,-21.2447 101.613,-19.9803 110.405,-18.7336"/>
<polygon fill="midnightblue" stroke="midnightblue" points="83.6719,-18.989 74.2623,-23.8583 84.6547,-25.9197 83.6719,-18.989"/>
</g>
</g>
</svg>
