<?xml version="1.0" encoding="UTF-8" standalone="no"?>
<!DOCTYPE svg PUBLIC "-//W3C//DTD SVG 1.1//EN"
 "http://www.w3.org/Graphics/SVG/1.1/DTD/svg11.dtd">
<!-- Generated by graphviz version 2.36.0 (20140111.2315)
 -->
<!-- Title: nm_nonctx_get_count Pages: 1 -->
<svg width="342pt" height="218pt"
 viewBox="0.00 0.00 342.00 218.00" xmlns="http://www.w3.org/2000/svg" xmlns:xlink="http://www.w3.org/1999/xlink">
<g id="graph0" class="graph" transform="scale(1 1) rotate(0) translate(4 214)">
<title>nm_nonctx_get_count</title>
<polygon fill="white" stroke="none" points="-4,4 -4,-214 338,-214 338,4 -4,4"/>
<!-- Node1 -->
<g id="node1" class="node"><title>Node1</title>
<polygon fill="#bfbfbf" stroke="black" points="0.5,-95.5 0.5,-114.5 113.5,-114.5 113.5,-95.5 0.5,-95.5"/>
<text text-anchor="middle" x="57" y="-102.5" font-family="Helvetica,sans-Serif" font-size="10.00">nm_nonctx_get_count</text>
</g>
<!-- Node2 -->
<g id="node2" class="node"><title>Node2</title>
<g id="a_node2"><a xlink:href="mutt_2string_8c.html#ae48085384a6545e0fac589a88243ea31" target="_top" xlink:title="Copy a string, safely. ">
<polygon fill="white" stroke="red" points="156.5,-190.5 156.5,-209.5 241.5,-209.5 241.5,-190.5 156.5,-190.5"/>
<text text-anchor="middle" x="199" y="-197.5" font-family="Helvetica,sans-Serif" font-size="10.00">mutt_str_strdup</text>
</a>
</g>
</g>
<!-- Node1&#45;&gt;Node2 -->
<g id="edge1" class="edge"><title>Node1&#45;&gt;Node2</title>
<path fill="none" stroke="midnightblue" d="M67.4328,-114.543C83.2909,-130.16 116.824,-161.398 150,-181 153.238,-182.913 156.705,-184.71 160.238,-186.377"/>
<polygon fill="midnightblue" stroke="midnightblue" points="159.069,-189.685 169.634,-190.477 161.868,-183.27 159.069,-189.685"/>
</g>
<!-- Node3 -->
<g id="node3" class="node"><title>Node3</title>
<g id="a_node3"><a xlink:href="url_8c.html#ad9980fe01b4325f738ebde3c42c9f632" target="_top" xlink:title="Fill in Url. ">
<polygon fill="white" stroke="red" points="171,-152.5 171,-171.5 227,-171.5 227,-152.5 171,-152.5"/>
<text text-anchor="middle" x="199" y="-159.5" font-family="Helvetica,sans-Serif" font-size="10.00">url_parse</text>
</a>
</g>
</g>
<!-- Node1&#45;&gt;Node3 -->
<g id="edge2" class="edge"><title>Node1&#45;&gt;Node3</title>
<path fill="none" stroke="midnightblue" d="M81.4329,-114.541C104.349,-123.87 139.45,-138.162 165.147,-148.624"/>
<polygon fill="midnightblue" stroke="midnightblue" points="163.909,-151.899 174.491,-152.428 166.549,-145.416 163.909,-151.899"/>
</g>
<!-- Node4 -->
<g id="node4" class="node"><title>Node4</title>
<g id="a_node4"><a xlink:href="url_8c.html#a2ed367f71739ce9809c32aa452855ec2" target="_top" xlink:title="Free the contents of a URL. ">
<polygon fill="white" stroke="black" points="284.5,-133.5 284.5,-152.5 333.5,-152.5 333.5,-133.5 284.5,-133.5"/>
<text text-anchor="middle" x="309" y="-140.5" font-family="Helvetica,sans-Serif" font-size="10.00">url_free</text>
</a>
</g>
</g>
<!-- Node1&#45;&gt;Node4 -->
<g id="edge7" class="edge"><title>Node1&#45;&gt;Node4</title>
<path fill="none" stroke="midnightblue" d="M113.794,-113.481C163.04,-120.966 233.214,-131.633 274.341,-137.884"/>
<polygon fill="midnightblue" stroke="midnightblue" points="273.975,-141.368 284.387,-139.411 275.027,-134.448 273.975,-141.368"/>
</g>
<!-- Node5 -->
<g id="node5" class="node"><title>Node5</title>
<g id="a_node5"><a xlink:href="mutt__notmuch_8c.html#abc7e957f012b22e60c564de1533b7853" target="_top" xlink:title="Open a Notmuch database. ">
<polygon fill="white" stroke="red" points="150,-76.5 150,-95.5 248,-95.5 248,-76.5 150,-76.5"/>
<text text-anchor="middle" x="199" y="-83.5" font-family="Helvetica,sans-Serif" font-size="10.00">do_database_open</text>
</a>
</g>
</g>
<!-- Node1&#45;&gt;Node5 -->
<g id="edge4" class="edge"><title>Node1&#45;&gt;Node5</title>
<path fill="none" stroke="midnightblue" d="M113.734,-97.4361C122.284,-96.2758 131.13,-95.0752 139.733,-93.9076"/>
<polygon fill="midnightblue" stroke="midnightblue" points="140.25,-97.3697 149.688,-92.5566 139.308,-90.4333 140.25,-97.3697"/>
</g>
<!-- Node6 -->
<g id="node6" class="node"><title>Node6</title>
<g id="a_node6"><a xlink:href="mutt__notmuch_8c.html#a541bf8a886adf47264be0a20bb471757" target="_top" xlink:title="Count the results of a query. ">
<polygon fill="white" stroke="red" points="164,-38.5 164,-57.5 234,-57.5 234,-38.5 164,-38.5"/>
<text text-anchor="middle" x="199" y="-45.5" font-family="Helvetica,sans-Serif" font-size="10.00">count_query</text>
</a>
</g>
</g>
<!-- Node1&#45;&gt;Node6 -->
<g id="edge5" class="edge"><title>Node1&#45;&gt;Node6</title>
<path fill="none" stroke="midnightblue" d="M81.0248,-95.3792C99.6106,-87.6399 126.45,-76.524 150,-67 154.539,-65.1645 159.326,-63.2473 164.049,-61.3667"/>
<polygon fill="midnightblue" stroke="midnightblue" points="165.549,-64.5371 173.553,-57.5961 162.967,-58.0304 165.549,-64.5371"/>
</g>
<!-- Node7 -->
<g id="node7" class="node"><title>Node7</title>
<g id="a_node7"><a xlink:href="mutt_8h.html#ad1a388959f6ee550c4a75ae7b1e93a16" target="_top" xlink:title="safe_asprintf">
<polygon fill="white" stroke="red" points="162.5,-0.5 162.5,-19.5 235.5,-19.5 235.5,-0.5 162.5,-0.5"/>
<text text-anchor="middle" x="199" y="-7.5" font-family="Helvetica,sans-Serif" font-size="10.00">safe_asprintf</text>
</a>
</g>
</g>
<!-- Node1&#45;&gt;Node7 -->
<g id="edge6" class="edge"><title>Node1&#45;&gt;Node7</title>
<path fill="none" stroke="midnightblue" d="M67.4328,-95.4573C83.2909,-79.84 116.824,-48.6024 150,-29 153.238,-27.0866 156.705,-25.2898 160.238,-23.623"/>
<polygon fill="midnightblue" stroke="midnightblue" points="161.868,-26.7304 169.634,-19.5232 159.069,-20.3146 161.868,-26.7304"/>
</g>
<!-- Node3&#45;&gt;Node4 -->
<g id="edge3" class="edge"><title>Node3&#45;&gt;Node4</title>
<path fill="none" stroke="midnightblue" d="M227.253,-157.205C241.571,-154.687 259.245,-151.577 274.403,-148.911"/>
<polygon fill="midnightblue" stroke="midnightblue" points="275.182,-152.327 284.424,-147.148 273.969,-145.433 275.182,-152.327"/>
</g>
</g>
</svg>
