<?xml version="1.0" encoding="UTF-8" standalone="no"?>
<!DOCTYPE svg PUBLIC "-//W3C//DTD SVG 1.1//EN"
 "http://www.w3.org/Graphics/SVG/1.1/DTD/svg11.dtd">
<!-- Generated by graphviz version 2.36.0 (20140111.2315)
 -->
<!-- Title: mutt_log_listener Pages: 1 -->
<svg width="486pt" height="85pt"
 viewBox="0.00 0.00 486.00 85.00" xmlns="http://www.w3.org/2000/svg" xmlns:xlink="http://www.w3.org/1999/xlink">
<g id="graph0" class="graph" transform="scale(1 1) rotate(0) translate(4 81)">
<title>mutt_log_listener</title>
<polygon fill="white" stroke="none" points="-4,4 -4,-81 482,-81 482,4 -4,4"/>
<!-- Node1 -->
<g id="node1" class="node"><title>Node1</title>
<polygon fill="#bfbfbf" stroke="black" points="0.5,-38.5 0.5,-57.5 91.5,-57.5 91.5,-38.5 0.5,-38.5"/>
<text text-anchor="middle" x="46" y="-45.5" font-family="Helvetica,sans-Serif" font-size="10.00">mutt_log_listener</text>
</g>
<!-- Node2 -->
<g id="node2" class="node"><title>Node2</title>
<g id="a_node2"><a xlink:href="mutt_2string_8c.html#ab4aaf8bd2ce3982651f0f949d6c665e2" target="_top" xlink:title="Compare two strings, safely. ">
<polygon fill="white" stroke="black" points="390,-57.5 390,-76.5 478,-76.5 478,-57.5 390,-57.5"/>
<text text-anchor="middle" x="434" y="-64.5" font-family="Helvetica,sans-Serif" font-size="10.00">mutt_str_strcmp</text>
</a>
</g>
</g>
<!-- Node1&#45;&gt;Node2 -->
<g id="edge1" class="edge"><title>Node1&#45;&gt;Node2</title>
<path fill="none" stroke="midnightblue" d="M91.8375,-56.8511C103.563,-58.8629 116.219,-60.7677 128,-62 215.881,-71.1924 318.766,-70.5264 379.768,-68.9477"/>
<polygon fill="midnightblue" stroke="midnightblue" points="380.024,-72.4421 389.923,-68.6663 379.83,-65.4447 380.024,-72.4421"/>
</g>
<!-- Node3 -->
<g id="node3" class="node"><title>Node3</title>
<g id="a_node3"><a xlink:href="mutt__logging_8c.html#ad4f467432144a2a9f23e60eb2af9c5c2" target="_top" xlink:title="Change the logging file. ">
<polygon fill="white" stroke="red" points="262.5,-38.5 262.5,-57.5 353.5,-57.5 353.5,-38.5 262.5,-38.5"/>
<text text-anchor="middle" x="308" y="-45.5" font-family="Helvetica,sans-Serif" font-size="10.00">mutt_log_set_file</text>
</a>
</g>
</g>
<!-- Node1&#45;&gt;Node3 -->
<g id="edge2" class="edge"><title>Node1&#45;&gt;Node3</title>
<path fill="none" stroke="midnightblue" d="M91.6956,-48C136.198,-48 204.579,-48 252.3,-48"/>
<polygon fill="midnightblue" stroke="midnightblue" points="252.453,-51.5001 262.453,-48 252.453,-44.5001 252.453,-51.5001"/>
</g>
<!-- Node4 -->
<g id="node4" class="node"><title>Node4</title>
<g id="a_node4"><a xlink:href="mutt__logging_8c.html#a83f78100474c4e9db5ac2358f1dc59f9" target="_top" xlink:title="Change the logging level. ">
<polygon fill="white" stroke="red" points="128,-0.5 128,-19.5 226,-19.5 226,-0.5 128,-0.5"/>
<text text-anchor="middle" x="177" y="-7.5" font-family="Helvetica,sans-Serif" font-size="10.00">mutt_log_set_level</text>
</a>
</g>
</g>
<!-- Node1&#45;&gt;Node4 -->
<g id="edge4" class="edge"><title>Node1&#45;&gt;Node4</title>
<path fill="none" stroke="midnightblue" d="M79.5521,-38.411C95.8993,-33.5956 115.909,-27.7012 133.457,-22.532"/>
<polygon fill="midnightblue" stroke="midnightblue" points="134.855,-25.7691 143.458,-19.5859 132.877,-19.0543 134.855,-25.7691"/>
</g>
<!-- Node3&#45;&gt;Node2 -->
<g id="edge3" class="edge"><title>Node3&#45;&gt;Node2</title>
<path fill="none" stroke="midnightblue" d="M353.767,-54.8594C362.243,-56.1582 371.186,-57.5286 379.891,-58.8623"/>
<polygon fill="midnightblue" stroke="midnightblue" points="379.542,-62.3497 389.957,-60.4047 380.603,-55.4304 379.542,-62.3497"/>
</g>
<!-- Node4&#45;&gt;Node3 -->
<g id="edge5" class="edge"><title>Node4&#45;&gt;Node3</title>
<path fill="none" stroke="midnightblue" d="M210.552,-19.589C226.899,-24.4044 246.909,-30.2988 264.457,-35.468"/>
<polygon fill="midnightblue" stroke="midnightblue" points="263.877,-38.9457 274.458,-38.4141 265.855,-32.2309 263.877,-38.9457"/>
</g>
</g>
</svg>
