<?xml version="1.0" encoding="UTF-8" standalone="no"?>
<!DOCTYPE svg PUBLIC "-//W3C//DTD SVG 1.1//EN"
 "http://www.w3.org/Graphics/SVG/1.1/DTD/svg11.dtd">
<!-- Generated by graphviz version 2.36.0 (20140111.2315)
 -->
<!-- Title: mutt_expand_path Pages: 1 -->
<svg width="958pt" height="1498pt"
 viewBox="0.00 0.00 958.00 1498.08" xmlns="http://www.w3.org/2000/svg" xmlns:xlink="http://www.w3.org/1999/xlink">
<g id="graph0" class="graph" transform="scale(1 1) rotate(0) translate(4 1494.08)">
<title>mutt_expand_path</title>
<polygon fill="white" stroke="none" points="-4,4 -4,-1494.08 954,-1494.08 954,4 -4,4"/>
<!-- Node1 -->
<g id="node1" class="node"><title>Node1</title>
<polygon fill="#bfbfbf" stroke="black" points="0.5,-747.432 0.5,-766.432 97.5,-766.432 97.5,-747.432 0.5,-747.432"/>
<text text-anchor="middle" x="49" y="-754.432" font-family="Helvetica,sans-Serif" font-size="10.00">mutt_expand_path</text>
</g>
<!-- Node2 -->
<g id="node2" class="node"><title>Node2</title>
<g id="a_node2"><a xlink:href="alias_8h.html#a95a1f5c567eca51458f60800bef47c84" target="_top" xlink:title="Create a new Alias from an Envelope or an Address. ">
<polygon fill="white" stroke="red" points="316,-1050.43 316,-1069.43 410,-1069.43 410,-1050.43 316,-1050.43"/>
<text text-anchor="middle" x="363" y="-1057.43" font-family="Helvetica,sans-Serif" font-size="10.00">mutt_alias_create</text>
</a>
</g>
</g>
<!-- Node1&#45;&gt;Node2 -->
<g id="edge1" class="edge"><title>Node1&#45;&gt;Node2</title>
<path fill="none" stroke="midnightblue" d="M52.4902,-776.62C60.6326,-837.525 88.5838,-1020.89 134,-1055.93 191.984,-1100.68 285.232,-1082.84 332.495,-1069.5"/>
<polygon fill="midnightblue" stroke="midnightblue" points="55.9269,-775.906 51.1634,-766.442 48.9856,-776.811 55.9269,-775.906"/>
</g>
<!-- Node3 -->
<g id="node3" class="node"><title>Node3</title>
<g id="a_node3"><a xlink:href="curs__main_8h.html#af7d9d8649ad205788c9af1bbf871207f" target="_top" xlink:title="Display a list of emails. ">
<polygon fill="white" stroke="black" points="485,-1050.43 485,-1069.43 579,-1069.43 579,-1050.43 485,-1050.43"/>
<text text-anchor="middle" x="532" y="-1057.43" font-family="Helvetica,sans-Serif" font-size="10.00">mutt_index_menu</text>
</a>
</g>
</g>
<!-- Node1&#45;&gt;Node3 -->
<g id="edge20" class="edge"><title>Node1&#45;&gt;Node3</title>
<path fill="none" stroke="midnightblue" d="M49.3585,-776.757C48.9223,-827.374 55.555,-961.694 134,-1022.93 159.973,-1043.21 397.301,-1036.88 430,-1040.93 448.769,-1043.26 469.311,-1046.92 486.94,-1050.4"/>
<polygon fill="midnightblue" stroke="midnightblue" points="52.8623,-776.593 49.5585,-766.527 45.8636,-776.456 52.8623,-776.593"/>
</g>
<!-- Node4 -->
<g id="node4" class="node"><title>Node4</title>
<g id="a_node4"><a xlink:href="compose_8h.html#ad69c04d8ece089edb91f7b1178c2262c" target="_top" xlink:title="Allow the user to edit the message envelope. ">
<polygon fill="white" stroke="black" points="634,-405.432 634,-424.432 744,-424.432 744,-405.432 634,-405.432"/>
<text text-anchor="middle" x="689" y="-412.432" font-family="Helvetica,sans-Serif" font-size="10.00">mutt_compose_menu</text>
</a>
</g>
</g>
<!-- Node1&#45;&gt;Node4 -->
<g id="edge17" class="edge"><title>Node1&#45;&gt;Node4</title>
<path fill="none" stroke="midnightblue" d="M50.2529,-737.081C51.7637,-654.315 62.2196,-338.22 134,-277.932 306.98,-132.647 611.279,-354.821 675.775,-405.16"/>
<polygon fill="midnightblue" stroke="midnightblue" points="46.7521,-737.106 50.0936,-747.16 53.7513,-737.216 46.7521,-737.106"/>
</g>
<!-- Node5 -->
<g id="node5" class="node"><title>Node5</title>
<g id="a_node5"><a xlink:href="send_8h.html#a09c909ab2bb41101590ed2b13f65fc2d" target="_top" xlink:title="Send an email. ">
<polygon fill="white" stroke="red" points="780.5,-405.432 780.5,-424.432 875.5,-424.432 875.5,-405.432 780.5,-405.432"/>
<text text-anchor="middle" x="828" y="-412.432" font-family="Helvetica,sans-Serif" font-size="10.00">ci_send_message</text>
</a>
</g>
</g>
<!-- Node1&#45;&gt;Node5 -->
<g id="edge72" class="edge"><title>Node1&#45;&gt;Node5</title>
<path fill="none" stroke="midnightblue" d="M49.892,-737.186C49.8321,-646.62 54.4573,-272.085 134,-194.932 207.246,-123.887 259.959,-167.932 362,-167.932 362,-167.932 362,-167.932 533,-167.932 590.174,-167.932 735.669,-244.025 744,-251.932 792.138,-297.624 816.997,-377.352 824.502,-405.087"/>
<polygon fill="midnightblue" stroke="midnightblue" points="46.3926,-737.42 49.921,-747.41 53.3926,-737.4 46.3926,-737.42"/>
</g>
<!-- Node6 -->
<g id="node6" class="node"><title>Node6</title>
<g id="a_node6"><a xlink:href="main_8c.html#adedb285b02c41bde2158ded9cc9fd7ac" target="_top" xlink:title="Start NeoMutt. ">
<polygon fill="white" stroke="black" points="912,-1173.43 912,-1192.43 950,-1192.43 950,-1173.43 912,-1173.43"/>
<text text-anchor="middle" x="931" y="-1180.43" font-family="Helvetica,sans-Serif" font-size="10.00">main</text>
</a>
</g>
</g>
<!-- Node1&#45;&gt;Node6 -->
<g id="edge43" class="edge"><title>Node1&#45;&gt;Node6</title>
<path fill="none" stroke="midnightblue" d="M50.9939,-776.826C56.575,-884.834 85.5103,-1397.76 134,-1446.93 205.805,-1519.75 259.734,-1477.93 362,-1477.93 362,-1477.93 362,-1477.93 690,-1477.93 777.138,-1477.93 817.347,-1480.38 876,-1415.93 906.954,-1381.92 924.769,-1232.33 929.009,-1192.63"/>
<polygon fill="midnightblue" stroke="midnightblue" points="54.4811,-776.483 50.477,-766.674 47.4901,-776.839 54.4811,-776.483"/>
</g>
<!-- Node7 -->
<g id="node7" class="node"><title>Node7</title>
<g id="a_node7"><a xlink:href="browser_8h.html#ab036990112b8014c0b84c401e77f96d3" target="_top" xlink:title="Let the user select a file. ">
<polygon fill="white" stroke="red" points="154,-1354.43 154,-1373.43 240,-1373.43 240,-1354.43 154,-1354.43"/>
<text text-anchor="middle" x="197" y="-1361.43" font-family="Helvetica,sans-Serif" font-size="10.00">mutt_select_file</text>
</a>
</g>
</g>
<!-- Node1&#45;&gt;Node7 -->
<g id="edge8" class="edge"><title>Node1&#45;&gt;Node7</title>
<path fill="none" stroke="midnightblue" d="M50.0806,-776.979C50.856,-869.773 58.6263,-1256.82 134,-1344.93 139.196,-1351.01 146.279,-1355.17 153.802,-1358.02"/>
<polygon fill="midnightblue" stroke="midnightblue" points="53.5791,-776.711 50.0148,-766.734 46.5792,-776.756 53.5791,-776.711"/>
</g>
<!-- Node8 -->
<g id="node8" class="node"><title>Node8</title>
<g id="a_node8"><a xlink:href="protos_8h.html#a76d3af6aa66fa26ade9ea489243b5256" target="_top" xlink:title="Ask the user for a string. ">
<polygon fill="white" stroke="red" points="308,-1316.43 308,-1335.43 418,-1335.43 418,-1316.43 308,-1316.43"/>
<text text-anchor="middle" x="363" y="-1323.43" font-family="Helvetica,sans-Serif" font-size="10.00">mutt_enter_string_full</text>
</a>
</g>
</g>
<!-- Node1&#45;&gt;Node8 -->
<g id="edge24" class="edge"><title>Node1&#45;&gt;Node8</title>
<path fill="none" stroke="midnightblue" d="M50.4434,-776.853C52.7487,-862.092 66.0381,-1195.13 134,-1268.93 146.109,-1282.08 248.488,-1303.94 311.87,-1316.42"/>
<polygon fill="midnightblue" stroke="midnightblue" points="53.939,-776.628 50.1909,-766.719 46.9412,-776.803 53.939,-776.628"/>
</g>
<!-- Node9 -->
<g id="node9" class="node"><title>Node9</title>
<g id="a_node9"><a xlink:href="commands_8h.html#a73da734918e32833e0d6c4247d8562b7" target="_top" xlink:title="Pipe a message. ">
<polygon fill="white" stroke="red" points="311,-851.432 311,-870.432 415,-870.432 415,-851.432 311,-851.432"/>
<text text-anchor="middle" x="363" y="-858.432" font-family="Helvetica,sans-Serif" font-size="10.00">mutt_pipe_message</text>
</a>
</g>
</g>
<!-- Node1&#45;&gt;Node9 -->
<g id="edge11" class="edge"><title>Node1&#45;&gt;Node9</title>
<path fill="none" stroke="midnightblue" d="M103.639,-745.835C147.466,-739.325 210.103,-735.98 260,-756.932 306.869,-776.613 343.019,-829.502 356.389,-851.319"/>
<polygon fill="midnightblue" stroke="midnightblue" points="103.083,-742.38 93.7552,-747.404 104.18,-749.293 103.083,-742.38"/>
</g>
<!-- Node10 -->
<g id="node10" class="node"><title>Node10</title>
<g id="a_node10"><a xlink:href="commands_8h.html#aba91885b9f8d6c999aa5028baa845fa6" target="_top" xlink:title="Save an email. ">
<polygon fill="white" stroke="red" points="309.5,-1202.43 309.5,-1221.43 416.5,-1221.43 416.5,-1202.43 309.5,-1202.43"/>
<text text-anchor="middle" x="363" y="-1209.43" font-family="Helvetica,sans-Serif" font-size="10.00">mutt_save_message</text>
</a>
</g>
</g>
<!-- Node1&#45;&gt;Node10 -->
<g id="edge13" class="edge"><title>Node1&#45;&gt;Node10</title>
<path fill="none" stroke="midnightblue" d="M50.7644,-776.804C54.1915,-854.497 70.8587,-1136.22 134,-1192.93 185.566,-1239.25 272.77,-1231.25 323.067,-1221.46"/>
<polygon fill="midnightblue" stroke="midnightblue" points="54.2489,-776.356 50.3368,-766.51 47.255,-776.646 54.2489,-776.356"/>
</g>
<!-- Node11 -->
<g id="node11" class="node"><title>Node11</title>
<g id="a_node11"><a xlink:href="protos_8h.html#a72b3c85bc14241321c26350fd4a26b37" target="_top" xlink:title="Attempt to complete a partial pathname. ">
<polygon fill="white" stroke="black" points="156.5,-1316.43 156.5,-1335.43 237.5,-1335.43 237.5,-1316.43 156.5,-1316.43"/>
<text text-anchor="middle" x="197" y="-1323.43" font-family="Helvetica,sans-Serif" font-size="10.00">mutt_complete</text>
</a>
</g>
</g>
<!-- Node1&#45;&gt;Node11 -->
<g id="edge15" class="edge"><title>Node1&#45;&gt;Node11</title>
<path fill="none" stroke="midnightblue" d="M50.4775,-777.061C52.9573,-865.462 66.9727,-1218.57 134,-1301.93 139.714,-1309.04 147.805,-1314.04 156.263,-1317.57"/>
<polygon fill="midnightblue" stroke="midnightblue" points="53.9696,-776.709 50.2095,-766.803 46.972,-776.891 53.9696,-776.709"/>
</g>
<!-- Node12 -->
<g id="node12" class="node"><title>Node12</title>
<g id="a_node12"><a xlink:href="curs__main_8c.html#a844b442c9ee0ab05978a40172e08e468" target="_top" xlink:title="Change to a different mailbox. ">
<polygon fill="white" stroke="black" points="311,-1088.43 311,-1107.43 415,-1107.43 415,-1088.43 311,-1088.43"/>
<text text-anchor="middle" x="363" y="-1095.43" font-family="Helvetica,sans-Serif" font-size="10.00">main_change_folder</text>
</a>
</g>
</g>
<!-- Node1&#45;&gt;Node12 -->
<g id="edge18" class="edge"><title>Node1&#45;&gt;Node12</title>
<path fill="none" stroke="midnightblue" d="M52.0739,-776.667C59.2842,-841.164 85.5045,-1043.88 134,-1083.93 188.275,-1128.76 276.896,-1118.15 326.143,-1107.44"/>
<polygon fill="midnightblue" stroke="midnightblue" points="55.5409,-776.172 50.9801,-766.61 48.5819,-776.929 55.5409,-776.172"/>
</g>
<!-- Node13 -->
<g id="node13" class="node"><title>Node13</title>
<g id="a_node13"><a xlink:href="edit_8h.html#aeb4e60554eec83493fcc39e7d5e10f85" target="_top" xlink:title="Show the user the built&#45;in editor. ">
<polygon fill="white" stroke="black" points="484,-196.432 484,-215.432 580,-215.432 580,-196.432 484,-196.432"/>
<text text-anchor="middle" x="532" y="-203.432" font-family="Helvetica,sans-Serif" font-size="10.00">mutt_builtin_editor</text>
</a>
</g>
</g>
<!-- Node1&#45;&gt;Node13 -->
<g id="edge21" class="edge"><title>Node1&#45;&gt;Node13</title>
<path fill="none" stroke="midnightblue" d="M50.0096,-736.931C50.5026,-649.172 57.3147,-299.47 134,-229.932 184.064,-184.534 389.686,-194.531 483.7,-201.751"/>
<polygon fill="midnightblue" stroke="midnightblue" points="46.5091,-737.107 49.9757,-747.119 53.5091,-737.13 46.5091,-737.107"/>
</g>
<!-- Node14 -->
<g id="node14" class="node"><title>Node14</title>
<g id="a_node14"><a xlink:href="hook_8c.html#a1f7402155273ed32b2b3ae49324689ac" target="_top" xlink:title="TAILQ_HEAD">
<polygon fill="white" stroke="black" points="157.5,-994.432 157.5,-1013.43 236.5,-1013.43 236.5,-994.432 157.5,-994.432"/>
<text text-anchor="middle" x="197" y="-1001.43" font-family="Helvetica,sans-Serif" font-size="10.00">TAILQ_HEAD</text>
</a>
</g>
</g>
<!-- Node1&#45;&gt;Node14 -->
<g id="edge25" class="edge"><title>Node1&#45;&gt;Node14</title>
<path fill="none" stroke="midnightblue" d="M51.5262,-776.815C55.978,-820.809 72.822,-927.066 134,-984.932 140.461,-991.044 148.839,-995.193 157.335,-998.008"/>
<polygon fill="midnightblue" stroke="midnightblue" points="55.0084,-776.46 50.6242,-766.815 48.0367,-777.089 55.0084,-776.46"/>
</g>
<!-- Node15 -->
<g id="node15" class="node"><title>Node15</title>
<g id="a_node15"><a xlink:href="init_8c.html#a97ee5f1b668dcb2b7ddccad3244d3bb0" target="_top" xlink:title="Parse the &#39;sidebar_whitelist&#39; command &#45; Implements command_t. ">
<polygon fill="white" stroke="black" points="155.5,-956.432 155.5,-975.432 238.5,-975.432 238.5,-956.432 155.5,-956.432"/>
<text text-anchor="middle" x="197" y="-963.432" font-family="Helvetica,sans-Serif" font-size="10.00">parse_path_list</text>
</a>
</g>
</g>
<!-- Node1&#45;&gt;Node15 -->
<g id="edge26" class="edge"><title>Node1&#45;&gt;Node15</title>
<path fill="none" stroke="midnightblue" d="M53.101,-776.336C60.2455,-814.641 81.4642,-900.299 134,-946.932 140.062,-952.313 147.619,-956.17 155.349,-958.935"/>
<polygon fill="midnightblue" stroke="midnightblue" points="56.5448,-775.71 51.3801,-766.459 49.6487,-776.912 56.5448,-775.71"/>
</g>
<!-- Node16 -->
<g id="node16" class="node"><title>Node16</title>
<g id="a_node16"><a xlink:href="init_8c.html#ab53c945645e550b72e5b95f3e19387c3" target="_top" xlink:title="Parse the &#39;unsidebar_whitelist&#39; command &#45; Implements command_t. ">
<polygon fill="white" stroke="black" points="150.5,-918.432 150.5,-937.432 243.5,-937.432 243.5,-918.432 150.5,-918.432"/>
<text text-anchor="middle" x="197" y="-925.432" font-family="Helvetica,sans-Serif" font-size="10.00">parse_path_unlist</text>
</a>
</g>
</g>
<!-- Node1&#45;&gt;Node16 -->
<g id="edge27" class="edge"><title>Node1&#45;&gt;Node16</title>
<path fill="none" stroke="midnightblue" d="M55.4959,-776.429C65.6106,-808.764 90.2473,-873.431 134,-908.932 138.808,-912.833 144.412,-915.935 150.248,-918.402"/>
<polygon fill="midnightblue" stroke="midnightblue" points="58.8327,-775.371 52.6158,-766.792 52.1258,-777.376 58.8327,-775.371"/>
</g>
<!-- Node17 -->
<g id="node17" class="node"><title>Node17</title>
<g id="a_node17"><a xlink:href="init_8c.html#a8f0f3d5856d7f876c0dbf004faeeb8ad" target="_top" xlink:title="Parse the &#39;set&#39; family of commands &#45; Implements command_t. ">
<polygon fill="white" stroke="black" points="167.5,-880.432 167.5,-899.432 226.5,-899.432 226.5,-880.432 167.5,-880.432"/>
<text text-anchor="middle" x="197" y="-887.432" font-family="Helvetica,sans-Serif" font-size="10.00">parse_set</text>
</a>
</g>
</g>
<!-- Node1&#45;&gt;Node17 -->
<g id="edge28" class="edge"><title>Node1&#45;&gt;Node17</title>
<path fill="none" stroke="midnightblue" d="M58.9935,-775.758C72.0352,-801.078 98.5664,-845.819 134,-870.932 143.828,-877.898 156.272,-882.36 167.428,-885.194"/>
<polygon fill="midnightblue" stroke="midnightblue" points="61.9741,-773.892 54.3831,-766.5 55.7081,-777.012 61.9741,-773.892"/>
</g>
<!-- Node18 -->
<g id="node18" class="node"><title>Node18</title>
<g id="a_node18"><a xlink:href="init_8c.html#a08fc61eae4f448e53c54d189ee6db6da" target="_top" xlink:title="Parse the &#39;source&#39; command &#45; Implements command_t. ">
<polygon fill="white" stroke="black" points="159.5,-842.432 159.5,-861.432 234.5,-861.432 234.5,-842.432 159.5,-842.432"/>
<text text-anchor="middle" x="197" y="-849.432" font-family="Helvetica,sans-Serif" font-size="10.00">parse_source</text>
</a>
</g>
</g>
<!-- Node1&#45;&gt;Node18 -->
<g id="edge29" class="edge"><title>Node1&#45;&gt;Node18</title>
<path fill="none" stroke="midnightblue" d="M64.8289,-774.199C80.437,-791.365 106.517,-817.327 134,-832.932 141.832,-837.379 150.824,-840.902 159.485,-843.645"/>
<polygon fill="midnightblue" stroke="midnightblue" points="67.3046,-771.715 58.0476,-766.562 62.0704,-776.363 67.3046,-771.715"/>
</g>
<!-- Node19 -->
<g id="node19" class="node"><title>Node19</title>
<g id="a_node19"><a xlink:href="init_8c.html#ad21e20bfd3cee149a284078831a6c118" target="_top" xlink:title="Parse the &#39;subscribe&#45;to&#39; command &#45; Implements command_t. ">
<polygon fill="white" stroke="black" points="146.5,-804.432 146.5,-823.432 247.5,-823.432 247.5,-804.432 146.5,-804.432"/>
<text text-anchor="middle" x="197" y="-811.432" font-family="Helvetica,sans-Serif" font-size="10.00">parse_subscribe_to</text>
</a>
</g>
</g>
<!-- Node1&#45;&gt;Node19 -->
<g id="edge30" class="edge"><title>Node1&#45;&gt;Node19</title>
<path fill="none" stroke="midnightblue" d="M78.7545,-771.038C94.8014,-778.631 115.276,-787.861 134,-794.932 142.952,-798.313 152.795,-801.543 161.949,-804.351"/>
<polygon fill="midnightblue" stroke="midnightblue" points="79.9214,-767.717 69.3903,-766.557 76.8994,-774.031 79.9214,-767.717"/>
</g>
<!-- Node20 -->
<g id="node20" class="node"><title>Node20</title>
<g id="a_node20"><a xlink:href="init_8c.html#a392ff8e059a9d121453f4bbf1f6c72df" target="_top" xlink:title="Parse the &#39;unsubscribe&#45;from&#39; command &#45; Implements command_t. ">
<polygon fill="white" stroke="black" points="135.5,-766.432 135.5,-785.432 258.5,-785.432 258.5,-766.432 135.5,-766.432"/>
<text text-anchor="middle" x="197" y="-773.432" font-family="Helvetica,sans-Serif" font-size="10.00">parse_unsubscribe_from</text>
</a>
</g>
</g>
<!-- Node1&#45;&gt;Node20 -->
<g id="edge31" class="edge"><title>Node1&#45;&gt;Node20</title>
<path fill="none" stroke="midnightblue" d="M107.83,-764.458C116.857,-765.633 126.209,-766.85 135.298,-768.033"/>
<polygon fill="midnightblue" stroke="midnightblue" points="108.174,-760.973 97.8059,-763.153 107.271,-767.915 108.174,-760.973"/>
</g>
<!-- Node21 -->
<g id="node21" class="node"><title>Node21</title>
<g id="a_node21"><a xlink:href="mutt_8h.html#a81fd8c287cd99179a455c6809855953c" target="_top" xlink:title="Initialise NeoMutt. ">
<polygon fill="white" stroke="black" points="336,-1392.43 336,-1411.43 390,-1411.43 390,-1392.43 336,-1392.43"/>
<text text-anchor="middle" x="363" y="-1399.43" font-family="Helvetica,sans-Serif" font-size="10.00">mutt_init</text>
</a>
</g>
</g>
<!-- Node1&#45;&gt;Node21 -->
<g id="edge32" class="edge"><title>Node1&#45;&gt;Node21</title>
<path fill="none" stroke="midnightblue" d="M50.9804,-776.841C56.3951,-882.771 84.2197,-1377.05 134,-1420.93 193.892,-1473.72 300.29,-1431.9 343.244,-1411.5"/>
<polygon fill="midnightblue" stroke="midnightblue" points="54.4638,-776.421 50.466,-766.61 47.4726,-776.773 54.4638,-776.421"/>
</g>
<!-- Node22 -->
<g id="node22" class="node"><title>Node22</title>
<g id="a_node22"><a xlink:href="mailbox_8c.html#af18f56b0ecea4eb6f5fdd08e0661853f" target="_top" xlink:title="Fetch mailbox object for given path, if present. ">
<polygon fill="white" stroke="red" points="162.5,-690.432 162.5,-709.432 231.5,-709.432 231.5,-690.432 162.5,-690.432"/>
<text text-anchor="middle" x="197" y="-697.432" font-family="Helvetica,sans-Serif" font-size="10.00">mailbox_get</text>
</a>
</g>
</g>
<!-- Node1&#45;&gt;Node22 -->
<g id="edge34" class="edge"><title>Node1&#45;&gt;Node22</title>
<path fill="none" stroke="midnightblue" d="M83.8256,-743.599C99.1393,-737.574 117.475,-730.376 134,-723.932 146.259,-719.151 159.895,-713.869 171.25,-709.48"/>
<polygon fill="midnightblue" stroke="midnightblue" points="82.2712,-740.449 74.2481,-747.369 84.8352,-746.963 82.2712,-740.449"/>
</g>
<!-- Node23 -->
<g id="node23" class="node"><title>Node23</title>
<g id="a_node23"><a xlink:href="mailbox_8h.html#ac7910b4a4a4de3441e83a9c43fcc916c" target="_top" xlink:title="Parse the &#39;mailboxes&#39; command. ">
<polygon fill="white" stroke="black" points="139.5,-652.432 139.5,-671.432 254.5,-671.432 254.5,-652.432 139.5,-652.432"/>
<text text-anchor="middle" x="197" y="-659.432" font-family="Helvetica,sans-Serif" font-size="10.00">mutt_parse_mailboxes</text>
</a>
</g>
</g>
<!-- Node1&#45;&gt;Node23 -->
<g id="edge35" class="edge"><title>Node1&#45;&gt;Node23</title>
<path fill="none" stroke="midnightblue" d="M64.8289,-739.666C80.437,-722.499 106.517,-696.537 134,-680.932 140.657,-677.152 148.152,-674.04 155.57,-671.507"/>
<polygon fill="midnightblue" stroke="midnightblue" points="62.0704,-737.501 58.0476,-747.302 67.3046,-742.149 62.0704,-737.501"/>
</g>
<!-- Node24 -->
<g id="node24" class="node"><title>Node24</title>
<g id="a_node24"><a xlink:href="mailbox_8h.html#a5d6d546451773f4c3be07a16d313e824" target="_top" xlink:title="Parse the &#39;unmailboxes&#39; command. ">
<polygon fill="white" stroke="black" points="134.5,-614.432 134.5,-633.432 259.5,-633.432 259.5,-614.432 134.5,-614.432"/>
<text text-anchor="middle" x="197" y="-621.432" font-family="Helvetica,sans-Serif" font-size="10.00">mutt_parse_unmailboxes</text>
</a>
</g>
</g>
<!-- Node1&#45;&gt;Node24 -->
<g id="edge36" class="edge"><title>Node1&#45;&gt;Node24</title>
<path fill="none" stroke="midnightblue" d="M58.9935,-738.106C72.0352,-712.786 98.5664,-668.045 134,-642.932 139.419,-639.091 145.634,-636.012 151.989,-633.546"/>
<polygon fill="midnightblue" stroke="midnightblue" points="55.7081,-736.852 54.3831,-747.364 61.9741,-739.973 55.7081,-736.852"/>
</g>
<!-- Node25 -->
<g id="node25" class="node"><title>Node25</title>
<g id="a_node25"><a xlink:href="mailbox_8h.html#aa871a502903abe160d30f8d706f1e207" target="_top" xlink:title="incoming folders completion routine ">
<polygon fill="white" stroke="black" points="159.5,-1240.43 159.5,-1259.43 234.5,-1259.43 234.5,-1240.43 159.5,-1240.43"/>
<text text-anchor="middle" x="197" y="-1247.43" font-family="Helvetica,sans-Serif" font-size="10.00">mutt_mailbox</text>
</a>
</g>
</g>
<!-- Node1&#45;&gt;Node25 -->
<g id="edge37" class="edge"><title>Node1&#45;&gt;Node25</title>
<path fill="none" stroke="midnightblue" d="M51.0134,-776.743C55.479,-856.784 75.8308,-1155.36 134,-1225.93 140.46,-1233.77 149.805,-1239.06 159.288,-1242.62"/>
<polygon fill="midnightblue" stroke="midnightblue" points="54.4985,-776.371 50.4672,-766.573 47.5086,-776.746 54.4985,-776.371"/>
</g>
<!-- Node26 -->
<g id="node26" class="node"><title>Node26</title>
<g id="a_node26"><a xlink:href="main_8c.html#a65d332be0abf5b14c519e50da55d72bf" target="_top" xlink:title="Temporary measure. ">
<polygon fill="white" stroke="black" points="658,-63.4321 658,-82.4321 720,-82.4321 720,-63.4321 658,-63.4321"/>
<text text-anchor="middle" x="689" y="-70.4321" font-family="Helvetica,sans-Serif" font-size="10.00">reset_tilde</text>
</a>
</g>
</g>
<!-- Node1&#45;&gt;Node26 -->
<g id="edge41" class="edge"><title>Node1&#45;&gt;Node26</title>
<path fill="none" stroke="midnightblue" d="M50.9002,-737.098C55.9844,-629.427 82.72,-118.3 134,-72.9321 290.498,65.5221 580.356,-31.0173 664.52,-63.4153"/>
<polygon fill="midnightblue" stroke="midnightblue" points="47.3979,-737.067 50.4305,-747.219 54.3904,-737.392 47.3979,-737.067"/>
</g>
<!-- Node27 -->
<g id="node27" class="node"><title>Node27</title>
<g id="a_node27"><a xlink:href="mutt__header_8h.html#ac62ee78bf6fa15d23c2066f7e31cc3e5" target="_top" xlink:title="Let the user edit the message header and body. ">
<polygon fill="white" stroke="black" points="314.5,-443.432 314.5,-462.432 411.5,-462.432 411.5,-443.432 314.5,-443.432"/>
<text text-anchor="middle" x="363" y="-450.432" font-family="Helvetica,sans-Serif" font-size="10.00">mutt_edit_headers</text>
</a>
</g>
</g>
<!-- Node1&#45;&gt;Node27 -->
<g id="edge44" class="edge"><title>Node1&#45;&gt;Node27</title>
<path fill="none" stroke="midnightblue" d="M52.3531,-737.375C58.3514,-695.827 77.9248,-597.99 134,-541.932 137.803,-538.13 278.251,-484.655 336.787,-462.47"/>
<polygon fill="midnightblue" stroke="midnightblue" points="48.8811,-736.933 51.0279,-747.308 55.8196,-737.858 48.8811,-736.933"/>
</g>
<!-- Node28 -->
<g id="node28" class="node"><title>Node28</title>
<g id="a_node28"><a xlink:href="mutt__logging_8c.html#a49200939593f1fe61b70d9d1267b71c8" target="_top" xlink:title="Rotate a set of numbered files. ">
<polygon fill="white" stroke="red" points="164.5,-462.432 164.5,-481.432 229.5,-481.432 229.5,-462.432 164.5,-462.432"/>
<text text-anchor="middle" x="197" y="-469.432" font-family="Helvetica,sans-Serif" font-size="10.00">rotate_logs</text>
</a>
</g>
</g>
<!-- Node1&#45;&gt;Node28 -->
<g id="edge48" class="edge"><title>Node1&#45;&gt;Node28</title>
<path fill="none" stroke="midnightblue" d="M50.7722,-737.211C53.6871,-689.442 67.6012,-566.296 134,-495.932 142.08,-487.37 153.564,-481.82 164.457,-478.242"/>
<polygon fill="midnightblue" stroke="midnightblue" points="47.2656,-737.253 50.2522,-747.418 54.2565,-737.609 47.2656,-737.253"/>
</g>
<!-- Node29 -->
<g id="node29" class="node"><title>Node29</title>
<g id="a_node29"><a xlink:href="mutt__lua_8h.html#a1d0dfad880775813bc5e05a1c14efc8e" target="_top" xlink:title="Parse the &#39;lua&#45;source&#39; command. ">
<polygon fill="white" stroke="black" points="143.5,-424.432 143.5,-443.432 250.5,-443.432 250.5,-424.432 143.5,-424.432"/>
<text text-anchor="middle" x="197" y="-431.432" font-family="Helvetica,sans-Serif" font-size="10.00">mutt_lua_source_file</text>
</a>
</g>
</g>
<!-- Node1&#45;&gt;Node29 -->
<g id="edge49" class="edge"><title>Node1&#45;&gt;Node29</title>
<path fill="none" stroke="midnightblue" d="M49.371,-736.94C48.8098,-683.215 54.8638,-534.298 134,-452.932 137.768,-449.058 142.302,-445.969 147.183,-443.507"/>
<polygon fill="midnightblue" stroke="midnightblue" points="45.8761,-737.236 49.5751,-747.164 52.8747,-737.096 45.8761,-737.236"/>
</g>
<!-- Node30 -->
<g id="node30" class="node"><title>Node30</title>
<g id="a_node30"><a xlink:href="protos_8h.html#ab34a52d61d60357a92bc3cf0da20327c" target="_top" xlink:title="Find an XDG path or its fallback. ">
<polygon fill="white" stroke="black" points="147,-1392.43 147,-1411.43 247,-1411.43 247,-1392.43 147,-1392.43"/>
<text text-anchor="middle" x="197" y="-1399.43" font-family="Helvetica,sans-Serif" font-size="10.00">mutt_set_xdg_path</text>
</a>
</g>
</g>
<!-- Node1&#45;&gt;Node30 -->
<g id="edge50" class="edge"><title>Node1&#45;&gt;Node30</title>
<path fill="none" stroke="midnightblue" d="M49.8885,-776.724C49.7468,-872.646 53.8274,-1288.4 134,-1382.93 137.568,-1387.14 142.042,-1390.43 146.944,-1393.01"/>
<polygon fill="midnightblue" stroke="midnightblue" points="53.3893,-776.449 49.923,-766.438 46.3894,-776.426 53.3893,-776.449"/>
</g>
<!-- Node31 -->
<g id="node31" class="node"><title>Node31</title>
<g id="a_node31"><a xlink:href="mx_8h.html#ad0127b193da0a2a0f4469565d4a11c56" target="_top" xlink:title="save changes and close mailbox ">
<polygon fill="white" stroke="red" points="153,-1146.43 153,-1165.43 241,-1165.43 241,-1146.43 153,-1146.43"/>
<text text-anchor="middle" x="197" y="-1153.43" font-family="Helvetica,sans-Serif" font-size="10.00">mx_mbox_close</text>
</a>
</g>
</g>
<!-- Node1&#45;&gt;Node31 -->
<g id="edge52" class="edge"><title>Node1&#45;&gt;Node31</title>
<path fill="none" stroke="midnightblue" d="M51.9735,-776.644C59.2715,-845.936 86.7812,-1077.1 134,-1131.93 139.423,-1138.23 146.699,-1142.88 154.358,-1146.32"/>
<polygon fill="midnightblue" stroke="midnightblue" points="55.4488,-776.223 50.9426,-766.635 48.4856,-776.941 55.4488,-776.223"/>
</g>
<!-- Node32 -->
<g id="node32" class="node"><title>Node32</title>
<g id="a_node32"><a xlink:href="smime_8c.html#a8a3ae4dbf82358a84f298a9fd1eafaf6" target="_top" xlink:title="Format an SMIME command &#45; Implements format_t. ">
<polygon fill="white" stroke="red" points="140.5,-310.432 140.5,-329.432 253.5,-329.432 253.5,-310.432 140.5,-310.432"/>
<text text-anchor="middle" x="197" y="-317.432" font-family="Helvetica,sans-Serif" font-size="10.00">fmt_smime_command</text>
</a>
</g>
</g>
<!-- Node1&#45;&gt;Node32 -->
<g id="edge58" class="edge"><title>Node1&#45;&gt;Node32</title>
<path fill="none" stroke="midnightblue" d="M51.3628,-736.815C56.8428,-661.71 79.6459,-398.955 134,-338.932 137.476,-335.093 141.705,-332.021 146.303,-329.563"/>
<polygon fill="midnightblue" stroke="midnightblue" points="47.8428,-736.977 50.6298,-747.198 54.8254,-737.47 47.8428,-736.977"/>
</g>
<!-- Node33 -->
<g id="node33" class="node"><title>Node33</title>
<g id="a_node33"><a xlink:href="newsrc_8c.html#a63bd58d662d12c66758d23dc0f31f49b" target="_top" xlink:title="Make fully qualified cache file name. ">
<polygon fill="white" stroke="red" points="157,-576.432 157,-595.432 237,-595.432 237,-576.432 157,-576.432"/>
<text text-anchor="middle" x="197" y="-583.432" font-family="Helvetica,sans-Serif" font-size="10.00">cache_expand</text>
</a>
</g>
</g>
<!-- Node1&#45;&gt;Node33 -->
<g id="edge59" class="edge"><title>Node1&#45;&gt;Node33</title>
<path fill="none" stroke="midnightblue" d="M55.4959,-737.435C65.6106,-705.1 90.2473,-640.433 134,-604.932 140.557,-599.612 148.593,-595.778 156.679,-593.017"/>
<polygon fill="midnightblue" stroke="midnightblue" points="52.1258,-736.489 52.6158,-747.072 58.8327,-738.493 52.1258,-736.489"/>
</g>
<!-- Node34 -->
<g id="node34" class="node"><title>Node34</title>
<g id="a_node34"><a xlink:href="nntp_8h.html#ac501636e969731011da557bad742f426" target="_top" xlink:title="Open a connection to an NNTP server. ">
<polygon fill="white" stroke="red" points="313.5,-576.432 313.5,-595.432 412.5,-595.432 412.5,-576.432 313.5,-576.432"/>
<text text-anchor="middle" x="363" y="-583.432" font-family="Helvetica,sans-Serif" font-size="10.00">nntp_select_server</text>
</a>
</g>
</g>
<!-- Node1&#45;&gt;Node34 -->
<g id="edge64" class="edge"><title>Node1&#45;&gt;Node34</title>
<path fill="none" stroke="midnightblue" d="M51.9102,-736.935C56.9757,-696.486 74.7339,-605.53 134,-566.932 199.403,-524.337 298.735,-558.326 341.375,-576.427"/>
<polygon fill="midnightblue" stroke="midnightblue" points="48.4033,-736.803 50.7737,-747.129 55.3602,-737.578 48.4033,-736.803"/>
</g>
<!-- Node35 -->
<g id="node35" class="node"><title>Node35</title>
<g id="a_node35"><a xlink:href="recvattach_8c.html#a52858af768d4460d586488eda40016c1" target="_top" xlink:title="Ask the user if we should save the attachment. ">
<polygon fill="white" stroke="black" points="136.5,-348.432 136.5,-367.432 257.5,-367.432 257.5,-348.432 136.5,-348.432"/>
<text text-anchor="middle" x="197" y="-355.432" font-family="Helvetica,sans-Serif" font-size="10.00">query_save_attachment</text>
</a>
</g>
</g>
<!-- Node1&#45;&gt;Node35 -->
<g id="edge65" class="edge"><title>Node1&#45;&gt;Node35</title>
<path fill="none" stroke="midnightblue" d="M51.9735,-737.22C59.2715,-667.928 86.7812,-436.766 134,-381.932 139.423,-375.635 146.699,-370.981 154.358,-367.545"/>
<polygon fill="midnightblue" stroke="midnightblue" points="48.4856,-736.924 50.9426,-747.23 55.4488,-737.641 48.4856,-736.924"/>
</g>
<!-- Node36 -->
<g id="node36" class="node"><title>Node36</title>
<g id="a_node36"><a xlink:href="recvattach_8c.html#a7e6433ebaec5a9edab09d153872849b7" target="_top" xlink:title="Save a list of attachments. ">
<polygon fill="white" stroke="red" points="296,-348.432 296,-367.432 430,-367.432 430,-348.432 296,-348.432"/>
<text text-anchor="middle" x="363" y="-355.432" font-family="Helvetica,sans-Serif" font-size="10.00">mutt_save_attachment_list</text>
</a>
</g>
</g>
<!-- Node1&#45;&gt;Node36 -->
<g id="edge68" class="edge"><title>Node1&#45;&gt;Node36</title>
<path fill="none" stroke="midnightblue" d="M50.444,-737.02C52.6923,-656.669 65.6031,-357.88 134,-300.932 200.317,-245.715 312.679,-320.642 349.739,-348.359"/>
<polygon fill="midnightblue" stroke="midnightblue" points="46.9396,-737.15 50.1843,-747.236 53.9374,-737.328 46.9396,-737.15"/>
</g>
<!-- Node37 -->
<g id="node37" class="node"><title>Node37</title>
<g id="a_node37"><a xlink:href="recvattach_8c.html#a8ed2bd717b168fbcb6d7c65c0943ef34" target="_top" xlink:title="Pipe a list of attachments to a command. ">
<polygon fill="white" stroke="red" points="466.5,-386.432 466.5,-405.432 597.5,-405.432 597.5,-386.432 466.5,-386.432"/>
<text text-anchor="middle" x="532" y="-393.432" font-family="Helvetica,sans-Serif" font-size="10.00">mutt_pipe_attachment_list</text>
</a>
</g>
</g>
<!-- Node1&#45;&gt;Node37 -->
<g id="edge69" class="edge"><title>Node1&#45;&gt;Node37</title>
<path fill="none" stroke="midnightblue" d="M51.8206,-737.135C58.3778,-670.593 83.1378,-456.815 134,-414.932 183.072,-374.523 367.156,-382.439 466.488,-390.05"/>
<polygon fill="midnightblue" stroke="midnightblue" points="48.3315,-736.856 50.8639,-747.143 55.2997,-737.522 48.3315,-736.856"/>
</g>
<!-- Node38 -->
<g id="node38" class="node"><title>Node38</title>
<g id="a_node38"><a xlink:href="rfc1524_8h.html#a834f5cab63e131c8056521ae1029c942" target="_top" xlink:title="Find given type in the list of mailcap files. ">
<polygon fill="white" stroke="red" points="136,-82.4321 136,-101.432 258,-101.432 258,-82.4321 136,-82.4321"/>
<text text-anchor="middle" x="197" y="-89.4321" font-family="Helvetica,sans-Serif" font-size="10.00">rfc1524_mailcap_lookup</text>
</a>
</g>
</g>
<!-- Node1&#45;&gt;Node38 -->
<g id="edge71" class="edge"><title>Node1&#45;&gt;Node38</title>
<path fill="none" stroke="midnightblue" d="M49.9617,-737.085C50.1567,-640.003 55.548,-215.798 134,-115.932 138.991,-109.579 145.888,-104.905 153.276,-101.468"/>
<polygon fill="midnightblue" stroke="midnightblue" points="46.4617,-737.258 49.9591,-747.258 53.4617,-737.259 46.4617,-737.258"/>
</g>
<!-- Node39 -->
<g id="node39" class="node"><title>Node39</title>
<g id="a_node39"><a xlink:href="sendlib_8h.html#a56347e20409bb7d9835b18287935dbb7" target="_top" xlink:title="Handle FCC with multiple, comma separated entries. ">
<polygon fill="white" stroke="black" points="472,-120.432 472,-139.432 592,-139.432 592,-120.432 472,-120.432"/>
<text text-anchor="middle" x="532" y="-127.432" font-family="Helvetica,sans-Serif" font-size="10.00">mutt_write_multiple_fcc</text>
</a>
</g>
</g>
<!-- Node1&#45;&gt;Node39 -->
<g id="edge73" class="edge"><title>Node1&#45;&gt;Node39</title>
<path fill="none" stroke="midnightblue" d="M49.5691,-736.855C47.9767,-641.416 46.4724,-234.883 134,-153.932 181.651,-109.861 373.419,-117.576 471.934,-124.784"/>
<polygon fill="midnightblue" stroke="midnightblue" points="46.0748,-737.195 49.7624,-747.127 53.0735,-737.063 46.0748,-737.195"/>
</g>
<!-- Node2&#45;&gt;Node3 -->
<g id="edge2" class="edge"><title>Node2&#45;&gt;Node3</title>
<path fill="none" stroke="midnightblue" d="M420.154,-1059.93C441.165,-1059.93 464.773,-1059.93 484.785,-1059.93"/>
<polygon fill="midnightblue" stroke="midnightblue" points="420.076,-1056.43 410.076,-1059.93 420.076,-1063.43 420.076,-1056.43"/>
</g>
<!-- Node3&#45;&gt;Node4 -->
<g id="edge3" class="edge"><title>Node3&#45;&gt;Node4</title>
<path fill="none" stroke="midnightblue" d="M537.681,-1040.45C561.471,-941.457 668.513,-496.023 685.675,-424.606"/>
<polygon fill="midnightblue" stroke="midnightblue" points="534.245,-1039.77 535.311,-1050.31 541.051,-1041.41 534.245,-1039.77"/>
</g>
<!-- Node3&#45;&gt;Node6 -->
<g id="edge7" class="edge"><title>Node3&#45;&gt;Node6</title>
<path fill="none" stroke="midnightblue" d="M573.614,-1072.52C658.443,-1098.8 851.55,-1158.63 911.738,-1177.27"/>
<polygon fill="midnightblue" stroke="midnightblue" points="574.409,-1069.1 563.822,-1069.48 572.338,-1075.78 574.409,-1069.1"/>
</g>
<!-- Node4&#45;&gt;Node5 -->
<g id="edge4" class="edge"><title>Node4&#45;&gt;Node5</title>
<path fill="none" stroke="midnightblue" d="M754.354,-414.932C763.114,-414.932 771.965,-414.932 780.331,-414.932"/>
<polygon fill="midnightblue" stroke="midnightblue" points="754.146,-411.432 744.146,-414.932 754.146,-418.432 754.146,-411.432"/>
</g>
<!-- Node5&#45;&gt;Node3 -->
<g id="edge5" class="edge"><title>Node5&#45;&gt;Node3</title>
<path fill="none" stroke="midnightblue" d="M818.359,-433.889C773.705,-531.855 569.914,-978.947 537.384,-1050.31"/>
<polygon fill="midnightblue" stroke="midnightblue" points="821.628,-435.157 822.591,-424.606 815.258,-432.254 821.628,-435.157"/>
</g>
<!-- Node5&#45;&gt;Node6 -->
<g id="edge6" class="edge"><title>Node5&#45;&gt;Node6</title>
<path fill="none" stroke="midnightblue" d="M832.537,-434.674C840.849,-481.485 861.982,-602.936 876,-704.932 901.813,-892.743 924.307,-1123.32 929.072,-1173.15"/>
<polygon fill="midnightblue" stroke="midnightblue" points="835.954,-433.901 830.753,-424.67 829.063,-435.129 835.954,-433.901"/>
</g>
<!-- Node7&#45;&gt;Node6 -->
<g id="edge10" class="edge"><title>Node7&#45;&gt;Node6</title>
<path fill="none" stroke="midnightblue" d="M250.131,-1363.93C315.681,-1363.93 431.673,-1363.93 531,-1363.93 531,-1363.93 531,-1363.93 690,-1363.93 784.929,-1363.93 805.482,-1322.48 876,-1258.93 898.124,-1238.99 916.341,-1208.46 924.838,-1192.85"/>
<polygon fill="midnightblue" stroke="midnightblue" points="250.054,-1360.43 240.054,-1363.93 250.054,-1367.43 250.054,-1360.43"/>
</g>
<!-- Node7&#45;&gt;Node8 -->
<g id="edge9" class="edge"><title>Node7&#45;&gt;Node8</title>
<path fill="none" stroke="midnightblue" d="M249.341,-1352.04C272.393,-1346.69 299.221,-1340.48 320.913,-1335.45"/>
<polygon fill="midnightblue" stroke="midnightblue" points="248.336,-1348.68 239.384,-1354.34 249.916,-1355.5 248.336,-1348.68"/>
</g>
<!-- Node9&#45;&gt;Node3 -->
<g id="edge12" class="edge"><title>Node9&#45;&gt;Node3</title>
<path fill="none" stroke="midnightblue" d="M378.526,-878.241C412.595,-918.839 496.745,-1019.11 523.026,-1050.43"/>
<polygon fill="midnightblue" stroke="midnightblue" points="381.164,-875.94 372.055,-870.53 375.802,-880.44 381.164,-875.94"/>
</g>
<!-- Node10&#45;&gt;Node3 -->
<g id="edge14" class="edge"><title>Node10&#45;&gt;Node3</title>
<path fill="none" stroke="midnightblue" d="M382.006,-1195.54C416.914,-1163.77 492.797,-1094.7 520.557,-1069.44"/>
<polygon fill="midnightblue" stroke="midnightblue" points="379.486,-1193.1 374.447,-1202.42 384.198,-1198.28 379.486,-1193.1"/>
</g>
<!-- Node11&#45;&gt;Node8 -->
<g id="edge16" class="edge"><title>Node11&#45;&gt;Node8</title>
<path fill="none" stroke="midnightblue" d="M247.908,-1325.93C266.841,-1325.93 288.485,-1325.93 307.796,-1325.93"/>
<polygon fill="midnightblue" stroke="midnightblue" points="247.7,-1322.43 237.7,-1325.93 247.7,-1329.43 247.7,-1322.43"/>
</g>
<!-- Node12&#45;&gt;Node3 -->
<g id="edge19" class="edge"><title>Node12&#45;&gt;Node3</title>
<path fill="none" stroke="midnightblue" d="M415.965,-1086.11C439.509,-1080.75 466.974,-1074.5 489.162,-1069.45"/>
<polygon fill="midnightblue" stroke="midnightblue" points="415.115,-1082.71 406.141,-1088.34 416.668,-1089.54 415.115,-1082.71"/>
</g>
<!-- Node13&#45;&gt;Node4 -->
<g id="edge22" class="edge"><title>Node13&#45;&gt;Node4</title>
<path fill="none" stroke="midnightblue" d="M582.879,-219.706C588.352,-222.523 593.544,-225.897 598,-229.932 605.281,-236.525 666.515,-368.414 683.593,-405.377"/>
<polygon fill="midnightblue" stroke="midnightblue" points="584.042,-216.391 573.487,-215.471 581.165,-222.772 584.042,-216.391"/>
</g>
<!-- Node13&#45;&gt;Node5 -->
<g id="edge23" class="edge"><title>Node13&#45;&gt;Node5</title>
<path fill="none" stroke="midnightblue" d="M574.84,-219.084C582.743,-222.203 590.787,-225.835 598,-229.932 692.212,-283.451 787.432,-375.201 817.38,-405.159"/>
<polygon fill="midnightblue" stroke="midnightblue" points="575.927,-215.754 565.334,-215.536 573.479,-222.312 575.927,-215.754"/>
</g>
<!-- Node21&#45;&gt;Node6 -->
<g id="edge33" class="edge"><title>Node21&#45;&gt;Node6</title>
<path fill="none" stroke="midnightblue" d="M400.084,-1413.06C491.221,-1438.75 733.539,-1491.67 876,-1377.93 906.06,-1353.93 924.208,-1228.29 928.826,-1192.47"/>
<polygon fill="midnightblue" stroke="midnightblue" points="400.813,-1409.63 390.235,-1410.22 398.875,-1416.35 400.813,-1409.63"/>
</g>
<!-- Node25&#45;&gt;Node3 -->
<g id="edge38" class="edge"><title>Node25&#45;&gt;Node3</title>
<path fill="none" stroke="midnightblue" d="M244.73,-1257.98C294.564,-1264.02 373.882,-1266.08 430,-1230.93 492.242,-1191.95 520.829,-1099.46 528.677,-1069.49"/>
<polygon fill="midnightblue" stroke="midnightblue" points="244.934,-1254.48 234.563,-1256.64 244.021,-1261.42 244.934,-1254.48"/>
</g>
<!-- Node25&#45;&gt;Node6 -->
<g id="edge40" class="edge"><title>Node25&#45;&gt;Node6</title>
<path fill="none" stroke="midnightblue" d="M245.021,-1258.71C309.34,-1269.93 428.478,-1287.93 531,-1287.93 531,-1287.93 531,-1287.93 690,-1287.93 784.598,-1287.93 883.912,-1218.62 917.829,-1192.62"/>
<polygon fill="midnightblue" stroke="midnightblue" points="245.258,-1255.2 234.801,-1256.9 244.039,-1262.09 245.258,-1255.2"/>
</g>
<!-- Node25&#45;&gt;Node8 -->
<g id="edge39" class="edge"><title>Node25&#45;&gt;Node8</title>
<path fill="none" stroke="midnightblue" d="M237.391,-1263.18C245.078,-1266.32 252.938,-1269.93 260,-1273.93 277.639,-1283.92 278.259,-1292.13 296,-1301.93 306.458,-1307.71 318.581,-1312.58 329.561,-1316.4"/>
<polygon fill="midnightblue" stroke="midnightblue" points="238.409,-1259.82 227.82,-1259.47 235.878,-1266.35 238.409,-1259.82"/>
</g>
<!-- Node26&#45;&gt;Node6 -->
<g id="edge42" class="edge"><title>Node26&#45;&gt;Node6</title>
<path fill="none" stroke="midnightblue" d="M714.3,-88.5756C724.421,-95.9671 735.717,-105.465 744,-115.932 829.373,-223.819 841.36,-262.785 876,-395.932 916.861,-552.993 928.347,-1093.76 929.827,-1173.17"/>
<polygon fill="midnightblue" stroke="midnightblue" points="716.018,-85.506 705.815,-82.6511 712.01,-91.2455 716.018,-85.506"/>
</g>
<!-- Node27&#45;&gt;Node4 -->
<g id="edge45" class="edge"><title>Node27&#45;&gt;Node4</title>
<path fill="none" stroke="midnightblue" d="M421.884,-446.143C481.936,-439.1 575.109,-428.172 633.773,-421.292"/>
<polygon fill="midnightblue" stroke="midnightblue" points="421.332,-442.684 411.807,-447.325 422.147,-449.636 421.332,-442.684"/>
</g>
<!-- Node27&#45;&gt;Node5 -->
<g id="edge47" class="edge"><title>Node27&#45;&gt;Node5</title>
<path fill="none" stroke="midnightblue" d="M421.889,-453.865C496.736,-454.199 630.903,-451.827 744,-433.932 759.331,-431.506 776.049,-427.874 790.436,-424.433"/>
<polygon fill="midnightblue" stroke="midnightblue" points="421.751,-450.365 411.73,-453.802 421.707,-457.364 421.751,-450.365"/>
</g>
<!-- Node27&#45;&gt;Node13 -->
<g id="edge46" class="edge"><title>Node27&#45;&gt;Node13</title>
<path fill="none" stroke="midnightblue" d="M380.643,-435.628C394.602,-420.694 414.659,-398.227 430,-376.932 471.921,-318.743 512.396,-242.225 526.101,-215.576"/>
<polygon fill="midnightblue" stroke="midnightblue" points="377.91,-433.423 373.584,-443.094 382.997,-438.232 377.91,-433.423"/>
</g>
<!-- Node30&#45;&gt;Node21 -->
<g id="edge51" class="edge"><title>Node30&#45;&gt;Node21</title>
<path fill="none" stroke="midnightblue" d="M257.308,-1401.93C284.188,-1401.93 314.599,-1401.93 335.69,-1401.93"/>
<polygon fill="midnightblue" stroke="midnightblue" points="257.205,-1398.43 247.205,-1401.93 257.205,-1405.43 257.205,-1398.43"/>
</g>
<!-- Node31&#45;&gt;Node3 -->
<g id="edge56" class="edge"><title>Node31&#45;&gt;Node3</title>
<path fill="none" stroke="midnightblue" d="M251.164,-1152.26C299.055,-1147.73 370.814,-1137.88 430,-1116.93 463.596,-1105.04 499.017,-1082.34 517.68,-1069.47"/>
<polygon fill="midnightblue" stroke="midnightblue" points="250.668,-1148.79 241.022,-1153.18 251.295,-1155.76 250.668,-1148.79"/>
</g>
<!-- Node31&#45;&gt;Node4 -->
<g id="edge54" class="edge"><title>Node31&#45;&gt;Node4</title>
<path fill="none" stroke="midnightblue" d="M251.24,-1164.78C339.918,-1176.07 516.19,-1183.13 598,-1078.93 682.769,-970.961 687.732,-497.759 687.99,-424.48"/>
<polygon fill="midnightblue" stroke="midnightblue" points="251.507,-1161.28 241.13,-1163.42 250.577,-1168.22 251.507,-1161.28"/>
</g>
<!-- Node31&#45;&gt;Node10 -->
<g id="edge53" class="edge"><title>Node31&#45;&gt;Node10</title>
<path fill="none" stroke="midnightblue" d="M235.904,-1168.88C265.918,-1179.12 307.151,-1193.2 334.175,-1202.43"/>
<polygon fill="midnightblue" stroke="midnightblue" points="236.787,-1165.48 226.193,-1165.56 234.525,-1172.1 236.787,-1165.48"/>
</g>
<!-- Node31&#45;&gt;Node12 -->
<g id="edge55" class="edge"><title>Node31&#45;&gt;Node12</title>
<path fill="none" stroke="midnightblue" d="M234.877,-1142.89C265.231,-1132.16 307.563,-1117.18 334.879,-1107.52"/>
<polygon fill="midnightblue" stroke="midnightblue" points="233.342,-1139.72 225.081,-1146.35 235.676,-1146.32 233.342,-1139.72"/>
</g>
<!-- Node31&#45;&gt;Node31 -->
<g id="edge57" class="edge"><title>Node31&#45;&gt;Node31</title>
<path fill="none" stroke="midnightblue" d="M169.374,-1174.59C170.529,-1179.87 179.738,-1183.93 197,-1183.93 223.305,-1183.93 230.908,-1174.5 219.811,-1165.69"/>
<polygon fill="midnightblue" stroke="midnightblue" points="172.508,-1176.15 174.189,-1165.69 166.351,-1172.82 172.508,-1176.15"/>
</g>
<!-- Node33&#45;&gt;Node34 -->
<g id="edge60" class="edge"><title>Node33&#45;&gt;Node34</title>
<path fill="none" stroke="midnightblue" d="M247.536,-585.932C268.396,-585.932 292.598,-585.932 313.361,-585.932"/>
<polygon fill="midnightblue" stroke="midnightblue" points="247.282,-582.432 237.282,-585.932 247.282,-589.432 247.282,-582.432"/>
</g>
<!-- Node34&#45;&gt;Node3 -->
<g id="edge62" class="edge"><title>Node34&#45;&gt;Node3</title>
<path fill="none" stroke="midnightblue" d="M370.974,-605.727C399.509,-686.717 506.827,-991.323 527.531,-1050.09"/>
<polygon fill="midnightblue" stroke="midnightblue" points="374.112,-604.101 367.488,-595.832 367.51,-606.427 374.112,-604.101"/>
</g>
<!-- Node34&#45;&gt;Node4 -->
<g id="edge61" class="edge"><title>Node34&#45;&gt;Node4</title>
<path fill="none" stroke="midnightblue" d="M391.509,-571.413C456.062,-537.344 615.872,-453 669.853,-424.51"/>
<polygon fill="midnightblue" stroke="midnightblue" points="389.558,-568.485 382.348,-576.248 392.826,-574.676 389.558,-568.485"/>
</g>
<!-- Node34&#45;&gt;Node6 -->
<g id="edge63" class="edge"><title>Node34&#45;&gt;Node6</title>
<path fill="none" stroke="midnightblue" d="M380.417,-603.248C465.571,-693.066 855.539,-1104.39 920.741,-1173.17"/>
<polygon fill="midnightblue" stroke="midnightblue" points="382.772,-600.645 373.352,-595.796 377.692,-605.461 382.772,-600.645"/>
</g>
<!-- Node35&#45;&gt;Node36 -->
<g id="edge66" class="edge"><title>Node35&#45;&gt;Node36</title>
<path fill="none" stroke="midnightblue" d="M267.731,-357.932C277.102,-357.932 286.692,-357.932 295.996,-357.932"/>
<polygon fill="midnightblue" stroke="midnightblue" points="267.672,-354.432 257.672,-357.932 267.672,-361.432 267.672,-354.432"/>
</g>
<!-- Node36&#45;&gt;Node4 -->
<g id="edge67" class="edge"><title>Node36&#45;&gt;Node4</title>
<path fill="none" stroke="midnightblue" d="M440.443,-358.032C486.641,-359.593 546.382,-364.286 598,-376.932 624.028,-383.309 652.211,-396.289 669.974,-405.293"/>
<polygon fill="midnightblue" stroke="midnightblue" points="440.302,-354.527 430.203,-357.73 440.095,-361.523 440.302,-354.527"/>
</g>
<!-- Node37&#45;&gt;Node4 -->
<g id="edge70" class="edge"><title>Node37&#45;&gt;Node4</title>
<path fill="none" stroke="midnightblue" d="M607.987,-405.124C616.673,-406.189 625.401,-407.259 633.734,-408.28"/>
<polygon fill="midnightblue" stroke="midnightblue" points="608.187,-401.623 597.836,-403.88 607.336,-408.571 608.187,-401.623"/>
</g>
<!-- Node39&#45;&gt;Node5 -->
<g id="edge74" class="edge"><title>Node39&#45;&gt;Node5</title>
<path fill="none" stroke="midnightblue" d="M602.432,-119.856C647.581,-117.261 705.079,-121.935 744,-153.932 764.706,-170.955 813.335,-360.502 824.628,-405.426"/>
<polygon fill="midnightblue" stroke="midnightblue" points="602.143,-116.368 592.413,-120.561 602.634,-123.351 602.143,-116.368"/>
</g>
</g>
</svg>
