<?xml version="1.0" encoding="UTF-8" standalone="no"?>
<!DOCTYPE svg PUBLIC "-//W3C//DTD SVG 1.1//EN"
 "http://www.w3.org/Graphics/SVG/1.1/DTD/svg11.dtd">
<!-- Generated by graphviz version 2.36.0 (20140111.2315)
 -->
<!-- Title: trash_append Pages: 1 -->
<svg width="208pt" height="84pt"
 viewBox="0.00 0.00 208.00 84.00" xmlns="http://www.w3.org/2000/svg" xmlns:xlink="http://www.w3.org/1999/xlink">
<g id="graph0" class="graph" transform="scale(1 1) rotate(0) translate(4 80)">
<title>trash_append</title>
<polygon fill="white" stroke="none" points="-4,4 -4,-80 204,-80 204,4 -4,4"/>
<!-- Node1 -->
<g id="node1" class="node"><title>Node1</title>
<polygon fill="#bfbfbf" stroke="black" points="0.5,-38.5 0.5,-57.5 75.5,-57.5 75.5,-38.5 0.5,-38.5"/>
<text text-anchor="middle" x="38" y="-45.5" font-family="Helvetica,sans-Serif" font-size="10.00">trash_append</text>
</g>
<!-- Node2 -->
<g id="node2" class="node"><title>Node2</title>
<g id="a_node2"><a xlink:href="mx_8h.html#ad0127b193da0a2a0f4469565d4a11c56" target="_top" xlink:title="save changes and close mailbox ">
<polygon fill="white" stroke="red" points="112,-38.5 112,-57.5 200,-57.5 200,-38.5 112,-38.5"/>
<text text-anchor="middle" x="156" y="-45.5" font-family="Helvetica,sans-Serif" font-size="10.00">mx_mbox_close</text>
</a>
</g>
</g>
<!-- Node1&#45;&gt;Node2 -->
<g id="edge1" class="edge"><title>Node1&#45;&gt;Node2</title>
<path fill="none" stroke="midnightblue" d="M85.8721,-41.3617C94.3865,-41.1889 103.233,-41.2166 111.641,-41.4449"/>
<polygon fill="midnightblue" stroke="midnightblue" points="85.5917,-37.8685 75.7031,-41.6719 85.8052,-44.8652 85.5917,-37.8685"/>
</g>
<!-- Node3 -->
<g id="node3" class="node"><title>Node3</title>
<g id="a_node3"><a xlink:href="mx_8h.html#a357ee844041eb7512ae97023ff2f9488" target="_top" xlink:title="Save changes to mailbox. ">
<polygon fill="white" stroke="red" points="113,-0.5 113,-19.5 199,-19.5 199,-0.5 113,-0.5"/>
<text text-anchor="middle" x="156" y="-7.5" font-family="Helvetica,sans-Serif" font-size="10.00">mx_mbox_sync</text>
</a>
</g>
</g>
<!-- Node1&#45;&gt;Node3 -->
<g id="edge4" class="edge"><title>Node1&#45;&gt;Node3</title>
<path fill="none" stroke="midnightblue" d="M78.1528,-35.1741C93.7176,-30.0753 111.314,-24.3109 125.738,-19.5859"/>
<polygon fill="midnightblue" stroke="midnightblue" points="76.6852,-31.9718 68.2717,-38.411 78.8644,-38.6239 76.6852,-31.9718"/>
</g>
<!-- Node2&#45;&gt;Node1 -->
<g id="edge2" class="edge"><title>Node2&#45;&gt;Node1</title>
<path fill="none" stroke="midnightblue" d="M101.504,-54.7319C92.775,-54.8023 83.9088,-54.6677 75.7031,-54.3281"/>
<polygon fill="midnightblue" stroke="midnightblue" points="101.704,-58.229 111.641,-54.5551 101.581,-51.2301 101.704,-58.229"/>
</g>
<!-- Node2&#45;&gt;Node2 -->
<g id="edge3" class="edge"><title>Node2&#45;&gt;Node2</title>
<path fill="none" stroke="midnightblue" d="M134.051,-67.0292C135.248,-72.128 142.564,-76 156,-76 176.973,-76 183.035,-66.5653 174.187,-57.7571"/>
<polygon fill="midnightblue" stroke="midnightblue" points="137.296,-68.3393 137.813,-57.7571 130.81,-65.7074 137.296,-68.3393"/>
</g>
</g>
</svg>
