<?xml version="1.0" encoding="UTF-8" standalone="no"?>
<!DOCTYPE svg PUBLIC "-//W3C//DTD SVG 1.1//EN"
 "http://www.w3.org/Graphics/SVG/1.1/DTD/svg11.dtd">
<!-- Generated by graphviz version 2.36.0 (20140111.2315)
 -->
<!-- Title: mx_update_tables Pages: 1 -->
<svg width="266pt" height="104pt"
 viewBox="0.00 0.00 266.00 104.00" xmlns="http://www.w3.org/2000/svg" xmlns:xlink="http://www.w3.org/1999/xlink">
<g id="graph0" class="graph" transform="scale(1 1) rotate(0) translate(4 100)">
<title>mx_update_tables</title>
<polygon fill="white" stroke="none" points="-4,4 -4,-100 262,-100 262,4 -4,4"/>
<!-- Node1 -->
<g id="node1" class="node"><title>Node1</title>
<polygon fill="#bfbfbf" stroke="black" points="0,-38.5 0,-57.5 96,-57.5 96,-38.5 0,-38.5"/>
<text text-anchor="middle" x="48" y="-45.5" font-family="Helvetica,sans-Serif" font-size="10.00">mx_update_tables</text>
</g>
<!-- Node2 -->
<g id="node2" class="node"><title>Node2</title>
<g id="a_node2"><a xlink:href="hash_8c.html#a7f96b39770975621a4b07a4d1b1300b8" target="_top" xlink:title="Remove an element from a Hash table. ">
<polygon fill="white" stroke="red" points="148,-76.5 148,-95.5 242,-95.5 242,-76.5 148,-76.5"/>
<text text-anchor="middle" x="195" y="-83.5" font-family="Helvetica,sans-Serif" font-size="10.00">mutt_hash_delete</text>
</a>
</g>
</g>
<!-- Node1&#45;&gt;Node2 -->
<g id="edge1" class="edge"><title>Node1&#45;&gt;Node2</title>
<path fill="none" stroke="midnightblue" d="M85.5896,-57.589C104.465,-62.5358 127.686,-68.6211 147.788,-73.8892"/>
<polygon fill="midnightblue" stroke="midnightblue" points="147.113,-77.3305 157.673,-76.4799 148.887,-70.5591 147.113,-77.3305"/>
</g>
<!-- Node3 -->
<g id="node3" class="node"><title>Node3</title>
<g id="a_node3"><a xlink:href="mutt__header_8c.html#a2f690638ad4f12e949e30d735fa9119b" target="_top" xlink:title="Rmove a message&#39;s labels from the Hash Table. ">
<polygon fill="white" stroke="red" points="132.5,-38.5 132.5,-57.5 257.5,-57.5 257.5,-38.5 132.5,-38.5"/>
<text text-anchor="middle" x="195" y="-45.5" font-family="Helvetica,sans-Serif" font-size="10.00">mutt_label_hash_remove</text>
</a>
</g>
</g>
<!-- Node1&#45;&gt;Node3 -->
<g id="edge2" class="edge"><title>Node1&#45;&gt;Node3</title>
<path fill="none" stroke="midnightblue" d="M96.0773,-48C104.489,-48 113.423,-48 122.34,-48"/>
<polygon fill="midnightblue" stroke="midnightblue" points="122.372,-51.5001 132.372,-48 122.372,-44.5001 122.372,-51.5001"/>
</g>
<!-- Node4 -->
<g id="node4" class="node"><title>Node4</title>
<g id="a_node4"><a xlink:href="header_8c.html#a417d090ecf2e78b1cd86daeea31c9822" target="_top" xlink:title="Free an email Header. ">
<polygon fill="white" stroke="red" points="149,-0.5 149,-19.5 241,-19.5 241,-0.5 149,-0.5"/>
<text text-anchor="middle" x="195" y="-7.5" font-family="Helvetica,sans-Serif" font-size="10.00">mutt_header_free</text>
</a>
</g>
</g>
<!-- Node1&#45;&gt;Node4 -->
<g id="edge3" class="edge"><title>Node1&#45;&gt;Node4</title>
<path fill="none" stroke="midnightblue" d="M85.5896,-38.411C104.465,-33.4642 127.686,-27.3789 147.788,-22.1108"/>
<polygon fill="midnightblue" stroke="midnightblue" points="148.887,-25.4409 157.673,-19.5201 147.113,-18.6695 148.887,-25.4409"/>
</g>
</g>
</svg>
