<?xml version="1.0" encoding="UTF-8" standalone="no"?>
<!DOCTYPE svg PUBLIC "-//W3C//DTD SVG 1.1//EN"
 "http://www.w3.org/Graphics/SVG/1.1/DTD/svg11.dtd">
<!-- Generated by graphviz version 2.36.0 (20140111.2315)
 -->
<!-- Title: mx_mbox_open Pages: 1 -->
<svg width="396pt" height="315pt"
 viewBox="0.00 0.00 396.00 314.79" xmlns="http://www.w3.org/2000/svg" xmlns:xlink="http://www.w3.org/1999/xlink">
<g id="graph0" class="graph" transform="scale(1 1) rotate(0) translate(4 310.79)">
<title>mx_mbox_open</title>
<polygon fill="white" stroke="none" points="-4,4 -4,-310.79 392,-310.79 392,4 -4,4"/>
<!-- Node1 -->
<g id="node1" class="node"><title>Node1</title>
<polygon fill="#bfbfbf" stroke="black" points="0,-144.884 0,-163.884 86,-163.884 86,-144.884 0,-144.884"/>
<text text-anchor="middle" x="43" y="-151.884" font-family="Helvetica,sans-Serif" font-size="10.00">mx_mbox_open</text>
</g>
<!-- Node2 -->
<g id="node2" class="node"><title>Node2</title>
<g id="a_node2"><a xlink:href="memory_8c.html#a264da4dc58e6dc8983285bd1f538f24d" target="_top" xlink:title="Allocate memory on the heap. ">
<polygon fill="white" stroke="red" points="290.5,-267.884 290.5,-286.884 387.5,-286.884 387.5,-267.884 290.5,-267.884"/>
<text text-anchor="middle" x="339" y="-274.884" font-family="Helvetica,sans-Serif" font-size="10.00">mutt_mem_malloc</text>
</a>
</g>
</g>
<!-- Node1&#45;&gt;Node2 -->
<g id="edge1" class="edge"><title>Node1&#45;&gt;Node2</title>
<path fill="none" stroke="midnightblue" d="M46.1945,-164.109C52.5958,-189.882 73.9193,-259.842 122,-287.384 178.48,-319.736 257.537,-303.677 302.681,-289.943"/>
<polygon fill="midnightblue" stroke="midnightblue" points="303.842,-293.247 312.317,-286.889 301.727,-286.574 303.842,-293.247"/>
</g>
<!-- Node3 -->
<g id="node3" class="node"><title>Node3</title>
<g id="a_node3"><a xlink:href="mutt_2string_8c.html#ae48085384a6545e0fac589a88243ea31" target="_top" xlink:title="Copy a string, safely. ">
<polygon fill="white" stroke="black" points="145.5,-258.884 145.5,-277.884 230.5,-277.884 230.5,-258.884 145.5,-258.884"/>
<text text-anchor="middle" x="188" y="-265.884" font-family="Helvetica,sans-Serif" font-size="10.00">mutt_str_strdup</text>
</a>
</g>
</g>
<!-- Node1&#45;&gt;Node3 -->
<g id="edge2" class="edge"><title>Node1&#45;&gt;Node3</title>
<path fill="none" stroke="midnightblue" d="M49.884,-163.928C61.5143,-182.056 89.1822,-221.68 122,-244.384 128.053,-248.571 134.926,-252.128 141.881,-255.117"/>
<polygon fill="midnightblue" stroke="midnightblue" points="140.76,-258.437 151.347,-258.845 143.325,-251.924 140.76,-258.437"/>
</g>
<!-- Node4 -->
<g id="node4" class="node"><title>Node4</title>
<g id="a_node4"><a xlink:href="mx_8c.html#a796e4c3259004c261689b257d776a308" target="_top" xlink:title="Open a mailbox for appending. ">
<polygon fill="white" stroke="red" points="122,-182.884 122,-201.884 254,-201.884 254,-182.884 122,-182.884"/>
<text text-anchor="middle" x="188" y="-189.884" font-family="Helvetica,sans-Serif" font-size="10.00">mx_open_mailbox_append</text>
</a>
</g>
</g>
<!-- Node1&#45;&gt;Node4 -->
<g id="edge4" class="edge"><title>Node1&#45;&gt;Node4</title>
<path fill="none" stroke="midnightblue" d="M80.0849,-163.973C98.6296,-168.901 121.426,-174.959 141.199,-180.213"/>
<polygon fill="midnightblue" stroke="midnightblue" points="140.363,-183.612 150.927,-182.798 142.161,-176.847 140.363,-183.612"/>
</g>
<!-- Node5 -->
<g id="node5" class="node"><title>Node5</title>
<g id="a_node5"><a xlink:href="mx_8c.html#adf47b437bf62efa6dd4b940b8a5b791e" target="_top" xlink:title="Identify the type of mailbox. ">
<polygon fill="white" stroke="red" points="299,-210.884 299,-229.884 379,-229.884 379,-210.884 299,-210.884"/>
<text text-anchor="middle" x="339" y="-217.884" font-family="Helvetica,sans-Serif" font-size="10.00">mx_get_magic</text>
</a>
</g>
</g>
<!-- Node1&#45;&gt;Node5 -->
<g id="edge8" class="edge"><title>Node1&#45;&gt;Node5</title>
<path fill="none" stroke="midnightblue" d="M53.4621,-164.29C67.1171,-177.822 93.8186,-201.53 122,-211.384 176.727,-230.519 244.052,-229.839 288.846,-226.289"/>
<polygon fill="midnightblue" stroke="midnightblue" points="289.229,-229.769 298.888,-225.416 288.622,-222.796 289.229,-229.769"/>
</g>
<!-- Node6 -->
<g id="node6" class="node"><title>Node6</title>
<g id="a_node6"><a xlink:href="mx_8c.html#ab64012877019efe3735e675cbaf5a343" target="_top" xlink:title="Get mailbox operations. ">
<polygon fill="white" stroke="black" points="304,-158.884 304,-177.884 374,-177.884 374,-158.884 304,-158.884"/>
<text text-anchor="middle" x="339" y="-165.884" font-family="Helvetica,sans-Serif" font-size="10.00">mx_get_ops</text>
</a>
</g>
</g>
<!-- Node1&#45;&gt;Node6 -->
<g id="edge9" class="edge"><title>Node1&#45;&gt;Node6</title>
<path fill="none" stroke="midnightblue" d="M86.123,-156.39C141.279,-159.016 237.537,-163.6 293.734,-166.276"/>
<polygon fill="midnightblue" stroke="midnightblue" points="293.587,-169.773 303.742,-166.752 293.92,-162.781 293.587,-169.773"/>
</g>
<!-- Node7 -->
<g id="node7" class="node"><title>Node7</title>
<g id="a_node7"><a xlink:href="mx_8c.html#a17c27b6cca2086956266b12d6ad241bf" target="_top" xlink:title="free up memory associated with the mailbox context ">
<polygon fill="white" stroke="red" points="131,-106.884 131,-125.884 245,-125.884 245,-106.884 131,-106.884"/>
<text text-anchor="middle" x="188" y="-113.884" font-family="Helvetica,sans-Serif" font-size="10.00">mx_fastclose_mailbox</text>
</a>
</g>
</g>
<!-- Node1&#45;&gt;Node7 -->
<g id="edge7" class="edge"><title>Node1&#45;&gt;Node7</title>
<path fill="none" stroke="midnightblue" d="M80.0849,-144.795C98.6296,-139.867 121.426,-133.809 141.199,-128.555"/>
<polygon fill="midnightblue" stroke="midnightblue" points="142.161,-131.921 150.927,-125.97 140.363,-125.155 142.161,-131.921"/>
</g>
<!-- Node8 -->
<g id="node8" class="node"><title>Node8</title>
<g id="a_node8"><a xlink:href="mutt__header_8c.html#adcc0053e35ed8dd0f911936d86ab0291" target="_top" xlink:title="Create a Hash Table to store the labels. ">
<polygon fill="white" stroke="red" points="129.5,-68.8837 129.5,-87.8837 246.5,-87.8837 246.5,-68.8837 129.5,-68.8837"/>
<text text-anchor="middle" x="188" y="-75.8837" font-family="Helvetica,sans-Serif" font-size="10.00">mutt_make_label_hash</text>
</a>
</g>
</g>
<!-- Node1&#45;&gt;Node8 -->
<g id="edge10" class="edge"><title>Node1&#45;&gt;Node8</title>
<path fill="none" stroke="midnightblue" d="M54.5771,-144.771C68.8888,-132.228 95.6703,-110.354 122,-97.3837 126.627,-95.1041 131.578,-93.0479 136.605,-91.2053"/>
<polygon fill="midnightblue" stroke="midnightblue" points="137.952,-94.4445 146.301,-87.9228 135.707,-87.8142 137.952,-94.4445"/>
</g>
<!-- Node9 -->
<g id="node9" class="node"><title>Node9</title>
<g id="a_node9"><a xlink:href="sort_8c.html#aa99d4b590a29f24c0950934c15be6a83" target="_top" xlink:title="Sort emails by their headers. ">
<polygon fill="white" stroke="red" points="139,-30.8837 139,-49.8837 237,-49.8837 237,-30.8837 139,-30.8837"/>
<text text-anchor="middle" x="188" y="-37.8837" font-family="Helvetica,sans-Serif" font-size="10.00">mutt_sort_headers</text>
</a>
</g>
</g>
<!-- Node1&#45;&gt;Node9 -->
<g id="edge11" class="edge"><title>Node1&#45;&gt;Node9</title>
<path fill="none" stroke="midnightblue" d="M49.2616,-144.68C60.1973,-125.436 87.2807,-82.3231 122,-59.3837 125.127,-57.3179 128.482,-55.4719 131.962,-53.8231"/>
<polygon fill="midnightblue" stroke="midnightblue" points="133.498,-56.9748 141.388,-49.9035 130.811,-50.5113 133.498,-56.9748"/>
</g>
<!-- Node10 -->
<g id="node10" class="node"><title>Node10</title>
<g id="a_node10"><a xlink:href="mutt__logging_8c.html#af068b3f524a31fad293b2fb61dfc4534" target="_top" xlink:title="Clear the message line (bottom line of screen) ">
<polygon fill="white" stroke="red" points="295.5,-11.8837 295.5,-30.8837 382.5,-30.8837 382.5,-11.8837 295.5,-11.8837"/>
<text text-anchor="middle" x="339" y="-18.8837" font-family="Helvetica,sans-Serif" font-size="10.00">mutt_clear_error</text>
</a>
</g>
</g>
<!-- Node1&#45;&gt;Node10 -->
<g id="edge13" class="edge"><title>Node1&#45;&gt;Node10</title>
<path fill="none" stroke="midnightblue" d="M46.1945,-144.658C52.5958,-118.886 73.9193,-48.9253 122,-21.3837 175.394,9.20152 249.083,0.577962 295.113,-9.55655"/>
<polygon fill="midnightblue" stroke="midnightblue" points="294.529,-13.014 305.061,-11.8656 296.112,-6.19522 294.529,-13.014"/>
</g>
<!-- Node3&#45;&gt;Node2 -->
<g id="edge3" class="edge"><title>Node3&#45;&gt;Node2</title>
<path fill="none" stroke="midnightblue" d="M230.505,-270.891C245.908,-271.821 263.668,-272.894 280.26,-273.896"/>
<polygon fill="midnightblue" stroke="midnightblue" points="280.214,-277.4 290.407,-274.509 280.637,-270.412 280.214,-277.4"/>
</g>
<!-- Node4&#45;&gt;Node5 -->
<g id="edge5" class="edge"><title>Node4&#45;&gt;Node5</title>
<path fill="none" stroke="midnightblue" d="M239.861,-201.941C255.628,-204.904 272.972,-208.164 288.636,-211.107"/>
<polygon fill="midnightblue" stroke="midnightblue" points="288.18,-214.583 298.654,-212.99 289.473,-207.703 288.18,-214.583"/>
</g>
<!-- Node4&#45;&gt;Node6 -->
<g id="edge6" class="edge"><title>Node4&#45;&gt;Node6</title>
<path fill="none" stroke="midnightblue" d="M248.317,-182.829C263.467,-180.389 279.493,-177.808 293.741,-175.513"/>
<polygon fill="midnightblue" stroke="midnightblue" points="294.448,-178.944 303.764,-173.898 293.334,-172.033 294.448,-178.944"/>
</g>
<!-- Node9&#45;&gt;Node10 -->
<g id="edge12" class="edge"><title>Node9&#45;&gt;Node10</title>
<path fill="none" stroke="midnightblue" d="M237.376,-34.2149C252.711,-32.2594 269.737,-30.0883 285.357,-28.0965"/>
<polygon fill="midnightblue" stroke="midnightblue" points="285.91,-31.5545 295.387,-26.8176 285.024,-24.6107 285.91,-31.5545"/>
</g>
</g>
</svg>
