<?xml version="1.0" encoding="UTF-8" standalone="no"?>
<!DOCTYPE svg PUBLIC "-//W3C//DTD SVG 1.1//EN"
 "http://www.w3.org/Graphics/SVG/1.1/DTD/svg11.dtd">
<!-- Generated by graphviz version 2.36.0 (20140111.2315)
 -->
<!-- Title: mx_msg_close Pages: 1 -->
<svg width="600pt" height="526pt"
 viewBox="0.00 0.00 600.00 526.01" xmlns="http://www.w3.org/2000/svg" xmlns:xlink="http://www.w3.org/1999/xlink">
<g id="graph0" class="graph" transform="scale(1 1) rotate(0) translate(4 522.006)">
<title>mx_msg_close</title>
<polygon fill="white" stroke="none" points="-4,4 -4,-522.006 596,-522.006 596,4 -4,4"/>
<!-- Node1 -->
<g id="node1" class="node"><title>Node1</title>
<polygon fill="#bfbfbf" stroke="black" points="0.5,-247.5 0.5,-266.5 83.5,-266.5 83.5,-247.5 0.5,-247.5"/>
<text text-anchor="middle" x="42" y="-254.5" font-family="Helvetica,sans-Serif" font-size="10.00">mx_msg_close</text>
</g>
<!-- Node2 -->
<g id="node2" class="node"><title>Node2</title>
<g id="a_node2"><a xlink:href="commands_8c.html#a844de87332c13f05311a72a7b3a6ea96" target="_top" xlink:title="Check for an inline PGP content. ">
<polygon fill="white" stroke="red" points="301.5,-489.5 301.5,-508.5 412.5,-508.5 412.5,-489.5 301.5,-489.5"/>
<text text-anchor="middle" x="357" y="-496.5" font-family="Helvetica,sans-Serif" font-size="10.00">check_traditional_pgp</text>
</a>
</g>
</g>
<!-- Node1&#45;&gt;Node2 -->
<g id="edge1" class="edge"><title>Node1&#45;&gt;Node2</title>
<path fill="none" stroke="midnightblue" d="M42.8937,-277.014C43.8565,-322.579 53.2683,-434.041 120,-485 177.575,-528.967 267.941,-518.963 318.514,-508.509"/>
<polygon fill="midnightblue" stroke="midnightblue" points="46.3929,-276.893 42.8013,-266.926 39.3932,-276.957 46.3929,-276.893"/>
</g>
<!-- Node3 -->
<g id="node3" class="node"><title>Node3</title>
<g id="a_node3"><a xlink:href="copy_8h.html#afe88afbb99e45f4551735b80ce631f85" target="_top" xlink:title="Copy a message from a Context. ">
<polygon fill="white" stroke="red" points="127,-304.5 127,-323.5 253,-323.5 253,-304.5 127,-304.5"/>
<text text-anchor="middle" x="190" y="-311.5" font-family="Helvetica,sans-Serif" font-size="10.00">mutt_copy_message_ctx</text>
</a>
</g>
</g>
<!-- Node1&#45;&gt;Node3 -->
<g id="edge2" class="edge"><title>Node1&#45;&gt;Node3</title>
<path fill="none" stroke="midnightblue" d="M73.3139,-270.574C87.4131,-276.737 104.464,-283.978 120,-290 133.008,-295.043 147.577,-300.183 159.964,-304.406"/>
<polygon fill="midnightblue" stroke="midnightblue" points="74.642,-267.334 64.0794,-266.508 71.821,-273.741 74.642,-267.334"/>
</g>
<!-- Node4 -->
<g id="node4" class="node"><title>Node4</title>
<g id="a_node4"><a xlink:href="mh_8c.html#a7ce071910aa2dc44be43cf7fb9486d16" target="_top" xlink:title="Sync a message in an MH folder. ">
<polygon fill="white" stroke="red" points="302,-323.5 302,-342.5 412,-342.5 412,-323.5 302,-323.5"/>
<text text-anchor="middle" x="357" y="-330.5" font-family="Helvetica,sans-Serif" font-size="10.00">mh_rewrite_message</text>
</a>
</g>
</g>
<!-- Node1&#45;&gt;Node4 -->
<g id="edge9" class="edge"><title>Node1&#45;&gt;Node4</title>
<path fill="none" stroke="midnightblue" d="M54.7921,-275.066C68.0908,-293.61 91.6077,-321.348 120,-333 182.921,-358.822 263.473,-351.156 312.334,-342.575"/>
<polygon fill="midnightblue" stroke="midnightblue" points="57.5035,-272.832 48.9524,-266.576 51.7362,-276.799 57.5035,-272.832"/>
</g>
<!-- Node5 -->
<g id="node5" class="node"><title>Node5</title>
<g id="a_node5"><a xlink:href="copy_8c.html#a7e4401925a387ea5e6fadab50ead3ef7" target="_top" xlink:title="appends a copy of the given message to a mailbox ">
<polygon fill="white" stroke="black" points="143.5,-190.5 143.5,-209.5 236.5,-209.5 236.5,-190.5 143.5,-190.5"/>
<text text-anchor="middle" x="190" y="-197.5" font-family="Helvetica,sans-Serif" font-size="10.00">append_message</text>
</a>
</g>
</g>
<!-- Node1&#45;&gt;Node5 -->
<g id="edge4" class="edge"><title>Node1&#45;&gt;Node5</title>
<path fill="none" stroke="midnightblue" d="M73.3139,-243.426C87.4131,-237.263 104.464,-230.022 120,-224 133.008,-218.957 147.577,-213.817 159.964,-209.594"/>
<polygon fill="midnightblue" stroke="midnightblue" points="71.821,-240.259 64.0794,-247.492 74.642,-246.666 71.821,-240.259"/>
</g>
<!-- Node6 -->
<g id="node6" class="node"><title>Node6</title>
<g id="a_node6"><a xlink:href="copy_8h.html#af98bed67dcdeea122f22468b1fa020f6" target="_top" xlink:title="Append a message. ">
<polygon fill="white" stroke="red" points="298,-228.5 298,-247.5 416,-247.5 416,-228.5 298,-228.5"/>
<text text-anchor="middle" x="357" y="-235.5" font-family="Helvetica,sans-Serif" font-size="10.00">mutt_append_message</text>
</a>
</g>
</g>
<!-- Node1&#45;&gt;Node6 -->
<g id="edge7" class="edge"><title>Node1&#45;&gt;Node6</title>
<path fill="none" stroke="midnightblue" d="M93.6186,-253.927C149.476,-250.537 239.219,-245.089 297.902,-241.527"/>
<polygon fill="midnightblue" stroke="midnightblue" points="93.3679,-250.436 83.5984,-254.536 93.7921,-257.423 93.3679,-250.436"/>
</g>
<!-- Node7 -->
<g id="node7" class="node"><title>Node7</title>
<g id="a_node7"><a xlink:href="editmsg_8c.html#a39310aed08cab0c0d9851b5c6216b9fc" target="_top" xlink:title="Edit an email or view it in an external editor. ">
<polygon fill="white" stroke="red" points="454.5,-247.5 454.5,-266.5 591.5,-266.5 591.5,-247.5 454.5,-247.5"/>
<text text-anchor="middle" x="523" y="-254.5" font-family="Helvetica,sans-Serif" font-size="10.00">edit_or_view_one_message</text>
</a>
</g>
</g>
<!-- Node1&#45;&gt;Node7 -->
<g id="edge8" class="edge"><title>Node1&#45;&gt;Node7</title>
<path fill="none" stroke="midnightblue" d="M93.8188,-260.768C102.547,-261.281 111.531,-261.725 120,-262 237.546,-265.812 374.513,-262.44 454.41,-259.689"/>
<polygon fill="midnightblue" stroke="midnightblue" points="93.9348,-257.269 83.7366,-260.14 93.4996,-264.255 93.9348,-257.269"/>
</g>
<!-- Node8 -->
<g id="node8" class="node"><title>Node8</title>
<g id="a_node8"><a xlink:href="mutt__attach_8h.html#a7eca34952ac9afff3ff8ac5706fa6bc8" target="_top" xlink:title="Save an attachment. ">
<polygon fill="white" stroke="red" points="132,-152.5 132,-171.5 248,-171.5 248,-152.5 132,-152.5"/>
<text text-anchor="middle" x="190" y="-159.5" font-family="Helvetica,sans-Serif" font-size="10.00">mutt_save_attachment</text>
</a>
</g>
</g>
<!-- Node1&#45;&gt;Node8 -->
<g id="edge10" class="edge"><title>Node1&#45;&gt;Node8</title>
<path fill="none" stroke="midnightblue" d="M56.5844,-239.048C70.6275,-221.715 94.0996,-195.96 120,-181 126.671,-177.147 134.158,-174.046 141.674,-171.558"/>
<polygon fill="midnightblue" stroke="midnightblue" points="53.5703,-237.218 50.1373,-247.241 59.0716,-241.547 53.5703,-237.218"/>
</g>
<!-- Node9 -->
<g id="node9" class="node"><title>Node9</title>
<g id="a_node9"><a xlink:href="mutt__parse_8h.html#afa9b05dc295f1a3a537fd04532252d62" target="_top" xlink:title="Parse a MIME email. ">
<polygon fill="white" stroke="red" points="120,-456.5 120,-475.5 260,-475.5 260,-456.5 120,-456.5"/>
<text text-anchor="middle" x="190" y="-463.5" font-family="Helvetica,sans-Serif" font-size="10.00">mutt_parse_mime_message</text>
</a>
</g>
</g>
<!-- Node1&#45;&gt;Node9 -->
<g id="edge11" class="edge"><title>Node1&#45;&gt;Node9</title>
<path fill="none" stroke="midnightblue" d="M45.8121,-276.715C52.1747,-314.164 71.1198,-395.953 120,-442 126.739,-448.349 135.246,-453.028 143.963,-456.474"/>
<polygon fill="midnightblue" stroke="midnightblue" points="49.2333,-275.939 44.2223,-266.604 42.3183,-277.027 49.2333,-275.939"/>
</g>
<!-- Node10 -->
<g id="node10" class="node"><title>Node10</title>
<g id="a_node10"><a xlink:href="pattern_8c.html#a945a2a83eee776e1b5dd8bb58f8b3b3e" target="_top" xlink:title="Search an email. ">
<polygon fill="white" stroke="red" points="322,-442.5 322,-461.5 392,-461.5 392,-442.5 322,-442.5"/>
<text text-anchor="middle" x="357" y="-449.5" font-family="Helvetica,sans-Serif" font-size="10.00">msg_search</text>
</a>
</g>
</g>
<!-- Node1&#45;&gt;Node10 -->
<g id="edge15" class="edge"><title>Node1&#45;&gt;Node10</title>
<path fill="none" stroke="midnightblue" d="M49.053,-276.311C59.0757,-305.075 81.8856,-358.898 120,-388 180.565,-434.244 272.225,-447.103 321.597,-450.659"/>
<polygon fill="midnightblue" stroke="midnightblue" points="52.307,-275.005 45.8325,-266.618 45.664,-277.212 52.307,-275.005"/>
</g>
<!-- Node11 -->
<g id="node11" class="node"><title>Node11</title>
<g id="a_node11"><a xlink:href="recvattach_8h.html#a513215b1fd88e123dc01f6fa2b264594" target="_top" xlink:title="Show the attachments in a Menu. ">
<polygon fill="white" stroke="red" points="296.5,-385.5 296.5,-404.5 417.5,-404.5 417.5,-385.5 296.5,-385.5"/>
<text text-anchor="middle" x="357" y="-392.5" font-family="Helvetica,sans-Serif" font-size="10.00">mutt_view_attachments</text>
</a>
</g>
</g>
<!-- Node1&#45;&gt;Node11 -->
<g id="edge18" class="edge"><title>Node1&#45;&gt;Node11</title>
<path fill="none" stroke="midnightblue" d="M52.1814,-275.743C64.3565,-298.454 88.0832,-336.026 120,-355 173.849,-387.013 246.115,-395.194 296.434,-396.509"/>
<polygon fill="midnightblue" stroke="midnightblue" points="55.2373,-274.032 47.5461,-266.746 49.0145,-277.238 55.2373,-274.032"/>
</g>
<!-- Node12 -->
<g id="node12" class="node"><title>Node12</title>
<g id="a_node12"><a xlink:href="pop_8h.html#ae41e43ca791955eb76c5709db39a21d7" target="_top" xlink:title="Fetch messages and save them in $spoolfile. ">
<polygon fill="white" stroke="red" points="148.5,-114.5 148.5,-133.5 231.5,-133.5 231.5,-114.5 148.5,-114.5"/>
<text text-anchor="middle" x="190" y="-121.5" font-family="Helvetica,sans-Serif" font-size="10.00">pop_fetch_mail</text>
</a>
</g>
</g>
<!-- Node1&#45;&gt;Node12 -->
<g id="edge16" class="edge"><title>Node1&#45;&gt;Node12</title>
<path fill="none" stroke="midnightblue" d="M50.7277,-238.029C62.0883,-212.541 85.7274,-167.609 120,-143 128.276,-137.058 138.33,-132.973 148.173,-130.165"/>
<polygon fill="midnightblue" stroke="midnightblue" points="47.4544,-236.782 46.7356,-247.352 53.8893,-239.537 47.4544,-236.782"/>
</g>
<!-- Node13 -->
<g id="node13" class="node"><title>Node13</title>
<g id="a_node13"><a xlink:href="protos_8h.html#ad3a5a87ecb885b8cdf4782a9e220f318" target="_top" xlink:title="Prepare a message template. ">
<polygon fill="white" stroke="red" points="132,-76.5 132,-95.5 248,-95.5 248,-76.5 132,-76.5"/>
<text text-anchor="middle" x="190" y="-83.5" font-family="Helvetica,sans-Serif" font-size="10.00">mutt_prepare_template</text>
</a>
</g>
</g>
<!-- Node1&#45;&gt;Node13 -->
<g id="edge17" class="edge"><title>Node1&#45;&gt;Node13</title>
<path fill="none" stroke="midnightblue" d="M47.4377,-237.433C55.8365,-204.948 77.1812,-140.003 120,-105 124.714,-101.147 130.151,-98.0724 135.862,-95.6201"/>
<polygon fill="midnightblue" stroke="midnightblue" points="43.9596,-236.924 44.9929,-247.468 50.7607,-238.581 43.9596,-236.924"/>
</g>
<!-- Node14 -->
<g id="node14" class="node"><title>Node14</title>
<g id="a_node14"><a xlink:href="sendlib_8c.html#a9a653a3e76847d5e165a910082e246cf" target="_top" xlink:title="Bounce an email message. ">
<polygon fill="white" stroke="red" points="143.5,-38.5 143.5,-57.5 236.5,-57.5 236.5,-38.5 143.5,-38.5"/>
<text text-anchor="middle" x="190" y="-45.5" font-family="Helvetica,sans-Serif" font-size="10.00">bounce_message</text>
</a>
</g>
</g>
<!-- Node1&#45;&gt;Node14 -->
<g id="edge19" class="edge"><title>Node1&#45;&gt;Node14</title>
<path fill="none" stroke="midnightblue" d="M45.22,-237.503C50.6562,-199.03 68.214,-113.087 120,-67 126.59,-61.1352 134.832,-57.0621 143.303,-54.238"/>
<polygon fill="midnightblue" stroke="midnightblue" points="41.7482,-237.06 43.9432,-247.425 48.691,-237.953 41.7482,-237.06"/>
</g>
<!-- Node15 -->
<g id="node15" class="node"><title>Node15</title>
<g id="a_node15"><a xlink:href="sendlib_8h.html#ad77b7100b114c03b9972ebbd278a8c22" target="_top" xlink:title="Write email to FCC mailbox. ">
<polygon fill="white" stroke="red" points="149.5,-0.5 149.5,-19.5 230.5,-19.5 230.5,-0.5 149.5,-0.5"/>
<text text-anchor="middle" x="190" y="-7.5" font-family="Helvetica,sans-Serif" font-size="10.00">mutt_write_fcc</text>
</a>
</g>
</g>
<!-- Node1&#45;&gt;Node15 -->
<g id="edge20" class="edge"><title>Node1&#45;&gt;Node15</title>
<path fill="none" stroke="midnightblue" d="M43.7369,-237.03C46.4756,-192.86 59.3696,-86.2699 120,-29 128.039,-21.4066 138.828,-16.7965 149.483,-14.0132"/>
<polygon fill="midnightblue" stroke="midnightblue" points="40.2387,-236.908 43.2278,-247.072 47.2297,-237.262 40.2387,-236.908"/>
</g>
<!-- Node3&#45;&gt;Node4 -->
<g id="edge3" class="edge"><title>Node3&#45;&gt;Node4</title>
<path fill="none" stroke="midnightblue" d="M263.604,-322.361C276.472,-323.842 289.664,-325.361 301.907,-326.771"/>
<polygon fill="midnightblue" stroke="midnightblue" points="263.714,-318.85 253.379,-321.183 262.913,-325.804 263.714,-318.85"/>
</g>
<!-- Node5&#45;&gt;Node6 -->
<g id="edge5" class="edge"><title>Node5&#45;&gt;Node6</title>
<path fill="none" stroke="midnightblue" d="M242.654,-211.896C265.846,-217.237 292.838,-223.454 314.663,-228.48"/>
<polygon fill="midnightblue" stroke="midnightblue" points="243.167,-208.423 232.636,-209.589 241.596,-215.244 243.167,-208.423"/>
</g>
<!-- Node6&#45;&gt;Node7 -->
<g id="edge6" class="edge"><title>Node6&#45;&gt;Node7</title>
<path fill="none" stroke="midnightblue" d="M426.255,-245.908C435.556,-246.985 445.1,-248.091 454.389,-249.167"/>
<polygon fill="midnightblue" stroke="midnightblue" points="426.618,-242.426 416.282,-244.752 425.813,-249.38 426.618,-242.426"/>
</g>
<!-- Node9&#45;&gt;Node2 -->
<g id="edge12" class="edge"><title>Node9&#45;&gt;Node2</title>
<path fill="none" stroke="midnightblue" d="M248.711,-477.542C268.213,-481.443 289.752,-485.75 308.382,-489.476"/>
<polygon fill="midnightblue" stroke="midnightblue" points="249.217,-474.074 238.725,-475.545 247.844,-480.938 249.217,-474.074"/>
</g>
<!-- Node9&#45;&gt;Node10 -->
<g id="edge13" class="edge"><title>Node9&#45;&gt;Node10</title>
<path fill="none" stroke="midnightblue" d="M270.105,-459.288C288.341,-457.741 306.799,-456.175 321.906,-454.893"/>
<polygon fill="midnightblue" stroke="midnightblue" points="269.687,-455.811 260.019,-460.144 270.279,-462.786 269.687,-455.811"/>
</g>
<!-- Node9&#45;&gt;Node11 -->
<g id="edge14" class="edge"><title>Node9&#45;&gt;Node11</title>
<path fill="none" stroke="midnightblue" d="M222.774,-452.327C255.38,-438.297 305.263,-416.832 333.837,-404.537"/>
<polygon fill="midnightblue" stroke="midnightblue" points="221.055,-449.257 213.253,-456.425 223.822,-455.687 221.055,-449.257"/>
</g>
</g>
</svg>
