<?xml version="1.0" encoding="UTF-8" standalone="no"?>
<!DOCTYPE svg PUBLIC "-//W3C//DTD SVG 1.1//EN"
 "http://www.w3.org/Graphics/SVG/1.1/DTD/svg11.dtd">
<!-- Generated by graphviz version 2.36.0 (20140111.2315)
 -->
<!-- Title: mx_get_ops Pages: 1 -->
<svg width="370pt" height="124pt"
 viewBox="0.00 0.00 370.00 123.56" xmlns="http://www.w3.org/2000/svg" xmlns:xlink="http://www.w3.org/1999/xlink">
<g id="graph0" class="graph" transform="scale(1 1) rotate(0) translate(4 119.564)">
<title>mx_get_ops</title>
<polygon fill="white" stroke="none" points="-4,4 -4,-119.564 366,-119.564 366,4 -4,4"/>
<!-- Node1 -->
<g id="node1" class="node"><title>Node1</title>
<polygon fill="#bfbfbf" stroke="black" points="0,-39.0644 0,-58.0644 70,-58.0644 70,-39.0644 0,-39.0644"/>
<text text-anchor="middle" x="35" y="-46.0644" font-family="Helvetica,sans-Serif" font-size="10.00">mx_get_ops</text>
</g>
<!-- Node2 -->
<g id="node2" class="node"><title>Node2</title>
<g id="a_node2"><a xlink:href="compress_8c.html#a3b1ff60249105d0a7992997c6a7147a4" target="_top" xlink:title="Implements MxOps::mbox_open() ">
<polygon fill="white" stroke="black" points="125,-96.0644 125,-115.064 221,-115.064 221,-96.0644 125,-96.0644"/>
<text text-anchor="middle" x="173" y="-103.064" font-family="Helvetica,sans-Serif" font-size="10.00">comp_mbox_open</text>
</a>
</g>
</g>
<!-- Node1&#45;&gt;Node2 -->
<g id="edge1" class="edge"><title>Node1&#45;&gt;Node2</title>
<path fill="none" stroke="midnightblue" d="M60.2677,-63.4342C73.4549,-71.0752 90.2461,-80.1104 106,-86.5644 114.717,-90.1354 124.339,-93.3118 133.477,-95.997"/>
<polygon fill="midnightblue" stroke="midnightblue" points="61.7583,-60.2496 51.3688,-58.1737 58.1961,-66.2754 61.7583,-60.2496"/>
</g>
<!-- Node3 -->
<g id="node3" class="node"><title>Node3</title>
<g id="a_node3"><a xlink:href="compress_8c.html#a8c1b092f1fe19c1d3735e62fd1bcdc63" target="_top" xlink:title="Implements MxOps::mbox_open_append() ">
<polygon fill="white" stroke="black" points="106.5,-58.0644 106.5,-77.0644 239.5,-77.0644 239.5,-58.0644 106.5,-58.0644"/>
<text text-anchor="middle" x="173" y="-65.0644" font-family="Helvetica,sans-Serif" font-size="10.00">comp_mbox_open_append</text>
</a>
</g>
</g>
<!-- Node1&#45;&gt;Node3 -->
<g id="edge2" class="edge"><title>Node1&#45;&gt;Node3</title>
<path fill="none" stroke="midnightblue" d="M80.2267,-54.7431C88.6071,-55.9139 97.5385,-57.1617 106.415,-58.4018"/>
<polygon fill="midnightblue" stroke="midnightblue" points="80.7067,-51.2763 70.3185,-53.3589 79.7381,-58.2089 80.7067,-51.2763"/>
</g>
<!-- Node4 -->
<g id="node4" class="node"><title>Node4</title>
<g id="a_node4"><a xlink:href="mx_8c.html#a796e4c3259004c261689b257d776a308" target="_top" xlink:title="Open a mailbox for appending. ">
<polygon fill="white" stroke="black" points="107,-20.0644 107,-39.0644 239,-39.0644 239,-20.0644 107,-20.0644"/>
<text text-anchor="middle" x="173" y="-27.0644" font-family="Helvetica,sans-Serif" font-size="10.00">mx_open_mailbox_append</text>
</a>
</g>
</g>
<!-- Node1&#45;&gt;Node4 -->
<g id="edge3" class="edge"><title>Node1&#45;&gt;Node4</title>
<path fill="none" stroke="midnightblue" d="M80.3728,-42.3652C88.8794,-41.1768 97.9493,-39.9097 106.95,-38.6522"/>
<polygon fill="midnightblue" stroke="midnightblue" points="79.7381,-38.9198 70.3185,-43.7699 80.7067,-45.8525 79.7381,-38.9198"/>
</g>
<!-- Node5 -->
<g id="node5" class="node"><title>Node5</title>
<g id="a_node5"><a xlink:href="mx_8h.html#ad33e3ff602855d7d00c86d46bc608b1d" target="_top" xlink:title="Open a mailbox and parse it. ">
<polygon fill="white" stroke="red" points="276,-1.06439 276,-20.0644 362,-20.0644 362,-1.06439 276,-1.06439"/>
<text text-anchor="middle" x="319" y="-8.06439" font-family="Helvetica,sans-Serif" font-size="10.00">mx_mbox_open</text>
</a>
</g>
</g>
<!-- Node1&#45;&gt;Node5 -->
<g id="edge5" class="edge"><title>Node1&#45;&gt;Node5</title>
<path fill="none" stroke="midnightblue" d="M57.5173,-33.225C70.7977,-24.7187 88.5766,-14.9887 106,-10.5644 163.434,4.01972 232.478,0.259755 275.812,-4.53923"/>
<polygon fill="midnightblue" stroke="midnightblue" points="55.4788,-30.3775 49.1017,-38.8382 59.363,-36.201 55.4788,-30.3775"/>
</g>
<!-- Node4&#45;&gt;Node5 -->
<g id="edge4" class="edge"><title>Node4&#45;&gt;Node5</title>
<path fill="none" stroke="midnightblue" d="M249.422,-19.6129C258.423,-18.4252 267.353,-17.247 275.647,-16.1526"/>
<polygon fill="midnightblue" stroke="midnightblue" points="248.715,-16.1757 239.259,-20.9539 249.631,-23.1156 248.715,-16.1757"/>
</g>
</g>
</svg>
