<?xml version="1.0" encoding="UTF-8" standalone="no"?>
<!DOCTYPE svg PUBLIC "-//W3C//DTD SVG 1.1//EN"
 "http://www.w3.org/Graphics/SVG/1.1/DTD/svg11.dtd">
<!-- Generated by graphviz version 2.36.0 (20140111.2315)
 -->
<!-- Title: mx.h Pages: 1 -->
<svg width="308pt" height="140pt"
 viewBox="0.00 0.00 307.56 140.00" xmlns="http://www.w3.org/2000/svg" xmlns:xlink="http://www.w3.org/1999/xlink">
<g id="graph0" class="graph" transform="scale(1 1) rotate(0) translate(4 136)">
<title>mx.h</title>
<polygon fill="white" stroke="none" points="-4,4 -4,-136 303.564,-136 303.564,4 -4,4"/>
<!-- Node1 -->
<g id="node1" class="node"><title>Node1</title>
<polygon fill="#bfbfbf" stroke="black" points="80.5644,-112.5 80.5644,-131.5 118.564,-131.5 118.564,-112.5 80.5644,-112.5"/>
<text text-anchor="middle" x="99.5644" y="-119.5" font-family="Helvetica,sans-Serif" font-size="10.00">mx.h</text>
</g>
<!-- Node2 -->
<g id="node2" class="node"><title>Node2</title>
<polygon fill="white" stroke="#bfbfbf" points="91.5644,-0.5 91.5644,-19.5 147.564,-19.5 147.564,-0.5 91.5644,-0.5"/>
<text text-anchor="middle" x="119.564" y="-7.5" font-family="Helvetica,sans-Serif" font-size="10.00">stdbool.h</text>
</g>
<!-- Node1&#45;&gt;Node2 -->
<g id="edge1" class="edge"><title>Node1&#45;&gt;Node2</title>
<path fill="none" stroke="midnightblue" d="M80.4028,-116.72C46.8527,-108.3 -17.0096,-87.6089 4.56445,-56 21.6362,-30.9875 54.8792,-19.8771 81.251,-14.9422"/>
<polygon fill="midnightblue" stroke="midnightblue" points="82.0356,-18.3603 91.3359,-13.2854 80.9008,-11.4529 82.0356,-18.3603"/>
</g>
<!-- Node3 -->
<g id="node3" class="node"><title>Node3</title>
<polygon fill="white" stroke="#bfbfbf" points="13.5644,-56.5 13.5644,-75.5 59.5644,-75.5 59.5644,-56.5 13.5644,-56.5"/>
<text text-anchor="middle" x="36.5644" y="-63.5" font-family="Helvetica,sans-Serif" font-size="10.00">stdio.h</text>
</g>
<!-- Node1&#45;&gt;Node3 -->
<g id="edge2" class="edge"><title>Node1&#45;&gt;Node3</title>
<path fill="none" stroke="midnightblue" d="M89.4424,-112.324C80.0381,-104.263 65.8204,-92.0765 54.4955,-82.3695"/>
<polygon fill="midnightblue" stroke="midnightblue" points="56.741,-79.6844 46.8707,-75.8339 52.1855,-84.9993 56.741,-79.6844"/>
</g>
<!-- Node4 -->
<g id="node4" class="node"><title>Node4</title>
<polygon fill="white" stroke="#bfbfbf" points="77.5644,-56.5 77.5644,-75.5 121.564,-75.5 121.564,-56.5 77.5644,-56.5"/>
<text text-anchor="middle" x="99.5644" y="-63.5" font-family="Helvetica,sans-Serif" font-size="10.00">time.h</text>
</g>
<!-- Node1&#45;&gt;Node4 -->
<g id="edge3" class="edge"><title>Node1&#45;&gt;Node4</title>
<path fill="none" stroke="midnightblue" d="M99.5644,-112.083C99.5644,-105.006 99.5644,-94.8611 99.5644,-85.9865"/>
<polygon fill="midnightblue" stroke="midnightblue" points="103.065,-85.751 99.5644,-75.7511 96.0645,-85.7511 103.065,-85.751"/>
</g>
<!-- Node5 -->
<g id="node5" class="node"><title>Node5</title>
<g id="a_node5"><a xlink:href="where_8h.html" target="_top" xlink:title="An evil macro. ">
<polygon fill="white" stroke="black" points="140.064,-56.5 140.064,-75.5 191.064,-75.5 191.064,-56.5 140.064,-56.5"/>
<text text-anchor="middle" x="165.564" y="-63.5" font-family="Helvetica,sans-Serif" font-size="10.00">where.h</text>
</a>
</g>
</g>
<!-- Node1&#45;&gt;Node5 -->
<g id="edge4" class="edge"><title>Node1&#45;&gt;Node5</title>
<path fill="none" stroke="midnightblue" d="M110.168,-112.324C120.021,-104.263 134.915,-92.0765 146.78,-82.3695"/>
<polygon fill="midnightblue" stroke="midnightblue" points="149.244,-84.8752 154.767,-75.8339 144.812,-79.4575 149.244,-84.8752"/>
</g>
<!-- Node6 -->
<g id="node6" class="node"><title>Node6</title>
<g id="a_node6"><a xlink:href="hcache_8h.html" target="_top" xlink:title="Header cache multiplexor. ">
<polygon fill="white" stroke="red" points="209.064,-56.5 209.064,-75.5 300.064,-75.5 300.064,-56.5 209.064,-56.5"/>
<text text-anchor="middle" x="254.564" y="-63.5" font-family="Helvetica,sans-Serif" font-size="10.00">hcache/hcache.h</text>
</a>
</g>
</g>
<!-- Node1&#45;&gt;Node6 -->
<g id="edge5" class="edge"><title>Node1&#45;&gt;Node6</title>
<path fill="none" stroke="midnightblue" d="M118.57,-114.379C143.882,-105.56 189.096,-89.8084 220.403,-78.9014"/>
<polygon fill="midnightblue" stroke="midnightblue" points="221.744,-82.1404 230.036,-75.5453 219.441,-75.5301 221.744,-82.1404"/>
</g>
<!-- Node6&#45;&gt;Node2 -->
<g id="edge6" class="edge"><title>Node6&#45;&gt;Node2</title>
<path fill="none" stroke="midnightblue" d="M233.173,-56.4435C210.857,-47.5171 175.661,-33.4387 150.356,-23.3168"/>
<polygon fill="midnightblue" stroke="midnightblue" points="151.44,-19.9807 140.856,-19.5164 148.84,-26.4801 151.44,-19.9807"/>
</g>
</g>
</svg>
