<?xml version="1.0" encoding="UTF-8" standalone="no"?>
<!DOCTYPE svg PUBLIC "-//W3C//DTD SVG 1.1//EN"
 "http://www.w3.org/Graphics/SVG/1.1/DTD/svg11.dtd">
<!-- Generated by graphviz version 2.36.0 (20140111.2315)
 -->
<!-- Title: mx_get_magic Pages: 1 -->
<svg width="234pt" height="370pt"
 viewBox="0.00 0.00 234.00 370.00" xmlns="http://www.w3.org/2000/svg" xmlns:xlink="http://www.w3.org/1999/xlink">
<g id="graph0" class="graph" transform="scale(1 1) rotate(0) translate(4 366)">
<title>mx_get_magic</title>
<polygon fill="white" stroke="none" points="-4,4 -4,-366 230,-366 230,4 -4,4"/>
<!-- Node1 -->
<g id="node1" class="node"><title>Node1</title>
<polygon fill="#bfbfbf" stroke="black" points="0,-171.5 0,-190.5 80,-190.5 80,-171.5 0,-171.5"/>
<text text-anchor="middle" x="40" y="-178.5" font-family="Helvetica,sans-Serif" font-size="10.00">mx_get_magic</text>
</g>
<!-- Node2 -->
<g id="node2" class="node"><title>Node2</title>
<g id="a_node2"><a xlink:href="mx_8c.html#a7cee0fd7066e1a6d816fa9bd6e3a7978" target="_top" xlink:title="Is this an IMAP mailbox. ">
<polygon fill="white" stroke="red" points="136.5,-342.5 136.5,-361.5 205.5,-361.5 205.5,-342.5 136.5,-342.5"/>
<text text-anchor="middle" x="171" y="-349.5" font-family="Helvetica,sans-Serif" font-size="10.00">mx_is_imap</text>
</a>
</g>
</g>
<!-- Node1&#45;&gt;Node2 -->
<g id="edge1" class="edge"><title>Node1&#45;&gt;Node2</title>
<path fill="none" stroke="midnightblue" d="M43.0911,-190.745C49.314,-217.429 70.2018,-292.394 116,-333 119.263,-335.893 122.993,-338.352 126.935,-340.442"/>
<polygon fill="midnightblue" stroke="midnightblue" points="125.84,-343.786 136.397,-344.676 128.699,-337.396 125.84,-343.786"/>
</g>
<!-- Node3 -->
<g id="node3" class="node"><title>Node3</title>
<g id="a_node3"><a xlink:href="mx_8c.html#aa06a82b8fbf0e8499b26ddfe8e771ba4" target="_top" xlink:title="Is this a POP mailbox. ">
<polygon fill="white" stroke="red" points="139,-304.5 139,-323.5 203,-323.5 203,-304.5 139,-304.5"/>
<text text-anchor="middle" x="171" y="-311.5" font-family="Helvetica,sans-Serif" font-size="10.00">mx_is_pop</text>
</a>
</g>
</g>
<!-- Node1&#45;&gt;Node3 -->
<g id="edge2" class="edge"><title>Node1&#45;&gt;Node3</title>
<path fill="none" stroke="midnightblue" d="M44.8382,-190.789C53.8935,-212.651 78.674,-265.815 116,-295 120.055,-298.171 124.68,-300.836 129.478,-303.071"/>
<polygon fill="midnightblue" stroke="midnightblue" points="128.232,-306.343 138.814,-306.858 130.863,-299.856 128.232,-306.343"/>
</g>
<!-- Node4 -->
<g id="node4" class="node"><title>Node4</title>
<g id="a_node4"><a xlink:href="mx_8c.html#af84c07a51fe6f8b1969b8e513622483c" target="_top" xlink:title="Is this an NNTP mailbox. ">
<polygon fill="white" stroke="red" points="137.5,-266.5 137.5,-285.5 204.5,-285.5 204.5,-266.5 137.5,-266.5"/>
<text text-anchor="middle" x="171" y="-273.5" font-family="Helvetica,sans-Serif" font-size="10.00">mx_is_nntp</text>
</a>
</g>
</g>
<!-- Node1&#45;&gt;Node4 -->
<g id="edge3" class="edge"><title>Node1&#45;&gt;Node4</title>
<path fill="none" stroke="midnightblue" d="M48.0284,-190.541C60.2004,-206.44 86.7256,-238.435 116,-257 119.785,-259.4 123.912,-261.544 128.143,-263.448"/>
<polygon fill="midnightblue" stroke="midnightblue" points="126.897,-266.72 137.479,-267.238 129.53,-260.234 126.897,-266.72"/>
</g>
<!-- Node5 -->
<g id="node5" class="node"><title>Node5</title>
<g id="a_node5"><a xlink:href="mx_8c.html#ad9268dd7c422c8af3b90f489847fb5d8" target="_top" xlink:title="Is this a Notmuch mailbox. ">
<polygon fill="white" stroke="red" points="128,-228.5 128,-247.5 214,-247.5 214,-228.5 128,-228.5"/>
<text text-anchor="middle" x="171" y="-235.5" font-family="Helvetica,sans-Serif" font-size="10.00">mx_is_notmuch</text>
</a>
</g>
</g>
<!-- Node1&#45;&gt;Node5 -->
<g id="edge4" class="edge"><title>Node1&#45;&gt;Node5</title>
<path fill="none" stroke="midnightblue" d="M58.2715,-190.565C73.2788,-198.678 95.7302,-210.343 116,-219 120.79,-221.046 125.881,-223.05 130.951,-224.944"/>
<polygon fill="midnightblue" stroke="midnightblue" points="129.992,-228.32 140.586,-228.433 132.375,-221.738 129.992,-228.32"/>
</g>
<!-- Node6 -->
<g id="node6" class="node"><title>Node6</title>
<g id="a_node6"><a xlink:href="maildir_8h.html#a16b973b1ddabe2b538bdb109f8f4f880" target="_top" xlink:title="Is this a Maildir folder? ">
<polygon fill="white" stroke="black" points="132.5,-190.5 132.5,-209.5 209.5,-209.5 209.5,-190.5 132.5,-190.5"/>
<text text-anchor="middle" x="171" y="-197.5" font-family="Helvetica,sans-Serif" font-size="10.00">mx_is_maildir</text>
</a>
</g>
</g>
<!-- Node1&#45;&gt;Node6 -->
<g id="edge5" class="edge"><title>Node1&#45;&gt;Node6</title>
<path fill="none" stroke="midnightblue" d="M80.0543,-186.752C93.421,-188.721 108.524,-190.945 122.484,-193.002"/>
<polygon fill="midnightblue" stroke="midnightblue" points="122.003,-196.468 132.406,-194.463 123.023,-189.543 122.003,-196.468"/>
</g>
<!-- Node7 -->
<g id="node7" class="node"><title>Node7</title>
<g id="a_node7"><a xlink:href="maildir_8h.html#abc1568e1fc35b5653e98db8470176477" target="_top" xlink:title="Is this an MH folder? ">
<polygon fill="white" stroke="black" points="140,-152.5 140,-171.5 202,-171.5 202,-152.5 140,-152.5"/>
<text text-anchor="middle" x="171" y="-159.5" font-family="Helvetica,sans-Serif" font-size="10.00">mx_is_mh</text>
</a>
</g>
</g>
<!-- Node1&#45;&gt;Node7 -->
<g id="edge6" class="edge"><title>Node1&#45;&gt;Node7</title>
<path fill="none" stroke="midnightblue" d="M80.0543,-175.248C95.7488,-172.936 113.837,-170.272 129.658,-167.942"/>
<polygon fill="midnightblue" stroke="midnightblue" points="130.297,-171.386 139.68,-166.466 129.277,-164.46 130.297,-171.386"/>
</g>
<!-- Node8 -->
<g id="node8" class="node"><title>Node8</title>
<g id="a_node8"><a xlink:href="mutt_2string_8c.html#a0f37dc8085c127cb48df9b47a21236a6" target="_top" xlink:title="Compare two strings (to a maximum), safely. ">
<polygon fill="white" stroke="black" points="124.5,-114.5 124.5,-133.5 217.5,-133.5 217.5,-114.5 124.5,-114.5"/>
<text text-anchor="middle" x="171" y="-121.5" font-family="Helvetica,sans-Serif" font-size="10.00">mutt_str_strncmp</text>
</a>
</g>
</g>
<!-- Node1&#45;&gt;Node8 -->
<g id="edge7" class="edge"><title>Node1&#45;&gt;Node8</title>
<path fill="none" stroke="midnightblue" d="M58.2715,-171.435C73.2788,-163.322 95.7302,-151.657 116,-143 120.79,-140.954 125.881,-138.95 130.951,-137.056"/>
<polygon fill="midnightblue" stroke="midnightblue" points="132.375,-140.262 140.586,-133.567 129.992,-133.68 132.375,-140.262"/>
</g>
<!-- Node9 -->
<g id="node9" class="node"><title>Node9</title>
<g id="a_node9"><a xlink:href="mutt_2string_8c.html#ab4aaf8bd2ce3982651f0f949d6c665e2" target="_top" xlink:title="Compare two strings, safely. ">
<polygon fill="white" stroke="black" points="127,-76.5 127,-95.5 215,-95.5 215,-76.5 127,-76.5"/>
<text text-anchor="middle" x="171" y="-83.5" font-family="Helvetica,sans-Serif" font-size="10.00">mutt_str_strcmp</text>
</a>
</g>
</g>
<!-- Node1&#45;&gt;Node9 -->
<g id="edge8" class="edge"><title>Node1&#45;&gt;Node9</title>
<path fill="none" stroke="midnightblue" d="M48.0284,-171.459C60.2004,-155.56 86.7256,-123.565 116,-105 119.166,-102.992 122.571,-101.164 126.076,-99.5053"/>
<polygon fill="midnightblue" stroke="midnightblue" points="127.657,-102.637 135.493,-95.5056 124.92,-96.1936 127.657,-102.637"/>
</g>
<!-- Node10 -->
<g id="node10" class="node"><title>Node10</title>
<g id="a_node10"><a xlink:href="file_8c.html#a4982d9040dfaf38e847729be2af83ed6" target="_top" xlink:title="Close a FILE handle (and NULL the pointer) ">
<polygon fill="white" stroke="black" points="128,-38.5 128,-57.5 214,-57.5 214,-38.5 128,-38.5"/>
<text text-anchor="middle" x="171" y="-45.5" font-family="Helvetica,sans-Serif" font-size="10.00">mutt_file_fclose</text>
</a>
</g>
</g>
<!-- Node1&#45;&gt;Node10 -->
<g id="edge9" class="edge"><title>Node1&#45;&gt;Node10</title>
<path fill="none" stroke="midnightblue" d="M44.8382,-171.211C53.8935,-149.349 78.674,-96.1852 116,-67 118.312,-65.1922 120.809,-63.5486 123.418,-62.0555"/>
<polygon fill="midnightblue" stroke="midnightblue" points="125.18,-65.0895 132.612,-57.5382 122.093,-58.8069 125.18,-65.0895"/>
</g>
<!-- Node11 -->
<g id="node11" class="node"><title>Node11</title>
<g id="a_node11"><a xlink:href="compress_8c.html#af5e4caf583046a535cf5fda9933d3c74" target="_top" xlink:title="Can we read from this file? ">
<polygon fill="white" stroke="red" points="116,-0.5 116,-19.5 226,-19.5 226,-0.5 116,-0.5"/>
<text text-anchor="middle" x="171" y="-7.5" font-family="Helvetica,sans-Serif" font-size="10.00">mutt_comp_can_read</text>
</a>
</g>
</g>
<!-- Node1&#45;&gt;Node11 -->
<g id="edge10" class="edge"><title>Node1&#45;&gt;Node11</title>
<path fill="none" stroke="midnightblue" d="M43.0911,-171.255C49.314,-144.571 70.2018,-69.6057 116,-29 117.92,-27.2981 120.001,-25.7463 122.192,-24.3315"/>
<polygon fill="midnightblue" stroke="midnightblue" points="123.946,-27.3622 131.077,-19.5268 120.616,-21.2048 123.946,-27.3622"/>
</g>
</g>
</svg>
