<?xml version="1.0" encoding="UTF-8" standalone="no"?>
<!DOCTYPE svg PUBLIC "-//W3C//DTD SVG 1.1//EN"
 "http://www.w3.org/Graphics/SVG/1.1/DTD/svg11.dtd">
<!-- Generated by graphviz version 2.36.0 (20140111.2315)
 -->
<!-- Title: mx_alloc_memory Pages: 1 -->
<svg width="514pt" height="370pt"
 viewBox="0.00 0.00 514.00 370.00" xmlns="http://www.w3.org/2000/svg" xmlns:xlink="http://www.w3.org/1999/xlink">
<g id="graph0" class="graph" transform="scale(1 1) rotate(0) translate(4 366)">
<title>mx_alloc_memory</title>
<polygon fill="white" stroke="none" points="-4,4 -4,-366 510,-366 510,4 -4,4"/>
<!-- Node1 -->
<g id="node1" class="node"><title>Node1</title>
<polygon fill="#bfbfbf" stroke="black" points="0,-171.5 0,-190.5 96,-190.5 96,-171.5 0,-171.5"/>
<text text-anchor="middle" x="48" y="-178.5" font-family="Helvetica,sans-Serif" font-size="10.00">mx_alloc_memory</text>
</g>
<!-- Node2 -->
<g id="node2" class="node"><title>Node2</title>
<g id="a_node2"><a xlink:href="message_8c.html#a5dae54814b2746142369bbdef40b1b0f" target="_top" xlink:title="Read headers from the server. ">
<polygon fill="white" stroke="red" points="140.5,-342.5 140.5,-361.5 241.5,-361.5 241.5,-342.5 140.5,-342.5"/>
<text text-anchor="middle" x="191" y="-349.5" font-family="Helvetica,sans-Serif" font-size="10.00">imap_read_headers</text>
</a>
</g>
</g>
<!-- Node1&#45;&gt;Node2 -->
<g id="edge1" class="edge"><title>Node1&#45;&gt;Node2</title>
<path fill="none" stroke="midnightblue" d="M54.4377,-200.404C64.4426,-232.601 88.8012,-297.071 132,-333 136.644,-336.862 142.095,-339.946 147.763,-342.407"/>
<polygon fill="midnightblue" stroke="midnightblue" points="57.7906,-199.399 51.5885,-190.81 51.0803,-201.392 57.7906,-199.399"/>
</g>
<!-- Node3 -->
<g id="node3" class="node"><title>Node3</title>
<g id="a_node3"><a xlink:href="mh_8c.html#a3c9b232dc79098733678fa3ec5291953" target="_top" xlink:title="Add the Maildir list to the Context. ">
<polygon fill="white" stroke="red" points="132.5,-304.5 132.5,-323.5 249.5,-323.5 249.5,-304.5 132.5,-304.5"/>
<text text-anchor="middle" x="191" y="-311.5" font-family="Helvetica,sans-Serif" font-size="10.00">maildir_add_to_context</text>
</a>
</g>
</g>
<!-- Node1&#45;&gt;Node3 -->
<g id="edge2" class="edge"><title>Node1&#45;&gt;Node3</title>
<path fill="none" stroke="midnightblue" d="M57.8981,-199.73C70.7979,-224.94 97.0285,-269.554 132,-295 137.312,-298.865 143.453,-301.973 149.71,-304.463"/>
<polygon fill="midnightblue" stroke="midnightblue" points="60.9102,-197.925 53.3373,-190.516 54.6367,-201.031 60.9102,-197.925"/>
</g>
<!-- Node4 -->
<g id="node4" class="node"><title>Node4</title>
<g id="a_node4"><a xlink:href="mbox_8c.html#ae1efd8707efa96b7e0b8daf0105024ee" target="_top" xlink:title="Read a mailbox in MMDF format. ">
<polygon fill="white" stroke="red" points="136,-266.5 136,-285.5 246,-285.5 246,-266.5 136,-266.5"/>
<text text-anchor="middle" x="191" y="-273.5" font-family="Helvetica,sans-Serif" font-size="10.00">mmdf_parse_mailbox</text>
</a>
</g>
</g>
<!-- Node1&#45;&gt;Node4 -->
<g id="edge3" class="edge"><title>Node1&#45;&gt;Node4</title>
<path fill="none" stroke="midnightblue" d="M63.6729,-198.167C79.1114,-215.254 104.893,-241.155 132,-257 138.403,-260.743 145.641,-263.86 152.779,-266.413"/>
<polygon fill="midnightblue" stroke="midnightblue" points="66.2068,-195.748 56.9644,-190.569 60.9595,-200.382 66.2068,-195.748"/>
</g>
<!-- Node5 -->
<g id="node5" class="node"><title>Node5</title>
<g id="a_node5"><a xlink:href="mbox_8c.html#ad72dff92f5cf9ec13c2819dbcf9e0c9b" target="_top" xlink:title="Read a mailbox from disk. ">
<polygon fill="white" stroke="red" points="136.5,-228.5 136.5,-247.5 245.5,-247.5 245.5,-228.5 136.5,-228.5"/>
<text text-anchor="middle" x="191" y="-235.5" font-family="Helvetica,sans-Serif" font-size="10.00">mbox_parse_mailbox</text>
</a>
</g>
</g>
<!-- Node1&#45;&gt;Node5 -->
<g id="edge4" class="edge"><title>Node1&#45;&gt;Node5</title>
<path fill="none" stroke="midnightblue" d="M77.4485,-194.989C93.3154,-202.546 113.545,-211.779 132,-219 140.585,-222.359 150.033,-225.629 158.767,-228.483"/>
<polygon fill="midnightblue" stroke="midnightblue" points="78.7164,-191.715 68.1877,-190.533 75.6815,-198.023 78.7164,-191.715"/>
</g>
<!-- Node6 -->
<g id="node6" class="node"><title>Node6</title>
<g id="a_node6"><a xlink:href="nntp_8c.html#a5e39d9fec82ed686b26efe2aef42d906" target="_top" xlink:title="Parse overview line. ">
<polygon fill="white" stroke="black" points="138.5,-190.5 138.5,-209.5 243.5,-209.5 243.5,-190.5 138.5,-190.5"/>
<text text-anchor="middle" x="191" y="-197.5" font-family="Helvetica,sans-Serif" font-size="10.00">parse_overview_line</text>
</a>
</g>
</g>
<!-- Node1&#45;&gt;Node6 -->
<g id="edge5" class="edge"><title>Node1&#45;&gt;Node6</title>
<path fill="none" stroke="midnightblue" d="M106.299,-188.721C116.847,-190.142 127.804,-191.619 138.179,-193.017"/>
<polygon fill="midnightblue" stroke="midnightblue" points="106.721,-185.246 96.3432,-187.38 105.786,-192.184 106.721,-185.246"/>
</g>
<!-- Node7 -->
<g id="node7" class="node"><title>Node7</title>
<g id="a_node7"><a xlink:href="nntp_8c.html#a6437065331602c01b06ab900ba7eb9e4" target="_top" xlink:title="Fetch headers. ">
<polygon fill="white" stroke="red" points="286,-152.5 286,-171.5 388,-171.5 388,-152.5 286,-152.5"/>
<text text-anchor="middle" x="337" y="-159.5" font-family="Helvetica,sans-Serif" font-size="10.00">nntp_fetch_headers</text>
</a>
</g>
</g>
<!-- Node1&#45;&gt;Node7 -->
<g id="edge8" class="edge"><title>Node1&#45;&gt;Node7</title>
<path fill="none" stroke="midnightblue" d="M106.207,-177.213C158.587,-173.745 235.371,-168.662 285.521,-165.342"/>
<polygon fill="midnightblue" stroke="midnightblue" points="105.818,-173.731 96.0708,-177.884 106.28,-180.716 105.818,-173.731"/>
</g>
<!-- Node8 -->
<g id="node8" class="node"><title>Node8</title>
<g id="a_node8"><a xlink:href="nntp_8c.html#a7e2d3f32389db957efa45387884208e4" target="_top" xlink:title="Check current newsgroup for new articles. ">
<polygon fill="white" stroke="red" points="424,-133.5 424,-152.5 506,-152.5 506,-133.5 424,-133.5"/>
<text text-anchor="middle" x="465" y="-140.5" font-family="Helvetica,sans-Serif" font-size="10.00">check_mailbox</text>
</a>
</g>
</g>
<!-- Node1&#45;&gt;Node8 -->
<g id="edge9" class="edge"><title>Node1&#45;&gt;Node8</title>
<path fill="none" stroke="midnightblue" d="M102.786,-169.441C112.489,-167.511 122.53,-165.614 132,-164 200.096,-152.397 217.081,-147.677 286,-143 333.173,-139.798 387.54,-140.424 423.652,-141.445"/>
<polygon fill="midnightblue" stroke="midnightblue" points="101.942,-166.041 92.8342,-171.454 103.33,-172.902 101.942,-166.041"/>
</g>
<!-- Node9 -->
<g id="node9" class="node"><title>Node9</title>
<g id="a_node9"><a xlink:href="nntp_8h.html#a95d1bde908ca9d70a12fe5fa2b5ce0af" target="_top" xlink:title="Fetch article by Message&#45;ID. ">
<polygon fill="white" stroke="red" points="142,-76.5 142,-95.5 240,-95.5 240,-76.5 142,-76.5"/>
<text text-anchor="middle" x="191" y="-83.5" font-family="Helvetica,sans-Serif" font-size="10.00">nntp_check_msgid</text>
</a>
</g>
</g>
<!-- Node1&#45;&gt;Node9 -->
<g id="edge10" class="edge"><title>Node1&#45;&gt;Node9</title>
<path fill="none" stroke="midnightblue" d="M65.8677,-163.735C81.8059,-148.145 106.945,-125.361 132,-110 141.29,-104.304 152.173,-99.3961 161.986,-95.5294"/>
<polygon fill="midnightblue" stroke="midnightblue" points="63.035,-161.616 58.4209,-171.154 67.9755,-166.575 63.035,-161.616"/>
</g>
<!-- Node10 -->
<g id="node10" class="node"><title>Node10</title>
<g id="a_node10"><a xlink:href="mutt__notmuch_8c.html#ab829d343fdc673fe2a1a82157ed5fcc8" target="_top" xlink:title="Associate a message. ">
<polygon fill="white" stroke="red" points="144.5,-38.5 144.5,-57.5 237.5,-57.5 237.5,-38.5 144.5,-38.5"/>
<text text-anchor="middle" x="191" y="-45.5" font-family="Helvetica,sans-Serif" font-size="10.00">append_message</text>
</a>
</g>
</g>
<!-- Node1&#45;&gt;Node10 -->
<g id="edge11" class="edge"><title>Node1&#45;&gt;Node10</title>
<path fill="none" stroke="midnightblue" d="M57.8981,-162.27C70.7979,-137.06 97.0285,-92.446 132,-67 137.312,-63.1348 143.453,-60.0274 149.71,-57.5374"/>
<polygon fill="midnightblue" stroke="midnightblue" points="54.6367,-160.969 53.3373,-171.484 60.9102,-164.075 54.6367,-160.969"/>
</g>
<!-- Node11 -->
<g id="node11" class="node"><title>Node11</title>
<g id="a_node11"><a xlink:href="pop_8c.html#a9e05d2231acde9488345aa63e125372a" target="_top" xlink:title="parse UIDL ">
<polygon fill="white" stroke="red" points="161.5,-0.5 161.5,-19.5 220.5,-19.5 220.5,-0.5 161.5,-0.5"/>
<text text-anchor="middle" x="191" y="-7.5" font-family="Helvetica,sans-Serif" font-size="10.00">fetch_uidl</text>
</a>
</g>
</g>
<!-- Node1&#45;&gt;Node11 -->
<g id="edge12" class="edge"><title>Node1&#45;&gt;Node11</title>
<path fill="none" stroke="midnightblue" d="M54.4377,-161.596C64.4426,-129.399 88.8012,-64.9289 132,-29 140.309,-22.0889 151.205,-17.6688 161.307,-14.8518"/>
<polygon fill="midnightblue" stroke="midnightblue" points="51.0803,-160.608 51.5885,-171.19 57.7906,-162.601 51.0803,-160.608"/>
</g>
<!-- Node6&#45;&gt;Node7 -->
<g id="edge6" class="edge"><title>Node6&#45;&gt;Node7</title>
<path fill="none" stroke="midnightblue" d="M238.172,-187.816C258.164,-182.54 281.219,-176.456 299.924,-171.52"/>
<polygon fill="midnightblue" stroke="midnightblue" points="237.113,-184.475 228.337,-190.411 238.899,-191.244 237.113,-184.475"/>
</g>
<!-- Node7&#45;&gt;Node8 -->
<g id="edge7" class="edge"><title>Node7&#45;&gt;Node8</title>
<path fill="none" stroke="midnightblue" d="M398.23,-152.918C406.868,-151.615 415.576,-150.302 423.702,-149.077"/>
<polygon fill="midnightblue" stroke="midnightblue" points="397.527,-149.484 388.161,-154.436 398.571,-156.406 397.527,-149.484"/>
</g>
</g>
</svg>
