<?xml version="1.0" encoding="UTF-8" standalone="no"?>
<!DOCTYPE svg PUBLIC "-//W3C//DTD SVG 1.1//EN"
 "http://www.w3.org/Graphics/SVG/1.1/DTD/svg11.dtd">
<!-- Generated by graphviz version 2.36.0 (20140111.2315)
 -->
<!-- Title: mx_is_pop Pages: 1 -->
<svg width="336pt" height="142pt"
 viewBox="0.00 0.00 336.00 142.00" xmlns="http://www.w3.org/2000/svg" xmlns:xlink="http://www.w3.org/1999/xlink">
<g id="graph0" class="graph" transform="scale(1 1) rotate(0) translate(4 138)">
<title>mx_is_pop</title>
<polygon fill="white" stroke="none" points="-4,4 -4,-138 332,-138 332,4 -4,4"/>
<!-- Node1 -->
<g id="node1" class="node"><title>Node1</title>
<polygon fill="#bfbfbf" stroke="black" points="0,-57.5 0,-76.5 64,-76.5 64,-57.5 0,-57.5"/>
<text text-anchor="middle" x="32" y="-64.5" font-family="Helvetica,sans-Serif" font-size="10.00">mx_is_pop</text>
</g>
<!-- Node2 -->
<g id="node2" class="node"><title>Node2</title>
<g id="a_node2"><a xlink:href="browser_8c.html#aec34de9f81842bd3ef14d44809304c43" target="_top" xlink:title="Get list of mailboxes/subscribed newsgroups. ">
<polygon fill="white" stroke="red" points="103.5,-114.5 103.5,-133.5 206.5,-133.5 206.5,-114.5 103.5,-114.5"/>
<text text-anchor="middle" x="155" y="-121.5" font-family="Helvetica,sans-Serif" font-size="10.00">examine_mailboxes</text>
</a>
</g>
</g>
<!-- Node1&#45;&gt;Node2 -->
<g id="edge1" class="edge"><title>Node1&#45;&gt;Node2</title>
<path fill="none" stroke="midnightblue" d="M56.92,-81.9417C69.4668,-89.4228 85.2577,-98.2901 100,-105 107.598,-108.458 116.024,-111.693 123.916,-114.478"/>
<polygon fill="midnightblue" stroke="midnightblue" points="58.3942,-78.7425 48.0288,-76.5498 54.7645,-84.7279 58.3942,-78.7425"/>
</g>
<!-- Node3 -->
<g id="node3" class="node"><title>Node3</title>
<g id="a_node3"><a xlink:href="compose_8h.html#ad69c04d8ece089edb91f7b1178c2262c" target="_top" xlink:title="Allow the user to edit the message envelope. ">
<polygon fill="white" stroke="red" points="100,-76.5 100,-95.5 210,-95.5 210,-76.5 100,-76.5"/>
<text text-anchor="middle" x="155" y="-83.5" font-family="Helvetica,sans-Serif" font-size="10.00">mutt_compose_menu</text>
</a>
</g>
</g>
<!-- Node1&#45;&gt;Node3 -->
<g id="edge2" class="edge"><title>Node1&#45;&gt;Node3</title>
<path fill="none" stroke="midnightblue" d="M74.281,-73.4821C82.5381,-74.7787 91.3281,-76.159 99.942,-77.5116"/>
<polygon fill="midnightblue" stroke="midnightblue" points="74.5824,-69.9867 64.1605,-71.893 73.4965,-76.9019 74.5824,-69.9867"/>
</g>
<!-- Node4 -->
<g id="node4" class="node"><title>Node4</title>
<g id="a_node4"><a xlink:href="mailbox_8c.html#a6dcf62664c374c653f84bd423eee664e" target="_top" xlink:title="Check a mailbox for new mail. ">
<polygon fill="white" stroke="red" points="246,-19.5 246,-38.5 328,-38.5 328,-19.5 246,-19.5"/>
<text text-anchor="middle" x="287" y="-26.5" font-family="Helvetica,sans-Serif" font-size="10.00">mailbox_check</text>
</a>
</g>
</g>
<!-- Node1&#45;&gt;Node4 -->
<g id="edge3" class="edge"><title>Node1&#45;&gt;Node4</title>
<path fill="none" stroke="midnightblue" d="M73.9479,-60.8497C121.359,-53.7286 198.943,-42.0757 245.964,-35.0133"/>
<polygon fill="midnightblue" stroke="midnightblue" points="73.392,-57.3939 64.0228,-62.3405 74.4317,-64.3162 73.392,-57.3939"/>
</g>
<!-- Node5 -->
<g id="node5" class="node"><title>Node5</title>
<g id="a_node5"><a xlink:href="mx_8h.html#adf47b437bf62efa6dd4b940b8a5b791e" target="_top" xlink:title="Identify the type of mailbox. ">
<polygon fill="white" stroke="red" points="115,-0.5 115,-19.5 195,-19.5 195,-0.5 115,-0.5"/>
<text text-anchor="middle" x="155" y="-7.5" font-family="Helvetica,sans-Serif" font-size="10.00">mx_get_magic</text>
</a>
</g>
</g>
<!-- Node1&#45;&gt;Node5 -->
<g id="edge4" class="edge"><title>Node1&#45;&gt;Node5</title>
<path fill="none" stroke="midnightblue" d="M61.0206,-52.8925C72.979,-46.9516 87.1207,-40.031 100,-34 110.406,-29.1272 122.043,-23.9244 131.841,-19.6129"/>
<polygon fill="midnightblue" stroke="midnightblue" points="59.3496,-49.8147 51.9642,-57.4112 62.4749,-56.0783 59.3496,-49.8147"/>
</g>
<!-- Node5&#45;&gt;Node4 -->
<g id="edge5" class="edge"><title>Node5&#45;&gt;Node4</title>
<path fill="none" stroke="midnightblue" d="M205.028,-17.1656C218.436,-19.1252 232.81,-21.2261 245.671,-23.1058"/>
<polygon fill="midnightblue" stroke="midnightblue" points="205.405,-13.6837 195.004,-15.7006 204.393,-20.6101 205.405,-13.6837"/>
</g>
</g>
</svg>
