<?xml version="1.0" encoding="UTF-8" standalone="no"?>
<!DOCTYPE svg PUBLIC "-//W3C//DTD SVG 1.1//EN"
 "http://www.w3.org/Graphics/SVG/1.1/DTD/svg11.dtd">
<!-- Generated by graphviz version 2.36.0 (20140111.2315)
 -->
<!-- Title: mx_get_magic Pages: 1 -->
<svg width="520pt" height="370pt"
 viewBox="0.00 0.00 520.00 370.00" xmlns="http://www.w3.org/2000/svg" xmlns:xlink="http://www.w3.org/1999/xlink">
<g id="graph0" class="graph" transform="scale(1 1) rotate(0) translate(4 366)">
<title>mx_get_magic</title>
<polygon fill="white" stroke="none" points="-4,4 -4,-366 516,-366 516,4 -4,4"/>
<!-- Node1 -->
<g id="node1" class="node"><title>Node1</title>
<polygon fill="#bfbfbf" stroke="black" points="0,-171.5 0,-190.5 80,-190.5 80,-171.5 0,-171.5"/>
<text text-anchor="middle" x="40" y="-178.5" font-family="Helvetica,sans-Serif" font-size="10.00">mx_get_magic</text>
</g>
<!-- Node2 -->
<g id="node2" class="node"><title>Node2</title>
<g id="a_node2"><a xlink:href="browser_8h.html#ab036990112b8014c0b84c401e77f96d3" target="_top" xlink:title="Let the user select a file. ">
<polygon fill="white" stroke="red" points="140,-342.5 140,-361.5 226,-361.5 226,-342.5 140,-342.5"/>
<text text-anchor="middle" x="183" y="-349.5" font-family="Helvetica,sans-Serif" font-size="10.00">mutt_select_file</text>
</a>
</g>
</g>
<!-- Node1&#45;&gt;Node2 -->
<g id="edge1" class="edge"><title>Node1&#45;&gt;Node2</title>
<path fill="none" stroke="midnightblue" d="M45.3294,-200.972C53.4308,-233.518 73.9957,-297.881 116,-333 122.861,-338.736 131.366,-342.742 139.964,-345.539"/>
<polygon fill="midnightblue" stroke="midnightblue" points="48.6559,-199.826 42.9689,-190.887 41.8401,-201.421 48.6559,-199.826"/>
</g>
<!-- Node3 -->
<g id="node3" class="node"><title>Node3</title>
<g id="a_node3"><a xlink:href="compress_8c.html#a3b1ff60249105d0a7992997c6a7147a4" target="_top" xlink:title="Implements MxOps::mbox_open() ">
<polygon fill="white" stroke="black" points="135,-304.5 135,-323.5 231,-323.5 231,-304.5 135,-304.5"/>
<text text-anchor="middle" x="183" y="-311.5" font-family="Helvetica,sans-Serif" font-size="10.00">comp_mbox_open</text>
</a>
</g>
</g>
<!-- Node1&#45;&gt;Node3 -->
<g id="edge2" class="edge"><title>Node1&#45;&gt;Node3</title>
<path fill="none" stroke="midnightblue" d="M48.4343,-199.913C59.3932,-225.333 82.296,-270.188 116,-295 121.665,-299.171 128.225,-302.428 134.966,-304.972"/>
<polygon fill="midnightblue" stroke="midnightblue" points="51.6451,-198.518 44.5879,-190.616 45.1769,-201.194 51.6451,-198.518"/>
</g>
<!-- Node4 -->
<g id="node4" class="node"><title>Node4</title>
<g id="a_node4"><a xlink:href="compress_8c.html#a8c1b092f1fe19c1d3735e62fd1bcdc63" target="_top" xlink:title="Implements MxOps::mbox_open_append() ">
<polygon fill="white" stroke="black" points="116.5,-266.5 116.5,-285.5 249.5,-285.5 249.5,-266.5 116.5,-266.5"/>
<text text-anchor="middle" x="183" y="-273.5" font-family="Helvetica,sans-Serif" font-size="10.00">comp_mbox_open_append</text>
</a>
</g>
</g>
<!-- Node1&#45;&gt;Node4 -->
<g id="edge3" class="edge"><title>Node1&#45;&gt;Node4</title>
<path fill="none" stroke="midnightblue" d="M55.702,-198.537C69.7768,-214.373 92.3184,-237.37 116,-252 125.647,-257.959 136.995,-262.756 147.535,-266.449"/>
<polygon fill="midnightblue" stroke="midnightblue" points="57.995,-195.839 48.8003,-190.575 52.7056,-200.424 57.995,-195.839"/>
</g>
<!-- Node5 -->
<g id="node5" class="node"><title>Node5</title>
<g id="a_node5"><a xlink:href="curs__main_8c.html#a844b442c9ee0ab05978a40172e08e468" target="_top" xlink:title="Change to a different mailbox. ">
<polygon fill="white" stroke="red" points="408,-152.5 408,-171.5 512,-171.5 512,-152.5 408,-152.5"/>
<text text-anchor="middle" x="460" y="-159.5" font-family="Helvetica,sans-Serif" font-size="10.00">main_change_folder</text>
</a>
</g>
</g>
<!-- Node1&#45;&gt;Node5 -->
<g id="edge4" class="edge"><title>Node1&#45;&gt;Node5</title>
<path fill="none" stroke="midnightblue" d="M63.5292,-195.945C77.8844,-204.55 97.2496,-214.521 116,-219 235.775,-247.612 382.467,-194.428 437.119,-171.642"/>
<polygon fill="midnightblue" stroke="midnightblue" points="65.2155,-192.872 54.8761,-190.559 61.5166,-198.815 65.2155,-192.872"/>
</g>
<!-- Node6 -->
<g id="node6" class="node"><title>Node6</title>
<g id="a_node6"><a xlink:href="mailbox_8c.html#ab237577e1af15f1f4a5b3bdce3bb818c" target="_top" xlink:title="Test if an mbox or mmdf mailbox has new mail. ">
<polygon fill="white" stroke="red" points="140,-190.5 140,-209.5 226,-209.5 226,-190.5 140,-190.5"/>
<text text-anchor="middle" x="183" y="-197.5" font-family="Helvetica,sans-Serif" font-size="10.00">test_new_folder</text>
</a>
</g>
</g>
<!-- Node1&#45;&gt;Node6 -->
<g id="edge5" class="edge"><title>Node1&#45;&gt;Node6</title>
<path fill="none" stroke="midnightblue" d="M90.6025,-187.684C106.729,-189.857 124.458,-192.246 139.976,-194.337"/>
<polygon fill="midnightblue" stroke="midnightblue" points="90.6542,-184.159 80.2764,-186.293 89.7194,-191.097 90.6542,-184.159"/>
</g>
<!-- Node7 -->
<g id="node7" class="node"><title>Node7</title>
<g id="a_node7"><a xlink:href="mailbox_8c.html#a6dcf62664c374c653f84bd423eee664e" target="_top" xlink:title="Check a mailbox for new mail. ">
<polygon fill="white" stroke="red" points="142,-152.5 142,-171.5 224,-171.5 224,-152.5 142,-152.5"/>
<text text-anchor="middle" x="183" y="-159.5" font-family="Helvetica,sans-Serif" font-size="10.00">mailbox_check</text>
</a>
</g>
</g>
<!-- Node1&#45;&gt;Node7 -->
<g id="edge6" class="edge"><title>Node1&#45;&gt;Node7</title>
<path fill="none" stroke="midnightblue" d="M90.4975,-174.33C107.341,-172.06 125.945,-169.554 141.955,-167.396"/>
<polygon fill="midnightblue" stroke="midnightblue" points="89.7194,-170.903 80.2764,-175.707 90.6542,-177.841 89.7194,-170.903"/>
</g>
<!-- Node8 -->
<g id="node8" class="node"><title>Node8</title>
<g id="a_node8"><a xlink:href="muttlib_8h.html#aec67d3d77b0418f6ae01995579c09ad2" target="_top" xlink:title="Ask the user to save. ">
<polygon fill="white" stroke="red" points="133,-114.5 133,-133.5 233,-133.5 233,-114.5 133,-114.5"/>
<text text-anchor="middle" x="183" y="-121.5" font-family="Helvetica,sans-Serif" font-size="10.00">mutt_save_confirm</text>
</a>
</g>
</g>
<!-- Node1&#45;&gt;Node8 -->
<g id="edge7" class="edge"><title>Node1&#45;&gt;Node8</title>
<path fill="none" stroke="midnightblue" d="M66.7145,-166.45C80.9412,-158.792 99.1129,-149.64 116,-143 124.988,-139.466 134.896,-136.266 144.242,-133.543"/>
<polygon fill="midnightblue" stroke="midnightblue" points="64.649,-163.591 57.5598,-171.464 68.0117,-169.73 64.649,-163.591"/>
</g>
<!-- Node9 -->
<g id="node9" class="node"><title>Node9</title>
<g id="a_node9"><a xlink:href="mx_8c.html#a796e4c3259004c261689b257d776a308" target="_top" xlink:title="Open a mailbox for appending. ">
<polygon fill="white" stroke="black" points="117,-76.5 117,-95.5 249,-95.5 249,-76.5 117,-76.5"/>
<text text-anchor="middle" x="183" y="-83.5" font-family="Helvetica,sans-Serif" font-size="10.00">mx_open_mailbox_append</text>
</a>
</g>
</g>
<!-- Node1&#45;&gt;Node9 -->
<g id="edge8" class="edge"><title>Node1&#45;&gt;Node9</title>
<path fill="none" stroke="midnightblue" d="M54.1675,-163.099C67.7969,-145.806 90.6229,-120.08 116,-105 122.458,-101.163 129.734,-98.0633 137.035,-95.5711"/>
<polygon fill="midnightblue" stroke="midnightblue" points="51.2108,-161.203 47.9137,-171.272 56.7701,-165.457 51.2108,-161.203"/>
</g>
<!-- Node10 -->
<g id="node10" class="node"><title>Node10</title>
<g id="a_node10"><a xlink:href="mx_8h.html#ad33e3ff602855d7d00c86d46bc608b1d" target="_top" xlink:title="Open a mailbox and parse it. ">
<polygon fill="white" stroke="red" points="286,-76.5 286,-95.5 372,-95.5 372,-76.5 286,-76.5"/>
<text text-anchor="middle" x="329" y="-83.5" font-family="Helvetica,sans-Serif" font-size="10.00">mx_mbox_open</text>
</a>
</g>
</g>
<!-- Node1&#45;&gt;Node10 -->
<g id="edge11" class="edge"><title>Node1&#45;&gt;Node10</title>
<path fill="none" stroke="midnightblue" d="M47.1085,-161.82C56.8258,-134.954 78.6285,-87.1474 116,-67 178.127,-33.5065 265.56,-60.5681 305.954,-76.4695"/>
<polygon fill="midnightblue" stroke="midnightblue" points="43.7912,-160.704 43.8695,-171.299 50.4152,-162.968 43.7912,-160.704"/>
</g>
<!-- Node11 -->
<g id="node11" class="node"><title>Node11</title>
<g id="a_node11"><a xlink:href="mx_8h.html#abfcb134b61319721a49a9b205a67b58c" target="_top" xlink:title="Is the mailbox empty. ">
<polygon fill="white" stroke="red" points="136,-0.5 136,-19.5 230,-19.5 230,-0.5 136,-0.5"/>
<text text-anchor="middle" x="183" y="-7.5" font-family="Helvetica,sans-Serif" font-size="10.00">mx_check_empty</text>
</a>
</g>
</g>
<!-- Node1&#45;&gt;Node11 -->
<g id="edge12" class="edge"><title>Node1&#45;&gt;Node11</title>
<path fill="none" stroke="midnightblue" d="M45.9189,-161.536C54.7659,-130.351 76.252,-69.1365 116,-34 123.125,-27.7014 132.036,-23.013 140.982,-19.5383"/>
<polygon fill="midnightblue" stroke="midnightblue" points="42.5314,-160.656 43.3076,-171.222 49.29,-162.478 42.5314,-160.656"/>
</g>
<!-- Node9&#45;&gt;Node10 -->
<g id="edge9" class="edge"><title>Node9&#45;&gt;Node10</title>
<path fill="none" stroke="midnightblue" d="M259.422,-86C268.423,-86 277.353,-86 285.647,-86"/>
<polygon fill="midnightblue" stroke="midnightblue" points="259.259,-82.5001 249.259,-86 259.259,-89.5001 259.259,-82.5001"/>
</g>
<!-- Node10&#45;&gt;Node5 -->
<g id="edge10" class="edge"><title>Node10&#45;&gt;Node5</title>
<path fill="none" stroke="midnightblue" d="M355.215,-100.855C381.148,-116.133 420.765,-139.474 442.795,-152.453"/>
<polygon fill="midnightblue" stroke="midnightblue" points="356.73,-97.686 346.338,-95.6255 353.177,-103.717 356.73,-97.686"/>
</g>
</g>
</svg>
