<?xml version="1.0" encoding="UTF-8" standalone="no"?>
<!DOCTYPE svg PUBLIC "-//W3C//DTD SVG 1.1//EN"
 "http://www.w3.org/Graphics/SVG/1.1/DTD/svg11.dtd">
<!-- Generated by graphviz version 2.36.0 (20140111.2315)
 -->
<!-- Title: mx_access Pages: 1 -->
<svg width="212pt" height="66pt"
 viewBox="0.00 0.00 212.00 66.00" xmlns="http://www.w3.org/2000/svg" xmlns:xlink="http://www.w3.org/1999/xlink">
<g id="graph0" class="graph" transform="scale(1 1) rotate(0) translate(4 62)">
<title>mx_access</title>
<polygon fill="white" stroke="none" points="-4,4 -4,-62 208,-62 208,4 -4,4"/>
<!-- Node1 -->
<g id="node1" class="node"><title>Node1</title>
<polygon fill="#bfbfbf" stroke="black" points="0.5,-19.5 0.5,-38.5 67.5,-38.5 67.5,-19.5 0.5,-19.5"/>
<text text-anchor="middle" x="34" y="-26.5" font-family="Helvetica,sans-Serif" font-size="10.00">mx_access</text>
</g>
<!-- Node2 -->
<g id="node2" class="node"><title>Node2</title>
<g id="a_node2"><a xlink:href="hook_8h.html#a3e2f965003435adb60965afeea91adfc" target="_top" xlink:title="Select the FCC path for an email. ">
<polygon fill="white" stroke="red" points="111,-38.5 111,-57.5 197,-57.5 197,-38.5 111,-38.5"/>
<text text-anchor="middle" x="154" y="-45.5" font-family="Helvetica,sans-Serif" font-size="10.00">mutt_select_fcc</text>
</a>
</g>
</g>
<!-- Node1&#45;&gt;Node2 -->
<g id="edge1" class="edge"><title>Node1&#45;&gt;Node2</title>
<path fill="none" stroke="midnightblue" d="M77.6203,-35.8626C88.4264,-37.6026 100.029,-39.4707 110.813,-41.2072"/>
<polygon fill="midnightblue" stroke="midnightblue" points="77.9856,-32.3764 67.5564,-34.2421 76.8728,-39.2874 77.9856,-32.3764"/>
</g>
<!-- Node3 -->
<g id="node3" class="node"><title>Node3</title>
<g id="a_node3"><a xlink:href="muttlib_8h.html#aec67d3d77b0418f6ae01995579c09ad2" target="_top" xlink:title="Ask the user to save. ">
<polygon fill="white" stroke="red" points="104,-0.5 104,-19.5 204,-19.5 204,-0.5 104,-0.5"/>
<text text-anchor="middle" x="154" y="-7.5" font-family="Helvetica,sans-Serif" font-size="10.00">mutt_save_confirm</text>
</a>
</g>
</g>
<!-- Node1&#45;&gt;Node3 -->
<g id="edge2" class="edge"><title>Node1&#45;&gt;Node3</title>
<path fill="none" stroke="midnightblue" d="M77.6066,-22.1396C86.0887,-20.7739 95.0617,-19.329 103.745,-17.9309"/>
<polygon fill="midnightblue" stroke="midnightblue" points="76.8728,-18.7126 67.5564,-23.7579 77.9856,-25.6236 76.8728,-18.7126"/>
</g>
</g>
</svg>
