<?xml version="1.0" encoding="UTF-8" standalone="no"?>
<!DOCTYPE svg PUBLIC "-//W3C//DTD SVG 1.1//EN"
 "http://www.w3.org/Graphics/SVG/1.1/DTD/svg11.dtd">
<!-- Generated by graphviz version 2.36.0 (20140111.2315)
 -->
<!-- Title: mutt_is_spool Pages: 1 -->
<svg width="210pt" height="84pt"
 viewBox="0.00 0.00 210.00 84.00" xmlns="http://www.w3.org/2000/svg" xmlns:xlink="http://www.w3.org/1999/xlink">
<g id="graph0" class="graph" transform="scale(1 1) rotate(0) translate(4 80)">
<title>mutt_is_spool</title>
<polygon fill="white" stroke="none" points="-4,4 -4,-80 206,-80 206,4 -4,4"/>
<!-- Node1 -->
<g id="node1" class="node"><title>Node1</title>
<polygon fill="#bfbfbf" stroke="black" points="0.5,-19.5 0.5,-38.5 77.5,-38.5 77.5,-19.5 0.5,-19.5"/>
<text text-anchor="middle" x="39" y="-26.5" font-family="Helvetica,sans-Serif" font-size="10.00">mutt_is_spool</text>
</g>
<!-- Node2 -->
<g id="node2" class="node"><title>Node2</title>
<g id="a_node2"><a xlink:href="mx_8h.html#ad0127b193da0a2a0f4469565d4a11c56" target="_top" xlink:title="save changes and close mailbox ">
<polygon fill="white" stroke="red" points="114,-38.5 114,-57.5 202,-57.5 202,-38.5 114,-38.5"/>
<text text-anchor="middle" x="158" y="-45.5" font-family="Helvetica,sans-Serif" font-size="10.00">mx_mbox_close</text>
</a>
</g>
</g>
<!-- Node1&#45;&gt;Node2 -->
<g id="edge1" class="edge"><title>Node1&#45;&gt;Node2</title>
<path fill="none" stroke="midnightblue" d="M87.6037,-36.7305C96.24,-38.133 105.205,-39.5888 113.709,-40.9698"/>
<polygon fill="midnightblue" stroke="midnightblue" points="88.0953,-33.2646 77.6636,-35.1163 86.9732,-40.1741 88.0953,-33.2646"/>
</g>
<!-- Node3 -->
<g id="node3" class="node"><title>Node3</title>
<g id="a_node3"><a xlink:href="mx_8h.html#a357ee844041eb7512ae97023ff2f9488" target="_top" xlink:title="Save changes to mailbox. ">
<polygon fill="white" stroke="red" points="115,-0.5 115,-19.5 201,-19.5 201,-0.5 115,-0.5"/>
<text text-anchor="middle" x="158" y="-7.5" font-family="Helvetica,sans-Serif" font-size="10.00">mx_mbox_sync</text>
</a>
</g>
</g>
<!-- Node1&#45;&gt;Node3 -->
<g id="edge3" class="edge"><title>Node1&#45;&gt;Node3</title>
<path fill="none" stroke="midnightblue" d="M87.6659,-21.2594C96.7023,-19.7919 106.096,-18.2664 114.944,-16.8297"/>
<polygon fill="midnightblue" stroke="midnightblue" points="86.9732,-17.8259 77.6636,-22.8837 88.0953,-24.7354 86.9732,-17.8259"/>
</g>
<!-- Node2&#45;&gt;Node2 -->
<g id="edge2" class="edge"><title>Node2&#45;&gt;Node2</title>
<path fill="none" stroke="midnightblue" d="M136.051,-67.0292C137.248,-72.128 144.564,-76 158,-76 178.973,-76 185.035,-66.5653 176.187,-57.7571"/>
<polygon fill="midnightblue" stroke="midnightblue" points="139.296,-68.3393 139.813,-57.7571 132.81,-65.7074 139.296,-68.3393"/>
</g>
</g>
</svg>
