<?xml version="1.0" encoding="UTF-8" standalone="no"?>
<!DOCTYPE svg PUBLIC "-//W3C//DTD SVG 1.1//EN"
 "http://www.w3.org/Graphics/SVG/1.1/DTD/svg11.dtd">
<!-- Generated by graphviz version 2.36.0 (20140111.2315)
 -->
<!-- Title: mx_msg_commit Pages: 1 -->
<svg width="274pt" height="180pt"
 viewBox="0.00 0.00 274.00 180.00" xmlns="http://www.w3.org/2000/svg" xmlns:xlink="http://www.w3.org/1999/xlink">
<g id="graph0" class="graph" transform="scale(1 1) rotate(0) translate(4 176)">
<title>mx_msg_commit</title>
<polygon fill="white" stroke="none" points="-4,4 -4,-176 270,-176 270,4 -4,4"/>
<!-- Node1 -->
<g id="node1" class="node"><title>Node1</title>
<polygon fill="#bfbfbf" stroke="black" points="0,-76.5 0,-95.5 92,-95.5 92,-76.5 0,-76.5"/>
<text text-anchor="middle" x="46" y="-83.5" font-family="Helvetica,sans-Serif" font-size="10.00">mx_msg_commit</text>
</g>
<!-- Node2 -->
<g id="node2" class="node"><title>Node2</title>
<g id="a_node2"><a xlink:href="copy_8c.html#a7e4401925a387ea5e6fadab50ead3ef7" target="_top" xlink:title="appends a copy of the given message to a mailbox ">
<polygon fill="white" stroke="red" points="150.5,-152.5 150.5,-171.5 243.5,-171.5 243.5,-152.5 150.5,-152.5"/>
<text text-anchor="middle" x="197" y="-159.5" font-family="Helvetica,sans-Serif" font-size="10.00">append_message</text>
</a>
</g>
</g>
<!-- Node1&#45;&gt;Node2 -->
<g id="edge1" class="edge"><title>Node1&#45;&gt;Node2</title>
<path fill="none" stroke="midnightblue" d="M65.9172,-102.141C81.6351,-114.828 105.059,-132.12 128,-143 135.864,-146.729 144.596,-149.851 153.11,-152.416"/>
<polygon fill="midnightblue" stroke="midnightblue" points="67.9715,-99.2981 58.0299,-95.6355 63.5176,-104.698 67.9715,-99.2981"/>
</g>
<!-- Node3 -->
<g id="node3" class="node"><title>Node3</title>
<g id="a_node3"><a xlink:href="editmsg_8c.html#a39310aed08cab0c0d9851b5c6216b9fc" target="_top" xlink:title="Edit an email or view it in an external editor. ">
<polygon fill="white" stroke="red" points="128.5,-114.5 128.5,-133.5 265.5,-133.5 265.5,-114.5 128.5,-114.5"/>
<text text-anchor="middle" x="197" y="-121.5" font-family="Helvetica,sans-Serif" font-size="10.00">edit_or_view_one_message</text>
</a>
</g>
</g>
<!-- Node1&#45;&gt;Node3 -->
<g id="edge2" class="edge"><title>Node1&#45;&gt;Node3</title>
<path fill="none" stroke="midnightblue" d="M94.4922,-98.1121C115.244,-103.404 139.228,-109.521 158.671,-114.48"/>
<polygon fill="midnightblue" stroke="midnightblue" points="95.1538,-94.6689 84.599,-95.589 93.4239,-101.452 95.1538,-94.6689"/>
</g>
<!-- Node4 -->
<g id="node4" class="node"><title>Node4</title>
<g id="a_node4"><a xlink:href="mutt__attach_8h.html#a7eca34952ac9afff3ff8ac5706fa6bc8" target="_top" xlink:title="Save an attachment. ">
<polygon fill="white" stroke="red" points="139,-76.5 139,-95.5 255,-95.5 255,-76.5 139,-76.5"/>
<text text-anchor="middle" x="197" y="-83.5" font-family="Helvetica,sans-Serif" font-size="10.00">mutt_save_attachment</text>
</a>
</g>
</g>
<!-- Node1&#45;&gt;Node4 -->
<g id="edge3" class="edge"><title>Node1&#45;&gt;Node4</title>
<path fill="none" stroke="midnightblue" d="M102.37,-86C114.29,-86 126.911,-86 138.895,-86"/>
<polygon fill="midnightblue" stroke="midnightblue" points="102.109,-82.5001 92.1093,-86 102.109,-89.5001 102.109,-82.5001"/>
</g>
<!-- Node5 -->
<g id="node5" class="node"><title>Node5</title>
<g id="a_node5"><a xlink:href="pop_8h.html#ae41e43ca791955eb76c5709db39a21d7" target="_top" xlink:title="Fetch messages and save them in $spoolfile. ">
<polygon fill="white" stroke="red" points="155.5,-38.5 155.5,-57.5 238.5,-57.5 238.5,-38.5 155.5,-38.5"/>
<text text-anchor="middle" x="197" y="-45.5" font-family="Helvetica,sans-Serif" font-size="10.00">pop_fetch_mail</text>
</a>
</g>
</g>
<!-- Node1&#45;&gt;Node5 -->
<g id="edge4" class="edge"><title>Node1&#45;&gt;Node5</title>
<path fill="none" stroke="midnightblue" d="M94.4922,-73.8879C115.244,-68.5956 139.228,-62.4787 158.671,-57.5201"/>
<polygon fill="midnightblue" stroke="midnightblue" points="93.4239,-70.5482 84.599,-76.411 95.1538,-77.3311 93.4239,-70.5482"/>
</g>
<!-- Node6 -->
<g id="node6" class="node"><title>Node6</title>
<g id="a_node6"><a xlink:href="sendlib_8h.html#ad77b7100b114c03b9972ebbd278a8c22" target="_top" xlink:title="Write email to FCC mailbox. ">
<polygon fill="white" stroke="red" points="156.5,-0.5 156.5,-19.5 237.5,-19.5 237.5,-0.5 156.5,-0.5"/>
<text text-anchor="middle" x="197" y="-7.5" font-family="Helvetica,sans-Serif" font-size="10.00">mutt_write_fcc</text>
</a>
</g>
</g>
<!-- Node1&#45;&gt;Node6 -->
<g id="edge5" class="edge"><title>Node1&#45;&gt;Node6</title>
<path fill="none" stroke="midnightblue" d="M65.9172,-69.8594C81.6351,-57.1716 105.059,-39.8797 128,-29 136.86,-24.798 146.824,-21.3668 156.335,-18.635"/>
<polygon fill="midnightblue" stroke="midnightblue" points="63.5176,-67.3016 58.0299,-76.3645 67.9715,-72.7019 63.5176,-67.3016"/>
</g>
</g>
</svg>
