<?xml version="1.0" encoding="UTF-8" standalone="no"?>
<!DOCTYPE svg PUBLIC "-//W3C//DTD SVG 1.1//EN"
 "http://www.w3.org/Graphics/SVG/1.1/DTD/svg11.dtd">
<!-- Generated by graphviz version 2.36.0 (20140111.2315)
 -->
<!-- Title: mx_check_empty Pages: 1 -->
<svg width="256pt" height="142pt"
 viewBox="0.00 0.00 256.00 142.00" xmlns="http://www.w3.org/2000/svg" xmlns:xlink="http://www.w3.org/1999/xlink">
<g id="graph0" class="graph" transform="scale(1 1) rotate(0) translate(4 138)">
<title>mx_check_empty</title>
<polygon fill="white" stroke="none" points="-4,4 -4,-138 252,-138 252,4 -4,4"/>
<!-- Node1 -->
<g id="node1" class="node"><title>Node1</title>
<polygon fill="#bfbfbf" stroke="black" points="0,-57.5 0,-76.5 94,-76.5 94,-57.5 0,-57.5"/>
<text text-anchor="middle" x="47" y="-64.5" font-family="Helvetica,sans-Serif" font-size="10.00">mx_check_empty</text>
</g>
<!-- Node2 -->
<g id="node2" class="node"><title>Node2</title>
<g id="a_node2"><a xlink:href="mx_8c.html#adf47b437bf62efa6dd4b940b8a5b791e" target="_top" xlink:title="Identify the type of mailbox. ">
<polygon fill="white" stroke="red" points="149,-114.5 149,-133.5 229,-133.5 229,-114.5 149,-114.5"/>
<text text-anchor="middle" x="189" y="-121.5" font-family="Helvetica,sans-Serif" font-size="10.00">mx_get_magic</text>
</a>
</g>
</g>
<!-- Node1&#45;&gt;Node2 -->
<g id="edge1" class="edge"><title>Node1&#45;&gt;Node2</title>
<path fill="none" stroke="midnightblue" d="M66.943,-76.5515C83.3881,-84.6559 107.956,-96.3163 130,-105 135.431,-107.14 141.211,-109.238 146.938,-111.215"/>
<polygon fill="midnightblue" stroke="midnightblue" points="145.861,-114.545 156.455,-114.41 148.09,-107.909 145.861,-114.545"/>
</g>
<!-- Node3 -->
<g id="node3" class="node"><title>Node3</title>
<g id="a_node3"><a xlink:href="file_8c.html#a417087adf70a53897756794b6562c511" target="_top" xlink:title="Is the mailbox empty. ">
<polygon fill="white" stroke="black" points="130,-76.5 130,-95.5 248,-95.5 248,-76.5 130,-76.5"/>
<text text-anchor="middle" x="189" y="-83.5" font-family="Helvetica,sans-Serif" font-size="10.00">mutt_file_check_empty</text>
</a>
</g>
</g>
<!-- Node1&#45;&gt;Node3 -->
<g id="edge2" class="edge"><title>Node1&#45;&gt;Node3</title>
<path fill="none" stroke="midnightblue" d="M94.2292,-73.274C102.358,-74.3772 110.972,-75.5462 119.555,-76.7111"/>
<polygon fill="midnightblue" stroke="midnightblue" points="119.206,-80.1957 129.586,-78.0724 120.147,-73.2592 119.206,-80.1957"/>
</g>
<!-- Node4 -->
<g id="node4" class="node"><title>Node4</title>
<g id="a_node4"><a xlink:href="maildir_8h.html#a0bc1f221906f8f540fa7a98e81f0dc31" target="_top" xlink:title="Is mailbox empty. ">
<polygon fill="white" stroke="red" points="142,-38.5 142,-57.5 236,-57.5 236,-38.5 142,-38.5"/>
<text text-anchor="middle" x="189" y="-45.5" font-family="Helvetica,sans-Serif" font-size="10.00">mh_check_empty</text>
</a>
</g>
</g>
<!-- Node1&#45;&gt;Node4 -->
<g id="edge3" class="edge"><title>Node1&#45;&gt;Node4</title>
<path fill="none" stroke="midnightblue" d="M94.2292,-60.726C106.176,-59.1047 119.171,-57.341 131.575,-55.6577"/>
<polygon fill="midnightblue" stroke="midnightblue" points="132.381,-59.0805 141.819,-54.2674 131.439,-52.1441 132.381,-59.0805"/>
</g>
<!-- Node5 -->
<g id="node5" class="node"><title>Node5</title>
<g id="a_node5"><a xlink:href="maildir_8h.html#ac1193cf5991629c477975ee74c97a65a" target="_top" xlink:title="Is the mailbox empty. ">
<polygon fill="white" stroke="black" points="134.5,-0.5 134.5,-19.5 243.5,-19.5 243.5,-0.5 134.5,-0.5"/>
<text text-anchor="middle" x="189" y="-7.5" font-family="Helvetica,sans-Serif" font-size="10.00">maildir_check_empty</text>
</a>
</g>
</g>
<!-- Node1&#45;&gt;Node5 -->
<g id="edge4" class="edge"><title>Node1&#45;&gt;Node5</title>
<path fill="none" stroke="midnightblue" d="M66.943,-57.4485C83.3881,-49.3441 107.956,-37.6837 130,-29 135.431,-26.8604 141.211,-24.7617 146.938,-22.7855"/>
<polygon fill="midnightblue" stroke="midnightblue" points="148.09,-26.091 156.455,-19.5895 145.861,-19.4551 148.09,-26.091"/>
</g>
</g>
</svg>
