<?xml version="1.0" encoding="UTF-8" standalone="no"?>
<!DOCTYPE svg PUBLIC "-//W3C//DTD SVG 1.1//EN"
 "http://www.w3.org/Graphics/SVG/1.1/DTD/svg11.dtd">
<!-- Generated by graphviz version 2.36.0 (20140111.2315)
 -->
<!-- Title: trash_append Pages: 1 -->
<svg width="374pt" height="236pt"
 viewBox="0.00 0.00 374.00 236.00" xmlns="http://www.w3.org/2000/svg" xmlns:xlink="http://www.w3.org/1999/xlink">
<g id="graph0" class="graph" transform="scale(1 1) rotate(0) translate(4 232)">
<title>trash_append</title>
<polygon fill="white" stroke="none" points="-4,4 -4,-232 370,-232 370,4 -4,4"/>
<!-- Node1 -->
<g id="node1" class="node"><title>Node1</title>
<polygon fill="#bfbfbf" stroke="black" points="0.5,-114.5 0.5,-133.5 75.5,-133.5 75.5,-114.5 0.5,-114.5"/>
<text text-anchor="middle" x="38" y="-121.5" font-family="Helvetica,sans-Serif" font-size="10.00">trash_append</text>
</g>
<!-- Node2 -->
<g id="node2" class="node"><title>Node2</title>
<g id="a_node2"><a xlink:href="muttlib_8c.html#aec67d3d77b0418f6ae01995579c09ad2" target="_top" xlink:title="Ask the user to save. ">
<polygon fill="white" stroke="red" points="112,-208.5 112,-227.5 212,-227.5 212,-208.5 112,-208.5"/>
<text text-anchor="middle" x="162" y="-215.5" font-family="Helvetica,sans-Serif" font-size="10.00">mutt_save_confirm</text>
</a>
</g>
</g>
<!-- Node1&#45;&gt;Node2 -->
<g id="edge1" class="edge"><title>Node1&#45;&gt;Node2</title>
<path fill="none" stroke="midnightblue" d="M47.2064,-133.577C59.9597,-148.037 85.8054,-175.695 112,-194 117.074,-197.546 122.75,-200.845 128.39,-203.792"/>
<polygon fill="midnightblue" stroke="midnightblue" points="127.219,-207.118 137.736,-208.403 130.316,-200.84 127.219,-207.118"/>
</g>
<!-- Node3 -->
<g id="node3" class="node"><title>Node3</title>
<g id="a_node3"><a xlink:href="mx_8c.html#a7cee0fd7066e1a6d816fa9bd6e3a7978" target="_top" xlink:title="Is this an IMAP mailbox. ">
<polygon fill="white" stroke="red" points="272.5,-156.5 272.5,-175.5 341.5,-175.5 341.5,-156.5 272.5,-156.5"/>
<text text-anchor="middle" x="307" y="-163.5" font-family="Helvetica,sans-Serif" font-size="10.00">mx_is_imap</text>
</a>
</g>
</g>
<!-- Node1&#45;&gt;Node3 -->
<g id="edge2" class="edge"><title>Node1&#45;&gt;Node3</title>
<path fill="none" stroke="midnightblue" d="M53.0654,-133.527C67.2409,-142.534 90.0965,-155.467 112,-161 162.376,-173.726 222.461,-172.934 262.276,-170.292"/>
<polygon fill="midnightblue" stroke="midnightblue" points="262.725,-173.769 272.443,-169.548 262.214,-166.788 262.725,-173.769"/>
</g>
<!-- Node4 -->
<g id="node4" class="node"><title>Node4</title>
<g id="a_node4"><a xlink:href="imap_8c.html#ab8df632acf50bdb33e067b4cdbb2c99d" target="_top" xlink:title="Use server COPY command to copy deleted messages to trash. ">
<polygon fill="white" stroke="red" points="119,-0.5 119,-19.5 205,-19.5 205,-0.5 119,-0.5"/>
<text text-anchor="middle" x="162" y="-7.5" font-family="Helvetica,sans-Serif" font-size="10.00">imap_fast_trash</text>
</a>
</g>
</g>
<!-- Node1&#45;&gt;Node4 -->
<g id="edge3" class="edge"><title>Node1&#45;&gt;Node4</title>
<path fill="none" stroke="midnightblue" d="M44.74,-114.449C55.8275,-96.6547 81.7799,-58.0595 112,-34 116.653,-30.2959 121.97,-26.9652 127.347,-24.0474"/>
<polygon fill="midnightblue" stroke="midnightblue" points="128.975,-27.1465 136.344,-19.5341 125.836,-20.8896 128.975,-27.1465"/>
</g>
<!-- Node5 -->
<g id="node5" class="node"><title>Node5</title>
<g id="a_node5"><a xlink:href="mx_8c.html#ad33e3ff602855d7d00c86d46bc608b1d" target="_top" xlink:title="Open a mailbox and parse it. ">
<polygon fill="white" stroke="red" points="264,-90.5 264,-109.5 350,-109.5 350,-90.5 264,-90.5"/>
<text text-anchor="middle" x="307" y="-97.5" font-family="Helvetica,sans-Serif" font-size="10.00">mx_mbox_open</text>
</a>
</g>
</g>
<!-- Node1&#45;&gt;Node5 -->
<g id="edge4" class="edge"><title>Node1&#45;&gt;Node5</title>
<path fill="none" stroke="midnightblue" d="M69.23,-114.474C82.2519,-110.804 97.7359,-107.013 112,-105 159.621,-98.2796 214.453,-97.4992 253.647,-98.124"/>
<polygon fill="midnightblue" stroke="midnightblue" points="253.698,-101.626 263.764,-98.3219 253.835,-94.6268 253.698,-101.626"/>
</g>
<!-- Node6 -->
<g id="node6" class="node"><title>Node6</title>
<g id="a_node6"><a xlink:href="copy_8c.html#af98bed67dcdeea122f22468b1fa020f6" target="_top" xlink:title="Append a message. ">
<polygon fill="white" stroke="red" points="248,-52.5 248,-71.5 366,-71.5 366,-52.5 248,-52.5"/>
<text text-anchor="middle" x="307" y="-59.5" font-family="Helvetica,sans-Serif" font-size="10.00">mutt_append_message</text>
</a>
</g>
</g>
<!-- Node1&#45;&gt;Node6 -->
<g id="edge5" class="edge"><title>Node1&#45;&gt;Node6</title>
<path fill="none" stroke="midnightblue" d="M58.7073,-114.472C73.1572,-107.843 93.4149,-99.2778 112,-94 152.971,-82.365 200.088,-74.4701 237.627,-69.4333"/>
<polygon fill="midnightblue" stroke="midnightblue" points="238.485,-72.8512 247.949,-68.0878 237.58,-65.91 238.485,-72.8512"/>
</g>
<!-- Node7 -->
<g id="node7" class="node"><title>Node7</title>
<g id="a_node7"><a xlink:href="mx_8c.html#ad0127b193da0a2a0f4469565d4a11c56" target="_top" xlink:title="save changes and close mailbox ">
<polygon fill="white" stroke="red" points="118,-114.5 118,-133.5 206,-133.5 206,-114.5 118,-114.5"/>
<text text-anchor="middle" x="162" y="-121.5" font-family="Helvetica,sans-Serif" font-size="10.00">mx_mbox_close</text>
</a>
</g>
</g>
<!-- Node1&#45;&gt;Node7 -->
<g id="edge6" class="edge"><title>Node1&#45;&gt;Node7</title>
<path fill="none" stroke="midnightblue" d="M75.604,-117.755C85.7099,-117.314 96.8853,-117.162 107.73,-117.298"/>
<polygon fill="midnightblue" stroke="midnightblue" points="107.907,-120.803 117.979,-117.518 108.056,-113.804 107.907,-120.803"/>
</g>
<!-- Node7&#45;&gt;Node1 -->
<g id="edge11" class="edge"><title>Node7&#45;&gt;Node1</title>
<path fill="none" stroke="midnightblue" d="M117.979,-130.482C107.598,-130.8 96.4538,-130.835 85.9046,-130.587"/>
<polygon fill="midnightblue" stroke="midnightblue" points="85.7147,-127.079 75.604,-130.245 85.4824,-134.075 85.7147,-127.079"/>
</g>
<!-- Node7&#45;&gt;Node3 -->
<g id="edge7" class="edge"><title>Node7&#45;&gt;Node3</title>
<path fill="none" stroke="midnightblue" d="M195.449,-133.53C215.601,-139.449 241.722,-147.121 263.514,-153.522"/>
<polygon fill="midnightblue" stroke="midnightblue" points="262.603,-156.902 273.185,-156.362 264.576,-150.186 262.603,-156.902"/>
</g>
<!-- Node7&#45;&gt;Node5 -->
<g id="edge8" class="edge"><title>Node7&#45;&gt;Node5</title>
<path fill="none" stroke="midnightblue" d="M206.293,-116.734C221.263,-114.222 238.198,-111.379 253.806,-108.76"/>
<polygon fill="midnightblue" stroke="midnightblue" points="254.554,-112.183 263.837,-107.076 253.396,-105.28 254.554,-112.183"/>
</g>
<!-- Node7&#45;&gt;Node6 -->
<g id="edge9" class="edge"><title>Node7&#45;&gt;Node6</title>
<path fill="none" stroke="midnightblue" d="M179.898,-114.489C196.799,-105.209 223.704,-91.0568 248,-81 253.14,-78.8724 258.611,-76.8184 264.061,-74.8973"/>
<polygon fill="midnightblue" stroke="midnightblue" points="265.432,-78.1281 273.773,-71.5955 263.179,-71.5006 265.432,-78.1281"/>
</g>
<!-- Node7&#45;&gt;Node7 -->
<g id="edge10" class="edge"><title>Node7&#45;&gt;Node7</title>
<path fill="none" stroke="midnightblue" d="M142.888,-133.757C133.59,-142.565 139.961,-152 162,-152 176.119,-152 183.807,-148.128 185.065,-143.029"/>
<polygon fill="midnightblue" stroke="midnightblue" points="188.254,-141.583 181.112,-133.757 181.815,-144.329 188.254,-141.583"/>
</g>
</g>
</svg>
