<?xml version="1.0" encoding="UTF-8" standalone="no"?>
<!DOCTYPE svg PUBLIC "-//W3C//DTD SVG 1.1//EN"
 "http://www.w3.org/Graphics/SVG/1.1/DTD/svg11.dtd">
<!-- Generated by graphviz version 2.36.0 (20140111.2315)
 -->
<!-- Title: mutt_option_index Pages: 1 -->
<svg width="360pt" height="57pt"
 viewBox="0.00 0.00 360.00 56.79" xmlns="http://www.w3.org/2000/svg" xmlns:xlink="http://www.w3.org/1999/xlink">
<g id="graph0" class="graph" transform="scale(1 1) rotate(0) translate(4 52.7851)">
<title>mutt_option_index</title>
<polygon fill="white" stroke="none" points="-4,4 -4,-52.7851 356,-52.7851 356,4 -4,4"/>
<!-- Node1 -->
<g id="node1" class="node"><title>Node1</title>
<polygon fill="#bfbfbf" stroke="black" points="0,-28.5 0,-47.5 96,-47.5 96,-28.5 0,-28.5"/>
<text text-anchor="middle" x="48" y="-35.5" font-family="Helvetica,sans-Serif" font-size="10.00">mutt_option_index</text>
</g>
<!-- Node2 -->
<g id="node2" class="node"><title>Node2</title>
<g id="a_node2"><a xlink:href="mutt_2string_8c.html#ab4aaf8bd2ce3982651f0f949d6c665e2" target="_top" xlink:title="Compare two strings, safely. ">
<polygon fill="white" stroke="black" points="264,-28.5 264,-47.5 352,-47.5 352,-28.5 264,-28.5"/>
<text text-anchor="middle" x="308" y="-35.5" font-family="Helvetica,sans-Serif" font-size="10.00">mutt_str_strcmp</text>
</a>
</g>
</g>
<!-- Node1&#45;&gt;Node2 -->
<g id="edge1" class="edge"><title>Node1&#45;&gt;Node2</title>
<path fill="none" stroke="midnightblue" d="M96.3316,-44.0251C107.974,-45.2605 120.422,-46.3741 132,-47 174.604,-49.3031 185.402,-49.4186 228,-47 236.23,-46.5327 244.92,-45.7937 253.406,-44.9351"/>
<polygon fill="midnightblue" stroke="midnightblue" points="254.044,-48.3868 263.613,-43.8388 253.296,-41.4269 254.044,-48.3868"/>
</g>
<!-- Node3 -->
<g id="node3" class="node"><title>Node3</title>
<g id="a_node3"><a xlink:href="init_8c.html#a97170892f680dfa45db00c84dfa03ae3" target="_top" xlink:title="Find the index (in rc_vars) of a variable name. ">
<polygon fill="white" stroke="black" points="132,-0.5 132,-19.5 228,-19.5 228,-0.5 132,-0.5"/>
<text text-anchor="middle" x="180" y="-7.5" font-family="Helvetica,sans-Serif" font-size="10.00">mutt_option_index</text>
</a>
</g>
</g>
<!-- Node1&#45;&gt;Node3 -->
<g id="edge2" class="edge"><title>Node1&#45;&gt;Node3</title>
<path fill="none" stroke="midnightblue" d="M93.375,-28.4423C103.52,-26.2573 114.412,-23.9112 124.914,-21.6493"/>
<polygon fill="midnightblue" stroke="midnightblue" points="125.786,-25.0418 134.825,-19.5146 124.312,-18.1987 125.786,-25.0418"/>
</g>
<!-- Node3&#45;&gt;Node2 -->
<g id="edge3" class="edge"><title>Node3&#45;&gt;Node2</title>
<path fill="none" stroke="midnightblue" d="M224.01,-19.5577C233.741,-21.7202 244.182,-24.0405 254.263,-26.2807"/>
<polygon fill="midnightblue" stroke="midnightblue" points="253.663,-29.7327 264.184,-28.4854 255.182,-22.8993 253.663,-29.7327"/>
</g>
<!-- Node3&#45;&gt;Node3 -->
<g id="edge4" class="edge"><title>Node3&#45;&gt;Node3</title>
<path fill="none" stroke="midnightblue" d="M160.271,-19.7571C150.674,-28.5653 157.25,-38 180,-38 194.574,-38 202.511,-34.128 203.809,-29.0292"/>
<polygon fill="midnightblue" stroke="midnightblue" points="206.96,-27.4998 199.729,-19.7571 200.553,-30.3197 206.96,-27.4998"/>
</g>
</g>
</svg>
