<?xml version="1.0" encoding="UTF-8" standalone="no"?>
<!DOCTYPE svg PUBLIC "-//W3C//DTD SVG 1.1//EN"
 "http://www.w3.org/Graphics/SVG/1.1/DTD/svg11.dtd">
<!-- Generated by graphviz version 2.36.0 (20140111.2315)
 -->
<!-- Title: mutt_is_application_pgp Pages: 1 -->
<svg width="628pt" height="518pt"
 viewBox="0.00 0.00 628.00 518.00" xmlns="http://www.w3.org/2000/svg" xmlns:xlink="http://www.w3.org/1999/xlink">
<g id="graph0" class="graph" transform="scale(1 1) rotate(0) translate(4 514)">
<title>mutt_is_application_pgp</title>
<polygon fill="white" stroke="none" points="-4,4 -4,-514 624,-514 624,4 -4,4"/>
<!-- Node1 -->
<g id="node1" class="node"><title>Node1</title>
<polygon fill="#bfbfbf" stroke="black" points="0,-263.5 0,-282.5 122,-282.5 122,-263.5 0,-263.5"/>
<text text-anchor="middle" x="61" y="-270.5" font-family="Helvetica,sans-Serif" font-size="10.00">mutt_is_application_pgp</text>
</g>
<!-- Node2 -->
<g id="node2" class="node"><title>Node2</title>
<g id="a_node2"><a xlink:href="commands_8c.html#abc7035ef52912c407a2632daf42a121d" target="_top" xlink:title="Set the flags for a message copy. ">
<polygon fill="white" stroke="red" points="189.5,-490.5 189.5,-509.5 272.5,-509.5 272.5,-490.5 189.5,-490.5"/>
<text text-anchor="middle" x="231" y="-497.5" font-family="Helvetica,sans-Serif" font-size="10.00">set_copy_flags</text>
</a>
</g>
</g>
<!-- Node1&#45;&gt;Node2 -->
<g id="edge1" class="edge"><title>Node1&#45;&gt;Node2</title>
<path fill="none" stroke="midnightblue" d="M65.8548,-292.55C74.7885,-332.75 100.674,-425.171 158,-476 166.774,-483.78 178.15,-489.051 189.258,-492.618"/>
<polygon fill="midnightblue" stroke="midnightblue" points="69.2604,-291.737 63.7725,-282.674 62.411,-293.181 69.2604,-291.737"/>
</g>
<!-- Node3 -->
<g id="node3" class="node"><title>Node3</title>
<g id="a_node3"><a xlink:href="handler_8h.html#adae8bf0eec9bee0bd62f639bbcf8599f" target="_top" xlink:title="Handler for the Body of an email. ">
<polygon fill="white" stroke="red" points="354.5,-452.5 354.5,-471.5 453.5,-471.5 453.5,-452.5 354.5,-452.5"/>
<text text-anchor="middle" x="404" y="-459.5" font-family="Helvetica,sans-Serif" font-size="10.00">mutt_body_handler</text>
</a>
</g>
</g>
<!-- Node1&#45;&gt;Node3 -->
<g id="edge2" class="edge"><title>Node1&#45;&gt;Node3</title>
<path fill="none" stroke="midnightblue" d="M66.9401,-292.266C77.1916,-327.9 104.419,-403.6 158,-438 217.161,-475.983 301.453,-475.062 354.151,-469.551"/>
<polygon fill="midnightblue" stroke="midnightblue" points="70.3064,-291.306 64.2933,-282.583 63.5541,-293.152 70.3064,-291.306"/>
</g>
<!-- Node4 -->
<g id="node4" class="node"><title>Node4</title>
<g id="a_node4"><a xlink:href="protos_8h.html#ad3a5a87ecb885b8cdf4782a9e220f318" target="_top" xlink:title="Prepare a message template. ">
<polygon fill="white" stroke="red" points="504,-414.5 504,-433.5 620,-433.5 620,-414.5 504,-414.5"/>
<text text-anchor="middle" x="562" y="-421.5" font-family="Helvetica,sans-Serif" font-size="10.00">mutt_prepare_template</text>
</a>
</g>
</g>
<!-- Node1&#45;&gt;Node4 -->
<g id="edge18" class="edge"><title>Node1&#45;&gt;Node4</title>
<path fill="none" stroke="midnightblue" d="M69.3744,-292.004C82.2181,-322.159 111.817,-380.096 158,-405 216.106,-436.334 407.14,-431.825 503.841,-427.269"/>
<polygon fill="midnightblue" stroke="midnightblue" points="72.5529,-290.53 65.5305,-282.597 66.073,-293.178 72.5529,-290.53"/>
</g>
<!-- Node5 -->
<g id="node5" class="node"><title>Node5</title>
<g id="a_node5"><a xlink:href="handler_8h.html#ad8ffd2d9dd15e18644b821ec35c7ce52" target="_top" xlink:title="Will decoding the attachment produce any output. ">
<polygon fill="white" stroke="red" points="184,-358.5 184,-377.5 278,-377.5 278,-358.5 184,-358.5"/>
<text text-anchor="middle" x="231" y="-365.5" font-family="Helvetica,sans-Serif" font-size="10.00">mutt_can_decode</text>
</a>
</g>
</g>
<!-- Node1&#45;&gt;Node5 -->
<g id="edge4" class="edge"><title>Node1&#45;&gt;Node5</title>
<path fill="none" stroke="midnightblue" d="M80.1108,-289.142C98.592,-304.925 128.65,-328.747 158,-344 169.224,-349.833 182.155,-354.666 193.934,-358.429"/>
<polygon fill="midnightblue" stroke="midnightblue" points="82.324,-286.428 72.4782,-282.516 77.7349,-291.714 82.324,-286.428"/>
</g>
<!-- Node6 -->
<g id="node6" class="node"><title>Node6</title>
<g id="a_node6"><a xlink:href="handler_8h.html#a8dc0c14a81bb73f86986adc9745dd192" target="_top" xlink:title="Decode an email&#39;s attachment. ">
<polygon fill="white" stroke="red" points="340.5,-320.5 340.5,-339.5 467.5,-339.5 467.5,-320.5 340.5,-320.5"/>
<text text-anchor="middle" x="404" y="-327.5" font-family="Helvetica,sans-Serif" font-size="10.00">mutt_decode_attachment</text>
</a>
</g>
</g>
<!-- Node1&#45;&gt;Node6 -->
<g id="edge6" class="edge"><title>Node1&#45;&gt;Node6</title>
<path fill="none" stroke="midnightblue" d="M90.4539,-286.876C109.186,-295.35 134.502,-305.569 158,-311 218.895,-325.075 290.328,-329.263 340.296,-330.271"/>
<polygon fill="midnightblue" stroke="midnightblue" points="91.8478,-283.665 81.3028,-282.639 88.9064,-290.017 91.8478,-283.665"/>
</g>
<!-- Node7 -->
<g id="node7" class="node"><title>Node7</title>
<g id="a_node7"><a xlink:href="muttlib_8h.html#a408880eb332fd5a312dcae1df22ff688" target="_top" xlink:title="Does this type need a mailcap entry do display. ">
<polygon fill="white" stroke="red" points="177.5,-282.5 177.5,-301.5 284.5,-301.5 284.5,-282.5 177.5,-282.5"/>
<text text-anchor="middle" x="231" y="-289.5" font-family="Helvetica,sans-Serif" font-size="10.00">mutt_needs_mailcap</text>
</a>
</g>
</g>
<!-- Node1&#45;&gt;Node7 -->
<g id="edge8" class="edge"><title>Node1&#45;&gt;Node7</title>
<path fill="none" stroke="midnightblue" d="M132.49,-280.972C147.56,-282.676 163.225,-284.448 177.477,-286.06"/>
<polygon fill="midnightblue" stroke="midnightblue" points="132.507,-277.452 122.177,-279.806 131.721,-284.407 132.507,-277.452"/>
</g>
<!-- Node8 -->
<g id="node8" class="node"><title>Node8</title>
<g id="a_node8"><a xlink:href="muttlib_8h.html#ab74b8ff8a0761cc4ef015c39a63f502d" target="_top" xlink:title="Is this part of an email in plain text? ">
<polygon fill="white" stroke="red" points="185,-244.5 185,-263.5 277,-263.5 277,-244.5 185,-244.5"/>
<text text-anchor="middle" x="231" y="-251.5" font-family="Helvetica,sans-Serif" font-size="10.00">mutt_is_text_part</text>
</a>
</g>
</g>
<!-- Node1&#45;&gt;Node8 -->
<g id="edge9" class="edge"><title>Node1&#45;&gt;Node8</title>
<path fill="none" stroke="midnightblue" d="M132.47,-265.03C150.154,-263.03 168.66,-260.937 184.74,-259.119"/>
<polygon fill="midnightblue" stroke="midnightblue" points="131.721,-261.593 122.177,-266.194 132.507,-268.548 131.721,-261.593"/>
</g>
<!-- Node9 -->
<g id="node9" class="node"><title>Node9</title>
<g id="a_node9"><a xlink:href="sendlib_8c.html#a55c55e2f50317ab8226c0c2768e01ad0" target="_top" xlink:title="Should the Body be written as a text MIME part. ">
<polygon fill="white" stroke="red" points="355.5,-225.5 355.5,-244.5 452.5,-244.5 452.5,-225.5 355.5,-225.5"/>
<text text-anchor="middle" x="404" y="-232.5" font-family="Helvetica,sans-Serif" font-size="10.00">write_as_text_part</text>
</a>
</g>
</g>
<!-- Node1&#45;&gt;Node9 -->
<g id="edge19" class="edge"><title>Node1&#45;&gt;Node9</title>
<path fill="none" stroke="midnightblue" d="M89.2671,-259.002C108.042,-250.176 133.86,-239.604 158,-235 225.477,-222.131 305.323,-225.499 355.077,-229.739"/>
<polygon fill="midnightblue" stroke="midnightblue" points="87.6155,-255.913 80.1373,-263.418 90.6635,-262.215 87.6155,-255.913"/>
</g>
<!-- Node10 -->
<g id="node10" class="node"><title>Node10</title>
<g id="a_node10"><a xlink:href="ncrypt_8h.html#ab5074ccede10397a636da12338c977ad" target="_top" xlink:title="Check out the type of encryption used. ">
<polygon fill="white" stroke="red" points="197,-150.5 197,-169.5 265,-169.5 265,-150.5 197,-150.5"/>
<text text-anchor="middle" x="231" y="-157.5" font-family="Helvetica,sans-Serif" font-size="10.00">crypt_query</text>
</a>
</g>
</g>
<!-- Node1&#45;&gt;Node10 -->
<g id="edge12" class="edge"><title>Node1&#45;&gt;Node10</title>
<path fill="none" stroke="midnightblue" d="M82.1042,-257.132C101.217,-242.289 130.977,-219.799 158,-202 176.007,-190.139 197.444,-177.857 212.217,-169.662"/>
<polygon fill="midnightblue" stroke="midnightblue" points="79.8456,-254.455 74.12,-263.37 84.1551,-259.971 79.8456,-254.455"/>
</g>
<!-- Node11 -->
<g id="node11" class="node"><title>Node11</title>
<g id="a_node11"><a xlink:href="crypt__gpgme_8h.html#ae99b605a5ceeebc100ff10226857f84e" target="_top" xlink:title="Implements CryptModuleSpecs::pgp_check_traditional() ">
<polygon fill="white" stroke="black" points="158,-94.5 158,-113.5 304,-113.5 304,-94.5 158,-94.5"/>
<text text-anchor="middle" x="231" y="-101.5" font-family="Helvetica,sans-Serif" font-size="10.00">pgp_gpgme_check_traditional</text>
</a>
</g>
</g>
<!-- Node1&#45;&gt;Node11 -->
<g id="edge14" class="edge"><title>Node1&#45;&gt;Node11</title>
<path fill="none" stroke="midnightblue" d="M71.9134,-254.148C87.2591,-226.42 119.093,-174.33 158,-141 171.768,-129.205 189.943,-119.902 204.587,-113.575"/>
<polygon fill="midnightblue" stroke="midnightblue" points="68.706,-252.721 67.0232,-263.181 74.8619,-256.054 68.706,-252.721"/>
</g>
<!-- Node12 -->
<g id="node12" class="node"><title>Node12</title>
<g id="a_node12"><a xlink:href="pgp_8h.html#ac3696b27c886e803d5d249760aef9062" target="_top" xlink:title="Implements CryptModuleSpecs::pgp_check_traditional() ">
<polygon fill="white" stroke="black" points="161,-38.5 161,-57.5 301,-57.5 301,-38.5 161,-38.5"/>
<text text-anchor="middle" x="231" y="-45.5" font-family="Helvetica,sans-Serif" font-size="10.00">pgp_class_check_traditional</text>
</a>
</g>
</g>
<!-- Node1&#45;&gt;Node12 -->
<g id="edge16" class="edge"><title>Node1&#45;&gt;Node12</title>
<path fill="none" stroke="midnightblue" d="M67.5134,-253.518C78.8656,-216.463 108.062,-135.066 158,-85 170.307,-72.6615 187.584,-63.595 202.129,-57.5256"/>
<polygon fill="midnightblue" stroke="midnightblue" points="64.1528,-252.541 64.6705,-263.123 70.8649,-254.528 64.1528,-252.541"/>
</g>
<!-- Node13 -->
<g id="node13" class="node"><title>Node13</title>
<g id="a_node13"><a xlink:href="sendlib_8h.html#a008bb984b452b640a543a70b0ff2599d" target="_top" xlink:title="Create a message attachment. ">
<polygon fill="white" stroke="red" points="159.5,-0.5 159.5,-19.5 302.5,-19.5 302.5,-0.5 159.5,-0.5"/>
<text text-anchor="middle" x="231" y="-7.5" font-family="Helvetica,sans-Serif" font-size="10.00">mutt_make_message_attach</text>
</a>
</g>
</g>
<!-- Node1&#45;&gt;Node13 -->
<g id="edge20" class="edge"><title>Node1&#45;&gt;Node13</title>
<path fill="none" stroke="midnightblue" d="M63.8158,-253.387C69.1798,-207.069 89.185,-90.2107 158,-29 162.347,-25.1335 167.39,-22.0393 172.751,-19.5653"/>
<polygon fill="midnightblue" stroke="midnightblue" points="60.3348,-253.023 62.7684,-263.335 67.2963,-253.756 60.3348,-253.023"/>
</g>
<!-- Node3&#45;&gt;Node4 -->
<g id="edge3" class="edge"><title>Node3&#45;&gt;Node4</title>
<path fill="none" stroke="midnightblue" d="M454.132,-450.032C475.993,-444.707 501.376,-438.524 521.918,-433.52"/>
<polygon fill="midnightblue" stroke="midnightblue" points="453.253,-446.644 444.365,-452.411 454.91,-453.445 453.253,-446.644"/>
</g>
<!-- Node5&#45;&gt;Node5 -->
<g id="edge5" class="edge"><title>Node5&#45;&gt;Node5</title>
<path fill="none" stroke="midnightblue" d="M199.189,-386.275C200.096,-391.741 210.699,-396 231,-396 261.215,-396 269.949,-386.565 257.202,-377.757"/>
<polygon fill="midnightblue" stroke="midnightblue" points="202.221,-388.034 204.798,-377.757 196.375,-384.184 202.221,-388.034"/>
</g>
<!-- Node6&#45;&gt;Node4 -->
<g id="edge7" class="edge"><title>Node6&#45;&gt;Node4</title>
<path fill="none" stroke="midnightblue" d="M429.663,-344.861C462.026,-364.362 517.899,-398.029 545.142,-414.444"/>
<polygon fill="midnightblue" stroke="midnightblue" points="431.188,-341.694 420.817,-339.531 427.575,-347.689 431.188,-341.694"/>
</g>
<!-- Node8&#45;&gt;Node6 -->
<g id="edge10" class="edge"><title>Node8&#45;&gt;Node6</title>
<path fill="none" stroke="midnightblue" d="M285.521,-266.426C291.832,-268.388 298.115,-270.58 304,-273 336.098,-286.202 370.575,-307.99 389.179,-320.457"/>
<polygon fill="midnightblue" stroke="midnightblue" points="286.214,-262.982 275.634,-263.532 284.248,-269.7 286.214,-262.982"/>
</g>
<!-- Node8&#45;&gt;Node9 -->
<g id="edge11" class="edge"><title>Node8&#45;&gt;Node9</title>
<path fill="none" stroke="midnightblue" d="M287.517,-247.831C309.395,-245.401 334.271,-242.637 355.318,-240.298"/>
<polygon fill="midnightblue" stroke="midnightblue" points="286.928,-244.375 277.376,-248.958 287.701,-251.332 286.928,-244.375"/>
</g>
<!-- Node10&#45;&gt;Node10 -->
<g id="edge13" class="edge"><title>Node10&#45;&gt;Node10</title>
<path fill="none" stroke="midnightblue" d="M199.189,-178.275C200.096,-183.741 210.699,-188 231,-188 261.215,-188 269.949,-178.565 257.202,-169.757"/>
<polygon fill="midnightblue" stroke="midnightblue" points="202.221,-180.034 204.798,-169.757 196.375,-176.184 202.221,-180.034"/>
</g>
<!-- Node11&#45;&gt;Node11 -->
<g id="edge15" class="edge"><title>Node11&#45;&gt;Node11</title>
<path fill="none" stroke="midnightblue" d="M199.189,-122.275C200.096,-127.741 210.699,-132 231,-132 261.215,-132 269.949,-122.565 257.202,-113.757"/>
<polygon fill="midnightblue" stroke="midnightblue" points="202.221,-124.034 204.798,-113.757 196.375,-120.184 202.221,-124.034"/>
</g>
<!-- Node12&#45;&gt;Node12 -->
<g id="edge17" class="edge"><title>Node12&#45;&gt;Node12</title>
<path fill="none" stroke="midnightblue" d="M199.189,-66.2746C200.096,-71.741 210.699,-76 231,-76 261.215,-76 269.949,-66.5653 257.202,-57.7571"/>
<polygon fill="midnightblue" stroke="midnightblue" points="202.221,-68.0337 204.798,-57.7571 196.375,-64.1836 202.221,-68.0337"/>
</g>
</g>
</svg>
