<?xml version="1.0" encoding="UTF-8" standalone="no"?>
<!DOCTYPE svg PUBLIC "-//W3C//DTD SVG 1.1//EN"
 "http://www.w3.org/Graphics/SVG/1.1/DTD/svg11.dtd">
<!-- Generated by graphviz version 2.36.0 (20140111.2315)
 -->
<!-- Title: mutt_is_multipart_encrypted Pages: 1 -->
<svg width="336pt" height="286pt"
 viewBox="0.00 0.00 336.00 286.00" xmlns="http://www.w3.org/2000/svg" xmlns:xlink="http://www.w3.org/1999/xlink">
<g id="graph0" class="graph" transform="scale(1 1) rotate(0) translate(4 282)">
<title>mutt_is_multipart_encrypted</title>
<polygon fill="white" stroke="none" points="-4,4 -4,-282 332,-282 332,4 -4,4"/>
<!-- Node1 -->
<g id="node1" class="node"><title>Node1</title>
<polygon fill="#bfbfbf" stroke="black" points="0,-114.5 0,-133.5 140,-133.5 140,-114.5 0,-114.5"/>
<text text-anchor="middle" x="70" y="-121.5" font-family="Helvetica,sans-Serif" font-size="10.00">mutt_is_multipart_encrypted</text>
</g>
<!-- Node2 -->
<g id="node2" class="node"><title>Node2</title>
<g id="a_node2"><a xlink:href="commands_8c.html#abc7035ef52912c407a2632daf42a121d" target="_top" xlink:title="Set the flags for a message copy. ">
<polygon fill="white" stroke="red" points="210.5,-258.5 210.5,-277.5 293.5,-277.5 293.5,-258.5 210.5,-258.5"/>
<text text-anchor="middle" x="252" y="-265.5" font-family="Helvetica,sans-Serif" font-size="10.00">set_copy_flags</text>
</a>
</g>
</g>
<!-- Node1&#45;&gt;Node2 -->
<g id="edge1" class="edge"><title>Node1&#45;&gt;Node2</title>
<path fill="none" stroke="midnightblue" d="M81.3786,-142.568C97.7847,-170.155 132.375,-221.642 176,-249 186.242,-255.423 198.552,-259.678 210.21,-262.496"/>
<polygon fill="midnightblue" stroke="midnightblue" points="84.2122,-140.477 76.1739,-133.575 78.1537,-143.983 84.2122,-140.477"/>
</g>
<!-- Node3 -->
<g id="node3" class="node"><title>Node3</title>
<g id="a_node3"><a xlink:href="compose_8c.html#ac4f967e1fde0b8096af8be64a5ecbb95" target="_top" xlink:title="Generate the attachment list for the compose screen. ">
<polygon fill="white" stroke="red" points="176,-220.5 176,-239.5 328,-239.5 328,-220.5 176,-220.5"/>
<text text-anchor="middle" x="252" y="-227.5" font-family="Helvetica,sans-Serif" font-size="10.00">mutt_gen_compose_attach_list</text>
</a>
</g>
</g>
<!-- Node1&#45;&gt;Node3 -->
<g id="edge2" class="edge"><title>Node1&#45;&gt;Node3</title>
<path fill="none" stroke="midnightblue" d="M86.9438,-140.842C106.253,-160.274 140.611,-191.871 176,-210 184.396,-214.301 193.807,-217.745 203.052,-220.48"/>
<polygon fill="midnightblue" stroke="midnightblue" points="89.3426,-138.288 79.8565,-133.57 84.3296,-143.174 89.3426,-138.288"/>
</g>
<!-- Node4 -->
<g id="node4" class="node"><title>Node4</title>
<g id="a_node4"><a xlink:href="ncrypt_8h.html#a51806f872069460bb7f4fa16d1d92710" target="_top" xlink:title="Is this a valid multi&#45;part encrypted message? ">
<polygon fill="white" stroke="red" points="193.5,-171 193.5,-201 310.5,-201 310.5,-171 193.5,-171"/>
<text text-anchor="start" x="201.5" y="-189" font-family="Helvetica,sans-Serif" font-size="10.00">mutt_is_valid_multipart</text>
<text text-anchor="middle" x="252" y="-178" font-family="Helvetica,sans-Serif" font-size="10.00">_pgp_encrypted</text>
</a>
</g>
</g>
<!-- Node1&#45;&gt;Node4 -->
<g id="edge3" class="edge"><title>Node1&#45;&gt;Node4</title>
<path fill="none" stroke="midnightblue" d="M107.165,-136.915C127.385,-144.092 153.06,-153.136 176,-161 185.478,-164.249 195.649,-167.678 205.347,-170.92"/>
<polygon fill="midnightblue" stroke="midnightblue" points="108.308,-133.607 97.7134,-133.555 105.963,-140.202 108.308,-133.607"/>
</g>
<!-- Node5 -->
<g id="node5" class="node"><title>Node5</title>
<g id="a_node5"><a xlink:href="ncrypt_8h.html#ab5074ccede10397a636da12338c977ad" target="_top" xlink:title="Check out the type of encryption used. ">
<polygon fill="white" stroke="red" points="218,-114.5 218,-133.5 286,-133.5 286,-114.5 218,-114.5"/>
<text text-anchor="middle" x="252" y="-121.5" font-family="Helvetica,sans-Serif" font-size="10.00">crypt_query</text>
</a>
</g>
</g>
<!-- Node1&#45;&gt;Node5 -->
<g id="edge4" class="edge"><title>Node1&#45;&gt;Node5</title>
<path fill="none" stroke="midnightblue" d="M150.143,-124C173.819,-124 198.512,-124 217.539,-124"/>
<polygon fill="midnightblue" stroke="midnightblue" points="150.078,-120.5 140.078,-124 150.078,-127.5 150.078,-120.5"/>
</g>
<!-- Node6 -->
<g id="node6" class="node"><title>Node6</title>
<g id="a_node6"><a xlink:href="protos_8h.html#ad3a5a87ecb885b8cdf4782a9e220f318" target="_top" xlink:title="Prepare a message template. ">
<polygon fill="white" stroke="red" points="194,-76.5 194,-95.5 310,-95.5 310,-76.5 194,-76.5"/>
<text text-anchor="middle" x="252" y="-83.5" font-family="Helvetica,sans-Serif" font-size="10.00">mutt_prepare_template</text>
</a>
</g>
</g>
<!-- Node1&#45;&gt;Node6 -->
<g id="edge6" class="edge"><title>Node1&#45;&gt;Node6</title>
<path fill="none" stroke="midnightblue" d="M126.331,-112.319C151.857,-106.93 181.776,-100.614 205.905,-95.5201"/>
<polygon fill="midnightblue" stroke="midnightblue" points="125.483,-108.921 116.422,-114.411 126.929,-115.77 125.483,-108.921"/>
</g>
<!-- Node7 -->
<g id="node7" class="node"><title>Node7</title>
<g id="a_node7"><a xlink:href="recvattach_8c.html#ae34f75d78cba83011d7c15f2d1c44198" target="_top" xlink:title="Create a list of attachments. ">
<polygon fill="white" stroke="red" points="178,-38.5 178,-57.5 326,-57.5 326,-38.5 178,-38.5"/>
<text text-anchor="middle" x="252" y="-45.5" font-family="Helvetica,sans-Serif" font-size="10.00">mutt_generate_recvattach_list</text>
</a>
</g>
</g>
<!-- Node1&#45;&gt;Node7 -->
<g id="edge7" class="edge"><title>Node1&#45;&gt;Node7</title>
<path fill="none" stroke="midnightblue" d="M94.4686,-109.046C115.226,-96.366 146.684,-78.4628 176,-67 185.382,-63.3314 195.705,-60.1816 205.611,-57.5615"/>
<polygon fill="midnightblue" stroke="midnightblue" points="92.386,-106.218 85.7302,-114.462 96.0739,-112.168 92.386,-106.218"/>
</g>
<!-- Node8 -->
<g id="node8" class="node"><title>Node8</title>
<g id="a_node8"><a xlink:href="sendlib_8h.html#a008bb984b452b640a543a70b0ff2599d" target="_top" xlink:title="Create a message attachment. ">
<polygon fill="white" stroke="red" points="180.5,-0.5 180.5,-19.5 323.5,-19.5 323.5,-0.5 180.5,-0.5"/>
<text text-anchor="middle" x="252" y="-7.5" font-family="Helvetica,sans-Serif" font-size="10.00">mutt_make_message_attach</text>
</a>
</g>
</g>
<!-- Node1&#45;&gt;Node8 -->
<g id="edge8" class="edge"><title>Node1&#45;&gt;Node8</title>
<path fill="none" stroke="midnightblue" d="M85.4088,-106.532C104.082,-85.0491 138.696,-48.9828 176,-29 183.223,-25.131 191.262,-22.0271 199.318,-19.5433"/>
<polygon fill="midnightblue" stroke="midnightblue" points="82.6612,-104.36 78.8463,-114.244 87.9924,-108.897 82.6612,-104.36"/>
</g>
<!-- Node5&#45;&gt;Node5 -->
<g id="edge5" class="edge"><title>Node5&#45;&gt;Node5</title>
<path fill="none" stroke="midnightblue" d="M217.892,-141.891C218.392,-147.541 229.761,-152 252,-152 284.348,-152 293.698,-142.565 280.051,-133.757"/>
<polygon fill="midnightblue" stroke="midnightblue" points="220.784,-143.868 223.949,-133.757 215.169,-139.688 220.784,-143.868"/>
</g>
</g>
</svg>
