<?xml version="1.0" encoding="UTF-8" standalone="no"?>
<!DOCTYPE svg PUBLIC "-//W3C//DTD SVG 1.1//EN"
 "http://www.w3.org/Graphics/SVG/1.1/DTD/svg11.dtd">
<!-- Generated by graphviz version 2.36.0 (20140111.2315)
 -->
<!-- Title: mutt_is_application_smime Pages: 1 -->
<svg width="624pt" height="444pt"
 viewBox="0.00 0.00 624.00 444.00" xmlns="http://www.w3.org/2000/svg" xmlns:xlink="http://www.w3.org/1999/xlink">
<g id="graph0" class="graph" transform="scale(1 1) rotate(0) translate(4 440)">
<title>mutt_is_application_smime</title>
<polygon fill="white" stroke="none" points="-4,4 -4,-440 620,-440 620,4 -4,4"/>
<!-- Node1 -->
<g id="node1" class="node"><title>Node1</title>
<polygon fill="#bfbfbf" stroke="black" points="0.5,-203 0.5,-233 101.5,-233 101.5,-203 0.5,-203"/>
<text text-anchor="start" x="8.5" y="-221" font-family="Helvetica,sans-Serif" font-size="10.00">mutt_is_application</text>
<text text-anchor="middle" x="51" y="-210" font-family="Helvetica,sans-Serif" font-size="10.00">_smime</text>
</g>
<!-- Node2 -->
<g id="node2" class="node"><title>Node2</title>
<g id="a_node2"><a xlink:href="commands_8c.html#abc7035ef52912c407a2632daf42a121d" target="_top" xlink:title="Set the flags for a message copy. ">
<polygon fill="white" stroke="red" points="170.5,-416.5 170.5,-435.5 253.5,-435.5 253.5,-416.5 170.5,-416.5"/>
<text text-anchor="middle" x="212" y="-423.5" font-family="Helvetica,sans-Serif" font-size="10.00">set_copy_flags</text>
</a>
</g>
</g>
<!-- Node1&#45;&gt;Node2 -->
<g id="edge1" class="edge"><title>Node1&#45;&gt;Node2</title>
<path fill="none" stroke="midnightblue" d="M56.9773,-242.89C66.1247,-282.249 89.3104,-358.811 138,-402 147.082,-410.056 158.932,-415.417 170.433,-418.982"/>
<polygon fill="midnightblue" stroke="midnightblue" points="60.38,-242.067 54.8064,-233.057 53.5446,-243.576 60.38,-242.067"/>
</g>
<!-- Node3 -->
<g id="node3" class="node"><title>Node3</title>
<g id="a_node3"><a xlink:href="handler_8h.html#adae8bf0eec9bee0bd62f639bbcf8599f" target="_top" xlink:title="Handler for the Body of an email. ">
<polygon fill="white" stroke="red" points="162.5,-340.5 162.5,-359.5 261.5,-359.5 261.5,-340.5 162.5,-340.5"/>
<text text-anchor="middle" x="212" y="-347.5" font-family="Helvetica,sans-Serif" font-size="10.00">mutt_body_handler</text>
</a>
</g>
</g>
<!-- Node1&#45;&gt;Node3 -->
<g id="edge2" class="edge"><title>Node1&#45;&gt;Node3</title>
<path fill="none" stroke="midnightblue" d="M65.3053,-241.897C80.0696,-266.339 106.076,-303.784 138,-326 146.979,-332.249 157.696,-336.957 168.116,-340.47"/>
<polygon fill="midnightblue" stroke="midnightblue" points="68.2929,-240.073 60.2083,-233.225 62.2581,-243.62 68.2929,-240.073"/>
</g>
<!-- Node4 -->
<g id="node4" class="node"><title>Node4</title>
<g id="a_node4"><a xlink:href="smime_8c.html#a9a688bb9dd47be9db4698008c5e0be50" target="_top" xlink:title="Handle type application/pkcs7&#45;mime. ">
<polygon fill="white" stroke="red" points="325.5,-340.5 325.5,-359.5 434.5,-359.5 434.5,-340.5 325.5,-340.5"/>
<text text-anchor="middle" x="380" y="-347.5" font-family="Helvetica,sans-Serif" font-size="10.00">smime_handle_entity</text>
</a>
</g>
</g>
<!-- Node1&#45;&gt;Node4 -->
<g id="edge12" class="edge"><title>Node1&#45;&gt;Node4</title>
<path fill="none" stroke="midnightblue" d="M57.9171,-243.14C67.7539,-278.541 91.1981,-341.795 138,-369 208.938,-410.235 312.079,-377.409 356.868,-359.591"/>
<polygon fill="midnightblue" stroke="midnightblue" points="61.2114,-241.904 55.2903,-233.118 54.4402,-243.679 61.2114,-241.904"/>
</g>
<!-- Node5 -->
<g id="node5" class="node"><title>Node5</title>
<g id="a_node5"><a xlink:href="smime_8h.html#af87ed15089c9c7afba9eca64f6cbada1" target="_top" xlink:title="Implements CryptModuleSpecs::decrypt_mime() ">
<polygon fill="white" stroke="black" points="474.5,-302.5 474.5,-321.5 615.5,-321.5 615.5,-302.5 474.5,-302.5"/>
<text text-anchor="middle" x="545" y="-309.5" font-family="Helvetica,sans-Serif" font-size="10.00">smime_class_decrypt_mime</text>
</a>
</g>
</g>
<!-- Node1&#45;&gt;Node5 -->
<g id="edge13" class="edge"><title>Node1&#45;&gt;Node5</title>
<path fill="none" stroke="midnightblue" d="M90.6769,-237.38C105.196,-243.917 122.049,-250.652 138,-255 267.667,-290.349 305.144,-272.693 438,-293 456.297,-295.797 476.294,-299.272 493.941,-302.482"/>
<polygon fill="midnightblue" stroke="midnightblue" points="92.0511,-234.159 81.5055,-233.139 89.1132,-240.513 92.0511,-234.159"/>
</g>
<!-- Node6 -->
<g id="node6" class="node"><title>Node6</title>
<g id="a_node6"><a xlink:href="protos_8h.html#ad3a5a87ecb885b8cdf4782a9e220f318" target="_top" xlink:title="Prepare a message template. ">
<polygon fill="white" stroke="red" points="322,-302.5 322,-321.5 438,-321.5 438,-302.5 322,-302.5"/>
<text text-anchor="middle" x="380" y="-309.5" font-family="Helvetica,sans-Serif" font-size="10.00">mutt_prepare_template</text>
</a>
</g>
</g>
<!-- Node1&#45;&gt;Node6 -->
<g id="edge14" class="edge"><title>Node1&#45;&gt;Node6</title>
<path fill="none" stroke="midnightblue" d="M72.4266,-240.565C88.5267,-256.742 112.459,-277.465 138,-288 197.277,-312.451 271.453,-316.288 321.742,-315.393"/>
<polygon fill="midnightblue" stroke="midnightblue" points="74.6415,-237.82 65.1793,-233.054 69.6039,-242.68 74.6415,-237.82"/>
</g>
<!-- Node7 -->
<g id="node7" class="node"><title>Node7</title>
<g id="a_node7"><a xlink:href="handler_8h.html#ad8ffd2d9dd15e18644b821ec35c7ce52" target="_top" xlink:title="Will decoding the attachment produce any output. ">
<polygon fill="white" stroke="red" points="165,-208.5 165,-227.5 259,-227.5 259,-208.5 165,-208.5"/>
<text text-anchor="middle" x="212" y="-215.5" font-family="Helvetica,sans-Serif" font-size="10.00">mutt_can_decode</text>
</a>
</g>
</g>
<!-- Node1&#45;&gt;Node7 -->
<g id="edge6" class="edge"><title>Node1&#45;&gt;Node7</title>
<path fill="none" stroke="midnightblue" d="M111.99,-218C129.484,-218 148.322,-218 164.821,-218"/>
<polygon fill="midnightblue" stroke="midnightblue" points="111.872,-214.5 101.872,-218 111.872,-221.5 111.872,-214.5"/>
</g>
<!-- Node8 -->
<g id="node8" class="node"><title>Node8</title>
<g id="a_node8"><a xlink:href="muttlib_8h.html#a408880eb332fd5a312dcae1df22ff688" target="_top" xlink:title="Does this type need a mailcap entry do display. ">
<polygon fill="white" stroke="red" points="158.5,-170.5 158.5,-189.5 265.5,-189.5 265.5,-170.5 158.5,-170.5"/>
<text text-anchor="middle" x="212" y="-177.5" font-family="Helvetica,sans-Serif" font-size="10.00">mutt_needs_mailcap</text>
</a>
</g>
</g>
<!-- Node1&#45;&gt;Node8 -->
<g id="edge8" class="edge"><title>Node1&#45;&gt;Node8</title>
<path fill="none" stroke="midnightblue" d="M111.749,-203.72C131.582,-198.98 153.166,-193.822 171.125,-189.53"/>
<polygon fill="midnightblue" stroke="midnightblue" points="110.785,-200.352 101.872,-206.081 112.412,-207.16 110.785,-200.352"/>
</g>
<!-- Node9 -->
<g id="node9" class="node"><title>Node9</title>
<g id="a_node9"><a xlink:href="ncrypt_8h.html#ab5074ccede10397a636da12338c977ad" target="_top" xlink:title="Check out the type of encryption used. ">
<polygon fill="white" stroke="red" points="178,-114.5 178,-133.5 246,-133.5 246,-114.5 178,-114.5"/>
<text text-anchor="middle" x="212" y="-121.5" font-family="Helvetica,sans-Serif" font-size="10.00">crypt_query</text>
</a>
</g>
</g>
<!-- Node1&#45;&gt;Node9 -->
<g id="edge9" class="edge"><title>Node1&#45;&gt;Node9</title>
<path fill="none" stroke="midnightblue" d="M82.0262,-196.858C98.2999,-185.718 118.931,-172.102 138,-161 155.314,-150.92 175.701,-140.72 190.523,-133.589"/>
<polygon fill="midnightblue" stroke="midnightblue" points="79.7146,-194.2 73.471,-202.76 83.6898,-199.962 79.7146,-194.2"/>
</g>
<!-- Node10 -->
<g id="node10" class="node"><title>Node10</title>
<g id="a_node10"><a xlink:href="crypt__gpgme_8h.html#ae39660e038efc4389914e3b9bc9a528a" target="_top" xlink:title="Implements CryptModuleSpecs::decrypt_mime() ">
<polygon fill="white" stroke="black" points="138.5,-76.5 138.5,-95.5 285.5,-95.5 285.5,-76.5 138.5,-76.5"/>
<text text-anchor="middle" x="212" y="-83.5" font-family="Helvetica,sans-Serif" font-size="10.00">smime_gpgme_decrypt_mime</text>
</a>
</g>
</g>
<!-- Node1&#45;&gt;Node10 -->
<g id="edge11" class="edge"><title>Node1&#45;&gt;Node10</title>
<path fill="none" stroke="midnightblue" d="M64.0578,-193.829C78.2244,-167.936 104.155,-127.535 138,-105 143.777,-101.153 150.291,-98.0848 156.989,-95.6375"/>
<polygon fill="midnightblue" stroke="midnightblue" points="60.8013,-192.5 59.2124,-202.975 66.9868,-195.777 60.8013,-192.5"/>
</g>
<!-- Node11 -->
<g id="node11" class="node"><title>Node11</title>
<g id="a_node11"><a xlink:href="recvattach_8c.html#ae34f75d78cba83011d7c15f2d1c44198" target="_top" xlink:title="Create a list of attachments. ">
<polygon fill="white" stroke="red" points="138,-38.5 138,-57.5 286,-57.5 286,-38.5 138,-38.5"/>
<text text-anchor="middle" x="212" y="-45.5" font-family="Helvetica,sans-Serif" font-size="10.00">mutt_generate_recvattach_list</text>
</a>
</g>
</g>
<!-- Node1&#45;&gt;Node11 -->
<g id="edge15" class="edge"><title>Node1&#45;&gt;Node11</title>
<path fill="none" stroke="midnightblue" d="M59.2862,-193.372C70.5532,-159.653 95.4651,-99.5945 138,-67 143.093,-63.0969 148.912,-59.9919 154.99,-57.5224"/>
<polygon fill="midnightblue" stroke="midnightblue" points="55.9416,-192.34 56.2233,-202.931 62.6078,-194.476 55.9416,-192.34"/>
</g>
<!-- Node12 -->
<g id="node12" class="node"><title>Node12</title>
<g id="a_node12"><a xlink:href="sendlib_8h.html#a008bb984b452b640a543a70b0ff2599d" target="_top" xlink:title="Create a message attachment. ">
<polygon fill="white" stroke="red" points="140.5,-0.5 140.5,-19.5 283.5,-19.5 283.5,-0.5 140.5,-0.5"/>
<text text-anchor="middle" x="212" y="-7.5" font-family="Helvetica,sans-Serif" font-size="10.00">mutt_make_message_attach</text>
</a>
</g>
</g>
<!-- Node1&#45;&gt;Node12 -->
<g id="edge16" class="edge"><title>Node1&#45;&gt;Node12</title>
<path fill="none" stroke="midnightblue" d="M56.2775,-192.941C64.5625,-152.276 86.7115,-72.1294 138,-29 142.611,-25.1229 147.921,-22.0256 153.532,-19.5532"/>
<polygon fill="midnightblue" stroke="midnightblue" points="52.8248,-192.362 54.3776,-202.843 59.6994,-193.681 52.8248,-192.362"/>
</g>
<!-- Node3&#45;&gt;Node4 -->
<g id="edge3" class="edge"><title>Node3&#45;&gt;Node4</title>
<path fill="none" stroke="midnightblue" d="M271.928,-350C289.292,-350 308.196,-350 325.219,-350"/>
<polygon fill="midnightblue" stroke="midnightblue" points="271.908,-346.5 261.908,-350 271.908,-353.5 271.908,-346.5"/>
</g>
<!-- Node3&#45;&gt;Node6 -->
<g id="edge5" class="edge"><title>Node3&#45;&gt;Node6</title>
<path fill="none" stroke="midnightblue" d="M264.653,-338.176C288.056,-332.818 315.357,-326.569 337.412,-321.52"/>
<polygon fill="midnightblue" stroke="midnightblue" points="263.856,-334.768 254.889,-340.411 265.418,-341.591 263.856,-334.768"/>
</g>
<!-- Node4&#45;&gt;Node5 -->
<g id="edge4" class="edge"><title>Node4&#45;&gt;Node5</title>
<path fill="none" stroke="midnightblue" d="M432.028,-338.104C454.939,-332.763 481.604,-326.546 503.164,-321.52"/>
<polygon fill="midnightblue" stroke="midnightblue" points="431.076,-334.732 422.132,-340.411 432.665,-341.549 431.076,-334.732"/>
</g>
<!-- Node7&#45;&gt;Node7 -->
<g id="edge7" class="edge"><title>Node7&#45;&gt;Node7</title>
<path fill="none" stroke="midnightblue" d="M182.06,-236.275C182.914,-241.741 192.894,-246 212,-246 240.438,-246 248.658,-236.565 236.661,-227.757"/>
<polygon fill="midnightblue" stroke="midnightblue" points="185.046,-238.101 187.339,-227.757 179.096,-234.413 185.046,-238.101"/>
</g>
<!-- Node9&#45;&gt;Node9 -->
<g id="edge10" class="edge"><title>Node9&#45;&gt;Node9</title>
<path fill="none" stroke="midnightblue" d="M182.06,-142.275C182.914,-147.741 192.894,-152 212,-152 240.438,-152 248.658,-142.565 236.661,-133.757"/>
<polygon fill="midnightblue" stroke="midnightblue" points="185.046,-144.101 187.339,-133.757 179.096,-140.413 185.046,-144.101"/>
</g>
</g>
</svg>
