<?xml version="1.0" encoding="UTF-8" standalone="no"?>
<!DOCTYPE svg PUBLIC "-//W3C//DTD SVG 1.1//EN"
 "http://www.w3.org/Graphics/SVG/1.1/DTD/svg11.dtd">
<!-- Generated by graphviz version 2.36.0 (20140111.2315)
 -->
<!-- Title: crypt_init Pages: 1 -->
<svg width="234pt" height="104pt"
 viewBox="0.00 0.00 234.00 104.00" xmlns="http://www.w3.org/2000/svg" xmlns:xlink="http://www.w3.org/1999/xlink">
<g id="graph0" class="graph" transform="scale(1 1) rotate(0) translate(4 100)">
<title>crypt_init</title>
<polygon fill="white" stroke="none" points="-4,4 -4,-100 230,-100 230,4 -4,4"/>
<!-- Node1 -->
<g id="node1" class="node"><title>Node1</title>
<polygon fill="#bfbfbf" stroke="black" points="0,-38.5 0,-57.5 56,-57.5 56,-38.5 0,-38.5"/>
<text text-anchor="middle" x="28" y="-45.5" font-family="Helvetica,sans-Serif" font-size="10.00">crypt_init</text>
</g>
<!-- Node2 -->
<g id="node2" class="node"><title>Node2</title>
<g id="a_node2"><a xlink:href="crypt__mod_8c.html#a6f1125b13e6eb22540110a6afc5da0fd" target="_top" xlink:title="Register a new crypto module. ">
<polygon fill="white" stroke="red" points="100,-76.5 100,-95.5 218,-95.5 218,-76.5 100,-76.5"/>
<text text-anchor="middle" x="159" y="-83.5" font-family="Helvetica,sans-Serif" font-size="10.00">crypto_module_register</text>
</a>
</g>
</g>
<!-- Node1&#45;&gt;Node2 -->
<g id="edge1" class="edge"><title>Node1&#45;&gt;Node2</title>
<path fill="none" stroke="midnightblue" d="M56.2664,-56.305C67.3452,-59.6582 80.2748,-63.5444 92,-67 99.3163,-69.1563 107.097,-71.4213 114.654,-73.606"/>
<polygon fill="midnightblue" stroke="midnightblue" points="113.822,-77.0087 124.4,-76.416 115.761,-70.2827 113.822,-77.0087"/>
</g>
<!-- Node3 -->
<g id="node3" class="node"><title>Node3</title>
<g id="a_node3"><a xlink:href="curs__lib_8c.html#ab6a61cdfcf8c2c73ee59381c79c79774" target="_top" xlink:title="Prompt the user to &#39;press any key&#39; and wait. ">
<polygon fill="white" stroke="red" points="92,-38.5 92,-57.5 226,-57.5 226,-38.5 92,-38.5"/>
<text text-anchor="middle" x="159" y="-45.5" font-family="Helvetica,sans-Serif" font-size="10.00">mutt_any_key_to_continue</text>
</a>
</g>
</g>
<!-- Node1&#45;&gt;Node3 -->
<g id="edge2" class="edge"><title>Node1&#45;&gt;Node3</title>
<path fill="none" stroke="midnightblue" d="M56.0426,-48C63.8013,-48 72.6665,-48 81.8579,-48"/>
<polygon fill="midnightblue" stroke="midnightblue" points="81.9228,-51.5001 91.9227,-48 81.9227,-44.5001 81.9228,-51.5001"/>
</g>
<!-- Node4 -->
<g id="node4" class="node"><title>Node4</title>
<g id="a_node4"><a xlink:href="main_8c.html#a65be75bf998d2462599b7d391676554c" target="_top" xlink:title="Leave NeoMutt NOW. ">
<polygon fill="white" stroke="black" points="130.5,-0.5 130.5,-19.5 187.5,-19.5 187.5,-0.5 130.5,-0.5"/>
<text text-anchor="middle" x="159" y="-7.5" font-family="Helvetica,sans-Serif" font-size="10.00">mutt_exit</text>
</a>
</g>
</g>
<!-- Node1&#45;&gt;Node4 -->
<g id="edge3" class="edge"><title>Node1&#45;&gt;Node4</title>
<path fill="none" stroke="midnightblue" d="M56.2664,-39.695C67.3452,-36.3418 80.2748,-32.4556 92,-29 101.239,-26.277 111.219,-23.3806 120.553,-20.6914"/>
<polygon fill="midnightblue" stroke="midnightblue" points="121.717,-23.9986 130.361,-17.8727 119.783,-17.2709 121.717,-23.9986"/>
</g>
</g>
</svg>
