<?xml version="1.0" encoding="UTF-8" standalone="no"?>
<!DOCTYPE svg PUBLIC "-//W3C//DTD SVG 1.1//EN"
 "http://www.w3.org/Graphics/SVG/1.1/DTD/svg11.dtd">
<!-- Generated by graphviz version 2.36.0 (20140111.2315)
 -->
<!-- Title: mutt_is_multipart_signed Pages: 1 -->
<svg width="302pt" height="270pt"
 viewBox="0.00 0.00 302.00 270.00" xmlns="http://www.w3.org/2000/svg" xmlns:xlink="http://www.w3.org/1999/xlink">
<g id="graph0" class="graph" transform="scale(1 1) rotate(0) translate(4 266)">
<title>mutt_is_multipart_signed</title>
<polygon fill="white" stroke="none" points="-4,4 -4,-266 298,-266 298,4 -4,4"/>
<!-- Node1 -->
<g id="node1" class="node"><title>Node1</title>
<polygon fill="#bfbfbf" stroke="black" points="0.5,-117.5 0.5,-136.5 125.5,-136.5 125.5,-117.5 0.5,-117.5"/>
<text text-anchor="middle" x="63" y="-124.5" font-family="Helvetica,sans-Serif" font-size="10.00">mutt_is_multipart_signed</text>
</g>
<!-- Node2 -->
<g id="node2" class="node"><title>Node2</title>
<g id="a_node2"><a xlink:href="ncrypt_8h.html#ab5074ccede10397a636da12338c977ad" target="_top" xlink:title="Check out the type of encryption used. ">
<polygon fill="white" stroke="red" points="194,-224.5 194,-243.5 262,-243.5 262,-224.5 194,-224.5"/>
<text text-anchor="middle" x="228" y="-231.5" font-family="Helvetica,sans-Serif" font-size="10.00">crypt_query</text>
</a>
</g>
</g>
<!-- Node1&#45;&gt;Node2 -->
<g id="edge1" class="edge"><title>Node1&#45;&gt;Node2</title>
<path fill="none" stroke="midnightblue" d="M78.8807,-144.422C96.7196,-164.254 128.436,-196.312 162,-215 171.758,-220.433 183.226,-224.451 193.789,-227.355"/>
<polygon fill="midnightblue" stroke="midnightblue" points="81.3561,-141.937 72.1202,-136.745 76.1029,-146.563 81.3561,-141.937"/>
</g>
<!-- Node3 -->
<g id="node3" class="node"><title>Node3</title>
<g id="a_node3"><a xlink:href="ncrypt_8h.html#ab4a0490d64e0a23332c76fabe5c58105" target="_top" xlink:title="Verify a &quot;multipart/signed&quot; body &#45; Implements handler_t. ">
<polygon fill="white" stroke="red" points="174.5,-186.5 174.5,-205.5 281.5,-205.5 281.5,-186.5 174.5,-186.5"/>
<text text-anchor="middle" x="228" y="-193.5" font-family="Helvetica,sans-Serif" font-size="10.00">mutt_signed_handler</text>
</a>
</g>
</g>
<!-- Node1&#45;&gt;Node3 -->
<g id="edge3" class="edge"><title>Node1&#45;&gt;Node3</title>
<path fill="none" stroke="midnightblue" d="M89.8074,-141.375C109.263,-151.847 136.81,-165.908 162,-176 171.645,-179.864 182.339,-183.435 192.222,-186.458"/>
<polygon fill="midnightblue" stroke="midnightblue" points="91.4089,-138.262 80.9523,-136.556 88.0625,-144.411 91.4089,-138.262"/>
</g>
<!-- Node4 -->
<g id="node4" class="node"><title>Node4</title>
<g id="a_node4"><a xlink:href="crypt__gpgme_8h.html#a49d3535b68adb1b38c4599091d04a7b2" target="_top" xlink:title="Implements CryptModuleSpecs::encrypted_handler() ">
<polygon fill="white" stroke="black" points="170.5,-137 170.5,-167 285.5,-167 285.5,-137 170.5,-137"/>
<text text-anchor="start" x="178.5" y="-155" font-family="Helvetica,sans-Serif" font-size="10.00">pgp_gpgme_encrypted</text>
<text text-anchor="middle" x="228" y="-144" font-family="Helvetica,sans-Serif" font-size="10.00">_handler</text>
</a>
</g>
</g>
<!-- Node1&#45;&gt;Node4 -->
<g id="edge4" class="edge"><title>Node1&#45;&gt;Node4</title>
<path fill="none" stroke="midnightblue" d="M135.729,-138.001C147.334,-139.781 159.207,-141.602 170.389,-143.317"/>
<polygon fill="midnightblue" stroke="midnightblue" points="136.038,-134.508 125.623,-136.451 134.977,-141.427 136.038,-134.508"/>
</g>
<!-- Node5 -->
<g id="node5" class="node"><title>Node5</title>
<g id="a_node5"><a xlink:href="crypt__gpgme_8h.html#a6a916c84aff7214350875cce78777fa5" target="_top" xlink:title="Implements CryptModuleSpecs::application_handler() ">
<polygon fill="white" stroke="black" points="162,-88 162,-118 294,-118 294,-88 162,-88"/>
<text text-anchor="start" x="170" y="-106" font-family="Helvetica,sans-Serif" font-size="10.00">smime_gpgme_application</text>
<text text-anchor="middle" x="228" y="-95" font-family="Helvetica,sans-Serif" font-size="10.00">_handler</text>
</a>
</g>
</g>
<!-- Node1&#45;&gt;Node5 -->
<g id="edge5" class="edge"><title>Node1&#45;&gt;Node5</title>
<path fill="none" stroke="midnightblue" d="M135.705,-116.442C144.372,-115.166 153.189,-113.868 161.756,-112.606"/>
<polygon fill="midnightblue" stroke="midnightblue" points="135.007,-113.007 125.623,-117.927 136.027,-119.933 135.007,-113.007"/>
</g>
<!-- Node6 -->
<g id="node6" class="node"><title>Node6</title>
<g id="a_node6"><a xlink:href="pgp_8h.html#a548644e4ab9c58ef526d8b1725f02bf6" target="_top" xlink:title="Implements CryptModuleSpecs::encrypted_handler() ">
<polygon fill="white" stroke="black" points="173.5,-39 173.5,-69 282.5,-69 282.5,-39 173.5,-39"/>
<text text-anchor="start" x="181.5" y="-57" font-family="Helvetica,sans-Serif" font-size="10.00">pgp_class_encrypted</text>
<text text-anchor="middle" x="228" y="-46" font-family="Helvetica,sans-Serif" font-size="10.00">_handler</text>
</a>
</g>
</g>
<!-- Node1&#45;&gt;Node6 -->
<g id="edge6" class="edge"><title>Node1&#45;&gt;Node6</title>
<path fill="none" stroke="midnightblue" d="M91.1221,-112.914C110.629,-102.981 137.675,-89.6102 162,-79 169.758,-75.6162 178.133,-72.2137 186.207,-69.0558"/>
<polygon fill="midnightblue" stroke="midnightblue" points="89.5006,-109.812 82.1967,-117.487 92.6926,-116.042 89.5006,-109.812"/>
</g>
<!-- Node7 -->
<g id="node7" class="node"><title>Node7</title>
<g id="a_node7"><a xlink:href="protos_8h.html#ad3a5a87ecb885b8cdf4782a9e220f318" target="_top" xlink:title="Prepare a message template. ">
<polygon fill="white" stroke="red" points="170,-0.5 170,-19.5 286,-19.5 286,-0.5 170,-0.5"/>
<text text-anchor="middle" x="228" y="-7.5" font-family="Helvetica,sans-Serif" font-size="10.00">mutt_prepare_template</text>
</a>
</g>
</g>
<!-- Node1&#45;&gt;Node7 -->
<g id="edge7" class="edge"><title>Node1&#45;&gt;Node7</title>
<path fill="none" stroke="midnightblue" d="M77.2385,-109.454C94.4775,-87.7784 126.616,-51.1804 162,-30 169.091,-25.7551 177.165,-22.3363 185.152,-19.6092"/>
<polygon fill="midnightblue" stroke="midnightblue" points="74.3694,-107.442 70.9921,-117.484 79.8946,-111.74 74.3694,-107.442"/>
</g>
<!-- Node2&#45;&gt;Node2 -->
<g id="edge2" class="edge"><title>Node2&#45;&gt;Node2</title>
<path fill="none" stroke="midnightblue" d="M197.311,-252.275C198.186,-257.741 208.416,-262 228,-262 257.148,-262 265.574,-252.565 253.277,-243.757"/>
<polygon fill="midnightblue" stroke="midnightblue" points="200.314,-254.075 202.723,-243.757 194.406,-250.321 200.314,-254.075"/>
</g>
</g>
</svg>
