<?xml version="1.0" encoding="UTF-8" standalone="no"?>
<!DOCTYPE svg PUBLIC "-//W3C//DTD SVG 1.1//EN"
 "http://www.w3.org/Graphics/SVG/1.1/DTD/svg11.dtd">
<!-- Generated by graphviz version 2.36.0 (20140111.2315)
 -->
<!-- Title: nntp_newsrc_close Pages: 1 -->
<svg width="516pt" height="220pt"
 viewBox="0.00 0.00 516.00 220.49" xmlns="http://www.w3.org/2000/svg" xmlns:xlink="http://www.w3.org/1999/xlink">
<g id="graph0" class="graph" transform="scale(1 1) rotate(0) translate(4 216.486)">
<title>nntp_newsrc_close</title>
<polygon fill="white" stroke="none" points="-4,4 -4,-216.486 512,-216.486 512,4 -4,4"/>
<!-- Node1 -->
<g id="node1" class="node"><title>Node1</title>
<polygon fill="#bfbfbf" stroke="black" points="0.5,-100.09 0.5,-119.09 101.5,-119.09 101.5,-100.09 0.5,-100.09"/>
<text text-anchor="middle" x="51" y="-107.09" font-family="Helvetica,sans-Serif" font-size="10.00">nntp_newsrc_close</text>
</g>
<!-- Node2 -->
<g id="node2" class="node"><title>Node2</title>
<g id="a_node2"><a xlink:href="browser_8h.html#ab036990112b8014c0b84c401e77f96d3" target="_top" xlink:title="Let the user select a file. ">
<polygon fill="white" stroke="red" points="283,-176.09 283,-195.09 369,-195.09 369,-176.09 283,-176.09"/>
<text text-anchor="middle" x="326" y="-183.09" font-family="Helvetica,sans-Serif" font-size="10.00">mutt_select_file</text>
</a>
</g>
</g>
<!-- Node1&#45;&gt;Node2 -->
<g id="edge1" class="edge"><title>Node1&#45;&gt;Node2</title>
<path fill="none" stroke="midnightblue" d="M79.089,-123.823C95.7104,-132.06 117.644,-142.057 138,-148.59 186.528,-164.164 244.342,-174.39 282.708,-180.067"/>
<polygon fill="midnightblue" stroke="midnightblue" points="80.4725,-120.601 69.9685,-119.216 77.3164,-126.849 80.4725,-120.601"/>
</g>
<!-- Node3 -->
<g id="node3" class="node"><title>Node3</title>
<g id="a_node3"><a xlink:href="nntp_8h.html#af01b74a08f129a7c8d5735a2e09d1a6f" target="_top" xlink:title="Parse .newsrc file. ">
<polygon fill="white" stroke="black" points="138.5,-100.09 138.5,-119.09 239.5,-119.09 239.5,-100.09 138.5,-100.09"/>
<text text-anchor="middle" x="189" y="-107.09" font-family="Helvetica,sans-Serif" font-size="10.00">nntp_newsrc_parse</text>
</a>
</g>
</g>
<!-- Node1&#45;&gt;Node3 -->
<g id="edge2" class="edge"><title>Node1&#45;&gt;Node3</title>
<path fill="none" stroke="midnightblue" d="M112,-109.59C120.729,-109.59 129.637,-109.59 138.137,-109.59"/>
<polygon fill="midnightblue" stroke="midnightblue" points="111.869,-106.09 101.869,-109.59 111.869,-113.09 111.869,-106.09"/>
</g>
<!-- Node4 -->
<g id="node4" class="node"><title>Node4</title>
<g id="a_node4"><a xlink:href="nntp_8h.html#ac501636e969731011da557bad742f426" target="_top" xlink:title="Open a connection to an NNTP server. ">
<polygon fill="white" stroke="red" points="276.5,-138.09 276.5,-157.09 375.5,-157.09 375.5,-138.09 276.5,-138.09"/>
<text text-anchor="middle" x="326" y="-145.09" font-family="Helvetica,sans-Serif" font-size="10.00">nntp_select_server</text>
</a>
</g>
</g>
<!-- Node1&#45;&gt;Node4 -->
<g id="edge9" class="edge"><title>Node1&#45;&gt;Node4</title>
<path fill="none" stroke="midnightblue" d="M100.716,-121.385C112.843,-124.036 125.852,-126.638 138,-128.59 184.718,-136.098 238.505,-141.196 276.367,-144.206"/>
<polygon fill="midnightblue" stroke="midnightblue" points="101.298,-117.928 90.7746,-119.16 99.7689,-124.759 101.298,-117.928"/>
</g>
<!-- Node5 -->
<g id="node5" class="node"><title>Node5</title>
<g id="a_node5"><a xlink:href="nntp_8c.html#a8937869a90d4a2a52850c1d197ff000b" target="_top" xlink:title="Implements MxOps::mbox_open() ">
<polygon fill="white" stroke="black" points="414.5,-176.09 414.5,-195.09 505.5,-195.09 505.5,-176.09 414.5,-176.09"/>
<text text-anchor="middle" x="460" y="-183.09" font-family="Helvetica,sans-Serif" font-size="10.00">nntp_mbox_open</text>
</a>
</g>
</g>
<!-- Node1&#45;&gt;Node5 -->
<g id="edge10" class="edge"><title>Node1&#45;&gt;Node5</title>
<path fill="none" stroke="midnightblue" d="M69.2919,-126.309C85.6783,-141.211 111.642,-162.482 138,-174.59 234.881,-219.096 270.059,-216.561 376,-204.59 392.452,-202.731 410.395,-198.862 425.375,-195.098"/>
<polygon fill="midnightblue" stroke="midnightblue" points="71.3456,-123.439 61.6446,-119.179 66.5722,-128.559 71.3456,-123.439"/>
</g>
<!-- Node6 -->
<g id="node6" class="node"><title>Node6</title>
<g id="a_node6"><a xlink:href="nntp_8c.html#a7e2d3f32389db957efa45387884208e4" target="_top" xlink:title="Check current newsgroup for new articles. ">
<polygon fill="white" stroke="black" points="285,-24.0901 285,-43.0901 367,-43.0901 367,-24.0901 285,-24.0901"/>
<text text-anchor="middle" x="326" y="-31.0901" font-family="Helvetica,sans-Serif" font-size="10.00">check_mailbox</text>
</a>
</g>
</g>
<!-- Node1&#45;&gt;Node6 -->
<g id="edge11" class="edge"><title>Node1&#45;&gt;Node6</title>
<path fill="none" stroke="midnightblue" d="M72.3896,-93.8865C89.0851,-81.8913 113.815,-66.0295 138,-57.5901 186.674,-40.6054 246.238,-35.4355 284.869,-33.9716"/>
<polygon fill="midnightblue" stroke="midnightblue" points="69.9635,-91.327 63.9954,-100.081 74.12,-96.9594 69.9635,-91.327"/>
</g>
<!-- Node7 -->
<g id="node7" class="node"><title>Node7</title>
<g id="a_node7"><a xlink:href="nntp_8c.html#adda91e91f0a7021e37ed03b5c74092fa" target="_top" xlink:title="Implements MxOps::mbox_check() ">
<polygon fill="white" stroke="black" points="412,-43.0901 412,-62.0901 508,-62.0901 508,-43.0901 412,-43.0901"/>
<text text-anchor="middle" x="460" y="-50.0901" font-family="Helvetica,sans-Serif" font-size="10.00">nntp_mbox_check</text>
</a>
</g>
</g>
<!-- Node1&#45;&gt;Node7 -->
<g id="edge12" class="edge"><title>Node1&#45;&gt;Node7</title>
<path fill="none" stroke="midnightblue" d="M101.093,-97.86C113.119,-95.2315 125.986,-92.6231 138,-90.5901 234.692,-74.2276 348.952,-62.497 411.74,-56.6991"/>
<polygon fill="midnightblue" stroke="midnightblue" points="100.225,-94.4675 91.2268,-100.06 101.749,-101.3 100.225,-94.4675"/>
</g>
<!-- Node8 -->
<g id="node8" class="node"><title>Node8</title>
<g id="a_node8"><a xlink:href="nntp_8c.html#a942d771cb91163cd9092aa23770840ce" target="_top" xlink:title="Implements MxOps::mbox_sync() ">
<polygon fill="white" stroke="black" points="414.5,-5.09011 414.5,-24.0901 505.5,-24.0901 505.5,-5.09011 414.5,-5.09011"/>
<text text-anchor="middle" x="460" y="-12.0901" font-family="Helvetica,sans-Serif" font-size="10.00">nntp_mbox_sync</text>
</a>
</g>
</g>
<!-- Node1&#45;&gt;Node8 -->
<g id="edge13" class="edge"><title>Node1&#45;&gt;Node8</title>
<path fill="none" stroke="midnightblue" d="M65.9666,-91.9727C81.4687,-73.7951 108.256,-46.2303 138,-32.5901 228.945,9.11579 349.909,1.24206 414.266,-7.22775"/>
<polygon fill="midnightblue" stroke="midnightblue" points="62.972,-90.1021 59.2996,-100.04 68.3679,-94.5613 62.972,-90.1021"/>
</g>
<!-- Node3&#45;&gt;Node2 -->
<g id="edge3" class="edge"><title>Node3&#45;&gt;Node2</title>
<path fill="none" stroke="midnightblue" d="M210.667,-125.128C227.622,-137.415 252.565,-154.46 276,-166.59 282.726,-170.071 290.241,-173.292 297.327,-176.056"/>
<polygon fill="midnightblue" stroke="midnightblue" points="212.711,-122.287 202.58,-119.188 208.568,-127.929 212.711,-122.287"/>
</g>
<!-- Node3&#45;&gt;Node4 -->
<g id="edge4" class="edge"><title>Node3&#45;&gt;Node4</title>
<path fill="none" stroke="midnightblue" d="M233.762,-121.908C252.311,-127.129 273.599,-133.122 290.945,-138.004"/>
<polygon fill="midnightblue" stroke="midnightblue" points="234.64,-118.52 224.066,-119.179 232.744,-125.258 234.64,-118.52"/>
</g>
<!-- Node3&#45;&gt;Node6 -->
<g id="edge6" class="edge"><title>Node3&#45;&gt;Node6</title>
<path fill="none" stroke="midnightblue" d="M216.031,-94.9353C243.163,-79.6616 284.886,-56.1729 308.041,-43.1374"/>
<polygon fill="midnightblue" stroke="midnightblue" points="214.095,-92.009 207.098,-99.9647 217.529,-98.1088 214.095,-92.009"/>
</g>
<!-- Node4&#45;&gt;Node5 -->
<g id="edge5" class="edge"><title>Node4&#45;&gt;Node5</title>
<path fill="none" stroke="midnightblue" d="M370.041,-159.981C388.118,-165.185 408.819,-171.144 425.701,-176.004"/>
<polygon fill="midnightblue" stroke="midnightblue" points="370.887,-156.582 360.309,-157.179 368.951,-163.309 370.887,-156.582"/>
</g>
<!-- Node6&#45;&gt;Node7 -->
<g id="edge7" class="edge"><title>Node6&#45;&gt;Node7</title>
<path fill="none" stroke="midnightblue" d="M377.501,-40.8592C388.828,-42.4896 400.801,-44.213 411.98,-45.822"/>
<polygon fill="midnightblue" stroke="midnightblue" points="377.718,-37.3545 367.322,-39.394 376.721,-44.2831 377.718,-37.3545"/>
</g>
<!-- Node6&#45;&gt;Node8 -->
<g id="edge8" class="edge"><title>Node6&#45;&gt;Node8</title>
<path fill="none" stroke="midnightblue" d="M377.33,-26.3457C389.502,-24.5936 402.43,-22.7328 414.322,-21.021"/>
<polygon fill="midnightblue" stroke="midnightblue" points="376.721,-22.8972 367.322,-27.7862 377.718,-29.8257 376.721,-22.8972"/>
</g>
</g>
</svg>
