<?xml version="1.0" encoding="UTF-8" standalone="no"?>
<!DOCTYPE svg PUBLIC "-//W3C//DTD SVG 1.1//EN"
 "http://www.w3.org/Graphics/SVG/1.1/DTD/svg11.dtd">
<!-- Generated by graphviz version 2.36.0 (20140111.2315)
 -->
<!-- Title: cache_expand Pages: 1 -->
<svg width="518pt" height="161pt"
 viewBox="0.00 0.00 518.00 161.24" xmlns="http://www.w3.org/2000/svg" xmlns:xlink="http://www.w3.org/1999/xlink">
<g id="graph0" class="graph" transform="scale(1 1) rotate(0) translate(4 157.244)">
<title>cache_expand</title>
<polygon fill="white" stroke="none" points="-4,4 -4,-157.244 514,-157.244 514,4 -4,4"/>
<!-- Node1 -->
<g id="node1" class="node"><title>Node1</title>
<polygon fill="#bfbfbf" stroke="black" points="0,-57.7441 0,-76.7441 80,-76.7441 80,-57.7441 0,-57.7441"/>
<text text-anchor="middle" x="40" y="-64.7441" font-family="Helvetica,sans-Serif" font-size="10.00">cache_expand</text>
</g>
<!-- Node2 -->
<g id="node2" class="node"><title>Node2</title>
<g id="a_node2"><a xlink:href="newsrc_8c.html#a152a246cbcf342491f29698d1fec77c3" target="_top" xlink:title="Load list of all newsgroups from cache. ">
<polygon fill="white" stroke="black" points="280.5,-133.744 280.5,-152.744 373.5,-152.744 373.5,-133.744 280.5,-133.744"/>
<text text-anchor="middle" x="327" y="-140.744" font-family="Helvetica,sans-Serif" font-size="10.00">active_get_cache</text>
</a>
</g>
</g>
<!-- Node1&#45;&gt;Node2 -->
<g id="edge1" class="edge"><title>Node1&#45;&gt;Node2</title>
<path fill="none" stroke="midnightblue" d="M58.8119,-83.4175C73.1605,-95.4455 94.4314,-111.125 116,-119.244 169.919,-139.54 236.687,-143.969 280.264,-144.358"/>
<polygon fill="midnightblue" stroke="midnightblue" points="61.0658,-80.7394 51.2136,-76.8425 56.4852,-86.0327 61.0658,-80.7394"/>
</g>
<!-- Node3 -->
<g id="node3" class="node"><title>Node3</title>
<g id="a_node3"><a xlink:href="nntp_8h.html#ac501636e969731011da557bad742f426" target="_top" xlink:title="Open a connection to an NNTP server. ">
<polygon fill="white" stroke="red" points="410.5,-95.7441 410.5,-114.744 509.5,-114.744 509.5,-95.7441 410.5,-95.7441"/>
<text text-anchor="middle" x="460" y="-102.744" font-family="Helvetica,sans-Serif" font-size="10.00">nntp_select_server</text>
</a>
</g>
</g>
<!-- Node1&#45;&gt;Node3 -->
<g id="edge8" class="edge"><title>Node1&#45;&gt;Node3</title>
<path fill="none" stroke="midnightblue" d="M82.8163,-79.353C93.5486,-82.0414 105.133,-84.5826 116,-86.2441 220.055,-102.154 343.672,-105.157 410.414,-105.488"/>
<polygon fill="midnightblue" stroke="midnightblue" points="83.3983,-75.8878 72.8389,-76.7541 81.6338,-82.6618 83.3983,-75.8878"/>
</g>
<!-- Node4 -->
<g id="node4" class="node"><title>Node4</title>
<g id="a_node4"><a xlink:href="nntp__private_8h.html#a5b96613c43f16181b7dfd4ed56fe8018" target="_top" xlink:title="Save list of all newsgroups to cache. ">
<polygon fill="white" stroke="red" points="117.5,-57.7441 117.5,-76.7441 242.5,-76.7441 242.5,-57.7441 117.5,-57.7441"/>
<text text-anchor="middle" x="180" y="-64.7441" font-family="Helvetica,sans-Serif" font-size="10.00">nntp_active_save_cache</text>
</a>
</g>
</g>
<!-- Node1&#45;&gt;Node4 -->
<g id="edge3" class="edge"><title>Node1&#45;&gt;Node4</title>
<path fill="none" stroke="midnightblue" d="M90.215,-67.2441C98.9811,-67.2441 108.213,-67.2441 117.275,-67.2441"/>
<polygon fill="midnightblue" stroke="midnightblue" points="90.1762,-63.7442 80.1761,-67.2441 90.1761,-70.7442 90.1762,-63.7442"/>
</g>
<!-- Node5 -->
<g id="node5" class="node"><title>Node5</title>
<g id="a_node5"><a xlink:href="nntp__private_8h.html#a82191bedc739c0685de995b1914a4e7c" target="_top" xlink:title="Remove hcache and bcache of newsgroup. ">
<polygon fill="white" stroke="red" points="116,-19.7441 116,-38.7441 244,-38.7441 244,-19.7441 116,-19.7441"/>
<text text-anchor="middle" x="180" y="-26.7441" font-family="Helvetica,sans-Serif" font-size="10.00">nntp_delete_group_cache</text>
</a>
</g>
</g>
<!-- Node1&#45;&gt;Node5 -->
<g id="edge4" class="edge"><title>Node1&#45;&gt;Node5</title>
<path fill="none" stroke="midnightblue" d="M85.473,-54.998C104.495,-49.7601 126.375,-43.7351 144.188,-38.8301"/>
<polygon fill="midnightblue" stroke="midnightblue" points="84.5352,-51.6259 75.8232,-57.6551 86.3936,-58.3747 84.5352,-51.6259"/>
</g>
<!-- Node6 -->
<g id="node6" class="node"><title>Node6</title>
<g id="a_node6"><a xlink:href="nntp_8h.html#a167383bca3da7478eb4bd9473c560861" target="_top" xlink:title="Clear the NNTP cache. ">
<polygon fill="white" stroke="red" points="280.5,-19.7441 280.5,-38.7441 373.5,-38.7441 373.5,-19.7441 280.5,-19.7441"/>
<text text-anchor="middle" x="327" y="-26.7441" font-family="Helvetica,sans-Serif" font-size="10.00">nntp_clear_cache</text>
</a>
</g>
</g>
<!-- Node1&#45;&gt;Node6 -->
<g id="edge7" class="edge"><title>Node1&#45;&gt;Node6</title>
<path fill="none" stroke="midnightblue" d="M56.8385,-50.1764C70.8626,-36.4132 92.6793,-18.1003 116,-10.2441 178.445,10.792 256.897,-7.14722 297.975,-19.6527"/>
<polygon fill="midnightblue" stroke="midnightblue" points="54.025,-48.047 49.5293,-57.6408 59.0265,-52.9445 54.025,-48.047"/>
</g>
<!-- Node2&#45;&gt;Node3 -->
<g id="edge2" class="edge"><title>Node2&#45;&gt;Node3</title>
<path fill="none" stroke="midnightblue" d="M370.715,-130.854C388.655,-125.65 409.2,-119.69 425.954,-114.83"/>
<polygon fill="midnightblue" stroke="midnightblue" points="369.686,-127.508 361.057,-133.655 371.636,-134.231 369.686,-127.508"/>
</g>
<!-- Node5&#45;&gt;Node6 -->
<g id="edge5" class="edge"><title>Node5&#45;&gt;Node6</title>
<path fill="none" stroke="midnightblue" d="M254.245,-29.2441C263.183,-29.2441 272.105,-29.2441 280.469,-29.2441"/>
<polygon fill="midnightblue" stroke="midnightblue" points="254.177,-25.7442 244.177,-29.2441 254.177,-32.7442 254.177,-25.7442"/>
</g>
<!-- Node6&#45;&gt;Node3 -->
<g id="edge6" class="edge"><title>Node6&#45;&gt;Node3</title>
<path fill="none" stroke="midnightblue" d="M353.26,-43.8989C379.587,-59.1727 420.074,-82.6614 442.543,-95.6969"/>
<polygon fill="midnightblue" stroke="midnightblue" points="354.997,-40.8604 344.591,-38.8696 351.485,-46.9152 354.997,-40.8604"/>
</g>
</g>
</svg>
