<?xml version="1.0" encoding="UTF-8" standalone="no"?>
<!DOCTYPE svg PUBLIC "-//W3C//DTD SVG 1.1//EN"
 "http://www.w3.org/Graphics/SVG/1.1/DTD/svg11.dtd">
<!-- Generated by graphviz version 2.36.0 (20140111.2315)
 -->
<!-- Title: nntp_delete_group_cache Pages: 1 -->
<svg width="266pt" height="104pt"
 viewBox="0.00 0.00 266.00 104.00" xmlns="http://www.w3.org/2000/svg" xmlns:xlink="http://www.w3.org/1999/xlink">
<g id="graph0" class="graph" transform="scale(1 1) rotate(0) translate(4 100)">
<title>nntp_delete_group_cache</title>
<polygon fill="white" stroke="none" points="-4,4 -4,-100 262,-100 262,4 -4,4"/>
<!-- Node1 -->
<g id="node1" class="node"><title>Node1</title>
<polygon fill="#bfbfbf" stroke="black" points="0,-38.5 0,-57.5 128,-57.5 128,-38.5 0,-38.5"/>
<text text-anchor="middle" x="64" y="-45.5" font-family="Helvetica,sans-Serif" font-size="10.00">nntp_delete_group_cache</text>
</g>
<!-- Node2 -->
<g id="node2" class="node"><title>Node2</title>
<g id="a_node2"><a xlink:href="nntp_8h.html#a167383bca3da7478eb4bd9473c560861" target="_top" xlink:title="Clear the NNTP cache. ">
<polygon fill="white" stroke="red" points="164.5,-76.5 164.5,-95.5 257.5,-95.5 257.5,-76.5 164.5,-76.5"/>
<text text-anchor="middle" x="211" y="-83.5" font-family="Helvetica,sans-Serif" font-size="10.00">nntp_clear_cache</text>
</a>
</g>
</g>
<!-- Node1&#45;&gt;Node2 -->
<g id="edge1" class="edge"><title>Node1&#45;&gt;Node2</title>
<path fill="none" stroke="midnightblue" d="M111.493,-60.1843C131.624,-65.46 154.838,-71.5438 173.673,-76.4799"/>
<polygon fill="midnightblue" stroke="midnightblue" points="112.15,-56.7385 101.59,-57.589 110.376,-63.5098 112.15,-56.7385"/>
</g>
<!-- Node3 -->
<g id="node3" class="node"><title>Node3</title>
<g id="a_node3"><a xlink:href="nntp_8c.html#a8937869a90d4a2a52850c1d197ff000b" target="_top" xlink:title="Implements MxOps::mbox_open() ">
<polygon fill="white" stroke="black" points="165.5,-38.5 165.5,-57.5 256.5,-57.5 256.5,-38.5 165.5,-38.5"/>
<text text-anchor="middle" x="211" y="-45.5" font-family="Helvetica,sans-Serif" font-size="10.00">nntp_mbox_open</text>
</a>
</g>
</g>
<!-- Node1&#45;&gt;Node3 -->
<g id="edge2" class="edge"><title>Node1&#45;&gt;Node3</title>
<path fill="none" stroke="midnightblue" d="M138.202,-48C147.462,-48 156.706,-48 165.331,-48"/>
<polygon fill="midnightblue" stroke="midnightblue" points="138.177,-44.5001 128.177,-48 138.177,-51.5001 138.177,-44.5001"/>
</g>
<!-- Node4 -->
<g id="node4" class="node"><title>Node4</title>
<g id="a_node4"><a xlink:href="nntp_8h.html#a04bc6b58270f4fdd630672c692bf0ba6" target="_top" xlink:title="Fetch list of all newsgroups from server. ">
<polygon fill="white" stroke="red" points="164,-0.5 164,-19.5 258,-19.5 258,-0.5 164,-0.5"/>
<text text-anchor="middle" x="211" y="-7.5" font-family="Helvetica,sans-Serif" font-size="10.00">nntp_active_fetch</text>
</a>
</g>
</g>
<!-- Node1&#45;&gt;Node4 -->
<g id="edge3" class="edge"><title>Node1&#45;&gt;Node4</title>
<path fill="none" stroke="midnightblue" d="M111.493,-35.8157C131.624,-30.54 154.838,-24.4562 173.673,-19.5201"/>
<polygon fill="midnightblue" stroke="midnightblue" points="110.376,-32.4902 101.59,-38.411 112.15,-39.2615 110.376,-32.4902"/>
</g>
</g>
</svg>
