<?xml version="1.0" encoding="UTF-8" standalone="no"?>
<!DOCTYPE svg PUBLIC "-//W3C//DTD SVG 1.1//EN"
 "http://www.w3.org/Graphics/SVG/1.1/DTD/svg11.dtd">
<!-- Generated by graphviz version 2.36.0 (20140111.2315)
 -->
<!-- Title: nntp_acache_free Pages: 1 -->
<svg width="350pt" height="47pt"
 viewBox="0.00 0.00 350.00 47.00" xmlns="http://www.w3.org/2000/svg" xmlns:xlink="http://www.w3.org/1999/xlink">
<g id="graph0" class="graph" transform="scale(1 1) rotate(0) translate(4 43)">
<title>nntp_acache_free</title>
<polygon fill="white" stroke="none" points="-4,4 -4,-43 346,-43 346,4 -4,4"/>
<!-- Node1 -->
<g id="node1" class="node"><title>Node1</title>
<polygon fill="#bfbfbf" stroke="black" points="0,-0.5 0,-19.5 94,-19.5 94,-0.5 0,-0.5"/>
<text text-anchor="middle" x="47" y="-7.5" font-family="Helvetica,sans-Serif" font-size="10.00">nntp_acache_free</text>
</g>
<!-- Node2 -->
<g id="node2" class="node"><title>Node2</title>
<g id="a_node2"><a xlink:href="nntp__private_8h.html#ac6f4ccee68fe9c806a1cef452a580e1f" target="_top" xlink:title="Free NntpData, used to destroy hash elements. ">
<polygon fill="white" stroke="red" points="130.5,-19.5 130.5,-38.5 211.5,-38.5 211.5,-19.5 130.5,-19.5"/>
<text text-anchor="middle" x="171" y="-26.5" font-family="Helvetica,sans-Serif" font-size="10.00">nntp_data_free</text>
</a>
</g>
</g>
<!-- Node1&#45;&gt;Node2 -->
<g id="edge1" class="edge"><title>Node1&#45;&gt;Node2</title>
<path fill="none" stroke="midnightblue" d="M104.005,-18.722C112.846,-20.0989 121.827,-21.4977 130.2,-22.8017"/>
<polygon fill="midnightblue" stroke="midnightblue" points="104.542,-15.2637 94.123,-17.1831 103.465,-22.1803 104.542,-15.2637"/>
</g>
<!-- Node3 -->
<g id="node3" class="node"><title>Node3</title>
<g id="a_node3"><a xlink:href="nntp_8c.html#a1daf3d48233f1ef520eec76fc061baf7" target="_top" xlink:title="Implements MxOps::mbox_close() ">
<polygon fill="white" stroke="black" points="248.5,-0.5 248.5,-19.5 341.5,-19.5 341.5,-0.5 248.5,-0.5"/>
<text text-anchor="middle" x="295" y="-7.5" font-family="Helvetica,sans-Serif" font-size="10.00">nntp_mbox_close</text>
</a>
</g>
</g>
<!-- Node1&#45;&gt;Node3 -->
<g id="edge3" class="edge"><title>Node1&#45;&gt;Node3</title>
<path fill="none" stroke="midnightblue" d="M104.439,-10C148.073,-10 207.7,-10 248.353,-10"/>
<polygon fill="midnightblue" stroke="midnightblue" points="104.271,-6.5001 94.2707,-10 104.271,-13.5001 104.271,-6.5001"/>
</g>
<!-- Node2&#45;&gt;Node3 -->
<g id="edge2" class="edge"><title>Node2&#45;&gt;Node3</title>
<path fill="none" stroke="midnightblue" d="M221.712,-21.258C230.482,-19.8922 239.574,-18.4761 248.23,-17.1281"/>
<polygon fill="midnightblue" stroke="midnightblue" points="220.952,-17.834 211.61,-22.8312 222.029,-24.7506 220.952,-17.834"/>
</g>
</g>
</svg>
