<?xml version="1.0" encoding="UTF-8" standalone="no"?>
<!DOCTYPE svg PUBLIC "-//W3C//DTD SVG 1.1//EN"
 "http://www.w3.org/Graphics/SVG/1.1/DTD/svg11.dtd">
<!-- Generated by graphviz version 2.36.0 (20140111.2315)
 -->
<!-- Title: nntp_select_server Pages: 1 -->
<svg width="384pt" height="162pt"
 viewBox="0.00 0.00 384.00 162.17" xmlns="http://www.w3.org/2000/svg" xmlns:xlink="http://www.w3.org/1999/xlink">
<g id="graph0" class="graph" transform="scale(1 1) rotate(0) translate(4 158.167)">
<title>nntp_select_server</title>
<polygon fill="white" stroke="none" points="-4,4 -4,-158.167 380,-158.167 380,4 -4,4"/>
<!-- Node1 -->
<g id="node1" class="node"><title>Node1</title>
<polygon fill="#bfbfbf" stroke="black" points="0.5,-76.5 0.5,-95.5 99.5,-95.5 99.5,-76.5 0.5,-76.5"/>
<text text-anchor="middle" x="50" y="-83.5" font-family="Helvetica,sans-Serif" font-size="10.00">nntp_select_server</text>
</g>
<!-- Node2 -->
<g id="node2" class="node"><title>Node2</title>
<g id="a_node2"><a xlink:href="compose_8h.html#ad69c04d8ece089edb91f7b1178c2262c" target="_top" xlink:title="Allow the user to edit the message envelope. ">
<polygon fill="white" stroke="red" points="266,-133.5 266,-152.5 376,-152.5 376,-133.5 266,-133.5"/>
<text text-anchor="middle" x="321" y="-140.5" font-family="Helvetica,sans-Serif" font-size="10.00">mutt_compose_menu</text>
</a>
</g>
</g>
<!-- Node1&#45;&gt;Node2 -->
<g id="edge1" class="edge"><title>Node1&#45;&gt;Node2</title>
<path fill="none" stroke="midnightblue" d="M68.4879,-102.337C84.6177,-116.203 109.945,-135.072 136,-143 178.174,-155.832 228.348,-154.829 265.641,-151.179"/>
<polygon fill="midnightblue" stroke="midnightblue" points="70.7363,-99.6531 60.9363,-95.6268 66.0865,-104.886 70.7363,-99.6531"/>
</g>
<!-- Node3 -->
<g id="node3" class="node"><title>Node3</title>
<g id="a_node3"><a xlink:href="curs__main_8h.html#af7d9d8649ad205788c9af1bbf871207f" target="_top" xlink:title="Display a list of emails. ">
<polygon fill="white" stroke="black" points="136,-114.5 136,-133.5 230,-133.5 230,-114.5 136,-114.5"/>
<text text-anchor="middle" x="183" y="-121.5" font-family="Helvetica,sans-Serif" font-size="10.00">mutt_index_menu</text>
</a>
</g>
</g>
<!-- Node1&#45;&gt;Node3 -->
<g id="edge2" class="edge"><title>Node1&#45;&gt;Node3</title>
<path fill="none" stroke="midnightblue" d="M93.7148,-98.3906C111.655,-103.594 132.2,-109.554 148.954,-114.414"/>
<polygon fill="midnightblue" stroke="midnightblue" points="94.636,-95.0136 84.0568,-95.589 92.6858,-101.736 94.636,-95.0136"/>
</g>
<!-- Node4 -->
<g id="node4" class="node"><title>Node4</title>
<g id="a_node4"><a xlink:href="main_8c.html#adedb285b02c41bde2158ded9cc9fd7ac" target="_top" xlink:title="Start NeoMutt. ">
<polygon fill="white" stroke="black" points="302,-86.5 302,-105.5 340,-105.5 340,-86.5 302,-86.5"/>
<text text-anchor="middle" x="321" y="-93.5" font-family="Helvetica,sans-Serif" font-size="10.00">main</text>
</a>
</g>
</g>
<!-- Node1&#45;&gt;Node4 -->
<g id="edge5" class="edge"><title>Node1&#45;&gt;Node4</title>
<path fill="none" stroke="midnightblue" d="M110.017,-88.194C171.265,-90.4708 263.396,-93.8958 301.989,-95.3304"/>
<polygon fill="midnightblue" stroke="midnightblue" points="109.837,-84.6849 99.7139,-87.8109 109.577,-91.6801 109.837,-84.6849"/>
</g>
<!-- Node5 -->
<g id="node5" class="node"><title>Node5</title>
<g id="a_node5"><a xlink:href="nntp_8c.html#a8937869a90d4a2a52850c1d197ff000b" target="_top" xlink:title="Implements MxOps::mbox_open() ">
<polygon fill="white" stroke="black" points="137.5,-38.5 137.5,-57.5 228.5,-57.5 228.5,-38.5 137.5,-38.5"/>
<text text-anchor="middle" x="183" y="-45.5" font-family="Helvetica,sans-Serif" font-size="10.00">nntp_mbox_open</text>
</a>
</g>
</g>
<!-- Node1&#45;&gt;Node5 -->
<g id="edge6" class="edge"><title>Node1&#45;&gt;Node5</title>
<path fill="none" stroke="midnightblue" d="M93.7148,-73.6094C111.655,-68.4055 132.2,-62.4459 148.954,-57.5859"/>
<polygon fill="midnightblue" stroke="midnightblue" points="92.6858,-70.2636 84.0568,-76.411 94.636,-76.9864 92.6858,-70.2636"/>
</g>
<!-- Node6 -->
<g id="node6" class="node"><title>Node6</title>
<g id="a_node6"><a xlink:href="nntp_8h.html#abe053ff2eae1047d92b96054b41bfbdc" target="_top" xlink:title="Post article. ">
<polygon fill="white" stroke="red" points="153.5,-0.5 153.5,-19.5 212.5,-19.5 212.5,-0.5 153.5,-0.5"/>
<text text-anchor="middle" x="183" y="-7.5" font-family="Helvetica,sans-Serif" font-size="10.00">nntp_post</text>
</a>
</g>
</g>
<!-- Node1&#45;&gt;Node6 -->
<g id="edge7" class="edge"><title>Node1&#45;&gt;Node6</title>
<path fill="none" stroke="midnightblue" d="M71.9353,-70.2418C88.7065,-58.0478 113.131,-41.2335 136,-29 142.4,-25.5765 149.552,-22.354 156.275,-19.5692"/>
<polygon fill="midnightblue" stroke="midnightblue" points="69.4393,-67.7333 63.4639,-76.4824 73.5911,-73.3692 69.4393,-67.7333"/>
</g>
<!-- Node3&#45;&gt;Node2 -->
<g id="edge3" class="edge"><title>Node3&#45;&gt;Node2</title>
<path fill="none" stroke="midnightblue" d="M240.129,-131.842C248.528,-133.015 257.177,-134.223 265.541,-135.392"/>
<polygon fill="midnightblue" stroke="midnightblue" points="240.432,-128.35 230.043,-130.433 239.463,-135.283 240.432,-128.35"/>
</g>
<!-- Node3&#45;&gt;Node4 -->
<g id="edge4" class="edge"><title>Node3&#45;&gt;Node4</title>
<path fill="none" stroke="midnightblue" d="M240.062,-112.458C262.21,-107.898 286.103,-102.979 301.94,-99.7182"/>
<polygon fill="midnightblue" stroke="midnightblue" points="239.132,-109.076 230.043,-114.52 240.544,-115.932 239.132,-109.076"/>
</g>
</g>
</svg>
