<?xml version="1.0" encoding="UTF-8" standalone="no"?>
<!DOCTYPE svg PUBLIC "-//W3C//DTD SVG 1.1//EN"
 "http://www.w3.org/Graphics/SVG/1.1/DTD/svg11.dtd">
<!-- Generated by graphviz version 2.36.0 (20140111.2315)
 -->
<!-- Title: nntp_add_group Pages: 1 -->
<svg width="252pt" height="104pt"
 viewBox="0.00 0.00 252.00 104.00" xmlns="http://www.w3.org/2000/svg" xmlns:xlink="http://www.w3.org/1999/xlink">
<g id="graph0" class="graph" transform="scale(1 1) rotate(0) translate(4 100)">
<title>nntp_add_group</title>
<polygon fill="white" stroke="none" points="-4,4 -4,-100 248,-100 248,4 -4,4"/>
<!-- Node1 -->
<g id="node1" class="node"><title>Node1</title>
<polygon fill="#bfbfbf" stroke="black" points="0,-38.5 0,-57.5 86,-57.5 86,-38.5 0,-38.5"/>
<text text-anchor="middle" x="43" y="-45.5" font-family="Helvetica,sans-Serif" font-size="10.00">nntp_add_group</text>
</g>
<!-- Node2 -->
<g id="node2" class="node"><title>Node2</title>
<g id="a_node2"><a xlink:href="newsrc_8c.html#a9ff734411119d14d1d534f760c744f8f" target="_top" xlink:title="Find NntpData for given newsgroup or add it. ">
<polygon fill="white" stroke="red" points="143,-76.5 143,-95.5 223,-95.5 223,-76.5 143,-76.5"/>
<text text-anchor="middle" x="183" y="-83.5" font-family="Helvetica,sans-Serif" font-size="10.00">nntp_data_find</text>
</a>
</g>
</g>
<!-- Node1&#45;&gt;Node2 -->
<g id="edge1" class="edge"><title>Node1&#45;&gt;Node2</title>
<path fill="none" stroke="midnightblue" d="M78.8232,-57.589C96.6377,-62.4944 118.518,-68.5196 137.539,-73.7571"/>
<polygon fill="midnightblue" stroke="midnightblue" points="136.618,-77.1336 147.188,-76.4141 138.476,-70.3848 136.618,-77.1336"/>
</g>
<!-- Node3 -->
<g id="node3" class="node"><title>Node3</title>
<g id="a_node3"><a xlink:href="mutt_2string_8c.html#ad5b66f8059a202f7bfa5fc4fa3047c67" target="_top" xlink:title="Replace one string with another. ">
<polygon fill="white" stroke="red" points="138.5,-38.5 138.5,-57.5 227.5,-57.5 227.5,-38.5 138.5,-38.5"/>
<text text-anchor="middle" x="183" y="-45.5" font-family="Helvetica,sans-Serif" font-size="10.00">mutt_str_replace</text>
</a>
</g>
</g>
<!-- Node1&#45;&gt;Node3 -->
<g id="edge2" class="edge"><title>Node1&#45;&gt;Node3</title>
<path fill="none" stroke="midnightblue" d="M86.1544,-48C99.2924,-48 113.969,-48 127.811,-48"/>
<polygon fill="midnightblue" stroke="midnightblue" points="128.194,-51.5001 138.194,-48 128.194,-44.5001 128.194,-51.5001"/>
</g>
<!-- Node4 -->
<g id="node4" class="node"><title>Node4</title>
<g id="a_node4"><a xlink:href="newsrc_8c.html#aaf40cb308522ba644def1a4ac59935b0" target="_top" xlink:title="Count number of unread articles using .newsrc data. ">
<polygon fill="white" stroke="black" points="122.5,-0.5 122.5,-19.5 243.5,-19.5 243.5,-0.5 122.5,-0.5"/>
<text text-anchor="middle" x="183" y="-7.5" font-family="Helvetica,sans-Serif" font-size="10.00">nntp_group_unread_stat</text>
</a>
</g>
</g>
<!-- Node1&#45;&gt;Node4 -->
<g id="edge3" class="edge"><title>Node1&#45;&gt;Node4</title>
<path fill="none" stroke="midnightblue" d="M78.8232,-38.411C96.6377,-33.5056 118.518,-27.4804 137.539,-22.2429"/>
<polygon fill="midnightblue" stroke="midnightblue" points="138.476,-25.6152 147.188,-19.5859 136.618,-18.8664 138.476,-25.6152"/>
</g>
</g>
</svg>
