<?xml version="1.0" encoding="UTF-8" standalone="no"?>
<!DOCTYPE svg PUBLIC "-//W3C//DTD SVG 1.1//EN"
 "http://www.w3.org/Graphics/SVG/1.1/DTD/svg11.dtd">
<!-- Generated by graphviz version 2.36.0 (20140111.2315)
 -->
<!-- Title: nntp_expand_path Pages: 1 -->
<svg width="240pt" height="104pt"
 viewBox="0.00 0.00 240.00 104.00" xmlns="http://www.w3.org/2000/svg" xmlns:xlink="http://www.w3.org/1999/xlink">
<g id="graph0" class="graph" transform="scale(1 1) rotate(0) translate(4 100)">
<title>nntp_expand_path</title>
<polygon fill="white" stroke="none" points="-4,4 -4,-100 236,-100 236,4 -4,4"/>
<!-- Node1 -->
<g id="node1" class="node"><title>Node1</title>
<polygon fill="#bfbfbf" stroke="black" points="0,-38.5 0,-57.5 96,-57.5 96,-38.5 0,-38.5"/>
<text text-anchor="middle" x="48" y="-45.5" font-family="Helvetica,sans-Serif" font-size="10.00">nntp_expand_path</text>
</g>
<!-- Node2 -->
<g id="node2" class="node"><title>Node2</title>
<g id="a_node2"><a xlink:href="mutt__account_8c.html#a7853b8b5072b04320ad7a356a54c4e8e" target="_top" xlink:title="Fill URL with info from account. ">
<polygon fill="white" stroke="black" points="132,-76.5 132,-95.5 232,-95.5 232,-76.5 132,-76.5"/>
<text text-anchor="middle" x="182" y="-83.5" font-family="Helvetica,sans-Serif" font-size="10.00">mutt_account_tourl</text>
</a>
</g>
</g>
<!-- Node1&#45;&gt;Node2 -->
<g id="edge1" class="edge"><title>Node1&#45;&gt;Node2</title>
<path fill="none" stroke="midnightblue" d="M82.3092,-57.589C99.1928,-62.4494 119.895,-68.4091 137.971,-73.6127"/>
<polygon fill="midnightblue" stroke="midnightblue" points="137.123,-77.011 147.701,-76.4141 139.06,-70.2842 137.123,-77.011"/>
</g>
<!-- Node3 -->
<g id="node3" class="node"><title>Node3</title>
<g id="a_node3"><a xlink:href="mutt_2string_8c.html#ae48085384a6545e0fac589a88243ea31" target="_top" xlink:title="Copy a string, safely. ">
<polygon fill="white" stroke="red" points="139.5,-38.5 139.5,-57.5 224.5,-57.5 224.5,-38.5 139.5,-38.5"/>
<text text-anchor="middle" x="182" y="-45.5" font-family="Helvetica,sans-Serif" font-size="10.00">mutt_str_strdup</text>
</a>
</g>
</g>
<!-- Node1&#45;&gt;Node3 -->
<g id="edge2" class="edge"><title>Node1&#45;&gt;Node3</title>
<path fill="none" stroke="midnightblue" d="M96.2822,-48C106.934,-48 118.294,-48 129.123,-48"/>
<polygon fill="midnightblue" stroke="midnightblue" points="129.301,-51.5001 139.301,-48 129.301,-44.5001 129.301,-51.5001"/>
</g>
<!-- Node4 -->
<g id="node4" class="node"><title>Node4</title>
<g id="a_node4"><a xlink:href="url_8c.html#a9a25aab1cc9763713277d2282c31af79" target="_top" xlink:title="Output the URL string for a given Url object. ">
<polygon fill="white" stroke="red" points="149.5,-0.5 149.5,-19.5 214.5,-19.5 214.5,-0.5 149.5,-0.5"/>
<text text-anchor="middle" x="182" y="-7.5" font-family="Helvetica,sans-Serif" font-size="10.00">url_tostring</text>
</a>
</g>
</g>
<!-- Node1&#45;&gt;Node4 -->
<g id="edge3" class="edge"><title>Node1&#45;&gt;Node4</title>
<path fill="none" stroke="midnightblue" d="M82.3092,-38.411C99.5794,-33.4393 120.845,-27.3173 139.208,-22.031"/>
<polygon fill="midnightblue" stroke="midnightblue" points="140.426,-25.3226 149.068,-19.1927 138.49,-18.5958 140.426,-25.3226"/>
</g>
</g>
</svg>
