<?xml version="1.0" encoding="UTF-8" standalone="no"?>
<!DOCTYPE svg PUBLIC "-//W3C//DTD SVG 1.1//EN"
 "http://www.w3.org/Graphics/SVG/1.1/DTD/svg11.dtd">
<!-- Generated by graphviz version 2.36.0 (20140111.2315)
 -->
<!-- Title: cache_expand Pages: 1 -->
<svg width="348pt" height="180pt"
 viewBox="0.00 0.00 348.00 180.00" xmlns="http://www.w3.org/2000/svg" xmlns:xlink="http://www.w3.org/1999/xlink">
<g id="graph0" class="graph" transform="scale(1 1) rotate(0) translate(4 176)">
<title>cache_expand</title>
<polygon fill="white" stroke="none" points="-4,4 -4,-176 344,-176 344,4 -4,4"/>
<!-- Node1 -->
<g id="node1" class="node"><title>Node1</title>
<polygon fill="#bfbfbf" stroke="black" points="0,-76.5 0,-95.5 80,-95.5 80,-76.5 0,-76.5"/>
<text text-anchor="middle" x="40" y="-83.5" font-family="Helvetica,sans-Serif" font-size="10.00">cache_expand</text>
</g>
<!-- Node2 -->
<g id="node2" class="node"><title>Node2</title>
<g id="a_node2"><a xlink:href="mutt__account_8c.html#a7853b8b5072b04320ad7a356a54c4e8e" target="_top" xlink:title="Fill URL with info from account. ">
<polygon fill="white" stroke="black" points="116,-152.5 116,-171.5 216,-171.5 216,-152.5 116,-152.5"/>
<text text-anchor="middle" x="166" y="-159.5" font-family="Helvetica,sans-Serif" font-size="10.00">mutt_account_tourl</text>
</a>
</g>
</g>
<!-- Node1&#45;&gt;Node2 -->
<g id="edge1" class="edge"><title>Node1&#45;&gt;Node2</title>
<path fill="none" stroke="midnightblue" d="M51.5105,-95.523C65.4406,-107.77 91.1629,-129.111 116,-143 119.484,-144.948 123.208,-146.786 126.989,-148.493"/>
<polygon fill="midnightblue" stroke="midnightblue" points="125.824,-151.8 136.398,-152.458 128.543,-145.349 125.824,-151.8"/>
</g>
<!-- Node3 -->
<g id="node3" class="node"><title>Node3</title>
<g id="a_node3"><a xlink:href="url_8c.html#a9a25aab1cc9763713277d2282c31af79" target="_top" xlink:title="Output the URL string for a given Url object. ">
<polygon fill="white" stroke="red" points="133.5,-114.5 133.5,-133.5 198.5,-133.5 198.5,-114.5 133.5,-114.5"/>
<text text-anchor="middle" x="166" y="-121.5" font-family="Helvetica,sans-Serif" font-size="10.00">url_tostring</text>
</a>
</g>
</g>
<!-- Node1&#45;&gt;Node3 -->
<g id="edge2" class="edge"><title>Node1&#45;&gt;Node3</title>
<path fill="none" stroke="midnightblue" d="M72.2904,-95.589C88.0039,-100.404 107.238,-106.299 124.106,-111.468"/>
<polygon fill="midnightblue" stroke="midnightblue" points="123.133,-114.83 133.72,-114.414 125.184,-108.138 123.133,-114.83"/>
</g>
<!-- Node4 -->
<g id="node4" class="node"><title>Node4</title>
<g id="a_node4"><a xlink:href="mutt_2string_8c.html#a3b8965b21d6e21536750f8883cd4333a" target="_top" xlink:title="Copy a string into a buffer (guaranteeing NUL&#45;termination) ">
<polygon fill="white" stroke="black" points="252,-38.5 252,-57.5 340,-57.5 340,-38.5 252,-38.5"/>
<text text-anchor="middle" x="296" y="-45.5" font-family="Helvetica,sans-Serif" font-size="10.00">mutt_str_strfcpy</text>
</a>
</g>
</g>
<!-- Node1&#45;&gt;Node4 -->
<g id="edge3" class="edge"><title>Node1&#45;&gt;Node4</title>
<path fill="none" stroke="midnightblue" d="M80.1234,-83.1929C115.722,-80.2977 169.632,-75.059 216,-67 226.96,-65.0951 238.664,-62.5609 249.614,-59.9658"/>
<polygon fill="midnightblue" stroke="midnightblue" points="250.525,-63.3462 259.414,-57.5817 248.871,-56.5445 250.525,-63.3462"/>
</g>
<!-- Node5 -->
<g id="node5" class="node"><title>Node5</title>
<g id="a_node5"><a xlink:href="muttlib_8c.html#a483f037de523c624d449b4296a3ddfb2" target="_top" xlink:title="Create the canonical path. ">
<polygon fill="white" stroke="red" points="117.5,-38.5 117.5,-57.5 214.5,-57.5 214.5,-38.5 117.5,-38.5"/>
<text text-anchor="middle" x="166" y="-45.5" font-family="Helvetica,sans-Serif" font-size="10.00">mutt_expand_path</text>
</a>
</g>
</g>
<!-- Node1&#45;&gt;Node5 -->
<g id="edge4" class="edge"><title>Node1&#45;&gt;Node5</title>
<path fill="none" stroke="midnightblue" d="M72.2904,-76.411C88.0039,-71.5956 107.238,-65.7012 124.106,-60.532"/>
<polygon fill="midnightblue" stroke="midnightblue" points="125.184,-63.8624 133.72,-57.5859 123.133,-57.1696 125.184,-63.8624"/>
</g>
<!-- Node6 -->
<g id="node6" class="node"><title>Node6</title>
<g id="a_node6"><a xlink:href="muttlib_8c.html#a6d6b8369baad5aaa03c4be5c4f2fefa3" target="_top" xlink:title="Convert a path into the user&#39;s preferred character set. ">
<polygon fill="white" stroke="red" points="117.5,-0.5 117.5,-19.5 214.5,-19.5 214.5,-0.5 117.5,-0.5"/>
<text text-anchor="middle" x="166" y="-7.5" font-family="Helvetica,sans-Serif" font-size="10.00">mutt_encode_path</text>
</a>
</g>
</g>
<!-- Node1&#45;&gt;Node6 -->
<g id="edge5" class="edge"><title>Node1&#45;&gt;Node6</title>
<path fill="none" stroke="midnightblue" d="M51.5105,-76.477C65.4406,-64.2303 91.1629,-42.8892 116,-29 119.484,-27.0517 123.208,-25.2144 126.989,-23.5071"/>
<polygon fill="midnightblue" stroke="midnightblue" points="128.543,-26.6505 136.398,-19.5416 125.824,-20.2 128.543,-26.6505"/>
</g>
<!-- Node6&#45;&gt;Node4 -->
<g id="edge6" class="edge"><title>Node6&#45;&gt;Node4</title>
<path fill="none" stroke="midnightblue" d="M199.3,-19.589C215.52,-24.4044 235.375,-30.2988 252.787,-35.468"/>
<polygon fill="midnightblue" stroke="midnightblue" points="252.128,-38.9233 262.711,-38.4141 254.12,-32.2127 252.128,-38.9233"/>
</g>
</g>
</svg>
