<?xml version="1.0" encoding="UTF-8" standalone="no"?>
<!DOCTYPE svg PUBLIC "-//W3C//DTD SVG 1.1//EN"
 "http://www.w3.org/Graphics/SVG/1.1/DTD/svg11.dtd">
<!-- Generated by graphviz version 2.36.0 (20140111.2315)
 -->
<!-- Title: nntp_active_save_cache Pages: 1 -->
<svg width="296pt" height="142pt"
 viewBox="0.00 0.00 296.00 142.00" xmlns="http://www.w3.org/2000/svg" xmlns:xlink="http://www.w3.org/1999/xlink">
<g id="graph0" class="graph" transform="scale(1 1) rotate(0) translate(4 138)">
<title>nntp_active_save_cache</title>
<polygon fill="white" stroke="none" points="-4,4 -4,-138 292,-138 292,4 -4,4"/>
<!-- Node1 -->
<g id="node1" class="node"><title>Node1</title>
<polygon fill="#bfbfbf" stroke="black" points="0.5,-57.5 0.5,-76.5 125.5,-76.5 125.5,-57.5 0.5,-57.5"/>
<text text-anchor="middle" x="63" y="-64.5" font-family="Helvetica,sans-Serif" font-size="10.00">nntp_active_save_cache</text>
</g>
<!-- Node2 -->
<g id="node2" class="node"><title>Node2</title>
<g id="a_node2"><a xlink:href="nntp_8c.html#a8937869a90d4a2a52850c1d197ff000b" target="_top" xlink:title="Implements MxOps::mbox_open() ">
<polygon fill="white" stroke="black" points="179.5,-114.5 179.5,-133.5 270.5,-133.5 270.5,-114.5 179.5,-114.5"/>
<text text-anchor="middle" x="225" y="-121.5" font-family="Helvetica,sans-Serif" font-size="10.00">nntp_mbox_open</text>
</a>
</g>
</g>
<!-- Node1&#45;&gt;Node2 -->
<g id="edge1" class="edge"><title>Node1&#45;&gt;Node2</title>
<path fill="none" stroke="midnightblue" d="M96.566,-80.3104C115.532,-87.8902 139.976,-97.3667 162,-105 171.467,-108.281 181.845,-111.577 191.357,-114.482"/>
<polygon fill="midnightblue" stroke="midnightblue" points="97.773,-77.0234 87.1892,-76.5393 95.161,-83.5179 97.773,-77.0234"/>
</g>
<!-- Node3 -->
<g id="node3" class="node"><title>Node3</title>
<g id="a_node3"><a xlink:href="nntp_8c.html#a7e2d3f32389db957efa45387884208e4" target="_top" xlink:title="Check current newsgroup for new articles. ">
<polygon fill="white" stroke="red" points="184,-76.5 184,-95.5 266,-95.5 266,-76.5 184,-76.5"/>
<text text-anchor="middle" x="225" y="-83.5" font-family="Helvetica,sans-Serif" font-size="10.00">check_mailbox</text>
</a>
</g>
</g>
<!-- Node1&#45;&gt;Node3 -->
<g id="edge2" class="edge"><title>Node1&#45;&gt;Node3</title>
<path fill="none" stroke="midnightblue" d="M135.943,-75.5433C152.271,-77.4822 169.051,-79.4748 183.525,-81.1936"/>
<polygon fill="midnightblue" stroke="midnightblue" points="136.203,-72.0496 125.86,-74.3459 135.378,-79.0008 136.203,-72.0496"/>
</g>
<!-- Node4 -->
<g id="node4" class="node"><title>Node4</title>
<g id="a_node4"><a xlink:href="nntp_8h.html#a04bc6b58270f4fdd630672c692bf0ba6" target="_top" xlink:title="Fetch list of all newsgroups from server. ">
<polygon fill="white" stroke="red" points="178,-38.5 178,-57.5 272,-57.5 272,-38.5 178,-38.5"/>
<text text-anchor="middle" x="225" y="-45.5" font-family="Helvetica,sans-Serif" font-size="10.00">nntp_active_fetch</text>
</a>
</g>
</g>
<!-- Node1&#45;&gt;Node4 -->
<g id="edge3" class="edge"><title>Node1&#45;&gt;Node4</title>
<path fill="none" stroke="midnightblue" d="M136.069,-58.4418C150.206,-56.763 164.676,-55.0447 177.691,-53.4992"/>
<polygon fill="midnightblue" stroke="midnightblue" points="135.378,-54.9992 125.86,-59.6541 136.203,-61.9504 135.378,-54.9992"/>
</g>
<!-- Node5 -->
<g id="node5" class="node"><title>Node5</title>
<g id="a_node5"><a xlink:href="nntp__private_8h.html#a8d2eba7519328d548ebd9f811410e62e" target="_top" xlink:title="Check for new groups/articles in subscribed groups. ">
<polygon fill="white" stroke="red" points="162.5,-0.5 162.5,-19.5 287.5,-19.5 287.5,-0.5 162.5,-0.5"/>
<text text-anchor="middle" x="225" y="-7.5" font-family="Helvetica,sans-Serif" font-size="10.00">nntp_check_new_groups</text>
</a>
</g>
</g>
<!-- Node1&#45;&gt;Node5 -->
<g id="edge4" class="edge"><title>Node1&#45;&gt;Node5</title>
<path fill="none" stroke="midnightblue" d="M96.566,-53.6896C115.532,-46.1098 139.976,-36.6333 162,-29 171.467,-25.7188 181.845,-22.4226 191.357,-19.5184"/>
<polygon fill="midnightblue" stroke="midnightblue" points="95.161,-50.4821 87.1892,-57.4607 97.773,-56.9766 95.161,-50.4821"/>
</g>
</g>
</svg>
