<?xml version="1.0" encoding="UTF-8" standalone="no"?>
<!DOCTYPE svg PUBLIC "-//W3C//DTD SVG 1.1//EN"
 "http://www.w3.org/Graphics/SVG/1.1/DTD/svg11.dtd">
<!-- Generated by graphviz version 2.36.0 (20140111.2315)
 -->
<!-- Title: nntp_auth Pages: 1 -->
<svg width="344pt" height="370pt"
 viewBox="0.00 0.00 344.00 370.00" xmlns="http://www.w3.org/2000/svg" xmlns:xlink="http://www.w3.org/1999/xlink">
<g id="graph0" class="graph" transform="scale(1 1) rotate(0) translate(4 366)">
<title>nntp_auth</title>
<polygon fill="white" stroke="none" points="-4,4 -4,-366 340,-366 340,4 -4,4"/>
<!-- Node1 -->
<g id="node1" class="node"><title>Node1</title>
<polygon fill="#bfbfbf" stroke="black" points="0.5,-171.5 0.5,-190.5 59.5,-190.5 59.5,-171.5 0.5,-171.5"/>
<text text-anchor="middle" x="30" y="-178.5" font-family="Helvetica,sans-Serif" font-size="10.00">nntp_auth</text>
</g>
<!-- Node2 -->
<g id="node2" class="node"><title>Node2</title>
<g id="a_node2"><a xlink:href="mutt__account_8c.html#a81c27f98b6c49d96964eced1db64d117" target="_top" xlink:title="Retrieve username into Account, if necessary. ">
<polygon fill="white" stroke="red" points="97.5,-342.5 97.5,-361.5 210.5,-361.5 210.5,-342.5 97.5,-342.5"/>
<text text-anchor="middle" x="154" y="-349.5" font-family="Helvetica,sans-Serif" font-size="10.00">mutt_account_getuser</text>
</a>
</g>
</g>
<!-- Node1&#45;&gt;Node2 -->
<g id="edge1" class="edge"><title>Node1&#45;&gt;Node2</title>
<path fill="none" stroke="midnightblue" d="M32.7036,-190.646C37.7273,-216.392 54.7939,-287.521 96,-328 99.9735,-331.903 104.677,-335.21 109.652,-338.002"/>
<polygon fill="midnightblue" stroke="midnightblue" points="108.28,-341.228 118.8,-342.489 111.363,-334.943 108.28,-341.228"/>
</g>
<!-- Node3 -->
<g id="node3" class="node"><title>Node3</title>
<g id="a_node3"><a xlink:href="mutt_2string_8c.html#a3b8965b21d6e21536750f8883cd4333a" target="_top" xlink:title="Copy a string into a buffer (guaranteeing NUL&#45;termination) ">
<polygon fill="white" stroke="black" points="248,-304.5 248,-323.5 336,-323.5 336,-304.5 248,-304.5"/>
<text text-anchor="middle" x="292" y="-311.5" font-family="Helvetica,sans-Serif" font-size="10.00">mutt_str_strfcpy</text>
</a>
</g>
</g>
<!-- Node1&#45;&gt;Node3 -->
<g id="edge5" class="edge"><title>Node1&#45;&gt;Node3</title>
<path fill="none" stroke="midnightblue" d="M33.3006,-190.737C39.2352,-213.465 57.3759,-269.977 96,-295 137.933,-322.166 195.944,-324.413 237.778,-321.393"/>
<polygon fill="midnightblue" stroke="midnightblue" points="238.107,-324.877 247.777,-320.549 237.519,-317.902 238.107,-324.877"/>
</g>
<!-- Node4 -->
<g id="node4" class="node"><title>Node4</title>
<g id="a_node4"><a xlink:href="mutt__account_8c.html#a92ae7eef51af6ecc3d29376450fa5594" target="_top" xlink:title="Fetch password into Account, if necessary. ">
<polygon fill="white" stroke="black" points="96,-266.5 96,-285.5 212,-285.5 212,-266.5 96,-266.5"/>
<text text-anchor="middle" x="154" y="-273.5" font-family="Helvetica,sans-Serif" font-size="10.00">mutt_account_getpass</text>
</a>
</g>
</g>
<!-- Node1&#45;&gt;Node4 -->
<g id="edge3" class="edge"><title>Node1&#45;&gt;Node4</title>
<path fill="none" stroke="midnightblue" d="M36.7509,-190.636C46.7986,-206.674 69.0672,-238.869 96,-257 98.9448,-258.982 102.114,-260.773 105.396,-262.389"/>
<polygon fill="midnightblue" stroke="midnightblue" points="104.283,-265.722 114.85,-266.491 107.069,-259.3 104.283,-265.722"/>
</g>
<!-- Node5 -->
<g id="node5" class="node"><title>Node5</title>
<g id="a_node5"><a xlink:href="mutt_2string_8c.html#a0f37dc8085c127cb48df9b47a21236a6" target="_top" xlink:title="Compare two strings (to a maximum), safely. ">
<polygon fill="white" stroke="black" points="107.5,-228.5 107.5,-247.5 200.5,-247.5 200.5,-228.5 107.5,-228.5"/>
<text text-anchor="middle" x="154" y="-235.5" font-family="Helvetica,sans-Serif" font-size="10.00">mutt_str_strncmp</text>
</a>
</g>
</g>
<!-- Node1&#45;&gt;Node5 -->
<g id="edge6" class="edge"><title>Node1&#45;&gt;Node5</title>
<path fill="none" stroke="midnightblue" d="M45.5058,-190.659C58.3802,-198.941 77.9018,-210.801 96,-219 100.748,-221.151 105.814,-223.186 110.893,-225.069"/>
<polygon fill="midnightblue" stroke="midnightblue" points="110.001,-228.466 120.596,-228.491 112.33,-221.864 110.001,-228.466"/>
</g>
<!-- Node6 -->
<g id="node6" class="node"><title>Node6</title>
<g id="a_node6"><a xlink:href="sasl_8c.html#ad6e1863eb3486324234dea5b32516ccf" target="_top" xlink:title="wrapper for sasl_client_new ">
<polygon fill="white" stroke="red" points="98.5,-190.5 98.5,-209.5 209.5,-209.5 209.5,-190.5 98.5,-190.5"/>
<text text-anchor="middle" x="154" y="-197.5" font-family="Helvetica,sans-Serif" font-size="10.00">mutt_sasl_client_new</text>
</a>
</g>
</g>
<!-- Node1&#45;&gt;Node6 -->
<g id="edge7" class="edge"><title>Node1&#45;&gt;Node6</title>
<path fill="none" stroke="midnightblue" d="M59.6036,-185.455C68.2663,-186.804 78.157,-188.344 88.1858,-189.906"/>
<polygon fill="midnightblue" stroke="midnightblue" points="87.8006,-193.388 98.2201,-191.469 88.8779,-186.471 87.8006,-193.388"/>
</g>
<!-- Node7 -->
<g id="node7" class="node"><title>Node7</title>
<g id="a_node7"><a xlink:href="sasl_8c.html#a69d46ce6a265526da2e547529fe2d44b" target="_top" xlink:title="Perform an SASL interaction with the user. ">
<polygon fill="white" stroke="red" points="105.5,-152.5 105.5,-171.5 202.5,-171.5 202.5,-152.5 105.5,-152.5"/>
<text text-anchor="middle" x="154" y="-159.5" font-family="Helvetica,sans-Serif" font-size="10.00">mutt_sasl_interact</text>
</a>
</g>
</g>
<!-- Node1&#45;&gt;Node7 -->
<g id="edge8" class="edge"><title>Node1&#45;&gt;Node7</title>
<path fill="none" stroke="midnightblue" d="M59.6036,-176.545C70.3847,-174.866 83.0678,-172.891 95.5518,-170.947"/>
<polygon fill="midnightblue" stroke="midnightblue" points="96.1386,-174.398 105.481,-169.401 95.0614,-167.481 96.1386,-174.398"/>
</g>
<!-- Node8 -->
<g id="node8" class="node"><title>Node8</title>
<g id="a_node8"><a xlink:href="mutt_2string_8c.html#a9ea8568afcd2f6b67f4be5254ffb6f8e" target="_top" xlink:title="Concatenate two strings. ">
<polygon fill="white" stroke="black" points="112.5,-114.5 112.5,-133.5 195.5,-133.5 195.5,-114.5 112.5,-114.5"/>
<text text-anchor="middle" x="154" y="-121.5" font-family="Helvetica,sans-Serif" font-size="10.00">mutt_str_strcat</text>
</a>
</g>
</g>
<!-- Node1&#45;&gt;Node8 -->
<g id="edge9" class="edge"><title>Node1&#45;&gt;Node8</title>
<path fill="none" stroke="midnightblue" d="M45.5058,-171.341C58.3802,-163.059 77.9018,-151.199 96,-143 100.748,-140.849 105.814,-138.814 110.893,-136.931"/>
<polygon fill="midnightblue" stroke="midnightblue" points="112.33,-140.136 120.596,-133.509 110.001,-133.534 112.33,-140.136"/>
</g>
<!-- Node9 -->
<g id="node9" class="node"><title>Node9</title>
<g id="a_node9"><a xlink:href="socket_8c.html#af3cf9e32b156de3acf7902b59db117f9" target="_top" xlink:title="Read a line from a socket. ">
<polygon fill="white" stroke="red" points="97.5,-76.5 97.5,-95.5 210.5,-95.5 210.5,-76.5 97.5,-76.5"/>
<text text-anchor="middle" x="154" y="-83.5" font-family="Helvetica,sans-Serif" font-size="10.00">mutt_socket_readln_d</text>
</a>
</g>
</g>
<!-- Node1&#45;&gt;Node9 -->
<g id="edge10" class="edge"><title>Node1&#45;&gt;Node9</title>
<path fill="none" stroke="midnightblue" d="M36.7509,-171.364C46.7986,-155.326 69.0672,-123.131 96,-105 98.9448,-103.018 102.114,-101.227 105.396,-99.6109"/>
<polygon fill="midnightblue" stroke="midnightblue" points="107.069,-102.7 114.85,-95.5092 104.283,-96.2784 107.069,-102.7"/>
</g>
<!-- Node10 -->
<g id="node10" class="node"><title>Node10</title>
<g id="a_node10"><a xlink:href="sasl_8c.html#af737590d183a661ad5cc6bd2de7fe280" target="_top" xlink:title="Set up an SASL connection. ">
<polygon fill="white" stroke="red" points="96.5,-38.5 96.5,-57.5 211.5,-57.5 211.5,-38.5 96.5,-38.5"/>
<text text-anchor="middle" x="154" y="-45.5" font-family="Helvetica,sans-Serif" font-size="10.00">mutt_sasl_setup_conn</text>
</a>
</g>
</g>
<!-- Node1&#45;&gt;Node10 -->
<g id="edge11" class="edge"><title>Node1&#45;&gt;Node10</title>
<path fill="none" stroke="midnightblue" d="M33.8096,-171.498C40.7184,-149.76 60.5998,-96.0492 96,-67 98.2301,-65.17 100.644,-63.5136 103.175,-62.0147"/>
<polygon fill="midnightblue" stroke="midnightblue" points="104.781,-65.1247 112.139,-57.5019 101.633,-58.8723 104.781,-65.1247"/>
</g>
<!-- Node11 -->
<g id="node11" class="node"><title>Node11</title>
<g id="a_node11"><a xlink:href="socket_8c.html#a432eed609a221c68f457302d6e40c383" target="_top" xlink:title="Close a socket. ">
<polygon fill="white" stroke="black" points="104.5,-0.5 104.5,-19.5 203.5,-19.5 203.5,-0.5 104.5,-0.5"/>
<text text-anchor="middle" x="154" y="-7.5" font-family="Helvetica,sans-Serif" font-size="10.00">mutt_socket_close</text>
</a>
</g>
</g>
<!-- Node1&#45;&gt;Node11 -->
<g id="edge12" class="edge"><title>Node1&#45;&gt;Node11</title>
<path fill="none" stroke="midnightblue" d="M32.367,-171.238C36.6221,-144.508 52.0861,-69.4389 96,-29 97.7145,-27.4212 99.5639,-25.9732 101.512,-24.6453"/>
<polygon fill="midnightblue" stroke="midnightblue" points="103.563,-27.5075 110.568,-19.5584 100.135,-21.4044 103.563,-27.5075"/>
</g>
<!-- Node2&#45;&gt;Node3 -->
<g id="edge2" class="edge"><title>Node2&#45;&gt;Node3</title>
<path fill="none" stroke="midnightblue" d="M189.319,-342.411C206.794,-337.528 228.241,-331.536 246.925,-326.315"/>
<polygon fill="midnightblue" stroke="midnightblue" points="248.003,-329.648 256.692,-323.586 246.119,-322.906 248.003,-329.648"/>
</g>
<!-- Node4&#45;&gt;Node3 -->
<g id="edge4" class="edge"><title>Node4&#45;&gt;Node3</title>
<path fill="none" stroke="midnightblue" d="M189.319,-285.589C206.794,-290.472 228.241,-296.464 246.925,-301.685"/>
<polygon fill="midnightblue" stroke="midnightblue" points="246.119,-305.094 256.692,-304.414 248.003,-298.352 246.119,-305.094"/>
</g>
</g>
</svg>
