<?xml version="1.0" encoding="UTF-8" standalone="no"?>
<!DOCTYPE svg PUBLIC "-//W3C//DTD SVG 1.1//EN"
 "http://www.w3.org/Graphics/SVG/1.1/DTD/svg11.dtd">
<!-- Generated by graphviz version 2.36.0 (20140111.2315)
 -->
<!-- Title: nntp_open_connection Pages: 1 -->
<svg width="436pt" height="408pt"
 viewBox="0.00 0.00 436.00 408.00" xmlns="http://www.w3.org/2000/svg" xmlns:xlink="http://www.w3.org/1999/xlink">
<g id="graph0" class="graph" transform="scale(1 1) rotate(0) translate(4 404)">
<title>nntp_open_connection</title>
<polygon fill="white" stroke="none" points="-4,4 -4,-404 432,-404 432,4 -4,4"/>
<!-- Node1 -->
<g id="node1" class="node"><title>Node1</title>
<polygon fill="#bfbfbf" stroke="black" points="0,-190.5 0,-209.5 114,-209.5 114,-190.5 0,-190.5"/>
<text text-anchor="middle" x="57" y="-197.5" font-family="Helvetica,sans-Serif" font-size="10.00">nntp_open_connection</text>
</g>
<!-- Node2 -->
<g id="node2" class="node"><title>Node2</title>
<g id="a_node2"><a xlink:href="socket_8c.html#ada78f2615db2775bb7ccd042e6df2774" target="_top" xlink:title="Simple wrapper. ">
<polygon fill="white" stroke="red" points="172.5,-380.5 172.5,-399.5 269.5,-399.5 269.5,-380.5 172.5,-380.5"/>
<text text-anchor="middle" x="221" y="-387.5" font-family="Helvetica,sans-Serif" font-size="10.00">mutt_socket_open</text>
</a>
</g>
</g>
<!-- Node1&#45;&gt;Node2 -->
<g id="edge1" class="edge"><title>Node1&#45;&gt;Node2</title>
<path fill="none" stroke="midnightblue" d="M60.7069,-209.848C69.0332,-238.324 96.9666,-321.556 150,-366 154.911,-370.116 160.565,-373.539 166.487,-376.383"/>
<polygon fill="midnightblue" stroke="midnightblue" points="165.371,-379.711 175.944,-380.391 168.103,-373.266 165.371,-379.711"/>
</g>
<!-- Node3 -->
<g id="node3" class="node"><title>Node3</title>
<g id="a_node3"><a xlink:href="nntp_8c.html#a1fe246c43b89d3d5232466ff1baf5428" target="_top" xlink:title="Signal a failed connection. ">
<polygon fill="white" stroke="black" points="328,-304.5 328,-323.5 428,-323.5 428,-304.5 328,-304.5"/>
<text text-anchor="middle" x="378" y="-311.5" font-family="Helvetica,sans-Serif" font-size="10.00">nntp_connect_error</text>
</a>
</g>
</g>
<!-- Node1&#45;&gt;Node3 -->
<g id="edge2" class="edge"><title>Node1&#45;&gt;Node3</title>
<path fill="none" stroke="midnightblue" d="M61.1639,-209.787C70.1432,-235.712 98.5258,-306.017 150,-333 212.654,-365.843 298.578,-343.513 344.665,-327.077"/>
<polygon fill="midnightblue" stroke="midnightblue" points="345.972,-330.326 354.141,-323.579 343.548,-323.759 345.972,-330.326"/>
</g>
<!-- Node4 -->
<g id="node4" class="node"><title>Node4</title>
<g id="a_node4"><a xlink:href="mutt_2string_8c.html#a0f37dc8085c127cb48df9b47a21236a6" target="_top" xlink:title="Compare two strings (to a maximum), safely. ">
<polygon fill="white" stroke="black" points="331.5,-247.5 331.5,-266.5 424.5,-266.5 424.5,-247.5 331.5,-247.5"/>
<text text-anchor="middle" x="378" y="-254.5" font-family="Helvetica,sans-Serif" font-size="10.00">mutt_str_strncmp</text>
</a>
</g>
</g>
<!-- Node1&#45;&gt;Node4 -->
<g id="edge3" class="edge"><title>Node1&#45;&gt;Node4</title>
<path fill="none" stroke="midnightblue" d="M68.9102,-209.64C85.2029,-223.322 117.472,-247.74 150,-257 206.558,-273.101 274.305,-270.432 320.982,-265.404"/>
<polygon fill="midnightblue" stroke="midnightblue" points="321.662,-268.849 331.197,-264.23 320.863,-261.895 321.662,-268.849"/>
</g>
<!-- Node5 -->
<g id="node5" class="node"><title>Node5</title>
<g id="a_node5"><a xlink:href="socket_8c.html#a432eed609a221c68f457302d6e40c383" target="_top" xlink:title="Close a socket. ">
<polygon fill="white" stroke="black" points="328.5,-190.5 328.5,-209.5 427.5,-209.5 427.5,-190.5 328.5,-190.5"/>
<text text-anchor="middle" x="378" y="-197.5" font-family="Helvetica,sans-Serif" font-size="10.00">mutt_socket_close</text>
</a>
</g>
</g>
<!-- Node1&#45;&gt;Node5 -->
<g id="edge4" class="edge"><title>Node1&#45;&gt;Node5</title>
<path fill="none" stroke="midnightblue" d="M95.3311,-190.491C111.947,-186.726 131.828,-182.857 150,-181 212.784,-174.585 229.27,-174.074 292,-181 305.283,-182.466 319.524,-185.185 332.48,-188.116"/>
<polygon fill="midnightblue" stroke="midnightblue" points="332.015,-191.602 342.551,-190.492 333.622,-184.789 332.015,-191.602"/>
</g>
<!-- Node6 -->
<g id="node6" class="node"><title>Node6</title>
<g id="a_node6"><a xlink:href="mutt_2string_8c.html#a1d343dcbce0482f8979fe2a298913225" target="_top" xlink:title="Trim trailing whitespace from a string. ">
<polygon fill="white" stroke="red" points="150,-114.5 150,-133.5 292,-133.5 292,-114.5 150,-114.5"/>
<text text-anchor="middle" x="221" y="-121.5" font-family="Helvetica,sans-Serif" font-size="10.00">mutt_str_remove_trailing_ws</text>
</a>
</g>
</g>
<!-- Node1&#45;&gt;Node6 -->
<g id="edge5" class="edge"><title>Node1&#45;&gt;Node6</title>
<path fill="none" stroke="midnightblue" d="M72.8553,-190.469C90.6832,-179.301 121.718,-160.71 150,-148 159.045,-143.935 168.999,-140.139 178.492,-136.82"/>
<polygon fill="midnightblue" stroke="midnightblue" points="179.814,-140.068 188.161,-133.543 177.566,-133.439 179.814,-140.068"/>
</g>
<!-- Node7 -->
<g id="node7" class="node"><title>Node7</title>
<g id="a_node7"><a xlink:href="nntp_8c.html#a97dd9b196e260ddde63fddd3d56bf3ea" target="_top" xlink:title="Get capabilities. ">
<polygon fill="white" stroke="red" points="176.5,-228.5 176.5,-247.5 265.5,-247.5 265.5,-228.5 176.5,-228.5"/>
<text text-anchor="middle" x="221" y="-235.5" font-family="Helvetica,sans-Serif" font-size="10.00">nntp_capabilities</text>
</a>
</g>
</g>
<!-- Node1&#45;&gt;Node7 -->
<g id="edge6" class="edge"><title>Node1&#45;&gt;Node7</title>
<path fill="none" stroke="midnightblue" d="M98.8794,-209.589C120.353,-214.626 146.86,-220.844 169.597,-226.177"/>
<polygon fill="midnightblue" stroke="midnightblue" points="168.879,-229.604 179.415,-228.48 170.478,-222.789 168.879,-229.604"/>
</g>
<!-- Node8 -->
<g id="node8" class="node"><title>Node8</title>
<g id="a_node8"><a xlink:href="muttlib_8c.html#a6fbcbe533be7c4e05d99b0eb9cdb2581" target="_top" xlink:title="Sleep for a while. ">
<polygon fill="white" stroke="black" points="188.5,-76.5 188.5,-95.5 253.5,-95.5 253.5,-76.5 188.5,-76.5"/>
<text text-anchor="middle" x="221" y="-83.5" font-family="Helvetica,sans-Serif" font-size="10.00">mutt_sleep</text>
</a>
</g>
</g>
<!-- Node1&#45;&gt;Node8 -->
<g id="edge10" class="edge"><title>Node1&#45;&gt;Node8</title>
<path fill="none" stroke="midnightblue" d="M64.6141,-190.265C78.2463,-170.966 111.445,-127.758 150,-105 158.612,-99.9166 168.617,-96.1587 178.322,-93.3931"/>
<polygon fill="midnightblue" stroke="midnightblue" points="179.433,-96.7217 188.256,-90.8562 177.701,-89.9394 179.433,-96.7217"/>
</g>
<!-- Node9 -->
<g id="node9" class="node"><title>Node9</title>
<g id="a_node9"><a xlink:href="init_8c.html#a620eb80c92ac555970111949ad0b7c56" target="_top" xlink:title="Ask the user a quad&#45;question. ">
<polygon fill="white" stroke="red" points="174.5,-38.5 174.5,-57.5 267.5,-57.5 267.5,-38.5 174.5,-38.5"/>
<text text-anchor="middle" x="221" y="-45.5" font-family="Helvetica,sans-Serif" font-size="10.00">query_quadoption</text>
</a>
</g>
</g>
<!-- Node1&#45;&gt;Node9 -->
<g id="edge11" class="edge"><title>Node1&#45;&gt;Node9</title>
<path fill="none" stroke="midnightblue" d="M61.9032,-190.223C72.2788,-165.524 103.001,-100.224 150,-67 154.499,-63.8199 159.504,-61.1718 164.712,-58.9668"/>
<polygon fill="midnightblue" stroke="midnightblue" points="166.065,-62.1984 174.238,-55.457 163.645,-55.6299 166.065,-62.1984"/>
</g>
<!-- Node10 -->
<g id="node10" class="node"><title>Node10</title>
<g id="a_node10"><a xlink:href="ssl_8c.html#a23591e82bf992ceb5e62c459fd787b8a" target="_top" xlink:title="Negotiate TLS over an already opened connection. ">
<polygon fill="white" stroke="black" points="176.5,-0.5 176.5,-19.5 265.5,-19.5 265.5,-0.5 176.5,-0.5"/>
<text text-anchor="middle" x="221" y="-7.5" font-family="Helvetica,sans-Serif" font-size="10.00">mutt_ssl_starttls</text>
</a>
</g>
</g>
<!-- Node1&#45;&gt;Node10 -->
<g id="edge12" class="edge"><title>Node1&#45;&gt;Node10</title>
<path fill="none" stroke="midnightblue" d="M60.3651,-190.107C67.9174,-160.718 94.2956,-73.234 150,-29 154.983,-25.043 160.726,-21.9078 166.736,-19.4242"/>
<polygon fill="midnightblue" stroke="midnightblue" points="168.065,-22.6666 176.326,-16.0333 165.731,-16.067 168.065,-22.6666"/>
</g>
<!-- Node11 -->
<g id="node11" class="node"><title>Node11</title>
<g id="a_node11"><a xlink:href="nntp_8c.html#aedcf4307ed69f367cbfad56e292a1f63" target="_top" xlink:title="Get login, password and authenticate. ">
<polygon fill="white" stroke="red" points="191.5,-190.5 191.5,-209.5 250.5,-209.5 250.5,-190.5 191.5,-190.5"/>
<text text-anchor="middle" x="221" y="-197.5" font-family="Helvetica,sans-Serif" font-size="10.00">nntp_auth</text>
</a>
</g>
</g>
<!-- Node1&#45;&gt;Node11 -->
<g id="edge13" class="edge"><title>Node1&#45;&gt;Node11</title>
<path fill="none" stroke="midnightblue" d="M114.205,-200C136.306,-200 161.133,-200 181.179,-200"/>
<polygon fill="midnightblue" stroke="midnightblue" points="181.186,-203.5 191.186,-200 181.186,-196.5 181.186,-203.5"/>
</g>
<!-- Node12 -->
<g id="node12" class="node"><title>Node12</title>
<g id="a_node12"><a xlink:href="nntp_8c.html#ad87ff27bb49724fa051cf59a9111568c" target="_top" xlink:title="Detect supported commands. ">
<polygon fill="white" stroke="red" points="164,-304.5 164,-323.5 278,-323.5 278,-304.5 164,-304.5"/>
<text text-anchor="middle" x="221" y="-311.5" font-family="Helvetica,sans-Serif" font-size="10.00">nntp_attempt_features</text>
</a>
</g>
</g>
<!-- Node1&#45;&gt;Node12 -->
<g id="edge16" class="edge"><title>Node1&#45;&gt;Node12</title>
<path fill="none" stroke="midnightblue" d="M65.3029,-209.558C79.6408,-227.71 113.289,-267.373 150,-290 156.998,-294.313 164.87,-297.969 172.743,-301.028"/>
<polygon fill="midnightblue" stroke="midnightblue" points="171.694,-304.37 182.288,-304.466 174.066,-297.784 171.694,-304.37"/>
</g>
<!-- Node7&#45;&gt;Node3 -->
<g id="edge7" class="edge"><title>Node7&#45;&gt;Node3</title>
<path fill="none" stroke="midnightblue" d="M241.631,-247.625C268.651,-260.874 317.474,-284.813 348.511,-300.031"/>
<polygon fill="midnightblue" stroke="midnightblue" points="347.009,-303.193 357.529,-304.453 350.091,-296.908 347.009,-303.193"/>
</g>
<!-- Node7&#45;&gt;Node4 -->
<g id="edge8" class="edge"><title>Node7&#45;&gt;Node4</title>
<path fill="none" stroke="midnightblue" d="M265.589,-243.343C282.89,-245.464 302.999,-247.929 321.334,-250.176"/>
<polygon fill="midnightblue" stroke="midnightblue" points="320.956,-253.656 331.308,-251.399 321.808,-246.708 320.956,-253.656"/>
</g>
<!-- Node7&#45;&gt;Node5 -->
<g id="edge9" class="edge"><title>Node7&#45;&gt;Node5</title>
<path fill="none" stroke="midnightblue" d="M261.113,-228.411C281.475,-223.419 306.566,-217.268 328.189,-211.967"/>
<polygon fill="midnightblue" stroke="midnightblue" points="329.289,-215.301 338.168,-209.52 327.622,-208.502 329.289,-215.301"/>
</g>
<!-- Node11&#45;&gt;Node4 -->
<g id="edge14" class="edge"><title>Node11&#45;&gt;Node4</title>
<path fill="none" stroke="midnightblue" d="M250.579,-206.686C263.389,-209.956 278.598,-214.218 292,-219 311.164,-225.838 332.032,-235.138 348.296,-242.827"/>
<polygon fill="midnightblue" stroke="midnightblue" points="347.24,-246.202 357.771,-247.369 350.266,-239.89 347.24,-246.202"/>
</g>
<!-- Node11&#45;&gt;Node5 -->
<g id="edge15" class="edge"><title>Node11&#45;&gt;Node5</title>
<path fill="none" stroke="midnightblue" d="M250.791,-200C269.704,-200 295.126,-200 318.197,-200"/>
<polygon fill="midnightblue" stroke="midnightblue" points="318.256,-203.5 328.256,-200 318.256,-196.5 318.256,-203.5"/>
</g>
<!-- Node12&#45;&gt;Node3 -->
<g id="edge17" class="edge"><title>Node12&#45;&gt;Node3</title>
<path fill="none" stroke="midnightblue" d="M278.397,-314C291.169,-314 304.769,-314 317.659,-314"/>
<polygon fill="midnightblue" stroke="midnightblue" points="317.815,-317.5 327.815,-314 317.815,-310.5 317.815,-317.5"/>
</g>
<!-- Node12&#45;&gt;Node4 -->
<g id="edge18" class="edge"><title>Node12&#45;&gt;Node4</title>
<path fill="none" stroke="midnightblue" d="M250.7,-304.449C263.397,-300.149 278.485,-294.938 292,-290 309.076,-283.761 327.937,-276.478 343.545,-270.344"/>
<polygon fill="midnightblue" stroke="midnightblue" points="345.264,-273.429 353.281,-266.502 342.694,-266.917 345.264,-273.429"/>
</g>
</g>
</svg>
