<?xml version="1.0" encoding="UTF-8" standalone="no"?>
<!DOCTYPE svg PUBLIC "-//W3C//DTD SVG 1.1//EN"
 "http://www.w3.org/Graphics/SVG/1.1/DTD/svg11.dtd">
<!-- Generated by graphviz version 2.36.0 (20140111.2315)
 -->
<!-- Title: mutt_newsgroup_subscribe Pages: 1 -->
<svg width="390pt" height="47pt"
 viewBox="0.00 0.00 390.00 47.00" xmlns="http://www.w3.org/2000/svg" xmlns:xlink="http://www.w3.org/1999/xlink">
<g id="graph0" class="graph" transform="scale(1 1) rotate(0) translate(4 43)">
<title>mutt_newsgroup_subscribe</title>
<polygon fill="white" stroke="none" points="-4,4 -4,-43 386,-43 386,4 -4,4"/>
<!-- Node1 -->
<g id="node1" class="node"><title>Node1</title>
<polygon fill="#bfbfbf" stroke="black" points="0,-0.5 0,-19.5 136,-19.5 136,-0.5 0,-0.5"/>
<text text-anchor="middle" x="68" y="-7.5" font-family="Helvetica,sans-Serif" font-size="10.00">mutt_newsgroup_subscribe</text>
</g>
<!-- Node2 -->
<g id="node2" class="node"><title>Node2</title>
<g id="a_node2"><a xlink:href="newsrc_8c.html#a9ff734411119d14d1d534f760c744f8f" target="_top" xlink:title="Find NntpData for given newsgroup or add it. ">
<polygon fill="white" stroke="red" points="172,-19.5 172,-38.5 252,-38.5 252,-19.5 172,-19.5"/>
<text text-anchor="middle" x="212" y="-26.5" font-family="Helvetica,sans-Serif" font-size="10.00">nntp_data_find</text>
</a>
</g>
</g>
<!-- Node1&#45;&gt;Node2 -->
<g id="edge1" class="edge"><title>Node1&#45;&gt;Node2</title>
<path fill="none" stroke="midnightblue" d="M136.257,-18.9992C144.826,-20.1457 153.467,-21.302 161.681,-22.4009"/>
<polygon fill="midnightblue" stroke="midnightblue" points="161.442,-25.9001 171.818,-23.7573 162.37,-18.9619 161.442,-25.9001"/>
</g>
<!-- Node3 -->
<g id="node3" class="node"><title>Node3</title>
<g id="a_node3"><a xlink:href="memory_8c.html#a4c1612d209c7825d55e6a014df352f03" target="_top" xlink:title="Allocate zeroed memory on the heap. ">
<polygon fill="white" stroke="red" points="288,-0.5 288,-19.5 382,-19.5 382,-0.5 288,-0.5"/>
<text text-anchor="middle" x="335" y="-7.5" font-family="Helvetica,sans-Serif" font-size="10.00">mutt_mem_calloc</text>
</a>
</g>
</g>
<!-- Node1&#45;&gt;Node3 -->
<g id="edge3" class="edge"><title>Node1&#45;&gt;Node3</title>
<path fill="none" stroke="midnightblue" d="M136.213,-10C179.893,-10 236.192,-10 277.548,-10"/>
<polygon fill="midnightblue" stroke="midnightblue" points="277.724,-13.5001 287.724,-10 277.724,-6.5001 277.724,-13.5001"/>
</g>
<!-- Node2&#45;&gt;Node3 -->
<g id="edge2" class="edge"><title>Node2&#45;&gt;Node3</title>
<path fill="none" stroke="midnightblue" d="M252.285,-22.8312C260.419,-21.554 269.139,-20.1847 277.744,-18.8336"/>
<polygon fill="midnightblue" stroke="midnightblue" points="278.415,-22.2712 287.751,-17.2623 277.329,-15.356 278.415,-22.2712"/>
</g>
</g>
</svg>
