<?xml version="1.0" encoding="UTF-8" standalone="no"?>
<!DOCTYPE svg PUBLIC "-//W3C//DTD SVG 1.1//EN"
 "http://www.w3.org/Graphics/SVG/1.1/DTD/svg11.dtd">
<!-- Generated by graphviz version 2.36.0 (20140111.2315)
 -->
<!-- Title: nntp_capabilities Pages: 1 -->
<svg width="356pt" height="294pt"
 viewBox="0.00 0.00 356.00 294.00" xmlns="http://www.w3.org/2000/svg" xmlns:xlink="http://www.w3.org/1999/xlink">
<g id="graph0" class="graph" transform="scale(1 1) rotate(0) translate(4 290)">
<title>nntp_capabilities</title>
<polygon fill="white" stroke="none" points="-4,4 -4,-290 352,-290 352,4 -4,4"/>
<!-- Node1 -->
<g id="node1" class="node"><title>Node1</title>
<polygon fill="#bfbfbf" stroke="black" points="0.5,-133.5 0.5,-152.5 89.5,-152.5 89.5,-133.5 0.5,-133.5"/>
<text text-anchor="middle" x="45" y="-140.5" font-family="Helvetica,sans-Serif" font-size="10.00">nntp_capabilities</text>
</g>
<!-- Node2 -->
<g id="node2" class="node"><title>Node2</title>
<g id="a_node2"><a xlink:href="nntp_8c.html#a1fe246c43b89d3d5232466ff1baf5428" target="_top" xlink:title="Signal a failed connection. ">
<polygon fill="white" stroke="black" points="126,-266.5 126,-285.5 226,-285.5 226,-266.5 126,-266.5"/>
<text text-anchor="middle" x="176" y="-273.5" font-family="Helvetica,sans-Serif" font-size="10.00">nntp_connect_error</text>
</a>
</g>
</g>
<!-- Node1&#45;&gt;Node2 -->
<g id="edge1" class="edge"><title>Node1&#45;&gt;Node2</title>
<path fill="none" stroke="midnightblue" d="M50.3443,-152.698C60.5157,-174.375 87.9288,-227.183 126,-257 128.29,-258.793 130.769,-260.434 133.355,-261.934"/>
<polygon fill="midnightblue" stroke="midnightblue" points="131.931,-265.135 142.438,-266.499 135.075,-258.881 131.931,-265.135"/>
</g>
<!-- Node3 -->
<g id="node3" class="node"><title>Node3</title>
<g id="a_node3"><a xlink:href="mutt_2string_8c.html#a0f37dc8085c127cb48df9b47a21236a6" target="_top" xlink:title="Compare two strings (to a maximum), safely. ">
<polygon fill="white" stroke="black" points="129.5,-228.5 129.5,-247.5 222.5,-247.5 222.5,-228.5 129.5,-228.5"/>
<text text-anchor="middle" x="176" y="-235.5" font-family="Helvetica,sans-Serif" font-size="10.00">mutt_str_strncmp</text>
</a>
</g>
</g>
<!-- Node1&#45;&gt;Node3 -->
<g id="edge2" class="edge"><title>Node1&#45;&gt;Node3</title>
<path fill="none" stroke="midnightblue" d="M53.9222,-152.661C67.3089,-168.45 95.9023,-199.927 126,-219 128.98,-220.889 132.179,-222.64 135.461,-224.253"/>
<polygon fill="midnightblue" stroke="midnightblue" points="134.263,-227.551 144.821,-228.43 137.115,-221.159 134.263,-227.551"/>
</g>
<!-- Node4 -->
<g id="node4" class="node"><title>Node4</title>
<g id="a_node4"><a xlink:href="mutt_2string_8c.html#ab4aaf8bd2ce3982651f0f949d6c665e2" target="_top" xlink:title="Compare two strings, safely. ">
<polygon fill="white" stroke="black" points="132,-190.5 132,-209.5 220,-209.5 220,-190.5 132,-190.5"/>
<text text-anchor="middle" x="176" y="-197.5" font-family="Helvetica,sans-Serif" font-size="10.00">mutt_str_strcmp</text>
</a>
</g>
</g>
<!-- Node1&#45;&gt;Node4 -->
<g id="edge3" class="edge"><title>Node1&#45;&gt;Node4</title>
<path fill="none" stroke="midnightblue" d="M65.2167,-152.617C81.3095,-160.551 104.958,-171.938 126,-181 130.478,-182.929 135.222,-184.88 139.925,-186.76"/>
<polygon fill="midnightblue" stroke="midnightblue" points="138.836,-190.093 149.424,-190.491 141.395,-183.578 138.836,-190.093"/>
</g>
<!-- Node5 -->
<g id="node5" class="node"><title>Node5</title>
<g id="a_node5"><a xlink:href="mutt_2string_8c.html#a9ea8568afcd2f6b67f4be5254ffb6f8e" target="_top" xlink:title="Concatenate two strings. ">
<polygon fill="white" stroke="black" points="134.5,-152.5 134.5,-171.5 217.5,-171.5 217.5,-152.5 134.5,-152.5"/>
<text text-anchor="middle" x="176" y="-159.5" font-family="Helvetica,sans-Serif" font-size="10.00">mutt_str_strcat</text>
</a>
</g>
</g>
<!-- Node1&#45;&gt;Node5 -->
<g id="edge4" class="edge"><title>Node1&#45;&gt;Node5</title>
<path fill="none" stroke="midnightblue" d="M89.6735,-149.433C100.867,-151.081 112.998,-152.868 124.504,-154.563"/>
<polygon fill="midnightblue" stroke="midnightblue" points="124.013,-158.028 134.416,-156.023 125.033,-151.103 124.013,-158.028"/>
</g>
<!-- Node6 -->
<g id="node6" class="node"><title>Node6</title>
<g id="a_node6"><a xlink:href="mutt_2string_8c.html#a3b8965b21d6e21536750f8883cd4333a" target="_top" xlink:title="Copy a string into a buffer (guaranteeing NUL&#45;termination) ">
<polygon fill="white" stroke="black" points="132,-114.5 132,-133.5 220,-133.5 220,-114.5 132,-114.5"/>
<text text-anchor="middle" x="176" y="-121.5" font-family="Helvetica,sans-Serif" font-size="10.00">mutt_str_strfcpy</text>
</a>
</g>
</g>
<!-- Node1&#45;&gt;Node6 -->
<g id="edge5" class="edge"><title>Node1&#45;&gt;Node6</title>
<path fill="none" stroke="midnightblue" d="M89.6735,-136.567C99.9763,-135.05 111.073,-133.416 121.746,-131.844"/>
<polygon fill="midnightblue" stroke="midnightblue" points="122.426,-135.281 131.809,-130.361 121.406,-128.356 122.426,-135.281"/>
</g>
<!-- Node7 -->
<g id="node7" class="node"><title>Node7</title>
<g id="a_node7"><a xlink:href="mutt_2string_8c.html#ae48085384a6545e0fac589a88243ea31" target="_top" xlink:title="Copy a string, safely. ">
<polygon fill="white" stroke="red" points="262.5,-57.5 262.5,-76.5 347.5,-76.5 347.5,-57.5 262.5,-57.5"/>
<text text-anchor="middle" x="305" y="-64.5" font-family="Helvetica,sans-Serif" font-size="10.00">mutt_str_strdup</text>
</a>
</g>
</g>
<!-- Node1&#45;&gt;Node7 -->
<g id="edge6" class="edge"><title>Node1&#45;&gt;Node7</title>
<path fill="none" stroke="midnightblue" d="M62.9916,-133.496C78.8627,-124.969 103.429,-112.653 126,-105 167.401,-90.9631 216.038,-81 251.999,-74.807"/>
<polygon fill="midnightblue" stroke="midnightblue" points="252.978,-78.1918 262.259,-73.0829 251.818,-71.2886 252.978,-78.1918"/>
</g>
<!-- Node8 -->
<g id="node8" class="node"><title>Node8</title>
<g id="a_node8"><a xlink:href="mutt_2string_8c.html#ad5b66f8059a202f7bfa5fc4fa3047c67" target="_top" xlink:title="Replace one string with another. ">
<polygon fill="white" stroke="black" points="131.5,-38.5 131.5,-57.5 220.5,-57.5 220.5,-38.5 131.5,-38.5"/>
<text text-anchor="middle" x="176" y="-45.5" font-family="Helvetica,sans-Serif" font-size="10.00">mutt_str_replace</text>
</a>
</g>
</g>
<!-- Node1&#45;&gt;Node8 -->
<g id="edge7" class="edge"><title>Node1&#45;&gt;Node8</title>
<path fill="none" stroke="midnightblue" d="M55.1526,-133.35C69.3368,-118.767 97.9289,-90.8219 126,-72 131.37,-68.3996 137.359,-65.0131 143.256,-61.9823"/>
<polygon fill="midnightblue" stroke="midnightblue" points="144.902,-65.0737 152.344,-57.533 141.824,-58.7867 144.902,-65.0737"/>
</g>
<!-- Node9 -->
<g id="node9" class="node"><title>Node9</title>
<g id="a_node9"><a xlink:href="socket_8c.html#a432eed609a221c68f457302d6e40c383" target="_top" xlink:title="Close a socket. ">
<polygon fill="white" stroke="black" points="126.5,-0.5 126.5,-19.5 225.5,-19.5 225.5,-0.5 126.5,-0.5"/>
<text text-anchor="middle" x="176" y="-7.5" font-family="Helvetica,sans-Serif" font-size="10.00">mutt_socket_close</text>
</a>
</g>
</g>
<!-- Node1&#45;&gt;Node9 -->
<g id="edge9" class="edge"><title>Node1&#45;&gt;Node9</title>
<path fill="none" stroke="midnightblue" d="M50.3443,-133.302C60.5157,-111.625 87.9288,-58.8166 126,-29 128.29,-27.2068 130.769,-25.5656 133.355,-24.0663"/>
<polygon fill="midnightblue" stroke="midnightblue" points="135.075,-27.119 142.438,-19.501 131.931,-20.8645 135.075,-27.119"/>
</g>
<!-- Node8&#45;&gt;Node7 -->
<g id="edge8" class="edge"><title>Node8&#45;&gt;Node7</title>
<path fill="none" stroke="midnightblue" d="M220.706,-54.5387C230.928,-56.068 241.911,-57.7111 252.44,-59.2862"/>
<polygon fill="midnightblue" stroke="midnightblue" points="251.947,-62.7514 262.355,-60.7696 252.983,-55.8285 251.947,-62.7514"/>
</g>
</g>
</svg>
