<?xml version="1.0" encoding="UTF-8" standalone="no"?>
<!DOCTYPE svg PUBLIC "-//W3C//DTD SVG 1.1//EN"
 "http://www.w3.org/Graphics/SVG/1.1/DTD/svg11.dtd">
<!-- Generated by graphviz version 2.36.0 (20140111.2315)
 -->
<!-- Title: check_mailbox Pages: 1 -->
<svg width="222pt" height="66pt"
 viewBox="0.00 0.00 222.00 66.00" xmlns="http://www.w3.org/2000/svg" xmlns:xlink="http://www.w3.org/1999/xlink">
<g id="graph0" class="graph" transform="scale(1 1) rotate(0) translate(4 62)">
<title>check_mailbox</title>
<polygon fill="white" stroke="none" points="-4,4 -4,-62 218,-62 218,4 -4,4"/>
<!-- Node1 -->
<g id="node1" class="node"><title>Node1</title>
<polygon fill="#bfbfbf" stroke="black" points="0,-19.5 0,-38.5 82,-38.5 82,-19.5 0,-19.5"/>
<text text-anchor="middle" x="41" y="-26.5" font-family="Helvetica,sans-Serif" font-size="10.00">check_mailbox</text>
</g>
<!-- Node2 -->
<g id="node2" class="node"><title>Node2</title>
<g id="a_node2"><a xlink:href="nntp_8c.html#adda91e91f0a7021e37ed03b5c74092fa" target="_top" xlink:title="Implements MxOps::mbox_check() ">
<polygon fill="white" stroke="black" points="118,-38.5 118,-57.5 214,-57.5 214,-38.5 118,-38.5"/>
<text text-anchor="middle" x="166" y="-45.5" font-family="Helvetica,sans-Serif" font-size="10.00">nntp_mbox_check</text>
</a>
</g>
</g>
<!-- Node1&#45;&gt;Node2 -->
<g id="edge1" class="edge"><title>Node1&#45;&gt;Node2</title>
<path fill="none" stroke="midnightblue" d="M92.3488,-36.7775C100.761,-38.0769 109.461,-39.4209 117.791,-40.7076"/>
<polygon fill="midnightblue" stroke="midnightblue" points="92.6919,-33.289 82.2748,-35.2213 91.6232,-40.207 92.6919,-33.289"/>
</g>
<!-- Node3 -->
<g id="node3" class="node"><title>Node3</title>
<g id="a_node3"><a xlink:href="nntp_8c.html#a942d771cb91163cd9092aa23770840ce" target="_top" xlink:title="Implements MxOps::mbox_sync() ">
<polygon fill="white" stroke="black" points="120.5,-0.5 120.5,-19.5 211.5,-19.5 211.5,-0.5 120.5,-0.5"/>
<text text-anchor="middle" x="166" y="-7.5" font-family="Helvetica,sans-Serif" font-size="10.00">nntp_mbox_sync</text>
</a>
</g>
</g>
<!-- Node1&#45;&gt;Node3 -->
<g id="edge2" class="edge"><title>Node1&#45;&gt;Node3</title>
<path fill="none" stroke="midnightblue" d="M92.2153,-21.2432C101.545,-19.802 111.234,-18.3053 120.382,-16.8922"/>
<polygon fill="midnightblue" stroke="midnightblue" points="91.6232,-17.793 82.2748,-22.7787 92.6919,-24.711 91.6232,-17.793"/>
</g>
</g>
</svg>
