<?xml version="1.0" encoding="UTF-8" standalone="no"?>
<!DOCTYPE svg PUBLIC "-//W3C//DTD SVG 1.1//EN"
 "http://www.w3.org/Graphics/SVG/1.1/DTD/svg11.dtd">
<!-- Generated by graphviz version 2.36.0 (20140111.2315)
 -->
<!-- Title: parse_overview_line Pages: 1 -->
<svg width="414pt" height="560pt"
 viewBox="0.00 0.00 414.00 560.00" xmlns="http://www.w3.org/2000/svg" xmlns:xlink="http://www.w3.org/1999/xlink">
<g id="graph0" class="graph" transform="scale(1 1) rotate(0) translate(4 556)">
<title>parse_overview_line</title>
<polygon fill="white" stroke="none" points="-4,4 -4,-556 410,-556 410,4 -4,4"/>
<!-- Node1 -->
<g id="node1" class="node"><title>Node1</title>
<polygon fill="#bfbfbf" stroke="black" points="0.5,-266.5 0.5,-285.5 105.5,-285.5 105.5,-266.5 0.5,-266.5"/>
<text text-anchor="middle" x="53" y="-273.5" font-family="Helvetica,sans-Serif" font-size="10.00">parse_overview_line</text>
</g>
<!-- Node2 -->
<g id="node2" class="node"><title>Node2</title>
<g id="a_node2"><a xlink:href="progress_8c.html#a8aa58d901a100a3ab7886418500e2385" target="_top" xlink:title="Update the state of the progress bar. ">
<polygon fill="white" stroke="red" points="149.5,-532.5 149.5,-551.5 262.5,-551.5 262.5,-532.5 149.5,-532.5"/>
<text text-anchor="middle" x="206" y="-539.5" font-family="Helvetica,sans-Serif" font-size="10.00">mutt_progress_update</text>
</a>
</g>
</g>
<!-- Node1&#45;&gt;Node2 -->
<g id="edge1" class="edge"><title>Node1&#45;&gt;Node2</title>
<path fill="none" stroke="midnightblue" d="M54.4581,-285.68C56.7256,-322.37 69.7884,-454.266 142,-523 143.647,-524.568 145.419,-526.007 147.287,-527.327"/>
<polygon fill="midnightblue" stroke="midnightblue" points="145.59,-530.39 155.994,-532.392 149.109,-524.339 145.59,-530.39"/>
</g>
<!-- Node3 -->
<g id="node3" class="node"><title>Node3</title>
<g id="a_node3"><a xlink:href="file_8c.html#a4982d9040dfaf38e847729be2af83ed6" target="_top" xlink:title="Close a FILE handle (and NULL the pointer) ">
<polygon fill="white" stroke="black" points="163,-494.5 163,-513.5 249,-513.5 249,-494.5 163,-494.5"/>
<text text-anchor="middle" x="206" y="-501.5" font-family="Helvetica,sans-Serif" font-size="10.00">mutt_file_fclose</text>
</a>
</g>
</g>
<!-- Node1&#45;&gt;Node3 -->
<g id="edge2" class="edge"><title>Node1&#45;&gt;Node3</title>
<path fill="none" stroke="midnightblue" d="M55.4397,-285.608C60.7454,-317.739 82.1057,-422.643 142,-480 146.224,-484.045 151.199,-487.425 156.472,-490.246"/>
<polygon fill="midnightblue" stroke="midnightblue" points="155.003,-493.423 165.545,-494.484 157.966,-487.081 155.003,-493.423"/>
</g>
<!-- Node4 -->
<g id="node4" class="node"><title>Node4</title>
<g id="a_node4"><a xlink:href="mx_8c.html#a515962a1cf14aad3161d7872f69073e7" target="_top" xlink:title="Create storage for the emails. ">
<polygon fill="white" stroke="red" points="158,-418.5 158,-437.5 254,-437.5 254,-418.5 158,-418.5"/>
<text text-anchor="middle" x="206" y="-425.5" font-family="Helvetica,sans-Serif" font-size="10.00">mx_alloc_memory</text>
</a>
</g>
</g>
<!-- Node1&#45;&gt;Node4 -->
<g id="edge3" class="edge"><title>Node1&#45;&gt;Node4</title>
<path fill="none" stroke="midnightblue" d="M57.664,-285.699C67.4253,-310.216 96.4605,-375.123 142,-409 144.612,-410.943 147.424,-412.689 150.358,-414.258"/>
<polygon fill="midnightblue" stroke="midnightblue" points="148.904,-417.442 159.45,-418.452 151.835,-411.085 148.904,-417.442"/>
</g>
<!-- Node5 -->
<g id="node5" class="node"><title>Node5</title>
<g id="a_node5"><a xlink:href="memory_8c.html#a4c1612d209c7825d55e6a014df352f03" target="_top" xlink:title="Allocate zeroed memory on the heap. ">
<polygon fill="white" stroke="red" points="309,-418.5 309,-437.5 403,-437.5 403,-418.5 309,-418.5"/>
<text text-anchor="middle" x="356" y="-425.5" font-family="Helvetica,sans-Serif" font-size="10.00">mutt_mem_calloc</text>
</a>
</g>
</g>
<!-- Node1&#45;&gt;Node5 -->
<g id="edge17" class="edge"><title>Node1&#45;&gt;Node5</title>
<path fill="none" stroke="midnightblue" d="M55.4756,-285.718C60.6844,-316.179 81.2884,-409.964 142,-447 198.896,-481.708 280.736,-458.396 324.559,-441.369"/>
<polygon fill="midnightblue" stroke="midnightblue" points="326.11,-444.517 334.078,-437.534 323.495,-438.024 326.11,-444.517"/>
</g>
<!-- Node6 -->
<g id="node6" class="node"><title>Node6</title>
<g id="a_node6"><a xlink:href="header_8c.html#a6462f919c4f96d1a37866b16e6acb93b" target="_top" xlink:title="Create a new email Header. ">
<polygon fill="white" stroke="black" points="159,-380.5 159,-399.5 253,-399.5 253,-380.5 159,-380.5"/>
<text text-anchor="middle" x="206" y="-387.5" font-family="Helvetica,sans-Serif" font-size="10.00">mutt_header_new</text>
</a>
</g>
</g>
<!-- Node1&#45;&gt;Node6 -->
<g id="edge5" class="edge"><title>Node1&#45;&gt;Node6</title>
<path fill="none" stroke="midnightblue" d="M61.1708,-285.749C74.9555,-303.873 106.911,-342.995 142,-366 148.258,-370.103 155.32,-373.654 162.394,-376.672"/>
<polygon fill="midnightblue" stroke="midnightblue" points="161.387,-380.037 171.973,-380.459 163.961,-373.527 161.387,-380.037"/>
</g>
<!-- Node7 -->
<g id="node7" class="node"><title>Node7</title>
<g id="a_node7"><a xlink:href="parse_8c.html#ae50079838fa2a151db9ecfb0a149aaea" target="_top" xlink:title="parses an RFC822 header ">
<polygon fill="white" stroke="red" points="142.5,-304.5 142.5,-323.5 269.5,-323.5 269.5,-304.5 142.5,-304.5"/>
<text text-anchor="middle" x="206" y="-311.5" font-family="Helvetica,sans-Serif" font-size="10.00">mutt_rfc822_read_header</text>
</a>
</g>
</g>
<!-- Node1&#45;&gt;Node7 -->
<g id="edge7" class="edge"><title>Node1&#45;&gt;Node7</title>
<path fill="none" stroke="midnightblue" d="M92.1037,-285.589C111.94,-290.581 136.384,-296.732 157.448,-302.033"/>
<polygon fill="midnightblue" stroke="midnightblue" points="156.618,-305.434 167.17,-304.48 158.327,-298.645 156.618,-305.434"/>
</g>
<!-- Node8 -->
<g id="node8" class="node"><title>Node8</title>
<g id="a_node8"><a xlink:href="mutt_2string_8c.html#ae48085384a6545e0fac589a88243ea31" target="_top" xlink:title="Copy a string, safely. ">
<polygon fill="white" stroke="red" points="313.5,-304.5 313.5,-323.5 398.5,-323.5 398.5,-304.5 313.5,-304.5"/>
<text text-anchor="middle" x="356" y="-311.5" font-family="Helvetica,sans-Serif" font-size="10.00">mutt_str_strdup</text>
</a>
</g>
</g>
<!-- Node1&#45;&gt;Node8 -->
<g id="edge9" class="edge"><title>Node1&#45;&gt;Node8</title>
<path fill="none" stroke="midnightblue" d="M64.3547,-285.633C79.8379,-299.306 110.579,-323.713 142,-333 200.506,-350.293 271.665,-337.556 315.127,-326.217"/>
<polygon fill="midnightblue" stroke="midnightblue" points="316.29,-329.528 325.025,-323.533 314.458,-322.772 316.29,-329.528"/>
</g>
<!-- Node9 -->
<g id="node9" class="node"><title>Node9</title>
<g id="a_node9"><a xlink:href="hcache_8c.html#a328c1cf43151360a9001b2423ffd6ab8" target="_top" xlink:title="Multiplexor for HcacheOps::fetch. ">
<polygon fill="white" stroke="red" points="156,-152.5 156,-171.5 256,-171.5 256,-152.5 156,-152.5"/>
<text text-anchor="middle" x="206" y="-159.5" font-family="Helvetica,sans-Serif" font-size="10.00">mutt_hcache_fetch</text>
</a>
</g>
</g>
<!-- Node1&#45;&gt;Node9 -->
<g id="edge10" class="edge"><title>Node1&#45;&gt;Node9</title>
<path fill="none" stroke="midnightblue" d="M61.1708,-266.251C74.9555,-248.127 106.911,-209.005 142,-186 148.258,-181.897 155.32,-178.346 162.394,-175.328"/>
<polygon fill="midnightblue" stroke="midnightblue" points="163.961,-178.473 171.973,-171.541 161.387,-171.963 163.961,-178.473"/>
</g>
<!-- Node10 -->
<g id="node10" class="node"><title>Node10</title>
<g id="a_node10"><a xlink:href="hcache_8c.html#a51e16ac36abe59d7df4b6be113efe90c" target="_top" xlink:title="Multiplexor for HcacheOps::free. ">
<polygon fill="white" stroke="black" points="308.5,-171.5 308.5,-190.5 403.5,-190.5 403.5,-171.5 308.5,-171.5"/>
<text text-anchor="middle" x="356" y="-178.5" font-family="Helvetica,sans-Serif" font-size="10.00">mutt_hcache_free</text>
</a>
</g>
</g>
<!-- Node1&#45;&gt;Node10 -->
<g id="edge14" class="edge"><title>Node1&#45;&gt;Node10</title>
<path fill="none" stroke="midnightblue" d="M84.1312,-266.386C101.121,-260.971 122.74,-254.093 142,-248 202.222,-228.948 272.07,-207.006 314.896,-193.572"/>
<polygon fill="midnightblue" stroke="midnightblue" points="316.161,-196.843 324.656,-190.51 314.066,-190.164 316.161,-196.843"/>
</g>
<!-- Node11 -->
<g id="node11" class="node"><title>Node11</title>
<g id="a_node11"><a xlink:href="header_8c.html#a417d090ecf2e78b1cd86daeea31c9822" target="_top" xlink:title="Free an email Header. ">
<polygon fill="white" stroke="red" points="160,-114.5 160,-133.5 252,-133.5 252,-114.5 160,-114.5"/>
<text text-anchor="middle" x="206" y="-121.5" font-family="Helvetica,sans-Serif" font-size="10.00">mutt_header_free</text>
</a>
</g>
</g>
<!-- Node1&#45;&gt;Node11 -->
<g id="edge12" class="edge"><title>Node1&#45;&gt;Node11</title>
<path fill="none" stroke="midnightblue" d="M57.664,-266.301C67.4253,-241.784 96.4605,-176.877 142,-143 144.658,-141.023 147.522,-139.249 150.512,-137.659"/>
<polygon fill="midnightblue" stroke="midnightblue" points="152.141,-140.763 159.777,-133.419 149.227,-134.398 152.141,-140.763"/>
</g>
<!-- Node12 -->
<g id="node12" class="node"><title>Node12</title>
<g id="a_node12"><a xlink:href="hcache_8h.html#a556940057108b6e02ff298c2aabe4e6a" target="_top" xlink:title="restore a Header from data retrieved from the cache ">
<polygon fill="white" stroke="black" points="152,-76.5 152,-95.5 260,-95.5 260,-76.5 152,-76.5"/>
<text text-anchor="middle" x="206" y="-83.5" font-family="Helvetica,sans-Serif" font-size="10.00">mutt_hcache_restore</text>
</a>
</g>
</g>
<!-- Node1&#45;&gt;Node12 -->
<g id="edge13" class="edge"><title>Node1&#45;&gt;Node12</title>
<path fill="none" stroke="midnightblue" d="M56.1824,-266.184C63.1835,-237.012 87.8563,-150.072 142,-105 144.036,-103.305 146.22,-101.762 148.508,-100.356"/>
<polygon fill="midnightblue" stroke="midnightblue" points="150.476,-103.279 157.761,-95.5867 147.269,-97.057 150.476,-103.279"/>
</g>
<!-- Node13 -->
<g id="node13" class="node"><title>Node13</title>
<g id="a_node13"><a xlink:href="bcache_8c.html#a81a73e04de0e74abec304abb57f9a21a" target="_top" xlink:title="Delete a file from the Body Cache. ">
<polygon fill="white" stroke="red" points="160.5,-38.5 160.5,-57.5 251.5,-57.5 251.5,-38.5 160.5,-38.5"/>
<text text-anchor="middle" x="206" y="-45.5" font-family="Helvetica,sans-Serif" font-size="10.00">mutt_bcache_del</text>
</a>
</g>
</g>
<!-- Node1&#45;&gt;Node13 -->
<g id="edge15" class="edge"><title>Node1&#45;&gt;Node13</title>
<path fill="none" stroke="midnightblue" d="M55.1434,-266.453C59.5948,-233.563 78.7783,-123.874 142,-67 144.797,-64.4834 147.918,-62.2999 151.232,-60.4054"/>
<polygon fill="midnightblue" stroke="midnightblue" points="152.857,-63.5079 160.368,-56.0353 149.837,-57.1932 152.857,-63.5079"/>
</g>
<!-- Node14 -->
<g id="node14" class="node"><title>Node14</title>
<g id="a_node14"><a xlink:href="hcache_8c.html#a2506fd544924cac6eea25644d7057872" target="_top" xlink:title="Multiplexor for HcacheOps::store. ">
<polygon fill="white" stroke="red" points="156,-0.5 156,-19.5 256,-19.5 256,-0.5 156,-0.5"/>
<text text-anchor="middle" x="206" y="-7.5" font-family="Helvetica,sans-Serif" font-size="10.00">mutt_hcache_store</text>
</a>
</g>
</g>
<!-- Node1&#45;&gt;Node14 -->
<g id="edge16" class="edge"><title>Node1&#45;&gt;Node14</title>
<path fill="none" stroke="midnightblue" d="M54.4581,-266.32C56.7256,-229.63 69.7884,-97.7336 142,-29 143.647,-27.4321 145.419,-25.9932 147.287,-24.6726"/>
<polygon fill="midnightblue" stroke="midnightblue" points="149.109,-27.6614 155.994,-19.6081 145.59,-21.6105 149.109,-27.6614"/>
</g>
<!-- Node15 -->
<g id="node15" class="node"><title>Node15</title>
<g id="a_node15"><a xlink:href="newsrc_8c.html#aa82a7c731e7e95aefe41887a66080fe7" target="_top" xlink:title="Get status of articles from .newsrc. ">
<polygon fill="white" stroke="red" points="306.5,-247.5 306.5,-266.5 405.5,-266.5 405.5,-247.5 306.5,-247.5"/>
<text text-anchor="middle" x="356" y="-254.5" font-family="Helvetica,sans-Serif" font-size="10.00">nntp_article_status</text>
</a>
</g>
</g>
<!-- Node1&#45;&gt;Node15 -->
<g id="edge18" class="edge"><title>Node1&#45;&gt;Node15</title>
<path fill="none" stroke="midnightblue" d="M89.6844,-266.491C105.574,-262.727 124.593,-258.858 142,-257 193.803,-251.471 253.098,-252.028 295.95,-253.646"/>
<polygon fill="midnightblue" stroke="midnightblue" points="296.066,-257.154 306.201,-254.065 296.352,-250.16 296.066,-257.154"/>
</g>
<!-- Node16 -->
<g id="node16" class="node"><title>Node16</title>
<g id="a_node16"><a xlink:href="nntp_8c.html#a9e68ab8a2df1db15a41deb835a62f2d4" target="_top" xlink:title="Parse cross&#45;reference. ">
<polygon fill="white" stroke="red" points="163,-266.5 163,-285.5 249,-285.5 249,-266.5 163,-266.5"/>
<text text-anchor="middle" x="206" y="-273.5" font-family="Helvetica,sans-Serif" font-size="10.00">nntp_parse_xref</text>
</a>
</g>
</g>
<!-- Node1&#45;&gt;Node16 -->
<g id="edge19" class="edge"><title>Node1&#45;&gt;Node16</title>
<path fill="none" stroke="midnightblue" d="M105.543,-276C120.676,-276 137.242,-276 152.437,-276"/>
<polygon fill="midnightblue" stroke="midnightblue" points="152.704,-279.5 162.704,-276 152.704,-272.5 152.704,-279.5"/>
</g>
<!-- Node4&#45;&gt;Node5 -->
<g id="edge4" class="edge"><title>Node4&#45;&gt;Node5</title>
<path fill="none" stroke="midnightblue" d="M254.235,-428C268.463,-428 284.217,-428 298.958,-428"/>
<polygon fill="midnightblue" stroke="midnightblue" points="298.971,-431.5 308.971,-428 298.971,-424.5 298.971,-431.5"/>
</g>
<!-- Node6&#45;&gt;Node5 -->
<g id="edge6" class="edge"><title>Node6&#45;&gt;Node5</title>
<path fill="none" stroke="midnightblue" d="M244.347,-399.589C263.701,-404.558 287.53,-410.677 308.113,-415.961"/>
<polygon fill="midnightblue" stroke="midnightblue" points="307.366,-419.383 317.922,-418.48 309.107,-412.603 307.366,-419.383"/>
</g>
<!-- Node7&#45;&gt;Node8 -->
<g id="edge8" class="edge"><title>Node7&#45;&gt;Node8</title>
<path fill="none" stroke="midnightblue" d="M269.765,-314C280.87,-314 292.321,-314 303.085,-314"/>
<polygon fill="midnightblue" stroke="midnightblue" points="303.161,-317.5 313.161,-314 303.161,-310.5 303.161,-317.5"/>
</g>
<!-- Node9&#45;&gt;Node10 -->
<g id="edge11" class="edge"><title>Node9&#45;&gt;Node10</title>
<path fill="none" stroke="midnightblue" d="M256.282,-168.327C269.815,-170.064 284.594,-171.961 298.499,-173.746"/>
<polygon fill="midnightblue" stroke="midnightblue" points="298.074,-177.221 308.438,-175.023 298.966,-170.278 298.074,-177.221"/>
</g>
<!-- Node16&#45;&gt;Node8 -->
<g id="edge20" class="edge"><title>Node16&#45;&gt;Node8</title>
<path fill="none" stroke="midnightblue" d="M244.347,-285.589C263.701,-290.558 287.53,-296.677 308.113,-301.961"/>
<polygon fill="midnightblue" stroke="midnightblue" points="307.366,-305.383 317.922,-304.48 309.107,-298.603 307.366,-305.383"/>
</g>
<!-- Node16&#45;&gt;Node15 -->
<g id="edge21" class="edge"><title>Node16&#45;&gt;Node15</title>
<path fill="none" stroke="midnightblue" d="M249.015,-270.606C263.667,-268.725 280.39,-266.578 296.154,-264.555"/>
<polygon fill="midnightblue" stroke="midnightblue" points="296.871,-267.991 306.344,-263.246 295.98,-261.048 296.871,-267.991"/>
</g>
</g>
</svg>
