<?xml version="1.0" encoding="UTF-8" standalone="no"?>
<!DOCTYPE svg PUBLIC "-//W3C//DTD SVG 1.1//EN"
 "http://www.w3.org/Graphics/SVG/1.1/DTD/svg11.dtd">
<!-- Generated by graphviz version 2.36.0 (20140111.2315)
 -->
<!-- Title: get_description Pages: 1 -->
<svg width="254pt" height="104pt"
 viewBox="0.00 0.00 254.00 104.00" xmlns="http://www.w3.org/2000/svg" xmlns:xlink="http://www.w3.org/1999/xlink">
<g id="graph0" class="graph" transform="scale(1 1) rotate(0) translate(4 100)">
<title>get_description</title>
<polygon fill="white" stroke="none" points="-4,4 -4,-100 250,-100 250,4 -4,4"/>
<!-- Node1 -->
<g id="node1" class="node"><title>Node1</title>
<polygon fill="#bfbfbf" stroke="black" points="0.5,-38.5 0.5,-57.5 83.5,-57.5 83.5,-38.5 0.5,-38.5"/>
<text text-anchor="middle" x="42" y="-45.5" font-family="Helvetica,sans-Serif" font-size="10.00">get_description</text>
</g>
<!-- Node2 -->
<g id="node2" class="node"><title>Node2</title>
<g id="a_node2"><a xlink:href="nntp_8c.html#a8937869a90d4a2a52850c1d197ff000b" target="_top" xlink:title="Implements MxOps::mbox_open() ">
<polygon fill="white" stroke="black" points="137.5,-76.5 137.5,-95.5 228.5,-95.5 228.5,-76.5 137.5,-76.5"/>
<text text-anchor="middle" x="183" y="-83.5" font-family="Helvetica,sans-Serif" font-size="10.00">nntp_mbox_open</text>
</a>
</g>
</g>
<!-- Node1&#45;&gt;Node2 -->
<g id="edge1" class="edge"><title>Node1&#45;&gt;Node2</title>
<path fill="none" stroke="midnightblue" d="M87.7953,-60.2462C106.955,-65.484 128.994,-71.5091 146.936,-76.4141"/>
<polygon fill="midnightblue" stroke="midnightblue" points="88.6446,-56.85 78.0756,-57.589 86.7986,-63.6022 88.6446,-56.85"/>
</g>
<!-- Node3 -->
<g id="node3" class="node"><title>Node3</title>
<g id="a_node3"><a xlink:href="nntp_8h.html#a04bc6b58270f4fdd630672c692bf0ba6" target="_top" xlink:title="Fetch list of all newsgroups from server. ">
<polygon fill="white" stroke="red" points="136,-38.5 136,-57.5 230,-57.5 230,-38.5 136,-38.5"/>
<text text-anchor="middle" x="183" y="-45.5" font-family="Helvetica,sans-Serif" font-size="10.00">nntp_active_fetch</text>
</a>
</g>
</g>
<!-- Node1&#45;&gt;Node3 -->
<g id="edge2" class="edge"><title>Node1&#45;&gt;Node3</title>
<path fill="none" stroke="midnightblue" d="M93.8222,-48C107.536,-48 122.299,-48 135.748,-48"/>
<polygon fill="midnightblue" stroke="midnightblue" points="93.5783,-44.5001 83.5782,-48 93.5782,-51.5001 93.5783,-44.5001"/>
</g>
<!-- Node4 -->
<g id="node4" class="node"><title>Node4</title>
<g id="a_node4"><a xlink:href="nntp__private_8h.html#a8d2eba7519328d548ebd9f811410e62e" target="_top" xlink:title="Check for new groups/articles in subscribed groups. ">
<polygon fill="white" stroke="red" points="120.5,-0.5 120.5,-19.5 245.5,-19.5 245.5,-0.5 120.5,-0.5"/>
<text text-anchor="middle" x="183" y="-7.5" font-family="Helvetica,sans-Serif" font-size="10.00">nntp_check_new_groups</text>
</a>
</g>
</g>
<!-- Node1&#45;&gt;Node4 -->
<g id="edge3" class="edge"><title>Node1&#45;&gt;Node4</title>
<path fill="none" stroke="midnightblue" d="M87.7953,-35.7538C106.955,-30.516 128.994,-24.4909 146.936,-19.5859"/>
<polygon fill="midnightblue" stroke="midnightblue" points="86.7986,-32.3978 78.0756,-38.411 88.6446,-39.15 86.7986,-32.3978"/>
</g>
</g>
</svg>
