<?xml version="1.0" encoding="UTF-8" standalone="no"?>
<!DOCTYPE svg PUBLIC "-//W3C//DTD SVG 1.1//EN"
 "http://www.w3.org/Graphics/SVG/1.1/DTD/svg11.dtd">
<!-- Generated by graphviz version 2.36.0 (20140111.2315)
 -->
<!-- Title: nntp_connect_error Pages: 1 -->
<svg width="606pt" height="161pt"
 viewBox="0.00 0.00 606.00 161.00" xmlns="http://www.w3.org/2000/svg" xmlns:xlink="http://www.w3.org/1999/xlink">
<g id="graph0" class="graph" transform="scale(1 1) rotate(0) translate(4 157)">
<title>nntp_connect_error</title>
<polygon fill="white" stroke="none" points="-4,4 -4,-157 602,-157 602,4 -4,4"/>
<!-- Node1 -->
<g id="node1" class="node"><title>Node1</title>
<polygon fill="#bfbfbf" stroke="black" points="0,-57.5 0,-76.5 100,-76.5 100,-57.5 0,-57.5"/>
<text text-anchor="middle" x="50" y="-64.5" font-family="Helvetica,sans-Serif" font-size="10.00">nntp_connect_error</text>
</g>
<!-- Node2 -->
<g id="node2" class="node"><title>Node2</title>
<g id="a_node2"><a xlink:href="nntp_8c.html#a97dd9b196e260ddde63fddd3d56bf3ea" target="_top" xlink:title="Get capabilities. ">
<polygon fill="white" stroke="black" points="148.5,-133.5 148.5,-152.5 237.5,-152.5 237.5,-133.5 148.5,-133.5"/>
<text text-anchor="middle" x="193" y="-140.5" font-family="Helvetica,sans-Serif" font-size="10.00">nntp_capabilities</text>
</a>
</g>
</g>
<!-- Node1&#45;&gt;Node2 -->
<g id="edge1" class="edge"><title>Node1&#45;&gt;Node2</title>
<path fill="none" stroke="midnightblue" d="M73.9624,-82.2953C90.7768,-93.1841 114.345,-107.81 136,-119 146.149,-124.244 157.701,-129.335 167.667,-133.469"/>
<polygon fill="midnightblue" stroke="midnightblue" points="75.6557,-79.2206 65.371,-76.6759 71.824,-85.0788 75.6557,-79.2206"/>
</g>
<!-- Node3 -->
<g id="node3" class="node"><title>Node3</title>
<g id="a_node3"><a xlink:href="nntp__private_8h.html#a864c34fdab5ddf5d793c021bbfc57d0e" target="_top" xlink:title="Connect to server, authenticate and get capabilities. ">
<polygon fill="white" stroke="red" points="286,-76.5 286,-95.5 400,-95.5 400,-76.5 286,-76.5"/>
<text text-anchor="middle" x="343" y="-83.5" font-family="Helvetica,sans-Serif" font-size="10.00">nntp_open_connection</text>
</a>
</g>
</g>
<!-- Node1&#45;&gt;Node3 -->
<g id="edge7" class="edge"><title>Node1&#45;&gt;Node3</title>
<path fill="none" stroke="midnightblue" d="M95.5202,-78.8843C108.476,-81.8153 122.717,-84.5336 136,-86 186.478,-91.5729 244.339,-90.9634 285.861,-89.3154"/>
<polygon fill="midnightblue" stroke="midnightblue" points="95.9852,-75.398 85.4487,-76.5079 94.3777,-82.2109 95.9852,-75.398"/>
</g>
<!-- Node4 -->
<g id="node4" class="node"><title>Node4</title>
<g id="a_node4"><a xlink:href="nntp_8c.html#a260031b04aa34ce1aa815e194e468c65" target="_top" xlink:title="Send data from buffer and receive answer to same buffer. ">
<polygon fill="white" stroke="red" points="436.5,-19.5 436.5,-38.5 501.5,-38.5 501.5,-19.5 436.5,-19.5"/>
<text text-anchor="middle" x="469" y="-26.5" font-family="Helvetica,sans-Serif" font-size="10.00">nntp_query</text>
</a>
</g>
</g>
<!-- Node1&#45;&gt;Node4 -->
<g id="edge8" class="edge"><title>Node1&#45;&gt;Node4</title>
<path fill="none" stroke="midnightblue" d="M97.6948,-55.1298C110.074,-52.3771 123.481,-49.7456 136,-48 245.5,-32.732 376.956,-29.6745 436.247,-29.103"/>
<polygon fill="midnightblue" stroke="midnightblue" points="96.542,-51.8034 87.5797,-57.4538 98.1095,-58.6257 96.542,-51.8034"/>
</g>
<!-- Node5 -->
<g id="node5" class="node"><title>Node5</title>
<g id="a_node5"><a xlink:href="nntp_8h.html#abe053ff2eae1047d92b96054b41bfbdc" target="_top" xlink:title="Post article. ">
<polygon fill="white" stroke="red" points="538.5,-0.5 538.5,-19.5 597.5,-19.5 597.5,-0.5 538.5,-0.5"/>
<text text-anchor="middle" x="568" y="-7.5" font-family="Helvetica,sans-Serif" font-size="10.00">nntp_post</text>
</a>
</g>
</g>
<!-- Node1&#45;&gt;Node5 -->
<g id="edge9" class="edge"><title>Node1&#45;&gt;Node5</title>
<path fill="none" stroke="midnightblue" d="M78.7685,-52.9379C95.0249,-45.3809 116.192,-36.6777 136,-32 284.024,2.95632 468.304,-3.69231 538.262,-7.94356"/>
<polygon fill="midnightblue" stroke="midnightblue" points="76.8483,-49.9765 69.3373,-57.4489 79.8687,-56.2914 76.8483,-49.9765"/>
</g>
<!-- Node6 -->
<g id="node6" class="node"><title>Node6</title>
<g id="a_node6"><a xlink:href="nntp_8c.html#ad87ff27bb49724fa051cf59a9111568c" target="_top" xlink:title="Detect supported commands. ">
<polygon fill="white" stroke="black" points="136,-57.5 136,-76.5 250,-76.5 250,-57.5 136,-57.5"/>
<text text-anchor="middle" x="193" y="-64.5" font-family="Helvetica,sans-Serif" font-size="10.00">nntp_attempt_features</text>
</a>
</g>
</g>
<!-- Node1&#45;&gt;Node6 -->
<g id="edge5" class="edge"><title>Node1&#45;&gt;Node6</title>
<path fill="none" stroke="midnightblue" d="M110.404,-67C118.79,-67 127.391,-67 135.716,-67"/>
<polygon fill="midnightblue" stroke="midnightblue" points="110.315,-63.5001 100.315,-67 110.315,-70.5001 110.315,-63.5001"/>
</g>
<!-- Node2&#45;&gt;Node3 -->
<g id="edge2" class="edge"><title>Node2&#45;&gt;Node3</title>
<path fill="none" stroke="midnightblue" d="M228.281,-129.797C255.456,-119.331 292.787,-104.954 317.147,-95.5716"/>
<polygon fill="midnightblue" stroke="midnightblue" points="226.846,-126.599 218.772,-133.459 229.362,-133.132 226.846,-126.599"/>
</g>
<!-- Node3&#45;&gt;Node4 -->
<g id="edge3" class="edge"><title>Node3&#45;&gt;Node4</title>
<path fill="none" stroke="midnightblue" d="M373.928,-72.2426C396.585,-61.8281 427.125,-47.7892 447.177,-38.5716"/>
<polygon fill="midnightblue" stroke="midnightblue" points="372.379,-69.1027 364.755,-76.4595 375.303,-75.4629 372.379,-69.1027"/>
</g>
<!-- Node4&#45;&gt;Node5 -->
<g id="edge4" class="edge"><title>Node4&#45;&gt;Node5</title>
<path fill="none" stroke="midnightblue" d="M511.732,-20.8257C520.743,-19.0606 530.072,-17.2333 538.442,-15.5939"/>
<polygon fill="midnightblue" stroke="midnightblue" points="510.902,-17.4216 501.761,-22.7787 512.248,-24.2911 510.902,-17.4216"/>
</g>
<!-- Node6&#45;&gt;Node3 -->
<g id="edge6" class="edge"><title>Node6&#45;&gt;Node3</title>
<path fill="none" stroke="midnightblue" d="M260.558,-75.5446C268.984,-76.6263 277.539,-77.7246 285.782,-78.7828"/>
<polygon fill="midnightblue" stroke="midnightblue" points="260.739,-72.0392 250.375,-74.2373 259.848,-78.9822 260.739,-72.0392"/>
</g>
</g>
</svg>
