<?xml version="1.0" encoding="UTF-8" standalone="no"?>
<!DOCTYPE svg PUBLIC "-//W3C//DTD SVG 1.1//EN"
 "http://www.w3.org/Graphics/SVG/1.1/DTD/svg11.dtd">
<!-- Generated by graphviz version 2.36.0 (20140111.2315)
 -->
<!-- Title: nntp_parse_xref Pages: 1 -->
<svg width="492pt" height="142pt"
 viewBox="0.00 0.00 492.00 142.00" xmlns="http://www.w3.org/2000/svg" xmlns:xlink="http://www.w3.org/1999/xlink">
<g id="graph0" class="graph" transform="scale(1 1) rotate(0) translate(4 138)">
<title>nntp_parse_xref</title>
<polygon fill="white" stroke="none" points="-4,4 -4,-138 488,-138 488,4 -4,4"/>
<!-- Node1 -->
<g id="node1" class="node"><title>Node1</title>
<polygon fill="#bfbfbf" stroke="black" points="0,-57.5 0,-76.5 86,-76.5 86,-57.5 0,-57.5"/>
<text text-anchor="middle" x="43" y="-64.5" font-family="Helvetica,sans-Serif" font-size="10.00">nntp_parse_xref</text>
</g>
<!-- Node2 -->
<g id="node2" class="node"><title>Node2</title>
<g id="a_node2"><a xlink:href="nntp_8c.html#a5e39d9fec82ed686b26efe2aef42d906" target="_top" xlink:title="Parse overview line. ">
<polygon fill="white" stroke="black" points="122.5,-114.5 122.5,-133.5 227.5,-133.5 227.5,-114.5 122.5,-114.5"/>
<text text-anchor="middle" x="175" y="-121.5" font-family="Helvetica,sans-Serif" font-size="10.00">parse_overview_line</text>
</a>
</g>
</g>
<!-- Node1&#45;&gt;Node2 -->
<g id="edge1" class="edge"><title>Node1&#45;&gt;Node2</title>
<path fill="none" stroke="midnightblue" d="M75.0588,-80.6181C98.8428,-91.0465 131.054,-105.17 152.17,-114.428"/>
<polygon fill="midnightblue" stroke="midnightblue" points="76.3229,-77.3507 65.7591,-76.5405 73.5119,-83.7616 76.3229,-77.3507"/>
</g>
<!-- Node3 -->
<g id="node3" class="node"><title>Node3</title>
<g id="a_node3"><a xlink:href="nntp_8c.html#a6437065331602c01b06ab900ba7eb9e4" target="_top" xlink:title="Fetch headers. ">
<polygon fill="white" stroke="red" points="264,-76.5 264,-95.5 366,-95.5 366,-76.5 264,-76.5"/>
<text text-anchor="middle" x="315" y="-83.5" font-family="Helvetica,sans-Serif" font-size="10.00">nntp_fetch_headers</text>
</a>
</g>
</g>
<!-- Node1&#45;&gt;Node3 -->
<g id="edge4" class="edge"><title>Node1&#45;&gt;Node3</title>
<path fill="none" stroke="midnightblue" d="M96.4502,-70.6909C144.841,-74.0963 216.201,-79.1179 263.848,-82.4708"/>
<polygon fill="midnightblue" stroke="midnightblue" points="96.4086,-67.1794 86.1875,-69.9688 95.9171,-74.1622 96.4086,-67.1794"/>
</g>
<!-- Node4 -->
<g id="node4" class="node"><title>Node4</title>
<g id="a_node4"><a xlink:href="nntp_8c.html#a7e2d3f32389db957efa45387884208e4" target="_top" xlink:title="Check current newsgroup for new articles. ">
<polygon fill="white" stroke="red" points="402,-57.5 402,-76.5 484,-76.5 484,-57.5 402,-57.5"/>
<text text-anchor="middle" x="443" y="-64.5" font-family="Helvetica,sans-Serif" font-size="10.00">check_mailbox</text>
</a>
</g>
</g>
<!-- Node1&#45;&gt;Node4 -->
<g id="edge5" class="edge"><title>Node1&#45;&gt;Node4</title>
<path fill="none" stroke="midnightblue" d="M96.6321,-67C177.286,-67 329.689,-67 401.994,-67"/>
<polygon fill="midnightblue" stroke="midnightblue" points="96.2162,-63.5001 86.2162,-67 96.2161,-70.5001 96.2162,-63.5001"/>
</g>
<!-- Node5 -->
<g id="node5" class="node"><title>Node5</title>
<g id="a_node5"><a xlink:href="nntp_8h.html#a95d1bde908ca9d70a12fe5fa2b5ce0af" target="_top" xlink:title="Fetch article by Message&#45;ID. ">
<polygon fill="white" stroke="red" points="126,-0.5 126,-19.5 224,-19.5 224,-0.5 126,-0.5"/>
<text text-anchor="middle" x="175" y="-7.5" font-family="Helvetica,sans-Serif" font-size="10.00">nntp_check_msgid</text>
</a>
</g>
</g>
<!-- Node1&#45;&gt;Node5 -->
<g id="edge6" class="edge"><title>Node1&#45;&gt;Node5</title>
<path fill="none" stroke="midnightblue" d="M75.0588,-53.3819C98.8428,-42.9535 131.054,-28.8303 152.17,-19.5716"/>
<polygon fill="midnightblue" stroke="midnightblue" points="73.5119,-50.2384 65.7591,-57.4595 76.3229,-56.6493 73.5119,-50.2384"/>
</g>
<!-- Node2&#45;&gt;Node3 -->
<g id="edge2" class="edge"><title>Node2&#45;&gt;Node3</title>
<path fill="none" stroke="midnightblue" d="M220.473,-111.754C239.495,-106.516 261.375,-100.491 279.188,-95.5859"/>
<polygon fill="midnightblue" stroke="midnightblue" points="219.535,-108.382 210.823,-114.411 221.394,-115.131 219.535,-108.382"/>
</g>
<!-- Node3&#45;&gt;Node4 -->
<g id="edge3" class="edge"><title>Node3&#45;&gt;Node4</title>
<path fill="none" stroke="midnightblue" d="M376.23,-76.9177C384.868,-75.6151 393.576,-74.302 401.702,-73.0766"/>
<polygon fill="midnightblue" stroke="midnightblue" points="375.527,-73.4841 366.161,-78.4361 376.571,-80.4058 375.527,-73.4841"/>
</g>
</g>
</svg>
