<?xml version="1.0" encoding="UTF-8" standalone="no"?>
<!DOCTYPE svg PUBLIC "-//W3C//DTD SVG 1.1//EN"
 "http://www.w3.org/Graphics/SVG/1.1/DTD/svg11.dtd">
<!-- Generated by graphviz version 2.36.0 (20140111.2315)
 -->
<!-- Title: display_line Pages: 1 -->
<svg width="318pt" height="47pt"
 viewBox="0.00 0.00 318.00 47.00" xmlns="http://www.w3.org/2000/svg" xmlns:xlink="http://www.w3.org/1999/xlink">
<g id="graph0" class="graph" transform="scale(1 1) rotate(0) translate(4 43)">
<title>display_line</title>
<polygon fill="white" stroke="none" points="-4,4 -4,-43 314,-43 314,4 -4,4"/>
<!-- Node1 -->
<g id="node1" class="node"><title>Node1</title>
<polygon fill="#bfbfbf" stroke="black" points="0,-0.5 0,-19.5 68,-19.5 68,-0.5 0,-0.5"/>
<text text-anchor="middle" x="34" y="-7.5" font-family="Helvetica,sans-Serif" font-size="10.00">display_line</text>
</g>
<!-- Node2 -->
<g id="node2" class="node"><title>Node2</title>
<g id="a_node2"><a xlink:href="pager_8c.html#a52c5ec88001eecfe06a423117fad7346" target="_top" xlink:title="Redraw the pager window. ">
<polygon fill="white" stroke="black" points="104,-19.5 104,-38.5 208,-38.5 208,-19.5 104,-19.5"/>
<text text-anchor="middle" x="156" y="-26.5" font-family="Helvetica,sans-Serif" font-size="10.00">pager_menu_redraw</text>
</a>
</g>
</g>
<!-- Node1&#45;&gt;Node2 -->
<g id="edge1" class="edge"><title>Node1&#45;&gt;Node2</title>
<path fill="none" stroke="midnightblue" d="M78.2178,-16.8428C86.4327,-18.1435 95.1039,-19.5164 103.545,-20.8529"/>
<polygon fill="midnightblue" stroke="midnightblue" points="78.5325,-13.3491 68.1082,-15.2421 77.4378,-20.263 78.5325,-13.3491"/>
</g>
<!-- Node3 -->
<g id="node3" class="node"><title>Node3</title>
<g id="a_node3"><a xlink:href="pager_8h.html#a1f4fb11389135c8767d9c4adca46f0d4" target="_top" xlink:title="Display a file, or help, in a window. ">
<polygon fill="white" stroke="red" points="244.5,-0.5 244.5,-19.5 309.5,-19.5 309.5,-0.5 244.5,-0.5"/>
<text text-anchor="middle" x="277" y="-7.5" font-family="Helvetica,sans-Serif" font-size="10.00">mutt_pager</text>
</a>
</g>
</g>
<!-- Node1&#45;&gt;Node3 -->
<g id="edge3" class="edge"><title>Node1&#45;&gt;Node3</title>
<path fill="none" stroke="midnightblue" d="M78.0246,-10C125.716,-10 201.519,-10 244.16,-10"/>
<polygon fill="midnightblue" stroke="midnightblue" points="78.0047,-6.5001 68.0047,-10 78.0047,-13.5001 78.0047,-6.5001"/>
</g>
<!-- Node2&#45;&gt;Node3 -->
<g id="edge2" class="edge"><title>Node2&#45;&gt;Node3</title>
<path fill="none" stroke="midnightblue" d="M218.059,-19.2511C227.204,-17.791 236.299,-16.3388 244.481,-15.0324"/>
<polygon fill="midnightblue" stroke="midnightblue" points="217.48,-15.799 208.157,-20.832 218.584,-22.7115 217.48,-15.799"/>
</g>
</g>
</svg>
