<?xml version="1.0" encoding="UTF-8" standalone="no"?>
<!DOCTYPE svg PUBLIC "-//W3C//DTD SVG 1.1//EN"
 "http://www.w3.org/Graphics/SVG/1.1/DTD/svg11.dtd">
<!-- Generated by graphviz version 2.36.0 (20140111.2315)
 -->
<!-- Title: pager.h Pages: 1 -->
<svg width="526pt" height="84pt"
 viewBox="0.00 0.00 526.00 84.00" xmlns="http://www.w3.org/2000/svg" xmlns:xlink="http://www.w3.org/1999/xlink">
<g id="graph0" class="graph" transform="scale(1 1) rotate(0) translate(4 80)">
<title>pager.h</title>
<polygon fill="white" stroke="none" points="-4,4 -4,-80 522,-80 522,4 -4,4"/>
<!-- Node1 -->
<g id="node1" class="node"><title>Node1</title>
<polygon fill="#bfbfbf" stroke="black" points="253.5,-56.5 253.5,-75.5 302.5,-75.5 302.5,-56.5 253.5,-56.5"/>
<text text-anchor="middle" x="278" y="-63.5" font-family="Helvetica,sans-Serif" font-size="10.00">pager.h</text>
</g>
<!-- Node2 -->
<g id="node2" class="node"><title>Node2</title>
<g id="a_node2"><a xlink:href="commands_8c.html" target="_top" xlink:title="Manage where the email is piped to external commands. ">
<polygon fill="white" stroke="black" points="-0.5,-0.5 -0.5,-19.5 72.5,-19.5 72.5,-0.5 -0.5,-0.5"/>
<text text-anchor="middle" x="36" y="-7.5" font-family="Helvetica,sans-Serif" font-size="10.00">commands.c</text>
</a>
</g>
</g>
<!-- Node1&#45;&gt;Node2 -->
<g id="edge1" class="edge"><title>Node1&#45;&gt;Node2</title>
<path fill="none" stroke="midnightblue" d="M243.536,-57.3097C198.279,-47.211 119.145,-29.553 72.77,-19.2049"/>
<polygon fill="midnightblue" stroke="midnightblue" points="242.942,-60.7631 253.464,-59.525 244.466,-53.9311 242.942,-60.7631"/>
</g>
<!-- Node3 -->
<g id="node3" class="node"><title>Node3</title>
<g id="a_node3"><a xlink:href="curs__lib_8c.html" target="_top" xlink:title="GUI miscellaneous curses (window drawing) routines. ">
<polygon fill="white" stroke="black" points="90.5,-0.5 90.5,-19.5 149.5,-19.5 149.5,-0.5 90.5,-0.5"/>
<text text-anchor="middle" x="120" y="-7.5" font-family="Helvetica,sans-Serif" font-size="10.00">curs_lib.c</text>
</a>
</g>
</g>
<!-- Node1&#45;&gt;Node3 -->
<g id="edge2" class="edge"><title>Node1&#45;&gt;Node3</title>
<path fill="none" stroke="midnightblue" d="M243.756,-53.2963C214.029,-43.1366 171.685,-28.6646 145.036,-19.5565"/>
<polygon fill="midnightblue" stroke="midnightblue" points="242.718,-56.6403 253.312,-56.5625 244.982,-50.0165 242.718,-56.6403"/>
</g>
<!-- Node4 -->
<g id="node4" class="node"><title>Node4</title>
<g id="a_node4"><a xlink:href="curs__main_8c.html" target="_top" xlink:title="GUI manage the main index (list of emails) ">
<polygon fill="white" stroke="black" points="168,-0.5 168,-19.5 238,-19.5 238,-0.5 168,-0.5"/>
<text text-anchor="middle" x="203" y="-7.5" font-family="Helvetica,sans-Serif" font-size="10.00">curs_main.c</text>
</a>
</g>
</g>
<!-- Node1&#45;&gt;Node4 -->
<g id="edge3" class="edge"><title>Node1&#45;&gt;Node4</title>
<path fill="none" stroke="midnightblue" d="M257.695,-50.3804C244.139,-40.6204 226.758,-28.1057 215.269,-19.8339"/>
<polygon fill="midnightblue" stroke="midnightblue" points="255.79,-53.3213 265.95,-56.324 259.88,-47.6405 255.79,-53.3213"/>
</g>
<!-- Node5 -->
<g id="node5" class="node"><title>Node5</title>
<g id="a_node5"><a xlink:href="help_8c.html" target="_top" xlink:title="Generate the help&#45;line and help&#45;page and GUI display them. ">
<polygon fill="white" stroke="black" points="256.5,-0.5 256.5,-19.5 299.5,-19.5 299.5,-0.5 256.5,-0.5"/>
<text text-anchor="middle" x="278" y="-7.5" font-family="Helvetica,sans-Serif" font-size="10.00">help.c</text>
</a>
</g>
</g>
<!-- Node1&#45;&gt;Node5 -->
<g id="edge4" class="edge"><title>Node1&#45;&gt;Node5</title>
<path fill="none" stroke="midnightblue" d="M278,-45.8045C278,-36.9102 278,-26.7798 278,-19.7511"/>
<polygon fill="midnightblue" stroke="midnightblue" points="274.5,-46.083 278,-56.083 281.5,-46.083 274.5,-46.083"/>
</g>
<!-- Node6 -->
<g id="node6" class="node"><title>Node6</title>
<g id="a_node6"><a xlink:href="init_8h.html" target="_top" xlink:title="Definitions of user variables, sort methods and commands. ">
<polygon fill="white" stroke="red" points="318,-0.5 318,-19.5 356,-19.5 356,-0.5 318,-0.5"/>
<text text-anchor="middle" x="337" y="-7.5" font-family="Helvetica,sans-Serif" font-size="10.00">init.h</text>
</a>
</g>
</g>
<!-- Node1&#45;&gt;Node6 -->
<g id="edge5" class="edge"><title>Node1&#45;&gt;Node6</title>
<path fill="none" stroke="midnightblue" d="M294.895,-49.5372C305.415,-39.9087 318.569,-27.8694 327.348,-19.8339"/>
<polygon fill="midnightblue" stroke="midnightblue" points="292.493,-46.9905 287.479,-56.324 297.219,-52.1542 292.493,-46.9905"/>
</g>
<!-- Node7 -->
<g id="node7" class="node"><title>Node7</title>
<g id="a_node7"><a xlink:href="mutt__attach_8c.html" target="_top" xlink:title="Handling of email attachments. ">
<polygon fill="white" stroke="black" points="374.5,-0.5 374.5,-19.5 451.5,-19.5 451.5,-0.5 374.5,-0.5"/>
<text text-anchor="middle" x="413" y="-7.5" font-family="Helvetica,sans-Serif" font-size="10.00">mutt_attach.c</text>
</a>
</g>
</g>
<!-- Node1&#45;&gt;Node7 -->
<g id="edge6" class="edge"><title>Node1&#45;&gt;Node7</title>
<path fill="none" stroke="midnightblue" d="M308.906,-52.6377C334.24,-42.504 369.431,-28.4274 391.709,-19.5164"/>
<polygon fill="midnightblue" stroke="midnightblue" points="307.376,-49.4799 299.391,-56.4435 309.976,-55.9792 307.376,-49.4799"/>
</g>
<!-- Node8 -->
<g id="node8" class="node"><title>Node8</title>
<g id="a_node8"><a xlink:href="pager_8c.html" target="_top" xlink:title="GUI display a file/email/help in a viewport with paging. ">
<polygon fill="white" stroke="black" points="469.5,-0.5 469.5,-19.5 518.5,-19.5 518.5,-0.5 469.5,-0.5"/>
<text text-anchor="middle" x="494" y="-7.5" font-family="Helvetica,sans-Serif" font-size="10.00">pager.c</text>
</a>
</g>
</g>
<!-- Node1&#45;&gt;Node8 -->
<g id="edge7" class="edge"><title>Node1&#45;&gt;Node8</title>
<path fill="none" stroke="midnightblue" d="M312.928,-56.5439C349.599,-47.6237 408.915,-33.0757 460,-20 463.076,-19.2127 466.305,-18.3738 469.498,-17.5369"/>
<polygon fill="midnightblue" stroke="midnightblue" points="311.651,-53.2522 302.76,-59.0141 313.304,-60.0543 311.651,-53.2522"/>
</g>
</g>
</svg>
