<?xml version="1.0" encoding="UTF-8" standalone="no"?>
<!DOCTYPE svg PUBLIC "-//W3C//DTD SVG 1.1//EN"
 "http://www.w3.org/Graphics/SVG/1.1/DTD/svg11.dtd">
<!-- Generated by graphviz version 2.36.0 (20140111.2315)
 -->
<!-- Title: resolve_color Pages: 1 -->
<svg width="288pt" height="47pt"
 viewBox="0.00 0.00 288.00 47.00" xmlns="http://www.w3.org/2000/svg" xmlns:xlink="http://www.w3.org/1999/xlink">
<g id="graph0" class="graph" transform="scale(1 1) rotate(0) translate(4 43)">
<title>resolve_color</title>
<polygon fill="white" stroke="none" points="-4,4 -4,-43 284,-43 284,4 -4,4"/>
<!-- Node1 -->
<g id="node1" class="node"><title>Node1</title>
<polygon fill="#bfbfbf" stroke="black" points="0,-0.5 0,-19.5 74,-19.5 74,-0.5 0,-0.5"/>
<text text-anchor="middle" x="37" y="-7.5" font-family="Helvetica,sans-Serif" font-size="10.00">resolve_color</text>
</g>
<!-- Node2 -->
<g id="node2" class="node"><title>Node2</title>
<g id="a_node2"><a xlink:href="pager_8c.html#a686af5b2d73b79f65bf1a7941d72b80e" target="_top" xlink:title="Display a line of text in the pager. ">
<polygon fill="white" stroke="black" points="110.5,-19.5 110.5,-38.5 175.5,-38.5 175.5,-19.5 110.5,-19.5"/>
<text text-anchor="middle" x="143" y="-26.5" font-family="Helvetica,sans-Serif" font-size="10.00">format_line</text>
</a>
</g>
</g>
<!-- Node1&#45;&gt;Node2 -->
<g id="edge1" class="edge"><title>Node1&#45;&gt;Node2</title>
<path fill="none" stroke="midnightblue" d="M84.02,-18.4075C92.9629,-20.0413 102.145,-21.7188 110.489,-23.2432"/>
<polygon fill="midnightblue" stroke="midnightblue" points="84.5485,-14.9462 74.0823,-16.592 83.2904,-21.8322 84.5485,-14.9462"/>
</g>
<!-- Node3 -->
<g id="node3" class="node"><title>Node3</title>
<g id="a_node3"><a xlink:href="pager_8c.html#a375e263dc0c06d1ab49d02ecdfe24014" target="_top" xlink:title="Print a line on screen. ">
<polygon fill="white" stroke="red" points="212,-0.5 212,-19.5 280,-19.5 280,-0.5 212,-0.5"/>
<text text-anchor="middle" x="246" y="-7.5" font-family="Helvetica,sans-Serif" font-size="10.00">display_line</text>
</a>
</g>
</g>
<!-- Node1&#45;&gt;Node3 -->
<g id="edge3" class="edge"><title>Node1&#45;&gt;Node3</title>
<path fill="none" stroke="midnightblue" d="M84.5281,-10C123.207,-10 177.306,-10 211.749,-10"/>
<polygon fill="midnightblue" stroke="midnightblue" points="84.0567,-6.5001 74.0566,-10 84.0566,-13.5001 84.0567,-6.5001"/>
</g>
<!-- Node2&#45;&gt;Node3 -->
<g id="edge2" class="edge"><title>Node2&#45;&gt;Node3</title>
<path fill="none" stroke="midnightblue" d="M185.638,-21.167C194.317,-19.5344 203.356,-17.8339 211.687,-16.2668"/>
<polygon fill="midnightblue" stroke="midnightblue" points="184.86,-17.7519 175.68,-23.0404 186.155,-24.6312 184.86,-17.7519"/>
</g>
</g>
</svg>
