<?xml version="1.0" encoding="UTF-8" standalone="no"?>
<!DOCTYPE svg PUBLIC "-//W3C//DTD SVG 1.1//EN"
 "http://www.w3.org/Graphics/SVG/1.1/DTD/svg11.dtd">
<!-- Generated by graphviz version 2.36.0 (20140111.2315)
 -->
<!-- Title: mutt_param_free Pages: 1 -->
<svg width="436pt" height="180pt"
 viewBox="0.00 0.00 436.00 179.99" xmlns="http://www.w3.org/2000/svg" xmlns:xlink="http://www.w3.org/1999/xlink">
<g id="graph0" class="graph" transform="scale(1 1) rotate(0) translate(4 175.992)">
<title>mutt_param_free</title>
<polygon fill="white" stroke="none" points="-4,4 -4,-175.992 432,-175.992 432,4 -4,4"/>
<!-- Node1 -->
<g id="node1" class="node"><title>Node1</title>
<polygon fill="#bfbfbf" stroke="black" points="0,-58.4919 0,-77.4919 90,-77.4919 90,-58.4919 0,-58.4919"/>
<text text-anchor="middle" x="45" y="-65.4919" font-family="Helvetica,sans-Serif" font-size="10.00">mutt_param_free</text>
</g>
<!-- Node2 -->
<g id="node2" class="node"><title>Node2</title>
<g id="a_node2"><a xlink:href="commands_8h.html#a87652bbb3f4fb04d3341434ab719398b" target="_top" xlink:title="Edit the content type of an attachment. ">
<polygon fill="white" stroke="red" points="300.5,-114.492 300.5,-133.492 419.5,-133.492 419.5,-114.492 300.5,-114.492"/>
<text text-anchor="middle" x="360" y="-121.492" font-family="Helvetica,sans-Serif" font-size="10.00">mutt_edit_content_type</text>
</a>
</g>
</g>
<!-- Node1&#45;&gt;Node2 -->
<g id="edge1" class="edge"><title>Node1&#45;&gt;Node2</title>
<path fill="none" stroke="midnightblue" d="M71.0756,-82.3767C86.4275,-90.4655 106.759,-99.9294 126,-104.992 183.893,-120.224 252.424,-124.211 300.114,-124.855"/>
<polygon fill="midnightblue" stroke="midnightblue" points="72.6736,-79.2618 62.2148,-77.5696 69.3356,-85.4147 72.6736,-79.2618"/>
</g>
<!-- Node3 -->
<g id="node3" class="node"><title>Node3</title>
<g id="a_node3"><a xlink:href="body_8h.html#a43826190bac1662a61f5b08d915ee000" target="_top" xlink:title="Free a Body. ">
<polygon fill="white" stroke="red" points="149,-58.4919 149,-77.4919 233,-77.4919 233,-58.4919 149,-58.4919"/>
<text text-anchor="middle" x="191" y="-65.4919" font-family="Helvetica,sans-Serif" font-size="10.00">mutt_body_free</text>
</a>
</g>
</g>
<!-- Node1&#45;&gt;Node3 -->
<g id="edge2" class="edge"><title>Node1&#45;&gt;Node3</title>
<path fill="none" stroke="midnightblue" d="M100.694,-67.9919C116.711,-67.9919 133.943,-67.9919 148.957,-67.9919"/>
<polygon fill="midnightblue" stroke="midnightblue" points="100.38,-64.492 90.3797,-67.9919 100.38,-71.492 100.38,-64.492"/>
</g>
<!-- Node4 -->
<g id="node4" class="node"><title>Node4</title>
<g id="a_node4"><a xlink:href="mutt__attach_8h.html#acf4b24753bffc9e93f0ec9c157c850fe" target="_top" xlink:title="Create an attachment. ">
<polygon fill="white" stroke="red" points="292.5,-20.4919 292.5,-39.4919 427.5,-39.4919 427.5,-20.4919 292.5,-20.4919"/>
<text text-anchor="middle" x="360" y="-27.4919" font-family="Helvetica,sans-Serif" font-size="10.00">mutt_compose_attachment</text>
</a>
</g>
</g>
<!-- Node1&#45;&gt;Node4 -->
<g id="edge9" class="edge"><title>Node1&#45;&gt;Node4</title>
<path fill="none" stroke="midnightblue" d="M62.6947,-51.289C77.7752,-37.4716 101.331,-18.8815 126,-10.9919 196.162,11.4469 283.956,-7.48233 329.113,-20.4001"/>
<polygon fill="midnightblue" stroke="midnightblue" points="60.0743,-48.9508 55.2353,-58.376 64.8958,-54.0256 60.0743,-48.9508"/>
</g>
<!-- Node5 -->
<g id="node5" class="node"><title>Node5</title>
<g id="a_node5"><a xlink:href="parse_8c.html#a8e2b483bdfdf7cf3a2889e11eb7f6c85" target="_top" xlink:title="Parse a content disposition. ">
<polygon fill="white" stroke="red" points="126,-20.4919 126,-39.4919 256,-39.4919 256,-20.4919 126,-20.4919"/>
<text text-anchor="middle" x="191" y="-27.4919" font-family="Helvetica,sans-Serif" font-size="10.00">parse_content_disposition</text>
</a>
</g>
</g>
<!-- Node1&#45;&gt;Node5 -->
<g id="edge6" class="edge"><title>Node1&#45;&gt;Node5</title>
<path fill="none" stroke="midnightblue" d="M92.1722,-55.8075C112.164,-50.5319 135.219,-44.448 153.924,-39.5119"/>
<polygon fill="midnightblue" stroke="midnightblue" points="91.1132,-52.4671 82.3373,-58.4029 92.8994,-59.2354 91.1132,-52.4671"/>
</g>
<!-- Node6 -->
<g id="node6" class="node"><title>Node6</title>
<g id="a_node6"><a xlink:href="parse_8h.html#af56ef02064aceecce24f0145d3a81326" target="_top" xlink:title="Parse a content type. ">
<polygon fill="white" stroke="red" points="127.5,-152.492 127.5,-171.492 254.5,-171.492 254.5,-152.492 127.5,-152.492"/>
<text text-anchor="middle" x="191" y="-159.492" font-family="Helvetica,sans-Serif" font-size="10.00">mutt_parse_content_type</text>
</a>
</g>
</g>
<!-- Node1&#45;&gt;Node6 -->
<g id="edge7" class="edge"><title>Node1&#45;&gt;Node6</title>
<path fill="none" stroke="midnightblue" d="M62.0708,-85.2327C77.3038,-100.753 101.45,-123.316 126,-137.992 135.778,-143.837 147.223,-148.674 157.709,-152.436"/>
<polygon fill="midnightblue" stroke="midnightblue" points="64.4156,-82.6214 54.9624,-77.8373 59.3689,-87.4723 64.4156,-82.6214"/>
</g>
<!-- Node3&#45;&gt;Node2 -->
<g id="edge3" class="edge"><title>Node3&#45;&gt;Node2</title>
<path fill="none" stroke="midnightblue" d="M230.2,-80.8014C260.795,-91.061 303.028,-105.223 330.666,-114.491"/>
<polygon fill="midnightblue" stroke="midnightblue" points="231.302,-77.4796 220.708,-77.6186 229.077,-84.1164 231.302,-77.4796"/>
</g>
<!-- Node3&#45;&gt;Node3 -->
<g id="edge4" class="edge"><title>Node3&#45;&gt;Node3</title>
<path fill="none" stroke="midnightblue" d="M163.747,-86.6458C164.887,-91.9287 173.971,-95.9919 191,-95.9919 216.949,-95.9919 224.45,-86.5571 213.503,-77.7489"/>
<polygon fill="midnightblue" stroke="midnightblue" points="166.875,-88.2189 168.497,-77.7489 160.7,-84.9222 166.875,-88.2189"/>
</g>
<!-- Node3&#45;&gt;Node4 -->
<g id="edge5" class="edge"><title>Node3&#45;&gt;Node4</title>
<path fill="none" stroke="midnightblue" d="M243.15,-56.353C266.828,-50.9652 294.612,-44.6431 317.034,-39.541"/>
<polygon fill="midnightblue" stroke="midnightblue" points="242.255,-52.967 233.281,-58.5986 243.808,-59.7926 242.255,-52.967"/>
</g>
<!-- Node6&#45;&gt;Node2 -->
<g id="edge8" class="edge"><title>Node6&#45;&gt;Node2</title>
<path fill="none" stroke="midnightblue" d="M243.965,-150.168C267.509,-144.81 294.974,-138.561 317.162,-133.512"/>
<polygon fill="midnightblue" stroke="midnightblue" points="243.115,-146.771 234.141,-152.403 244.668,-153.597 243.115,-146.771"/>
</g>
</g>
</svg>
