<?xml version="1.0" encoding="UTF-8" standalone="no"?>
<!DOCTYPE svg PUBLIC "-//W3C//DTD SVG 1.1//EN"
 "http://www.w3.org/Graphics/SVG/1.1/DTD/svg11.dtd">
<!-- Generated by graphviz version 2.36.0 (20140111.2315)
 -->
<!-- Title: mutt_param_set Pages: 1 -->
<svg width="378pt" height="180pt"
 viewBox="0.00 0.00 378.00 180.00" xmlns="http://www.w3.org/2000/svg" xmlns:xlink="http://www.w3.org/1999/xlink">
<g id="graph0" class="graph" transform="scale(1 1) rotate(0) translate(4 176)">
<title>mutt_param_set</title>
<polygon fill="white" stroke="none" points="-4,4 -4,-176 374,-176 374,4 -4,4"/>
<!-- Node1 -->
<g id="node1" class="node"><title>Node1</title>
<polygon fill="#bfbfbf" stroke="black" points="0.5,-76.5 0.5,-95.5 87.5,-95.5 87.5,-76.5 0.5,-76.5"/>
<text text-anchor="middle" x="44" y="-83.5" font-family="Helvetica,sans-Serif" font-size="10.00">mutt_param_set</text>
</g>
<!-- Node2 -->
<g id="node2" class="node"><title>Node2</title>
<g id="a_node2"><a xlink:href="parameter_8c.html#a808f2417517d44fed6931e6266e6328e" target="_top" xlink:title="Delete a matching Parameter. ">
<polygon fill="white" stroke="red" points="124,-152.5 124,-171.5 224,-171.5 224,-152.5 124,-152.5"/>
<text text-anchor="middle" x="174" y="-159.5" font-family="Helvetica,sans-Serif" font-size="10.00">mutt_param_delete</text>
</a>
</g>
</g>
<!-- Node1&#45;&gt;Node2 -->
<g id="edge1" class="edge"><title>Node1&#45;&gt;Node2</title>
<path fill="none" stroke="midnightblue" d="M58.3715,-95.555C73.8239,-106.418 100.187,-124.404 124,-138 129.83,-141.329 136.188,-144.654 142.334,-147.722"/>
<polygon fill="midnightblue" stroke="midnightblue" points="141.19,-151.059 151.713,-152.297 144.259,-144.767 141.19,-151.059"/>
</g>
<!-- Node3 -->
<g id="node3" class="node"><title>Node3</title>
<g id="a_node3"><a xlink:href="mutt_2string_8c.html#a011e5b6fad43bc608584d585987cf9c1" target="_top" xlink:title="Compare two strings ignoring case, safely. ">
<polygon fill="white" stroke="black" points="260.5,-123.5 260.5,-142.5 369.5,-142.5 369.5,-123.5 260.5,-123.5"/>
<text text-anchor="middle" x="315" y="-130.5" font-family="Helvetica,sans-Serif" font-size="10.00">mutt_str_strcasecmp</text>
</a>
</g>
</g>
<!-- Node1&#45;&gt;Node3 -->
<g id="edge3" class="edge"><title>Node1&#45;&gt;Node3</title>
<path fill="none" stroke="midnightblue" d="M81.8258,-95.5816C95.0666,-98.8342 110.151,-102.32 124,-105 165.741,-113.078 213.038,-120.056 250.001,-125.025"/>
<polygon fill="midnightblue" stroke="midnightblue" points="249.766,-128.524 260.14,-126.372 250.688,-121.585 249.766,-128.524"/>
</g>
<!-- Node4 -->
<g id="node4" class="node"><title>Node4</title>
<g id="a_node4"><a xlink:href="mutt_2string_8c.html#ad5b66f8059a202f7bfa5fc4fa3047c67" target="_top" xlink:title="Replace one string with another. ">
<polygon fill="white" stroke="black" points="129.5,-76.5 129.5,-95.5 218.5,-95.5 218.5,-76.5 129.5,-76.5"/>
<text text-anchor="middle" x="174" y="-83.5" font-family="Helvetica,sans-Serif" font-size="10.00">mutt_str_replace</text>
</a>
</g>
</g>
<!-- Node1&#45;&gt;Node4 -->
<g id="edge4" class="edge"><title>Node1&#45;&gt;Node4</title>
<path fill="none" stroke="midnightblue" d="M87.6221,-86C97.6582,-86 108.487,-86 118.951,-86"/>
<polygon fill="midnightblue" stroke="midnightblue" points="119.252,-89.5001 129.252,-86 119.252,-82.5001 119.252,-89.5001"/>
</g>
<!-- Node5 -->
<g id="node5" class="node"><title>Node5</title>
<g id="a_node5"><a xlink:href="mutt_2string_8c.html#ae48085384a6545e0fac589a88243ea31" target="_top" xlink:title="Copy a string, safely. ">
<polygon fill="white" stroke="red" points="272.5,-66.5 272.5,-85.5 357.5,-85.5 357.5,-66.5 272.5,-66.5"/>
<text text-anchor="middle" x="315" y="-73.5" font-family="Helvetica,sans-Serif" font-size="10.00">mutt_str_strdup</text>
</a>
</g>
</g>
<!-- Node1&#45;&gt;Node5 -->
<g id="edge7" class="edge"><title>Node1&#45;&gt;Node5</title>
<path fill="none" stroke="midnightblue" d="M76.9751,-76.4937C91.2285,-72.7294 108.311,-68.8602 124,-67 170.462,-61.4914 223.692,-64.8367 261.967,-68.9231"/>
<polygon fill="midnightblue" stroke="midnightblue" points="262.02,-72.4509 272.348,-70.0885 262.801,-65.4946 262.02,-72.4509"/>
</g>
<!-- Node6 -->
<g id="node6" class="node"><title>Node6</title>
<g id="a_node6"><a xlink:href="parameter_8c.html#a1803c58ed69023209843708d6502eab2" target="_top" xlink:title="Create a new Parameter. ">
<polygon fill="white" stroke="red" points="128,-0.5 128,-19.5 220,-19.5 220,-0.5 128,-0.5"/>
<text text-anchor="middle" x="174" y="-7.5" font-family="Helvetica,sans-Serif" font-size="10.00">mutt_param_new</text>
</a>
</g>
</g>
<!-- Node1&#45;&gt;Node6 -->
<g id="edge6" class="edge"><title>Node1&#45;&gt;Node6</title>
<path fill="none" stroke="midnightblue" d="M58.3715,-76.445C73.8239,-65.5824 100.187,-47.5963 124,-34 129.83,-30.6711 136.188,-27.3459 142.334,-24.2775"/>
<polygon fill="midnightblue" stroke="midnightblue" points="144.259,-27.233 151.713,-19.7034 141.19,-20.9414 144.259,-27.233"/>
</g>
<!-- Node2&#45;&gt;Node3 -->
<g id="edge2" class="edge"><title>Node2&#45;&gt;Node3</title>
<path fill="none" stroke="midnightblue" d="M220.899,-152.424C232.879,-149.924 245.921,-147.204 258.347,-144.611"/>
<polygon fill="midnightblue" stroke="midnightblue" points="259.075,-148.035 268.149,-142.566 257.645,-141.182 259.075,-148.035"/>
</g>
<!-- Node4&#45;&gt;Node5 -->
<g id="edge5" class="edge"><title>Node4&#45;&gt;Node5</title>
<path fill="none" stroke="midnightblue" d="M218.599,-82.8634C232.438,-81.8678 247.875,-80.7572 262.231,-79.7244"/>
<polygon fill="midnightblue" stroke="midnightblue" points="262.731,-83.1975 272.454,-78.9889 262.229,-76.2156 262.731,-83.1975"/>
</g>
</g>
</svg>
