<?xml version="1.0" encoding="UTF-8" standalone="no"?>
<!DOCTYPE svg PUBLIC "-//W3C//DTD SVG 1.1//EN"
 "http://www.w3.org/Graphics/SVG/1.1/DTD/svg11.dtd">
<!-- Generated by graphviz version 2.36.0 (20140111.2315)
 -->
<!-- Title: mutt_param_set Pages: 1 -->
<svg width="458pt" height="605pt"
 viewBox="0.00 0.00 458.00 605.28" xmlns="http://www.w3.org/2000/svg" xmlns:xlink="http://www.w3.org/1999/xlink">
<g id="graph0" class="graph" transform="scale(1 1) rotate(0) translate(4 601.28)">
<title>mutt_param_set</title>
<polygon fill="white" stroke="none" points="-4,4 -4,-601.28 454,-601.28 454,4 -4,4"/>
<!-- Node1 -->
<g id="node1" class="node"><title>Node1</title>
<polygon fill="#bfbfbf" stroke="black" points="0.5,-311.5 0.5,-330.5 87.5,-330.5 87.5,-311.5 0.5,-311.5"/>
<text text-anchor="middle" x="44" y="-318.5" font-family="Helvetica,sans-Serif" font-size="10.00">mutt_param_set</text>
</g>
<!-- Node2 -->
<g id="node2" class="node"><title>Node2</title>
<g id="a_node2"><a xlink:href="parse_8h.html#af56ef02064aceecce24f0145d3a81326" target="_top" xlink:title="Parse a content type. ">
<polygon fill="white" stroke="red" points="130.5,-539.5 130.5,-558.5 257.5,-558.5 257.5,-539.5 130.5,-539.5"/>
<text text-anchor="middle" x="194" y="-546.5" font-family="Helvetica,sans-Serif" font-size="10.00">mutt_parse_content_type</text>
</a>
</g>
</g>
<!-- Node1&#45;&gt;Node2 -->
<g id="edge1" class="edge"><title>Node1&#45;&gt;Node2</title>
<path fill="none" stroke="midnightblue" d="M47.1524,-340.779C52.5744,-381.08 70.4285,-473.258 124,-525 130.568,-531.344 138.9,-536.018 147.484,-539.46"/>
<polygon fill="midnightblue" stroke="midnightblue" points="50.6022,-340.156 45.9104,-330.657 43.6543,-341.008 50.6022,-340.156"/>
</g>
<!-- Node3 -->
<g id="node3" class="node"><title>Node3</title>
<g id="a_node3"><a xlink:href="parse_8h.html#ad373211d5d49e235c1aa9b818f0f10a1" target="_top" xlink:title="Parse a MIME header. ">
<polygon fill="white" stroke="red" points="313,-558.5 313,-577.5 437,-577.5 437,-558.5 313,-558.5"/>
<text text-anchor="middle" x="375" y="-565.5" font-family="Helvetica,sans-Serif" font-size="10.00">mutt_read_mime_header</text>
</a>
</g>
</g>
<!-- Node1&#45;&gt;Node3 -->
<g id="edge4" class="edge"><title>Node1&#45;&gt;Node3</title>
<path fill="none" stroke="midnightblue" d="M44.2737,-340.634C43.6908,-388.987 49.7716,-513.808 124,-568 190.779,-616.753 296.609,-592.948 346.392,-577.575"/>
<polygon fill="midnightblue" stroke="midnightblue" points="47.7745,-340.635 44.5106,-330.555 40.7764,-340.47 47.7745,-340.635"/>
</g>
<!-- Node4 -->
<g id="node4" class="node"><title>Node4</title>
<g id="a_node4"><a xlink:href="send_8h.html#a09c909ab2bb41101590ed2b13f65fc2d" target="_top" xlink:title="Send an email. ">
<polygon fill="white" stroke="red" points="327.5,-501.5 327.5,-520.5 422.5,-520.5 422.5,-501.5 327.5,-501.5"/>
<text text-anchor="middle" x="375" y="-508.5" font-family="Helvetica,sans-Serif" font-size="10.00">ci_send_message</text>
</a>
</g>
</g>
<!-- Node1&#45;&gt;Node4 -->
<g id="edge14" class="edge"><title>Node1&#45;&gt;Node4</title>
<path fill="none" stroke="midnightblue" d="M49.8911,-340.264C58.9009,-371.567 81.2326,-433.082 124,-464 184.306,-507.597 273.533,-514.165 327.482,-513.561"/>
<polygon fill="midnightblue" stroke="midnightblue" points="53.251,-339.282 47.2481,-330.551 46.4966,-341.12 53.251,-339.282"/>
</g>
<!-- Node5 -->
<g id="node5" class="node"><title>Node5</title>
<g id="a_node5"><a xlink:href="crypt__gpgme_8c.html#a4d07485b28aaf3e4ee49f3faf1fe9c1c" target="_top" xlink:title="Sign a message. ">
<polygon fill="white" stroke="red" points="335,-463.5 335,-482.5 415,-482.5 415,-463.5 335,-463.5"/>
<text text-anchor="middle" x="375" y="-470.5" font-family="Helvetica,sans-Serif" font-size="10.00">sign_message</text>
</a>
</g>
</g>
<!-- Node1&#45;&gt;Node5 -->
<g id="edge5" class="edge"><title>Node1&#45;&gt;Node5</title>
<path fill="none" stroke="midnightblue" d="M53.1373,-340.004C64.8979,-364.998 89.1273,-408.283 124,-430 189.608,-470.858 282.755,-475.905 334.848,-475.039"/>
<polygon fill="midnightblue" stroke="midnightblue" points="56.2955,-338.493 48.9911,-330.818 49.9153,-341.373 56.2955,-338.493"/>
</g>
<!-- Node6 -->
<g id="node6" class="node"><title>Node6</title>
<g id="a_node6"><a xlink:href="crypt__gpgme_8h.html#a2fb40c1e85c9d1f1c1a352ef687365ce" target="_top" xlink:title="Implements CryptModuleSpecs::pgp_encrypt_message() ">
<polygon fill="white" stroke="black" points="300.5,-425.5 300.5,-444.5 449.5,-444.5 449.5,-425.5 300.5,-425.5"/>
<text text-anchor="middle" x="375" y="-432.5" font-family="Helvetica,sans-Serif" font-size="10.00">pgp_gpgme_encrypt_message</text>
</a>
</g>
</g>
<!-- Node1&#45;&gt;Node6 -->
<g id="edge6" class="edge"><title>Node1&#45;&gt;Node6</title>
<path fill="none" stroke="midnightblue" d="M57.4906,-338.774C71.4456,-357.127 95.8148,-385 124,-399 178.981,-426.311 248.595,-434.517 300.393,-436.346"/>
<polygon fill="midnightblue" stroke="midnightblue" points="60.2482,-336.616 51.5054,-330.632 54.6079,-340.762 60.2482,-336.616"/>
</g>
<!-- Node7 -->
<g id="node7" class="node"><title>Node7</title>
<g id="a_node7"><a xlink:href="crypt__gpgme_8h.html#a818613e3494585ba4b974d8d7e7befb3" target="_top" xlink:title="Implements CryptModuleSpecs::smime_build_smime_entity() ">
<polygon fill="white" stroke="black" points="124,-224 124,-254 264,-254 264,-224 124,-224"/>
<text text-anchor="start" x="132" y="-242" font-family="Helvetica,sans-Serif" font-size="10.00">smime_gpgme_build_smime</text>
<text text-anchor="middle" x="194" y="-231" font-family="Helvetica,sans-Serif" font-size="10.00">_entity</text>
</a>
</g>
</g>
<!-- Node1&#45;&gt;Node7 -->
<g id="edge7" class="edge"><title>Node1&#45;&gt;Node7</title>
<path fill="none" stroke="midnightblue" d="M66.3636,-305.488C81.9166,-294.559 103.721,-279.977 124,-269 133.879,-263.652 144.908,-258.512 155.199,-254.043"/>
<polygon fill="midnightblue" stroke="midnightblue" points="64.1078,-302.798 57.9874,-311.446 68.165,-308.502 64.1078,-302.798"/>
</g>
<!-- Node8 -->
<g id="node8" class="node"><title>Node8</title>
<g id="a_node8"><a xlink:href="crypt__gpgme_8c.html#a88d302145d6de54860223e5e2b726b21" target="_top" xlink:title="Check one inline PGP body part. ">
<polygon fill="white" stroke="red" points="138.5,-175 138.5,-205 249.5,-205 249.5,-175 138.5,-175"/>
<text text-anchor="start" x="146.5" y="-193" font-family="Helvetica,sans-Serif" font-size="10.00">pgp_check_traditional</text>
<text text-anchor="middle" x="194" y="-182" font-family="Helvetica,sans-Serif" font-size="10.00">_one_body</text>
</a>
</g>
</g>
<!-- Node1&#45;&gt;Node8 -->
<g id="edge8" class="edge"><title>Node1&#45;&gt;Node8</title>
<path fill="none" stroke="midnightblue" d="M54.4216,-302.367C67.183,-278.879 92.0813,-238.714 124,-215 129.114,-211.201 134.862,-207.932 140.802,-205.131"/>
<polygon fill="midnightblue" stroke="midnightblue" points="51.2719,-300.837 49.7105,-311.316 57.466,-304.097 51.2719,-300.837"/>
</g>
<!-- Node9 -->
<g id="node9" class="node"><title>Node9</title>
<g id="a_node9"><a xlink:href="pgp_8h.html#a12c1b61b61e1456fb4f358d563dcf64a" target="_top" xlink:title="Implements CryptModuleSpecs::sign_message() ">
<polygon fill="white" stroke="black" points="310.5,-368.5 310.5,-387.5 439.5,-387.5 439.5,-368.5 310.5,-368.5"/>
<text text-anchor="middle" x="375" y="-375.5" font-family="Helvetica,sans-Serif" font-size="10.00">pgp_class_sign_message</text>
</a>
</g>
</g>
<!-- Node1&#45;&gt;Node9 -->
<g id="edge9" class="edge"><title>Node1&#45;&gt;Node9</title>
<path fill="none" stroke="midnightblue" d="M61.4459,-337.699C76.3123,-351.514 99.5581,-370.103 124,-378 188.429,-398.817 267.17,-394.263 318.855,-387.529"/>
<polygon fill="midnightblue" stroke="midnightblue" points="63.7235,-335.033 54.0946,-330.614 58.8657,-340.073 63.7235,-335.033"/>
</g>
<!-- Node10 -->
<g id="node10" class="node"><title>Node10</title>
<g id="a_node10"><a xlink:href="pgp_8h.html#a2402514e625cf2d0a44e3826056f17d9" target="_top" xlink:title="Implements CryptModuleSpecs::pgp_encrypt_message() ">
<polygon fill="white" stroke="black" points="303.5,-320.5 303.5,-339.5 446.5,-339.5 446.5,-320.5 303.5,-320.5"/>
<text text-anchor="middle" x="375" y="-327.5" font-family="Helvetica,sans-Serif" font-size="10.00">pgp_class_encrypt_message</text>
</a>
</g>
</g>
<!-- Node1&#45;&gt;Node10 -->
<g id="edge10" class="edge"><title>Node1&#45;&gt;Node10</title>
<path fill="none" stroke="midnightblue" d="M97.6922,-322.441C153.448,-323.967 241.736,-326.382 303.464,-328.07"/>
<polygon fill="midnightblue" stroke="midnightblue" points="97.7657,-318.942 87.6737,-322.167 97.5742,-325.94 97.7657,-318.942"/>
</g>
<!-- Node11 -->
<g id="node11" class="node"><title>Node11</title>
<g id="a_node11"><a xlink:href="pgp_8h.html#ac9cc11180d20f595eeffa36d236d5e23" target="_top" xlink:title="Implements CryptModuleSpecs::pgp_traditional_encryptsign() ">
<polygon fill="white" stroke="black" points="140,-126 140,-156 248,-156 248,-126 140,-126"/>
<text text-anchor="start" x="148" y="-144" font-family="Helvetica,sans-Serif" font-size="10.00">pgp_class_traditional</text>
<text text-anchor="middle" x="194" y="-133" font-family="Helvetica,sans-Serif" font-size="10.00">_encryptsign</text>
</a>
</g>
</g>
<!-- Node1&#45;&gt;Node11 -->
<g id="edge11" class="edge"><title>Node1&#45;&gt;Node11</title>
<path fill="none" stroke="midnightblue" d="M49.9043,-301.416C59.0383,-268.832 81.679,-203.383 124,-166 128.679,-161.867 134.095,-158.4 139.794,-155.496"/>
<polygon fill="midnightblue" stroke="midnightblue" points="46.4179,-300.907 47.2267,-311.471 53.1822,-302.708 46.4179,-300.907"/>
</g>
<!-- Node12 -->
<g id="node12" class="node"><title>Node12</title>
<g id="a_node12"><a xlink:href="smime_8h.html#a7c447834a2bcda8aecc09a295778bbae" target="_top" xlink:title="Implements CryptModuleSpecs::smime_build_smime_entity() ">
<polygon fill="white" stroke="black" points="127,-77 127,-107 261,-107 261,-77 127,-77"/>
<text text-anchor="start" x="135" y="-95" font-family="Helvetica,sans-Serif" font-size="10.00">smime_class_build_smime</text>
<text text-anchor="middle" x="194" y="-84" font-family="Helvetica,sans-Serif" font-size="10.00">_entity</text>
</a>
</g>
</g>
<!-- Node1&#45;&gt;Node12 -->
<g id="edge12" class="edge"><title>Node1&#45;&gt;Node12</title>
<path fill="none" stroke="midnightblue" d="M47.2072,-301.277C52.7307,-261.081 70.7626,-169.086 124,-117 127.916,-113.169 132.463,-109.919 137.319,-107.164"/>
<polygon fill="midnightblue" stroke="midnightblue" points="43.7129,-301.014 45.9386,-311.372 50.6582,-301.887 43.7129,-301.014"/>
</g>
<!-- Node13 -->
<g id="node13" class="node"><title>Node13</title>
<g id="a_node13"><a xlink:href="smime_8h.html#aab6734ab49c71e47278862ae0714cb96" target="_top" xlink:title="Implements CryptModuleSpecs::sign_message() ">
<polygon fill="white" stroke="black" points="303.5,-282.5 303.5,-301.5 446.5,-301.5 446.5,-282.5 303.5,-282.5"/>
<text text-anchor="middle" x="375" y="-289.5" font-family="Helvetica,sans-Serif" font-size="10.00">smime_class_sign_message</text>
</a>
</g>
</g>
<!-- Node1&#45;&gt;Node13 -->
<g id="edge13" class="edge"><title>Node1&#45;&gt;Node13</title>
<path fill="none" stroke="midnightblue" d="M97.6922,-316.355C153.448,-311.441 241.736,-303.659 303.464,-298.217"/>
<polygon fill="midnightblue" stroke="midnightblue" points="97.3277,-312.874 87.6737,-317.238 97.9424,-319.847 97.3277,-312.874"/>
</g>
<!-- Node14 -->
<g id="node14" class="node"><title>Node14</title>
<g id="a_node14"><a xlink:href="sendlib_8h.html#acf444c886b59f427ec6c0c144958cb3a" target="_top" xlink:title="Create a unique boundary id for a MIME part. ">
<polygon fill="white" stroke="red" points="132,-349.5 132,-368.5 256,-368.5 256,-349.5 132,-349.5"/>
<text text-anchor="middle" x="194" y="-356.5" font-family="Helvetica,sans-Serif" font-size="10.00">mutt_generate_boundary</text>
</a>
</g>
</g>
<!-- Node1&#45;&gt;Node14 -->
<g id="edge15" class="edge"><title>Node1&#45;&gt;Node14</title>
<path fill="none" stroke="midnightblue" d="M92.1735,-333.112C112.786,-338.404 136.609,-344.521 155.922,-349.48"/>
<polygon fill="midnightblue" stroke="midnightblue" points="92.9029,-329.686 82.3466,-330.589 91.162,-336.466 92.9029,-329.686"/>
</g>
<!-- Node15 -->
<g id="node15" class="node"><title>Node15</title>
<g id="a_node15"><a xlink:href="sendlib_8h.html#a0ca26551c77ac46f69710b91eec6675e" target="_top" xlink:title="Analyze file to determine MIME encoding to use. ">
<polygon fill="white" stroke="red" points="137.5,-38.5 137.5,-57.5 250.5,-57.5 250.5,-38.5 137.5,-38.5"/>
<text text-anchor="middle" x="194" y="-45.5" font-family="Helvetica,sans-Serif" font-size="10.00">mutt_get_content_info</text>
</a>
</g>
</g>
<!-- Node1&#45;&gt;Node15 -->
<g id="edge21" class="edge"><title>Node1&#45;&gt;Node15</title>
<path fill="none" stroke="midnightblue" d="M45.0979,-301.075C46.4522,-253.446 56.7043,-132.121 124,-67 128.018,-63.1118 132.755,-60.0035 137.835,-57.521"/>
<polygon fill="midnightblue" stroke="midnightblue" points="41.5949,-301.221 44.9175,-311.281 48.5938,-301.344 41.5949,-301.221"/>
</g>
<!-- Node16 -->
<g id="node16" class="node"><title>Node16</title>
<g id="a_node16"><a xlink:href="sendlib_8c.html#a31fd83b30e072d8a49049390853704f7" target="_top" xlink:title="Set/reset the &quot;x&#45;mutt&#45;noconv&quot; flag. ">
<polygon fill="white" stroke="red" points="147.5,-0.5 147.5,-19.5 240.5,-19.5 240.5,-0.5 147.5,-0.5"/>
<text text-anchor="middle" x="194" y="-7.5" font-family="Helvetica,sans-Serif" font-size="10.00">set_noconv_flags</text>
</a>
</g>
</g>
<!-- Node1&#45;&gt;Node16 -->
<g id="edge22" class="edge"><title>Node1&#45;&gt;Node16</title>
<path fill="none" stroke="midnightblue" d="M44.135,-301.007C43.0133,-248.566 47.5285,-105.815 124,-29 130.399,-22.572 138.76,-18.265 147.442,-15.3921"/>
<polygon fill="midnightblue" stroke="midnightblue" points="40.6456,-301.403 44.4576,-311.289 47.6422,-301.184 40.6456,-301.403"/>
</g>
<!-- Node2&#45;&gt;Node3 -->
<g id="edge2" class="edge"><title>Node2&#45;&gt;Node3</title>
<path fill="none" stroke="midnightblue" d="M267.846,-556.732C282.818,-558.321 298.434,-559.979 312.938,-561.519"/>
<polygon fill="midnightblue" stroke="midnightblue" points="267.919,-553.22 257.606,-555.645 267.18,-560.181 267.919,-553.22"/>
</g>
<!-- Node2&#45;&gt;Node4 -->
<g id="edge3" class="edge"><title>Node2&#45;&gt;Node4</title>
<path fill="none" stroke="midnightblue" d="M250.024,-537.319C275.408,-531.93 305.161,-525.614 329.156,-520.52"/>
<polygon fill="midnightblue" stroke="midnightblue" points="249.224,-533.911 240.169,-539.411 250.678,-540.758 249.224,-533.911"/>
</g>
<!-- Node14&#45;&gt;Node5 -->
<g id="edge16" class="edge"><title>Node14&#45;&gt;Node5</title>
<path fill="none" stroke="midnightblue" d="M209.419,-376.449C228.103,-397.912 262.728,-433.957 300,-454 310.631,-459.717 323.054,-463.77 334.652,-466.62"/>
<polygon fill="midnightblue" stroke="midnightblue" points="212.003,-374.085 202.853,-368.744 206.675,-378.625 212.003,-374.085"/>
</g>
<!-- Node14&#45;&gt;Node6 -->
<g id="edge17" class="edge"><title>Node14&#45;&gt;Node6</title>
<path fill="none" stroke="midnightblue" d="M227.188,-372.666C263.062,-387.898 320.141,-412.133 351.514,-425.453"/>
<polygon fill="midnightblue" stroke="midnightblue" points="228.243,-369.312 217.67,-368.625 225.507,-375.755 228.243,-369.312"/>
</g>
<!-- Node14&#45;&gt;Node9 -->
<g id="edge18" class="edge"><title>Node14&#45;&gt;Node9</title>
<path fill="none" stroke="midnightblue" d="M266.107,-366.548C280.748,-368.102 296.076,-369.729 310.43,-371.252"/>
<polygon fill="midnightblue" stroke="midnightblue" points="266.415,-363.061 256.101,-365.486 265.676,-370.022 266.415,-363.061"/>
</g>
<!-- Node14&#45;&gt;Node10 -->
<g id="edge19" class="edge"><title>Node14&#45;&gt;Node10</title>
<path fill="none" stroke="midnightblue" d="M264.415,-347.754C281.214,-345.032 299.007,-342.15 315.26,-339.517"/>
<polygon fill="midnightblue" stroke="midnightblue" points="263.419,-344.37 254.107,-349.424 264.538,-351.28 263.419,-344.37"/>
</g>
<!-- Node14&#45;&gt;Node13 -->
<g id="edge20" class="edge"><title>Node14&#45;&gt;Node13</title>
<path fill="none" stroke="midnightblue" d="M222.386,-344.854C243.256,-334.476 272.921,-320.58 300,-311 310.004,-307.461 320.981,-304.278 331.348,-301.575"/>
<polygon fill="midnightblue" stroke="midnightblue" points="220.536,-341.866 213.177,-349.488 223.683,-348.119 220.536,-341.866"/>
</g>
</g>
</svg>
