<?xml version="1.0" encoding="UTF-8" standalone="no"?>
<!DOCTYPE svg PUBLIC "-//W3C//DTD SVG 1.1//EN"
 "http://www.w3.org/Graphics/SVG/1.1/DTD/svg11.dtd">
<!-- Generated by graphviz version 2.36.0 (20140111.2315)
 -->
<!-- Title: mutt_is_message_type Pages: 1 -->
<svg width="468pt" height="461pt"
 viewBox="0.00 0.00 468.00 460.95" xmlns="http://www.w3.org/2000/svg" xmlns:xlink="http://www.w3.org/1999/xlink">
<g id="graph0" class="graph" transform="scale(1 1) rotate(0) translate(4 456.945)">
<title>mutt_is_message_type</title>
<polygon fill="white" stroke="none" points="-4,4 -4,-456.945 464,-456.945 464,4 -4,4"/>
<!-- Node1 -->
<g id="node1" class="node"><title>Node1</title>
<polygon fill="#bfbfbf" stroke="black" points="0,-218.5 0,-237.5 118,-237.5 118,-218.5 0,-218.5"/>
<text text-anchor="middle" x="59" y="-225.5" font-family="Helvetica,sans-Serif" font-size="10.00">mutt_is_message_type</text>
</g>
<!-- Node2 -->
<g id="node2" class="node"><title>Node2</title>
<g id="a_node2"><a xlink:href="commands_8h.html#a87652bbb3f4fb04d3341434ab719398b" target="_top" xlink:title="Edit the content type of an attachment. ">
<polygon fill="white" stroke="red" points="339.5,-417.5 339.5,-436.5 458.5,-436.5 458.5,-417.5 339.5,-417.5"/>
<text text-anchor="middle" x="399" y="-424.5" font-family="Helvetica,sans-Serif" font-size="10.00">mutt_edit_content_type</text>
</a>
</g>
</g>
<!-- Node1&#45;&gt;Node2 -->
<g id="edge1" class="edge"><title>Node1&#45;&gt;Node2</title>
<path fill="none" stroke="midnightblue" d="M62.4614,-247.87C68.8413,-289.747 90.1389,-386.538 154,-427 220.378,-469.056 318.674,-450.164 367.78,-436.569"/>
<polygon fill="midnightblue" stroke="midnightblue" points="65.9079,-247.243 61.0614,-237.822 58.9749,-248.209 65.9079,-247.243"/>
</g>
<!-- Node3 -->
<g id="node3" class="node"><title>Node3</title>
<g id="a_node3"><a xlink:href="parse_8h.html#a0b38ac4f44b3414d0e18d26324861369" target="_top" xlink:title="Parse a MIME part. ">
<polygon fill="white" stroke="red" points="184.5,-398.5 184.5,-417.5 271.5,-417.5 271.5,-398.5 184.5,-398.5"/>
<text text-anchor="middle" x="228" y="-405.5" font-family="Helvetica,sans-Serif" font-size="10.00">mutt_parse_part</text>
</a>
</g>
</g>
<!-- Node1&#45;&gt;Node3 -->
<g id="edge2" class="edge"><title>Node1&#45;&gt;Node3</title>
<path fill="none" stroke="midnightblue" d="M65.839,-247.453C77.0985,-281.54 105.118,-351.957 154,-389 162.767,-395.644 173.641,-399.974 184.294,-402.792"/>
<polygon fill="midnightblue" stroke="midnightblue" points="69.1224,-246.227 62.7671,-237.75 62.4489,-248.34 69.1224,-246.227"/>
</g>
<!-- Node4 -->
<g id="node4" class="node"><title>Node4</title>
<g id="a_node4"><a xlink:href="handler_8h.html#adae8bf0eec9bee0bd62f639bbcf8599f" target="_top" xlink:title="Handler for the Body of an email. ">
<polygon fill="white" stroke="red" points="178.5,-360.5 178.5,-379.5 277.5,-379.5 277.5,-360.5 178.5,-360.5"/>
<text text-anchor="middle" x="228" y="-367.5" font-family="Helvetica,sans-Serif" font-size="10.00">mutt_body_handler</text>
</a>
</g>
</g>
<!-- Node1&#45;&gt;Node4 -->
<g id="edge4" class="edge"><title>Node1&#45;&gt;Node4</title>
<path fill="none" stroke="midnightblue" d="M69.9223,-246.286C84.8518,-272.14 115.49,-319.206 154,-346 162.98,-352.248 173.697,-356.956 184.117,-360.469"/>
<polygon fill="midnightblue" stroke="midnightblue" points="72.9364,-244.505 64.9859,-237.503 66.8341,-247.935 72.9364,-244.505"/>
</g>
<!-- Node5 -->
<g id="node5" class="node"><title>Node5</title>
<g id="a_node5"><a xlink:href="mutt__attach_8h.html#afbb8b45ca96f6108f920ec8752084c21" target="_top" xlink:title="View an attachment. ">
<polygon fill="white" stroke="red" points="341,-303.5 341,-322.5 457,-322.5 457,-303.5 341,-303.5"/>
<text text-anchor="middle" x="399" y="-310.5" font-family="Helvetica,sans-Serif" font-size="10.00">mutt_view_attachment</text>
</a>
</g>
</g>
<!-- Node1&#45;&gt;Node5 -->
<g id="edge5" class="edge"><title>Node1&#45;&gt;Node5</title>
<path fill="none" stroke="midnightblue" d="M72.7016,-245.554C88.8757,-266.242 118.967,-299.509 154,-313 219.227,-338.118 301.735,-330.857 352.151,-322.521"/>
<polygon fill="midnightblue" stroke="midnightblue" points="75.4725,-243.416 66.6481,-237.552 69.89,-247.639 75.4725,-243.416"/>
</g>
<!-- Node6 -->
<g id="node6" class="node"><title>Node6</title>
<g id="a_node6"><a xlink:href="mutt__attach_8h.html#a7eca34952ac9afff3ff8ac5706fa6bc8" target="_top" xlink:title="Save an attachment. ">
<polygon fill="white" stroke="red" points="170,-284.5 170,-303.5 286,-303.5 286,-284.5 170,-284.5"/>
<text text-anchor="middle" x="228" y="-291.5" font-family="Helvetica,sans-Serif" font-size="10.00">mutt_save_attachment</text>
</a>
</g>
</g>
<!-- Node1&#45;&gt;Node6 -->
<g id="edge6" class="edge"><title>Node1&#45;&gt;Node6</title>
<path fill="none" stroke="midnightblue" d="M89.2102,-241.982C107.603,-250.552 131.954,-261.477 154,-270 167.439,-275.196 182.531,-280.279 195.49,-284.42"/>
<polygon fill="midnightblue" stroke="midnightblue" points="90.4578,-238.701 79.9186,-237.616 87.4812,-245.037 90.4578,-238.701"/>
</g>
<!-- Node7 -->
<g id="node7" class="node"><title>Node7</title>
<g id="a_node7"><a xlink:href="recvattach_8c.html#a52858af768d4460d586488eda40016c1" target="_top" xlink:title="Ask the user if we should save the attachment. ">
<polygon fill="white" stroke="red" points="338.5,-255.5 338.5,-274.5 459.5,-274.5 459.5,-255.5 338.5,-255.5"/>
<text text-anchor="middle" x="399" y="-262.5" font-family="Helvetica,sans-Serif" font-size="10.00">query_save_attachment</text>
</a>
</g>
</g>
<!-- Node1&#45;&gt;Node7 -->
<g id="edge11" class="edge"><title>Node1&#45;&gt;Node7</title>
<path fill="none" stroke="midnightblue" d="M128.122,-235.457C189.733,-242.202 279.559,-252.035 338.384,-258.474"/>
<polygon fill="midnightblue" stroke="midnightblue" points="128.426,-231.97 118.104,-234.361 127.664,-238.928 128.426,-231.97"/>
</g>
<!-- Node8 -->
<g id="node8" class="node"><title>Node8</title>
<g id="a_node8"><a xlink:href="recvattach_8h.html#a98b2ae112e8353253ba30462bfef777b" target="_top" xlink:title="Format a string for the attachment menu &#45; Implements format_t. ">
<polygon fill="white" stroke="red" points="181.5,-190.5 181.5,-209.5 274.5,-209.5 274.5,-190.5 181.5,-190.5"/>
<text text-anchor="middle" x="228" y="-197.5" font-family="Helvetica,sans-Serif" font-size="10.00">attach_format_str</text>
</a>
</g>
</g>
<!-- Node1&#45;&gt;Node8 -->
<g id="edge9" class="edge"><title>Node1&#45;&gt;Node8</title>
<path fill="none" stroke="midnightblue" d="M126.997,-216.767C145.226,-213.711 164.549,-210.471 181.299,-207.662"/>
<polygon fill="midnightblue" stroke="midnightblue" points="126.288,-213.337 117.005,-218.442 127.446,-220.24 126.288,-213.337"/>
</g>
<!-- Node9 -->
<g id="node9" class="node"><title>Node9</title>
<g id="a_node9"><a xlink:href="recvattach_8c.html#ae34f75d78cba83011d7c15f2d1c44198" target="_top" xlink:title="Create a list of attachments. ">
<polygon fill="white" stroke="red" points="154,-152.5 154,-171.5 302,-171.5 302,-152.5 154,-152.5"/>
<text text-anchor="middle" x="228" y="-159.5" font-family="Helvetica,sans-Serif" font-size="10.00">mutt_generate_recvattach_list</text>
</a>
</g>
</g>
<!-- Node1&#45;&gt;Node9 -->
<g id="edge12" class="edge"><title>Node1&#45;&gt;Node9</title>
<path fill="none" stroke="midnightblue" d="M85.4782,-213.435C104.027,-203.288 129.999,-190.01 154,-181 163.563,-177.41 174.076,-174.244 184.071,-171.576"/>
<polygon fill="midnightblue" stroke="midnightblue" points="83.549,-210.503 76.5046,-218.417 86.9466,-216.623 83.549,-210.503"/>
</g>
<!-- Node10 -->
<g id="node10" class="node"><title>Node10</title>
<g id="a_node10"><a xlink:href="recvcmd_8c.html#ae6bdd547880206792de3620befcb18d0" target="_top" xlink:title="Are we working with an RFC822 message. ">
<polygon fill="white" stroke="red" points="194.5,-114.5 194.5,-133.5 261.5,-133.5 261.5,-114.5 194.5,-114.5"/>
<text text-anchor="middle" x="228" y="-121.5" font-family="Helvetica,sans-Serif" font-size="10.00">check_msg</text>
</a>
</g>
</g>
<!-- Node1&#45;&gt;Node10 -->
<g id="edge13" class="edge"><title>Node1&#45;&gt;Node10</title>
<path fill="none" stroke="midnightblue" d="M74.3832,-210.737C91.4249,-191.398 121.617,-160.477 154,-143 166.447,-136.283 181.384,-131.852 194.495,-128.973"/>
<polygon fill="midnightblue" stroke="midnightblue" points="71.5888,-208.619 67.7171,-218.481 76.8938,-213.185 71.5888,-208.619"/>
</g>
<!-- Node11 -->
<g id="node11" class="node"><title>Node11</title>
<g id="a_node11"><a xlink:href="recvcmd_8c.html#a901d3c7f945de489c16050a731dee83c" target="_top" xlink:title="forward&#45;message, from the attachment menu ">
<polygon fill="white" stroke="black" points="174.5,-76.5 174.5,-95.5 281.5,-95.5 281.5,-76.5 174.5,-76.5"/>
<text text-anchor="middle" x="228" y="-83.5" font-family="Helvetica,sans-Serif" font-size="10.00">find_common_parent</text>
</a>
</g>
</g>
<!-- Node1&#45;&gt;Node11 -->
<g id="edge14" class="edge"><title>Node1&#45;&gt;Node11</title>
<path fill="none" stroke="midnightblue" d="M69.2801,-208.995C83.602,-181.707 113.705,-131.772 154,-105 160.108,-100.942 167.037,-97.7495 174.136,-95.239"/>
<polygon fill="midnightblue" stroke="midnightblue" points="65.9875,-207.749 64.5755,-218.249 72.2274,-210.921 65.9875,-207.749"/>
</g>
<!-- Node12 -->
<g id="node12" class="node"><title>Node12</title>
<g id="a_node12"><a xlink:href="recvcmd_8c.html#af75f34573790a122a80c96ff84c36c79" target="_top" xlink:title="Find the parent of an Attachment. ">
<polygon fill="white" stroke="red" points="366.5,-57.5 366.5,-76.5 431.5,-76.5 431.5,-57.5 366.5,-57.5"/>
<text text-anchor="middle" x="399" y="-64.5" font-family="Helvetica,sans-Serif" font-size="10.00">find_parent</text>
</a>
</g>
</g>
<!-- Node1&#45;&gt;Node12 -->
<g id="edge16" class="edge"><title>Node1&#45;&gt;Node12</title>
<path fill="none" stroke="midnightblue" d="M64.6885,-208.252C74.3684,-172.484 100.304,-97.8278 154,-67 221.229,-28.4029 317.026,-44.9876 366.193,-57.5845"/>
<polygon fill="midnightblue" stroke="midnightblue" points="61.1818,-207.84 62.1023,-218.394 67.9648,-209.569 61.1818,-207.84"/>
</g>
<!-- Node13 -->
<g id="node13" class="node"><title>Node13</title>
<g id="a_node13"><a xlink:href="sendlib_8c.html#a10c422b33240afd393feacb12180643b" target="_top" xlink:title="Convert MIME parts to 7&#45;bit. ">
<polygon fill="white" stroke="red" points="182,-0.5 182,-19.5 274,-19.5 274,-0.5 182,-0.5"/>
<text text-anchor="middle" x="228" y="-7.5" font-family="Helvetica,sans-Serif" font-size="10.00">transform_to_7bit</text>
</a>
</g>
</g>
<!-- Node1&#45;&gt;Node13 -->
<g id="edge17" class="edge"><title>Node1&#45;&gt;Node13</title>
<path fill="none" stroke="midnightblue" d="M64.1428,-208.253C73.3403,-169.256 99.13,-81.9905 154,-34 161.933,-27.0615 171.922,-22.1198 181.942,-18.6033"/>
<polygon fill="midnightblue" stroke="midnightblue" points="60.6615,-207.783 61.8922,-218.306 67.4924,-209.312 60.6615,-207.783"/>
</g>
<!-- Node3&#45;&gt;Node2 -->
<g id="edge3" class="edge"><title>Node3&#45;&gt;Node2</title>
<path fill="none" stroke="midnightblue" d="M281.822,-413.939C300.103,-415.994 320.695,-418.309 339.411,-420.413"/>
<polygon fill="midnightblue" stroke="midnightblue" points="281.974,-410.434 271.646,-412.795 281.192,-417.39 281.974,-410.434"/>
</g>
<!-- Node6&#45;&gt;Node5 -->
<g id="edge7" class="edge"><title>Node6&#45;&gt;Node5</title>
<path fill="none" stroke="midnightblue" d="M296.29,-301.565C311.045,-303.224 326.531,-304.965 340.843,-306.574"/>
<polygon fill="midnightblue" stroke="midnightblue" points="296.544,-298.072 286.216,-300.433 295.762,-305.028 296.544,-298.072"/>
</g>
<!-- Node6&#45;&gt;Node7 -->
<g id="edge8" class="edge"><title>Node6&#45;&gt;Node7</title>
<path fill="none" stroke="midnightblue" d="M294.987,-282.677C310.714,-279.978 327.341,-277.125 342.541,-274.517"/>
<polygon fill="midnightblue" stroke="midnightblue" points="294.069,-279.283 284.805,-284.424 295.253,-286.182 294.069,-279.283"/>
</g>
<!-- Node8&#45;&gt;Node8 -->
<g id="edge10" class="edge"><title>Node8&#45;&gt;Node8</title>
<path fill="none" stroke="midnightblue" d="M196.563,-218.275C197.459,-223.741 207.938,-228 228,-228 257.859,-228 266.491,-218.565 253.894,-209.757"/>
<polygon fill="midnightblue" stroke="midnightblue" points="199.585,-220.048 202.106,-209.757 193.718,-216.229 199.585,-220.048"/>
</g>
<!-- Node11&#45;&gt;Node12 -->
<g id="edge15" class="edge"><title>Node11&#45;&gt;Node12</title>
<path fill="none" stroke="midnightblue" d="M291.522,-78.9709C317.013,-76.105 345.372,-72.9168 366.409,-70.5516"/>
<polygon fill="midnightblue" stroke="midnightblue" points="291.093,-75.497 281.546,-80.0924 291.875,-82.4532 291.093,-75.497"/>
</g>
</g>
</svg>
