<?xml version="1.0" encoding="UTF-8" standalone="no"?>
<!DOCTYPE svg PUBLIC "-//W3C//DTD SVG 1.1//EN"
 "http://www.w3.org/Graphics/SVG/1.1/DTD/svg11.dtd">
<!-- Generated by graphviz version 2.36.0 (20140111.2315)
 -->
<!-- Title: mutt_rfc822_read_line Pages: 1 -->
<svg width="286pt" height="104pt"
 viewBox="0.00 0.00 286.00 104.00" xmlns="http://www.w3.org/2000/svg" xmlns:xlink="http://www.w3.org/1999/xlink">
<g id="graph0" class="graph" transform="scale(1 1) rotate(0) translate(4 100)">
<title>mutt_rfc822_read_line</title>
<polygon fill="white" stroke="none" points="-4,4 -4,-100 282,-100 282,4 -4,4"/>
<!-- Node1 -->
<g id="node1" class="node"><title>Node1</title>
<polygon fill="#bfbfbf" stroke="black" points="0.5,-38.5 0.5,-57.5 113.5,-57.5 113.5,-38.5 0.5,-38.5"/>
<text text-anchor="middle" x="57" y="-45.5" font-family="Helvetica,sans-Serif" font-size="10.00">mutt_rfc822_read_line</text>
</g>
<!-- Node2 -->
<g id="node2" class="node"><title>Node2</title>
<g id="a_node2"><a xlink:href="parse_8h.html#ae50079838fa2a151db9ecfb0a149aaea" target="_top" xlink:title="parses an RFC822 header ">
<polygon fill="white" stroke="red" points="150.5,-76.5 150.5,-95.5 277.5,-95.5 277.5,-76.5 150.5,-76.5"/>
<text text-anchor="middle" x="214" y="-83.5" font-family="Helvetica,sans-Serif" font-size="10.00">mutt_rfc822_read_header</text>
</a>
</g>
</g>
<!-- Node1&#45;&gt;Node2 -->
<g id="edge1" class="edge"><title>Node1&#45;&gt;Node2</title>
<path fill="none" stroke="midnightblue" d="M107.111,-60.04C128.765,-65.3488 153.85,-71.4988 174.168,-76.4799"/>
<polygon fill="midnightblue" stroke="midnightblue" points="107.659,-56.5708 97.113,-57.589 105.992,-63.3695 107.659,-56.5708"/>
</g>
<!-- Node3 -->
<g id="node3" class="node"><title>Node3</title>
<g id="a_node3"><a xlink:href="parse_8h.html#ad373211d5d49e235c1aa9b818f0f10a1" target="_top" xlink:title="Parse a MIME header. ">
<polygon fill="white" stroke="red" points="152,-38.5 152,-57.5 276,-57.5 276,-38.5 152,-38.5"/>
<text text-anchor="middle" x="214" y="-45.5" font-family="Helvetica,sans-Serif" font-size="10.00">mutt_read_mime_header</text>
</a>
</g>
</g>
<!-- Node1&#45;&gt;Node3 -->
<g id="edge2" class="edge"><title>Node1&#45;&gt;Node3</title>
<path fill="none" stroke="midnightblue" d="M123.567,-48C132.935,-48 142.542,-48 151.822,-48"/>
<polygon fill="midnightblue" stroke="midnightblue" points="123.521,-44.5001 113.521,-48 123.521,-51.5001 123.521,-44.5001"/>
</g>
<!-- Node4 -->
<g id="node4" class="node"><title>Node4</title>
<g id="a_node4"><a xlink:href="pattern_8c.html#a945a2a83eee776e1b5dd8bb58f8b3b3e" target="_top" xlink:title="Search an email. ">
<polygon fill="white" stroke="red" points="179,-0.5 179,-19.5 249,-19.5 249,-0.5 179,-0.5"/>
<text text-anchor="middle" x="214" y="-7.5" font-family="Helvetica,sans-Serif" font-size="10.00">msg_search</text>
</a>
</g>
</g>
<!-- Node1&#45;&gt;Node4 -->
<g id="edge3" class="edge"><title>Node1&#45;&gt;Node4</title>
<path fill="none" stroke="midnightblue" d="M106.873,-36.0183C130.296,-30.2759 157.778,-23.5383 178.907,-18.3584"/>
<polygon fill="midnightblue" stroke="midnightblue" points="105.992,-32.6305 97.113,-38.411 107.659,-39.4292 105.992,-32.6305"/>
</g>
</g>
</svg>
