<?xml version="1.0" encoding="UTF-8" standalone="no"?>
<!DOCTYPE svg PUBLIC "-//W3C//DTD SVG 1.1//EN"
 "http://www.w3.org/Graphics/SVG/1.1/DTD/svg11.dtd">
<!-- Generated by graphviz version 2.36.0 (20140111.2315)
 -->
<!-- Title: mutt_parse_part Pages: 1 -->
<svg width="582pt" height="237pt"
 viewBox="0.00 0.00 582.00 237.00" xmlns="http://www.w3.org/2000/svg" xmlns:xlink="http://www.w3.org/1999/xlink">
<g id="graph0" class="graph" transform="scale(1 1) rotate(0) translate(4 233)">
<title>mutt_parse_part</title>
<polygon fill="white" stroke="none" points="-4,4 -4,-233 578,-233 578,4 -4,4"/>
<!-- Node1 -->
<g id="node1" class="node"><title>Node1</title>
<polygon fill="#bfbfbf" stroke="black" points="0.5,-114.5 0.5,-133.5 87.5,-133.5 87.5,-114.5 0.5,-114.5"/>
<text text-anchor="middle" x="44" y="-121.5" font-family="Helvetica,sans-Serif" font-size="10.00">mutt_parse_part</text>
</g>
<!-- Node2 -->
<g id="node2" class="node"><title>Node2</title>
<g id="a_node2"><a xlink:href="mutt_2string_8c.html#a011e5b6fad43bc608584d585987cf9c1" target="_top" xlink:title="Compare two strings ignoring case, safely. ">
<polygon fill="white" stroke="black" points="464.5,-133.5 464.5,-152.5 573.5,-152.5 573.5,-133.5 464.5,-133.5"/>
<text text-anchor="middle" x="519" y="-140.5" font-family="Helvetica,sans-Serif" font-size="10.00">mutt_str_strcasecmp</text>
</a>
</g>
</g>
<!-- Node1&#45;&gt;Node2 -->
<g id="edge1" class="edge"><title>Node1&#45;&gt;Node2</title>
<path fill="none" stroke="midnightblue" d="M87.8098,-125.72C171.271,-129.072 356.124,-136.498 454.124,-140.434"/>
<polygon fill="midnightblue" stroke="midnightblue" points="454.062,-143.934 464.194,-140.839 454.343,-136.94 454.062,-143.934"/>
</g>
<!-- Node3 -->
<g id="node3" class="node"><title>Node3</title>
<g id="a_node3"><a xlink:href="parameter_8c.html#a4e936faaaa08c332e3414247583a0ffa" target="_top" xlink:title="Find a matching Parameter. ">
<polygon fill="white" stroke="black" points="322.5,-152.5 322.5,-171.5 409.5,-171.5 409.5,-152.5 322.5,-152.5"/>
<text text-anchor="middle" x="366" y="-159.5" font-family="Helvetica,sans-Serif" font-size="10.00">mutt_param_get</text>
</a>
</g>
</g>
<!-- Node1&#45;&gt;Node3 -->
<g id="edge2" class="edge"><title>Node1&#45;&gt;Node3</title>
<path fill="none" stroke="midnightblue" d="M54.0946,-133.614C67.7437,-147.263 95.0318,-171.64 124,-181 192.232,-203.046 276.73,-187.204 325.393,-174.225"/>
<polygon fill="midnightblue" stroke="midnightblue" points="326.507,-177.549 335.215,-171.514 324.644,-170.801 326.507,-177.549"/>
</g>
<!-- Node4 -->
<g id="node4" class="node"><title>Node4</title>
<g id="a_node4"><a xlink:href="parse_8c.html#ad5c83c39801d48f7bb7af082d599a687" target="_top" xlink:title="parse a multipart structure ">
<polygon fill="white" stroke="red" points="142,-152.5 142,-171.5 250,-171.5 250,-152.5 142,-152.5"/>
<text text-anchor="middle" x="196" y="-159.5" font-family="Helvetica,sans-Serif" font-size="10.00">mutt_parse_multipart</text>
</a>
</g>
</g>
<!-- Node1&#45;&gt;Node4 -->
<g id="edge4" class="edge"><title>Node1&#45;&gt;Node4</title>
<path fill="none" stroke="midnightblue" d="M82.8513,-133.589C102.467,-138.558 126.619,-144.677 147.479,-149.961"/>
<polygon fill="midnightblue" stroke="midnightblue" points="146.868,-153.417 157.421,-152.48 148.587,-146.631 146.868,-153.417"/>
</g>
<!-- Node5 -->
<g id="node5" class="node"><title>Node5</title>
<g id="a_node5"><a xlink:href="parse_8c.html#ad373211d5d49e235c1aa9b818f0f10a1" target="_top" xlink:title="Parse a MIME header. ">
<polygon fill="white" stroke="red" points="304,-76.5 304,-95.5 428,-95.5 428,-76.5 304,-76.5"/>
<text text-anchor="middle" x="366" y="-83.5" font-family="Helvetica,sans-Serif" font-size="10.00">mutt_read_mime_header</text>
</a>
</g>
</g>
<!-- Node1&#45;&gt;Node5 -->
<g id="edge12" class="edge"><title>Node1&#45;&gt;Node5</title>
<path fill="none" stroke="midnightblue" d="M87.5455,-115.848C99.3248,-113.758 112.134,-111.64 124,-110 180.967,-102.127 245.854,-95.8164 293.937,-91.6455"/>
<polygon fill="midnightblue" stroke="midnightblue" points="294.269,-95.1299 303.934,-90.7881 293.671,-88.1555 294.269,-95.1299"/>
</g>
<!-- Node6 -->
<g id="node6" class="node"><title>Node6</title>
<g id="a_node6"><a xlink:href="mutt_2string_8c.html#ad5b66f8059a202f7bfa5fc4fa3047c67" target="_top" xlink:title="Replace one string with another. ">
<polygon fill="white" stroke="red" points="474.5,-57.5 474.5,-76.5 563.5,-76.5 563.5,-57.5 474.5,-57.5"/>
<text text-anchor="middle" x="519" y="-64.5" font-family="Helvetica,sans-Serif" font-size="10.00">mutt_str_replace</text>
</a>
</g>
</g>
<!-- Node1&#45;&gt;Node6 -->
<g id="edge13" class="edge"><title>Node1&#45;&gt;Node6</title>
<path fill="none" stroke="midnightblue" d="M63.3042,-114.376C78.9857,-106.562 102.395,-95.904 124,-90 242.047,-57.7418 387.15,-59.2991 464.102,-63.1897"/>
<polygon fill="midnightblue" stroke="midnightblue" points="464.324,-66.7067 474.498,-63.7509 464.701,-59.7168 464.324,-66.7067"/>
</g>
<!-- Node7 -->
<g id="node7" class="node"><title>Node7</title>
<g id="a_node7"><a xlink:href="parse_8c.html#adcc90fb584fec1be116777c533e9b3d4" target="_top" xlink:title="Determine if a mime type matches a message or not. ">
<polygon fill="white" stroke="black" points="307,-209.5 307,-228.5 425,-228.5 425,-209.5 307,-209.5"/>
<text text-anchor="middle" x="366" y="-216.5" font-family="Helvetica,sans-Serif" font-size="10.00">mutt_is_message_type</text>
</a>
</g>
</g>
<!-- Node1&#45;&gt;Node7 -->
<g id="edge9" class="edge"><title>Node1&#45;&gt;Node7</title>
<path fill="none" stroke="midnightblue" d="M51.4685,-133.594C63.4769,-150.493 91.0175,-185.177 124,-200 178.438,-224.465 246.76,-227.613 296.744,-225.577"/>
<polygon fill="midnightblue" stroke="midnightblue" points="296.985,-229.07 306.804,-225.088 296.645,-222.078 296.985,-229.07"/>
</g>
<!-- Node8 -->
<g id="node8" class="node"><title>Node8</title>
<g id="a_node8"><a xlink:href="parse_8c.html#ad06e310e34e4b864ba64ee9301c57664" target="_top" xlink:title="parse a Message/RFC822 body ">
<polygon fill="white" stroke="red" points="124.5,-0.5 124.5,-19.5 267.5,-19.5 267.5,-0.5 124.5,-0.5"/>
<text text-anchor="middle" x="196" y="-7.5" font-family="Helvetica,sans-Serif" font-size="10.00">mutt_rfc822_parse_message</text>
</a>
</g>
</g>
<!-- Node1&#45;&gt;Node8 -->
<g id="edge11" class="edge"><title>Node1&#45;&gt;Node8</title>
<path fill="none" stroke="midnightblue" d="M50.9332,-114.376C62.6678,-96.1117 90.6173,-56.2638 124,-34 130.47,-29.6852 137.788,-26.077 145.207,-23.0807"/>
<polygon fill="midnightblue" stroke="midnightblue" points="146.436,-26.3577 154.601,-19.6053 144.007,-19.7926 146.436,-26.3577"/>
</g>
<!-- Node3&#45;&gt;Node2 -->
<g id="edge3" class="edge"><title>Node3&#45;&gt;Node2</title>
<path fill="none" stroke="midnightblue" d="M409.867,-156.606C423.61,-154.877 439.14,-152.923 454.054,-151.046"/>
<polygon fill="midnightblue" stroke="midnightblue" points="454.767,-154.484 464.251,-149.763 453.893,-147.539 454.767,-154.484"/>
</g>
<!-- Node4&#45;&gt;Node3 -->
<g id="edge8" class="edge"><title>Node4&#45;&gt;Node3</title>
<path fill="none" stroke="midnightblue" d="M250.156,-162C269.967,-162 292.435,-162 312.212,-162"/>
<polygon fill="midnightblue" stroke="midnightblue" points="312.281,-165.5 322.281,-162 312.281,-158.5 312.281,-165.5"/>
</g>
<!-- Node4&#45;&gt;Node5 -->
<g id="edge5" class="edge"><title>Node4&#45;&gt;Node5</title>
<path fill="none" stroke="midnightblue" d="M218.277,-152.375C247.69,-139.069 300.938,-114.98 334.556,-99.7724"/>
<polygon fill="midnightblue" stroke="midnightblue" points="336.227,-102.858 343.895,-95.5473 333.342,-96.4802 336.227,-102.858"/>
</g>
<!-- Node5&#45;&gt;Node2 -->
<g id="edge6" class="edge"><title>Node5&#45;&gt;Node2</title>
<path fill="none" stroke="midnightblue" d="M392.274,-95.5405C417.099,-104.912 455.183,-119.288 482.932,-129.762"/>
<polygon fill="midnightblue" stroke="midnightblue" points="482.052,-133.171 492.644,-133.428 484.524,-126.622 482.052,-133.171"/>
</g>
<!-- Node5&#45;&gt;Node6 -->
<g id="edge7" class="edge"><title>Node5&#45;&gt;Node6</title>
<path fill="none" stroke="midnightblue" d="M428.417,-78.272C440.29,-76.7781 452.644,-75.2236 464.249,-73.7634"/>
<polygon fill="midnightblue" stroke="midnightblue" points="464.738,-77.2295 474.223,-72.5083 463.864,-70.2842 464.738,-77.2295"/>
</g>
<!-- Node7&#45;&gt;Node2 -->
<g id="edge10" class="edge"><title>Node7&#45;&gt;Node2</title>
<path fill="none" stroke="midnightblue" d="M386.124,-209.375C412.333,-196.183 459.6,-172.393 489.854,-157.166"/>
<polygon fill="midnightblue" stroke="midnightblue" points="491.672,-160.169 499.031,-152.547 488.525,-153.917 491.672,-160.169"/>
</g>
</g>
</svg>
