<?xml version="1.0" encoding="UTF-8" standalone="no"?>
<!DOCTYPE svg PUBLIC "-//W3C//DTD SVG 1.1//EN"
 "http://www.w3.org/Graphics/SVG/1.1/DTD/svg11.dtd">
<!-- Generated by graphviz version 2.36.0 (20140111.2315)
 -->
<!-- Title: mutt_parse_part Pages: 1 -->
<svg width="286pt" height="332pt"
 viewBox="0.00 0.00 286.00 332.00" xmlns="http://www.w3.org/2000/svg" xmlns:xlink="http://www.w3.org/1999/xlink">
<g id="graph0" class="graph" transform="scale(1 1) rotate(0) translate(4 328)">
<title>mutt_parse_part</title>
<polygon fill="white" stroke="none" points="-4,4 -4,-328 282,-328 282,4 -4,4"/>
<!-- Node1 -->
<g id="node1" class="node"><title>Node1</title>
<polygon fill="#bfbfbf" stroke="black" points="0.5,-152.5 0.5,-171.5 87.5,-171.5 87.5,-152.5 0.5,-152.5"/>
<text text-anchor="middle" x="44" y="-159.5" font-family="Helvetica,sans-Serif" font-size="10.00">mutt_parse_part</text>
</g>
<!-- Node2 -->
<g id="node2" class="node"><title>Node2</title>
<g id="a_node2"><a xlink:href="commands_8h.html#a87652bbb3f4fb04d3341434ab719398b" target="_top" xlink:title="Edit the content type of an attachment. ">
<polygon fill="white" stroke="red" points="141.5,-304.5 141.5,-323.5 260.5,-323.5 260.5,-304.5 141.5,-304.5"/>
<text text-anchor="middle" x="201" y="-311.5" font-family="Helvetica,sans-Serif" font-size="10.00">mutt_edit_content_type</text>
</a>
</g>
</g>
<!-- Node1&#45;&gt;Node2 -->
<g id="edge1" class="edge"><title>Node1&#45;&gt;Node2</title>
<path fill="none" stroke="midnightblue" d="M51.0611,-181.32C61.255,-210.555 84.6669,-265.721 124,-295 129.237,-298.898 135.181,-302.002 141.385,-304.473"/>
<polygon fill="midnightblue" stroke="midnightblue" points="54.3776,-180.201 47.8985,-171.818 47.7358,-182.412 54.3776,-180.201"/>
</g>
<!-- Node3 -->
<g id="node3" class="node"><title>Node3</title>
<g id="a_node3"><a xlink:href="parse_8h.html#ad5c83c39801d48f7bb7af082d599a687" target="_top" xlink:title="parse a multipart structure ">
<polygon fill="white" stroke="red" points="147,-266.5 147,-285.5 255,-285.5 255,-266.5 147,-266.5"/>
<text text-anchor="middle" x="201" y="-273.5" font-family="Helvetica,sans-Serif" font-size="10.00">mutt_parse_multipart</text>
</a>
</g>
</g>
<!-- Node1&#45;&gt;Node3 -->
<g id="edge2" class="edge"><title>Node1&#45;&gt;Node3</title>
<path fill="none" stroke="midnightblue" d="M55.3101,-180.403C68.4269,-202.084 93.1297,-237.601 124,-257 130.909,-261.342 138.755,-264.692 146.718,-267.277"/>
<polygon fill="midnightblue" stroke="midnightblue" points="58.187,-178.389 50.1182,-171.523 52.144,-181.922 58.187,-178.389"/>
</g>
<!-- Node4 -->
<g id="node4" class="node"><title>Node4</title>
<g id="a_node4"><a xlink:href="parse_8h.html#ad06e310e34e4b864ba64ee9301c57664" target="_top" xlink:title="parse a Message/RFC822 body ">
<polygon fill="white" stroke="red" points="129.5,-228.5 129.5,-247.5 272.5,-247.5 272.5,-228.5 129.5,-228.5"/>
<text text-anchor="middle" x="201" y="-235.5" font-family="Helvetica,sans-Serif" font-size="10.00">mutt_rfc822_parse_message</text>
</a>
</g>
</g>
<!-- Node1&#45;&gt;Node4 -->
<g id="edge3" class="edge"><title>Node1&#45;&gt;Node4</title>
<path fill="none" stroke="midnightblue" d="M63.0432,-178.113C78.2888,-190.931 101.224,-208.416 124,-219 132.14,-222.783 141.135,-225.878 150.002,-228.389"/>
<polygon fill="midnightblue" stroke="midnightblue" points="65.2764,-175.417 55.4143,-171.545 60.7093,-180.722 65.2764,-175.417"/>
</g>
<!-- Node5 -->
<g id="node5" class="node"><title>Node5</title>
<g id="a_node5"><a xlink:href="mutt__attach_8h.html#a786920bfa92274d3dfce23347a0442eb" target="_top" xlink:title="Decode, then save an attachment. ">
<polygon fill="white" stroke="red" points="124.5,-190.5 124.5,-209.5 277.5,-209.5 277.5,-190.5 124.5,-190.5"/>
<text text-anchor="middle" x="201" y="-197.5" font-family="Helvetica,sans-Serif" font-size="10.00">mutt_decode_save_attachment</text>
</a>
</g>
</g>
<!-- Node1&#45;&gt;Node5 -->
<g id="edge4" class="edge"><title>Node1&#45;&gt;Node5</title>
<path fill="none" stroke="midnightblue" d="M94.1105,-174.04C115.765,-179.349 140.85,-185.499 161.168,-190.48"/>
<polygon fill="midnightblue" stroke="midnightblue" points="94.6588,-170.571 84.113,-171.589 92.992,-177.37 94.6588,-170.571"/>
</g>
<!-- Node6 -->
<g id="node6" class="node"><title>Node6</title>
<g id="a_node6"><a xlink:href="mutt__parse_8h.html#afa9b05dc295f1a3a537fd04532252d62" target="_top" xlink:title="Parse a MIME email. ">
<polygon fill="white" stroke="red" points="131,-152.5 131,-171.5 271,-171.5 271,-152.5 131,-152.5"/>
<text text-anchor="middle" x="201" y="-159.5" font-family="Helvetica,sans-Serif" font-size="10.00">mutt_parse_mime_message</text>
</a>
</g>
</g>
<!-- Node1&#45;&gt;Node6 -->
<g id="edge5" class="edge"><title>Node1&#45;&gt;Node6</title>
<path fill="none" stroke="midnightblue" d="M98.0701,-162C108.634,-162 119.872,-162 130.882,-162"/>
<polygon fill="midnightblue" stroke="midnightblue" points="97.7648,-158.5 87.7647,-162 97.7647,-165.5 97.7648,-158.5"/>
</g>
<!-- Node7 -->
<g id="node7" class="node"><title>Node7</title>
<g id="a_node7"><a xlink:href="crypt__gpgme_8c.html#ae757f76311407e5a467fae53e795d046" target="_top" xlink:title="Decrypt a PGP or SMIME message. ">
<polygon fill="white" stroke="red" points="165.5,-114.5 165.5,-133.5 236.5,-133.5 236.5,-114.5 165.5,-114.5"/>
<text text-anchor="middle" x="201" y="-121.5" font-family="Helvetica,sans-Serif" font-size="10.00">decrypt_part</text>
</a>
</g>
</g>
<!-- Node1&#45;&gt;Node7 -->
<g id="edge6" class="edge"><title>Node1&#45;&gt;Node7</title>
<path fill="none" stroke="midnightblue" d="M94.1127,-149.959C117.292,-144.277 144.404,-137.63 165.39,-132.485"/>
<polygon fill="midnightblue" stroke="midnightblue" points="92.992,-146.63 84.113,-152.411 94.6588,-153.429 92.992,-146.63"/>
</g>
<!-- Node8 -->
<g id="node8" class="node"><title>Node8</title>
<g id="a_node8"><a xlink:href="pgp_8c.html#a031ea9dee21fd00cd1aa6fb404f005d2" target="_top" xlink:title="Decrypt part of a PGP message. ">
<polygon fill="white" stroke="red" points="155,-76.5 155,-95.5 247,-95.5 247,-76.5 155,-76.5"/>
<text text-anchor="middle" x="201" y="-83.5" font-family="Helvetica,sans-Serif" font-size="10.00">pgp_decrypt_part</text>
</a>
</g>
</g>
<!-- Node1&#45;&gt;Node8 -->
<g id="edge7" class="edge"><title>Node1&#45;&gt;Node8</title>
<path fill="none" stroke="midnightblue" d="M63.0432,-145.887C78.2888,-133.069 101.224,-115.584 124,-105 133.62,-100.53 144.434,-97.0194 154.82,-94.2994"/>
<polygon fill="midnightblue" stroke="midnightblue" points="60.7093,-143.278 55.4143,-152.455 65.2764,-148.583 60.7093,-143.278"/>
</g>
<!-- Node9 -->
<g id="node9" class="node"><title>Node9</title>
<g id="a_node9"><a xlink:href="smime_8c.html#a9a688bb9dd47be9db4698008c5e0be50" target="_top" xlink:title="Handle type application/pkcs7&#45;mime. ">
<polygon fill="white" stroke="red" points="146.5,-38.5 146.5,-57.5 255.5,-57.5 255.5,-38.5 146.5,-38.5"/>
<text text-anchor="middle" x="201" y="-45.5" font-family="Helvetica,sans-Serif" font-size="10.00">smime_handle_entity</text>
</a>
</g>
</g>
<!-- Node1&#45;&gt;Node9 -->
<g id="edge8" class="edge"><title>Node1&#45;&gt;Node9</title>
<path fill="none" stroke="midnightblue" d="M55.3101,-143.597C68.4269,-121.916 93.1297,-86.3987 124,-67 130.794,-62.7306 138.494,-59.4199 146.32,-56.8528"/>
<polygon fill="midnightblue" stroke="midnightblue" points="52.144,-142.078 50.1182,-152.477 58.187,-145.611 52.144,-142.078"/>
</g>
<!-- Node10 -->
<g id="node10" class="node"><title>Node10</title>
<g id="a_node10"><a xlink:href="protos_8h.html#ad3a5a87ecb885b8cdf4782a9e220f318" target="_top" xlink:title="Prepare a message template. ">
<polygon fill="white" stroke="red" points="143,-0.5 143,-19.5 259,-19.5 259,-0.5 143,-0.5"/>
<text text-anchor="middle" x="201" y="-7.5" font-family="Helvetica,sans-Serif" font-size="10.00">mutt_prepare_template</text>
</a>
</g>
</g>
<!-- Node1&#45;&gt;Node10 -->
<g id="edge9" class="edge"><title>Node1&#45;&gt;Node10</title>
<path fill="none" stroke="midnightblue" d="M51.0611,-142.68C61.255,-113.445 84.6669,-58.2788 124,-29 129.673,-24.7771 136.177,-21.4858 142.941,-18.9219"/>
<polygon fill="midnightblue" stroke="midnightblue" points="47.7358,-141.588 47.8985,-152.182 54.3776,-143.799 47.7358,-141.588"/>
</g>
</g>
</svg>
