<?xml version="1.0" encoding="UTF-8" standalone="no"?>
<!DOCTYPE svg PUBLIC "-//W3C//DTD SVG 1.1//EN"
 "http://www.w3.org/Graphics/SVG/1.1/DTD/svg11.dtd">
<!-- Generated by graphviz version 2.36.0 (20140111.2315)
 -->
<!-- Title: mutt_read_mime_header Pages: 1 -->
<svg width="882pt" height="560pt"
 viewBox="0.00 0.00 882.00 560.00" xmlns="http://www.w3.org/2000/svg" xmlns:xlink="http://www.w3.org/1999/xlink">
<g id="graph0" class="graph" transform="scale(1 1) rotate(0) translate(4 556)">
<title>mutt_read_mime_header</title>
<polygon fill="white" stroke="none" points="-4,4 -4,-556 878,-556 878,4 -4,4"/>
<!-- Node1 -->
<g id="node1" class="node"><title>Node1</title>
<polygon fill="#bfbfbf" stroke="black" points="0,-247.5 0,-266.5 124,-266.5 124,-247.5 0,-247.5"/>
<text text-anchor="middle" x="62" y="-254.5" font-family="Helvetica,sans-Serif" font-size="10.00">mutt_read_mime_header</text>
</g>
<!-- Node2 -->
<g id="node2" class="node"><title>Node2</title>
<g id="a_node2"><a xlink:href="body_8c.html#aee001296b775e82e3988b5a81e53e30c" target="_top" xlink:title="Create a new Body. ">
<polygon fill="white" stroke="red" points="181,-532.5 181,-551.5 267,-551.5 267,-532.5 181,-532.5"/>
<text text-anchor="middle" x="224" y="-539.5" font-family="Helvetica,sans-Serif" font-size="10.00">mutt_body_new</text>
</a>
</g>
</g>
<!-- Node1&#45;&gt;Node2 -->
<g id="edge1" class="edge"><title>Node1&#45;&gt;Node2</title>
<path fill="none" stroke="midnightblue" d="M63.772,-266.553C67.2993,-304.009 85.1067,-442.494 160,-518 163.915,-521.947 168.546,-525.256 173.493,-528.027"/>
<polygon fill="midnightblue" stroke="midnightblue" points="172.125,-531.253 182.651,-532.457 175.173,-524.952 172.125,-531.253"/>
</g>
<!-- Node3 -->
<g id="node3" class="node"><title>Node3</title>
<g id="a_node3"><a xlink:href="memory_8c.html#a264da4dc58e6dc8983285bd1f538f24d" target="_top" xlink:title="Allocate memory on the heap. ">
<polygon fill="white" stroke="red" points="776.5,-418.5 776.5,-437.5 873.5,-437.5 873.5,-418.5 776.5,-418.5"/>
<text text-anchor="middle" x="825" y="-425.5" font-family="Helvetica,sans-Serif" font-size="10.00">mutt_mem_malloc</text>
</a>
</g>
</g>
<!-- Node1&#45;&gt;Node3 -->
<g id="edge2" class="edge"><title>Node1&#45;&gt;Node3</title>
<path fill="none" stroke="midnightblue" d="M64.1171,-266.738C68.639,-301.28 88.8962,-418.705 160,-472 241.879,-533.372 285.673,-504 388,-504 388,-504 388,-504 555,-504 645.349,-504 746.556,-463.805 795.044,-441.878"/>
<polygon fill="midnightblue" stroke="midnightblue" points="796.67,-444.983 804.294,-437.625 793.746,-438.623 796.67,-444.983"/>
</g>
<!-- Node4 -->
<g id="node4" class="node"><title>Node4</title>
<g id="a_node4"><a xlink:href="parse_8c.html#a0266c2232ad3f92b0c7d61b6bd3acfbc" target="_top" xlink:title="Read a header line from a file. ">
<polygon fill="white" stroke="red" points="167.5,-38.5 167.5,-57.5 280.5,-57.5 280.5,-38.5 167.5,-38.5"/>
<text text-anchor="middle" x="224" y="-45.5" font-family="Helvetica,sans-Serif" font-size="10.00">mutt_rfc822_read_line</text>
</a>
</g>
</g>
<!-- Node1&#45;&gt;Node4 -->
<g id="edge3" class="edge"><title>Node1&#45;&gt;Node4</title>
<path fill="none" stroke="midnightblue" d="M65.4011,-247.435C73.4421,-217.297 102.23,-123.278 160,-72 164.486,-68.0181 169.701,-64.6686 175.173,-61.8579"/>
<polygon fill="midnightblue" stroke="midnightblue" points="176.873,-64.9304 184.541,-57.6199 173.988,-58.5526 176.873,-64.9304"/>
</g>
<!-- Node5 -->
<g id="node5" class="node"><title>Node5</title>
<g id="a_node5"><a xlink:href="mutt_2string_8c.html#aa5fb929533630a48c6d2e893267ce208" target="_top" xlink:title="Skip over whitespace as defined by RFC5322. ">
<polygon fill="white" stroke="black" points="490,-76.5 490,-95.5 618,-95.5 618,-76.5 490,-76.5"/>
<text text-anchor="middle" x="554" y="-83.5" font-family="Helvetica,sans-Serif" font-size="10.00">mutt_str_skip_email_wsp</text>
</a>
</g>
</g>
<!-- Node1&#45;&gt;Node5 -->
<g id="edge4" class="edge"><title>Node1&#45;&gt;Node5</title>
<path fill="none" stroke="midnightblue" d="M66.3022,-247.239C75.8779,-220.642 106.435,-146.826 160,-116 263.513,-56.4298 408.555,-64.1422 490.384,-75.0832"/>
<polygon fill="midnightblue" stroke="midnightblue" points="490.14,-78.583 500.528,-76.4997 491.108,-71.6503 490.14,-78.583"/>
</g>
<!-- Node6 -->
<g id="node6" class="node"><title>Node6</title>
<g id="a_node6"><a xlink:href="mutt_2string_8c.html#a0ab98e8f251c9db11831b77a1681edc3" target="_top" xlink:title="Compare two strings ignoring case (to a maximum), safely. ">
<polygon fill="white" stroke="black" points="497,-152.5 497,-171.5 611,-171.5 611,-152.5 497,-152.5"/>
<text text-anchor="middle" x="554" y="-159.5" font-family="Helvetica,sans-Serif" font-size="10.00">mutt_str_strncasecmp</text>
</a>
</g>
</g>
<!-- Node1&#45;&gt;Node6 -->
<g id="edge5" class="edge"><title>Node1&#45;&gt;Node6</title>
<path fill="none" stroke="midnightblue" d="M82.1863,-247.392C101.399,-238.181 132.048,-224.588 160,-217 272.308,-186.511 407.51,-172.312 486.497,-166.179"/>
<polygon fill="midnightblue" stroke="midnightblue" points="487.082,-169.645 496.79,-165.401 486.554,-162.665 487.082,-169.645"/>
</g>
<!-- Node7 -->
<g id="node7" class="node"><title>Node7</title>
<g id="a_node7"><a xlink:href="mutt_2string_8c.html#a011e5b6fad43bc608584d585987cf9c1" target="_top" xlink:title="Compare two strings ignoring case, safely. ">
<polygon fill="white" stroke="black" points="499.5,-304.5 499.5,-323.5 608.5,-323.5 608.5,-304.5 499.5,-304.5"/>
<text text-anchor="middle" x="554" y="-311.5" font-family="Helvetica,sans-Serif" font-size="10.00">mutt_str_strcasecmp</text>
</a>
</g>
</g>
<!-- Node1&#45;&gt;Node7 -->
<g id="edge6" class="edge"><title>Node1&#45;&gt;Node7</title>
<path fill="none" stroke="midnightblue" d="M71.1142,-266.633C86.3894,-283.925 121.374,-319.67 160,-333 281.492,-374.927 436.687,-344.961 510.417,-326.132"/>
<polygon fill="midnightblue" stroke="midnightblue" points="511.478,-329.472 520.268,-323.558 509.708,-322.7 511.478,-329.472"/>
</g>
<!-- Node8 -->
<g id="node8" class="node"><title>Node8</title>
<g id="a_node8"><a xlink:href="parse_8c.html#af56ef02064aceecce24f0145d3a81326" target="_top" xlink:title="Parse a content type. ">
<polygon fill="white" stroke="red" points="160.5,-304.5 160.5,-323.5 287.5,-323.5 287.5,-304.5 160.5,-304.5"/>
<text text-anchor="middle" x="224" y="-311.5" font-family="Helvetica,sans-Serif" font-size="10.00">mutt_parse_content_type</text>
</a>
</g>
</g>
<!-- Node1&#45;&gt;Node8 -->
<g id="edge7" class="edge"><title>Node1&#45;&gt;Node8</title>
<path fill="none" stroke="midnightblue" d="M89.7804,-266.541C116.316,-275.994 157.148,-290.54 186.613,-301.037"/>
<polygon fill="midnightblue" stroke="midnightblue" points="185.538,-304.369 196.132,-304.428 187.887,-297.775 185.538,-304.369"/>
</g>
<!-- Node9 -->
<g id="node9" class="node"><title>Node9</title>
<g id="a_node9"><a xlink:href="mutt_2string_8c.html#ae48085384a6545e0fac589a88243ea31" target="_top" xlink:title="Copy a string, safely. ">
<polygon fill="white" stroke="black" points="654.5,-342.5 654.5,-361.5 739.5,-361.5 739.5,-342.5 654.5,-342.5"/>
<text text-anchor="middle" x="697" y="-349.5" font-family="Helvetica,sans-Serif" font-size="10.00">mutt_str_strdup</text>
</a>
</g>
</g>
<!-- Node1&#45;&gt;Node9 -->
<g id="edge29" class="edge"><title>Node1&#45;&gt;Node9</title>
<path fill="none" stroke="midnightblue" d="M68.7183,-266.815C81.7245,-288.041 115.847,-337.838 160,-357 328.85,-430.279 556.751,-387.338 651.658,-364.023"/>
<polygon fill="midnightblue" stroke="midnightblue" points="652.644,-367.384 661.494,-361.559 650.943,-360.594 652.644,-367.384"/>
</g>
<!-- Node10 -->
<g id="node10" class="node"><title>Node10</title>
<g id="a_node10"><a xlink:href="parse_8c.html#a8692f01c25d10e357dbeee470ba26c2c" target="_top" xlink:title="Check the encoding type. ">
<polygon fill="white" stroke="black" points="333,-228.5 333,-247.5 445,-247.5 445,-228.5 333,-228.5"/>
<text text-anchor="middle" x="389" y="-235.5" font-family="Helvetica,sans-Serif" font-size="10.00">mutt_check_encoding</text>
</a>
</g>
</g>
<!-- Node1&#45;&gt;Node10 -->
<g id="edge20" class="edge"><title>Node1&#45;&gt;Node10</title>
<path fill="none" stroke="midnightblue" d="M124.13,-253.426C180.765,-250.115 264.752,-245.205 322.687,-241.818"/>
<polygon fill="midnightblue" stroke="midnightblue" points="323.051,-245.303 332.829,-241.225 322.642,-238.315 323.051,-245.303"/>
</g>
<!-- Node11 -->
<g id="node11" class="node"><title>Node11</title>
<g id="a_node11"><a xlink:href="parameter_8c.html#a0ae25acb8447c3823aa66e23fb6bc3c4" target="_top" xlink:title="Set a Parameter. ">
<polygon fill="white" stroke="red" points="345.5,-266.5 345.5,-285.5 432.5,-285.5 432.5,-266.5 345.5,-266.5"/>
<text text-anchor="middle" x="389" y="-273.5" font-family="Helvetica,sans-Serif" font-size="10.00">mutt_param_set</text>
</a>
</g>
</g>
<!-- Node1&#45;&gt;Node11 -->
<g id="edge28" class="edge"><title>Node1&#45;&gt;Node11</title>
<path fill="none" stroke="midnightblue" d="M124.13,-260.574C185.015,-264.133 277.511,-269.541 335.267,-272.917"/>
<polygon fill="midnightblue" stroke="midnightblue" points="335.092,-276.413 345.28,-273.503 335.501,-269.425 335.092,-276.413"/>
</g>
<!-- Node12 -->
<g id="node12" class="node"><title>Node12</title>
<g id="a_node12"><a xlink:href="mutt_2string_8c.html#ad5b66f8059a202f7bfa5fc4fa3047c67" target="_top" xlink:title="Replace one string with another. ">
<polygon fill="white" stroke="black" points="509.5,-209.5 509.5,-228.5 598.5,-228.5 598.5,-209.5 509.5,-209.5"/>
<text text-anchor="middle" x="554" y="-216.5" font-family="Helvetica,sans-Serif" font-size="10.00">mutt_str_replace</text>
</a>
</g>
</g>
<!-- Node1&#45;&gt;Node12 -->
<g id="edge26" class="edge"><title>Node1&#45;&gt;Node12</title>
<path fill="none" stroke="midnightblue" d="M114.778,-247.47C129.38,-244.906 145.294,-242.229 160,-240 232.654,-228.988 250.665,-223.676 324,-219 383.941,-215.178 452.886,-215.867 499.334,-217.074"/>
<polygon fill="midnightblue" stroke="midnightblue" points="499.38,-220.576 509.473,-217.355 499.574,-213.579 499.38,-220.576"/>
</g>
<!-- Node13 -->
<g id="node13" class="node"><title>Node13</title>
<g id="a_node13"><a xlink:href="parse_8c.html#a20dcd72fbe0e424e89d69ae1392fd76c" target="_top" xlink:title="Read the content&#39;s language. ">
<polygon fill="white" stroke="black" points="328,-456.5 328,-475.5 450,-475.5 450,-456.5 328,-456.5"/>
<text text-anchor="middle" x="389" y="-463.5" font-family="Helvetica,sans-Serif" font-size="10.00">parse_content_language</text>
</a>
</g>
</g>
<!-- Node1&#45;&gt;Node13 -->
<g id="edge18" class="edge"><title>Node1&#45;&gt;Node13</title>
<path fill="none" stroke="midnightblue" d="M64.791,-266.785C71.1481,-298.421 95.7895,-398.412 160,-442 205.809,-473.097 269.155,-477.485 317.453,-475.009"/>
<polygon fill="midnightblue" stroke="midnightblue" points="317.755,-478.497 327.519,-474.383 317.321,-471.51 317.755,-478.497"/>
</g>
<!-- Node14 -->
<g id="node14" class="node"><title>Node14</title>
<g id="a_node14"><a xlink:href="parse_8c.html#a8e2b483bdfdf7cf3a2889e11eb7f6c85" target="_top" xlink:title="Parse a content disposition. ">
<polygon fill="white" stroke="red" points="324,-114.5 324,-133.5 454,-133.5 454,-114.5 324,-114.5"/>
<text text-anchor="middle" x="389" y="-121.5" font-family="Helvetica,sans-Serif" font-size="10.00">parse_content_disposition</text>
</a>
</g>
</g>
<!-- Node1&#45;&gt;Node14 -->
<g id="edge21" class="edge"><title>Node1&#45;&gt;Node14</title>
<path fill="none" stroke="midnightblue" d="M68.2355,-247.288C80.7384,-225.186 114.702,-171.251 160,-148 207.174,-123.785 266.997,-118.274 313.527,-118.557"/>
<polygon fill="midnightblue" stroke="midnightblue" points="313.493,-122.057 323.545,-118.708 313.599,-115.058 313.493,-122.057"/>
</g>
<!-- Node15 -->
<g id="node15" class="node"><title>Node15</title>
<g id="a_node15"><a xlink:href="email_2rfc2047_8c.html#a89c57c82465740567f73641c9397d760" target="_top" xlink:title="Decode any RFC2047&#45;encoded header fields. ">
<polygon fill="white" stroke="red" points="181,-0.5 181,-19.5 267,-19.5 267,-0.5 181,-0.5"/>
<text text-anchor="middle" x="224" y="-7.5" font-family="Helvetica,sans-Serif" font-size="10.00">rfc2047_decode</text>
</a>
</g>
</g>
<!-- Node1&#45;&gt;Node15 -->
<g id="edge27" class="edge"><title>Node1&#45;&gt;Node15</title>
<path fill="none" stroke="midnightblue" d="M64.2278,-247.075C69.1235,-211.805 90.4865,-91.3007 160,-29 163.443,-25.9144 167.371,-23.3296 171.546,-21.1643"/>
<polygon fill="midnightblue" stroke="midnightblue" points="173.209,-24.2579 180.986,-17.0626 170.42,-17.8377 173.209,-24.2579"/>
</g>
<!-- Node8&#45;&gt;Node7 -->
<g id="edge12" class="edge"><title>Node8&#45;&gt;Node7</title>
<path fill="none" stroke="midnightblue" d="M287.854,-314C345.674,-314 431.015,-314 489.149,-314"/>
<polygon fill="midnightblue" stroke="midnightblue" points="489.315,-317.5 499.315,-314 489.315,-310.5 489.315,-317.5"/>
</g>
<!-- Node8&#45;&gt;Node9 -->
<g id="edge8" class="edge"><title>Node8&#45;&gt;Node9</title>
<path fill="none" stroke="midnightblue" d="M286.964,-323.5C299.218,-325.17 311.999,-326.766 324,-328 437.977,-339.719 572.225,-346.707 644.194,-349.903"/>
<polygon fill="midnightblue" stroke="midnightblue" points="644.207,-353.407 654.351,-350.348 644.513,-346.414 644.207,-353.407"/>
</g>
<!-- Node8&#45;&gt;Node10 -->
<g id="edge10" class="edge"><title>Node8&#45;&gt;Node10</title>
<path fill="none" stroke="midnightblue" d="M239.205,-304.392C257.95,-292.053 292.289,-270.613 324,-257 329.39,-254.686 335.15,-252.544 340.924,-250.598"/>
<polygon fill="midnightblue" stroke="midnightblue" points="342.129,-253.887 350.589,-247.509 339.998,-247.219 342.129,-253.887"/>
</g>
<!-- Node8&#45;&gt;Node11 -->
<g id="edge13" class="edge"><title>Node8&#45;&gt;Node11</title>
<path fill="none" stroke="midnightblue" d="M266.132,-304.411C287.738,-299.374 314.409,-293.156 337.286,-287.823"/>
<polygon fill="midnightblue" stroke="midnightblue" points="338.22,-291.199 347.164,-285.52 336.63,-284.382 338.22,-291.199"/>
</g>
<!-- Node9&#45;&gt;Node3 -->
<g id="edge9" class="edge"><title>Node9&#45;&gt;Node3</title>
<path fill="none" stroke="midnightblue" d="M713.958,-361.625C735.544,-374.645 774.248,-397.991 799.524,-413.236"/>
<polygon fill="midnightblue" stroke="midnightblue" points="797.801,-416.285 808.172,-418.453 801.416,-410.291 797.801,-416.285"/>
</g>
<!-- Node10&#45;&gt;Node6 -->
<g id="edge11" class="edge"><title>Node10&#45;&gt;Node6</title>
<path fill="none" stroke="midnightblue" d="M410.644,-228.375C439.058,-215.126 490.402,-191.187 523.041,-175.969"/>
<polygon fill="midnightblue" stroke="midnightblue" points="524.939,-178.945 532.524,-171.547 521.981,-172.601 524.939,-178.945"/>
</g>
<!-- Node11&#45;&gt;Node7 -->
<g id="edge14" class="edge"><title>Node11&#45;&gt;Node7</title>
<path fill="none" stroke="midnightblue" d="M431.132,-285.589C452.738,-290.626 479.409,-296.844 502.286,-302.177"/>
<polygon fill="midnightblue" stroke="midnightblue" points="501.63,-305.618 512.164,-304.48 503.22,-298.801 501.63,-305.618"/>
</g>
<!-- Node11&#45;&gt;Node9 -->
<g id="edge17" class="edge"><title>Node11&#45;&gt;Node9</title>
<path fill="none" stroke="midnightblue" d="M432.67,-272.811C479.63,-270.819 556.596,-272.09 618,-295 641.6,-303.805 664.356,-321.898 679.135,-335.349"/>
<polygon fill="midnightblue" stroke="midnightblue" points="676.797,-337.955 686.479,-342.256 681.592,-332.856 676.797,-337.955"/>
</g>
<!-- Node11&#45;&gt;Node12 -->
<g id="edge15" class="edge"><title>Node11&#45;&gt;Node12</title>
<path fill="none" stroke="midnightblue" d="M424.035,-266.431C433.762,-263.552 444.343,-260.281 454,-257 476.266,-249.434 500.959,-239.958 520.115,-232.361"/>
<polygon fill="midnightblue" stroke="midnightblue" points="521.595,-235.539 529.585,-228.58 519,-229.038 521.595,-235.539"/>
</g>
<!-- Node12&#45;&gt;Node9 -->
<g id="edge16" class="edge"><title>Node12&#45;&gt;Node9</title>
<path fill="none" stroke="midnightblue" d="M571.364,-228.541C584.597,-236.628 603.367,-248.962 618,-262 643.322,-284.561 668.216,-315.158 682.835,-334.232"/>
<polygon fill="midnightblue" stroke="midnightblue" points="680.148,-336.481 688.969,-342.349 685.733,-332.261 680.148,-336.481"/>
</g>
<!-- Node13&#45;&gt;Node9 -->
<g id="edge19" class="edge"><title>Node13&#45;&gt;Node9</title>
<path fill="none" stroke="midnightblue" d="M450.1,-471.353C498.188,-472.982 565.948,-469.151 618,-442 649,-425.83 673.08,-391.752 685.855,-370.481"/>
<polygon fill="midnightblue" stroke="midnightblue" points="688.945,-372.129 690.914,-361.719 682.883,-368.629 688.945,-372.129"/>
</g>
<!-- Node14&#45;&gt;Node5 -->
<g id="edge23" class="edge"><title>Node14&#45;&gt;Node5</title>
<path fill="none" stroke="midnightblue" d="M431.132,-114.411C452.738,-109.374 479.409,-103.156 502.286,-97.8229"/>
<polygon fill="midnightblue" stroke="midnightblue" points="503.22,-101.199 512.164,-95.5201 501.63,-94.3819 503.22,-101.199"/>
</g>
<!-- Node14&#45;&gt;Node6 -->
<g id="edge22" class="edge"><title>Node14&#45;&gt;Node6</title>
<path fill="none" stroke="midnightblue" d="M431.132,-133.589C452.738,-138.626 479.409,-144.844 502.286,-150.177"/>
<polygon fill="midnightblue" stroke="midnightblue" points="501.63,-153.618 512.164,-152.48 503.22,-146.801 501.63,-153.618"/>
</g>
<!-- Node14&#45;&gt;Node9 -->
<g id="edge25" class="edge"><title>Node14&#45;&gt;Node9</title>
<path fill="none" stroke="midnightblue" d="M436.145,-114.493C486.145,-106.969 565.761,-103.422 618,-143 679.362,-189.49 692.459,-289.79 695.248,-332.308"/>
<polygon fill="midnightblue" stroke="midnightblue" points="691.762,-332.658 695.785,-342.46 698.752,-332.289 691.762,-332.658"/>
</g>
<!-- Node14&#45;&gt;Node12 -->
<g id="edge24" class="edge"><title>Node14&#45;&gt;Node12</title>
<path fill="none" stroke="midnightblue" d="M406.526,-133.632C435.083,-150.275 493.84,-184.52 527.613,-204.204"/>
<polygon fill="midnightblue" stroke="midnightblue" points="526.028,-207.331 536.43,-209.343 529.553,-201.283 526.028,-207.331"/>
</g>
</g>
</svg>
