<?xml version="1.0" encoding="UTF-8" standalone="no"?>
<!DOCTYPE svg PUBLIC "-//W3C//DTD SVG 1.1//EN"
 "http://www.w3.org/Graphics/SVG/1.1/DTD/svg11.dtd">
<!-- Generated by graphviz version 2.36.0 (20140111.2315)
 -->
<!-- Title: mutt_rfc822_read_header Pages: 1 -->
<svg width="564pt" height="598pt"
 viewBox="0.00 0.00 564.00 598.00" xmlns="http://www.w3.org/2000/svg" xmlns:xlink="http://www.w3.org/1999/xlink">
<g id="graph0" class="graph" transform="scale(1 1) rotate(0) translate(4 594)">
<title>mutt_rfc822_read_header</title>
<polygon fill="white" stroke="none" points="-4,4 -4,-594 560,-594 560,4 -4,4"/>
<!-- Node1 -->
<g id="node1" class="node"><title>Node1</title>
<polygon fill="#bfbfbf" stroke="black" points="0.5,-285.5 0.5,-304.5 127.5,-304.5 127.5,-285.5 0.5,-285.5"/>
<text text-anchor="middle" x="64" y="-292.5" font-family="Helvetica,sans-Serif" font-size="10.00">mutt_rfc822_read_header</text>
</g>
<!-- Node2 -->
<g id="node2" class="node"><title>Node2</title>
<g id="a_node2"><a xlink:href="envelope_8c.html#a51f04365c2b348d829e7cd3710c55b5b" target="_top" xlink:title="Create a new Envelope. ">
<polygon fill="white" stroke="red" points="188,-570.5 188,-589.5 268,-589.5 268,-570.5 188,-570.5"/>
<text text-anchor="middle" x="228" y="-577.5" font-family="Helvetica,sans-Serif" font-size="10.00">mutt_env_new</text>
</a>
</g>
</g>
<!-- Node1&#45;&gt;Node2 -->
<g id="edge1" class="edge"><title>Node1&#45;&gt;Node2</title>
<path fill="none" stroke="midnightblue" d="M65.6128,-304.637C68.5809,-343.036 84.7756,-486.644 164,-561 168.113,-564.86 172.983,-567.938 178.165,-570.392"/>
<polygon fill="midnightblue" stroke="midnightblue" points="177.147,-573.753 187.733,-574.169 179.717,-567.242 177.147,-573.753"/>
</g>
<!-- Node3 -->
<g id="node3" class="node"><title>Node3</title>
<g id="a_node3"><a xlink:href="memory_8c.html#a264da4dc58e6dc8983285bd1f538f24d" target="_top" xlink:title="Allocate memory on the heap. ">
<polygon fill="white" stroke="red" points="458.5,-475.5 458.5,-494.5 555.5,-494.5 555.5,-475.5 458.5,-475.5"/>
<text text-anchor="middle" x="507" y="-482.5" font-family="Helvetica,sans-Serif" font-size="10.00">mutt_mem_malloc</text>
</a>
</g>
</g>
<!-- Node1&#45;&gt;Node3 -->
<g id="edge2" class="edge"><title>Node1&#45;&gt;Node3</title>
<path fill="none" stroke="midnightblue" d="M67.9864,-304.6C77.1455,-332.252 107.691,-412.315 164,-447 210.204,-475.46 363.066,-482.664 447.936,-484.448"/>
<polygon fill="midnightblue" stroke="midnightblue" points="448.123,-487.952 458.188,-484.644 448.257,-480.953 448.123,-487.952"/>
</g>
<!-- Node4 -->
<g id="node4" class="node"><title>Node4</title>
<g id="a_node4"><a xlink:href="body_8c.html#aee001296b775e82e3988b5a81e53e30c" target="_top" xlink:title="Create a new Body. ">
<polygon fill="white" stroke="red" points="185,-266.5 185,-285.5 271,-285.5 271,-266.5 185,-266.5"/>
<text text-anchor="middle" x="228" y="-273.5" font-family="Helvetica,sans-Serif" font-size="10.00">mutt_body_new</text>
</a>
</g>
</g>
<!-- Node1&#45;&gt;Node4 -->
<g id="edge3" class="edge"><title>Node1&#45;&gt;Node4</title>
<path fill="none" stroke="midnightblue" d="M127.633,-287.654C143.115,-285.838 159.541,-283.912 174.485,-282.159"/>
<polygon fill="midnightblue" stroke="midnightblue" points="175.04,-285.618 184.564,-280.977 174.224,-278.666 175.04,-285.618"/>
</g>
<!-- Node5 -->
<g id="node5" class="node"><title>Node5</title>
<g id="a_node5"><a xlink:href="mutt_2string_8c.html#ae48085384a6545e0fac589a88243ea31" target="_top" xlink:title="Copy a string, safely. ">
<polygon fill="white" stroke="black" points="332.5,-494.5 332.5,-513.5 417.5,-513.5 417.5,-494.5 332.5,-494.5"/>
<text text-anchor="middle" x="375" y="-501.5" font-family="Helvetica,sans-Serif" font-size="10.00">mutt_str_strdup</text>
</a>
</g>
</g>
<!-- Node1&#45;&gt;Node5 -->
<g id="edge4" class="edge"><title>Node1&#45;&gt;Node5</title>
<path fill="none" stroke="midnightblue" d="M66.9125,-304.768C73.6595,-336.352 99.512,-436.201 164,-480 210.468,-511.56 276.45,-513.958 321.994,-510.785"/>
<polygon fill="midnightblue" stroke="midnightblue" points="322.562,-514.251 332.246,-509.954 321.996,-507.274 322.562,-514.251"/>
</g>
<!-- Node6 -->
<g id="node6" class="node"><title>Node6</title>
<g id="a_node6"><a xlink:href="parse_8c.html#a0266c2232ad3f92b0c7d61b6bd3acfbc" target="_top" xlink:title="Read a header line from a file. ">
<polygon fill="white" stroke="red" points="171.5,-228.5 171.5,-247.5 284.5,-247.5 284.5,-228.5 171.5,-228.5"/>
<text text-anchor="middle" x="228" y="-235.5" font-family="Helvetica,sans-Serif" font-size="10.00">mutt_rfc822_read_line</text>
</a>
</g>
</g>
<!-- Node1&#45;&gt;Node6 -->
<g id="edge6" class="edge"><title>Node1&#45;&gt;Node6</title>
<path fill="none" stroke="midnightblue" d="M88.4253,-285.449C108.374,-277.45 137.872,-265.941 164,-257 170.463,-254.788 177.344,-252.573 184.096,-250.477"/>
<polygon fill="midnightblue" stroke="midnightblue" points="185.288,-253.772 193.83,-247.505 183.244,-247.077 185.288,-253.772"/>
</g>
<!-- Node7 -->
<g id="node7" class="node"><title>Node7</title>
<g id="a_node7"><a xlink:href="mutt_2string_8c.html#a0f37dc8085c127cb48df9b47a21236a6" target="_top" xlink:title="Compare two strings (to a maximum), safely. ">
<polygon fill="white" stroke="black" points="328.5,-171.5 328.5,-190.5 421.5,-190.5 421.5,-171.5 328.5,-171.5"/>
<text text-anchor="middle" x="375" y="-178.5" font-family="Helvetica,sans-Serif" font-size="10.00">mutt_str_strncmp</text>
</a>
</g>
</g>
<!-- Node1&#45;&gt;Node7 -->
<g id="edge7" class="edge"><title>Node1&#45;&gt;Node7</title>
<path fill="none" stroke="midnightblue" d="M74.3603,-285.253C90.821,-268.75 126.753,-235.494 164,-219 213.397,-197.126 274.65,-187.842 318.229,-183.902"/>
<polygon fill="midnightblue" stroke="midnightblue" points="318.681,-187.377 328.354,-183.054 318.097,-180.401 318.681,-187.377"/>
</g>
<!-- Node8 -->
<g id="node8" class="node"><title>Node8</title>
<g id="a_node8"><a xlink:href="from_8c.html#af485f9451b398a9beb14a61aaa68ddeb" target="_top" xlink:title="Is a string a &#39;From&#39; header line? ">
<polygon fill="white" stroke="red" points="203.5,-152.5 203.5,-171.5 252.5,-171.5 252.5,-152.5 203.5,-152.5"/>
<text text-anchor="middle" x="228" y="-159.5" font-family="Helvetica,sans-Serif" font-size="10.00">is_from</text>
</a>
</g>
</g>
<!-- Node1&#45;&gt;Node8 -->
<g id="edge8" class="edge"><title>Node1&#45;&gt;Node8</title>
<path fill="none" stroke="midnightblue" d="M71.2883,-285.459C85.4643,-264.632 121.976,-214.67 164,-186 172.919,-179.915 183.591,-175.099 193.594,-171.428"/>
<polygon fill="midnightblue" stroke="midnightblue" points="194.944,-174.666 203.285,-168.133 192.69,-168.038 194.944,-174.666"/>
</g>
<!-- Node9 -->
<g id="node9" class="node"><title>Node9</title>
<g id="a_node9"><a xlink:href="date_8c.html#a82bd2f1fb214328612aa1900b731972b" target="_top" xlink:title="Calculate the local timezone in seconds east of UTC. ">
<polygon fill="white" stroke="red" points="178.5,-114.5 178.5,-133.5 277.5,-133.5 277.5,-114.5 178.5,-114.5"/>
<text text-anchor="middle" x="228" y="-121.5" font-family="Helvetica,sans-Serif" font-size="10.00">mutt_date_local_tz</text>
</a>
</g>
</g>
<!-- Node1&#45;&gt;Node9 -->
<g id="edge10" class="edge"><title>Node1&#45;&gt;Node9</title>
<path fill="none" stroke="midnightblue" d="M68.6081,-285.116C78.9888,-258.076 111.585,-182.287 164,-143 166.605,-141.047 169.411,-139.294 172.341,-137.72"/>
<polygon fill="midnightblue" stroke="midnightblue" points="173.821,-140.891 181.425,-133.514 170.88,-134.539 173.821,-140.891"/>
</g>
<!-- Node10 -->
<g id="node10" class="node"><title>Node10</title>
<g id="a_node10"><a xlink:href="mutt_2regex_8c.html#a5c1dc418529747116226ffa8f97e9e88" target="_top" xlink:title="Does a string match a pattern? ">
<polygon fill="white" stroke="red" points="169,-76.5 169,-95.5 287,-95.5 287,-76.5 169,-76.5"/>
<text text-anchor="middle" x="228" y="-83.5" font-family="Helvetica,sans-Serif" font-size="10.00">mutt_replacelist_match</text>
</a>
</g>
</g>
<!-- Node1&#45;&gt;Node10 -->
<g id="edge11" class="edge"><title>Node1&#45;&gt;Node10</title>
<path fill="none" stroke="midnightblue" d="M67.1695,-285.435C74.7041,-254.429 102.696,-155.77 164,-105 166.04,-103.31 168.228,-101.771 170.519,-100.368"/>
<polygon fill="midnightblue" stroke="midnightblue" points="172.485,-103.293 179.78,-95.6089 169.286,-97.0672 172.485,-103.293"/>
</g>
<!-- Node11 -->
<g id="node11" class="node"><title>Node11</title>
<g id="a_node11"><a xlink:href="mutt_2regex_8c.html#ab0efb83f9190881306c558339efb250a" target="_top" xlink:title="Does a string match any Regex in the list? ">
<polygon fill="white" stroke="black" points="173,-38.5 173,-57.5 283,-57.5 283,-38.5 173,-38.5"/>
<text text-anchor="middle" x="228" y="-45.5" font-family="Helvetica,sans-Serif" font-size="10.00">mutt_regexlist_match</text>
</a>
</g>
</g>
<!-- Node1&#45;&gt;Node11 -->
<g id="edge12" class="edge"><title>Node1&#45;&gt;Node11</title>
<path fill="none" stroke="midnightblue" d="M66.3215,-285.071C71.5486,-249.787 94.034,-129.241 164,-67 165.768,-65.4268 167.663,-63.9838 169.653,-62.6602"/>
<polygon fill="midnightblue" stroke="midnightblue" points="171.802,-65.4728 178.879,-57.5886 168.43,-59.3385 171.802,-65.4728"/>
</g>
<!-- Node12 -->
<g id="node12" class="node"><title>Node12</title>
<g id="a_node12"><a xlink:href="buffer_8c.html#a958e87c1ae9de976eb76f759dbaaa601" target="_top" xlink:title="Add a string to a Buffer. ">
<polygon fill="white" stroke="red" points="458,-333.5 458,-352.5 556,-352.5 556,-333.5 458,-333.5"/>
<text text-anchor="middle" x="507" y="-340.5" font-family="Helvetica,sans-Serif" font-size="10.00">mutt_buffer_addstr</text>
</a>
</g>
</g>
<!-- Node1&#45;&gt;Node12 -->
<g id="edge13" class="edge"><title>Node1&#45;&gt;Node12</title>
<path fill="none" stroke="midnightblue" d="M127.716,-301.826C213.092,-311.119 364.739,-327.625 447.736,-336.658"/>
<polygon fill="midnightblue" stroke="midnightblue" points="447.433,-340.146 457.753,-337.749 448.191,-333.187 447.433,-340.146"/>
</g>
<!-- Node13 -->
<g id="node13" class="node"><title>Node13</title>
<g id="a_node13"><a xlink:href="buffer_8c.html#a2dbbf64489c1ea71237cfa83bcf50f13" target="_top" xlink:title="Create Buffer from an existing string. ">
<polygon fill="white" stroke="red" points="182.5,-532.5 182.5,-551.5 273.5,-551.5 273.5,-532.5 182.5,-532.5"/>
<text text-anchor="middle" x="228" y="-539.5" font-family="Helvetica,sans-Serif" font-size="10.00">mutt_buffer_from</text>
</a>
</g>
</g>
<!-- Node1&#45;&gt;Node13 -->
<g id="edge14" class="edge"><title>Node1&#45;&gt;Node13</title>
<path fill="none" stroke="midnightblue" d="M66.5473,-304.548C72.537,-338.506 97.2779,-454.776 164,-518 168.245,-522.023 173.234,-525.389 178.513,-528.203"/>
<polygon fill="midnightblue" stroke="midnightblue" points="177.051,-531.383 187.593,-532.434 180.007,-525.038 177.051,-531.383"/>
</g>
<!-- Node14 -->
<g id="node14" class="node"><title>Node14</title>
<g id="a_node14"><a xlink:href="mutt_2string_8c.html#aa5fb929533630a48c6d2e893267ce208" target="_top" xlink:title="Skip over whitespace as defined by RFC5322. ">
<polygon fill="white" stroke="black" points="164,-0.5 164,-19.5 292,-19.5 292,-0.5 164,-0.5"/>
<text text-anchor="middle" x="228" y="-7.5" font-family="Helvetica,sans-Serif" font-size="10.00">mutt_str_skip_email_wsp</text>
</a>
</g>
</g>
<!-- Node1&#45;&gt;Node14 -->
<g id="edge16" class="edge"><title>Node1&#45;&gt;Node14</title>
<path fill="none" stroke="midnightblue" d="M65.6128,-285.363C68.5809,-246.964 84.7756,-103.356 164,-29 165.692,-27.412 167.512,-25.9563 169.429,-24.622"/>
<polygon fill="midnightblue" stroke="midnightblue" points="171.418,-27.5171 178.362,-19.5152 167.943,-21.4401 171.418,-27.5171"/>
</g>
<!-- Node15 -->
<g id="node15" class="node"><title>Node15</title>
<g id="a_node15"><a xlink:href="parse_8c.html#a8a7093d918de1a8a681701742eb5a3d2" target="_top" xlink:title="Parse an email header. ">
<polygon fill="white" stroke="red" points="169,-418.5 169,-437.5 287,-437.5 287,-418.5 169,-418.5"/>
<text text-anchor="middle" x="228" y="-425.5" font-family="Helvetica,sans-Serif" font-size="10.00">mutt_rfc822_parse_line</text>
</a>
</g>
</g>
<!-- Node1&#45;&gt;Node15 -->
<g id="edge17" class="edge"><title>Node1&#45;&gt;Node15</title>
<path fill="none" stroke="midnightblue" d="M70.62,-304.561C83.9621,-326.423 119.765,-380.377 164,-409 167.159,-411.044 170.548,-412.877 174.056,-414.519"/>
<polygon fill="midnightblue" stroke="midnightblue" points="172.962,-417.853 183.541,-418.433 175.632,-411.383 172.962,-417.853"/>
</g>
<!-- Node16 -->
<g id="node16" class="node"><title>Node16</title>
<g id="a_node16"><a xlink:href="email_2rfc2047_8c.html#a89c57c82465740567f73641c9397d760" target="_top" xlink:title="Decode any RFC2047&#45;encoded header fields. ">
<polygon fill="white" stroke="red" points="332,-361.5 332,-380.5 418,-380.5 418,-361.5 332,-361.5"/>
<text text-anchor="middle" x="375" y="-368.5" font-family="Helvetica,sans-Serif" font-size="10.00">rfc2047_decode</text>
</a>
</g>
</g>
<!-- Node1&#45;&gt;Node16 -->
<g id="edge23" class="edge"><title>Node1&#45;&gt;Node16</title>
<path fill="none" stroke="midnightblue" d="M90.7971,-304.544C110.626,-311.649 138.801,-321.246 164,-328 217.245,-342.27 279.18,-354.423 321.923,-362.131"/>
<polygon fill="midnightblue" stroke="midnightblue" points="321.359,-365.585 331.818,-363.898 322.589,-358.694 321.359,-365.585"/>
</g>
<!-- Node17 -->
<g id="node17" class="node"><title>Node17</title>
<g id="a_node17"><a xlink:href="email_2rfc2047_8c.html#a5b4551c4258a843325609099be84f39a" target="_top" xlink:title="Decode any RFC2047 headers in an Address list. ">
<polygon fill="white" stroke="black" points="167,-380.5 167,-399.5 289,-399.5 289,-380.5 167,-380.5"/>
<text text-anchor="middle" x="228" y="-387.5" font-family="Helvetica,sans-Serif" font-size="10.00">rfc2047_decode_addrlist</text>
</a>
</g>
</g>
<!-- Node1&#45;&gt;Node17 -->
<g id="edge21" class="edge"><title>Node1&#45;&gt;Node17</title>
<path fill="none" stroke="midnightblue" d="M76.2419,-304.558C93.9659,-319.27 129.905,-347.679 164,-366 171.403,-369.978 179.61,-373.613 187.587,-376.783"/>
<polygon fill="midnightblue" stroke="midnightblue" points="186.542,-380.131 197.133,-380.413 189.03,-373.588 186.542,-380.131"/>
</g>
<!-- Node5&#45;&gt;Node3 -->
<g id="edge5" class="edge"><title>Node5&#45;&gt;Node3</title>
<path fill="none" stroke="midnightblue" d="M417.848,-497.884C427.535,-496.468 438.01,-494.937 448.243,-493.441"/>
<polygon fill="midnightblue" stroke="midnightblue" points="448.968,-496.873 458.357,-491.963 447.956,-489.946 448.968,-496.873"/>
</g>
<!-- Node8&#45;&gt;Node7 -->
<g id="edge9" class="edge"><title>Node8&#45;&gt;Node7</title>
<path fill="none" stroke="midnightblue" d="M252.619,-165.095C270.445,-167.431 295.65,-170.733 318.476,-173.724"/>
<polygon fill="midnightblue" stroke="midnightblue" points="318.052,-177.199 328.422,-175.028 318.961,-170.258 318.052,-177.199"/>
</g>
<!-- Node13&#45;&gt;Node5 -->
<g id="edge15" class="edge"><title>Node13&#45;&gt;Node5</title>
<path fill="none" stroke="midnightblue" d="M265.59,-532.411C284.465,-527.464 307.686,-521.379 327.788,-516.111"/>
<polygon fill="midnightblue" stroke="midnightblue" points="328.887,-519.441 337.673,-513.52 327.113,-512.67 328.887,-519.441"/>
</g>
<!-- Node15&#45;&gt;Node5 -->
<g id="edge20" class="edge"><title>Node15&#45;&gt;Node5</title>
<path fill="none" stroke="midnightblue" d="M247.364,-437.625C272.423,-450.76 317.528,-474.401 346.595,-489.636"/>
<polygon fill="midnightblue" stroke="midnightblue" points="345.303,-492.91 355.785,-494.453 348.552,-486.71 345.303,-492.91"/>
</g>
<!-- Node15&#45;&gt;Node16 -->
<g id="edge18" class="edge"><title>Node15&#45;&gt;Node16</title>
<path fill="none" stroke="midnightblue" d="M263.956,-418.414C273.164,-415.63 283.031,-412.411 292,-409 310.46,-401.979 330.592,-392.675 346.288,-385.031"/>
<polygon fill="midnightblue" stroke="midnightblue" points="348.012,-388.083 355.433,-380.521 344.916,-381.805 348.012,-388.083"/>
</g>
<!-- Node16&#45;&gt;Node12 -->
<g id="edge19" class="edge"><title>Node16&#45;&gt;Node12</title>
<path fill="none" stroke="midnightblue" d="M418.207,-361.909C428.879,-359.611 440.489,-357.11 451.666,-354.703"/>
<polygon fill="midnightblue" stroke="midnightblue" points="452.731,-358.054 461.77,-352.527 451.257,-351.211 452.731,-358.054"/>
</g>
<!-- Node17&#45;&gt;Node16 -->
<g id="edge22" class="edge"><title>Node17&#45;&gt;Node16</title>
<path fill="none" stroke="midnightblue" d="M289.233,-382.107C300.083,-380.686 311.31,-379.215 321.904,-377.826"/>
<polygon fill="midnightblue" stroke="midnightblue" points="322.374,-381.295 331.835,-376.525 321.465,-374.354 322.374,-381.295"/>
</g>
</g>
</svg>
