<?xml version="1.0" encoding="UTF-8" standalone="no"?>
<!DOCTYPE svg PUBLIC "-//W3C//DTD SVG 1.1//EN"
 "http://www.w3.org/Graphics/SVG/1.1/DTD/svg11.dtd">
<!-- Generated by graphviz version 2.36.0 (20140111.2315)
 -->
<!-- Title: mutt_parse_content_type Pages: 1 -->
<svg width="296pt" height="180pt"
 viewBox="0.00 0.00 296.00 180.00" xmlns="http://www.w3.org/2000/svg" xmlns:xlink="http://www.w3.org/1999/xlink">
<g id="graph0" class="graph" transform="scale(1 1) rotate(0) translate(4 176)">
<title>mutt_parse_content_type</title>
<polygon fill="white" stroke="none" points="-4,4 -4,-176 292,-176 292,4 -4,4"/>
<!-- Node1 -->
<g id="node1" class="node"><title>Node1</title>
<polygon fill="#bfbfbf" stroke="black" points="0.5,-76.5 0.5,-95.5 127.5,-95.5 127.5,-76.5 0.5,-76.5"/>
<text text-anchor="middle" x="64" y="-83.5" font-family="Helvetica,sans-Serif" font-size="10.00">mutt_parse_content_type</text>
</g>
<!-- Node2 -->
<g id="node2" class="node"><title>Node2</title>
<g id="a_node2"><a xlink:href="commands_8h.html#a87652bbb3f4fb04d3341434ab719398b" target="_top" xlink:title="Edit the content type of an attachment. ">
<polygon fill="white" stroke="red" points="166.5,-152.5 166.5,-171.5 285.5,-171.5 285.5,-152.5 166.5,-152.5"/>
<text text-anchor="middle" x="226" y="-159.5" font-family="Helvetica,sans-Serif" font-size="10.00">mutt_edit_content_type</text>
</a>
</g>
</g>
<!-- Node1&#45;&gt;Node2 -->
<g id="edge1" class="edge"><title>Node1&#45;&gt;Node2</title>
<path fill="none" stroke="midnightblue" d="M87.7616,-101.042C107.356,-113.512 136.704,-131.066 164,-143 172.131,-146.555 181.136,-149.743 189.677,-152.447"/>
<polygon fill="midnightblue" stroke="midnightblue" points="89.5339,-98.0207 79.2328,-95.5429 85.7404,-103.904 89.5339,-98.0207"/>
</g>
<!-- Node3 -->
<g id="node3" class="node"><title>Node3</title>
<g id="a_node3"><a xlink:href="parse_8h.html#a8a7093d918de1a8a681701742eb5a3d2" target="_top" xlink:title="Parse an email header. ">
<polygon fill="white" stroke="red" points="167,-114.5 167,-133.5 285,-133.5 285,-114.5 167,-114.5"/>
<text text-anchor="middle" x="226" y="-121.5" font-family="Helvetica,sans-Serif" font-size="10.00">mutt_rfc822_parse_line</text>
</a>
</g>
</g>
<!-- Node1&#45;&gt;Node3 -->
<g id="edge2" class="edge"><title>Node1&#45;&gt;Node3</title>
<path fill="none" stroke="midnightblue" d="M115.392,-97.968C137.813,-103.293 163.847,-109.476 184.916,-114.48"/>
<polygon fill="midnightblue" stroke="midnightblue" points="115.913,-94.4945 105.375,-95.589 114.295,-101.305 115.913,-94.4945"/>
</g>
<!-- Node4 -->
<g id="node4" class="node"><title>Node4</title>
<g id="a_node4"><a xlink:href="parse_8h.html#ad373211d5d49e235c1aa9b818f0f10a1" target="_top" xlink:title="Parse a MIME header. ">
<polygon fill="white" stroke="red" points="164,-76.5 164,-95.5 288,-95.5 288,-76.5 164,-76.5"/>
<text text-anchor="middle" x="226" y="-83.5" font-family="Helvetica,sans-Serif" font-size="10.00">mutt_read_mime_header</text>
</a>
</g>
</g>
<!-- Node1&#45;&gt;Node4 -->
<g id="edge3" class="edge"><title>Node1&#45;&gt;Node4</title>
<path fill="none" stroke="midnightblue" d="M137.925,-86C146.635,-86 155.458,-86 163.976,-86"/>
<polygon fill="midnightblue" stroke="midnightblue" points="137.777,-82.5001 127.777,-86 137.777,-89.5001 137.777,-82.5001"/>
</g>
<!-- Node5 -->
<g id="node5" class="node"><title>Node5</title>
<g id="a_node5"><a xlink:href="send_8h.html#a09c909ab2bb41101590ed2b13f65fc2d" target="_top" xlink:title="Send an email. ">
<polygon fill="white" stroke="red" points="178.5,-38.5 178.5,-57.5 273.5,-57.5 273.5,-38.5 178.5,-38.5"/>
<text text-anchor="middle" x="226" y="-45.5" font-family="Helvetica,sans-Serif" font-size="10.00">ci_send_message</text>
</a>
</g>
</g>
<!-- Node1&#45;&gt;Node5 -->
<g id="edge4" class="edge"><title>Node1&#45;&gt;Node5</title>
<path fill="none" stroke="midnightblue" d="M115.392,-74.032C137.813,-68.7069 163.847,-62.5238 184.916,-57.5201"/>
<polygon fill="midnightblue" stroke="midnightblue" points="114.295,-70.6949 105.375,-76.411 115.913,-77.5055 114.295,-70.6949"/>
</g>
<!-- Node6 -->
<g id="node6" class="node"><title>Node6</title>
<g id="a_node6"><a xlink:href="sendlib_8c.html#ac4ba3830d8a4136b4153942453a2c5b8" target="_top" xlink:title="Run an external command to determine the MIME type. ">
<polygon fill="white" stroke="red" points="169.5,-0.5 169.5,-19.5 282.5,-19.5 282.5,-0.5 169.5,-0.5"/>
<text text-anchor="middle" x="226" y="-7.5" font-family="Helvetica,sans-Serif" font-size="10.00">run_mime_type_query</text>
</a>
</g>
</g>
<!-- Node1&#45;&gt;Node6 -->
<g id="edge5" class="edge"><title>Node1&#45;&gt;Node6</title>
<path fill="none" stroke="midnightblue" d="M87.7616,-70.9576C107.356,-58.488 136.704,-40.9344 164,-29 172.131,-25.4452 181.136,-22.2566 189.677,-19.5526"/>
<polygon fill="midnightblue" stroke="midnightblue" points="85.7404,-68.0963 79.2328,-76.4571 89.5339,-73.9793 85.7404,-68.0963"/>
</g>
</g>
</svg>
