<?xml version="1.0" encoding="UTF-8" standalone="no"?>
<!DOCTYPE svg PUBLIC "-//W3C//DTD SVG 1.1//EN"
 "http://www.w3.org/Graphics/SVG/1.1/DTD/svg11.dtd">
<!-- Generated by graphviz version 2.36.0 (20140111.2315)
 -->
<!-- Title: parse_parameters Pages: 1 -->
<svg width="280pt" height="218pt"
 viewBox="0.00 0.00 280.00 218.00" xmlns="http://www.w3.org/2000/svg" xmlns:xlink="http://www.w3.org/1999/xlink">
<g id="graph0" class="graph" transform="scale(1 1) rotate(0) translate(4 214)">
<title>parse_parameters</title>
<polygon fill="white" stroke="none" points="-4,4 -4,-214 276,-214 276,4 -4,4"/>
<!-- Node1 -->
<g id="node1" class="node"><title>Node1</title>
<polygon fill="#bfbfbf" stroke="black" points="0.5,-95.5 0.5,-114.5 95.5,-114.5 95.5,-95.5 0.5,-95.5"/>
<text text-anchor="middle" x="48" y="-102.5" font-family="Helvetica,sans-Serif" font-size="10.00">parse_parameters</text>
</g>
<!-- Node2 -->
<g id="node2" class="node"><title>Node2</title>
<g id="a_node2"><a xlink:href="mutt_2string_8c.html#ab909aa18a706e6ef8b79e5824db822ba" target="_top" xlink:title="Is this a whitespace character (for an email header) ">
<polygon fill="white" stroke="black" points="143.5,-190.5 143.5,-209.5 260.5,-209.5 260.5,-190.5 143.5,-190.5"/>
<text text-anchor="middle" x="202" y="-197.5" font-family="Helvetica,sans-Serif" font-size="10.00">mutt_str_is_email_wsp</text>
</a>
</g>
</g>
<!-- Node1&#45;&gt;Node2 -->
<g id="edge1" class="edge"><title>Node1&#45;&gt;Node2</title>
<path fill="none" stroke="midnightblue" d="M56.8702,-114.734C70.4762,-130.918 100.025,-163.322 132,-181 136.132,-183.285 140.558,-185.309 145.099,-187.102"/>
<polygon fill="midnightblue" stroke="midnightblue" points="143.93,-190.401 154.525,-190.462 146.281,-183.807 143.93,-190.401"/>
</g>
<!-- Node3 -->
<g id="node3" class="node"><title>Node3</title>
<g id="a_node3"><a xlink:href="parameter_8c.html#a1803c58ed69023209843708d6502eab2" target="_top" xlink:title="Create a new Parameter. ">
<polygon fill="white" stroke="red" points="156,-152.5 156,-171.5 248,-171.5 248,-152.5 156,-152.5"/>
<text text-anchor="middle" x="202" y="-159.5" font-family="Helvetica,sans-Serif" font-size="10.00">mutt_param_new</text>
</a>
</g>
</g>
<!-- Node1&#45;&gt;Node3 -->
<g id="edge2" class="edge"><title>Node1&#45;&gt;Node3</title>
<path fill="none" stroke="midnightblue" d="M67.7571,-114.64C84.3469,-122.91 109.363,-134.762 132,-143 138.433,-145.341 145.292,-147.554 152.097,-149.587"/>
<polygon fill="midnightblue" stroke="midnightblue" points="151.394,-153.026 161.972,-152.428 153.33,-146.299 151.394,-153.026"/>
</g>
<!-- Node4 -->
<g id="node4" class="node"><title>Node4</title>
<g id="a_node4"><a xlink:href="mutt_2string_8c.html#a97a08d325db953698595ab3097eb14ea" target="_top" xlink:title="Duplicate a sub&#45;string. ">
<polygon fill="white" stroke="red" points="149,-114.5 149,-133.5 255,-133.5 255,-114.5 149,-114.5"/>
<text text-anchor="middle" x="202" y="-121.5" font-family="Helvetica,sans-Serif" font-size="10.00">mutt_str_substr_dup</text>
</a>
</g>
</g>
<!-- Node1&#45;&gt;Node4 -->
<g id="edge3" class="edge"><title>Node1&#45;&gt;Node4</title>
<path fill="none" stroke="midnightblue" d="M95.8453,-110.856C109.322,-112.54 124.241,-114.405 138.504,-116.188"/>
<polygon fill="midnightblue" stroke="midnightblue" points="138.386,-119.7 148.743,-117.468 139.255,-112.755 138.386,-119.7"/>
</g>
<!-- Node5 -->
<g id="node5" class="node"><title>Node5</title>
<g id="a_node5"><a xlink:href="mutt_2string_8c.html#aa5fb929533630a48c6d2e893267ce208" target="_top" xlink:title="Skip over whitespace as defined by RFC5322. ">
<polygon fill="white" stroke="black" points="138,-76.5 138,-95.5 266,-95.5 266,-76.5 138,-76.5"/>
<text text-anchor="middle" x="202" y="-83.5" font-family="Helvetica,sans-Serif" font-size="10.00">mutt_str_skip_email_wsp</text>
</a>
</g>
</g>
<!-- Node1&#45;&gt;Node5 -->
<g id="edge4" class="edge"><title>Node1&#45;&gt;Node5</title>
<path fill="none" stroke="midnightblue" d="M95.8453,-99.1443C105.997,-97.8754 116.966,-96.5043 127.857,-95.1429"/>
<polygon fill="midnightblue" stroke="midnightblue" points="128.322,-98.6121 137.811,-93.8987 127.454,-91.6661 128.322,-98.6121"/>
</g>
<!-- Node6 -->
<g id="node6" class="node"><title>Node6</title>
<g id="a_node6"><a xlink:href="mutt_2string_8c.html#ae48085384a6545e0fac589a88243ea31" target="_top" xlink:title="Copy a string, safely. ">
<polygon fill="white" stroke="red" points="159.5,-38.5 159.5,-57.5 244.5,-57.5 244.5,-38.5 159.5,-38.5"/>
<text text-anchor="middle" x="202" y="-45.5" font-family="Helvetica,sans-Serif" font-size="10.00">mutt_str_strdup</text>
</a>
</g>
</g>
<!-- Node1&#45;&gt;Node6 -->
<g id="edge5" class="edge"><title>Node1&#45;&gt;Node6</title>
<path fill="none" stroke="midnightblue" d="M67.7571,-95.3599C84.3469,-87.0899 109.363,-75.2381 132,-67 138.433,-64.659 145.292,-62.4456 152.097,-60.4133"/>
<polygon fill="midnightblue" stroke="midnightblue" points="153.33,-63.7007 161.972,-57.5717 151.394,-56.9737 153.33,-63.7007"/>
</g>
<!-- Node7 -->
<g id="node7" class="node"><title>Node7</title>
<g id="a_node7"><a xlink:href="rfc2231_8c.html#a7ab08bae79dcf296a21998d44cbfefb8" target="_top" xlink:title="Decode a Parameter list. ">
<polygon fill="white" stroke="red" points="132,-0.5 132,-19.5 272,-19.5 272,-0.5 132,-0.5"/>
<text text-anchor="middle" x="202" y="-7.5" font-family="Helvetica,sans-Serif" font-size="10.00">rfc2231_decode_parameters</text>
</a>
</g>
</g>
<!-- Node1&#45;&gt;Node7 -->
<g id="edge6" class="edge"><title>Node1&#45;&gt;Node7</title>
<path fill="none" stroke="midnightblue" d="M56.8702,-95.2655C70.4762,-79.082 100.025,-46.6781 132,-29 136.132,-26.7155 140.558,-24.6905 145.099,-22.8985"/>
<polygon fill="midnightblue" stroke="midnightblue" points="146.281,-26.1929 154.525,-19.5384 143.93,-19.5993 146.281,-26.1929"/>
</g>
</g>
</svg>
