<?xml version="1.0" encoding="UTF-8" standalone="no"?>
<!DOCTYPE svg PUBLIC "-//W3C//DTD SVG 1.1//EN"
 "http://www.w3.org/Graphics/SVG/1.1/DTD/svg11.dtd">
<!-- Generated by graphviz version 2.36.0 (20140111.2315)
 -->
<!-- Title: mutt_rfc822_parse_message Pages: 1 -->
<svg width="304pt" height="104pt"
 viewBox="0.00 0.00 304.00 104.00" xmlns="http://www.w3.org/2000/svg" xmlns:xlink="http://www.w3.org/1999/xlink">
<g id="graph0" class="graph" transform="scale(1 1) rotate(0) translate(4 100)">
<title>mutt_rfc822_parse_message</title>
<polygon fill="white" stroke="none" points="-4,4 -4,-100 300,-100 300,4 -4,4"/>
<!-- Node1 -->
<g id="node1" class="node"><title>Node1</title>
<polygon fill="#bfbfbf" stroke="black" points="0.5,-38.5 0.5,-57.5 143.5,-57.5 143.5,-38.5 0.5,-38.5"/>
<text text-anchor="middle" x="72" y="-45.5" font-family="Helvetica,sans-Serif" font-size="10.00">mutt_rfc822_parse_message</text>
</g>
<!-- Node2 -->
<g id="node2" class="node"><title>Node2</title>
<g id="a_node2"><a xlink:href="parse_8h.html#a0b38ac4f44b3414d0e18d26324861369" target="_top" xlink:title="Parse a MIME part. ">
<polygon fill="white" stroke="red" points="194.5,-76.5 194.5,-95.5 281.5,-95.5 281.5,-76.5 194.5,-76.5"/>
<text text-anchor="middle" x="238" y="-83.5" font-family="Helvetica,sans-Serif" font-size="10.00">mutt_parse_part</text>
</a>
</g>
</g>
<!-- Node1&#45;&gt;Node2 -->
<g id="edge1" class="edge"><title>Node1&#45;&gt;Node2</title>
<path fill="none" stroke="midnightblue" d="M124.341,-59.8961C147.393,-65.2374 174.221,-71.4537 195.913,-76.4799"/>
<polygon fill="midnightblue" stroke="midnightblue" points="124.916,-56.4367 114.384,-57.589 123.336,-63.256 124.916,-56.4367"/>
</g>
<!-- Node3 -->
<g id="node3" class="node"><title>Node3</title>
<g id="a_node3"><a xlink:href="handler_8c.html#a0ab5b59c22636dd3d02267af588d4ace" target="_top" xlink:title="Handler for message/rfc822 body parts &#45; Implements handler_t. ">
<polygon fill="white" stroke="red" points="191.5,-38.5 191.5,-57.5 284.5,-57.5 284.5,-38.5 191.5,-38.5"/>
<text text-anchor="middle" x="238" y="-45.5" font-family="Helvetica,sans-Serif" font-size="10.00">message_handler</text>
</a>
</g>
</g>
<!-- Node1&#45;&gt;Node3 -->
<g id="edge2" class="edge"><title>Node1&#45;&gt;Node3</title>
<path fill="none" stroke="midnightblue" d="M153.778,-48C166.631,-48 179.524,-48 191.194,-48"/>
<polygon fill="midnightblue" stroke="midnightblue" points="153.503,-44.5001 143.503,-48 153.502,-51.5001 153.503,-44.5001"/>
</g>
<!-- Node4 -->
<g id="node4" class="node"><title>Node4</title>
<g id="a_node4"><a xlink:href="sendlib_8h.html#af41734ef550be557043b573b7256ad9a" target="_top" xlink:title="Convert an email&#39;s MIME parts to 7&#45;bit. ">
<polygon fill="white" stroke="red" points="180,-0.5 180,-19.5 296,-19.5 296,-0.5 180,-0.5"/>
<text text-anchor="middle" x="238" y="-7.5" font-family="Helvetica,sans-Serif" font-size="10.00">mutt_message_to_7bit</text>
</a>
</g>
</g>
<!-- Node1&#45;&gt;Node4 -->
<g id="edge3" class="edge"><title>Node1&#45;&gt;Node4</title>
<path fill="none" stroke="midnightblue" d="M124.341,-36.1039C147.393,-30.7626 174.221,-24.5463 195.913,-19.5201"/>
<polygon fill="midnightblue" stroke="midnightblue" points="123.336,-32.744 114.384,-38.411 124.916,-39.5633 123.336,-32.744"/>
</g>
</g>
</svg>
