<?xml version="1.0" encoding="UTF-8" standalone="no"?>
<!DOCTYPE svg PUBLIC "-//W3C//DTD SVG 1.1//EN"
 "http://www.w3.org/Graphics/SVG/1.1/DTD/svg11.dtd">
<!-- Generated by graphviz version 2.36.0 (20140111.2315)
 -->
<!-- Title: match_user Pages: 1 -->
<svg width="210pt" height="28pt"
 viewBox="0.00 0.00 210.00 28.00" xmlns="http://www.w3.org/2000/svg" xmlns:xlink="http://www.w3.org/1999/xlink">
<g id="graph0" class="graph" transform="scale(1 1) rotate(0) translate(4 24)">
<title>match_user</title>
<polygon fill="white" stroke="none" points="-4,4 -4,-24 206,-24 206,4 -4,4"/>
<!-- Node1 -->
<g id="node1" class="node"><title>Node1</title>
<polygon fill="#bfbfbf" stroke="black" points="0,-0.5 0,-19.5 68,-19.5 68,-0.5 0,-0.5"/>
<text text-anchor="middle" x="34" y="-7.5" font-family="Helvetica,sans-Serif" font-size="10.00">match_user</text>
</g>
<!-- Node2 -->
<g id="node2" class="node"><title>Node2</title>
<g id="a_node2"><a xlink:href="pattern_8h.html#acaf69ac14a310b3f1dd1c3fb2e7036a7" target="_top" xlink:title="Match a pattern against an email header. ">
<polygon fill="white" stroke="red" points="104,-0.5 104,-19.5 202,-19.5 202,-0.5 104,-0.5"/>
<text text-anchor="middle" x="153" y="-7.5" font-family="Helvetica,sans-Serif" font-size="10.00">mutt_pattern_exec</text>
</a>
</g>
</g>
<!-- Node1&#45;&gt;Node2 -->
<g id="edge1" class="edge"><title>Node1&#45;&gt;Node2</title>
<path fill="none" stroke="midnightblue" d="M78.4238,-10C86.7098,-10 95.429,-10 103.852,-10"/>
<polygon fill="midnightblue" stroke="midnightblue" points="78.2146,-6.5001 68.2145,-10 78.2145,-13.5001 78.2146,-6.5001"/>
</g>
</g>
</svg>
