<?xml version="1.0" encoding="UTF-8" standalone="no"?>
<!DOCTYPE svg PUBLIC "-//W3C//DTD SVG 1.1//EN"
 "http://www.w3.org/Graphics/SVG/1.1/DTD/svg11.dtd">
<!-- Generated by graphviz version 2.36.0 (20140111.2315)
 -->
<!-- Title: match_content_type Pages: 1 -->
<svg width="208pt" height="28pt"
 viewBox="0.00 0.00 208.00 28.00" xmlns="http://www.w3.org/2000/svg" xmlns:xlink="http://www.w3.org/1999/xlink">
<g id="graph0" class="graph" transform="scale(1 1) rotate(0) translate(4 24)">
<title>match_content_type</title>
<polygon fill="white" stroke="none" points="-4,4 -4,-24 204,-24 204,4 -4,4"/>
<!-- Node1 -->
<g id="node1" class="node"><title>Node1</title>
<polygon fill="#bfbfbf" stroke="black" points="0.5,-0.5 0.5,-19.5 105.5,-19.5 105.5,-0.5 0.5,-0.5"/>
<text text-anchor="middle" x="53" y="-7.5" font-family="Helvetica,sans-Serif" font-size="10.00">match_content_type</text>
</g>
<!-- Node2 -->
<g id="node2" class="node"><title>Node2</title>
<g id="a_node2"><a xlink:href="pattern_8c.html#ad646b9eb0f5adb235f853f9cafa439ff" target="_top" xlink:title="Compare a string to a Pattern. ">
<polygon fill="white" stroke="red" points="142.5,-0.5 142.5,-19.5 199.5,-19.5 199.5,-0.5 142.5,-0.5"/>
<text text-anchor="middle" x="171" y="-7.5" font-family="Helvetica,sans-Serif" font-size="10.00">patmatch</text>
</a>
</g>
</g>
<!-- Node1&#45;&gt;Node2 -->
<g id="edge1" class="edge"><title>Node1&#45;&gt;Node2</title>
<path fill="none" stroke="midnightblue" d="M105.555,-10C114.589,-10 123.834,-10 132.399,-10"/>
<polygon fill="midnightblue" stroke="midnightblue" points="132.449,-13.5001 142.449,-10 132.449,-6.5001 132.449,-13.5001"/>
</g>
</g>
</svg>
