<?xml version="1.0" encoding="UTF-8" standalone="no"?>
<!DOCTYPE svg PUBLIC "-//W3C//DTD SVG 1.1//EN"
 "http://www.w3.org/Graphics/SVG/1.1/DTD/svg11.dtd">
<!-- Generated by graphviz version 2.36.0 (20140111.2315)
 -->
<!-- Title: mutt_pattern_exec Pages: 1 -->
<svg width="370pt" height="674pt"
 viewBox="0.00 0.00 370.00 674.00" xmlns="http://www.w3.org/2000/svg" xmlns:xlink="http://www.w3.org/1999/xlink">
<g id="graph0" class="graph" transform="scale(1 1) rotate(0) translate(4 670)">
<title>mutt_pattern_exec</title>
<polygon fill="white" stroke="none" points="-4,4 -4,-670 366,-670 366,4 -4,4"/>
<!-- Node1 -->
<g id="node1" class="node"><title>Node1</title>
<polygon fill="#bfbfbf" stroke="black" points="0,-418.5 0,-437.5 98,-437.5 98,-418.5 0,-418.5"/>
<text text-anchor="middle" x="49" y="-425.5" font-family="Helvetica,sans-Serif" font-size="10.00">mutt_pattern_exec</text>
</g>
<!-- Node2 -->
<g id="node2" class="node"><title>Node2</title>
<g id="a_node2"><a xlink:href="pattern_8c.html#abae6f30c0630101a5a5299b35b0bb53e" target="_top" xlink:title="Perform a logical AND on a set of Patterns. ">
<polygon fill="white" stroke="black" points="165.5,-646.5 165.5,-665.5 236.5,-665.5 236.5,-646.5 165.5,-646.5"/>
<text text-anchor="middle" x="201" y="-653.5" font-family="Helvetica,sans-Serif" font-size="10.00">perform_and</text>
</a>
</g>
</g>
<!-- Node1&#45;&gt;Node2 -->
<g id="edge1" class="edge"><title>Node1&#45;&gt;Node2</title>
<path fill="none" stroke="midnightblue" d="M51.451,-437.835C56.0798,-470.583 73.921,-573.749 134,-628 142.898,-636.035 154.988,-640.689 166.389,-643.924"/>
<polygon fill="midnightblue" stroke="midnightblue" points="165.576,-647.329 176.134,-646.451 167.333,-640.553 165.576,-647.329"/>
</g>
<!-- Node3 -->
<g id="node3" class="node"><title>Node3</title>
<g id="a_node3"><a xlink:href="pattern_8c.html#a18d51499d860d51597ad5de8819cbcad" target="_top" xlink:title="Perform a logical OR on a set of Patterns. ">
<polygon fill="white" stroke="black" points="169.5,-608.5 169.5,-627.5 232.5,-627.5 232.5,-608.5 169.5,-608.5"/>
<text text-anchor="middle" x="201" y="-615.5" font-family="Helvetica,sans-Serif" font-size="10.00">perform_or</text>
</a>
</g>
</g>
<!-- Node1&#45;&gt;Node3 -->
<g id="edge3" class="edge"><title>Node1&#45;&gt;Node3</title>
<path fill="none" stroke="midnightblue" d="M52.9082,-437.732C60.3168,-466.241 83.0334,-547.311 134,-590 143.474,-597.935 156.094,-602.559 167.76,-605.85"/>
<polygon fill="midnightblue" stroke="midnightblue" points="167.103,-609.296 177.664,-608.448 168.88,-602.525 167.103,-609.296"/>
</g>
<!-- Node4 -->
<g id="node4" class="node"><title>Node4</title>
<g id="a_node4"><a xlink:href="pattern_8c.html#acdbfa94631fa6213f81f295e291d918c" target="_top" xlink:title="Match a Pattern against an email thread. ">
<polygon fill="white" stroke="black" points="143,-570.5 143,-589.5 259,-589.5 259,-570.5 143,-570.5"/>
<text text-anchor="middle" x="201" y="-577.5" font-family="Helvetica,sans-Serif" font-size="10.00">match_threadcomplete</text>
</a>
</g>
</g>
<!-- Node1&#45;&gt;Node4 -->
<g id="edge5" class="edge"><title>Node1&#45;&gt;Node4</title>
<path fill="none" stroke="midnightblue" d="M55.262,-437.676C65.7821,-461.449 92.0641,-520.523 134,-552 144.43,-559.829 157.995,-564.436 170.113,-567.848"/>
<polygon fill="midnightblue" stroke="midnightblue" points="169.284,-571.249 179.851,-570.477 171.108,-564.491 169.284,-571.249"/>
</g>
<!-- Node5 -->
<g id="node5" class="node"><title>Node5</title>
<g id="a_node5"><a xlink:href="pattern_8c.html#a0fb227a5dd0dd13c27cc114fcdffa092" target="_top" xlink:title="Match Pattern against an email&#39;s parent. ">
<polygon fill="white" stroke="black" points="149.5,-532.5 149.5,-551.5 252.5,-551.5 252.5,-532.5 149.5,-532.5"/>
<text text-anchor="middle" x="201" y="-539.5" font-family="Helvetica,sans-Serif" font-size="10.00">match_threadparent</text>
</a>
</g>
</g>
<!-- Node1&#45;&gt;Node5 -->
<g id="edge7" class="edge"><title>Node1&#45;&gt;Node5</title>
<path fill="none" stroke="midnightblue" d="M59.6496,-437.585C73.5128,-455.739 101.058,-493.184 134,-514 145.655,-521.365 160.246,-525.953 172.742,-529.599"/>
<polygon fill="midnightblue" stroke="midnightblue" points="172.057,-533.045 182.637,-532.481 174.015,-526.324 172.057,-533.045"/>
</g>
<!-- Node6 -->
<g id="node6" class="node"><title>Node6</title>
<g id="a_node6"><a xlink:href="pattern_8c.html#aec0c8746e28077ace8fadf84867a0312" target="_top" xlink:title="Match Pattern against an email&#39;s children. ">
<polygon fill="white" stroke="black" points="146,-494.5 146,-513.5 256,-513.5 256,-494.5 146,-494.5"/>
<text text-anchor="middle" x="201" y="-501.5" font-family="Helvetica,sans-Serif" font-size="10.00">match_threadchildren</text>
</a>
</g>
</g>
<!-- Node1&#45;&gt;Node6 -->
<g id="edge9" class="edge"><title>Node1&#45;&gt;Node6</title>
<path fill="none" stroke="midnightblue" d="M70.9705,-437.602C87.3144,-448.542 111.02,-465.231 134,-476 147.461,-482.308 163.464,-486.978 176.341,-491.149"/>
<polygon fill="midnightblue" stroke="midnightblue" points="175.294,-494.491 185.889,-494.409 177.556,-487.866 175.294,-494.491"/>
</g>
<!-- Node7 -->
<g id="node7" class="node"><title>Node7</title>
<g id="a_node7"><a xlink:href="pattern_8c.html#a945a2a83eee776e1b5dd8bb58f8b3b3e" target="_top" xlink:title="Search an email. ">
<polygon fill="white" stroke="red" points="166,-456.5 166,-475.5 236,-475.5 236,-456.5 166,-456.5"/>
<text text-anchor="middle" x="201" y="-463.5" font-family="Helvetica,sans-Serif" font-size="10.00">msg_search</text>
</a>
</g>
</g>
<!-- Node1&#45;&gt;Node7 -->
<g id="edge11" class="edge"><title>Node1&#45;&gt;Node7</title>
<path fill="none" stroke="midnightblue" d="M87.8513,-437.589C108.53,-442.828 134.25,-449.343 155.841,-454.813"/>
<polygon fill="midnightblue" stroke="midnightblue" points="155.198,-458.261 165.752,-457.324 156.917,-451.475 155.198,-458.261"/>
</g>
<!-- Node8 -->
<g id="node8" class="node"><title>Node8</title>
<g id="a_node8"><a xlink:href="pattern_8c.html#ad646b9eb0f5adb235f853f9cafa439ff" target="_top" xlink:title="Compare a string to a Pattern. ">
<polygon fill="white" stroke="red" points="304.5,-399.5 304.5,-418.5 361.5,-418.5 361.5,-399.5 304.5,-399.5"/>
<text text-anchor="middle" x="333" y="-406.5" font-family="Helvetica,sans-Serif" font-size="10.00">patmatch</text>
</a>
</g>
</g>
<!-- Node1&#45;&gt;Node8 -->
<g id="edge15" class="edge"><title>Node1&#45;&gt;Node8</title>
<path fill="none" stroke="midnightblue" d="M98.1571,-424.755C153.525,-421.025 243.275,-414.978 293.971,-411.562"/>
<polygon fill="midnightblue" stroke="midnightblue" points="294.428,-415.039 304.17,-410.875 293.958,-408.055 294.428,-415.039"/>
</g>
<!-- Node9 -->
<g id="node9" class="node"><title>Node9</title>
<g id="a_node9"><a xlink:href="pattern_8c.html#a79b186a41db70f60a9d7b5b5e7d0c906" target="_top" xlink:title="Match a Pattern against and Address list. ">
<polygon fill="white" stroke="red" points="161,-380.5 161,-399.5 241,-399.5 241,-380.5 161,-380.5"/>
<text text-anchor="middle" x="201" y="-387.5" font-family="Helvetica,sans-Serif" font-size="10.00">match_addrlist</text>
</a>
</g>
</g>
<!-- Node1&#45;&gt;Node9 -->
<g id="edge13" class="edge"><title>Node1&#45;&gt;Node9</title>
<path fill="none" stroke="midnightblue" d="M87.8513,-418.411C107.467,-413.442 131.619,-407.323 152.479,-402.039"/>
<polygon fill="midnightblue" stroke="midnightblue" points="153.587,-405.369 162.421,-399.52 151.868,-398.583 153.587,-405.369"/>
</g>
<!-- Node10 -->
<g id="node10" class="node"><title>Node10</title>
<g id="a_node10"><a xlink:href="pattern_8c.html#a74f564fa761dade9b0750ca5f1044fc1" target="_top" xlink:title="Match references against a Pattern. ">
<polygon fill="white" stroke="black" points="156.5,-342.5 156.5,-361.5 245.5,-361.5 245.5,-342.5 156.5,-342.5"/>
<text text-anchor="middle" x="201" y="-349.5" font-family="Helvetica,sans-Serif" font-size="10.00">match_reference</text>
</a>
</g>
</g>
<!-- Node1&#45;&gt;Node10 -->
<g id="edge16" class="edge"><title>Node1&#45;&gt;Node10</title>
<path fill="none" stroke="midnightblue" d="M61.5192,-418.423C77.0741,-405.918 106.073,-384.088 134,-371 138.926,-368.691 144.193,-366.602 149.522,-364.728"/>
<polygon fill="midnightblue" stroke="midnightblue" points="150.708,-368.022 159.122,-361.584 148.529,-361.37 150.708,-368.022"/>
</g>
<!-- Node11 -->
<g id="node11" class="node"><title>Node11</title>
<g id="a_node11"><a xlink:href="pattern_8c.html#a87fc380b9026d97286e330b169ce16f4" target="_top" xlink:title="Is a given Pattern cached? ">
<polygon fill="white" stroke="black" points="146,-304.5 146,-323.5 256,-323.5 256,-304.5 146,-304.5"/>
<text text-anchor="middle" x="201" y="-311.5" font-family="Helvetica,sans-Serif" font-size="10.00">is_pattern_cache_set</text>
</a>
</g>
</g>
<!-- Node1&#45;&gt;Node11 -->
<g id="edge18" class="edge"><title>Node1&#45;&gt;Node11</title>
<path fill="none" stroke="midnightblue" d="M55.8533,-418.295C67.9663,-399.049 97.7076,-355.933 134,-333 137.363,-330.875 140.97,-328.982 144.7,-327.295"/>
<polygon fill="midnightblue" stroke="midnightblue" points="146.172,-330.476 154.159,-323.515 143.574,-323.976 146.172,-330.476"/>
</g>
<!-- Node12 -->
<g id="node12" class="node"><title>Node12</title>
<g id="a_node12"><a xlink:href="pattern_8c.html#ae81ed1b46154407e468a567e0c19072c" target="_top" xlink:title="Sets a value in the PatternCache cache entry. ">
<polygon fill="white" stroke="black" points="138.5,-266.5 138.5,-285.5 263.5,-285.5 263.5,-266.5 138.5,-266.5"/>
<text text-anchor="middle" x="201" y="-273.5" font-family="Helvetica,sans-Serif" font-size="10.00">set_pattern_cache_value</text>
</a>
</g>
</g>
<!-- Node1&#45;&gt;Node12 -->
<g id="edge19" class="edge"><title>Node1&#45;&gt;Node12</title>
<path fill="none" stroke="midnightblue" d="M53.342,-418.269C62.2948,-393.677 89.2247,-328.609 134,-295 136.494,-293.128 139.168,-291.44 141.958,-289.918"/>
<polygon fill="midnightblue" stroke="midnightblue" points="143.614,-293.007 151.19,-285.601 140.649,-286.667 143.614,-293.007"/>
</g>
<!-- Node13 -->
<g id="node13" class="node"><title>Node13</title>
<g id="a_node13"><a xlink:href="pattern_8c.html#abef73fd2aaec68c6f537178fd9c58be3" target="_top" xlink:title="Matches known mailing lists. ">
<polygon fill="white" stroke="red" points="159.5,-228.5 159.5,-247.5 242.5,-247.5 242.5,-228.5 159.5,-228.5"/>
<text text-anchor="middle" x="201" y="-235.5" font-family="Helvetica,sans-Serif" font-size="10.00">mutt_is_list_cc</text>
</a>
</g>
</g>
<!-- Node1&#45;&gt;Node13 -->
<g id="edge20" class="edge"><title>Node1&#45;&gt;Node13</title>
<path fill="none" stroke="midnightblue" d="M51.9146,-418.16C58.1263,-388.921 80.4977,-301.813 134,-257 138.626,-253.125 144.003,-250.04 149.652,-247.583"/>
<polygon fill="midnightblue" stroke="midnightblue" points="151.161,-250.757 159.333,-244.014 148.739,-244.19 151.161,-250.757"/>
</g>
<!-- Node14 -->
<g id="node14" class="node"><title>Node14</title>
<g id="a_node14"><a xlink:href="pattern_8c.html#a09126c13e8b0726f36f194cd5ffe6ff2" target="_top" xlink:title="Get pattern cache value. ">
<polygon fill="white" stroke="black" points="138.5,-190.5 138.5,-209.5 263.5,-209.5 263.5,-190.5 138.5,-190.5"/>
<text text-anchor="middle" x="201" y="-197.5" font-family="Helvetica,sans-Serif" font-size="10.00">get_pattern_cache_value</text>
</a>
</g>
</g>
<!-- Node1&#45;&gt;Node14 -->
<g id="edge21" class="edge"><title>Node1&#45;&gt;Node14</title>
<path fill="none" stroke="midnightblue" d="M50.9198,-418.433C54.6082,-385.481 71.3088,-275.61 134,-219 135.726,-217.442 137.571,-216.011 139.509,-214.696"/>
<polygon fill="midnightblue" stroke="midnightblue" points="141.495,-217.595 148.503,-209.65 138.07,-211.491 141.495,-217.595"/>
</g>
<!-- Node15 -->
<g id="node15" class="node"><title>Node15</title>
<g id="a_node15"><a xlink:href="pattern_8c.html#ae89e335995c5281b880614b2ab37b373" target="_top" xlink:title="Matches subscribed mailing lists. ">
<polygon fill="white" stroke="red" points="146.5,-152.5 146.5,-171.5 255.5,-171.5 255.5,-152.5 146.5,-152.5"/>
<text text-anchor="middle" x="201" y="-159.5" font-family="Helvetica,sans-Serif" font-size="10.00">mutt_is_list_recipient</text>
</a>
</g>
</g>
<!-- Node1&#45;&gt;Node15 -->
<g id="edge22" class="edge"><title>Node1&#45;&gt;Node15</title>
<path fill="none" stroke="midnightblue" d="M50.2582,-418.302C51.7757,-381.549 62.2133,-249.455 134,-181 135.648,-179.429 137.417,-177.986 139.28,-176.662"/>
<polygon fill="midnightblue" stroke="midnightblue" points="141.102,-179.651 147.967,-171.581 137.568,-173.609 141.102,-179.651"/>
</g>
<!-- Node16 -->
<g id="node16" class="node"><title>Node16</title>
<g id="a_node16"><a xlink:href="pattern_8c.html#ad0039e6f10cbe244766e7963b5315d84" target="_top" xlink:title="Matches the user&#39;s email Address. ">
<polygon fill="white" stroke="red" points="167,-114.5 167,-133.5 235,-133.5 235,-114.5 167,-114.5"/>
<text text-anchor="middle" x="201" y="-121.5" font-family="Helvetica,sans-Serif" font-size="10.00">match_user</text>
</a>
</g>
</g>
<!-- Node1&#45;&gt;Node16 -->
<g id="edge23" class="edge"><title>Node1&#45;&gt;Node16</title>
<path fill="none" stroke="midnightblue" d="M49.7497,-418.255C49.2703,-378.067 52.9528,-223.537 134,-143 140.33,-136.71 148.599,-132.474 157.132,-129.629"/>
<polygon fill="midnightblue" stroke="midnightblue" points="158.077,-132.999 166.79,-126.971 156.22,-126.25 158.077,-132.999"/>
</g>
<!-- Node17 -->
<g id="node17" class="node"><title>Node17</title>
<g id="a_node17"><a xlink:href="tags_8c.html#ace0ffc57812ab1fd3ba00a2cc780653b" target="_top" xlink:title="Get tags. ">
<polygon fill="white" stroke="red" points="159.5,-76.5 159.5,-95.5 242.5,-95.5 242.5,-76.5 159.5,-76.5"/>
<text text-anchor="middle" x="201" y="-83.5" font-family="Helvetica,sans-Serif" font-size="10.00">driver_tags_get</text>
</a>
</g>
</g>
<!-- Node1&#45;&gt;Node17 -->
<g id="edge24" class="edge"><title>Node1&#45;&gt;Node17</title>
<path fill="none" stroke="midnightblue" d="M51.2227,-418.317C57.5549,-369.636 88.1035,-152.1 134,-105 138.478,-100.405 143.99,-96.9016 149.903,-94.2348"/>
<polygon fill="midnightblue" stroke="midnightblue" points="151.278,-97.4578 159.434,-90.6956 148.841,-90.8956 151.278,-97.4578"/>
</g>
<!-- Node18 -->
<g id="node18" class="node"><title>Node18</title>
<g id="a_node18"><a xlink:href="mutt__parse_8c.html#aed1933b14dff2f1109283eec27be5810" target="_top" xlink:title="Count the MIME Body parts. ">
<polygon fill="white" stroke="red" points="141.5,-38.5 141.5,-57.5 260.5,-57.5 260.5,-38.5 141.5,-38.5"/>
<text text-anchor="middle" x="201" y="-45.5" font-family="Helvetica,sans-Serif" font-size="10.00">mutt_count_body_parts</text>
</a>
</g>
</g>
<!-- Node1&#45;&gt;Node18 -->
<g id="edge25" class="edge"><title>Node1&#45;&gt;Node18</title>
<path fill="none" stroke="midnightblue" d="M50.9472,-418.243C56.2013,-366.061 83.3758,-120.311 134,-67 135.386,-65.5409 136.875,-64.1917 138.449,-62.944"/>
<polygon fill="midnightblue" stroke="midnightblue" points="140.395,-65.8542 146.931,-57.5155 136.622,-59.9583 140.395,-65.8542"/>
</g>
<!-- Node19 -->
<g id="node19" class="node"><title>Node19</title>
<g id="a_node19"><a xlink:href="pattern_8c.html#ada8b5a1ace223046a0a8923560aff33c" target="_top" xlink:title="Match a Pattern against an email&#39;s Content&#45;Type. ">
<polygon fill="white" stroke="red" points="134,-0.5 134,-19.5 268,-19.5 268,-0.5 134,-0.5"/>
<text text-anchor="middle" x="201" y="-7.5" font-family="Helvetica,sans-Serif" font-size="10.00">match_mime_content_type</text>
</a>
</g>
</g>
<!-- Node1&#45;&gt;Node19 -->
<g id="edge26" class="edge"><title>Node1&#45;&gt;Node19</title>
<path fill="none" stroke="midnightblue" d="M50.7081,-418.334C54.9367,-363.179 78.5692,-88.6207 134,-29 135.228,-27.6792 136.541,-26.4481 137.925,-25.3008"/>
<polygon fill="midnightblue" stroke="midnightblue" points="140.123,-28.0434 146.528,-19.604 136.258,-22.207 140.123,-28.0434"/>
</g>
<!-- Node2&#45;&gt;Node1 -->
<g id="edge2" class="edge"><title>Node2&#45;&gt;Node1</title>
<path fill="none" stroke="midnightblue" d="M165.18,-660.597C154.139,-658.357 142.584,-653.751 134,-646 74.5865,-592.35 56.4802,-490.862 51.6098,-447.746"/>
<polygon fill="midnightblue" stroke="midnightblue" points="55.079,-447.263 50.6011,-437.661 48.1138,-447.96 55.079,-447.263"/>
</g>
<!-- Node3&#45;&gt;Node1 -->
<g id="edge4" class="edge"><title>Node3&#45;&gt;Node1</title>
<path fill="none" stroke="midnightblue" d="M169.227,-622.907C157.161,-620.942 143.872,-616.269 134,-608 83.4454,-565.656 60.6859,-485.549 53.0909,-447.931"/>
<polygon fill="midnightblue" stroke="midnightblue" points="56.4616,-446.909 51.2067,-437.71 49.5776,-448.179 56.4616,-446.909"/>
</g>
<!-- Node4&#45;&gt;Node1 -->
<g id="edge6" class="edge"><title>Node4&#45;&gt;Node1</title>
<path fill="none" stroke="midnightblue" d="M142.872,-575.56C139.751,-573.925 136.765,-572.076 134,-570 91.7979,-538.323 65.449,-478.698 55.0636,-447.488"/>
<polygon fill="midnightblue" stroke="midnightblue" points="58.3454,-446.253 52.0561,-437.727 51.6557,-448.314 58.3454,-446.253"/>
</g>
<!-- Node5&#45;&gt;Node1 -->
<g id="edge8" class="edge"><title>Node5&#45;&gt;Node1</title>
<path fill="none" stroke="midnightblue" d="M149.33,-539.616C143.96,-537.528 138.738,-534.994 134,-532 99.8014,-510.39 71.4198,-470.858 58.1237,-446.938"/>
<polygon fill="midnightblue" stroke="midnightblue" points="61.0728,-445.02 53.376,-437.739 54.8525,-448.231 61.0728,-445.02"/>
</g>
<!-- Node6&#45;&gt;Node1 -->
<g id="edge10" class="edge"><title>Node6&#45;&gt;Node1</title>
<path fill="none" stroke="midnightblue" d="M145.812,-498.905C141.758,-497.413 137.779,-495.771 134,-494 106.821,-481.263 78.6269,-460.245 62.7978,-444.952"/>
<polygon fill="midnightblue" stroke="midnightblue" points="65.1598,-442.358 55.7183,-437.551 60.1013,-447.196 65.1598,-442.358"/>
</g>
<!-- Node7&#45;&gt;Node8 -->
<g id="edge12" class="edge"><title>Node7&#45;&gt;Node8</title>
<path fill="none" stroke="midnightblue" d="M230.902,-456.388C242.557,-452.28 256.048,-447.229 268,-442 280.706,-436.441 294.418,-429.503 305.879,-423.425"/>
<polygon fill="midnightblue" stroke="midnightblue" points="307.755,-426.39 314.904,-418.571 304.439,-420.225 307.755,-426.39"/>
</g>
<!-- Node9&#45;&gt;Node8 -->
<g id="edge14" class="edge"><title>Node9&#45;&gt;Node8</title>
<path fill="none" stroke="midnightblue" d="M241.004,-395.701C257.851,-398.163 277.486,-401.033 294.196,-403.475"/>
<polygon fill="midnightblue" stroke="midnightblue" points="293.771,-406.95 304.172,-404.933 294.783,-400.023 293.771,-406.95"/>
</g>
<!-- Node10&#45;&gt;Node8 -->
<g id="edge17" class="edge"><title>Node10&#45;&gt;Node8</title>
<path fill="none" stroke="midnightblue" d="M241.318,-361.534C250.244,-364.186 259.573,-367.357 268,-371 282.556,-377.293 297.863,-386.285 309.857,-393.942"/>
<polygon fill="midnightblue" stroke="midnightblue" points="308.03,-396.929 318.315,-399.47 311.86,-391.069 308.03,-396.929"/>
</g>
</g>
</svg>
