<?xml version="1.0" encoding="UTF-8" standalone="no"?>
<!DOCTYPE svg PUBLIC "-//W3C//DTD SVG 1.1//EN"
 "http://www.w3.org/Graphics/SVG/1.1/DTD/svg11.dtd">
<!-- Generated by graphviz version 2.36.0 (20140111.2315)
 -->
<!-- Title: pattern.h Pages: 1 -->
<svg width="679pt" height="84pt"
 viewBox="0.00 0.00 679.00 84.00" xmlns="http://www.w3.org/2000/svg" xmlns:xlink="http://www.w3.org/1999/xlink">
<g id="graph0" class="graph" transform="scale(1 1) rotate(0) translate(4 80)">
<title>pattern.h</title>
<polygon fill="white" stroke="none" points="-4,4 -4,-80 675,-80 675,4 -4,4"/>
<!-- Node1 -->
<g id="node1" class="node"><title>Node1</title>
<polygon fill="#bfbfbf" stroke="black" points="326.5,-56.5 326.5,-75.5 381.5,-75.5 381.5,-56.5 326.5,-56.5"/>
<text text-anchor="middle" x="354" y="-63.5" font-family="Helvetica,sans-Serif" font-size="10.00">pattern.h</text>
</g>
<!-- Node2 -->
<g id="node2" class="node"><title>Node2</title>
<g id="a_node2"><a xlink:href="color_8c.html" target="_top" xlink:title="Color and attribute parsing. ">
<polygon fill="white" stroke="black" points="0,-0.5 0,-19.5 46,-19.5 46,-0.5 0,-0.5"/>
<text text-anchor="middle" x="23" y="-7.5" font-family="Helvetica,sans-Serif" font-size="10.00">color.c</text>
</a>
</g>
</g>
<!-- Node1&#45;&gt;Node2 -->
<g id="edge1" class="edge"><title>Node1&#45;&gt;Node2</title>
<path fill="none" stroke="midnightblue" d="M316.174,-60.8427C259.168,-54.232 148.005,-39.9959 55,-20 52.1789,-19.3935 49.2391,-18.6805 46.3346,-17.9259"/>
<polygon fill="midnightblue" stroke="midnightblue" points="315.839,-64.327 326.172,-61.988 316.635,-57.3725 315.839,-64.327"/>
</g>
<!-- Node3 -->
<g id="node3" class="node"><title>Node3</title>
<g id="a_node3"><a xlink:href="curs__main_8c.html" target="_top" xlink:title="GUI manage the main index (list of emails) ">
<polygon fill="white" stroke="black" points="64,-0.5 64,-19.5 134,-19.5 134,-0.5 64,-0.5"/>
<text text-anchor="middle" x="99" y="-7.5" font-family="Helvetica,sans-Serif" font-size="10.00">curs_main.c</text>
</a>
</g>
</g>
<!-- Node1&#45;&gt;Node3 -->
<g id="edge2" class="edge"><title>Node1&#45;&gt;Node3</title>
<path fill="none" stroke="midnightblue" d="M316.314,-57.0194C267.171,-46.6126 181.857,-28.5461 134.049,-18.4222"/>
<polygon fill="midnightblue" stroke="midnightblue" points="315.717,-60.4705 326.225,-59.1183 317.167,-53.6224 315.717,-60.4705"/>
</g>
<!-- Node4 -->
<g id="node4" class="node"><title>Node4</title>
<g id="a_node4"><a xlink:href="hook_8c.html" target="_top" xlink:title="Parse and execute user&#45;defined hooks. ">
<polygon fill="white" stroke="black" points="152,-0.5 152,-19.5 198,-19.5 198,-0.5 152,-0.5"/>
<text text-anchor="middle" x="175" y="-7.5" font-family="Helvetica,sans-Serif" font-size="10.00">hook.c</text>
</a>
</g>
</g>
<!-- Node1&#45;&gt;Node4 -->
<g id="edge3" class="edge"><title>Node1&#45;&gt;Node4</title>
<path fill="none" stroke="midnightblue" d="M316.825,-53.7851C281.059,-42.9953 228.11,-27.022 198.053,-17.9544"/>
<polygon fill="midnightblue" stroke="midnightblue" points="315.839,-57.1434 326.424,-56.6808 317.861,-50.4417 315.839,-57.1434"/>
</g>
<!-- Node5 -->
<g id="node5" class="node"><title>Node5</title>
<g id="a_node5"><a xlink:href="imap_8c.html" target="_top" xlink:title="IMAP network mailbox. ">
<polygon fill="white" stroke="black" points="216,-0.5 216,-19.5 286,-19.5 286,-0.5 216,-0.5"/>
<text text-anchor="middle" x="251" y="-7.5" font-family="Helvetica,sans-Serif" font-size="10.00">imap/imap.c</text>
</a>
</g>
</g>
<!-- Node1&#45;&gt;Node5 -->
<g id="edge4" class="edge"><title>Node1&#45;&gt;Node5</title>
<path fill="none" stroke="midnightblue" d="M328.421,-51.5895C309.377,-41.6052 283.936,-28.2672 267.508,-19.6545"/>
<polygon fill="midnightblue" stroke="midnightblue" points="326.969,-54.7805 337.451,-56.324 330.22,-48.5808 326.969,-54.7805"/>
</g>
<!-- Node6 -->
<g id="node6" class="node"><title>Node6</title>
<g id="a_node6"><a xlink:href="init_8h.html" target="_top" xlink:title="Definitions of user variables, sort methods and commands. ">
<polygon fill="white" stroke="red" points="304,-0.5 304,-19.5 342,-19.5 342,-0.5 304,-0.5"/>
<text text-anchor="middle" x="323" y="-7.5" font-family="Helvetica,sans-Serif" font-size="10.00">init.h</text>
</a>
</g>
</g>
<!-- Node1&#45;&gt;Node6 -->
<g id="edge5" class="edge"><title>Node1&#45;&gt;Node6</title>
<path fill="none" stroke="midnightblue" d="M343.824,-47.2747C338.526,-38.0454 332.283,-27.1703 328.024,-19.7511"/>
<polygon fill="midnightblue" stroke="midnightblue" points="340.867,-49.153 348.881,-56.083 346.938,-45.6679 340.867,-49.153"/>
</g>
<!-- Node7 -->
<g id="node7" class="node"><title>Node7</title>
<g id="a_node7"><a xlink:href="menu_8c.html" target="_top" xlink:title="GUI present the user with a selectable list. ">
<polygon fill="white" stroke="black" points="360.5,-0.5 360.5,-19.5 409.5,-19.5 409.5,-0.5 360.5,-0.5"/>
<text text-anchor="middle" x="385" y="-7.5" font-family="Helvetica,sans-Serif" font-size="10.00">menu.c</text>
</a>
</g>
</g>
<!-- Node1&#45;&gt;Node7 -->
<g id="edge6" class="edge"><title>Node1&#45;&gt;Node7</title>
<path fill="none" stroke="midnightblue" d="M364.176,-47.2747C369.474,-38.0454 375.717,-27.1703 379.976,-19.7511"/>
<polygon fill="midnightblue" stroke="midnightblue" points="361.062,-45.6679 359.119,-56.083 367.133,-49.153 361.062,-45.6679"/>
</g>
<!-- Node8 -->
<g id="node8" class="node"><title>Node8</title>
<g id="a_node8"><a xlink:href="mx_8c.html" target="_top" xlink:title="Mailbox multiplexor. ">
<polygon fill="white" stroke="black" points="428,-0.5 428,-19.5 466,-19.5 466,-0.5 428,-0.5"/>
<text text-anchor="middle" x="447" y="-7.5" font-family="Helvetica,sans-Serif" font-size="10.00">mx.c</text>
</a>
</g>
</g>
<!-- Node1&#45;&gt;Node8 -->
<g id="edge7" class="edge"><title>Node1&#45;&gt;Node8</title>
<path fill="none" stroke="midnightblue" d="M377.806,-51.1774C394.919,-41.2407 417.465,-28.1492 432.095,-19.6545"/>
<polygon fill="midnightblue" stroke="midnightblue" points="375.832,-48.2758 368.942,-56.324 379.347,-54.3293 375.832,-48.2758"/>
</g>
<!-- Node9 -->
<g id="node9" class="node"><title>Node9</title>
<g id="a_node9"><a xlink:href="pattern_8c.html" target="_top" xlink:title="Match patterns to emails. ">
<polygon fill="white" stroke="black" points="484.5,-0.5 484.5,-19.5 539.5,-19.5 539.5,-0.5 484.5,-0.5"/>
<text text-anchor="middle" x="512" y="-7.5" font-family="Helvetica,sans-Serif" font-size="10.00">pattern.c</text>
</a>
</g>
</g>
<!-- Node1&#45;&gt;Node9 -->
<g id="edge8" class="edge"><title>Node1&#45;&gt;Node9</title>
<path fill="none" stroke="midnightblue" d="M388.608,-53.172C418.359,-43.0039 460.547,-28.5852 487.082,-19.5164"/>
<polygon fill="midnightblue" stroke="midnightblue" points="387.366,-49.8975 379.036,-56.4435 389.63,-56.5213 387.366,-49.8975"/>
</g>
<!-- Node10 -->
<g id="node10" class="node"><title>Node10</title>
<g id="a_node10"><a xlink:href="score_8c.html" target="_top" xlink:title="Routines for adding user scores to emails. ">
<polygon fill="white" stroke="black" points="557.5,-0.5 557.5,-19.5 606.5,-19.5 606.5,-0.5 557.5,-0.5"/>
<text text-anchor="middle" x="582" y="-7.5" font-family="Helvetica,sans-Serif" font-size="10.00">score.c</text>
</a>
</g>
</g>
<!-- Node1&#45;&gt;Node10 -->
<g id="edge9" class="edge"><title>Node1&#45;&gt;Node10</title>
<path fill="none" stroke="midnightblue" d="M391.59,-56.6417C430.733,-47.8536 493.786,-33.4597 548,-20 550.963,-19.2644 554.066,-18.4727 557.14,-17.6751"/>
<polygon fill="midnightblue" stroke="midnightblue" points="390.686,-53.2574 381.693,-58.8586 392.216,-60.0881 390.686,-53.2574"/>
</g>
<!-- Node11 -->
<g id="node11" class="node"><title>Node11</title>
<g id="a_node11"><a xlink:href="send_8c.html" target="_top" xlink:title="Prepare and send an email. ">
<polygon fill="white" stroke="black" points="625,-0.5 625,-19.5 671,-19.5 671,-0.5 625,-0.5"/>
<text text-anchor="middle" x="648" y="-7.5" font-family="Helvetica,sans-Serif" font-size="10.00">send.c</text>
</a>
</g>
</g>
<!-- Node1&#45;&gt;Node11 -->
<g id="edge10" class="edge"><title>Node1&#45;&gt;Node11</title>
<path fill="none" stroke="midnightblue" d="M391.81,-59.6403C442.776,-52.1521 536.215,-37.4933 615,-20 618.246,-19.2792 621.652,-18.443 624.991,-17.5765"/>
<polygon fill="midnightblue" stroke="midnightblue" points="390.991,-56.2226 381.6,-61.1278 392,-63.1495 390.991,-56.2226"/>
</g>
</g>
</svg>
