<?xml version="1.0" encoding="UTF-8" standalone="no"?>
<!DOCTYPE svg PUBLIC "-//W3C//DTD SVG 1.1//EN"
 "http://www.w3.org/Graphics/SVG/1.1/DTD/svg11.dtd">
<!-- Generated by graphviz version 2.36.0 (20140111.2315)
 -->
<!-- Title: mutt_pattern_comp Pages: 1 -->
<svg width="254pt" height="350pt"
 viewBox="0.00 0.00 254.00 350.00" xmlns="http://www.w3.org/2000/svg" xmlns:xlink="http://www.w3.org/1999/xlink">
<g id="graph0" class="graph" transform="scale(1 1) rotate(0) translate(4 346)">
<title>mutt_pattern_comp</title>
<polygon fill="white" stroke="none" points="-4,4 -4,-346 250,-346 250,4 -4,4"/>
<!-- Node1 -->
<g id="node1" class="node"><title>Node1</title>
<polygon fill="#bfbfbf" stroke="black" points="0.5,-152.5 0.5,-171.5 101.5,-171.5 101.5,-152.5 0.5,-152.5"/>
<text text-anchor="middle" x="51" y="-159.5" font-family="Helvetica,sans-Serif" font-size="10.00">mutt_pattern_comp</text>
</g>
<!-- Node1&#45;&gt;Node1 -->
<g id="edge9" class="edge"><title>Node1&#45;&gt;Node1</title>
<path fill="none" stroke="midnightblue" d="M29.4219,-171.757C18.9245,-180.565 26.1172,-190 51,-190 66.9406,-190 75.6211,-186.128 77.0416,-181.029"/>
<polygon fill="midnightblue" stroke="midnightblue" points="80.0692,-179.249 72.5781,-171.757 73.762,-182.286 80.0692,-179.249"/>
</g>
<!-- Node2 -->
<g id="node2" class="node"><title>Node2</title>
<g id="a_node2"><a xlink:href="buffer_8c.html#ab31dc6030636f826c60c65d143cb249d" target="_top" xlink:title="Initialise a new Buffer. ">
<polygon fill="white" stroke="black" points="150,-322.5 150,-341.5 234,-341.5 234,-322.5 150,-322.5"/>
<text text-anchor="middle" x="192" y="-329.5" font-family="Helvetica,sans-Serif" font-size="10.00">mutt_buffer_init</text>
</a>
</g>
</g>
<!-- Node1&#45;&gt;Node2 -->
<g id="edge1" class="edge"><title>Node1&#45;&gt;Node2</title>
<path fill="none" stroke="midnightblue" d="M54.8688,-171.678C63.208,-198.181 89.9506,-272.639 138,-313 139.997,-314.678 142.154,-316.212 144.416,-317.615"/>
<polygon fill="midnightblue" stroke="midnightblue" points="143.059,-320.855 153.541,-322.398 146.308,-314.655 143.059,-320.855"/>
</g>
<!-- Node3 -->
<g id="node3" class="node"><title>Node3</title>
<g id="a_node3"><a xlink:href="mutt_2string_8c.html#aca11f88d08a860c07419df3efb18f35a" target="_top" xlink:title="Calculate the length of a string, safely. ">
<polygon fill="white" stroke="black" points="151,-284.5 151,-303.5 233,-303.5 233,-284.5 151,-284.5"/>
<text text-anchor="middle" x="192" y="-291.5" font-family="Helvetica,sans-Serif" font-size="10.00">mutt_str_strlen</text>
</a>
</g>
</g>
<!-- Node1&#45;&gt;Node3 -->
<g id="edge2" class="edge"><title>Node1&#45;&gt;Node3</title>
<path fill="none" stroke="midnightblue" d="M56.8352,-171.673C68.1077,-193.282 98.2238,-245.862 138,-275 140.521,-276.847 143.239,-278.528 146.065,-280.058"/>
<polygon fill="midnightblue" stroke="midnightblue" points="144.815,-283.338 155.352,-284.438 147.801,-277.006 144.815,-283.338"/>
</g>
<!-- Node4 -->
<g id="node4" class="node"><title>Node4</title>
<g id="a_node4"><a xlink:href="buffer_8c.html#ad057ee239ae5bcfd72cab3749036ab02" target="_top" xlink:title="Format a string into a Buffer. ">
<polygon fill="white" stroke="red" points="145.5,-246.5 145.5,-265.5 238.5,-265.5 238.5,-246.5 145.5,-246.5"/>
<text text-anchor="middle" x="192" y="-253.5" font-family="Helvetica,sans-Serif" font-size="10.00">mutt_buffer_printf</text>
</a>
</g>
</g>
<!-- Node1&#45;&gt;Node4 -->
<g id="edge3" class="edge"><title>Node1&#45;&gt;Node4</title>
<path fill="none" stroke="midnightblue" d="M60.6454,-171.573C75.2217,-187.209 106.22,-218.35 138,-237 141.412,-239.002 145.069,-240.846 148.809,-242.532"/>
<polygon fill="midnightblue" stroke="midnightblue" points="147.605,-245.821 158.185,-246.396 150.273,-239.349 147.605,-245.821"/>
</g>
<!-- Node5 -->
<g id="node5" class="node"><title>Node5</title>
<g id="a_node5"><a xlink:href="pattern_8c.html#a8b2047b433795ea5cc46a2561aec9a3d" target="_top" xlink:title="Create a new Pattern. ">
<polygon fill="white" stroke="red" points="144.5,-208.5 144.5,-227.5 239.5,-227.5 239.5,-208.5 144.5,-208.5"/>
<text text-anchor="middle" x="192" y="-215.5" font-family="Helvetica,sans-Serif" font-size="10.00">mutt_pattern_new</text>
</a>
</g>
</g>
<!-- Node1&#45;&gt;Node5 -->
<g id="edge4" class="edge"><title>Node1&#45;&gt;Node5</title>
<path fill="none" stroke="midnightblue" d="M73.4057,-171.648C90.7129,-179.343 115.77,-190.243 138,-199 143.116,-201.015 148.542,-203.062 153.896,-205.03"/>
<polygon fill="midnightblue" stroke="midnightblue" points="152.777,-208.347 163.371,-208.461 155.16,-201.765 152.777,-208.347"/>
</g>
<!-- Node6 -->
<g id="node6" class="node"><title>Node6</title>
<g id="a_node6"><a xlink:href="pattern_8c.html#a8d39b9ee4f251cb01689a145b29de0ec" target="_top" xlink:title="Free a Pattern. ">
<polygon fill="white" stroke="black" points="145.5,-152.5 145.5,-171.5 238.5,-171.5 238.5,-152.5 145.5,-152.5"/>
<text text-anchor="middle" x="192" y="-159.5" font-family="Helvetica,sans-Serif" font-size="10.00">mutt_pattern_free</text>
</a>
</g>
</g>
<!-- Node1&#45;&gt;Node6 -->
<g id="edge5" class="edge"><title>Node1&#45;&gt;Node6</title>
<path fill="none" stroke="midnightblue" d="M101.79,-162C112.534,-162 123.963,-162 134.928,-162"/>
<polygon fill="midnightblue" stroke="midnightblue" points="135.262,-165.5 145.262,-162 135.262,-158.5 135.262,-165.5"/>
</g>
<!-- Node7 -->
<g id="node7" class="node"><title>Node7</title>
<g id="a_node7"><a xlink:href="pattern_8c.html#a34120478ddc4976939fb82e05bb42cb7" target="_top" xlink:title="Find the matching parenthesis. ">
<polygon fill="white" stroke="black" points="138.5,-114.5 138.5,-133.5 245.5,-133.5 245.5,-114.5 138.5,-114.5"/>
<text text-anchor="middle" x="192" y="-121.5" font-family="Helvetica,sans-Serif" font-size="10.00">find_matching_paren</text>
</a>
</g>
</g>
<!-- Node1&#45;&gt;Node7 -->
<g id="edge7" class="edge"><title>Node1&#45;&gt;Node7</title>
<path fill="none" stroke="midnightblue" d="M87.0756,-152.411C105.019,-147.506 127.058,-141.48 146.217,-136.243"/>
<polygon fill="midnightblue" stroke="midnightblue" points="147.213,-139.599 155.936,-133.586 145.367,-132.847 147.213,-139.599"/>
</g>
<!-- Node8 -->
<g id="node8" class="node"><title>Node8</title>
<g id="a_node8"><a xlink:href="mutt_2string_8c.html#a97a08d325db953698595ab3097eb14ea" target="_top" xlink:title="Duplicate a sub&#45;string. ">
<polygon fill="white" stroke="red" points="139,-76.5 139,-95.5 245,-95.5 245,-76.5 139,-76.5"/>
<text text-anchor="middle" x="192" y="-83.5" font-family="Helvetica,sans-Serif" font-size="10.00">mutt_str_substr_dup</text>
</a>
</g>
</g>
<!-- Node1&#45;&gt;Node8 -->
<g id="edge8" class="edge"><title>Node1&#45;&gt;Node8</title>
<path fill="none" stroke="midnightblue" d="M64.5228,-152.29C80.763,-140.037 110.299,-118.889 138,-105 142.092,-102.948 146.46,-101.012 150.867,-99.2162"/>
<polygon fill="midnightblue" stroke="midnightblue" points="152.403,-102.376 160.483,-95.5222 149.892,-95.8412 152.403,-102.376"/>
</g>
<!-- Node9 -->
<g id="node9" class="node"><title>Node9</title>
<g id="a_node9"><a xlink:href="pattern_8c.html#a4e5f3ba51c4dabc9eb93edcd4763be3e" target="_top" xlink:title="Lookup a pattern modifier. ">
<polygon fill="white" stroke="black" points="160,-38.5 160,-57.5 224,-57.5 224,-38.5 160,-38.5"/>
<text text-anchor="middle" x="192" y="-45.5" font-family="Helvetica,sans-Serif" font-size="10.00">lookup_tag</text>
</a>
</g>
</g>
<!-- Node1&#45;&gt;Node9 -->
<g id="edge10" class="edge"><title>Node1&#45;&gt;Node9</title>
<path fill="none" stroke="midnightblue" d="M58.1801,-152.498C70.9183,-133.617 101.943,-91.1236 138,-67 141.804,-64.4547 145.99,-62.2048 150.291,-60.2274"/>
<polygon fill="midnightblue" stroke="midnightblue" points="151.867,-63.3639 159.786,-56.3251 149.206,-56.8894 151.867,-63.3639"/>
</g>
<!-- Node10 -->
<g id="node10" class="node"><title>Node10</title>
<g id="a_node10"><a xlink:href="mutt_2string_8c.html#a3b8965b21d6e21536750f8883cd4333a" target="_top" xlink:title="Copy a string into a buffer (guaranteeing NUL&#45;termination) ">
<polygon fill="white" stroke="black" points="148,-0.5 148,-19.5 236,-19.5 236,-0.5 148,-0.5"/>
<text text-anchor="middle" x="192" y="-7.5" font-family="Helvetica,sans-Serif" font-size="10.00">mutt_str_strfcpy</text>
</a>
</g>
</g>
<!-- Node1&#45;&gt;Node10 -->
<g id="edge11" class="edge"><title>Node1&#45;&gt;Node10</title>
<path fill="none" stroke="midnightblue" d="M55.6211,-152.438C65.2554,-128.242 93.8348,-64.0268 138,-29 140.262,-27.2063 142.707,-25.5736 145.263,-24.0886"/>
<polygon fill="midnightblue" stroke="midnightblue" points="146.892,-27.1872 154.277,-19.5895 143.766,-20.924 146.892,-27.1872"/>
</g>
<!-- Node6&#45;&gt;Node6 -->
<g id="edge6" class="edge"><title>Node6&#45;&gt;Node6</title>
<path fill="none" stroke="midnightblue" d="M170.422,-171.757C159.924,-180.565 167.117,-190 192,-190 207.941,-190 216.621,-186.128 218.042,-181.029"/>
<polygon fill="midnightblue" stroke="midnightblue" points="221.069,-179.249 213.578,-171.757 214.762,-182.286 221.069,-179.249"/>
</g>
</g>
</svg>
