<?xml version="1.0" encoding="UTF-8" standalone="no"?>
<!DOCTYPE svg PUBLIC "-//W3C//DTD SVG 1.1//EN"
 "http://www.w3.org/Graphics/SVG/1.1/DTD/svg11.dtd">
<!-- Generated by graphviz version 2.36.0 (20140111.2315)
 -->
<!-- Title: mutt_pattern_comp Pages: 1 -->
<svg width="266pt" height="180pt"
 viewBox="0.00 0.00 266.00 180.00" xmlns="http://www.w3.org/2000/svg" xmlns:xlink="http://www.w3.org/1999/xlink">
<g id="graph0" class="graph" transform="scale(1 1) rotate(0) translate(4 176)">
<title>mutt_pattern_comp</title>
<polygon fill="white" stroke="none" points="-4,4 -4,-176 262,-176 262,4 -4,4"/>
<!-- Node1 -->
<g id="node1" class="node"><title>Node1</title>
<polygon fill="#bfbfbf" stroke="black" points="0.5,-76.5 0.5,-95.5 101.5,-95.5 101.5,-76.5 0.5,-76.5"/>
<text text-anchor="middle" x="51" y="-83.5" font-family="Helvetica,sans-Serif" font-size="10.00">mutt_pattern_comp</text>
</g>
<!-- Node1&#45;&gt;Node1 -->
<g id="edge3" class="edge"><title>Node1&#45;&gt;Node1</title>
<path fill="none" stroke="midnightblue" d="M23.7475,-104.654C24.8867,-109.937 33.9708,-114 51,-114 76.9492,-114 84.4502,-104.565 73.5028,-95.7571"/>
<polygon fill="midnightblue" stroke="midnightblue" points="26.8752,-106.227 28.4972,-95.7571 20.7001,-102.93 26.8752,-106.227"/>
</g>
<!-- Node2 -->
<g id="node2" class="node"><title>Node2</title>
<g id="a_node2"><a xlink:href="color_8c.html#ae979fa780af906437748ab50c3c96297" target="_top" xlink:title="Associate a colour to a pattern. ">
<polygon fill="white" stroke="red" points="164,-152.5 164,-171.5 232,-171.5 232,-152.5 164,-152.5"/>
<text text-anchor="middle" x="198" y="-159.5" font-family="Helvetica,sans-Serif" font-size="10.00">add_pattern</text>
</a>
</g>
</g>
<!-- Node1&#45;&gt;Node2 -->
<g id="edge1" class="edge"><title>Node1&#45;&gt;Node2</title>
<path fill="none" stroke="midnightblue" d="M72.19,-101.694C89.0419,-114.211 114.083,-131.493 138,-143 146.146,-146.919 155.298,-150.312 163.919,-153.102"/>
<polygon fill="midnightblue" stroke="midnightblue" points="74.2624,-98.8734 64.1734,-95.6389 70.0433,-104.459 74.2624,-98.8734"/>
</g>
<!-- Node3 -->
<g id="node3" class="node"><title>Node3</title>
<g id="a_node3"><a xlink:href="hook_8c.html#a1f7402155273ed32b2b3ae49324689ac" target="_top" xlink:title="TAILQ_HEAD">
<polygon fill="white" stroke="black" points="158.5,-114.5 158.5,-133.5 237.5,-133.5 237.5,-114.5 158.5,-114.5"/>
<text text-anchor="middle" x="198" y="-121.5" font-family="Helvetica,sans-Serif" font-size="10.00">TAILQ_HEAD</text>
</a>
</g>
</g>
<!-- Node1&#45;&gt;Node3 -->
<g id="edge2" class="edge"><title>Node1&#45;&gt;Node3</title>
<path fill="none" stroke="midnightblue" d="M98.4928,-98.1843C118.624,-103.46 141.838,-109.544 160.673,-114.48"/>
<polygon fill="midnightblue" stroke="midnightblue" points="99.1503,-94.7385 88.5896,-95.589 97.3757,-101.51 99.1503,-94.7385"/>
</g>
<!-- Node4 -->
<g id="node4" class="node"><title>Node4</title>
<g id="a_node4"><a xlink:href="pattern_8h.html#a828247b3a5ea339163835205d56d8f52" target="_top" xlink:title="Perform some Pattern matching. ">
<polygon fill="white" stroke="red" points="150.5,-76.5 150.5,-95.5 245.5,-95.5 245.5,-76.5 150.5,-76.5"/>
<text text-anchor="middle" x="198" y="-83.5" font-family="Helvetica,sans-Serif" font-size="10.00">mutt_pattern_func</text>
</a>
</g>
</g>
<!-- Node1&#45;&gt;Node4 -->
<g id="edge4" class="edge"><title>Node1&#45;&gt;Node4</title>
<path fill="none" stroke="midnightblue" d="M112.033,-86C124.849,-86 138.202,-86 150.423,-86"/>
<polygon fill="midnightblue" stroke="midnightblue" points="111.901,-82.5001 101.901,-86 111.901,-89.5001 111.901,-82.5001"/>
</g>
<!-- Node5 -->
<g id="node5" class="node"><title>Node5</title>
<g id="a_node5"><a xlink:href="pattern_8h.html#aab00543a18eef2429dc8e306c663074f" target="_top" xlink:title="Perform a search. ">
<polygon fill="white" stroke="red" points="138.5,-38.5 138.5,-57.5 257.5,-57.5 257.5,-38.5 138.5,-38.5"/>
<text text-anchor="middle" x="198" y="-45.5" font-family="Helvetica,sans-Serif" font-size="10.00">mutt_search_command</text>
</a>
</g>
</g>
<!-- Node1&#45;&gt;Node5 -->
<g id="edge5" class="edge"><title>Node1&#45;&gt;Node5</title>
<path fill="none" stroke="midnightblue" d="M98.4928,-73.8157C118.624,-68.54 141.838,-62.4562 160.673,-57.5201"/>
<polygon fill="midnightblue" stroke="midnightblue" points="97.3757,-70.4902 88.5896,-76.411 99.1503,-77.2615 97.3757,-70.4902"/>
</g>
<!-- Node6 -->
<g id="node6" class="node"><title>Node6</title>
<g id="a_node6"><a xlink:href="score_8h.html#af70db6b27da7d91f738510f5cca5cec4" target="_top" xlink:title="Parse the &#39;score&#39; command. ">
<polygon fill="white" stroke="black" points="150.5,-0.5 150.5,-19.5 245.5,-19.5 245.5,-0.5 150.5,-0.5"/>
<text text-anchor="middle" x="198" y="-7.5" font-family="Helvetica,sans-Serif" font-size="10.00">mutt_parse_score</text>
</a>
</g>
</g>
<!-- Node1&#45;&gt;Node6 -->
<g id="edge6" class="edge"><title>Node1&#45;&gt;Node6</title>
<path fill="none" stroke="midnightblue" d="M72.19,-70.3057C89.0419,-57.7888 114.083,-40.5069 138,-29 145.564,-25.3609 153.996,-22.1755 162.064,-19.5052"/>
<polygon fill="midnightblue" stroke="midnightblue" points="70.0433,-67.5409 64.1734,-76.3611 74.2624,-73.1266 70.0433,-67.5409"/>
</g>
</g>
</svg>
