<?xml version="1.0" encoding="UTF-8" standalone="no"?>
<!DOCTYPE svg PUBLIC "-//W3C//DTD SVG 1.1//EN"
 "http://www.w3.org/Graphics/SVG/1.1/DTD/svg11.dtd">
<!-- Generated by graphviz version 2.36.0 (20140111.2315)
 -->
<!-- Title: pgp_class_decrypt_mime Pages: 1 -->
<svg width="438pt" height="185pt"
 viewBox="0.00 0.00 438.00 184.80" xmlns="http://www.w3.org/2000/svg" xmlns:xlink="http://www.w3.org/1999/xlink">
<g id="graph0" class="graph" transform="scale(1 1) rotate(0) translate(4 180.801)">
<title>pgp_class_decrypt_mime</title>
<polygon fill="white" stroke="none" points="-4,4 -4,-180.801 434,-180.801 434,4 -4,4"/>
<!-- Node1 -->
<g id="node1" class="node"><title>Node1</title>
<polygon fill="#bfbfbf" stroke="black" points="0,-59.3007 0,-78.3007 128,-78.3007 128,-59.3007 0,-59.3007"/>
<text text-anchor="middle" x="64" y="-66.3007" font-family="Helvetica,sans-Serif" font-size="10.00">pgp_class_decrypt_mime</text>
</g>
<!-- Node2 -->
<g id="node2" class="node"><title>Node2</title>
<g id="a_node2"><a xlink:href="crypt_8c.html#a51806f872069460bb7f4fa16d1d92710" target="_top" xlink:title="Is this a valid multi&#45;part encrypted message? ">
<polygon fill="white" stroke="red" points="177.5,-146.801 177.5,-176.801 294.5,-176.801 294.5,-146.801 177.5,-146.801"/>
<text text-anchor="start" x="185.5" y="-164.801" font-family="Helvetica,sans-Serif" font-size="10.00">mutt_is_valid_multipart</text>
<text text-anchor="middle" x="236" y="-153.801" font-family="Helvetica,sans-Serif" font-size="10.00">_pgp_encrypted</text>
</a>
</g>
</g>
<!-- Node1&#45;&gt;Node2 -->
<g id="edge1" class="edge"><title>Node1&#45;&gt;Node2</title>
<path fill="none" stroke="midnightblue" d="M76.8495,-78.4874C94.7966,-92.7888 130.355,-119.701 164,-136.801 168.219,-138.945 172.666,-140.983 177.191,-142.902"/>
<polygon fill="midnightblue" stroke="midnightblue" points="175.959,-146.179 186.542,-146.669 178.575,-139.686 175.959,-146.179"/>
</g>
<!-- Node3 -->
<g id="node3" class="node"><title>Node3</title>
<g id="a_node3"><a xlink:href="crypt_8c.html#a677a7f08680a1ed23ca7c69a623da45b" target="_top" xlink:title="Check for malformed layout. ">
<polygon fill="white" stroke="red" points="164.5,-97.8007 164.5,-127.801 307.5,-127.801 307.5,-97.8007 164.5,-97.8007"/>
<text text-anchor="start" x="172.5" y="-115.801" font-family="Helvetica,sans-Serif" font-size="10.00">mutt_is_malformed_multipart</text>
<text text-anchor="middle" x="236" y="-104.801" font-family="Helvetica,sans-Serif" font-size="10.00">_pgp_encrypted</text>
</a>
</g>
</g>
<!-- Node1&#45;&gt;Node3 -->
<g id="edge2" class="edge"><title>Node1&#45;&gt;Node3</title>
<path fill="none" stroke="midnightblue" d="M101.887,-78.3481C120.942,-83.2798 144.806,-89.4565 167.047,-95.2129"/>
<polygon fill="midnightblue" stroke="midnightblue" points="166.235,-98.618 176.793,-97.7354 167.989,-91.8413 166.235,-98.618"/>
</g>
<!-- Node4 -->
<g id="node4" class="node"><title>Node4</title>
<g id="a_node4"><a xlink:href="handler_8c.html#a8dc0c14a81bb73f86986adc9745dd192" target="_top" xlink:title="Decode an email&#39;s attachment. ">
<polygon fill="white" stroke="red" points="172.5,-59.3007 172.5,-78.3007 299.5,-78.3007 299.5,-59.3007 172.5,-59.3007"/>
<text text-anchor="middle" x="236" y="-66.3007" font-family="Helvetica,sans-Serif" font-size="10.00">mutt_decode_attachment</text>
</a>
</g>
</g>
<!-- Node1&#45;&gt;Node4 -->
<g id="edge3" class="edge"><title>Node1&#45;&gt;Node4</title>
<path fill="none" stroke="midnightblue" d="M128.302,-68.8007C139.36,-68.8007 150.943,-68.8007 162.233,-68.8007"/>
<polygon fill="midnightblue" stroke="midnightblue" points="162.494,-72.3008 172.494,-68.8007 162.494,-65.3008 162.494,-72.3008"/>
</g>
<!-- Node5 -->
<g id="node5" class="node"><title>Node5</title>
<g id="a_node5"><a xlink:href="pgp_8c.html#a031ea9dee21fd00cd1aa6fb404f005d2" target="_top" xlink:title="Decrypt part of a PGP message. ">
<polygon fill="white" stroke="red" points="190,-21.3007 190,-40.3007 282,-40.3007 282,-21.3007 190,-21.3007"/>
<text text-anchor="middle" x="236" y="-28.3007" font-family="Helvetica,sans-Serif" font-size="10.00">pgp_decrypt_part</text>
</a>
</g>
</g>
<!-- Node1&#45;&gt;Node5 -->
<g id="edge4" class="edge"><title>Node1&#45;&gt;Node5</title>
<path fill="none" stroke="midnightblue" d="M107.898,-59.2117C130.534,-54.152 158.498,-47.9011 182.429,-42.552"/>
<polygon fill="midnightblue" stroke="midnightblue" points="183.415,-45.918 192.41,-40.3208 181.888,-39.0866 183.415,-45.918"/>
</g>
<!-- Node6 -->
<g id="node6" class="node"><title>Node6</title>
<g id="a_node6"><a xlink:href="file_8c.html#a4982d9040dfaf38e847729be2af83ed6" target="_top" xlink:title="Close a FILE handle (and NULL the pointer) ">
<polygon fill="white" stroke="black" points="344,-2.30073 344,-21.3007 430,-21.3007 430,-2.30073 344,-2.30073"/>
<text text-anchor="middle" x="387" y="-9.30073" font-family="Helvetica,sans-Serif" font-size="10.00">mutt_file_fclose</text>
</a>
</g>
</g>
<!-- Node1&#45;&gt;Node6 -->
<g id="edge6" class="edge"><title>Node1&#45;&gt;Node6</title>
<path fill="none" stroke="midnightblue" d="M76.8766,-59.15C94.5786,-45.4544 129.512,-21.0197 164,-11.8007 220.598,3.32832 288.252,0.491161 333.878,-4.31064"/>
<polygon fill="midnightblue" stroke="midnightblue" points="333.51,-7.79126 343.838,-5.42691 334.29,-0.834814 333.51,-7.79126"/>
</g>
<!-- Node5&#45;&gt;Node6 -->
<g id="edge5" class="edge"><title>Node5&#45;&gt;Node6</title>
<path fill="none" stroke="midnightblue" d="M282.109,-25.0485C298.353,-22.9772 316.816,-20.6229 333.626,-18.4793"/>
<polygon fill="midnightblue" stroke="midnightblue" points="334.368,-21.9131 343.845,-17.1762 333.482,-14.9693 334.368,-21.9131"/>
</g>
</g>
</svg>
