<?xml version="1.0" encoding="UTF-8" standalone="no"?>
<!DOCTYPE svg PUBLIC "-//W3C//DTD SVG 1.1//EN"
 "http://www.w3.org/Graphics/SVG/1.1/DTD/svg11.dtd">
<!-- Generated by graphviz version 2.36.0 (20140111.2315)
 -->
<!-- Title: pgp_class_traditional_encryptsign Pages: 1 -->
<svg width="438pt" height="634pt"
 viewBox="0.00 0.00 438.00 633.99" xmlns="http://www.w3.org/2000/svg" xmlns:xlink="http://www.w3.org/1999/xlink">
<g id="graph0" class="graph" transform="scale(1 1) rotate(0) translate(4 629.994)">
<title>pgp_class_traditional_encryptsign</title>
<polygon fill="white" stroke="none" points="-4,4 -4,-629.994 434,-629.994 434,4 -4,4"/>
<!-- Node1 -->
<g id="node1" class="node"><title>Node1</title>
<polygon fill="#bfbfbf" stroke="black" points="0,-296.994 0,-326.994 108,-326.994 108,-296.994 0,-296.994"/>
<text text-anchor="start" x="8" y="-314.994" font-family="Helvetica,sans-Serif" font-size="10.00">pgp_class_traditional</text>
<text text-anchor="middle" x="54" y="-303.994" font-family="Helvetica,sans-Serif" font-size="10.00">_encryptsign</text>
</g>
<!-- Node2 -->
<g id="node2" class="node"><title>Node2</title>
<g id="a_node2"><a xlink:href="mutt_2string_8c.html#a011e5b6fad43bc608584d585987cf9c1" target="_top" xlink:title="Compare two strings ignoring case, safely. ">
<polygon fill="white" stroke="black" points="320.5,-169.494 320.5,-188.494 429.5,-188.494 429.5,-169.494 320.5,-169.494"/>
<text text-anchor="middle" x="375" y="-176.494" font-family="Helvetica,sans-Serif" font-size="10.00">mutt_str_strcasecmp</text>
</a>
</g>
</g>
<!-- Node1&#45;&gt;Node2 -->
<g id="edge1" class="edge"><title>Node1&#45;&gt;Node2</title>
<path fill="none" stroke="midnightblue" d="M108.267,-300.077C170.901,-285.854 268.36,-262.99 284,-254.994 313.419,-239.954 341.551,-213.627 358.304,-196.251"/>
<polygon fill="midnightblue" stroke="midnightblue" points="361.266,-198.209 365.569,-188.528 356.168,-193.413 361.266,-198.209"/>
</g>
<!-- Node3 -->
<g id="node3" class="node"><title>Node3</title>
<g id="a_node3"><a xlink:href="file_8c.html#ae1c0c19fec03274220b3ca065ad1e2e5" target="_top" xlink:title="Call fopen() safely. ">
<polygon fill="white" stroke="red" points="172.5,-568.494 172.5,-587.494 255.5,-587.494 255.5,-568.494 172.5,-568.494"/>
<text text-anchor="middle" x="214" y="-575.494" font-family="Helvetica,sans-Serif" font-size="10.00">mutt_file_fopen</text>
</a>
</g>
</g>
<!-- Node1&#45;&gt;Node3 -->
<g id="edge2" class="edge"><title>Node1&#45;&gt;Node3</title>
<path fill="none" stroke="midnightblue" d="M56.1787,-327.141C60.2563,-369.193 77.4213,-488.582 144,-553.994 149.349,-559.25 155.908,-563.358 162.832,-566.568"/>
<polygon fill="midnightblue" stroke="midnightblue" points="161.838,-569.94 172.422,-570.413 164.443,-563.443 161.838,-569.94"/>
</g>
<!-- Node4 -->
<g id="node4" class="node"><title>Node4</title>
<g id="a_node4"><a xlink:href="file_8c.html#a4982d9040dfaf38e847729be2af83ed6" target="_top" xlink:title="Close a FILE handle (and NULL the pointer) ">
<polygon fill="white" stroke="black" points="332,-568.494 332,-587.494 418,-587.494 418,-568.494 332,-568.494"/>
<text text-anchor="middle" x="375" y="-575.494" font-family="Helvetica,sans-Serif" font-size="10.00">mutt_file_fclose</text>
</a>
</g>
</g>
<!-- Node1&#45;&gt;Node4 -->
<g id="edge3" class="edge"><title>Node1&#45;&gt;Node4</title>
<path fill="none" stroke="midnightblue" d="M56.8213,-327.049C62.3097,-365.584 82.3059,-468.439 144,-520.994 150.87,-526.846 256.404,-551.461 322.103,-566.364"/>
<polygon fill="midnightblue" stroke="midnightblue" points="321.362,-569.785 331.888,-568.578 322.907,-562.957 321.362,-569.785"/>
</g>
<!-- Node5 -->
<g id="node5" class="node"><title>Node5</title>
<g id="a_node5"><a xlink:href="sendlib_8c.html#a8465f41e6b0f0256527ca2404edfb762" target="_top" xlink:title="Get a body&#39;s character set. ">
<polygon fill="white" stroke="red" points="154.5,-492.494 154.5,-511.494 273.5,-511.494 273.5,-492.494 154.5,-492.494"/>
<text text-anchor="middle" x="214" y="-499.494" font-family="Helvetica,sans-Serif" font-size="10.00">mutt_body_get_charset</text>
</a>
</g>
</g>
<!-- Node1&#45;&gt;Node5 -->
<g id="edge4" class="edge"><title>Node1&#45;&gt;Node5</title>
<path fill="none" stroke="midnightblue" d="M58.5041,-327.172C67.0298,-360.618 92.0747,-441.021 144,-482.994 146.265,-484.825 148.693,-486.48 151.236,-487.975"/>
<polygon fill="midnightblue" stroke="midnightblue" points="149.743,-491.141 160.254,-492.472 152.867,-484.877 149.743,-491.141"/>
</g>
<!-- Node6 -->
<g id="node6" class="node"><title>Node6</title>
<g id="a_node6"><a xlink:href="charset_8c.html#ac62eb0dbd9e985ae995432b6bd94a024" target="_top" xlink:title="Prepare a file for charset conversion. ">
<polygon fill="white" stroke="red" points="153.5,-454.494 153.5,-473.494 274.5,-473.494 274.5,-454.494 153.5,-454.494"/>
<text text-anchor="middle" x="214" y="-461.494" font-family="Helvetica,sans-Serif" font-size="10.00">mutt_ch_fgetconv_open</text>
</a>
</g>
</g>
<!-- Node1&#45;&gt;Node6 -->
<g id="edge5" class="edge"><title>Node1&#45;&gt;Node6</title>
<path fill="none" stroke="midnightblue" d="M60.9756,-327.359C72.6023,-355.195 100.962,-413.95 144,-444.994 146.67,-446.92 149.527,-448.651 152.504,-450.207"/>
<polygon fill="midnightblue" stroke="midnightblue" points="151.168,-453.444 161.723,-454.367 154.048,-447.064 151.168,-453.444"/>
</g>
<!-- Node7 -->
<g id="node7" class="node"><title>Node7</title>
<g id="a_node7"><a xlink:href="charset_8c.html#a90191f2589de2c605dd8c13b496ad3e1" target="_top" xlink:title="Convert a file&#39;s character set. ">
<polygon fill="white" stroke="red" points="166.5,-416.494 166.5,-435.494 261.5,-435.494 261.5,-416.494 166.5,-416.494"/>
<text text-anchor="middle" x="214" y="-423.494" font-family="Helvetica,sans-Serif" font-size="10.00">mutt_ch_fgetconv</text>
</a>
</g>
</g>
<!-- Node1&#45;&gt;Node7 -->
<g id="edge6" class="edge"><title>Node1&#45;&gt;Node7</title>
<path fill="none" stroke="midnightblue" d="M65.1618,-327.285C79.9885,-348.392 109.565,-386.196 144,-406.994 147.935,-409.371 152.174,-411.458 156.547,-413.288"/>
<polygon fill="midnightblue" stroke="midnightblue" points="155.675,-416.698 166.268,-416.901 158.113,-410.136 155.675,-416.698"/>
</g>
<!-- Node8 -->
<g id="node8" class="node"><title>Node8</title>
<g id="a_node8"><a xlink:href="charset_8c.html#a0e81727a5f32d8b10fe7c805d1d4e7ac" target="_top" xlink:title="Close an fgetconv handle. ">
<polygon fill="white" stroke="black" points="152.5,-378.494 152.5,-397.494 275.5,-397.494 275.5,-378.494 152.5,-378.494"/>
<text text-anchor="middle" x="214" y="-385.494" font-family="Helvetica,sans-Serif" font-size="10.00">mutt_ch_fgetconv_close</text>
</a>
</g>
</g>
<!-- Node1&#45;&gt;Node8 -->
<g id="edge7" class="edge"><title>Node1&#45;&gt;Node8</title>
<path fill="none" stroke="midnightblue" d="M74.8625,-327.204C92.2752,-339.913 118.692,-357.718 144,-368.994 149.308,-371.359 154.979,-373.494 160.703,-375.404"/>
<polygon fill="midnightblue" stroke="midnightblue" points="159.745,-378.771 170.333,-378.407 161.829,-372.089 159.745,-378.771"/>
</g>
<!-- Node9 -->
<g id="node9" class="node"><title>Node9</title>
<g id="a_node9"><a xlink:href="file_8c.html#acde526723322b2df0564e5eeae5fbc76" target="_top" xlink:title="Copy the contents of one file into another. ">
<polygon fill="white" stroke="black" points="156,-340.494 156,-359.494 272,-359.494 272,-340.494 156,-340.494"/>
<text text-anchor="middle" x="214" y="-347.494" font-family="Helvetica,sans-Serif" font-size="10.00">mutt_file_copy_stream</text>
</a>
</g>
</g>
<!-- Node1&#45;&gt;Node9 -->
<g id="edge8" class="edge"><title>Node1&#45;&gt;Node9</title>
<path fill="none" stroke="midnightblue" d="M108.051,-324.753C125.887,-329.043 145.709,-333.81 163.279,-338.036"/>
<polygon fill="midnightblue" stroke="midnightblue" points="162.791,-341.518 173.332,-340.454 164.428,-334.712 162.791,-341.518"/>
</g>
<!-- Node10 -->
<g id="node10" class="node"><title>Node10</title>
<g id="a_node10"><a xlink:href="pgpinvoke_8c.html#a5d8f983a20fcc1b2d1dbf4c94d774a4f" target="_top" xlink:title="Use PGP to create in inline&#45;signed message. ">
<polygon fill="white" stroke="red" points="157.5,-302.494 157.5,-321.494 270.5,-321.494 270.5,-302.494 157.5,-302.494"/>
<text text-anchor="middle" x="214" y="-309.494" font-family="Helvetica,sans-Serif" font-size="10.00">pgp_invoke_traditional</text>
</a>
</g>
</g>
<!-- Node1&#45;&gt;Node10 -->
<g id="edge9" class="edge"><title>Node1&#45;&gt;Node10</title>
<path fill="none" stroke="midnightblue" d="M108.051,-311.994C120.572,-311.994 134.071,-311.994 147.083,-311.994"/>
<polygon fill="midnightblue" stroke="midnightblue" points="147.386,-315.494 157.386,-311.994 147.386,-308.494 147.386,-315.494"/>
</g>
<!-- Node11 -->
<g id="node11" class="node"><title>Node11</title>
<g id="a_node11"><a xlink:href="file_8c.html#ae57463c2854c006a3c67b78736e9056e" target="_top" xlink:title="Delete a file, carefully. ">
<polygon fill="white" stroke="black" points="171.5,-606.494 171.5,-625.494 256.5,-625.494 256.5,-606.494 171.5,-606.494"/>
<text text-anchor="middle" x="214" y="-613.494" font-family="Helvetica,sans-Serif" font-size="10.00">mutt_file_unlink</text>
</a>
</g>
</g>
<!-- Node1&#45;&gt;Node11 -->
<g id="edge10" class="edge"><title>Node1&#45;&gt;Node11</title>
<path fill="none" stroke="midnightblue" d="M54.9755,-327.253C55.7606,-374.604 64.7996,-520.44 144,-596.994 148.982,-601.81 155.068,-605.429 161.54,-608.144"/>
<polygon fill="midnightblue" stroke="midnightblue" points="160.62,-611.53 171.215,-611.51 162.92,-604.919 160.62,-611.53"/>
</g>
<!-- Node12 -->
<g id="node12" class="node"><title>Node12</title>
<g id="a_node12"><a xlink:href="pgp_8c.html#ab97e1713bb20da422b5a71b68747edf9" target="_top" xlink:title="Does the user want to use the gpg agent? ">
<polygon fill="white" stroke="red" points="162,-226.494 162,-245.494 266,-245.494 266,-226.494 162,-226.494"/>
<text text-anchor="middle" x="214" y="-233.494" font-family="Helvetica,sans-Serif" font-size="10.00">pgp_use_gpg_agent</text>
</a>
</g>
</g>
<!-- Node1&#45;&gt;Node12 -->
<g id="edge12" class="edge"><title>Node1&#45;&gt;Node12</title>
<path fill="none" stroke="midnightblue" d="M78.1281,-296.803C95.7112,-285.673 120.758,-270.703 144,-259.994 152.806,-255.937 162.505,-252.163 171.78,-248.864"/>
<polygon fill="midnightblue" stroke="midnightblue" points="172.92,-252.173 181.235,-245.607 170.64,-245.555 172.92,-252.173"/>
</g>
<!-- Node13 -->
<g id="node13" class="node"><title>Node13</title>
<g id="a_node13"><a xlink:href="filter_8c.html#a2d652b11c7d2ea31208315aaf61537d2" target="_top" xlink:title="Wait for the exit of a process and return its status. ">
<polygon fill="white" stroke="red" points="172.5,-188.494 172.5,-207.494 255.5,-207.494 255.5,-188.494 172.5,-188.494"/>
<text text-anchor="middle" x="214" y="-195.494" font-family="Helvetica,sans-Serif" font-size="10.00">mutt_wait_filter</text>
</a>
</g>
</g>
<!-- Node1&#45;&gt;Node13 -->
<g id="edge13" class="edge"><title>Node1&#45;&gt;Node13</title>
<path fill="none" stroke="midnightblue" d="M65.1618,-296.703C79.9885,-275.597 109.565,-237.792 144,-216.994 149.788,-213.498 156.234,-210.63 162.795,-208.281"/>
<polygon fill="midnightblue" stroke="midnightblue" points="163.972,-211.579 172.429,-205.197 161.838,-204.912 163.972,-211.579"/>
</g>
<!-- Node14 -->
<g id="node14" class="node"><title>Node14</title>
<g id="a_node14"><a xlink:href="curs__lib_8c.html#ab6a61cdfcf8c2c73ee59381c79c79774" target="_top" xlink:title="Prompt the user to &#39;press any key&#39; and wait. ">
<polygon fill="white" stroke="red" points="147,-150.494 147,-169.494 281,-169.494 281,-150.494 147,-150.494"/>
<text text-anchor="middle" x="214" y="-157.494" font-family="Helvetica,sans-Serif" font-size="10.00">mutt_any_key_to_continue</text>
</a>
</g>
</g>
<!-- Node1&#45;&gt;Node14 -->
<g id="edge14" class="edge"><title>Node1&#45;&gt;Node14</title>
<path fill="none" stroke="midnightblue" d="M60.9756,-296.629C72.6023,-268.794 100.962,-210.038 144,-178.994 146.67,-177.068 149.527,-175.337 152.504,-173.781"/>
<polygon fill="midnightblue" stroke="midnightblue" points="154.048,-176.925 161.723,-169.621 151.168,-170.544 154.048,-176.925"/>
</g>
<!-- Node15 -->
<g id="node15" class="node"><title>Node15</title>
<g id="a_node15"><a xlink:href="pgp_8c.html#a5f22ad399cd8c0e467f61969e762aba0" target="_top" xlink:title="Implements CryptModuleSpecs::void_passphrase() ">
<polygon fill="white" stroke="black" points="144,-112.494 144,-131.494 284,-131.494 284,-112.494 144,-112.494"/>
<text text-anchor="middle" x="214" y="-119.494" font-family="Helvetica,sans-Serif" font-size="10.00">pgp_class_void_passphrase</text>
</a>
</g>
</g>
<!-- Node1&#45;&gt;Node15 -->
<g id="edge15" class="edge"><title>Node1&#45;&gt;Node15</title>
<path fill="none" stroke="midnightblue" d="M58.5041,-296.816C67.0298,-263.37 92.0747,-182.967 144,-140.994 146.265,-139.163 148.693,-137.509 151.236,-136.013"/>
<polygon fill="midnightblue" stroke="midnightblue" points="152.867,-139.111 160.254,-131.516 149.743,-132.847 152.867,-139.111"/>
</g>
<!-- Node16 -->
<g id="node16" class="node"><title>Node16</title>
<g id="a_node16"><a xlink:href="body_8c.html#aee001296b775e82e3988b5a81e53e30c" target="_top" xlink:title="Create a new Body. ">
<polygon fill="white" stroke="red" points="171,-74.4941 171,-93.4941 257,-93.4941 257,-74.4941 171,-74.4941"/>
<text text-anchor="middle" x="214" y="-81.4941" font-family="Helvetica,sans-Serif" font-size="10.00">mutt_body_new</text>
</a>
</g>
</g>
<!-- Node1&#45;&gt;Node16 -->
<g id="edge16" class="edge"><title>Node1&#45;&gt;Node16</title>
<path fill="none" stroke="midnightblue" d="M56.9427,-296.751C62.6784,-258.219 83.1366,-156.21 144,-102.994 149.091,-98.5433 155.135,-95.1261 161.498,-92.5043"/>
<polygon fill="midnightblue" stroke="midnightblue" points="162.681,-95.7985 170.974,-89.2044 160.379,-89.1879 162.681,-95.7985"/>
</g>
<!-- Node17 -->
<g id="node17" class="node"><title>Node17</title>
<g id="a_node17"><a xlink:href="mutt_2string_8c.html#ae48085384a6545e0fac589a88243ea31" target="_top" xlink:title="Copy a string, safely. ">
<polygon fill="white" stroke="red" points="332.5,-17.4941 332.5,-36.4941 417.5,-36.4941 417.5,-17.4941 332.5,-17.4941"/>
<text text-anchor="middle" x="375" y="-24.4941" font-family="Helvetica,sans-Serif" font-size="10.00">mutt_str_strdup</text>
</a>
</g>
</g>
<!-- Node1&#45;&gt;Node17 -->
<g id="edge17" class="edge"><title>Node1&#45;&gt;Node17</title>
<path fill="none" stroke="midnightblue" d="M57.3519,-296.861C66.0968,-242.762 98.5855,-60.3894 144,-26.9941 200.43,14.5012 287.516,-0.869894 336.751,-14.6589"/>
<polygon fill="midnightblue" stroke="midnightblue" points="335.786,-18.023 346.366,-17.4671 337.748,-11.3037 335.786,-18.023"/>
</g>
<!-- Node18 -->
<g id="node18" class="node"><title>Node18</title>
<g id="a_node18"><a xlink:href="parameter_8c.html#a0ae25acb8447c3823aa66e23fb6bc3c4" target="_top" xlink:title="Set a Parameter. ">
<polygon fill="white" stroke="red" points="170.5,-36.4941 170.5,-55.4941 257.5,-55.4941 257.5,-36.4941 170.5,-36.4941"/>
<text text-anchor="middle" x="214" y="-43.4941" font-family="Helvetica,sans-Serif" font-size="10.00">mutt_param_set</text>
</a>
</g>
</g>
<!-- Node1&#45;&gt;Node18 -->
<g id="edge18" class="edge"><title>Node1&#45;&gt;Node18</title>
<path fill="none" stroke="midnightblue" d="M55.8063,-296.927C58.9382,-253.979 73.9237,-129.863 144,-64.9941 148.787,-60.5629 154.512,-57.15 160.59,-54.5243"/>
<polygon fill="midnightblue" stroke="midnightblue" points="162.123,-57.6925 170.347,-51.0127 159.752,-51.1061 162.123,-57.6925"/>
</g>
<!-- Node11&#45;&gt;Node4 -->
<g id="edge11" class="edge"><title>Node11&#45;&gt;Node4</title>
<path fill="none" stroke="midnightblue" d="M255.122,-606.405C276.104,-601.391 301.982,-595.206 324.23,-589.889"/>
<polygon fill="midnightblue" stroke="midnightblue" points="325.254,-593.243 334.166,-587.514 323.626,-586.435 325.254,-593.243"/>
</g>
<!-- Node18&#45;&gt;Node2 -->
<g id="edge19" class="edge"><title>Node18&#45;&gt;Node2</title>
<path fill="none" stroke="midnightblue" d="M257.695,-53.2239C266.852,-55.9801 276.13,-59.7749 284,-64.9941 321.289,-89.7247 350.125,-134.943 364.311,-160.365"/>
<polygon fill="midnightblue" stroke="midnightblue" points="361.334,-162.219 369.171,-169.348 367.491,-158.888 361.334,-162.219"/>
</g>
<!-- Node18&#45;&gt;Node17 -->
<g id="edge20" class="edge"><title>Node18&#45;&gt;Node17</title>
<path fill="none" stroke="midnightblue" d="M257.609,-40.9025C277.53,-38.522 301.422,-35.667 322.362,-33.1647"/>
<polygon fill="midnightblue" stroke="midnightblue" points="322.86,-36.6302 332.374,-31.9683 322.029,-29.6797 322.86,-36.6302"/>
</g>
</g>
</svg>
