<?xml version="1.0" encoding="UTF-8" standalone="no"?>
<!DOCTYPE svg PUBLIC "-//W3C//DTD SVG 1.1//EN"
 "http://www.w3.org/Graphics/SVG/1.1/DTD/svg11.dtd">
<!-- Generated by graphviz version 2.36.0 (20140111.2315)
 -->
<!-- Title: ncrypt/pgp.c Pages: 1 -->
<svg width="1983pt" height="196pt"
 viewBox="0.00 0.00 1983.00 196.00" xmlns="http://www.w3.org/2000/svg" xmlns:xlink="http://www.w3.org/1999/xlink">
<g id="graph0" class="graph" transform="scale(1 1) rotate(0) translate(4 192)">
<title>ncrypt/pgp.c</title>
<polygon fill="white" stroke="none" points="-4,4 -4,-192 1979,-192 1979,4 -4,4"/>
<!-- Node1 -->
<g id="node1" class="node"><title>Node1</title>
<polygon fill="#bfbfbf" stroke="black" points="993.5,-168.5 993.5,-187.5 1064.5,-187.5 1064.5,-168.5 993.5,-168.5"/>
<text text-anchor="middle" x="1029" y="-175.5" font-family="Helvetica,sans-Serif" font-size="10.00">ncrypt/pgp.c</text>
</g>
<!-- Node2 -->
<g id="node2" class="node"><title>Node2</title>
<polygon fill="white" stroke="#bfbfbf" points="-0.5,-112.5 -0.5,-131.5 50.5,-131.5 50.5,-112.5 -0.5,-112.5"/>
<text text-anchor="middle" x="25" y="-119.5" font-family="Helvetica,sans-Serif" font-size="10.00">config.h</text>
</g>
<!-- Node1&#45;&gt;Node2 -->
<g id="edge1" class="edge"><title>Node1&#45;&gt;Node2</title>
<path fill="none" stroke="midnightblue" d="M993.338,-176.324C843.674,-173.34 265.042,-160.281 60.8874,-131.742"/>
<polygon fill="midnightblue" stroke="midnightblue" points="61.2719,-128.262 50.8719,-130.284 60.263,-135.188 61.2719,-128.262"/>
</g>
<!-- Node3 -->
<g id="node3" class="node"><title>Node3</title>
<polygon fill="white" stroke="#bfbfbf" points="69,-112.5 69,-131.5 117,-131.5 117,-112.5 69,-112.5"/>
<text text-anchor="middle" x="93" y="-119.5" font-family="Helvetica,sans-Serif" font-size="10.00">limits.h</text>
</g>
<!-- Node1&#45;&gt;Node3 -->
<g id="edge2" class="edge"><title>Node1&#45;&gt;Node3</title>
<path fill="none" stroke="midnightblue" d="M993.08,-176.248C849.681,-173.089 317.205,-159.817 127.157,-131.76"/>
<polygon fill="midnightblue" stroke="midnightblue" points="127.436,-128.262 117.019,-130.196 126.369,-135.18 127.436,-128.262"/>
</g>
<!-- Node4 -->
<g id="node4" class="node"><title>Node4</title>
<polygon fill="white" stroke="#bfbfbf" points="135.5,-112.5 135.5,-131.5 184.5,-131.5 184.5,-112.5 135.5,-112.5"/>
<text text-anchor="middle" x="160" y="-119.5" font-family="Helvetica,sans-Serif" font-size="10.00">regex.h</text>
</g>
<!-- Node1&#45;&gt;Node4 -->
<g id="edge3" class="edge"><title>Node1&#45;&gt;Node4</title>
<path fill="none" stroke="midnightblue" d="M993.192,-177.258C877.581,-177.623 504.064,-175.14 199,-132 197.538,-131.793 196.05,-131.559 194.55,-131.303"/>
<polygon fill="midnightblue" stroke="midnightblue" points="195.123,-127.849 184.637,-129.362 193.778,-134.718 195.123,-127.849"/>
</g>
<!-- Node5 -->
<g id="node5" class="node"><title>Node5</title>
<polygon fill="white" stroke="#bfbfbf" points="872,-0.5 872,-19.5 928,-19.5 928,-0.5 872,-0.5"/>
<text text-anchor="middle" x="900" y="-7.5" font-family="Helvetica,sans-Serif" font-size="10.00">stdbool.h</text>
</g>
<!-- Node1&#45;&gt;Node5 -->
<g id="edge4" class="edge"><title>Node1&#45;&gt;Node5</title>
<path fill="none" stroke="midnightblue" d="M1033.17,-168.36C1038.85,-155.263 1047.2,-130.007 1037,-112 1021.68,-84.9382 1002.3,-94.0884 977,-76 955.147,-60.3742 931.805,-40.1062 916.623,-26.3878"/>
<polygon fill="midnightblue" stroke="midnightblue" points="918.835,-23.6681 909.09,-19.5114 914.116,-28.8381 918.835,-23.6681"/>
</g>
<!-- Node6 -->
<g id="node6" class="node"><title>Node6</title>
<polygon fill="white" stroke="#bfbfbf" points="627,-56.5 627,-75.5 673,-75.5 673,-56.5 627,-56.5"/>
<text text-anchor="middle" x="650" y="-63.5" font-family="Helvetica,sans-Serif" font-size="10.00">stdio.h</text>
</g>
<!-- Node1&#45;&gt;Node6 -->
<g id="edge5" class="edge"><title>Node1&#45;&gt;Node6</title>
<path fill="none" stroke="midnightblue" d="M993.404,-177.283C912.568,-177.196 718.404,-172.646 670,-132 656.598,-120.746 652.011,-100.735 650.524,-85.8791"/>
<polygon fill="midnightblue" stroke="midnightblue" points="654.008,-85.5186 649.896,-75.7543 647.022,-85.9518 654.008,-85.5186"/>
</g>
<!-- Node7 -->
<g id="node7" class="node"><title>Node7</title>
<polygon fill="white" stroke="#bfbfbf" points="1454,-112.5 1454,-131.5 1502,-131.5 1502,-112.5 1454,-112.5"/>
<text text-anchor="middle" x="1478" y="-119.5" font-family="Helvetica,sans-Serif" font-size="10.00">stdlib.h</text>
</g>
<!-- Node1&#45;&gt;Node7 -->
<g id="edge6" class="edge"><title>Node1&#45;&gt;Node7</title>
<path fill="none" stroke="midnightblue" d="M1064.67,-174.585C1136.22,-169.413 1302.24,-155.761 1440,-132 1441.28,-131.78 1442.58,-131.542 1443.89,-131.291"/>
<polygon fill="midnightblue" stroke="midnightblue" points="1444.91,-134.653 1453.97,-129.164 1443.46,-127.803 1444.91,-134.653"/>
</g>
<!-- Node8 -->
<g id="node8" class="node"><title>Node8</title>
<polygon fill="white" stroke="#bfbfbf" points="1520.5,-112.5 1520.5,-131.5 1569.5,-131.5 1569.5,-112.5 1520.5,-112.5"/>
<text text-anchor="middle" x="1545" y="-119.5" font-family="Helvetica,sans-Serif" font-size="10.00">string.h</text>
</g>
<!-- Node1&#45;&gt;Node8 -->
<g id="edge7" class="edge"><title>Node1&#45;&gt;Node8</title>
<path fill="none" stroke="midnightblue" d="M1064.65,-175.693C1143.38,-172.374 1338.11,-161.796 1510.23,-131.833"/>
<polygon fill="midnightblue" stroke="midnightblue" points="1510.99,-135.253 1520.22,-130.066 1509.77,-128.36 1510.99,-135.253"/>
</g>
<!-- Node9 -->
<g id="node9" class="node"><title>Node9</title>
<polygon fill="white" stroke="#bfbfbf" points="1588,-112.5 1588,-131.5 1648,-131.5 1648,-112.5 1588,-112.5"/>
<text text-anchor="middle" x="1618" y="-119.5" font-family="Helvetica,sans-Serif" font-size="10.00">sys/stat.h</text>
</g>
<!-- Node1&#45;&gt;Node9 -->
<g id="edge8" class="edge"><title>Node1&#45;&gt;Node9</title>
<path fill="none" stroke="midnightblue" d="M1064.52,-175.806C1152.18,-172.486 1385.62,-161.38 1578,-132 1578.1,-131.985 1578.2,-131.969 1578.3,-131.953"/>
<polygon fill="midnightblue" stroke="midnightblue" points="1578.71,-135.435 1587.94,-130.235 1577.49,-128.544 1578.71,-135.435"/>
</g>
<!-- Node10 -->
<g id="node10" class="node"><title>Node10</title>
<polygon fill="white" stroke="#bfbfbf" points="1440,-56.5 1440,-75.5 1484,-75.5 1484,-56.5 1440,-56.5"/>
<text text-anchor="middle" x="1462" y="-63.5" font-family="Helvetica,sans-Serif" font-size="10.00">time.h</text>
</g>
<!-- Node1&#45;&gt;Node10 -->
<g id="edge9" class="edge"><title>Node1&#45;&gt;Node10</title>
<path fill="none" stroke="midnightblue" d="M1064.51,-176.059C1146.85,-173.358 1348.22,-163.621 1407,-132 1427.08,-121.2 1442.92,-99.8236 1452.35,-84.5326"/>
<polygon fill="midnightblue" stroke="midnightblue" points="1455.58,-85.9368 1457.6,-75.5354 1449.54,-82.4098 1455.58,-85.9368"/>
</g>
<!-- Node11 -->
<g id="node11" class="node"><title>Node11</title>
<polygon fill="white" stroke="#bfbfbf" points="337.5,-56.5 337.5,-75.5 388.5,-75.5 388.5,-56.5 337.5,-56.5"/>
<text text-anchor="middle" x="363" y="-63.5" font-family="Helvetica,sans-Serif" font-size="10.00">unistd.h</text>
</g>
<!-- Node1&#45;&gt;Node11 -->
<g id="edge10" class="edge"><title>Node1&#45;&gt;Node11</title>
<path fill="none" stroke="midnightblue" d="M993.284,-177.381C860.627,-178.429 401.612,-178.635 358,-132 346.554,-119.76 350.02,-99.9356 354.978,-85.394"/>
<polygon fill="midnightblue" stroke="midnightblue" points="358.299,-86.5118 358.66,-75.9232 351.775,-83.9754 358.299,-86.5118"/>
</g>
<!-- Node12 -->
<g id="node12" class="node"><title>Node12</title>
<polygon fill="white" stroke="#bfbfbf" points="1666.5,-112.5 1666.5,-131.5 1733.5,-131.5 1733.5,-112.5 1666.5,-112.5"/>
<text text-anchor="middle" x="1700" y="-119.5" font-family="Helvetica,sans-Serif" font-size="10.00">mutt/mutt.h</text>
</g>
<!-- Node1&#45;&gt;Node12 -->
<g id="edge11" class="edge"><title>Node1&#45;&gt;Node12</title>
<path fill="none" stroke="midnightblue" d="M1064.52,-176.069C1160.38,-173.208 1432.2,-162.787 1656,-132 1656.11,-131.985 1656.21,-131.971 1656.32,-131.956"/>
<polygon fill="midnightblue" stroke="midnightblue" points="1657.13,-135.371 1666.44,-130.332 1656.02,-128.46 1657.13,-135.371"/>
</g>
<!-- Node13 -->
<g id="node13" class="node"><title>Node13</title>
<g id="a_node13"><a xlink:href="lib_8h.html" target="_top" xlink:title="Convenience wrapper for the config headers. ">
<polygon fill="white" stroke="red" points="1172,-56.5 1172,-75.5 1236,-75.5 1236,-56.5 1172,-56.5"/>
<text text-anchor="middle" x="1204" y="-63.5" font-family="Helvetica,sans-Serif" font-size="10.00">config/lib.h</text>
</a>
</g>
</g>
<!-- Node1&#45;&gt;Node13 -->
<g id="edge12" class="edge"><title>Node1&#45;&gt;Node13</title>
<path fill="none" stroke="midnightblue" d="M1064.78,-173.97C1115.54,-168.845 1204.48,-156.539 1224,-132 1234.97,-118.205 1226.35,-98.3932 1217.25,-84.2741"/>
<polygon fill="midnightblue" stroke="midnightblue" points="1220.01,-82.1159 1211.4,-75.9383 1214.28,-86.1352 1220.01,-82.1159"/>
</g>
<!-- Node14 -->
<g id="node14" class="node"><title>Node14</title>
<g id="a_node14"><a xlink:href="email_8h.html" target="_top" xlink:title="Structs that make up an email. ">
<polygon fill="white" stroke="red" points="1752,-112.5 1752,-131.5 1826,-131.5 1826,-112.5 1752,-112.5"/>
<text text-anchor="middle" x="1789" y="-119.5" font-family="Helvetica,sans-Serif" font-size="10.00">email/email.h</text>
</a>
</g>
</g>
<!-- Node1&#45;&gt;Node14 -->
<g id="edge13" class="edge"><title>Node1&#45;&gt;Node14</title>
<path fill="none" stroke="midnightblue" d="M1064.76,-176.337C1168.02,-174.084 1475.66,-164.996 1741.63,-131.849"/>
<polygon fill="midnightblue" stroke="midnightblue" points="1742.39,-135.282 1751.87,-130.559 1741.51,-128.337 1742.39,-135.282"/>
</g>
<!-- Node15 -->
<g id="node15" class="node"><title>Node15</title>
<polygon fill="white" stroke="#bfbfbf" points="1844,-112.5 1844,-131.5 1888,-131.5 1888,-112.5 1844,-112.5"/>
<text text-anchor="middle" x="1866" y="-119.5" font-family="Helvetica,sans-Serif" font-size="10.00">mutt.h</text>
</g>
<!-- Node1&#45;&gt;Node15 -->
<g id="edge14" class="edge"><title>Node1&#45;&gt;Node15</title>
<path fill="none" stroke="midnightblue" d="M1064.7,-176.083C1197.6,-172.507 1664.35,-158.445 1833.78,-131.754"/>
<polygon fill="midnightblue" stroke="midnightblue" points="1834.49,-135.184 1843.79,-130.102 1833.35,-128.278 1834.49,-135.184"/>
</g>
<!-- Node16 -->
<g id="node16" class="node"><title>Node16</title>
<g id="a_node16"><a xlink:href="pgp_8h.html" target="_top" xlink:title="PGP sign, encrypt, check routines. ">
<polygon fill="white" stroke="black" points="503.5,-112.5 503.5,-131.5 544.5,-131.5 544.5,-112.5 503.5,-112.5"/>
<text text-anchor="middle" x="524" y="-119.5" font-family="Helvetica,sans-Serif" font-size="10.00">pgp.h</text>
</a>
</g>
</g>
<!-- Node1&#45;&gt;Node16 -->
<g id="edge15" class="edge"><title>Node1&#45;&gt;Node16</title>
<path fill="none" stroke="midnightblue" d="M993.203,-176.012C915.081,-173.344 723.467,-164.014 554.346,-131.649"/>
<polygon fill="midnightblue" stroke="midnightblue" points="555.008,-128.212 544.523,-129.738 553.671,-135.083 555.008,-128.212"/>
</g>
<!-- Node17 -->
<g id="node17" class="node"><title>Node17</title>
<g id="a_node17"><a xlink:href="crypt_8h.html" target="_top" xlink:title="Signing/encryption multiplexor. ">
<polygon fill="white" stroke="black" points="985.5,-56.5 985.5,-75.5 1032.5,-75.5 1032.5,-56.5 985.5,-56.5"/>
<text text-anchor="middle" x="1009" y="-63.5" font-family="Helvetica,sans-Serif" font-size="10.00">crypt.h</text>
</a>
</g>
</g>
<!-- Node1&#45;&gt;Node17 -->
<g id="edge18" class="edge"><title>Node1&#45;&gt;Node17</title>
<path fill="none" stroke="midnightblue" d="M1041.08,-168.479C1056.7,-156.343 1080.7,-133.199 1070,-112 1063.19,-98.5199 1050.23,-88.083 1038,-80.6696"/>
<polygon fill="midnightblue" stroke="midnightblue" points="1039.34,-77.4099 1028.91,-75.5896 1035.93,-83.5214 1039.34,-77.4099"/>
</g>
<!-- Node18 -->
<g id="node18" class="node"><title>Node18</title>
<g id="a_node18"><a xlink:href="cryptglue_8h.html" target="_top" xlink:title="Wrapper around crypto functions. ">
<polygon fill="white" stroke="black" points="1050.5,-56.5 1050.5,-75.5 1115.5,-75.5 1115.5,-56.5 1050.5,-56.5"/>
<text text-anchor="middle" x="1083" y="-63.5" font-family="Helvetica,sans-Serif" font-size="10.00">cryptglue.h</text>
</a>
</g>
</g>
<!-- Node1&#45;&gt;Node18 -->
<g id="edge20" class="edge"><title>Node1&#45;&gt;Node18</title>
<path fill="none" stroke="midnightblue" d="M1046.5,-168.465C1059.79,-160.917 1077.08,-148.533 1085,-132 1091.94,-117.524 1090.55,-99.0764 1087.95,-85.5349"/>
<polygon fill="midnightblue" stroke="midnightblue" points="1091.29,-84.4637 1085.63,-75.5089 1084.47,-86.0403 1091.29,-84.4637"/>
</g>
<!-- Node19 -->
<g id="node19" class="node"><title>Node19</title>
<g id="a_node19"><a xlink:href="curs__lib_8h.html" target="_top" xlink:title="GUI miscellaneous curses (window drawing) routines. ">
<polygon fill="white" stroke="red" points="562.5,-112.5 562.5,-131.5 621.5,-131.5 621.5,-112.5 562.5,-112.5"/>
<text text-anchor="middle" x="592" y="-119.5" font-family="Helvetica,sans-Serif" font-size="10.00">curs_lib.h</text>
</a>
</g>
</g>
<!-- Node1&#45;&gt;Node19 -->
<g id="edge22" class="edge"><title>Node1&#45;&gt;Node19</title>
<path fill="none" stroke="midnightblue" d="M993.362,-173.975C924.202,-167.873 767.064,-152.867 636,-132 634.556,-131.77 633.088,-131.526 631.606,-131.27"/>
<polygon fill="midnightblue" stroke="midnightblue" points="632.226,-127.825 621.757,-129.455 630.958,-134.709 632.226,-127.825"/>
</g>
<!-- Node20 -->
<g id="node20" class="node"><title>Node20</title>
<g id="a_node20"><a xlink:href="filter_8h.html" target="_top" xlink:title="Pass files through external commands (filters) ">
<polygon fill="white" stroke="black" points="367,-112.5 367,-131.5 411,-131.5 411,-112.5 367,-112.5"/>
<text text-anchor="middle" x="389" y="-119.5" font-family="Helvetica,sans-Serif" font-size="10.00">filter.h</text>
</a>
</g>
</g>
<!-- Node1&#45;&gt;Node20 -->
<g id="edge25" class="edge"><title>Node1&#45;&gt;Node20</title>
<path fill="none" stroke="midnightblue" d="M993.322,-176.952C900.323,-176.28 642.89,-170.911 421.087,-131.819"/>
<polygon fill="midnightblue" stroke="midnightblue" points="421.679,-128.369 411.219,-130.053 420.446,-135.26 421.679,-128.369"/>
</g>
<!-- Node21 -->
<g id="node21" class="node"><title>Node21</title>
<g id="a_node21"><a xlink:href="globals_8h.html" target="_top" xlink:title="Hundreds of global variables to back the user variables. ">
<polygon fill="white" stroke="red" points="1160,-112.5 1160,-131.5 1216,-131.5 1216,-112.5 1160,-112.5"/>
<text text-anchor="middle" x="1188" y="-119.5" font-family="Helvetica,sans-Serif" font-size="10.00">globals.h</text>
</a>
</g>
</g>
<!-- Node1&#45;&gt;Node21 -->
<g id="edge28" class="edge"><title>Node1&#45;&gt;Node21</title>
<path fill="none" stroke="midnightblue" d="M1054.19,-168.444C1080.94,-159.359 1123.4,-144.939 1153.31,-134.783"/>
<polygon fill="midnightblue" stroke="midnightblue" points="1154.58,-138.046 1162.92,-131.516 1152.33,-131.418 1154.58,-138.046"/>
</g>
<!-- Node22 -->
<g id="node22" class="node"><title>Node22</title>
<g id="a_node22"><a xlink:href="handler_8h.html" target="_top" xlink:title="Decide how to display email content. ">
<polygon fill="white" stroke="red" points="1254,-56.5 1254,-75.5 1310,-75.5 1310,-56.5 1254,-56.5"/>
<text text-anchor="middle" x="1282" y="-63.5" font-family="Helvetica,sans-Serif" font-size="10.00">handler.h</text>
</a>
</g>
</g>
<!-- Node1&#45;&gt;Node22 -->
<g id="edge31" class="edge"><title>Node1&#45;&gt;Node22</title>
<path fill="none" stroke="midnightblue" d="M1064.72,-177.466C1109.5,-176.357 1186.81,-168.675 1240,-132 1256.72,-120.475 1268.33,-99.9048 1275.05,-84.9856"/>
<polygon fill="midnightblue" stroke="midnightblue" points="1278.28,-86.3164 1278.91,-75.7402 1271.82,-83.6158 1278.28,-86.3164"/>
</g>
<!-- Node23 -->
<g id="node23" class="node"><title>Node23</title>
<g id="a_node23"><a xlink:href="hook_8h.html" target="_top" xlink:title="Parse and execute user&#45;defined hooks. ">
<polygon fill="white" stroke="black" points="744,-112.5 744,-131.5 790,-131.5 790,-112.5 744,-112.5"/>
<text text-anchor="middle" x="767" y="-119.5" font-family="Helvetica,sans-Serif" font-size="10.00">hook.h</text>
</a>
</g>
</g>
<!-- Node1&#45;&gt;Node23 -->
<g id="edge33" class="edge"><title>Node1&#45;&gt;Node23</title>
<path fill="none" stroke="midnightblue" d="M993.13,-170.779C947.902,-162.746 867.852,-147.897 800,-132 799.899,-131.976 799.797,-131.952 799.696,-131.929"/>
<polygon fill="midnightblue" stroke="midnightblue" points="800.576,-128.541 790.025,-129.507 798.875,-135.331 800.576,-128.541"/>
</g>
<!-- Node24 -->
<g id="node24" class="node"><title>Node24</title>
<g id="a_node24"><a xlink:href="mutt__attach_8h.html" target="_top" xlink:title="Handling of email attachments. ">
<polygon fill="white" stroke="black" points="808.5,-112.5 808.5,-131.5 885.5,-131.5 885.5,-112.5 808.5,-112.5"/>
<text text-anchor="middle" x="847" y="-119.5" font-family="Helvetica,sans-Serif" font-size="10.00">mutt_attach.h</text>
</a>
</g>
</g>
<!-- Node1&#45;&gt;Node24 -->
<g id="edge36" class="edge"><title>Node1&#45;&gt;Node24</title>
<path fill="none" stroke="midnightblue" d="M1000.16,-168.444C969.144,-159.241 919.671,-144.562 885.382,-134.388"/>
<polygon fill="midnightblue" stroke="midnightblue" points="886.286,-131.006 875.704,-131.516 884.295,-137.716 886.286,-131.006"/>
</g>
<!-- Node25 -->
<g id="node25" class="node"><title>Node25</title>
<g id="a_node25"><a xlink:href="muttlib_8h.html" target="_top" xlink:title="Some miscellaneous functions. ">
<polygon fill="white" stroke="red" points="904,-112.5 904,-131.5 958,-131.5 958,-112.5 904,-112.5"/>
<text text-anchor="middle" x="931" y="-119.5" font-family="Helvetica,sans-Serif" font-size="10.00">muttlib.h</text>
</a>
</g>
</g>
<!-- Node1&#45;&gt;Node25 -->
<g id="edge39" class="edge"><title>Node1&#45;&gt;Node25</title>
<path fill="none" stroke="midnightblue" d="M1013.25,-168.324C997.681,-159.743 973.623,-146.486 955.541,-136.522"/>
<polygon fill="midnightblue" stroke="midnightblue" points="957.154,-133.415 946.706,-131.655 953.776,-139.546 957.154,-133.415"/>
</g>
<!-- Node26 -->
<g id="node26" class="node"><title>Node26</title>
<g id="a_node26"><a xlink:href="ncrypt_8h.html" target="_top" xlink:title="API for encryption/signing of emails. ">
<polygon fill="white" stroke="black" points="976,-112.5 976,-131.5 1028,-131.5 1028,-112.5 976,-112.5"/>
<text text-anchor="middle" x="1002" y="-119.5" font-family="Helvetica,sans-Serif" font-size="10.00">ncrypt.h</text>
</a>
</g>
</g>
<!-- Node1&#45;&gt;Node26 -->
<g id="edge42" class="edge"><title>Node1&#45;&gt;Node26</title>
<path fill="none" stroke="midnightblue" d="M1024.54,-168.083C1020.85,-160.691 1015.48,-149.953 1010.91,-140.811"/>
<polygon fill="midnightblue" stroke="midnightblue" points="1013.98,-139.13 1006.38,-131.751 1007.72,-142.261 1013.98,-139.13"/>
</g>
<!-- Node27 -->
<g id="node27" class="node"><title>Node27</title>
<g id="a_node27"><a xlink:href="options_8h.html" target="_top" xlink:title="Handling of global boolean variables. ">
<polygon fill="white" stroke="red" points="1328,-56.5 1328,-75.5 1384,-75.5 1384,-56.5 1328,-56.5"/>
<text text-anchor="middle" x="1356" y="-63.5" font-family="Helvetica,sans-Serif" font-size="10.00">options.h</text>
</a>
</g>
</g>
<!-- Node1&#45;&gt;Node27 -->
<g id="edge45" class="edge"><title>Node1&#45;&gt;Node27</title>
<path fill="none" stroke="midnightblue" d="M1064.83,-174.769C1111.94,-170.808 1196.51,-160.112 1263,-132 1292,-119.739 1321.04,-97.4479 1338.77,-82.4326"/>
<polygon fill="midnightblue" stroke="midnightblue" points="1341.25,-84.9161 1346.51,-75.7217 1336.66,-79.6264 1341.25,-84.9161"/>
</g>
<!-- Node28 -->
<g id="node28" class="node"><title>Node28</title>
<g id="a_node28"><a xlink:href="pgpinvoke_8h.html" target="_top" xlink:title="Wrapper around calls to external PGP program. ">
<polygon fill="white" stroke="black" points="241.5,-112.5 241.5,-131.5 310.5,-131.5 310.5,-112.5 241.5,-112.5"/>
<text text-anchor="middle" x="276" y="-119.5" font-family="Helvetica,sans-Serif" font-size="10.00">pgpinvoke.h</text>
</a>
</g>
</g>
<!-- Node1&#45;&gt;Node28 -->
<g id="edge47" class="edge"><title>Node1&#45;&gt;Node28</title>
<path fill="none" stroke="midnightblue" d="M993.333,-176.204C889.724,-173.573 579.952,-163.451 325,-132 323.696,-131.839 322.375,-131.666 321.042,-131.482"/>
<polygon fill="midnightblue" stroke="midnightblue" points="321.136,-127.955 310.721,-129.899 320.075,-134.874 321.136,-127.955"/>
</g>
<!-- Node29 -->
<g id="node29" class="node"><title>Node29</title>
<g id="a_node29"><a xlink:href="pgpkey_8h.html" target="_top" xlink:title="PGP key management routines. ">
<polygon fill="white" stroke="black" points="225,-56.5 225,-75.5 281,-75.5 281,-56.5 225,-56.5"/>
<text text-anchor="middle" x="253" y="-63.5" font-family="Helvetica,sans-Serif" font-size="10.00">pgpkey.h</text>
</a>
</g>
</g>
<!-- Node1&#45;&gt;Node29 -->
<g id="edge53" class="edge"><title>Node1&#45;&gt;Node29</title>
<path fill="none" stroke="midnightblue" d="M993.499,-176.339C842.297,-173.355 258.506,-160.045 232,-132 219.588,-118.867 229.391,-98.3398 239.362,-83.8733"/>
<polygon fill="midnightblue" stroke="midnightblue" points="242.231,-85.8809 245.394,-75.7694 236.615,-81.7011 242.231,-85.8809"/>
</g>
<!-- Node30 -->
<g id="node30" class="node"><title>Node30</title>
<g id="a_node30"><a xlink:href="pgplib_8h.html" target="_top" xlink:title="Misc PGP helper routines. ">
<polygon fill="white" stroke="black" points="1348,-112.5 1348,-131.5 1398,-131.5 1398,-112.5 1348,-112.5"/>
<text text-anchor="middle" x="1373" y="-119.5" font-family="Helvetica,sans-Serif" font-size="10.00">pgplib.h</text>
</a>
</g>
</g>
<!-- Node1&#45;&gt;Node30 -->
<g id="edge54" class="edge"><title>Node1&#45;&gt;Node30</title>
<path fill="none" stroke="midnightblue" d="M1064.84,-172.66C1122,-165.527 1237.23,-150.275 1334,-132 1335.27,-131.761 1336.56,-131.509 1337.86,-131.247"/>
<polygon fill="midnightblue" stroke="midnightblue" points="1338.84,-134.617 1347.89,-129.108 1337.38,-127.771 1338.84,-134.617"/>
</g>
<!-- Node31 -->
<g id="node31" class="node"><title>Node31</title>
<g id="a_node31"><a xlink:href="pgpmicalg_8h.html" target="_top" xlink:title="Identify the hash algorithm from a PGP signature. ">
<polygon fill="white" stroke="black" points="1906.5,-112.5 1906.5,-131.5 1975.5,-131.5 1975.5,-112.5 1906.5,-112.5"/>
<text text-anchor="middle" x="1941" y="-119.5" font-family="Helvetica,sans-Serif" font-size="10.00">pgpmicalg.h</text>
</a>
</g>
</g>
<!-- Node1&#45;&gt;Node31 -->
<g id="edge57" class="edge"><title>Node1&#45;&gt;Node31</title>
<path fill="none" stroke="midnightblue" d="M1064.67,-177.004C1183.31,-176.622 1575.21,-172.188 1896,-132 1896.1,-131.987 1896.21,-131.974 1896.31,-131.961"/>
<polygon fill="midnightblue" stroke="midnightblue" points="1896.83,-135.423 1906.2,-130.481 1895.79,-128.5 1896.83,-135.423"/>
</g>
<!-- Node32 -->
<g id="node32" class="node"><title>Node32</title>
<g id="a_node32"><a xlink:href="sendlib_8h.html" target="_top" xlink:title="Miscellaneous functions for sending an email. ">
<polygon fill="white" stroke="black" points="429,-112.5 429,-131.5 485,-131.5 485,-112.5 429,-112.5"/>
<text text-anchor="middle" x="457" y="-119.5" font-family="Helvetica,sans-Serif" font-size="10.00">sendlib.h</text>
</a>
</g>
</g>
<!-- Node1&#45;&gt;Node32 -->
<g id="edge58" class="edge"><title>Node1&#45;&gt;Node32</title>
<path fill="none" stroke="midnightblue" d="M993.476,-175.829C907.445,-172.598 681.273,-161.739 495,-132 494.9,-131.984 494.799,-131.968 494.698,-131.952"/>
<polygon fill="midnightblue" stroke="midnightblue" points="495.603,-128.56 485.129,-130.153 494.31,-135.44 495.603,-128.56"/>
</g>
<!-- Node33 -->
<g id="node33" class="node"><title>Node33</title>
<g id="a_node33"><a xlink:href="state_8h.html" target="_top" xlink:title="Keep track when processing files. ">
<polygon fill="white" stroke="black" points="678.5,-112.5 678.5,-131.5 725.5,-131.5 725.5,-112.5 678.5,-112.5"/>
<text text-anchor="middle" x="702" y="-119.5" font-family="Helvetica,sans-Serif" font-size="10.00">state.h</text>
</a>
</g>
</g>
<!-- Node1&#45;&gt;Node33 -->
<g id="edge61" class="edge"><title>Node1&#45;&gt;Node33</title>
<path fill="none" stroke="midnightblue" d="M993.464,-172.894C939.741,-166.396 834.502,-152.543 735.574,-131.901"/>
<polygon fill="midnightblue" stroke="midnightblue" points="736.222,-128.46 725.714,-129.816 734.773,-135.309 736.222,-128.46"/>
</g>
<!-- Node16&#45;&gt;Node5 -->
<g id="edge16" class="edge"><title>Node16&#45;&gt;Node5</title>
<path fill="none" stroke="midnightblue" d="M531.226,-112.083C543.486,-97.6392 569.886,-69.3964 599,-56 686.846,-15.5794 802.923,-9.9533 861.971,-10.0309"/>
<polygon fill="midnightblue" stroke="midnightblue" points="861.948,-13.5307 871.972,-10.1003 861.997,-6.53089 861.948,-13.5307"/>
</g>
<!-- Node16&#45;&gt;Node6 -->
<g id="edge17" class="edge"><title>Node16&#45;&gt;Node6</title>
<path fill="none" stroke="midnightblue" d="M543.965,-112.444C564.609,-103.596 597.063,-89.6875 620.632,-79.5865"/>
<polygon fill="midnightblue" stroke="midnightblue" points="622.316,-82.6727 630.128,-75.5164 619.558,-76.2387 622.316,-82.6727"/>
</g>
<!-- Node17&#45;&gt;Node5 -->
<g id="edge19" class="edge"><title>Node17&#45;&gt;Node5</title>
<path fill="none" stroke="midnightblue" d="M991.487,-56.324C973.928,-47.6247 946.669,-34.1202 926.469,-24.113"/>
<polygon fill="midnightblue" stroke="midnightblue" points="927.984,-20.9575 917.469,-19.6545 924.876,-27.23 927.984,-20.9575"/>
</g>
<!-- Node18&#45;&gt;Node5 -->
<g id="edge21" class="edge"><title>Node18&#45;&gt;Node5</title>
<path fill="none" stroke="midnightblue" d="M1054,-56.4435C1022.63,-47.1865 972.484,-32.3888 937.986,-22.2089"/>
<polygon fill="midnightblue" stroke="midnightblue" points="938.842,-18.8123 928.26,-19.339 936.86,-25.5261 938.842,-18.8123"/>
</g>
<!-- Node19&#45;&gt;Node5 -->
<g id="edge23" class="edge"><title>Node19&#45;&gt;Node5</title>
<path fill="none" stroke="midnightblue" d="M592.808,-112.244C594.617,-98.0315 600.341,-70.1138 618,-56 654.946,-26.4724 793.458,-15.9625 861.623,-12.5242"/>
<polygon fill="midnightblue" stroke="midnightblue" points="862.112,-16.0049 871.933,-12.0313 861.777,-9.01293 862.112,-16.0049"/>
</g>
<!-- Node19&#45;&gt;Node6 -->
<g id="edge24" class="edge"><title>Node19&#45;&gt;Node6</title>
<path fill="none" stroke="midnightblue" d="M601.319,-112.324C609.893,-104.341 622.812,-92.3128 633.188,-82.6529"/>
<polygon fill="midnightblue" stroke="midnightblue" points="635.578,-85.2098 640.512,-75.8339 630.808,-80.0865 635.578,-85.2098"/>
</g>
<!-- Node20&#45;&gt;Node6 -->
<g id="edge26" class="edge"><title>Node20&#45;&gt;Node6</title>
<path fill="none" stroke="midnightblue" d="M411.287,-114.271C414.207,-113.466 417.168,-112.687 420,-112 489.37,-95.1795 571.677,-80.2797 616.611,-72.5675"/>
<polygon fill="midnightblue" stroke="midnightblue" points="617.402,-75.9834 626.672,-70.8539 616.226,-69.0828 617.402,-75.9834"/>
</g>
<!-- Node20&#45;&gt;Node11 -->
<g id="edge27" class="edge"><title>Node20&#45;&gt;Node11</title>
<path fill="none" stroke="midnightblue" d="M384.707,-112.083C381.148,-104.691 375.978,-93.9533 371.576,-84.8111"/>
<polygon fill="midnightblue" stroke="midnightblue" points="374.705,-83.2427 367.213,-75.7511 368.398,-86.2795 374.705,-83.2427"/>
</g>
<!-- Node21&#45;&gt;Node5 -->
<g id="edge29" class="edge"><title>Node21&#45;&gt;Node5</title>
<path fill="none" stroke="midnightblue" d="M1182.07,-112.221C1171.96,-97.9752 1149.91,-70.0109 1124,-56 1064.6,-23.8809 985.145,-14.5801 938.575,-11.9531"/>
<polygon fill="midnightblue" stroke="midnightblue" points="938.474,-8.44412 928.316,-11.453 938.134,-15.4358 938.474,-8.44412"/>
</g>
<!-- Node21&#45;&gt;Node13 -->
<g id="edge30" class="edge"><title>Node21&#45;&gt;Node13</title>
<path fill="none" stroke="midnightblue" d="M1190.64,-112.083C1192.79,-104.849 1195.88,-94.4087 1198.55,-85.3968"/>
<polygon fill="midnightblue" stroke="midnightblue" points="1201.92,-86.3334 1201.41,-75.7511 1195.21,-84.3447 1201.92,-86.3334"/>
</g>
<!-- Node22&#45;&gt;Node5 -->
<g id="edge32" class="edge"><title>Node22&#45;&gt;Node5</title>
<path fill="none" stroke="midnightblue" d="M1253.79,-57.8021C1250.83,-57.1481 1247.86,-56.5327 1245,-56 1134.47,-35.4116 1002.28,-20.9725 938.362,-14.6249"/>
<polygon fill="midnightblue" stroke="midnightblue" points="938.632,-11.1347 928.337,-13.6404 937.947,-18.1012 938.632,-11.1347"/>
</g>
<!-- Node23&#45;&gt;Node5 -->
<g id="edge34" class="edge"><title>Node23&#45;&gt;Node5</title>
<path fill="none" stroke="midnightblue" d="M777.436,-112.368C799.968,-93.7334 853.411,-49.5324 881.702,-26.1338"/>
<polygon fill="midnightblue" stroke="midnightblue" points="884.137,-28.6618 889.612,-19.5914 879.676,-23.2677 884.137,-28.6618"/>
</g>
<!-- Node23&#45;&gt;Node6 -->
<g id="edge35" class="edge"><title>Node23&#45;&gt;Node6</title>
<path fill="none" stroke="midnightblue" d="M748.461,-112.444C729.377,-103.636 699.425,-89.8116 677.564,-79.722"/>
<polygon fill="midnightblue" stroke="midnightblue" points="678.999,-76.5292 668.452,-75.5164 676.065,-82.8849 678.999,-76.5292"/>
</g>
<!-- Node24&#45;&gt;Node5 -->
<g id="edge37" class="edge"><title>Node24&#45;&gt;Node5</title>
<path fill="none" stroke="midnightblue" d="M851.159,-112.368C859.828,-94.376 879.98,-52.5503 891.507,-28.6267"/>
<polygon fill="midnightblue" stroke="midnightblue" points="894.673,-30.1195 895.86,-19.5914 888.367,-27.081 894.673,-30.1195"/>
</g>
<!-- Node24&#45;&gt;Node6 -->
<g id="edge38" class="edge"><title>Node24&#45;&gt;Node6</title>
<path fill="none" stroke="midnightblue" d="M815.785,-112.444C779.489,-102.494 719.844,-86.145 682.859,-76.0072"/>
<polygon fill="midnightblue" stroke="midnightblue" points="683.637,-72.5912 673.067,-73.323 681.786,-79.3421 683.637,-72.5912"/>
</g>
<!-- Node25&#45;&gt;Node5 -->
<g id="edge40" class="edge"><title>Node25&#45;&gt;Node5</title>
<path fill="none" stroke="midnightblue" d="M924.341,-112.252C918.133,-103.568 909.218,-89.6178 905,-76 900.338,-60.9485 899.268,-43.0444 899.262,-29.8417"/>
<polygon fill="midnightblue" stroke="midnightblue" points="902.765,-29.7077 899.467,-19.6394 895.767,-29.5671 902.765,-29.7077"/>
</g>
<!-- Node25&#45;&gt;Node6 -->
<g id="edge41" class="edge"><title>Node25&#45;&gt;Node6</title>
<path fill="none" stroke="midnightblue" d="M903.962,-114.237C900.614,-113.455 897.232,-112.691 894,-112 819.003,-95.9763 730.309,-80.4757 683.241,-72.5205"/>
<polygon fill="midnightblue" stroke="midnightblue" points="683.742,-69.0557 673.3,-70.848 682.581,-75.9587 683.742,-69.0557"/>
</g>
<!-- Node26&#45;&gt;Node5 -->
<g id="edge43" class="edge"><title>Node26&#45;&gt;Node5</title>
<path fill="none" stroke="midnightblue" d="M988.308,-112.485C975.632,-104.178 956.725,-90.6793 943,-76 929.466,-61.5256 917.344,-42.3392 909.448,-28.5693"/>
<polygon fill="midnightblue" stroke="midnightblue" points="912.404,-26.6836 904.486,-19.6448 906.287,-30.0854 912.404,-26.6836"/>
</g>
<!-- Node26&#45;&gt;Node6 -->
<g id="edge44" class="edge"><title>Node26&#45;&gt;Node6</title>
<path fill="none" stroke="midnightblue" d="M975.698,-113.904C972.774,-113.214 969.831,-112.563 967,-112 864.352,-91.5818 741.222,-76.8562 683.262,-70.4944"/>
<polygon fill="midnightblue" stroke="midnightblue" points="683.537,-67.0038 673.218,-69.4043 682.782,-73.9629 683.537,-67.0038"/>
</g>
<!-- Node27&#45;&gt;Node5 -->
<g id="edge46" class="edge"><title>Node27&#45;&gt;Node5</title>
<path fill="none" stroke="midnightblue" d="M1327.86,-57.9203C1324.55,-57.2106 1321.21,-56.5502 1318,-56 1179.15,-32.1805 1012.07,-18.6989 938.251,-13.5064"/>
<polygon fill="midnightblue" stroke="midnightblue" points="938.269,-9.99933 928.051,-12.8002 937.785,-16.9826 938.269,-9.99933"/>
</g>
<!-- Node28&#45;&gt;Node5 -->
<g id="edge48" class="edge"><title>Node28&#45;&gt;Node5</title>
<path fill="none" stroke="midnightblue" d="M279.976,-112.371C287.203,-97.813 303.993,-68.7212 328,-56 374.938,-31.1272 740.797,-16.4612 861.505,-12.2617"/>
<polygon fill="midnightblue" stroke="midnightblue" points="861.875,-15.7511 871.749,-11.91 861.635,-8.75523 861.875,-15.7511"/>
</g>
<!-- Node28&#45;&gt;Node6 -->
<g id="edge49" class="edge"><title>Node28&#45;&gt;Node6</title>
<path fill="none" stroke="midnightblue" d="M310.515,-116.017C382.068,-105.685 545.786,-82.0469 616.478,-71.84"/>
<polygon fill="midnightblue" stroke="midnightblue" points="617.207,-75.2711 626.605,-70.3779 616.207,-68.343 617.207,-75.2711"/>
</g>
<!-- Node28&#45;&gt;Node11 -->
<g id="edge50" class="edge"><title>Node28&#45;&gt;Node11</title>
<path fill="none" stroke="midnightblue" d="M289.978,-112.324C303.55,-103.9 324.38,-90.9709 340.325,-81.0741"/>
<polygon fill="midnightblue" stroke="midnightblue" points="342.406,-83.9019 349.057,-75.6545 338.714,-77.9544 342.406,-83.9019"/>
</g>
<!-- Node28&#45;&gt;Node29 -->
<g id="edge51" class="edge"><title>Node28&#45;&gt;Node29</title>
<path fill="none" stroke="midnightblue" d="M272.202,-112.083C269.087,-104.77 264.577,-94.1814 260.711,-85.1034"/>
<polygon fill="midnightblue" stroke="midnightblue" points="263.866,-83.5798 256.727,-75.7511 257.426,-86.3229 263.866,-83.5798"/>
</g>
<!-- Node29&#45;&gt;Node5 -->
<g id="edge52" class="edge"><title>Node29&#45;&gt;Node5</title>
<path fill="none" stroke="midnightblue" d="M281.372,-58.3702C285.911,-57.4685 290.571,-56.6362 295,-56 507.783,-25.435 765.832,-15.0034 861.719,-12.03"/>
<polygon fill="midnightblue" stroke="midnightblue" points="861.918,-15.5257 871.808,-11.7264 861.708,-8.52884 861.918,-15.5257"/>
</g>
<!-- Node30&#45;&gt;Node5 -->
<g id="edge55" class="edge"><title>Node30&#45;&gt;Node5</title>
<path fill="none" stroke="midnightblue" d="M1380.12,-112.259C1390.39,-98.5668 1406.58,-71.9781 1392,-56 1361.58,-22.6668 1048.65,-13.7268 938.279,-11.6009"/>
<polygon fill="midnightblue" stroke="midnightblue" points="938.31,-8.101 928.247,-11.4159 938.181,-15.0998 938.31,-8.101"/>
</g>
<!-- Node30&#45;&gt;Node10 -->
<g id="edge56" class="edge"><title>Node30&#45;&gt;Node10</title>
<path fill="none" stroke="midnightblue" d="M1387.3,-112.324C1401.18,-103.9 1422.49,-90.9709 1438.8,-81.0741"/>
<polygon fill="midnightblue" stroke="midnightblue" points="1441,-83.8341 1447.74,-75.6545 1437.37,-77.8495 1441,-83.8341"/>
</g>
<!-- Node32&#45;&gt;Node5 -->
<g id="edge59" class="edge"><title>Node32&#45;&gt;Node5</title>
<path fill="none" stroke="midnightblue" d="M467.893,-112.334C486.558,-97.9909 526.388,-69.5568 565,-56 667.849,-19.8896 797.82,-12.4903 861.404,-11.1486"/>
<polygon fill="midnightblue" stroke="midnightblue" points="861.815,-14.6421 871.754,-10.9721 861.696,-7.64315 861.815,-14.6421"/>
</g>
<!-- Node32&#45;&gt;Node6 -->
<g id="edge60" class="edge"><title>Node32&#45;&gt;Node6</title>
<path fill="none" stroke="midnightblue" d="M485.064,-113.148C520.04,-103.362 579.727,-86.6618 616.9,-76.2612"/>
<polygon fill="midnightblue" stroke="midnightblue" points="618.061,-79.5708 626.748,-73.5057 616.175,-72.8297 618.061,-79.5708"/>
</g>
<!-- Node33&#45;&gt;Node6 -->
<g id="edge62" class="edge"><title>Node33&#45;&gt;Node6</title>
<path fill="none" stroke="midnightblue" d="M693.413,-112.083C685.841,-104.22 674.622,-92.5688 665.486,-83.0813"/>
<polygon fill="midnightblue" stroke="midnightblue" points="667.885,-80.5266 658.427,-75.7511 662.842,-85.3821 667.885,-80.5266"/>
</g>
</g>
</svg>
