<?xml version="1.0" encoding="UTF-8" standalone="no"?>
<!DOCTYPE svg PUBLIC "-//W3C//DTD SVG 1.1//EN"
 "http://www.w3.org/Graphics/SVG/1.1/DTD/svg11.dtd">
<!-- Generated by graphviz version 2.36.0 (20140111.2315)
 -->
<!-- Title: pgp_fpr_or_lkeyid Pages: 1 -->
<svg width="222pt" height="66pt"
 viewBox="0.00 0.00 222.00 66.00" xmlns="http://www.w3.org/2000/svg" xmlns:xlink="http://www.w3.org/1999/xlink">
<g id="graph0" class="graph" transform="scale(1 1) rotate(0) translate(4 62)">
<title>pgp_fpr_or_lkeyid</title>
<polygon fill="white" stroke="none" points="-4,4 -4,-62 218,-62 218,4 -4,4"/>
<!-- Node1 -->
<g id="node1" class="node"><title>Node1</title>
<polygon fill="#bfbfbf" stroke="black" points="0.5,-19.5 0.5,-38.5 93.5,-38.5 93.5,-19.5 0.5,-19.5"/>
<text text-anchor="middle" x="47" y="-26.5" font-family="Helvetica,sans-Serif" font-size="10.00">pgp_fpr_or_lkeyid</text>
</g>
<!-- Node2 -->
<g id="node2" class="node"><title>Node2</title>
<g id="a_node2"><a xlink:href="pgp_8c.html#a55180f9471e4370e739009e9edc54ed8" target="_top" xlink:title="Get the key&#39;s fingerprint. ">
<polygon fill="white" stroke="red" points="132,-38.5 132,-57.5 212,-57.5 212,-38.5 132,-38.5"/>
<text text-anchor="middle" x="172" y="-45.5" font-family="Helvetica,sans-Serif" font-size="10.00">pgp_fingerprint</text>
</a>
</g>
</g>
<!-- Node1&#45;&gt;Node2 -->
<g id="edge1" class="edge"><title>Node1&#45;&gt;Node2</title>
<path fill="none" stroke="midnightblue" d="M93.8007,-36.0749C102.833,-37.4701 112.349,-38.94 121.496,-40.3531"/>
<polygon fill="midnightblue" stroke="midnightblue" points="121.205,-43.8495 131.622,-41.9172 122.274,-36.9316 121.205,-43.8495"/>
</g>
<!-- Node3 -->
<g id="node3" class="node"><title>Node3</title>
<g id="a_node3"><a xlink:href="pgp_8c.html#a601c1b63edd63064e681212ea73b9c29" target="_top" xlink:title="Get a key&#39;s long id. ">
<polygon fill="white" stroke="red" points="130,-0.5 130,-19.5 214,-19.5 214,-0.5 130,-0.5"/>
<text text-anchor="middle" x="172" y="-7.5" font-family="Helvetica,sans-Serif" font-size="10.00">pgp_long_keyid</text>
</a>
</g>
</g>
<!-- Node1&#45;&gt;Node3 -->
<g id="edge2" class="edge"><title>Node1&#45;&gt;Node3</title>
<path fill="none" stroke="midnightblue" d="M93.8007,-21.9251C102.244,-20.6208 111.111,-19.2511 119.705,-17.9236"/>
<polygon fill="midnightblue" stroke="midnightblue" points="120.277,-21.3768 129.626,-16.3912 119.209,-14.4589 120.277,-21.3768"/>
</g>
</g>
</svg>
