<?xml version="1.0" encoding="UTF-8" standalone="no"?>
<!DOCTYPE svg PUBLIC "-//W3C//DTD SVG 1.1//EN"
 "http://www.w3.org/Graphics/SVG/1.1/DTD/svg11.dtd">
<!-- Generated by graphviz version 2.36.0 (20140111.2315)
 -->
<!-- Title: pgp_class_verify_one Pages: 1 -->
<svg width="398pt" height="332pt"
 viewBox="0.00 0.00 398.00 332.00" xmlns="http://www.w3.org/2000/svg" xmlns:xlink="http://www.w3.org/1999/xlink">
<g id="graph0" class="graph" transform="scale(1 1) rotate(0) translate(4 328)">
<title>pgp_class_verify_one</title>
<polygon fill="white" stroke="none" points="-4,4 -4,-328 394,-328 394,4 -4,4"/>
<!-- Node1 -->
<g id="node1" class="node"><title>Node1</title>
<polygon fill="#bfbfbf" stroke="black" points="0.5,-152.5 0.5,-171.5 111.5,-171.5 111.5,-152.5 0.5,-152.5"/>
<text text-anchor="middle" x="56" y="-159.5" font-family="Helvetica,sans-Serif" font-size="10.00">pgp_class_verify_one</text>
</g>
<!-- Node2 -->
<g id="node2" class="node"><title>Node2</title>
<g id="a_node2"><a xlink:href="file_8c.html#ae1c0c19fec03274220b3ca065ad1e2e5" target="_top" xlink:title="Call fopen() safely. ">
<polygon fill="white" stroke="red" points="161.5,-304.5 161.5,-323.5 244.5,-323.5 244.5,-304.5 161.5,-304.5"/>
<text text-anchor="middle" x="203" y="-311.5" font-family="Helvetica,sans-Serif" font-size="10.00">mutt_file_fopen</text>
</a>
</g>
</g>
<!-- Node1&#45;&gt;Node2 -->
<g id="edge1" class="edge"><title>Node1&#45;&gt;Node2</title>
<path fill="none" stroke="midnightblue" d="M60.9783,-171.575C71.5169,-195.801 102.499,-260.083 148,-295 150.328,-296.787 152.838,-298.414 155.456,-299.895"/>
<polygon fill="midnightblue" stroke="midnightblue" points="154.148,-303.151 164.671,-304.385 157.215,-296.858 154.148,-303.151"/>
</g>
<!-- Node3 -->
<g id="node3" class="node"><title>Node3</title>
<g id="a_node3"><a xlink:href="file_8c.html#aea32dff0f06cb42cf6acfce282df1c95" target="_top" xlink:title="Copy some content from one file to another. ">
<polygon fill="white" stroke="black" points="148,-266.5 148,-285.5 258,-285.5 258,-266.5 148,-266.5"/>
<text text-anchor="middle" x="203" y="-273.5" font-family="Helvetica,sans-Serif" font-size="10.00">mutt_file_copy_bytes</text>
</a>
</g>
</g>
<!-- Node1&#45;&gt;Node3 -->
<g id="edge2" class="edge"><title>Node1&#45;&gt;Node3</title>
<path fill="none" stroke="midnightblue" d="M63.6622,-171.501C77.3617,-190.38 110.568,-232.869 148,-257 151.106,-259.003 154.45,-260.824 157.896,-262.475"/>
<polygon fill="midnightblue" stroke="midnightblue" points="156.595,-265.726 167.164,-266.454 159.356,-259.293 156.595,-265.726"/>
</g>
<!-- Node4 -->
<g id="node4" class="node"><title>Node4</title>
<g id="a_node4"><a xlink:href="file_8c.html#a4982d9040dfaf38e847729be2af83ed6" target="_top" xlink:title="Close a FILE handle (and NULL the pointer) ">
<polygon fill="white" stroke="black" points="299,-76.5 299,-95.5 385,-95.5 385,-76.5 299,-76.5"/>
<text text-anchor="middle" x="342" y="-83.5" font-family="Helvetica,sans-Serif" font-size="10.00">mutt_file_fclose</text>
</a>
</g>
</g>
<!-- Node1&#45;&gt;Node4 -->
<g id="edge3" class="edge"><title>Node1&#45;&gt;Node4</title>
<path fill="none" stroke="midnightblue" d="M111.509,-164.156C152.885,-164.073 210.552,-160.213 258,-143 282.68,-134.047 306.969,-115.98 322.831,-102.575"/>
<polygon fill="midnightblue" stroke="midnightblue" points="325.487,-104.904 330.726,-95.6949 320.888,-99.6266 325.487,-104.904"/>
</g>
<!-- Node5 -->
<g id="node5" class="node"><title>Node5</title>
<g id="a_node5"><a xlink:href="crypt_8c.html#aa250c75f769e4c9214d4a62820a7324f" target="_top" xlink:title="Print the current time. ">
<polygon fill="white" stroke="black" points="154,-228.5 154,-247.5 252,-247.5 252,-228.5 154,-228.5"/>
<text text-anchor="middle" x="203" y="-235.5" font-family="Helvetica,sans-Serif" font-size="10.00">crypt_current_time</text>
</a>
</g>
</g>
<!-- Node1&#45;&gt;Node5 -->
<g id="edge4" class="edge"><title>Node1&#45;&gt;Node5</title>
<path fill="none" stroke="midnightblue" d="M72.5184,-171.508C90.4244,-182.327 120.889,-200.274 148,-214 154.922,-217.505 162.467,-221.033 169.662,-224.265"/>
<polygon fill="midnightblue" stroke="midnightblue" points="168.605,-227.624 179.166,-228.46 171.431,-221.22 168.605,-227.624"/>
</g>
<!-- Node6 -->
<g id="node6" class="node"><title>Node6</title>
<g id="a_node6"><a xlink:href="state_8c.html#aa1f339fabf8f144e719be0f686ee0e30" target="_top" xlink:title="Write a string to the state. ">
<polygon fill="white" stroke="red" points="294.5,-209.5 294.5,-228.5 389.5,-228.5 389.5,-209.5 294.5,-209.5"/>
<text text-anchor="middle" x="342" y="-216.5" font-family="Helvetica,sans-Serif" font-size="10.00">state_attach_puts</text>
</a>
</g>
</g>
<!-- Node1&#45;&gt;Node6 -->
<g id="edge9" class="edge"><title>Node1&#45;&gt;Node6</title>
<path fill="none" stroke="midnightblue" d="M104.535,-171.541C154.083,-181.485 231.712,-197.065 284.394,-207.639"/>
<polygon fill="midnightblue" stroke="midnightblue" points="283.762,-211.082 294.255,-209.618 285.139,-204.219 283.762,-211.082"/>
</g>
<!-- Node7 -->
<g id="node7" class="node"><title>Node7</title>
<g id="a_node7"><a xlink:href="pgpinvoke_8c.html#a8fe4ad1e92c87be40e03523299d3d0a0" target="_top" xlink:title="Use PGP to verify a message. ">
<polygon fill="white" stroke="red" points="155.5,-114.5 155.5,-133.5 250.5,-133.5 250.5,-114.5 155.5,-114.5"/>
<text text-anchor="middle" x="203" y="-121.5" font-family="Helvetica,sans-Serif" font-size="10.00">pgp_invoke_verify</text>
</a>
</g>
</g>
<!-- Node1&#45;&gt;Node7 -->
<g id="edge6" class="edge"><title>Node1&#45;&gt;Node7</title>
<path fill="none" stroke="midnightblue" d="M93.5896,-152.411C112.465,-147.464 135.686,-141.379 155.788,-136.111"/>
<polygon fill="midnightblue" stroke="midnightblue" points="156.887,-139.441 165.673,-133.52 155.113,-132.67 156.887,-139.441"/>
</g>
<!-- Node8 -->
<g id="node8" class="node"><title>Node8</title>
<g id="a_node8"><a xlink:href="pgp_8c.html#a0a1a81d93eba4258dc014efeef53a4f7" target="_top" xlink:title="Copy PGP output and look for signs of a good signature. ">
<polygon fill="white" stroke="red" points="151.5,-76.5 151.5,-95.5 254.5,-95.5 254.5,-76.5 151.5,-76.5"/>
<text text-anchor="middle" x="203" y="-83.5" font-family="Helvetica,sans-Serif" font-size="10.00">pgp_copy_checksig</text>
</a>
</g>
</g>
<!-- Node1&#45;&gt;Node8 -->
<g id="edge7" class="edge"><title>Node1&#45;&gt;Node8</title>
<path fill="none" stroke="midnightblue" d="M70.3319,-152.324C87.602,-140.107 118.945,-118.998 148,-105 152.306,-102.925 156.9,-100.96 161.522,-99.1354"/>
<polygon fill="midnightblue" stroke="midnightblue" points="162.827,-102.384 170.964,-95.5991 160.372,-95.8287 162.827,-102.384"/>
</g>
<!-- Node9 -->
<g id="node9" class="node"><title>Node9</title>
<g id="a_node9"><a xlink:href="filter_8c.html#a2d652b11c7d2ea31208315aaf61537d2" target="_top" xlink:title="Wait for the exit of a process and return its status. ">
<polygon fill="white" stroke="red" points="161.5,-38.5 161.5,-57.5 244.5,-57.5 244.5,-38.5 161.5,-38.5"/>
<text text-anchor="middle" x="203" y="-45.5" font-family="Helvetica,sans-Serif" font-size="10.00">mutt_wait_filter</text>
</a>
</g>
</g>
<!-- Node1&#45;&gt;Node9 -->
<g id="edge8" class="edge"><title>Node1&#45;&gt;Node9</title>
<path fill="none" stroke="midnightblue" d="M63.6622,-152.499C77.3617,-133.62 110.568,-91.1309 148,-67 151.106,-64.9975 154.45,-63.1758 157.896,-61.5247"/>
<polygon fill="midnightblue" stroke="midnightblue" points="159.356,-64.7067 167.164,-57.5455 156.595,-58.2743 159.356,-64.7067"/>
</g>
<!-- Node10 -->
<g id="node10" class="node"><title>Node10</title>
<g id="a_node10"><a xlink:href="file_8c.html#ae57463c2854c006a3c67b78736e9056e" target="_top" xlink:title="Delete a file, carefully. ">
<polygon fill="white" stroke="black" points="160.5,-0.5 160.5,-19.5 245.5,-19.5 245.5,-0.5 160.5,-0.5"/>
<text text-anchor="middle" x="203" y="-7.5" font-family="Helvetica,sans-Serif" font-size="10.00">mutt_file_unlink</text>
</a>
</g>
</g>
<!-- Node1&#45;&gt;Node10 -->
<g id="edge10" class="edge"><title>Node1&#45;&gt;Node10</title>
<path fill="none" stroke="midnightblue" d="M60.9783,-152.425C71.5169,-128.199 102.499,-63.9169 148,-29 150.328,-27.2132 152.838,-25.5859 155.456,-24.1049"/>
<polygon fill="midnightblue" stroke="midnightblue" points="157.215,-27.1416 164.671,-19.6148 154.148,-20.8489 157.215,-27.1416"/>
</g>
<!-- Node5&#45;&gt;Node6 -->
<g id="edge5" class="edge"><title>Node5&#45;&gt;Node6</title>
<path fill="none" stroke="midnightblue" d="M252.301,-231.301C262.576,-229.876 273.517,-228.359 284.079,-226.894"/>
<polygon fill="midnightblue" stroke="midnightblue" points="284.632,-230.351 294.056,-225.51 283.67,-223.417 284.632,-230.351"/>
</g>
<!-- Node10&#45;&gt;Node4 -->
<g id="edge11" class="edge"><title>Node10&#45;&gt;Node4</title>
<path fill="none" stroke="midnightblue" d="M235.708,-19.5887C243.178,-22.2732 251,-25.4439 258,-29 280.88,-40.6238 304.815,-57.662 321.07,-70.0814"/>
<polygon fill="midnightblue" stroke="midnightblue" points="319.211,-73.0695 329.255,-76.4423 323.506,-67.5423 319.211,-73.0695"/>
</g>
</g>
</svg>
