<?xml version="1.0" encoding="UTF-8" standalone="no"?>
<!DOCTYPE svg PUBLIC "-//W3C//DTD SVG 1.1//EN"
 "http://www.w3.org/Graphics/SVG/1.1/DTD/svg11.dtd">
<!-- Generated by graphviz version 2.36.0 (20140111.2315)
 -->
<!-- Title: ncrypt/pgpinvoke.h Pages: 1 -->
<svg width="210pt" height="140pt"
 viewBox="0.00 0.00 210.30 140.00" xmlns="http://www.w3.org/2000/svg" xmlns:xlink="http://www.w3.org/1999/xlink">
<g id="graph0" class="graph" transform="scale(1 1) rotate(0) translate(4 136)">
<title>ncrypt/pgpinvoke.h</title>
<polygon fill="white" stroke="none" points="-4,4 -4,-136 206.304,-136 206.304,4 -4,4"/>
<!-- Node1 -->
<g id="node1" class="node"><title>Node1</title>
<polygon fill="#bfbfbf" stroke="black" points="18.8035,-112.5 18.8035,-131.5 117.804,-131.5 117.804,-112.5 18.8035,-112.5"/>
<text text-anchor="middle" x="68.3035" y="-119.5" font-family="Helvetica,sans-Serif" font-size="10.00">ncrypt/pgpinvoke.h</text>
</g>
<!-- Node2 -->
<g id="node2" class="node"><title>Node2</title>
<polygon fill="white" stroke="#bfbfbf" points="51.3035,-0.5 51.3035,-19.5 107.304,-19.5 107.304,-0.5 51.3035,-0.5"/>
<text text-anchor="middle" x="79.3035" y="-7.5" font-family="Helvetica,sans-Serif" font-size="10.00">stdbool.h</text>
</g>
<!-- Node1&#45;&gt;Node2 -->
<g id="edge1" class="edge"><title>Node1&#45;&gt;Node2</title>
<path fill="none" stroke="midnightblue" d="M47.9243,-112.497C24.1217,-101.237 -10.3694,-79.9857 3.30352,-56 11.7131,-41.2475 27.0689,-30.8375 41.7876,-23.7738"/>
<polygon fill="midnightblue" stroke="midnightblue" points="43.5387,-26.8275 51.2884,-19.603 40.7249,-20.4179 43.5387,-26.8275"/>
</g>
<!-- Node3 -->
<g id="node3" class="node"><title>Node3</title>
<polygon fill="white" stroke="#bfbfbf" points="12.3035,-56.5 12.3035,-75.5 58.3035,-75.5 58.3035,-56.5 12.3035,-56.5"/>
<text text-anchor="middle" x="35.3035" y="-63.5" font-family="Helvetica,sans-Serif" font-size="10.00">stdio.h</text>
</g>
<!-- Node1&#45;&gt;Node3 -->
<g id="edge2" class="edge"><title>Node1&#45;&gt;Node3</title>
<path fill="none" stroke="midnightblue" d="M62.8542,-112.083C58.2891,-104.613 51.6351,-93.7244 46.0101,-84.5199"/>
<polygon fill="midnightblue" stroke="midnightblue" points="48.8524,-82.4588 40.6514,-75.7511 42.8795,-86.109 48.8524,-82.4588"/>
</g>
<!-- Node4 -->
<g id="node4" class="node"><title>Node4</title>
<polygon fill="white" stroke="#bfbfbf" points="76.8035,-56.5 76.8035,-75.5 127.804,-75.5 127.804,-56.5 76.8035,-56.5"/>
<text text-anchor="middle" x="102.304" y="-63.5" font-family="Helvetica,sans-Serif" font-size="10.00">unistd.h</text>
</g>
<!-- Node1&#45;&gt;Node4 -->
<g id="edge3" class="edge"><title>Node1&#45;&gt;Node4</title>
<path fill="none" stroke="midnightblue" d="M73.9179,-112.083C78.671,-104.534 85.6216,-93.4948 91.4552,-84.2298"/>
<polygon fill="midnightblue" stroke="midnightblue" points="94.4272,-86.0783 96.7936,-75.7511 88.5036,-82.3486 94.4272,-86.0783"/>
</g>
<!-- Node5 -->
<g id="node5" class="node"><title>Node5</title>
<g id="a_node5"><a xlink:href="pgpkey_8h.html" target="_top" xlink:title="PGP key management routines. ">
<polygon fill="white" stroke="black" points="146.304,-56.5 146.304,-75.5 202.304,-75.5 202.304,-56.5 146.304,-56.5"/>
<text text-anchor="middle" x="174.304" y="-63.5" font-family="Helvetica,sans-Serif" font-size="10.00">pgpkey.h</text>
</a>
</g>
</g>
<!-- Node1&#45;&gt;Node5 -->
<g id="edge4" class="edge"><title>Node1&#45;&gt;Node5</title>
<path fill="none" stroke="midnightblue" d="M85.3343,-112.324C102.333,-103.664 128.68,-90.2424 148.296,-80.249"/>
<polygon fill="midnightblue" stroke="midnightblue" points="149.993,-83.3125 157.315,-75.6545 146.816,-77.0752 149.993,-83.3125"/>
</g>
<!-- Node5&#45;&gt;Node2 -->
<g id="edge5" class="edge"><title>Node5&#45;&gt;Node2</title>
<path fill="none" stroke="midnightblue" d="M159.04,-56.324C144.082,-47.8215 121.049,-34.7288 103.577,-24.7975"/>
<polygon fill="midnightblue" stroke="midnightblue" points="104.952,-21.5534 94.529,-19.6545 101.493,-27.639 104.952,-21.5534"/>
</g>
</g>
</svg>
