<?xml version="1.0" encoding="UTF-8" standalone="no"?>
<!DOCTYPE svg PUBLIC "-//W3C//DTD SVG 1.1//EN"
 "http://www.w3.org/Graphics/SVG/1.1/DTD/svg11.dtd">
<!-- Generated by graphviz version 2.36.0 (20140111.2315)
 -->
<!-- Title: mutt_pgp_command Pages: 1 -->
<svg width="284pt" height="104pt"
 viewBox="0.00 0.00 284.00 104.00" xmlns="http://www.w3.org/2000/svg" xmlns:xlink="http://www.w3.org/1999/xlink">
<g id="graph0" class="graph" transform="scale(1 1) rotate(0) translate(4 100)">
<title>mutt_pgp_command</title>
<polygon fill="white" stroke="none" points="-4,4 -4,-100 280,-100 280,4 -4,4"/>
<!-- Node1 -->
<g id="node1" class="node"><title>Node1</title>
<polygon fill="#bfbfbf" stroke="black" points="0.5,-38.5 0.5,-57.5 105.5,-57.5 105.5,-38.5 0.5,-38.5"/>
<text text-anchor="middle" x="53" y="-45.5" font-family="Helvetica,sans-Serif" font-size="10.00">mutt_pgp_command</text>
</g>
<!-- Node2 -->
<g id="node2" class="node"><title>Node2</title>
<g id="a_node2"><a xlink:href="pgpinvoke_8c.html#af6f476cfe6952e907b8b657e511d3eeb" target="_top" xlink:title="Run a PGP command. ">
<polygon fill="white" stroke="red" points="176,-76.5 176,-95.5 242,-95.5 242,-76.5 176,-76.5"/>
<text text-anchor="middle" x="209" y="-83.5" font-family="Helvetica,sans-Serif" font-size="10.00">pgp_invoke</text>
</a>
</g>
</g>
<!-- Node1&#45;&gt;Node2 -->
<g id="edge1" class="edge"><title>Node1&#45;&gt;Node2</title>
<path fill="none" stroke="midnightblue" d="M102.806,-60.043C126.687,-65.9357 154.765,-72.8642 175.904,-78.0802"/>
<polygon fill="midnightblue" stroke="midnightblue" points="103.408,-56.5867 92.8607,-57.589 101.731,-63.3828 103.408,-56.5867"/>
</g>
<!-- Node3 -->
<g id="node3" class="node"><title>Node3</title>
<g id="a_node3"><a xlink:href="pgpinvoke_8h.html#acee2a4b90d106433cf7840a98171491f" target="_top" xlink:title="Implements CryptModuleSpecs::pgp_invoke_import() ">
<polygon fill="white" stroke="red" points="145.5,-38.5 145.5,-57.5 272.5,-57.5 272.5,-38.5 145.5,-38.5"/>
<text text-anchor="middle" x="209" y="-45.5" font-family="Helvetica,sans-Serif" font-size="10.00">pgp_class_invoke_import</text>
</a>
</g>
</g>
<!-- Node1&#45;&gt;Node3 -->
<g id="edge2" class="edge"><title>Node1&#45;&gt;Node3</title>
<path fill="none" stroke="midnightblue" d="M115.755,-48C125.542,-48 135.671,-48 145.475,-48"/>
<polygon fill="midnightblue" stroke="midnightblue" points="115.708,-44.5001 105.708,-48 115.708,-51.5001 115.708,-44.5001"/>
</g>
<!-- Node4 -->
<g id="node4" class="node"><title>Node4</title>
<g id="a_node4"><a xlink:href="pgpinvoke_8h.html#a41108b7fbffaf50678e9299b62a8fc7a" target="_top" xlink:title="Implements CryptModuleSpecs::pgp_invoke_getkeys() ">
<polygon fill="white" stroke="red" points="142,-0.5 142,-19.5 276,-19.5 276,-0.5 142,-0.5"/>
<text text-anchor="middle" x="209" y="-7.5" font-family="Helvetica,sans-Serif" font-size="10.00">pgp_class_invoke_getkeys</text>
</a>
</g>
</g>
<!-- Node1&#45;&gt;Node4 -->
<g id="edge3" class="edge"><title>Node1&#45;&gt;Node4</title>
<path fill="none" stroke="midnightblue" d="M102.794,-35.96C124.308,-30.6512 149.232,-24.5012 169.419,-19.5201"/>
<polygon fill="midnightblue" stroke="midnightblue" points="101.731,-32.6172 92.8607,-38.411 103.408,-39.4133 101.731,-32.6172"/>
</g>
</g>
</svg>
