<?xml version="1.0" encoding="UTF-8" standalone="no"?>
<!DOCTYPE svg PUBLIC "-//W3C//DTD SVG 1.1//EN"
 "http://www.w3.org/Graphics/SVG/1.1/DTD/svg11.dtd">
<!-- Generated by graphviz version 2.36.0 (20140111.2315)
 -->
<!-- Title: pgp_ask_for_key Pages: 1 -->
<svg width="506pt" height="244pt"
 viewBox="0.00 0.00 506.00 244.43" xmlns="http://www.w3.org/2000/svg" xmlns:xlink="http://www.w3.org/1999/xlink">
<g id="graph0" class="graph" transform="scale(1 1) rotate(0) translate(4 240.431)">
<title>pgp_ask_for_key</title>
<polygon fill="white" stroke="none" points="-4,4 -4,-240.431 502,-240.431 502,4 -4,4"/>
<!-- Node1 -->
<g id="node1" class="node"><title>Node1</title>
<polygon fill="#bfbfbf" stroke="black" points="0.5,-102.931 0.5,-121.931 91.5,-121.931 91.5,-102.931 0.5,-102.931"/>
<text text-anchor="middle" x="46" y="-109.931" font-family="Helvetica,sans-Serif" font-size="10.00">pgp_ask_for_key</text>
</g>
<!-- Node2 -->
<g id="node2" class="node"><title>Node2</title>
<g id="a_node2"><a xlink:href="mutt__logging_8c.html#af068b3f524a31fad293b2fb61dfc4534" target="_top" xlink:title="Clear the message line (bottom line of screen) ">
<polygon fill="white" stroke="red" points="129.5,-216.931 129.5,-235.931 216.5,-235.931 216.5,-216.931 129.5,-216.931"/>
<text text-anchor="middle" x="173" y="-223.931" font-family="Helvetica,sans-Serif" font-size="10.00">mutt_clear_error</text>
</a>
</g>
</g>
<!-- Node1&#45;&gt;Node2 -->
<g id="edge1" class="edge"><title>Node1&#45;&gt;Node2</title>
<path fill="none" stroke="midnightblue" d="M53.921,-122.077C66.9126,-139.692 96.4958,-177.54 128,-202.431 132.353,-205.87 137.266,-209.085 142.191,-211.973"/>
<polygon fill="midnightblue" stroke="midnightblue" points="140.502,-215.039 150.949,-216.799 143.88,-208.907 140.502,-215.039"/>
</g>
<!-- Node3 -->
<g id="node3" class="node"><title>Node3</title>
<g id="a_node3"><a xlink:href="mutt_2string_8c.html#a011e5b6fad43bc608584d585987cf9c1" target="_top" xlink:title="Compare two strings ignoring case, safely. ">
<polygon fill="white" stroke="black" points="254.5,-140.931 254.5,-159.931 363.5,-159.931 363.5,-140.931 254.5,-140.931"/>
<text text-anchor="middle" x="309" y="-147.931" font-family="Helvetica,sans-Serif" font-size="10.00">mutt_str_strcasecmp</text>
</a>
</g>
</g>
<!-- Node1&#45;&gt;Node3 -->
<g id="edge2" class="edge"><title>Node1&#45;&gt;Node3</title>
<path fill="none" stroke="midnightblue" d="M56.3759,-122.049C70.4343,-135.704 98.4918,-160.089 128,-169.431 175.784,-184.559 233.901,-173.46 270.924,-162.943"/>
<polygon fill="midnightblue" stroke="midnightblue" points="272.192,-166.218 280.781,-160.014 270.198,-159.507 272.192,-166.218"/>
</g>
<!-- Node4 -->
<g id="node4" class="node"><title>Node4</title>
<g id="a_node4"><a xlink:href="mutt_2string_8c.html#a3b8965b21d6e21536750f8883cd4333a" target="_top" xlink:title="Copy a string into a buffer (guaranteeing NUL&#45;termination) ">
<polygon fill="white" stroke="black" points="129,-140.931 129,-159.931 217,-159.931 217,-140.931 129,-140.931"/>
<text text-anchor="middle" x="173" y="-147.931" font-family="Helvetica,sans-Serif" font-size="10.00">mutt_str_strfcpy</text>
</a>
</g>
</g>
<!-- Node1&#45;&gt;Node4 -->
<g id="edge3" class="edge"><title>Node1&#45;&gt;Node4</title>
<path fill="none" stroke="midnightblue" d="M78.5428,-122.02C94.383,-126.836 113.773,-132.73 130.776,-137.899"/>
<polygon fill="midnightblue" stroke="midnightblue" points="129.882,-141.285 140.467,-140.845 131.918,-134.588 129.882,-141.285"/>
</g>
<!-- Node5 -->
<g id="node5" class="node"><title>Node5</title>
<g id="a_node5"><a xlink:href="mutt_2string_8c.html#ad5b66f8059a202f7bfa5fc4fa3047c67" target="_top" xlink:title="Replace one string with another. ">
<polygon fill="white" stroke="black" points="128.5,-64.9312 128.5,-83.9312 217.5,-83.9312 217.5,-64.9312 128.5,-64.9312"/>
<text text-anchor="middle" x="173" y="-71.9312" font-family="Helvetica,sans-Serif" font-size="10.00">mutt_str_replace</text>
</a>
</g>
</g>
<!-- Node1&#45;&gt;Node5 -->
<g id="edge4" class="edge"><title>Node1&#45;&gt;Node5</title>
<path fill="none" stroke="midnightblue" d="M78.5428,-102.842C94.383,-98.0267 113.773,-92.1323 130.776,-86.9632"/>
<polygon fill="midnightblue" stroke="midnightblue" points="131.918,-90.2744 140.467,-84.0171 129.882,-83.5771 131.918,-90.2744"/>
</g>
<!-- Node6 -->
<g id="node6" class="node"><title>Node6</title>
<g id="a_node6"><a xlink:href="mutt_2string_8c.html#ae48085384a6545e0fac589a88243ea31" target="_top" xlink:title="Copy a string, safely. ">
<polygon fill="white" stroke="black" points="266.5,-26.9312 266.5,-45.9312 351.5,-45.9312 351.5,-26.9312 266.5,-26.9312"/>
<text text-anchor="middle" x="309" y="-33.9312" font-family="Helvetica,sans-Serif" font-size="10.00">mutt_str_strdup</text>
</a>
</g>
</g>
<!-- Node1&#45;&gt;Node6 -->
<g id="edge8" class="edge"><title>Node1&#45;&gt;Node6</title>
<path fill="none" stroke="midnightblue" d="M56.9962,-102.777C71.3784,-89.5447 99.3455,-66.1902 128,-55.4312 169.276,-39.933 219.378,-35.7158 256.231,-35.0694"/>
<polygon fill="midnightblue" stroke="midnightblue" points="256.29,-38.5692 266.256,-34.9754 256.224,-31.5695 256.29,-38.5692"/>
</g>
<!-- Node7 -->
<g id="node7" class="node"><title>Node7</title>
<g id="a_node7"><a xlink:href="memory_8c.html#a264da4dc58e6dc8983285bd1f538f24d" target="_top" xlink:title="Allocate memory on the heap. ">
<polygon fill="white" stroke="red" points="400.5,-7.93118 400.5,-26.9312 497.5,-26.9312 497.5,-7.93118 400.5,-7.93118"/>
<text text-anchor="middle" x="449" y="-14.9312" font-family="Helvetica,sans-Serif" font-size="10.00">mutt_mem_malloc</text>
</a>
</g>
</g>
<!-- Node1&#45;&gt;Node7 -->
<g id="edge7" class="edge"><title>Node1&#45;&gt;Node7</title>
<path fill="none" stroke="midnightblue" d="M53.436,-102.746C65.6392,-85.2821 93.988,-48.8121 128,-32.4312 212.241,8.1413 323.846,1.89365 390.543,-7.17696"/>
<polygon fill="midnightblue" stroke="midnightblue" points="390.055,-10.6428 400.449,-8.59024 391.044,-3.71295 390.055,-10.6428"/>
</g>
<!-- Node8 -->
<g id="node8" class="node"><title>Node8</title>
<g id="a_node8"><a xlink:href="pgpkey_8c.html#aa82025cf02aa8e7738d82ffe4463ba1f" target="_top" xlink:title="Find a PGP key by string. ">
<polygon fill="white" stroke="red" points="128.5,-102.931 128.5,-121.931 217.5,-121.931 217.5,-102.931 128.5,-102.931"/>
<text text-anchor="middle" x="173" y="-109.931" font-family="Helvetica,sans-Serif" font-size="10.00">pgp_getkeybystr</text>
</a>
</g>
</g>
<!-- Node1&#45;&gt;Node8 -->
<g id="edge9" class="edge"><title>Node1&#45;&gt;Node8</title>
<path fill="none" stroke="midnightblue" d="M91.7748,-112.431C100.334,-112.431 109.378,-112.431 118.186,-112.431"/>
<polygon fill="midnightblue" stroke="midnightblue" points="118.376,-115.931 128.376,-112.431 118.376,-108.931 118.376,-115.931"/>
</g>
<!-- Node5&#45;&gt;Node6 -->
<g id="edge5" class="edge"><title>Node5&#45;&gt;Node6</title>
<path fill="none" stroke="midnightblue" d="M207.814,-64.8422C225.033,-59.9592 246.164,-53.9669 264.573,-48.7462"/>
<polygon fill="midnightblue" stroke="midnightblue" points="265.531,-52.1127 274.197,-46.0171 263.621,-45.3782 265.531,-52.1127"/>
</g>
<!-- Node6&#45;&gt;Node7 -->
<g id="edge6" class="edge"><title>Node6&#45;&gt;Node7</title>
<path fill="none" stroke="midnightblue" d="M351.779,-30.679C363.798,-29.0243 377.128,-27.1889 389.942,-25.4246"/>
<polygon fill="midnightblue" stroke="midnightblue" points="390.644,-28.8611 400.073,-24.0298 389.689,-21.9265 390.644,-28.8611"/>
</g>
<!-- Node8&#45;&gt;Node3 -->
<g id="edge10" class="edge"><title>Node8&#45;&gt;Node3</title>
<path fill="none" stroke="midnightblue" d="M207.814,-122.02C225.033,-126.903 246.164,-132.895 264.573,-138.116"/>
<polygon fill="midnightblue" stroke="midnightblue" points="263.621,-141.484 274.197,-140.845 265.531,-134.75 263.621,-141.484"/>
</g>
</g>
</svg>
