<?xml version="1.0" encoding="UTF-8" standalone="no"?>
<!DOCTYPE svg PUBLIC "-//W3C//DTD SVG 1.1//EN"
 "http://www.w3.org/Graphics/SVG/1.1/DTD/svg11.dtd">
<!-- Generated by graphviz version 2.36.0 (20140111.2315)
 -->
<!-- Title: pgp_id_is_valid Pages: 1 -->
<svg width="220pt" height="28pt"
 viewBox="0.00 0.00 220.00 28.00" xmlns="http://www.w3.org/2000/svg" xmlns:xlink="http://www.w3.org/1999/xlink">
<g id="graph0" class="graph" transform="scale(1 1) rotate(0) translate(4 24)">
<title>pgp_id_is_valid</title>
<polygon fill="white" stroke="none" points="-4,4 -4,-24 216,-24 216,4 -4,4"/>
<!-- Node1 -->
<g id="node1" class="node"><title>Node1</title>
<polygon fill="#bfbfbf" stroke="black" points="0.5,-0.5 0.5,-19.5 83.5,-19.5 83.5,-0.5 0.5,-0.5"/>
<text text-anchor="middle" x="42" y="-7.5" font-family="Helvetica,sans-Serif" font-size="10.00">pgp_id_is_valid</text>
</g>
<!-- Node2 -->
<g id="node2" class="node"><title>Node2</title>
<g id="a_node2"><a xlink:href="pgpkey_8c.html#a902800143c9c4e895d7e45948e421514" target="_top" xlink:title="Is a PGP key valid? ">
<polygon fill="white" stroke="red" points="120,-0.5 120,-19.5 212,-19.5 212,-0.5 120,-0.5"/>
<text text-anchor="middle" x="166" y="-7.5" font-family="Helvetica,sans-Serif" font-size="10.00">pgp_key_is_valid</text>
</a>
</g>
</g>
<!-- Node1&#45;&gt;Node2 -->
<g id="edge1" class="edge"><title>Node1&#45;&gt;Node2</title>
<path fill="none" stroke="midnightblue" d="M83.6242,-10C91.9942,-10 100.942,-10 109.73,-10"/>
<polygon fill="midnightblue" stroke="midnightblue" points="109.929,-13.5001 119.929,-10 109.929,-6.5001 109.929,-13.5001"/>
</g>
</g>
</svg>
