<?xml version="1.0" encoding="UTF-8" standalone="no"?>
<!DOCTYPE svg PUBLIC "-//W3C//DTD SVG 1.1//EN"
 "http://www.w3.org/Graphics/SVG/1.1/DTD/svg11.dtd">
<!-- Generated by graphviz version 2.36.0 (20140111.2315)
 -->
<!-- Title: ncrypt/pgplib.h Pages: 1 -->
<svg width="404pt" height="84pt"
 viewBox="0.00 0.00 404.00 84.00" xmlns="http://www.w3.org/2000/svg" xmlns:xlink="http://www.w3.org/1999/xlink">
<g id="graph0" class="graph" transform="scale(1 1) rotate(0) translate(4 80)">
<title>ncrypt/pgplib.h</title>
<polygon fill="white" stroke="none" points="-4,4 -4,-80 400,-80 400,4 -4,4"/>
<!-- Node1 -->
<g id="node1" class="node"><title>Node1</title>
<polygon fill="#bfbfbf" stroke="black" points="166,-56.5 166,-75.5 246,-75.5 246,-56.5 166,-56.5"/>
<text text-anchor="middle" x="206" y="-63.5" font-family="Helvetica,sans-Serif" font-size="10.00">ncrypt/pgplib.h</text>
</g>
<!-- Node2 -->
<g id="node2" class="node"><title>Node2</title>
<g id="a_node2"><a xlink:href="gnupgparse_8c.html" target="_top" xlink:title="Parse the output of CLI PGP program. ">
<polygon fill="white" stroke="black" points="-0.5,-0.5 -0.5,-19.5 104.5,-19.5 104.5,-0.5 -0.5,-0.5"/>
<text text-anchor="middle" x="52" y="-7.5" font-family="Helvetica,sans-Serif" font-size="10.00">ncrypt/gnupgparse.c</text>
</a>
</g>
</g>
<!-- Node1&#45;&gt;Node2 -->
<g id="edge1" class="edge"><title>Node1&#45;&gt;Node2</title>
<path fill="none" stroke="midnightblue" d="M171.889,-53.0392C142.913,-42.8786 102.038,-28.5457 76.2876,-19.5164"/>
<polygon fill="midnightblue" stroke="midnightblue" points="171.003,-56.4373 181.598,-56.4435 173.32,-49.8317 171.003,-56.4373"/>
</g>
<!-- Node3 -->
<g id="node3" class="node"><title>Node3</title>
<g id="a_node3"><a xlink:href="pgp_8c.html" target="_top" xlink:title="PGP sign, encrypt, check routines. ">
<polygon fill="white" stroke="black" points="122.5,-0.5 122.5,-19.5 193.5,-19.5 193.5,-0.5 122.5,-0.5"/>
<text text-anchor="middle" x="158" y="-7.5" font-family="Helvetica,sans-Serif" font-size="10.00">ncrypt/pgp.c</text>
</a>
</g>
</g>
<!-- Node1&#45;&gt;Node3 -->
<g id="edge2" class="edge"><title>Node1&#45;&gt;Node3</title>
<path fill="none" stroke="midnightblue" d="M191.272,-48.4314C182.86,-38.9673 172.651,-27.4827 165.779,-19.7511"/>
<polygon fill="midnightblue" stroke="midnightblue" points="188.814,-50.9342 198.074,-56.083 194.046,-46.2836 188.814,-50.9342"/>
</g>
<!-- Node4 -->
<g id="node4" class="node"><title>Node4</title>
<g id="a_node4"><a xlink:href="pgpkey_8c.html" target="_top" xlink:title="PGP key management routines. ">
<polygon fill="white" stroke="black" points="212,-0.5 212,-19.5 298,-19.5 298,-0.5 212,-0.5"/>
<text text-anchor="middle" x="255" y="-7.5" font-family="Helvetica,sans-Serif" font-size="10.00">ncrypt/pgpkey.c</text>
</a>
</g>
</g>
<!-- Node1&#45;&gt;Node4 -->
<g id="edge3" class="edge"><title>Node1&#45;&gt;Node4</title>
<path fill="none" stroke="midnightblue" d="M221.034,-48.4314C229.622,-38.9673 240.043,-27.4827 247.059,-19.7511"/>
<polygon fill="midnightblue" stroke="midnightblue" points="218.219,-46.3254 214.091,-56.083 223.403,-51.0293 218.219,-46.3254"/>
</g>
<!-- Node5 -->
<g id="node5" class="node"><title>Node5</title>
<g id="a_node5"><a xlink:href="pgplib_8c.html" target="_top" xlink:title="Misc PGP helper routines. ">
<polygon fill="white" stroke="black" points="316,-0.5 316,-19.5 396,-19.5 396,-0.5 316,-0.5"/>
<text text-anchor="middle" x="356" y="-7.5" font-family="Helvetica,sans-Serif" font-size="10.00">ncrypt/pgplib.c</text>
</a>
</g>
</g>
<!-- Node1&#45;&gt;Node5 -->
<g id="edge4" class="edge"><title>Node1&#45;&gt;Node5</title>
<path fill="none" stroke="midnightblue" d="M239.225,-53.0392C267.448,-42.8786 307.262,-28.5457 332.343,-19.5164"/>
<polygon fill="midnightblue" stroke="midnightblue" points="237.991,-49.7632 229.768,-56.4435 240.362,-56.3494 237.991,-49.7632"/>
</g>
</g>
</svg>
