<?xml version="1.0" encoding="UTF-8" standalone="no"?>
<!DOCTYPE svg PUBLIC "-//W3C//DTD SVG 1.1//EN"
 "http://www.w3.org/Graphics/SVG/1.1/DTD/svg11.dtd">
<!-- Generated by graphviz version 2.36.0 (20140111.2315)
 -->
<!-- Title: pop_reconnect Pages: 1 -->
<svg width="366pt" height="256pt"
 viewBox="0.00 0.00 366.00 256.00" xmlns="http://www.w3.org/2000/svg" xmlns:xlink="http://www.w3.org/1999/xlink">
<g id="graph0" class="graph" transform="scale(1 1) rotate(0) translate(4 252)">
<title>pop_reconnect</title>
<polygon fill="white" stroke="none" points="-4,4 -4,-252 362,-252 362,4 -4,4"/>
<!-- Node1 -->
<g id="node1" class="node"><title>Node1</title>
<polygon fill="#bfbfbf" stroke="black" points="0,-114.5 0,-133.5 80,-133.5 80,-114.5 0,-114.5"/>
<text text-anchor="middle" x="40" y="-121.5" font-family="Helvetica,sans-Serif" font-size="10.00">pop_reconnect</text>
</g>
<!-- Node2 -->
<g id="node2" class="node"><title>Node2</title>
<g id="a_node2"><a xlink:href="socket_8c.html#a432eed609a221c68f457302d6e40c383" target="_top" xlink:title="Close a socket. ">
<polygon fill="white" stroke="black" points="122.5,-228.5 122.5,-247.5 221.5,-247.5 221.5,-228.5 122.5,-228.5"/>
<text text-anchor="middle" x="172" y="-235.5" font-family="Helvetica,sans-Serif" font-size="10.00">mutt_socket_close</text>
</a>
</g>
</g>
<!-- Node1&#45;&gt;Node2 -->
<g id="edge1" class="edge"><title>Node1&#45;&gt;Node2</title>
<path fill="none" stroke="midnightblue" d="M46.0552,-133.57C56.5631,-152.572 82.5925,-195.273 116,-219 118.677,-220.901 121.56,-222.626 124.555,-224.188"/>
<polygon fill="midnightblue" stroke="midnightblue" points="123.227,-227.429 133.777,-228.402 126.137,-221.063 123.227,-227.429"/>
</g>
<!-- Node3 -->
<g id="node3" class="node"><title>Node3</title>
<g id="a_node3"><a xlink:href="pop__lib_8c.html#a9c34e1890bd21e4def6b67b744fe8cc3" target="_top" xlink:title="Open connection and authenticate. ">
<polygon fill="white" stroke="red" points="116.5,-190.5 116.5,-209.5 227.5,-209.5 227.5,-190.5 116.5,-190.5"/>
<text text-anchor="middle" x="172" y="-197.5" font-family="Helvetica,sans-Serif" font-size="10.00">pop_open_connection</text>
</a>
</g>
</g>
<!-- Node1&#45;&gt;Node3 -->
<g id="edge2" class="edge"><title>Node1&#45;&gt;Node3</title>
<path fill="none" stroke="midnightblue" d="M53.2535,-133.612C67.7185,-144.69 92.7539,-163.032 116,-176 122.63,-179.699 129.943,-183.236 137.012,-186.405"/>
<polygon fill="midnightblue" stroke="midnightblue" points="135.846,-189.714 146.413,-190.478 138.628,-183.291 135.846,-189.714"/>
</g>
<!-- Node4 -->
<g id="node4" class="node"><title>Node4</title>
<g id="a_node4"><a xlink:href="init_8c.html#a620eb80c92ac555970111949ad0b7c56" target="_top" xlink:title="Ask the user a quad&#45;question. ">
<polygon fill="white" stroke="red" points="264.5,-171.5 264.5,-190.5 357.5,-190.5 357.5,-171.5 264.5,-171.5"/>
<text text-anchor="middle" x="311" y="-178.5" font-family="Helvetica,sans-Serif" font-size="10.00">query_quadoption</text>
</a>
</g>
</g>
<!-- Node1&#45;&gt;Node4 -->
<g id="edge8" class="edge"><title>Node1&#45;&gt;Node4</title>
<path fill="none" stroke="midnightblue" d="M77.1443,-133.582C89.4404,-136.728 103.287,-140.147 116,-143 162.418,-153.418 215.446,-163.695 254.316,-170.929"/>
<polygon fill="midnightblue" stroke="midnightblue" points="253.913,-174.414 264.383,-172.793 255.188,-167.531 253.913,-174.414"/>
</g>
<!-- Node5 -->
<g id="node5" class="node"><title>Node5</title>
<g id="a_node5"><a xlink:href="progress_8c.html#aa15ea4df7e5b36dca95bcc673b060dcb" target="_top" xlink:title="Set up a progress bar. ">
<polygon fill="white" stroke="red" points="123.5,-114.5 123.5,-133.5 220.5,-133.5 220.5,-114.5 123.5,-114.5"/>
<text text-anchor="middle" x="172" y="-121.5" font-family="Helvetica,sans-Serif" font-size="10.00">mutt_progress_init</text>
</a>
</g>
</g>
<!-- Node1&#45;&gt;Node5 -->
<g id="edge4" class="edge"><title>Node1&#45;&gt;Node5</title>
<path fill="none" stroke="midnightblue" d="M80.0043,-124C90.4258,-124 101.915,-124 113.118,-124"/>
<polygon fill="midnightblue" stroke="midnightblue" points="113.288,-127.5 123.288,-124 113.288,-120.5 113.288,-127.5"/>
</g>
<!-- Node6 -->
<g id="node6" class="node"><title>Node6</title>
<g id="a_node6"><a xlink:href="pop__lib_8c.html#ac904f3343289681bd5500b928cc243e9" target="_top" xlink:title="Read Headers with callback function. ">
<polygon fill="white" stroke="red" points="130.5,-76.5 130.5,-95.5 213.5,-95.5 213.5,-76.5 130.5,-76.5"/>
<text text-anchor="middle" x="172" y="-83.5" font-family="Helvetica,sans-Serif" font-size="10.00">pop_fetch_data</text>
</a>
</g>
</g>
<!-- Node1&#45;&gt;Node6 -->
<g id="edge5" class="edge"><title>Node1&#45;&gt;Node6</title>
<path fill="none" stroke="midnightblue" d="M73.8045,-114.411C90.2783,-109.596 110.443,-103.701 128.127,-98.532"/>
<polygon fill="midnightblue" stroke="midnightblue" points="129.59,-101.751 138.206,-95.5859 127.626,-95.0323 129.59,-101.751"/>
</g>
<!-- Node7 -->
<g id="node7" class="node"><title>Node7</title>
<g id="a_node7"><a xlink:href="pop__lib_8c.html#a31f9cbe7897c2ff5dddb71fd8634fa91" target="_top" xlink:title="find message with this UIDL and set refno ">
<polygon fill="white" stroke="red" points="140.5,-38.5 140.5,-57.5 203.5,-57.5 203.5,-38.5 140.5,-38.5"/>
<text text-anchor="middle" x="172" y="-45.5" font-family="Helvetica,sans-Serif" font-size="10.00">check_uidl</text>
</a>
</g>
</g>
<!-- Node1&#45;&gt;Node7 -->
<g id="edge6" class="edge"><title>Node1&#45;&gt;Node7</title>
<path fill="none" stroke="midnightblue" d="M51.4322,-114.334C65.2775,-101.932 90.9083,-80.4238 116,-67 120.614,-64.5316 125.612,-62.2843 130.651,-60.2696"/>
<polygon fill="midnightblue" stroke="midnightblue" points="132.144,-63.4487 140.299,-56.685 129.706,-56.887 132.144,-63.4487"/>
</g>
<!-- Node8 -->
<g id="node8" class="node"><title>Node8</title>
<g id="a_node8"><a xlink:href="pop__lib_8c.html#ac142cb53cf1915efb5a5c84b59ed7878" target="_top" xlink:title="logout from a POP server ">
<polygon fill="white" stroke="red" points="140,-0.5 140,-19.5 204,-19.5 204,-0.5 140,-0.5"/>
<text text-anchor="middle" x="172" y="-7.5" font-family="Helvetica,sans-Serif" font-size="10.00">pop_logout</text>
</a>
</g>
</g>
<!-- Node1&#45;&gt;Node8 -->
<g id="edge7" class="edge"><title>Node1&#45;&gt;Node8</title>
<path fill="none" stroke="midnightblue" d="M46.0552,-114.43C56.5631,-95.428 82.5925,-52.7272 116,-29 120.316,-25.9344 125.17,-23.3276 130.161,-21.1204"/>
<polygon fill="midnightblue" stroke="midnightblue" points="131.777,-24.2471 139.821,-17.3526 129.233,-17.7256 131.777,-24.2471"/>
</g>
<!-- Node3&#45;&gt;Node4 -->
<g id="edge3" class="edge"><title>Node3&#45;&gt;Node4</title>
<path fill="none" stroke="midnightblue" d="M227.54,-192.436C236.335,-191.216 245.452,-189.952 254.275,-188.728"/>
<polygon fill="midnightblue" stroke="midnightblue" points="255.037,-192.156 264.461,-187.316 254.075,-185.223 255.037,-192.156"/>
</g>
</g>
</svg>
