<?xml version="1.0" encoding="UTF-8" standalone="no"?>
<!DOCTYPE svg PUBLIC "-//W3C//DTD SVG 1.1//EN"
 "http://www.w3.org/Graphics/SVG/1.1/DTD/svg11.dtd">
<!-- Generated by graphviz version 2.36.0 (20140111.2315)
 -->
<!-- Title: pop/pop_auth.c Pages: 1 -->
<svg width="1037pt" height="140pt"
 viewBox="0.00 0.00 1037.00 140.00" xmlns="http://www.w3.org/2000/svg" xmlns:xlink="http://www.w3.org/1999/xlink">
<g id="graph0" class="graph" transform="scale(1 1) rotate(0) translate(4 136)">
<title>pop/pop_auth.c</title>
<polygon fill="white" stroke="none" points="-4,4 -4,-136 1033,-136 1033,4 -4,4"/>
<!-- Node1 -->
<g id="node1" class="node"><title>Node1</title>
<polygon fill="#bfbfbf" stroke="black" points="447.5,-112.5 447.5,-131.5 530.5,-131.5 530.5,-112.5 447.5,-112.5"/>
<text text-anchor="middle" x="489" y="-119.5" font-family="Helvetica,sans-Serif" font-size="10.00">pop/pop_auth.c</text>
</g>
<!-- Node2 -->
<g id="node2" class="node"><title>Node2</title>
<polygon fill="white" stroke="#bfbfbf" points="-0.5,-56.5 -0.5,-75.5 50.5,-75.5 50.5,-56.5 -0.5,-56.5"/>
<text text-anchor="middle" x="25" y="-63.5" font-family="Helvetica,sans-Serif" font-size="10.00">config.h</text>
</g>
<!-- Node1&#45;&gt;Node2 -->
<g id="edge1" class="edge"><title>Node1&#45;&gt;Node2</title>
<path fill="none" stroke="midnightblue" d="M447.3,-118.671C372.021,-114.024 208.342,-101.901 60.6711,-75.8429"/>
<polygon fill="midnightblue" stroke="midnightblue" points="60.9791,-72.3425 50.5186,-74.0245 59.7449,-79.2328 60.9791,-72.3425"/>
</g>
<!-- Node3 -->
<g id="node3" class="node"><title>Node3</title>
<polygon fill="white" stroke="#bfbfbf" points="177,-0.5 177,-19.5 233,-19.5 233,-0.5 177,-0.5"/>
<text text-anchor="middle" x="205" y="-7.5" font-family="Helvetica,sans-Serif" font-size="10.00">stdbool.h</text>
</g>
<!-- Node1&#45;&gt;Node3 -->
<g id="edge2" class="edge"><title>Node1&#45;&gt;Node3</title>
<path fill="none" stroke="midnightblue" d="M459.967,-112.437C432.916,-104.147 391.66,-90.703 357,-76 339.067,-68.3927 335.735,-64.057 318,-56 291.372,-43.9031 260.48,-31.7237 237.733,-23.0919"/>
<polygon fill="midnightblue" stroke="midnightblue" points="238.802,-19.7544 228.21,-19.5047 236.334,-26.3051 238.802,-19.7544"/>
</g>
<!-- Node4 -->
<g id="node4" class="node"><title>Node4</title>
<polygon fill="white" stroke="#bfbfbf" points="638,-0.5 638,-19.5 684,-19.5 684,-0.5 638,-0.5"/>
<text text-anchor="middle" x="661" y="-7.5" font-family="Helvetica,sans-Serif" font-size="10.00">stdio.h</text>
</g>
<!-- Node1&#45;&gt;Node4 -->
<g id="edge3" class="edge"><title>Node1&#45;&gt;Node4</title>
<path fill="none" stroke="midnightblue" d="M530.518,-119.197C591.299,-115.588 699.915,-105.135 724,-76 739.646,-57.0734 712.72,-37.0349 689.364,-24.2933"/>
<polygon fill="midnightblue" stroke="midnightblue" points="690.848,-21.1203 680.359,-19.6246 687.626,-27.3347 690.848,-21.1203"/>
</g>
<!-- Node5 -->
<g id="node5" class="node"><title>Node5</title>
<polygon fill="white" stroke="#bfbfbf" points="260.5,-56.5 260.5,-75.5 309.5,-75.5 309.5,-56.5 260.5,-56.5"/>
<text text-anchor="middle" x="285" y="-63.5" font-family="Helvetica,sans-Serif" font-size="10.00">string.h</text>
</g>
<!-- Node1&#45;&gt;Node5 -->
<g id="edge4" class="edge"><title>Node1&#45;&gt;Node5</title>
<path fill="none" stroke="midnightblue" d="M456.676,-112.444C419.239,-102.534 357.814,-86.2743 319.483,-76.1278"/>
<polygon fill="midnightblue" stroke="midnightblue" points="320.356,-72.7386 309.794,-73.5631 318.565,-79.5055 320.356,-72.7386"/>
</g>
<!-- Node6 -->
<g id="node6" class="node"><title>Node6</title>
<g id="a_node6"><a xlink:href="pop__private_8h.html" target="_top" xlink:title="POP network mailbox. ">
<polygon fill="white" stroke="red" points="167.5,-56.5 167.5,-75.5 242.5,-75.5 242.5,-56.5 167.5,-56.5"/>
<text text-anchor="middle" x="205" y="-63.5" font-family="Helvetica,sans-Serif" font-size="10.00">pop_private.h</text>
</a>
</g>
</g>
<!-- Node1&#45;&gt;Node6 -->
<g id="edge5" class="edge"><title>Node1&#45;&gt;Node6</title>
<path fill="none" stroke="midnightblue" d="M447.282,-113.195C401.793,-104.666 326.57,-90.5085 252.604,-76.3004"/>
<polygon fill="midnightblue" stroke="midnightblue" points="253.133,-72.838 242.652,-74.3868 251.811,-79.7121 253.133,-72.838"/>
</g>
<!-- Node7 -->
<g id="node7" class="node"><title>Node7</title>
<polygon fill="white" stroke="#bfbfbf" points="366.5,-56.5 366.5,-75.5 433.5,-75.5 433.5,-56.5 366.5,-56.5"/>
<text text-anchor="middle" x="400" y="-63.5" font-family="Helvetica,sans-Serif" font-size="10.00">mutt/mutt.h</text>
</g>
<!-- Node1&#45;&gt;Node7 -->
<g id="edge7" class="edge"><title>Node1&#45;&gt;Node7</title>
<path fill="none" stroke="midnightblue" d="M474.701,-112.324C460.817,-103.9 439.508,-90.9709 423.196,-81.0741"/>
<polygon fill="midnightblue" stroke="midnightblue" points="424.629,-77.8495 414.264,-75.6545 420.998,-83.8341 424.629,-77.8495"/>
</g>
<!-- Node8 -->
<g id="node8" class="node"><title>Node8</title>
<g id="a_node8"><a xlink:href="email_8h.html" target="_top" xlink:title="Structs that make up an email. ">
<polygon fill="white" stroke="red" points="452,-56.5 452,-75.5 526,-75.5 526,-56.5 452,-56.5"/>
<text text-anchor="middle" x="489" y="-63.5" font-family="Helvetica,sans-Serif" font-size="10.00">email/email.h</text>
</a>
</g>
</g>
<!-- Node1&#45;&gt;Node8 -->
<g id="edge8" class="edge"><title>Node1&#45;&gt;Node8</title>
<path fill="none" stroke="midnightblue" d="M489,-112.083C489,-105.006 489,-94.8611 489,-85.9865"/>
<polygon fill="midnightblue" stroke="midnightblue" points="492.5,-85.751 489,-75.7511 485.5,-85.7511 492.5,-85.751"/>
</g>
<!-- Node9 -->
<g id="node9" class="node"><title>Node9</title>
<g id="a_node9"><a xlink:href="conn_8h.html" target="_top" xlink:title="Connection Library. ">
<polygon fill="white" stroke="red" points="544,-56.5 544,-75.5 614,-75.5 614,-56.5 544,-56.5"/>
<text text-anchor="middle" x="579" y="-63.5" font-family="Helvetica,sans-Serif" font-size="10.00">conn/conn.h</text>
</a>
</g>
</g>
<!-- Node1&#45;&gt;Node9 -->
<g id="edge9" class="edge"><title>Node1&#45;&gt;Node9</title>
<path fill="none" stroke="midnightblue" d="M503.46,-112.324C517.5,-103.9 539.048,-90.9709 555.543,-81.0741"/>
<polygon fill="midnightblue" stroke="midnightblue" points="557.802,-83.8007 564.576,-75.6545 554.2,-77.7983 557.802,-83.8007"/>
</g>
<!-- Node10 -->
<g id="node10" class="node"><title>Node10</title>
<g id="a_node10"><a xlink:href="mutt__account_8h.html" target="_top" xlink:title="Account object used by POP and IMAP. ">
<polygon fill="white" stroke="black" points="632,-56.5 632,-75.5 716,-75.5 716,-56.5 632,-56.5"/>
<text text-anchor="middle" x="674" y="-63.5" font-family="Helvetica,sans-Serif" font-size="10.00">mutt_account.h</text>
</a>
</g>
</g>
<!-- Node1&#45;&gt;Node10 -->
<g id="edge11" class="edge"><title>Node1&#45;&gt;Node10</title>
<path fill="none" stroke="midnightblue" d="M518.314,-112.444C549.842,-103.241 600.131,-88.5617 634.986,-78.3879"/>
<polygon fill="midnightblue" stroke="midnightblue" points="636.205,-81.6783 644.823,-75.5164 634.243,-74.9587 636.205,-81.6783"/>
</g>
<!-- Node11 -->
<g id="node11" class="node"><title>Node11</title>
<g id="a_node11"><a xlink:href="mutt__logging_8h.html" target="_top" xlink:title="Mutt Logging. ">
<polygon fill="white" stroke="red" points="69,-56.5 69,-75.5 149,-75.5 149,-56.5 69,-56.5"/>
<text text-anchor="middle" x="109" y="-63.5" font-family="Helvetica,sans-Serif" font-size="10.00">mutt_logging.h</text>
</a>
</g>
</g>
<!-- Node1&#45;&gt;Node11 -->
<g id="edge12" class="edge"><title>Node1&#45;&gt;Node11</title>
<path fill="none" stroke="midnightblue" d="M447.367,-115.971C386.379,-108.466 268.939,-93.4898 159.016,-76.1004"/>
<polygon fill="midnightblue" stroke="midnightblue" points="159.511,-72.6353 149.085,-74.5195 158.411,-79.5483 159.511,-72.6353"/>
</g>
<!-- Node12 -->
<g id="node12" class="node"><title>Node12</title>
<g id="a_node12"><a xlink:href="mutt__socket_8h.html" target="_top" xlink:title="NeoMutt connections. ">
<polygon fill="white" stroke="black" points="772.5,-56.5 772.5,-75.5 851.5,-75.5 851.5,-56.5 772.5,-56.5"/>
<text text-anchor="middle" x="812" y="-63.5" font-family="Helvetica,sans-Serif" font-size="10.00">mutt_socket.h</text>
</a>
</g>
</g>
<!-- Node1&#45;&gt;Node12 -->
<g id="edge14" class="edge"><title>Node1&#45;&gt;Node12</title>
<path fill="none" stroke="midnightblue" d="M530.565,-114.051C589.88,-104.135 698.641,-85.9516 762.189,-75.3275"/>
<polygon fill="midnightblue" stroke="midnightblue" points="763.079,-78.7273 772.365,-73.6262 761.925,-71.8231 763.079,-78.7273"/>
</g>
<!-- Node13 -->
<g id="node13" class="node"><title>Node13</title>
<polygon fill="white" stroke="#bfbfbf" points="870,-56.5 870,-75.5 934,-75.5 934,-56.5 870,-56.5"/>
<text text-anchor="middle" x="902" y="-63.5" font-family="Helvetica,sans-Serif" font-size="10.00">sasl/sasl.h</text>
</g>
<!-- Node1&#45;&gt;Node13 -->
<g id="edge15" class="edge"><title>Node1&#45;&gt;Node13</title>
<path fill="none" stroke="midnightblue" d="M530.627,-117.19C599.442,-110.614 741.137,-95.9022 860,-76 860.101,-75.9831 860.202,-75.9661 860.304,-75.949"/>
<polygon fill="midnightblue" stroke="midnightblue" points="860.749,-79.4258 869.954,-74.179 859.486,-72.5406 860.749,-79.4258"/>
</g>
<!-- Node14 -->
<g id="node14" class="node"><title>Node14</title>
<polygon fill="white" stroke="#bfbfbf" points="952.5,-56.5 952.5,-75.5 1029.5,-75.5 1029.5,-56.5 952.5,-56.5"/>
<text text-anchor="middle" x="991" y="-63.5" font-family="Helvetica,sans-Serif" font-size="10.00">sasl/saslutil.h</text>
</g>
<!-- Node1&#45;&gt;Node14 -->
<g id="edge16" class="edge"><title>Node1&#45;&gt;Node14</title>
<path fill="none" stroke="midnightblue" d="M530.77,-118.075C609.224,-112.319 784.142,-98.2394 941.909,-76.033"/>
<polygon fill="midnightblue" stroke="midnightblue" points="942.868,-79.432 952.275,-74.5586 941.882,-72.5018 942.868,-79.432"/>
</g>
<!-- Node6&#45;&gt;Node3 -->
<g id="edge6" class="edge"><title>Node6&#45;&gt;Node3</title>
<path fill="none" stroke="midnightblue" d="M205,-56.083C205,-49.0059 205,-38.8611 205,-29.9865"/>
<polygon fill="midnightblue" stroke="midnightblue" points="208.5,-29.751 205,-19.7511 201.5,-29.7511 208.5,-29.751"/>
</g>
<!-- Node9&#45;&gt;Node4 -->
<g id="edge10" class="edge"><title>Node9&#45;&gt;Node4</title>
<path fill="none" stroke="midnightblue" d="M592.175,-56.324C604.847,-47.979 624.233,-35.2122 639.206,-25.3524"/>
<polygon fill="midnightblue" stroke="midnightblue" points="641.431,-28.0776 647.858,-19.6545 637.581,-22.2313 641.431,-28.0776"/>
</g>
<!-- Node11&#45;&gt;Node3 -->
<g id="edge13" class="edge"><title>Node11&#45;&gt;Node3</title>
<path fill="none" stroke="midnightblue" d="M124.424,-56.324C139.54,-47.8215 162.815,-34.7288 180.471,-24.7975"/>
<polygon fill="midnightblue" stroke="midnightblue" points="182.614,-27.6077 189.614,-19.6545 179.183,-21.5066 182.614,-27.6077"/>
</g>
</g>
</svg>
