<?xml version="1.0" encoding="UTF-8" standalone="no"?>
<!DOCTYPE svg PUBLIC "-//W3C//DTD SVG 1.1//EN"
 "http://www.w3.org/Graphics/SVG/1.1/DTD/svg11.dtd">
<!-- Generated by graphviz version 2.36.0 (20140111.2315)
 -->
<!-- Title: pop_logout Pages: 1 -->
<svg width="202pt" height="104pt"
 viewBox="0.00 0.00 202.00 104.00" xmlns="http://www.w3.org/2000/svg" xmlns:xlink="http://www.w3.org/1999/xlink">
<g id="graph0" class="graph" transform="scale(1 1) rotate(0) translate(4 100)">
<title>pop_logout</title>
<polygon fill="white" stroke="none" points="-4,4 -4,-100 198,-100 198,4 -4,4"/>
<!-- Node1 -->
<g id="node1" class="node"><title>Node1</title>
<polygon fill="#bfbfbf" stroke="black" points="0,-38.5 0,-57.5 64,-57.5 64,-38.5 0,-38.5"/>
<text text-anchor="middle" x="32" y="-45.5" font-family="Helvetica,sans-Serif" font-size="10.00">pop_logout</text>
</g>
<!-- Node2 -->
<g id="node2" class="node"><title>Node2</title>
<g id="a_node2"><a xlink:href="pop_8c.html#a4bf00ce096aa9d235408e7e79be71732" target="_top" xlink:title="close POP mailbox ">
<polygon fill="white" stroke="black" points="102,-76.5 102,-95.5 192,-95.5 192,-76.5 102,-76.5"/>
<text text-anchor="middle" x="147" y="-83.5" font-family="Helvetica,sans-Serif" font-size="10.00">pop_mbox_close</text>
</a>
</g>
</g>
<!-- Node1&#45;&gt;Node2 -->
<g id="edge1" class="edge"><title>Node1&#45;&gt;Node2</title>
<path fill="none" stroke="midnightblue" d="M71.1402,-60.8259C86.3025,-65.9247 103.444,-71.6891 117.494,-76.4141"/>
<polygon fill="midnightblue" stroke="midnightblue" points="72.1087,-57.4591 61.5147,-57.589 69.8775,-64.0939 72.1087,-57.4591"/>
</g>
<!-- Node3 -->
<g id="node3" class="node"><title>Node3</title>
<g id="a_node3"><a xlink:href="pop_8c.html#a70185e596c5a3a204de9b4881c3e9bf2" target="_top" xlink:title="Check for new messages and fetch headers. ">
<polygon fill="white" stroke="black" points="100.5,-38.5 100.5,-57.5 193.5,-57.5 193.5,-38.5 100.5,-38.5"/>
<text text-anchor="middle" x="147" y="-45.5" font-family="Helvetica,sans-Serif" font-size="10.00">pop_mbox_check</text>
</a>
</g>
</g>
<!-- Node1&#45;&gt;Node3 -->
<g id="edge2" class="edge"><title>Node1&#45;&gt;Node3</title>
<path fill="none" stroke="midnightblue" d="M74.4423,-48C82.7944,-48 91.62,-48 100.114,-48"/>
<polygon fill="midnightblue" stroke="midnightblue" points="74.1769,-44.5001 64.1769,-48 74.1768,-51.5001 74.1769,-44.5001"/>
</g>
<!-- Node4 -->
<g id="node4" class="node"><title>Node4</title>
<g id="a_node4"><a xlink:href="pop__private_8h.html#a4d17074436b0e0565956ecb300d28cf2" target="_top" xlink:title="reconnect and verify indexes if connection was lost ">
<polygon fill="white" stroke="red" points="107,-0.5 107,-19.5 187,-19.5 187,-0.5 107,-0.5"/>
<text text-anchor="middle" x="147" y="-7.5" font-family="Helvetica,sans-Serif" font-size="10.00">pop_reconnect</text>
</a>
</g>
</g>
<!-- Node1&#45;&gt;Node4 -->
<g id="edge3" class="edge"><title>Node1&#45;&gt;Node4</title>
<path fill="none" stroke="midnightblue" d="M71.1402,-35.1741C86.3025,-30.0753 103.444,-24.3109 117.494,-19.5859"/>
<polygon fill="midnightblue" stroke="midnightblue" points="69.8775,-31.9061 61.5147,-38.411 72.1087,-38.5409 69.8775,-31.9061"/>
</g>
</g>
</svg>
