<?xml version="1.0" encoding="UTF-8" standalone="no"?>
<!DOCTYPE svg PUBLIC "-//W3C//DTD SVG 1.1//EN"
 "http://www.w3.org/Graphics/SVG/1.1/DTD/svg11.dtd">
<!-- Generated by graphviz version 2.36.0 (20140111.2315)
 -->
<!-- Title: pop_auth_sasl Pages: 1 -->
<svg width="374pt" height="256pt"
 viewBox="0.00 0.00 374.00 256.00" xmlns="http://www.w3.org/2000/svg" xmlns:xlink="http://www.w3.org/1999/xlink">
<g id="graph0" class="graph" transform="scale(1 1) rotate(0) translate(4 252)">
<title>pop_auth_sasl</title>
<polygon fill="white" stroke="none" points="-4,4 -4,-252 370,-252 370,4 -4,4"/>
<!-- Node1 -->
<g id="node1" class="node"><title>Node1</title>
<polygon fill="#bfbfbf" stroke="black" points="0,-114.5 0,-133.5 80,-133.5 80,-114.5 0,-114.5"/>
<text text-anchor="middle" x="40" y="-121.5" font-family="Helvetica,sans-Serif" font-size="10.00">pop_auth_sasl</text>
</g>
<!-- Node2 -->
<g id="node2" class="node"><title>Node2</title>
<g id="a_node2"><a xlink:href="sasl_8c.html#ad6e1863eb3486324234dea5b32516ccf" target="_top" xlink:title="wrapper for sasl_client_new ">
<polygon fill="white" stroke="red" points="118.5,-228.5 118.5,-247.5 229.5,-247.5 229.5,-228.5 118.5,-228.5"/>
<text text-anchor="middle" x="174" y="-235.5" font-family="Helvetica,sans-Serif" font-size="10.00">mutt_sasl_client_new</text>
</a>
</g>
</g>
<!-- Node1&#45;&gt;Node2 -->
<g id="edge1" class="edge"><title>Node1&#45;&gt;Node2</title>
<path fill="none" stroke="midnightblue" d="M46.0334,-133.601C56.5019,-152.659 82.464,-195.455 116,-219 118.732,-220.918 121.671,-222.653 124.724,-224.222"/>
<polygon fill="midnightblue" stroke="midnightblue" points="123.57,-227.54 134.126,-228.442 126.436,-221.154 123.57,-227.54"/>
</g>
<!-- Node3 -->
<g id="node3" class="node"><title>Node3</title>
<g id="a_node3"><a xlink:href="sasl_8c.html#a69d46ce6a265526da2e547529fe2d44b" target="_top" xlink:title="Perform an SASL interaction with the user. ">
<polygon fill="white" stroke="red" points="125.5,-190.5 125.5,-209.5 222.5,-209.5 222.5,-190.5 125.5,-190.5"/>
<text text-anchor="middle" x="174" y="-197.5" font-family="Helvetica,sans-Serif" font-size="10.00">mutt_sasl_interact</text>
</a>
</g>
</g>
<!-- Node1&#45;&gt;Node3 -->
<g id="edge2" class="edge"><title>Node1&#45;&gt;Node3</title>
<path fill="none" stroke="midnightblue" d="M53.224,-133.666C67.6612,-144.794 92.6705,-163.183 116,-176 122.793,-179.732 130.288,-183.268 137.548,-186.421"/>
<polygon fill="midnightblue" stroke="midnightblue" points="136.638,-189.835 147.214,-190.467 139.341,-183.377 136.638,-189.835"/>
</g>
<!-- Node4 -->
<g id="node4" class="node"><title>Node4</title>
<g id="a_node4"><a xlink:href="memory_8c.html#a264da4dc58e6dc8983285bd1f538f24d" target="_top" xlink:title="Allocate memory on the heap. ">
<polygon fill="white" stroke="red" points="268.5,-152.5 268.5,-171.5 365.5,-171.5 365.5,-152.5 268.5,-152.5"/>
<text text-anchor="middle" x="317" y="-159.5" font-family="Helvetica,sans-Serif" font-size="10.00">mutt_mem_malloc</text>
</a>
</g>
</g>
<!-- Node1&#45;&gt;Node4 -->
<g id="edge4" class="edge"><title>Node1&#45;&gt;Node4</title>
<path fill="none" stroke="midnightblue" d="M73.9936,-133.522C86.9887,-136.966 102.103,-140.594 116,-143 163.581,-151.237 218.193,-156.122 258.315,-158.871"/>
<polygon fill="midnightblue" stroke="midnightblue" points="258.239,-162.374 268.449,-159.541 258.701,-155.389 258.239,-162.374"/>
</g>
<!-- Node5 -->
<g id="node5" class="node"><title>Node5</title>
<g id="a_node5"><a xlink:href="mutt_2string_8c.html#a3b8965b21d6e21536750f8883cd4333a" target="_top" xlink:title="Copy a string into a buffer (guaranteeing NUL&#45;termination) ">
<polygon fill="white" stroke="black" points="130,-114.5 130,-133.5 218,-133.5 218,-114.5 130,-114.5"/>
<text text-anchor="middle" x="174" y="-121.5" font-family="Helvetica,sans-Serif" font-size="10.00">mutt_str_strfcpy</text>
</a>
</g>
</g>
<!-- Node1&#45;&gt;Node5 -->
<g id="edge5" class="edge"><title>Node1&#45;&gt;Node5</title>
<path fill="none" stroke="midnightblue" d="M80.247,-124C92.5999,-124 106.458,-124 119.62,-124"/>
<polygon fill="midnightblue" stroke="midnightblue" points="119.985,-127.5 129.985,-124 119.985,-120.5 119.985,-127.5"/>
</g>
<!-- Node6 -->
<g id="node6" class="node"><title>Node6</title>
<g id="a_node6"><a xlink:href="mutt_2string_8c.html#a0f37dc8085c127cb48df9b47a21236a6" target="_top" xlink:title="Compare two strings (to a maximum), safely. ">
<polygon fill="white" stroke="black" points="127.5,-76.5 127.5,-95.5 220.5,-95.5 220.5,-76.5 127.5,-76.5"/>
<text text-anchor="middle" x="174" y="-83.5" font-family="Helvetica,sans-Serif" font-size="10.00">mutt_str_strncmp</text>
</a>
</g>
</g>
<!-- Node1&#45;&gt;Node6 -->
<g id="edge6" class="edge"><title>Node1&#45;&gt;Node6</title>
<path fill="none" stroke="midnightblue" d="M74.3092,-114.411C91.1928,-109.551 111.895,-103.591 129.971,-98.3873"/>
<polygon fill="midnightblue" stroke="midnightblue" points="131.06,-101.716 139.701,-95.5859 129.123,-94.989 131.06,-101.716"/>
</g>
<!-- Node7 -->
<g id="node7" class="node"><title>Node7</title>
<g id="a_node7"><a xlink:href="memory_8c.html#af778eb8166966fc0666c64849f6c7c5b" target="_top" xlink:title="Resize a block of memory on the heap. ">
<polygon fill="white" stroke="red" points="125.5,-38.5 125.5,-57.5 222.5,-57.5 222.5,-38.5 125.5,-38.5"/>
<text text-anchor="middle" x="174" y="-45.5" font-family="Helvetica,sans-Serif" font-size="10.00">mutt_mem_realloc</text>
</a>
</g>
</g>
<!-- Node1&#45;&gt;Node7 -->
<g id="edge7" class="edge"><title>Node1&#45;&gt;Node7</title>
<path fill="none" stroke="midnightblue" d="M51.4098,-114.292C65.231,-101.845 90.8357,-80.2872 116,-67 120,-64.8882 124.279,-62.9466 128.63,-61.1783"/>
<polygon fill="midnightblue" stroke="midnightblue" points="130.057,-64.3809 138.185,-57.585 127.593,-57.8289 130.057,-64.3809"/>
</g>
<!-- Node8 -->
<g id="node8" class="node"><title>Node8</title>
<g id="a_node8"><a xlink:href="sasl_8c.html#af737590d183a661ad5cc6bd2de7fe280" target="_top" xlink:title="Set up an SASL connection. ">
<polygon fill="white" stroke="red" points="116.5,-0.5 116.5,-19.5 231.5,-19.5 231.5,-0.5 116.5,-0.5"/>
<text text-anchor="middle" x="174" y="-7.5" font-family="Helvetica,sans-Serif" font-size="10.00">mutt_sasl_setup_conn</text>
</a>
</g>
</g>
<!-- Node1&#45;&gt;Node8 -->
<g id="edge8" class="edge"><title>Node1&#45;&gt;Node8</title>
<path fill="none" stroke="midnightblue" d="M46.0334,-114.399C56.5019,-95.3413 82.464,-52.5453 116,-29 118.732,-27.082 121.671,-25.3466 124.724,-23.7781"/>
<polygon fill="midnightblue" stroke="midnightblue" points="126.436,-26.846 134.126,-19.5579 123.57,-20.4598 126.436,-26.846"/>
</g>
<!-- Node3&#45;&gt;Node4 -->
<g id="edge3" class="edge"><title>Node3&#45;&gt;Node4</title>
<path fill="none" stroke="midnightblue" d="M210.58,-190.411C228.782,-185.506 251.138,-179.48 270.572,-174.243"/>
<polygon fill="midnightblue" stroke="midnightblue" points="271.686,-177.568 280.431,-171.586 269.865,-170.809 271.686,-177.568"/>
</g>
<!-- Node8&#45;&gt;Node4 -->
<g id="edge9" class="edge"><title>Node8&#45;&gt;Node4</title>
<path fill="none" stroke="midnightblue" d="M215.411,-19.57C221.325,-22.0456 227.073,-25.1399 232,-29 271.249,-59.7527 297.24,-114.29 308.92,-143.044"/>
<polygon fill="midnightblue" stroke="midnightblue" points="305.67,-144.342 312.574,-152.379 312.188,-141.791 305.67,-144.342"/>
</g>
</g>
</svg>
