<?xml version="1.0" encoding="UTF-8" standalone="no"?>
<!DOCTYPE svg PUBLIC "-//W3C//DTD SVG 1.1//EN"
 "http://www.w3.org/Graphics/SVG/1.1/DTD/svg11.dtd">
<!-- Generated by graphviz version 2.36.0 (20140111.2315)
 -->
<!-- Title: fetch_auth Pages: 1 -->
<svg width="192pt" height="28pt"
 viewBox="0.00 0.00 192.00 28.00" xmlns="http://www.w3.org/2000/svg" xmlns:xlink="http://www.w3.org/1999/xlink">
<g id="graph0" class="graph" transform="scale(1 1) rotate(0) translate(4 24)">
<title>fetch_auth</title>
<polygon fill="white" stroke="none" points="-4,4 -4,-24 188,-24 188,4 -4,4"/>
<!-- Node1 -->
<g id="node1" class="node"><title>Node1</title>
<polygon fill="#bfbfbf" stroke="black" points="0,-0.5 0,-19.5 62,-19.5 62,-0.5 0,-0.5"/>
<text text-anchor="middle" x="31" y="-7.5" font-family="Helvetica,sans-Serif" font-size="10.00">fetch_auth</text>
</g>
<!-- Node2 -->
<g id="node2" class="node"><title>Node2</title>
<g id="a_node2"><a xlink:href="pop__lib_8c.html#a52de6e568acaac79c1ac35b5eb04fcbc" target="_top" xlink:title="Get capabilities from a POP server. ">
<polygon fill="white" stroke="red" points="98,-0.5 98,-19.5 184,-19.5 184,-0.5 98,-0.5"/>
<text text-anchor="middle" x="141" y="-7.5" font-family="Helvetica,sans-Serif" font-size="10.00">pop_capabilities</text>
</a>
</g>
</g>
<!-- Node1&#45;&gt;Node2 -->
<g id="edge1" class="edge"><title>Node1&#45;&gt;Node2</title>
<path fill="none" stroke="midnightblue" d="M72.3603,-10C80.7223,-10 89.5513,-10 97.9714,-10"/>
<polygon fill="midnightblue" stroke="midnightblue" points="72.0841,-6.5001 62.084,-10 72.084,-13.5001 72.0841,-6.5001"/>
</g>
</g>
</svg>
