<?xml version="1.0" encoding="UTF-8" standalone="no"?>
<!DOCTYPE svg PUBLIC "-//W3C//DTD SVG 1.1//EN"
 "http://www.w3.org/Graphics/SVG/1.1/DTD/svg11.dtd">
<!-- Generated by graphviz version 2.36.0 (20140111.2315)
 -->
<!-- Title: cache_id Pages: 1 -->
<svg width="194pt" height="77pt"
 viewBox="0.00 0.00 194.00 77.00" xmlns="http://www.w3.org/2000/svg" xmlns:xlink="http://www.w3.org/1999/xlink">
<g id="graph0" class="graph" transform="scale(1 1) rotate(0) translate(4 73)">
<title>cache_id</title>
<polygon fill="white" stroke="none" points="-4,4 -4,-73 190,-73 190,4 -4,4"/>
<!-- Node1 -->
<g id="node1" class="node"><title>Node1</title>
<polygon fill="#bfbfbf" stroke="black" points="0,-27.5 0,-46.5 56,-46.5 56,-27.5 0,-27.5"/>
<text text-anchor="middle" x="28" y="-34.5" font-family="Helvetica,sans-Serif" font-size="10.00">cache_id</text>
</g>
<!-- Node2 -->
<g id="node2" class="node"><title>Node2</title>
<g id="a_node2"><a xlink:href="mutt_2string_8c.html#a3b8965b21d6e21536750f8883cd4333a" target="_top" xlink:title="Copy a string into a buffer (guaranteeing NUL&#45;termination) ">
<polygon fill="white" stroke="black" points="95,-49.5 95,-68.5 183,-68.5 183,-49.5 95,-49.5"/>
<text text-anchor="middle" x="139" y="-56.5" font-family="Helvetica,sans-Serif" font-size="10.00">mutt_str_strfcpy</text>
</a>
</g>
</g>
<!-- Node1&#45;&gt;Node2 -->
<g id="edge1" class="edge"><title>Node1&#45;&gt;Node2</title>
<path fill="none" stroke="midnightblue" d="M56.2241,-42.4948C64.926,-44.2511 74.8777,-46.2597 84.7735,-48.257"/>
<polygon fill="midnightblue" stroke="midnightblue" points="84.1074,-51.6931 94.6022,-50.2408 85.4924,-44.8315 84.1074,-51.6931"/>
</g>
<!-- Node3 -->
<g id="node3" class="node"><title>Node3</title>
<g id="a_node3"><a xlink:href="file_8c.html#a6ffe0a6129e5a22756de929de1870121" target="_top" xlink:title="Replace unsafe characters in a filename. ">
<polygon fill="white" stroke="black" points="92.5,-0 92.5,-30 185.5,-30 185.5,-0 92.5,-0"/>
<text text-anchor="start" x="100.5" y="-18" font-family="Helvetica,sans-Serif" font-size="10.00">mutt_file_sanitize</text>
<text text-anchor="middle" x="139" y="-7" font-family="Helvetica,sans-Serif" font-size="10.00">_filename</text>
</a>
</g>
</g>
<!-- Node1&#45;&gt;Node3 -->
<g id="edge2" class="edge"><title>Node1&#45;&gt;Node3</title>
<path fill="none" stroke="midnightblue" d="M56.2241,-31.5052C64.2816,-29.8789 73.4108,-28.0364 82.5748,-26.1867"/>
<polygon fill="midnightblue" stroke="midnightblue" points="83.3735,-29.5962 92.4834,-24.1868 81.9886,-22.7346 83.3735,-29.5962"/>
</g>
</g>
</svg>
