<?xml version="1.0" encoding="UTF-8" standalone="no"?>
<!DOCTYPE svg PUBLIC "-//W3C//DTD SVG 1.1//EN"
 "http://www.w3.org/Graphics/SVG/1.1/DTD/svg11.dtd">
<!-- Generated by graphviz version 2.36.0 (20140111.2315)
 -->
<!-- Title: pop_fetch_mail Pages: 1 -->
<svg width="370pt" height="610pt"
 viewBox="0.00 0.00 370.00 610.38" xmlns="http://www.w3.org/2000/svg" xmlns:xlink="http://www.w3.org/1999/xlink">
<g id="graph0" class="graph" transform="scale(1 1) rotate(0) translate(4 606.382)">
<title>pop_fetch_mail</title>
<polygon fill="white" stroke="none" points="-4,4 -4,-606.382 366,-606.382 366,4 -4,4"/>
<!-- Node1 -->
<g id="node1" class="node"><title>Node1</title>
<polygon fill="#bfbfbf" stroke="black" points="0.5,-285.5 0.5,-304.5 83.5,-304.5 83.5,-285.5 0.5,-285.5"/>
<text text-anchor="middle" x="42" y="-292.5" font-family="Helvetica,sans-Serif" font-size="10.00">pop_fetch_mail</text>
</g>
<!-- Node2 -->
<g id="node2" class="node"><title>Node2</title>
<g id="a_node2"><a xlink:href="memory_8c.html#a4c1612d209c7825d55e6a014df352f03" target="_top" xlink:title="Allocate zeroed memory on the heap. ">
<polygon fill="white" stroke="red" points="268,-569.5 268,-588.5 362,-588.5 362,-569.5 268,-569.5"/>
<text text-anchor="middle" x="315" y="-576.5" font-family="Helvetica,sans-Serif" font-size="10.00">mutt_mem_calloc</text>
</a>
</g>
</g>
<!-- Node1&#45;&gt;Node2 -->
<g id="edge1" class="edge"><title>Node1&#45;&gt;Node2</title>
<path fill="none" stroke="midnightblue" d="M44.0704,-304.643C49.3537,-350.302 74.2517,-544.004 120,-579 164.826,-613.29 234.088,-602.691 276.591,-591.276"/>
<polygon fill="midnightblue" stroke="midnightblue" points="277.601,-594.627 286.271,-588.537 275.695,-587.892 277.601,-594.627"/>
</g>
<!-- Node3 -->
<g id="node3" class="node"><title>Node3</title>
<g id="a_node3"><a xlink:href="url_8c.html#a62966c55e1aee3e55a464bdb125691c1" target="_top" xlink:title="Check the protocol of a URL. ">
<polygon fill="white" stroke="red" points="127,-474.5 127,-493.5 225,-493.5 225,-474.5 127,-474.5"/>
<text text-anchor="middle" x="176" y="-481.5" font-family="Helvetica,sans-Serif" font-size="10.00">url_check_scheme</text>
</a>
</g>
</g>
<!-- Node1&#45;&gt;Node3 -->
<g id="edge2" class="edge"><title>Node1&#45;&gt;Node3</title>
<path fill="none" stroke="midnightblue" d="M44.6174,-304.643C49.9272,-333.323 69.4717,-418.95 120,-465 121.729,-466.576 123.595,-468.022 125.56,-469.349"/>
<polygon fill="midnightblue" stroke="midnightblue" points="124.243,-472.622 134.681,-474.438 127.653,-466.509 124.243,-472.622"/>
</g>
<!-- Node4 -->
<g id="node4" class="node"><title>Node4</title>
<g id="a_node4"><a xlink:href="mutt_2string_8c.html#a3b8965b21d6e21536750f8883cd4333a" target="_top" xlink:title="Copy a string into a buffer (guaranteeing NUL&#45;termination) ">
<polygon fill="white" stroke="black" points="271,-436.5 271,-455.5 359,-455.5 359,-436.5 271,-436.5"/>
<text text-anchor="middle" x="315" y="-443.5" font-family="Helvetica,sans-Serif" font-size="10.00">mutt_str_strfcpy</text>
</a>
</g>
</g>
<!-- Node1&#45;&gt;Node4 -->
<g id="edge10" class="edge"><title>Node1&#45;&gt;Node4</title>
<path fill="none" stroke="midnightblue" d="M43.0419,-304.687C43.779,-339.002 51.422,-455.261 120,-503 160.854,-531.439 184.501,-517.887 232,-503 257.126,-495.125 281.3,-476.532 296.809,-462.71"/>
<polygon fill="midnightblue" stroke="midnightblue" points="299.513,-464.977 304.484,-455.62 294.763,-459.835 299.513,-464.977"/>
</g>
<!-- Node5 -->
<g id="node5" class="node"><title>Node5</title>
<g id="a_node5"><a xlink:href="pop__lib_8c.html#a701e7f371e5551a9a68d94905e4bc6b5" target="_top" xlink:title="Parse a POP mailbox name. ">
<polygon fill="white" stroke="red" points="133,-228.5 133,-247.5 219,-247.5 219,-228.5 133,-228.5"/>
<text text-anchor="middle" x="176" y="-235.5" font-family="Helvetica,sans-Serif" font-size="10.00">pop_parse_path</text>
</a>
</g>
</g>
<!-- Node1&#45;&gt;Node5 -->
<g id="edge4" class="edge"><title>Node1&#45;&gt;Node5</title>
<path fill="none" stroke="midnightblue" d="M65.0938,-285.459C86.5097,-276.212 119.213,-262.09 143.382,-251.653"/>
<polygon fill="midnightblue" stroke="midnightblue" points="145.041,-254.749 152.834,-247.572 142.266,-248.323 145.041,-254.749"/>
</g>
<!-- Node6 -->
<g id="node6" class="node"><title>Node6</title>
<g id="a_node6"><a xlink:href="mutt__socket_8c.html#a1562d6bd9d3bfb8dfbae3e2efc81344e" target="_top" xlink:title="Find a connection from a list. ">
<polygon fill="white" stroke="red" points="134.5,-190.5 134.5,-209.5 217.5,-209.5 217.5,-190.5 134.5,-190.5"/>
<text text-anchor="middle" x="176" y="-197.5" font-family="Helvetica,sans-Serif" font-size="10.00">mutt_conn_find</text>
</a>
</g>
</g>
<!-- Node1&#45;&gt;Node6 -->
<g id="edge5" class="edge"><title>Node1&#45;&gt;Node6</title>
<path fill="none" stroke="midnightblue" d="M50.2631,-285.451C62.8293,-269.542 90.1618,-237.531 120,-219 123.191,-217.018 126.616,-215.211 130.139,-213.57"/>
<polygon fill="midnightblue" stroke="midnightblue" points="131.73,-216.698 139.602,-209.607 129.026,-210.242 131.73,-216.698"/>
</g>
<!-- Node7 -->
<g id="node7" class="node"><title>Node7</title>
<g id="a_node7"><a xlink:href="pop__lib_8c.html#a9c34e1890bd21e4def6b67b744fe8cc3" target="_top" xlink:title="Open connection and authenticate. ">
<polygon fill="white" stroke="red" points="120.5,-398.5 120.5,-417.5 231.5,-417.5 231.5,-398.5 120.5,-398.5"/>
<text text-anchor="middle" x="176" y="-405.5" font-family="Helvetica,sans-Serif" font-size="10.00">pop_open_connection</text>
</a>
</g>
</g>
<!-- Node1&#45;&gt;Node7 -->
<g id="edge6" class="edge"><title>Node1&#45;&gt;Node7</title>
<path fill="none" stroke="midnightblue" d="M48.453,-304.753C59.5159,-323.685 86.4215,-365.604 120,-389 122.735,-390.906 125.679,-392.636 128.733,-394.204"/>
<polygon fill="midnightblue" stroke="midnightblue" points="127.567,-397.518 138.122,-398.436 130.444,-391.136 127.567,-397.518"/>
</g>
<!-- Node8 -->
<g id="node8" class="node"><title>Node8</title>
<g id="a_node8"><a xlink:href="init_8c.html#a620eb80c92ac555970111949ad0b7c56" target="_top" xlink:title="Ask the user a quad&#45;question. ">
<polygon fill="white" stroke="red" points="268.5,-342.5 268.5,-361.5 361.5,-361.5 361.5,-342.5 268.5,-342.5"/>
<text text-anchor="middle" x="315" y="-349.5" font-family="Helvetica,sans-Serif" font-size="10.00">query_quadoption</text>
</a>
</g>
</g>
<!-- Node1&#45;&gt;Node8 -->
<g id="edge12" class="edge"><title>Node1&#45;&gt;Node8</title>
<path fill="none" stroke="midnightblue" d="M83.6265,-302.811C121.949,-310.264 180.969,-321.96 232,-333 242.391,-335.248 253.498,-337.753 264.075,-340.187"/>
<polygon fill="midnightblue" stroke="midnightblue" points="263.482,-343.642 274.014,-342.488 265.061,-336.822 263.482,-343.642"/>
</g>
<!-- Node9 -->
<g id="node9" class="node"><title>Node9</title>
<g id="a_node9"><a xlink:href="socket_8c.html#a399ed98618b6d28dd9f20d535a48d308" target="_top" xlink:title="remove connection from connection list and free it ">
<polygon fill="white" stroke="black" points="130,-152.5 130,-171.5 222,-171.5 222,-152.5 130,-152.5"/>
<text text-anchor="middle" x="176" y="-159.5" font-family="Helvetica,sans-Serif" font-size="10.00">mutt_socket_free</text>
</a>
</g>
</g>
<!-- Node1&#45;&gt;Node9 -->
<g id="edge9" class="edge"><title>Node1&#45;&gt;Node9</title>
<path fill="none" stroke="midnightblue" d="M47.0023,-285.197C56.4258,-263.305 82.1095,-210.086 120,-181 122.445,-179.123 125.089,-177.423 127.85,-175.886"/>
<polygon fill="midnightblue" stroke="midnightblue" points="129.465,-178.993 136.962,-171.506 126.432,-172.683 129.465,-178.993"/>
</g>
<!-- Node10 -->
<g id="node10" class="node"><title>Node10</title>
<g id="a_node10"><a xlink:href="mx_8c.html#ad33e3ff602855d7d00c86d46bc608b1d" target="_top" xlink:title="Open a mailbox and parse it. ">
<polygon fill="white" stroke="red" points="272,-285.5 272,-304.5 358,-304.5 358,-285.5 272,-285.5"/>
<text text-anchor="middle" x="315" y="-292.5" font-family="Helvetica,sans-Serif" font-size="10.00">mx_mbox_open</text>
</a>
</g>
</g>
<!-- Node1&#45;&gt;Node10 -->
<g id="edge11" class="edge"><title>Node1&#45;&gt;Node10</title>
<path fill="none" stroke="midnightblue" d="M83.5714,-295C131.052,-295 209.784,-295 261.784,-295"/>
<polygon fill="midnightblue" stroke="midnightblue" points="261.811,-298.5 271.811,-295 261.811,-291.5 261.811,-298.5"/>
</g>
<!-- Node11 -->
<g id="node11" class="node"><title>Node11</title>
<g id="a_node11"><a xlink:href="mx_8c.html#aa3e152465266fcd9ae9f838111adbb93" target="_top" xlink:title="Open a new message. ">
<polygon fill="white" stroke="black" points="124,-550.5 124,-569.5 228,-569.5 228,-550.5 124,-550.5"/>
<text text-anchor="middle" x="176" y="-557.5" font-family="Helvetica,sans-Serif" font-size="10.00">mx_msg_open_new</text>
</a>
</g>
</g>
<!-- Node1&#45;&gt;Node11 -->
<g id="edge13" class="edge"><title>Node1&#45;&gt;Node11</title>
<path fill="none" stroke="midnightblue" d="M43.345,-304.656C45.1148,-340.135 55.8385,-464.921 120,-536 123.446,-539.817 127.607,-543.055 132.081,-545.794"/>
<polygon fill="midnightblue" stroke="midnightblue" points="130.482,-548.908 140.961,-550.469 133.743,-542.714 130.482,-548.908"/>
</g>
<!-- Node12 -->
<g id="node12" class="node"><title>Node12</title>
<g id="a_node12"><a xlink:href="pop__lib_8c.html#ac904f3343289681bd5500b928cc243e9" target="_top" xlink:title="Read Headers with callback function. ">
<polygon fill="white" stroke="red" points="134.5,-436.5 134.5,-455.5 217.5,-455.5 217.5,-436.5 134.5,-436.5"/>
<text text-anchor="middle" x="176" y="-443.5" font-family="Helvetica,sans-Serif" font-size="10.00">pop_fetch_data</text>
</a>
</g>
</g>
<!-- Node1&#45;&gt;Node12 -->
<g id="edge15" class="edge"><title>Node1&#45;&gt;Node12</title>
<path fill="none" stroke="midnightblue" d="M45.9464,-304.519C53.8786,-328.6 77.973,-392.478 120,-427 122.049,-428.683 124.256,-430.221 126.568,-431.626"/>
<polygon fill="midnightblue" stroke="midnightblue" points="125.389,-434.955 135.884,-436.408 128.586,-428.727 125.389,-434.955"/>
</g>
<!-- Node13 -->
<g id="node13" class="node"><title>Node13</title>
<g id="a_node13"><a xlink:href="pop_8c.html#a841c3ebbf725cc8b47bfd841e2612cec" target="_top" xlink:title="write line to file ">
<polygon fill="white" stroke="black" points="134.5,-114.5 134.5,-133.5 217.5,-133.5 217.5,-114.5 134.5,-114.5"/>
<text text-anchor="middle" x="176" y="-121.5" font-family="Helvetica,sans-Serif" font-size="10.00">fetch_message</text>
</a>
</g>
</g>
<!-- Node1&#45;&gt;Node13 -->
<g id="edge17" class="edge"><title>Node1&#45;&gt;Node13</title>
<path fill="none" stroke="midnightblue" d="M45.2154,-285.238C51.7794,-258.511 73.6304,-183.445 120,-143 121.932,-141.315 124.021,-139.777 126.218,-138.374"/>
<polygon fill="midnightblue" stroke="midnightblue" points="127.955,-141.414 135.115,-133.604 124.648,-135.245 127.955,-141.414"/>
</g>
<!-- Node14 -->
<g id="node14" class="node"><title>Node14</title>
<g id="a_node14"><a xlink:href="mx_8c.html#a10240b604430ab0a35254716aca125a8" target="_top" xlink:title="commit a message to a folder ">
<polygon fill="white" stroke="black" points="130,-76.5 130,-95.5 222,-95.5 222,-76.5 130,-76.5"/>
<text text-anchor="middle" x="176" y="-83.5" font-family="Helvetica,sans-Serif" font-size="10.00">mx_msg_commit</text>
</a>
</g>
</g>
<!-- Node1&#45;&gt;Node14 -->
<g id="edge18" class="edge"><title>Node1&#45;&gt;Node14</title>
<path fill="none" stroke="midnightblue" d="M44.1329,-285.136C48.2206,-254.063 65.0073,-157.183 120,-105 121.667,-103.418 123.472,-101.967 125.378,-100.637"/>
<polygon fill="midnightblue" stroke="midnightblue" points="127.327,-103.553 134.258,-95.5399 123.843,-97.4821 127.327,-103.553"/>
</g>
<!-- Node15 -->
<g id="node15" class="node"><title>Node15</title>
<g id="a_node15"><a xlink:href="mx_8c.html#a80867e6aff3b2804c4eef734b673982c" target="_top" xlink:title="Close a message. ">
<polygon fill="white" stroke="black" points="134.5,-38.5 134.5,-57.5 217.5,-57.5 217.5,-38.5 134.5,-38.5"/>
<text text-anchor="middle" x="176" y="-45.5" font-family="Helvetica,sans-Serif" font-size="10.00">mx_msg_close</text>
</a>
</g>
</g>
<!-- Node1&#45;&gt;Node15 -->
<g id="edge19" class="edge"><title>Node1&#45;&gt;Node15</title>
<path fill="none" stroke="midnightblue" d="M43.3686,-285.217C45.2088,-250.423 56.1147,-131.329 120,-67 121.648,-65.3401 123.449,-63.8251 125.36,-62.4423"/>
<polygon fill="midnightblue" stroke="midnightblue" points="127.466,-65.2647 134.321,-57.1869 123.925,-59.2264 127.466,-65.2647"/>
</g>
<!-- Node16 -->
<g id="node16" class="node"><title>Node16</title>
<g id="a_node16"><a xlink:href="mx_8c.html#ad0127b193da0a2a0f4469565d4a11c56" target="_top" xlink:title="save changes and close mailbox ">
<polygon fill="white" stroke="red" points="132,-342.5 132,-361.5 220,-361.5 220,-342.5 132,-342.5"/>
<text text-anchor="middle" x="176" y="-349.5" font-family="Helvetica,sans-Serif" font-size="10.00">mx_mbox_close</text>
</a>
</g>
</g>
<!-- Node1&#45;&gt;Node16 -->
<g id="edge20" class="edge"><title>Node1&#45;&gt;Node16</title>
<path fill="none" stroke="midnightblue" d="M65.0938,-304.541C86.5097,-313.788 119.213,-327.91 143.382,-338.347"/>
<polygon fill="midnightblue" stroke="midnightblue" points="142.266,-341.677 152.834,-342.428 145.041,-335.251 142.266,-341.677"/>
</g>
<!-- Node17 -->
<g id="node17" class="node"><title>Node17</title>
<g id="a_node17"><a xlink:href="socket_8c.html#a432eed609a221c68f457302d6e40c383" target="_top" xlink:title="Close a socket. ">
<polygon fill="white" stroke="black" points="126.5,-0.5 126.5,-19.5 225.5,-19.5 225.5,-0.5 126.5,-0.5"/>
<text text-anchor="middle" x="176" y="-7.5" font-family="Helvetica,sans-Serif" font-size="10.00">mutt_socket_close</text>
</a>
</g>
</g>
<!-- Node1&#45;&gt;Node17 -->
<g id="edge25" class="edge"><title>Node1&#45;&gt;Node17</title>
<path fill="none" stroke="midnightblue" d="M42.8171,-285.247C42.6405,-247.01 47.1359,-105.667 120,-29 121.383,-27.5446 122.883,-26.2007 124.473,-24.9597"/>
<polygon fill="midnightblue" stroke="midnightblue" points="126.446,-27.8541 133.054,-19.5729 122.724,-21.9255 126.446,-27.8541"/>
</g>
<!-- Node3&#45;&gt;Node4 -->
<g id="edge3" class="edge"><title>Node3&#45;&gt;Node4</title>
<path fill="none" stroke="midnightblue" d="M211.571,-474.411C229.175,-469.528 250.779,-463.536 269.601,-458.315"/>
<polygon fill="midnightblue" stroke="midnightblue" points="270.739,-461.631 279.44,-455.586 268.868,-454.886 270.739,-461.631"/>
</g>
<!-- Node7&#45;&gt;Node4 -->
<g id="edge8" class="edge"><title>Node7&#45;&gt;Node4</title>
<path fill="none" stroke="midnightblue" d="M211.571,-417.589C229.175,-422.472 250.779,-428.464 269.601,-433.685"/>
<polygon fill="midnightblue" stroke="midnightblue" points="268.868,-437.114 279.44,-436.414 270.739,-430.369 268.868,-437.114"/>
</g>
<!-- Node7&#45;&gt;Node8 -->
<g id="edge7" class="edge"><title>Node7&#45;&gt;Node8</title>
<path fill="none" stroke="midnightblue" d="M206.297,-398.433C214.658,-395.554 223.738,-392.283 232,-389 249.789,-381.931 269.34,-373.15 284.888,-365.916"/>
<polygon fill="midnightblue" stroke="midnightblue" points="286.434,-369.057 294.001,-361.642 283.461,-362.72 286.434,-369.057"/>
</g>
<!-- Node11&#45;&gt;Node2 -->
<g id="edge14" class="edge"><title>Node11&#45;&gt;Node2</title>
<path fill="none" stroke="midnightblue" d="M228.014,-567.075C237.725,-568.422 247.94,-569.838 257.802,-571.206"/>
<polygon fill="midnightblue" stroke="midnightblue" points="257.53,-574.702 267.916,-572.609 258.492,-567.768 257.53,-574.702"/>
</g>
<!-- Node12&#45;&gt;Node4 -->
<g id="edge16" class="edge"><title>Node12&#45;&gt;Node4</title>
<path fill="none" stroke="midnightblue" d="M217.734,-446C231.189,-446 246.365,-446 260.622,-446"/>
<polygon fill="midnightblue" stroke="midnightblue" points="260.802,-449.5 270.802,-446 260.802,-442.5 260.802,-449.5"/>
</g>
<!-- Node16&#45;&gt;Node4 -->
<g id="edge22" class="edge"><title>Node16&#45;&gt;Node4</title>
<path fill="none" stroke="midnightblue" d="M191.516,-361.678C202.629,-369.108 218.321,-379.645 232,-389 252.407,-402.956 275.521,-419.049 291.996,-430.569"/>
<polygon fill="midnightblue" stroke="midnightblue" points="290.206,-433.589 300.405,-436.456 294.22,-427.854 290.206,-433.589"/>
</g>
<!-- Node16&#45;&gt;Node8 -->
<g id="edge21" class="edge"><title>Node16&#45;&gt;Node8</title>
<path fill="none" stroke="midnightblue" d="M220.348,-352C232.229,-352 245.283,-352 257.773,-352"/>
<polygon fill="midnightblue" stroke="midnightblue" points="258.095,-355.5 268.095,-352 258.095,-348.5 258.095,-355.5"/>
</g>
<!-- Node16&#45;&gt;Node10 -->
<g id="edge23" class="edge"><title>Node16&#45;&gt;Node10</title>
<path fill="none" stroke="midnightblue" d="M199.931,-342.459C222.257,-333.171 256.402,-318.964 281.518,-308.514"/>
<polygon fill="midnightblue" stroke="midnightblue" points="283.106,-311.645 290.994,-304.572 280.417,-305.182 283.106,-311.645"/>
</g>
<!-- Node16&#45;&gt;Node16 -->
<g id="edge24" class="edge"><title>Node16&#45;&gt;Node16</title>
<path fill="none" stroke="midnightblue" d="M155.347,-361.757C145.299,-370.565 152.184,-380 176,-380 191.257,-380 199.566,-376.128 200.925,-371.029"/>
<polygon fill="midnightblue" stroke="midnightblue" points="204.017,-369.375 196.653,-361.757 197.659,-372.304 204.017,-369.375"/>
</g>
</g>
</svg>
