<?xml version="1.0" encoding="UTF-8" standalone="no"?>
<!DOCTYPE svg PUBLIC "-//W3C//DTD SVG 1.1//EN"
 "http://www.w3.org/Graphics/SVG/1.1/DTD/svg11.dtd">
<!-- Generated by graphviz version 2.36.0 (20140111.2315)
 -->
<!-- Title: pop_fetch_data Pages: 1 -->
<svg width="242pt" height="180pt"
 viewBox="0.00 0.00 242.00 180.00" xmlns="http://www.w3.org/2000/svg" xmlns:xlink="http://www.w3.org/1999/xlink">
<g id="graph0" class="graph" transform="scale(1 1) rotate(0) translate(4 176)">
<title>pop_fetch_data</title>
<polygon fill="white" stroke="none" points="-4,4 -4,-176 238,-176 238,4 -4,4"/>
<!-- Node1 -->
<g id="node1" class="node"><title>Node1</title>
<polygon fill="#bfbfbf" stroke="black" points="0.5,-76.5 0.5,-95.5 83.5,-95.5 83.5,-76.5 0.5,-76.5"/>
<text text-anchor="middle" x="42" y="-83.5" font-family="Helvetica,sans-Serif" font-size="10.00">pop_fetch_data</text>
</g>
<!-- Node2 -->
<g id="node2" class="node"><title>Node2</title>
<g id="a_node2"><a xlink:href="mutt_2string_8c.html#a3b8965b21d6e21536750f8883cd4333a" target="_top" xlink:title="Copy a string into a buffer (guaranteeing NUL&#45;termination) ">
<polygon fill="white" stroke="black" points="133,-152.5 133,-171.5 221,-171.5 221,-152.5 133,-152.5"/>
<text text-anchor="middle" x="177" y="-159.5" font-family="Helvetica,sans-Serif" font-size="10.00">mutt_str_strfcpy</text>
</a>
</g>
</g>
<!-- Node1&#45;&gt;Node2 -->
<g id="edge1" class="edge"><title>Node1&#45;&gt;Node2</title>
<path fill="none" stroke="midnightblue" d="M53.7473,-95.6676C68.0018,-108.07 94.3593,-129.58 120,-143 124.049,-145.119 128.383,-147.076 132.781,-148.863"/>
<polygon fill="midnightblue" stroke="midnightblue" points="131.832,-152.245 142.424,-152.499 134.302,-145.696 131.832,-152.245"/>
</g>
<!-- Node3 -->
<g id="node3" class="node"><title>Node3</title>
<g id="a_node3"><a xlink:href="memory_8c.html#a264da4dc58e6dc8983285bd1f538f24d" target="_top" xlink:title="Allocate memory on the heap. ">
<polygon fill="white" stroke="red" points="128.5,-114.5 128.5,-133.5 225.5,-133.5 225.5,-114.5 128.5,-114.5"/>
<text text-anchor="middle" x="177" y="-121.5" font-family="Helvetica,sans-Serif" font-size="10.00">mutt_mem_malloc</text>
</a>
</g>
</g>
<!-- Node1&#45;&gt;Node3 -->
<g id="edge2" class="edge"><title>Node1&#45;&gt;Node3</title>
<path fill="none" stroke="midnightblue" d="M76.5615,-95.589C93.573,-100.449 114.432,-106.409 132.645,-111.613"/>
<polygon fill="midnightblue" stroke="midnightblue" points="131.872,-115.032 142.449,-114.414 133.796,-108.301 131.872,-115.032"/>
</g>
<!-- Node4 -->
<g id="node4" class="node"><title>Node4</title>
<g id="a_node4"><a xlink:href="socket_8c.html#af3cf9e32b156de3acf7902b59db117f9" target="_top" xlink:title="Read a line from a socket. ">
<polygon fill="white" stroke="red" points="120.5,-76.5 120.5,-95.5 233.5,-95.5 233.5,-76.5 120.5,-76.5"/>
<text text-anchor="middle" x="177" y="-83.5" font-family="Helvetica,sans-Serif" font-size="10.00">mutt_socket_readln_d</text>
</a>
</g>
</g>
<!-- Node1&#45;&gt;Node4 -->
<g id="edge3" class="edge"><title>Node1&#45;&gt;Node4</title>
<path fill="none" stroke="midnightblue" d="M83.6271,-86C92.0636,-86 101.158,-86 110.235,-86"/>
<polygon fill="midnightblue" stroke="midnightblue" points="110.439,-89.5001 120.439,-86 110.439,-82.5001 110.439,-89.5001"/>
</g>
<!-- Node5 -->
<g id="node5" class="node"><title>Node5</title>
<g id="a_node5"><a xlink:href="progress_8c.html#a8aa58d901a100a3ab7886418500e2385" target="_top" xlink:title="Update the state of the progress bar. ">
<polygon fill="white" stroke="red" points="120.5,-38.5 120.5,-57.5 233.5,-57.5 233.5,-38.5 120.5,-38.5"/>
<text text-anchor="middle" x="177" y="-45.5" font-family="Helvetica,sans-Serif" font-size="10.00">mutt_progress_update</text>
</a>
</g>
</g>
<!-- Node1&#45;&gt;Node5 -->
<g id="edge4" class="edge"><title>Node1&#45;&gt;Node5</title>
<path fill="none" stroke="midnightblue" d="M76.5615,-76.411C93.573,-71.5506 114.432,-65.5909 132.645,-60.3873"/>
<polygon fill="midnightblue" stroke="midnightblue" points="133.796,-63.6986 142.449,-57.5859 131.872,-56.9679 133.796,-63.6986"/>
</g>
<!-- Node6 -->
<g id="node6" class="node"><title>Node6</title>
<g id="a_node6"><a xlink:href="memory_8c.html#af778eb8166966fc0666c64849f6c7c5b" target="_top" xlink:title="Resize a block of memory on the heap. ">
<polygon fill="white" stroke="red" points="128.5,-0.5 128.5,-19.5 225.5,-19.5 225.5,-0.5 128.5,-0.5"/>
<text text-anchor="middle" x="177" y="-7.5" font-family="Helvetica,sans-Serif" font-size="10.00">mutt_mem_realloc</text>
</a>
</g>
</g>
<!-- Node1&#45;&gt;Node6 -->
<g id="edge5" class="edge"><title>Node1&#45;&gt;Node6</title>
<path fill="none" stroke="midnightblue" d="M53.7473,-76.3324C68.0018,-63.9295 94.3593,-42.4196 120,-29 124.049,-26.8808 128.383,-24.9241 132.781,-23.1374"/>
<polygon fill="midnightblue" stroke="midnightblue" points="134.302,-26.3044 142.424,-19.5008 131.832,-19.7547 134.302,-26.3044"/>
</g>
</g>
</svg>
