<?xml version="1.0" encoding="UTF-8" standalone="no"?>
<!DOCTYPE svg PUBLIC "-//W3C//DTD SVG 1.1//EN"
 "http://www.w3.org/Graphics/SVG/1.1/DTD/svg11.dtd">
<!-- Generated by graphviz version 2.36.0 (20140111.2315)
 -->
<!-- Title: pop_reconnect Pages: 1 -->
<svg width="212pt" height="104pt"
 viewBox="0.00 0.00 212.00 104.00" xmlns="http://www.w3.org/2000/svg" xmlns:xlink="http://www.w3.org/1999/xlink">
<g id="graph0" class="graph" transform="scale(1 1) rotate(0) translate(4 100)">
<title>pop_reconnect</title>
<polygon fill="white" stroke="none" points="-4,4 -4,-100 208,-100 208,4 -4,4"/>
<!-- Node1 -->
<g id="node1" class="node"><title>Node1</title>
<polygon fill="#bfbfbf" stroke="black" points="0,-38.5 0,-57.5 80,-57.5 80,-38.5 0,-38.5"/>
<text text-anchor="middle" x="40" y="-45.5" font-family="Helvetica,sans-Serif" font-size="10.00">pop_reconnect</text>
</g>
<!-- Node2 -->
<g id="node2" class="node"><title>Node2</title>
<g id="a_node2"><a xlink:href="pop_8c.html#aadf7390fb24044a0263048451d79cc9c" target="_top" xlink:title="open POP mailbox, fetch only headers ">
<polygon fill="white" stroke="black" points="116,-76.5 116,-95.5 204,-95.5 204,-76.5 116,-76.5"/>
<text text-anchor="middle" x="160" y="-83.5" font-family="Helvetica,sans-Serif" font-size="10.00">pop_mbox_open</text>
</a>
</g>
</g>
<!-- Node1&#45;&gt;Node2 -->
<g id="edge1" class="edge"><title>Node1&#45;&gt;Node2</title>
<path fill="none" stroke="midnightblue" d="M80.3761,-60.6804C96.3198,-65.8148 114.421,-71.6441 129.233,-76.4141"/>
<polygon fill="midnightblue" stroke="midnightblue" points="81.3679,-57.3229 70.7764,-57.589 79.2221,-63.9859 81.3679,-57.3229"/>
</g>
<!-- Node3 -->
<g id="node3" class="node"><title>Node3</title>
<g id="a_node3"><a xlink:href="pop_8c.html#acdcd617038ac12a95b869352680d587b" target="_top" xlink:title="fetch message from POP server ">
<polygon fill="white" stroke="black" points="118.5,-38.5 118.5,-57.5 201.5,-57.5 201.5,-38.5 118.5,-38.5"/>
<text text-anchor="middle" x="160" y="-45.5" font-family="Helvetica,sans-Serif" font-size="10.00">pop_msg_open</text>
</a>
</g>
</g>
<!-- Node1&#45;&gt;Node3 -->
<g id="edge2" class="edge"><title>Node1&#45;&gt;Node3</title>
<path fill="none" stroke="midnightblue" d="M90.5367,-48C99.7741,-48 109.329,-48 118.265,-48"/>
<polygon fill="midnightblue" stroke="midnightblue" points="90.2923,-44.5001 80.2923,-48 90.2923,-51.5001 90.2923,-44.5001"/>
</g>
<!-- Node4 -->
<g id="node4" class="node"><title>Node4</title>
<g id="a_node4"><a xlink:href="pop_8c.html#aec648278b895a672134f56f176245bac" target="_top" xlink:title="update POP mailbox, delete messages from server ">
<polygon fill="white" stroke="black" points="116,-0.5 116,-19.5 204,-19.5 204,-0.5 116,-0.5"/>
<text text-anchor="middle" x="160" y="-7.5" font-family="Helvetica,sans-Serif" font-size="10.00">pop_mbox_sync</text>
</a>
</g>
</g>
<!-- Node1&#45;&gt;Node4 -->
<g id="edge3" class="edge"><title>Node1&#45;&gt;Node4</title>
<path fill="none" stroke="midnightblue" d="M80.3761,-35.3196C96.3198,-30.1852 114.421,-24.3559 129.233,-19.5859"/>
<polygon fill="midnightblue" stroke="midnightblue" points="79.2221,-32.0141 70.7764,-38.411 81.3679,-38.6771 79.2221,-32.0141"/>
</g>
</g>
</svg>
