<?xml version="1.0" encoding="UTF-8" standalone="no"?>
<!DOCTYPE svg PUBLIC "-//W3C//DTD SVG 1.1//EN"
 "http://www.w3.org/Graphics/SVG/1.1/DTD/svg11.dtd">
<!-- Generated by graphviz version 2.36.0 (20140111.2315)
 -->
<!-- Title: pop/pop.h Pages: 1 -->
<svg width="267pt" height="84pt"
 viewBox="0.00 0.00 267.00 84.00" xmlns="http://www.w3.org/2000/svg" xmlns:xlink="http://www.w3.org/1999/xlink">
<g id="graph0" class="graph" transform="scale(1 1) rotate(0) translate(4 80)">
<title>pop/pop.h</title>
<polygon fill="white" stroke="none" points="-4,4 -4,-80 263,-80 263,4 -4,4"/>
<!-- Node1 -->
<g id="node1" class="node"><title>Node1</title>
<polygon fill="#bfbfbf" stroke="black" points="105.5,-56.5 105.5,-75.5 164.5,-75.5 164.5,-56.5 105.5,-56.5"/>
<text text-anchor="middle" x="135" y="-63.5" font-family="Helvetica,sans-Serif" font-size="10.00">pop/pop.h</text>
</g>
<!-- Node2 -->
<g id="node2" class="node"><title>Node2</title>
<g id="a_node2"><a xlink:href="curs__main_8c.html" target="_top" xlink:title="GUI manage the main index (list of emails) ">
<polygon fill="white" stroke="black" points="0,-0.5 0,-19.5 70,-19.5 70,-0.5 0,-0.5"/>
<text text-anchor="middle" x="35" y="-7.5" font-family="Helvetica,sans-Serif" font-size="10.00">curs_main.c</text>
</a>
</g>
</g>
<!-- Node1&#45;&gt;Node2 -->
<g id="edge1" class="edge"><title>Node1&#45;&gt;Node2</title>
<path fill="none" stroke="midnightblue" d="M109.912,-51.4526C91.4509,-41.4835 66.9034,-28.2279 51.0269,-19.6545"/>
<polygon fill="midnightblue" stroke="midnightblue" points="108.471,-54.6521 118.933,-56.324 111.797,-48.4928 108.471,-54.6521"/>
</g>
<!-- Node3 -->
<g id="node3" class="node"><title>Node3</title>
<g id="a_node3"><a xlink:href="init_8h.html" target="_top" xlink:title="Definitions of user variables, sort methods and commands. ">
<polygon fill="white" stroke="red" points="88,-0.5 88,-19.5 126,-19.5 126,-0.5 88,-0.5"/>
<text text-anchor="middle" x="107" y="-7.5" font-family="Helvetica,sans-Serif" font-size="10.00">init.h</text>
</a>
</g>
</g>
<!-- Node1&#45;&gt;Node3 -->
<g id="edge2" class="edge"><title>Node1&#45;&gt;Node3</title>
<path fill="none" stroke="midnightblue" d="M125.658,-46.9827C120.905,-37.8168 115.344,-27.0922 111.538,-19.7511"/>
<polygon fill="midnightblue" stroke="midnightblue" points="122.666,-48.8166 130.376,-56.083 128.88,-45.5943 122.666,-48.8166"/>
</g>
<!-- Node4 -->
<g id="node4" class="node"><title>Node4</title>
<g id="a_node4"><a xlink:href="mx_8c.html" target="_top" xlink:title="Mailbox multiplexor. ">
<polygon fill="white" stroke="black" points="144,-0.5 144,-19.5 182,-19.5 182,-0.5 144,-0.5"/>
<text text-anchor="middle" x="163" y="-7.5" font-family="Helvetica,sans-Serif" font-size="10.00">mx.c</text>
</a>
</g>
</g>
<!-- Node1&#45;&gt;Node4 -->
<g id="edge3" class="edge"><title>Node1&#45;&gt;Node4</title>
<path fill="none" stroke="midnightblue" d="M144.342,-46.9827C149.095,-37.8168 154.656,-27.0922 158.462,-19.7511"/>
<polygon fill="midnightblue" stroke="midnightblue" points="141.12,-45.5943 139.624,-56.083 147.334,-48.8166 141.12,-45.5943"/>
</g>
<!-- Node5 -->
<g id="node5" class="node"><title>Node5</title>
<g id="a_node5"><a xlink:href="pop_8c.html" target="_top" xlink:title="POP network mailbox. ">
<polygon fill="white" stroke="black" points="200.5,-0.5 200.5,-19.5 259.5,-19.5 259.5,-0.5 200.5,-0.5"/>
<text text-anchor="middle" x="230" y="-7.5" font-family="Helvetica,sans-Serif" font-size="10.00">pop/pop.c</text>
</a>
</g>
</g>
<!-- Node1&#45;&gt;Node5 -->
<g id="edge4" class="edge"><title>Node1&#45;&gt;Node5</title>
<path fill="none" stroke="midnightblue" d="M159.318,-51.1774C176.799,-41.2407 199.83,-28.1492 214.774,-19.6545"/>
<polygon fill="midnightblue" stroke="midnightblue" points="157.227,-48.3395 150.263,-56.324 160.687,-54.425 157.227,-48.3395"/>
</g>
</g>
</svg>
