<?xml version="1.0" encoding="UTF-8" standalone="no"?>
<!DOCTYPE svg PUBLIC "-//W3C//DTD SVG 1.1//EN"
 "http://www.w3.org/Graphics/SVG/1.1/DTD/svg11.dtd">
<!-- Generated by graphviz version 2.36.0 (20140111.2315)
 -->
<!-- Title: msg_cache_check Pages: 1 -->
<svg width="234pt" height="104pt"
 viewBox="0.00 0.00 234.00 104.00" xmlns="http://www.w3.org/2000/svg" xmlns:xlink="http://www.w3.org/1999/xlink">
<g id="graph0" class="graph" transform="scale(1 1) rotate(0) translate(4 100)">
<title>msg_cache_check</title>
<polygon fill="white" stroke="none" points="-4,4 -4,-100 230,-100 230,4 -4,4"/>
<!-- Node1 -->
<g id="node1" class="node"><title>Node1</title>
<polygon fill="#bfbfbf" stroke="black" points="0,-38.5 0,-57.5 98,-57.5 98,-38.5 0,-38.5"/>
<text text-anchor="middle" x="49" y="-45.5" font-family="Helvetica,sans-Serif" font-size="10.00">msg_cache_check</text>
</g>
<!-- Node2 -->
<g id="node2" class="node"><title>Node2</title>
<g id="a_node2"><a xlink:href="mutt_2string_8c.html#ab4aaf8bd2ce3982651f0f949d6c665e2" target="_top" xlink:title="Compare two strings, safely. ">
<polygon fill="white" stroke="black" points="136,-76.5 136,-95.5 224,-95.5 224,-76.5 136,-76.5"/>
<text text-anchor="middle" x="180" y="-83.5" font-family="Helvetica,sans-Serif" font-size="10.00">mutt_str_strcmp</text>
</a>
</g>
</g>
<!-- Node1&#45;&gt;Node2 -->
<g id="edge1" class="edge"><title>Node1&#45;&gt;Node2</title>
<path fill="none" stroke="midnightblue" d="M82.5521,-57.589C98.8993,-62.4044 118.909,-68.2988 136.457,-73.468"/>
<polygon fill="midnightblue" stroke="midnightblue" points="135.877,-76.9457 146.458,-76.4141 137.855,-70.2309 135.877,-76.9457"/>
</g>
<!-- Node3 -->
<g id="node3" class="node"><title>Node3</title>
<g id="a_node3"><a xlink:href="bcache_8c.html#a81a73e04de0e74abec304abb57f9a21a" target="_top" xlink:title="Delete a file from the Body Cache. ">
<polygon fill="white" stroke="red" points="134.5,-38.5 134.5,-57.5 225.5,-57.5 225.5,-38.5 134.5,-38.5"/>
<text text-anchor="middle" x="180" y="-45.5" font-family="Helvetica,sans-Serif" font-size="10.00">mutt_bcache_del</text>
</a>
</g>
</g>
<!-- Node1&#45;&gt;Node3 -->
<g id="edge2" class="edge"><title>Node1&#45;&gt;Node3</title>
<path fill="none" stroke="midnightblue" d="M98.0348,-48C106.582,-48 115.542,-48 124.259,-48"/>
<polygon fill="midnightblue" stroke="midnightblue" points="124.34,-51.5001 134.34,-48 124.34,-44.5001 124.34,-51.5001"/>
</g>
<!-- Node4 -->
<g id="node4" class="node"><title>Node4</title>
<g id="a_node4"><a xlink:href="pop_8c.html#a371c7306913dedd360a4b5c7d3e8ffa7" target="_top" xlink:title="Make a message&#45;cache&#45;compatible id. ">
<polygon fill="white" stroke="red" points="152,-0.5 152,-19.5 208,-19.5 208,-0.5 152,-0.5"/>
<text text-anchor="middle" x="180" y="-7.5" font-family="Helvetica,sans-Serif" font-size="10.00">cache_id</text>
</a>
</g>
</g>
<!-- Node1&#45;&gt;Node4 -->
<g id="edge3" class="edge"><title>Node1&#45;&gt;Node4</title>
<path fill="none" stroke="midnightblue" d="M82.5521,-38.411C100.647,-33.0808 123.229,-26.4285 141.993,-20.9012"/>
<polygon fill="midnightblue" stroke="midnightblue" points="143.088,-24.2274 151.692,-18.0443 141.11,-17.5127 143.088,-24.2274"/>
</g>
</g>
</svg>
