<?xml version="1.0" encoding="UTF-8" standalone="no"?>
<!DOCTYPE svg PUBLIC "-//W3C//DTD SVG 1.1//EN"
 "http://www.w3.org/Graphics/SVG/1.1/DTD/svg11.dtd">
<!-- Generated by graphviz version 2.36.0 (20140111.2315)
 -->
<!-- Title: mutt_num_postponed Pages: 1 -->
<svg width="392pt" height="208pt"
 viewBox="0.00 0.00 392.00 208.00" xmlns="http://www.w3.org/2000/svg" xmlns:xlink="http://www.w3.org/1999/xlink">
<g id="graph0" class="graph" transform="scale(1 1) rotate(0) translate(4 204)">
<title>mutt_num_postponed</title>
<polygon fill="white" stroke="none" points="-4,4 -4,-204 388,-204 388,4 -4,4"/>
<!-- Node1 -->
<g id="node1" class="node"><title>Node1</title>
<polygon fill="#bfbfbf" stroke="black" points="0,-85.5 0,-104.5 110,-104.5 110,-85.5 0,-85.5"/>
<text text-anchor="middle" x="55" y="-92.5" font-family="Helvetica,sans-Serif" font-size="10.00">mutt_num_postponed</text>
</g>
<!-- Node2 -->
<g id="node2" class="node"><title>Node2</title>
<g id="a_node2"><a xlink:href="mutt_2string_8c.html#ab4aaf8bd2ce3982651f0f949d6c665e2" target="_top" xlink:title="Compare two strings, safely. ">
<polygon fill="white" stroke="black" points="146,-180.5 146,-199.5 234,-199.5 234,-180.5 146,-180.5"/>
<text text-anchor="middle" x="190" y="-187.5" font-family="Helvetica,sans-Serif" font-size="10.00">mutt_str_strcmp</text>
</a>
</g>
</g>
<!-- Node1&#45;&gt;Node2 -->
<g id="edge1" class="edge"><title>Node1&#45;&gt;Node2</title>
<path fill="none" stroke="midnightblue" d="M66.933,-104.562C83.4536,-118.791 116.038,-146.004 146,-166 150.8,-169.203 156.058,-172.386 161.199,-175.336"/>
<polygon fill="midnightblue" stroke="midnightblue" points="159.763,-178.542 170.203,-180.35 163.169,-172.427 159.763,-178.542"/>
</g>
<!-- Node3 -->
<g id="node3" class="node"><title>Node3</title>
<g id="a_node3"><a xlink:href="mutt_2string_8c.html#ae48085384a6545e0fac589a88243ea31" target="_top" xlink:title="Copy a string, safely. ">
<polygon fill="white" stroke="red" points="284.5,-47.5 284.5,-66.5 369.5,-66.5 369.5,-47.5 284.5,-47.5"/>
<text text-anchor="middle" x="327" y="-54.5" font-family="Helvetica,sans-Serif" font-size="10.00">mutt_str_strdup</text>
</a>
</g>
</g>
<!-- Node1&#45;&gt;Node3 -->
<g id="edge2" class="edge"><title>Node1&#45;&gt;Node3</title>
<path fill="none" stroke="midnightblue" d="M72.6077,-104.521C104.584,-121.56 176.612,-153.638 234,-133 266.29,-121.388 295.309,-92.9872 311.773,-74.3836"/>
<polygon fill="midnightblue" stroke="midnightblue" points="314.574,-76.493 318.42,-66.6209 309.257,-71.9399 314.574,-76.493"/>
</g>
<!-- Node4 -->
<g id="node4" class="node"><title>Node4</title>
<g id="a_node4"><a xlink:href="mx_8c.html#a7cee0fd7066e1a6d816fa9bd6e3a7978" target="_top" xlink:title="Is this an IMAP mailbox. ">
<polygon fill="white" stroke="red" points="155.5,-104.5 155.5,-123.5 224.5,-123.5 224.5,-104.5 155.5,-104.5"/>
<text text-anchor="middle" x="190" y="-111.5" font-family="Helvetica,sans-Serif" font-size="10.00">mx_is_imap</text>
</a>
</g>
</g>
<!-- Node1&#45;&gt;Node4 -->
<g id="edge3" class="edge"><title>Node1&#45;&gt;Node4</title>
<path fill="none" stroke="midnightblue" d="M110.096,-102.728C121.769,-104.396 133.971,-106.139 145.193,-107.742"/>
<polygon fill="midnightblue" stroke="midnightblue" points="144.786,-111.219 155.18,-109.169 145.776,-104.29 144.786,-111.219"/>
</g>
<!-- Node5 -->
<g id="node5" class="node"><title>Node5</title>
<g id="a_node5"><a xlink:href="imap_8c.html#a7f3974819983cef00cbb041c82a21c1a" target="_top" xlink:title="Get the status of a mailbox. ">
<polygon fill="white" stroke="red" points="155,-66.5 155,-85.5 225,-85.5 225,-66.5 155,-66.5"/>
<text text-anchor="middle" x="190" y="-73.5" font-family="Helvetica,sans-Serif" font-size="10.00">imap_status</text>
</a>
</g>
</g>
<!-- Node1&#45;&gt;Node5 -->
<g id="edge4" class="edge"><title>Node1&#45;&gt;Node5</title>
<path fill="none" stroke="midnightblue" d="M110.096,-87.272C121.659,-85.6201 133.741,-83.8942 144.875,-82.3035"/>
<polygon fill="midnightblue" stroke="midnightblue" points="145.388,-85.7659 154.792,-80.8868 144.398,-78.8363 145.388,-85.7659"/>
</g>
<!-- Node6 -->
<g id="node6" class="node"><title>Node6</title>
<g id="a_node6"><a xlink:href="mx_8c.html#ad33e3ff602855d7d00c86d46bc608b1d" target="_top" xlink:title="Open a mailbox and parse it. ">
<polygon fill="white" stroke="red" points="147,-28.5 147,-47.5 233,-47.5 233,-28.5 147,-28.5"/>
<text text-anchor="middle" x="190" y="-35.5" font-family="Helvetica,sans-Serif" font-size="10.00">mx_mbox_open</text>
</a>
</g>
</g>
<!-- Node1&#45;&gt;Node6 -->
<g id="edge5" class="edge"><title>Node1&#45;&gt;Node6</title>
<path fill="none" stroke="midnightblue" d="M78.2612,-85.4595C99.9352,-76.1706 133.084,-61.9642 157.467,-51.5143"/>
<polygon fill="midnightblue" stroke="midnightblue" points="158.853,-54.7279 166.666,-47.5716 156.096,-48.2939 158.853,-54.7279"/>
</g>
<!-- Node7 -->
<g id="node7" class="node"><title>Node7</title>
<g id="a_node7"><a xlink:href="mx_8c.html#a17c27b6cca2086956266b12d6ad241bf" target="_top" xlink:title="free up memory associated with the mailbox context ">
<polygon fill="white" stroke="red" points="270,-0.5 270,-19.5 384,-19.5 384,-0.5 270,-0.5"/>
<text text-anchor="middle" x="327" y="-7.5" font-family="Helvetica,sans-Serif" font-size="10.00">mx_fastclose_mailbox</text>
</a>
</g>
</g>
<!-- Node1&#45;&gt;Node7 -->
<g id="edge8" class="edge"><title>Node1&#45;&gt;Node7</title>
<path fill="none" stroke="midnightblue" d="M63.6538,-85.2924C77.7856,-68.2138 109.852,-33.2541 146,-19 181.765,-4.8968 224.664,-2.25839 259.61,-3.32828"/>
<polygon fill="midnightblue" stroke="midnightblue" points="259.576,-6.82975 269.712,-3.74605 259.865,0.164268 259.576,-6.82975"/>
</g>
<!-- Node6&#45;&gt;Node3 -->
<g id="edge6" class="edge"><title>Node6&#45;&gt;Node3</title>
<path fill="none" stroke="midnightblue" d="M233.344,-43.9596C246.285,-45.7808 260.664,-47.8046 274.159,-49.7039"/>
<polygon fill="midnightblue" stroke="midnightblue" points="273.879,-53.1988 284.269,-51.1267 274.854,-46.2671 273.879,-53.1988"/>
</g>
<!-- Node6&#45;&gt;Node7 -->
<g id="edge7" class="edge"><title>Node6&#45;&gt;Node7</title>
<path fill="none" stroke="midnightblue" d="M233.344,-29.2174C244.943,-26.8117 257.699,-24.1662 269.937,-21.6278"/>
<polygon fill="midnightblue" stroke="midnightblue" points="270.979,-24.9864 280.06,-19.5284 269.557,-18.1322 270.979,-24.9864"/>
</g>
</g>
</svg>
