<?xml version="1.0" encoding="UTF-8" standalone="no"?>
<!DOCTYPE svg PUBLIC "-//W3C//DTD SVG 1.1//EN"
 "http://www.w3.org/Graphics/SVG/1.1/DTD/svg11.dtd">
<!-- Generated by graphviz version 2.36.0 (20140111.2315)
 -->
<!-- Title: progress.c Pages: 1 -->
<svg width="844pt" height="140pt"
 viewBox="0.00 0.00 844.00 140.00" xmlns="http://www.w3.org/2000/svg" xmlns:xlink="http://www.w3.org/1999/xlink">
<g id="graph0" class="graph" transform="scale(1 1) rotate(0) translate(4 136)">
<title>progress.c</title>
<polygon fill="white" stroke="none" points="-4,4 -4,-136 840,-136 840,4 -4,4"/>
<!-- Node1 -->
<g id="node1" class="node"><title>Node1</title>
<polygon fill="#bfbfbf" stroke="black" points="349,-112.5 349,-131.5 411,-131.5 411,-112.5 349,-112.5"/>
<text text-anchor="middle" x="380" y="-119.5" font-family="Helvetica,sans-Serif" font-size="10.00">progress.c</text>
</g>
<!-- Node2 -->
<g id="node2" class="node"><title>Node2</title>
<polygon fill="white" stroke="#bfbfbf" points="-0.5,-56.5 -0.5,-75.5 50.5,-75.5 50.5,-56.5 -0.5,-56.5"/>
<text text-anchor="middle" x="25" y="-63.5" font-family="Helvetica,sans-Serif" font-size="10.00">config.h</text>
</g>
<!-- Node1&#45;&gt;Node2 -->
<g id="edge1" class="edge"><title>Node1&#45;&gt;Node2</title>
<path fill="none" stroke="midnightblue" d="M348.803,-117.88C292.878,-112.018 171.734,-98.0985 60.5779,-76.1233"/>
<polygon fill="midnightblue" stroke="midnightblue" points="61.0358,-72.6455 50.5429,-74.1116 59.6598,-79.509 61.0358,-72.6455"/>
</g>
<!-- Node3 -->
<g id="node3" class="node"><title>Node3</title>
<polygon fill="white" stroke="#bfbfbf" points="68.5,-56.5 68.5,-75.5 115.5,-75.5 115.5,-56.5 68.5,-56.5"/>
<text text-anchor="middle" x="92" y="-63.5" font-family="Helvetica,sans-Serif" font-size="10.00">errno.h</text>
</g>
<!-- Node1&#45;&gt;Node3 -->
<g id="edge2" class="edge"><title>Node1&#45;&gt;Node3</title>
<path fill="none" stroke="midnightblue" d="M348.808,-116.438C302.355,-109.441 212.08,-95.0606 125.696,-75.9776"/>
<polygon fill="midnightblue" stroke="midnightblue" points="126.251,-72.5153 115.728,-73.7504 124.724,-79.3469 126.251,-72.5153"/>
</g>
<!-- Node4 -->
<g id="node4" class="node"><title>Node4</title>
<polygon fill="white" stroke="#bfbfbf" points="134,-56.5 134,-75.5 186,-75.5 186,-56.5 134,-56.5"/>
<text text-anchor="middle" x="160" y="-63.5" font-family="Helvetica,sans-Serif" font-size="10.00">stdarg.h</text>
</g>
<!-- Node1&#45;&gt;Node4 -->
<g id="edge3" class="edge"><title>Node1&#45;&gt;Node4</title>
<path fill="none" stroke="midnightblue" d="M348.946,-113.378C308.679,-103.494 238.581,-86.288 196.021,-75.8415"/>
<polygon fill="midnightblue" stroke="midnightblue" points="196.633,-72.388 186.087,-73.4032 194.965,-79.1862 196.633,-72.388"/>
</g>
<!-- Node5 -->
<g id="node5" class="node"><title>Node5</title>
<polygon fill="white" stroke="#bfbfbf" points="436,-0.5 436,-19.5 492,-19.5 492,-0.5 436,-0.5"/>
<text text-anchor="middle" x="464" y="-7.5" font-family="Helvetica,sans-Serif" font-size="10.00">stdbool.h</text>
</g>
<!-- Node1&#45;&gt;Node5 -->
<g id="edge4" class="edge"><title>Node1&#45;&gt;Node5</title>
<path fill="none" stroke="midnightblue" d="M348.588,-118.382C296.078,-112.818 199.373,-96.8096 233,-56 256.959,-26.9229 366.286,-16.3861 425.546,-12.7671"/>
<polygon fill="midnightblue" stroke="midnightblue" points="425.866,-16.2545 435.649,-12.1875 425.465,-9.26603 425.866,-16.2545"/>
</g>
<!-- Node6 -->
<g id="node6" class="node"><title>Node6</title>
<polygon fill="white" stroke="#bfbfbf" points="242.5,-56.5 242.5,-75.5 291.5,-75.5 291.5,-56.5 242.5,-56.5"/>
<text text-anchor="middle" x="267" y="-63.5" font-family="Helvetica,sans-Serif" font-size="10.00">string.h</text>
</g>
<!-- Node1&#45;&gt;Node6 -->
<g id="edge5" class="edge"><title>Node1&#45;&gt;Node6</title>
<path fill="none" stroke="midnightblue" d="M362.095,-112.444C343.746,-103.675 314.995,-89.9355 293.906,-79.8579"/>
<polygon fill="midnightblue" stroke="midnightblue" points="295.353,-76.6703 284.821,-75.5164 292.335,-82.9862 295.353,-76.6703"/>
</g>
<!-- Node7 -->
<g id="node7" class="node"><title>Node7</title>
<polygon fill="white" stroke="#bfbfbf" points="310,-56.5 310,-75.5 372,-75.5 372,-56.5 310,-56.5"/>
<text text-anchor="middle" x="341" y="-63.5" font-family="Helvetica,sans-Serif" font-size="10.00">sys/time.h</text>
</g>
<!-- Node1&#45;&gt;Node7 -->
<g id="edge6" class="edge"><title>Node1&#45;&gt;Node7</title>
<path fill="none" stroke="midnightblue" d="M373.56,-112.083C368.051,-104.455 359.969,-93.2645 353.235,-83.9408"/>
<polygon fill="midnightblue" stroke="midnightblue" points="356.013,-81.8087 347.32,-75.7511 350.338,-85.9071 356.013,-81.8087"/>
</g>
<!-- Node8 -->
<g id="node8" class="node"><title>Node8</title>
<g id="a_node8"><a xlink:href="mutt_2mutt_8h.html" target="_top" xlink:title="Convenience wrapper for the library headers. ">
<polygon fill="white" stroke="red" points="675.5,-0.5 675.5,-19.5 742.5,-19.5 742.5,-0.5 675.5,-0.5"/>
<text text-anchor="middle" x="709" y="-7.5" font-family="Helvetica,sans-Serif" font-size="10.00">mutt/mutt.h</text>
</a>
</g>
</g>
<!-- Node1&#45;&gt;Node8 -->
<g id="edge7" class="edge"><title>Node1&#45;&gt;Node8</title>
<path fill="none" stroke="midnightblue" d="M411.124,-120.392C459.95,-118.365 556.554,-109.976 630,-76 655.298,-64.2971 679.268,-42.5148 694.031,-27.4094"/>
<polygon fill="midnightblue" stroke="midnightblue" points="696.895,-29.4758 701.235,-19.8109 691.815,-24.6596 696.895,-29.4758"/>
</g>
<!-- Node9 -->
<g id="node9" class="node"><title>Node9</title>
<g id="a_node9"><a xlink:href="progress_8h.html" target="_top" xlink:title="Progress bar. ">
<polygon fill="white" stroke="red" points="678,-56.5 678,-75.5 740,-75.5 740,-56.5 678,-56.5"/>
<text text-anchor="middle" x="709" y="-63.5" font-family="Helvetica,sans-Serif" font-size="10.00">progress.h</text>
</a>
</g>
</g>
<!-- Node1&#45;&gt;Node9 -->
<g id="edge8" class="edge"><title>Node1&#45;&gt;Node9</title>
<path fill="none" stroke="midnightblue" d="M411.167,-116.481C463.512,-108.797 572.357,-92.4179 664,-76 665.098,-75.8033 666.21,-75.6012 667.332,-75.3949"/>
<polygon fill="midnightblue" stroke="midnightblue" points="668.386,-78.7575 677.559,-73.4558 667.082,-71.88 668.386,-78.7575"/>
</g>
<!-- Node10 -->
<g id="node10" class="node"><title>Node10</title>
<g id="a_node10"><a xlink:href="curs__lib_8h.html" target="_top" xlink:title="GUI miscellaneous curses (window drawing) routines. ">
<polygon fill="white" stroke="red" points="390.5,-56.5 390.5,-75.5 449.5,-75.5 449.5,-56.5 390.5,-56.5"/>
<text text-anchor="middle" x="420" y="-63.5" font-family="Helvetica,sans-Serif" font-size="10.00">curs_lib.h</text>
</a>
</g>
</g>
<!-- Node1&#45;&gt;Node10 -->
<g id="edge10" class="edge"><title>Node1&#45;&gt;Node10</title>
<path fill="none" stroke="midnightblue" d="M386.605,-112.083C392.255,-104.455 400.545,-93.2645 407.451,-83.9408"/>
<polygon fill="midnightblue" stroke="midnightblue" points="410.378,-85.87 413.518,-75.7511 404.753,-81.7034 410.378,-85.87"/>
</g>
<!-- Node11 -->
<g id="node11" class="node"><title>Node11</title>
<g id="a_node11"><a xlink:href="mutt__curses_8h.html" target="_top" xlink:title="Define wrapper functions around Curses/Slang. ">
<polygon fill="white" stroke="red" points="757.5,-56.5 757.5,-75.5 836.5,-75.5 836.5,-56.5 757.5,-56.5"/>
<text text-anchor="middle" x="797" y="-63.5" font-family="Helvetica,sans-Serif" font-size="10.00">mutt_curses.h</text>
</a>
</g>
</g>
<!-- Node1&#45;&gt;Node11 -->
<g id="edge12" class="edge"><title>Node1&#45;&gt;Node11</title>
<path fill="none" stroke="midnightblue" d="M411.103,-117.833C472.979,-111.397 616.099,-95.8286 747.231,-76.0298"/>
<polygon fill="midnightblue" stroke="midnightblue" points="748.094,-79.4388 757.454,-74.4738 747.041,-72.5185 748.094,-79.4388"/>
</g>
<!-- Node12 -->
<g id="node12" class="node"><title>Node12</title>
<g id="a_node12"><a xlink:href="mutt__logging_8h.html" target="_top" xlink:title="Mutt Logging. ">
<polygon fill="white" stroke="red" points="468,-56.5 468,-75.5 548,-75.5 548,-56.5 468,-56.5"/>
<text text-anchor="middle" x="508" y="-63.5" font-family="Helvetica,sans-Serif" font-size="10.00">mutt_logging.h</text>
</a>
</g>
</g>
<!-- Node1&#45;&gt;Node12 -->
<g id="edge14" class="edge"><title>Node1&#45;&gt;Node12</title>
<path fill="none" stroke="midnightblue" d="M400.282,-112.444C421.347,-103.557 454.517,-89.5632 478.486,-79.4514"/>
<polygon fill="midnightblue" stroke="midnightblue" points="479.96,-82.6283 487.813,-75.5164 477.239,-76.1787 479.96,-82.6283"/>
</g>
<!-- Node13 -->
<g id="node13" class="node"><title>Node13</title>
<g id="a_node13"><a xlink:href="options_8h.html" target="_top" xlink:title="Handling of global boolean variables. ">
<polygon fill="white" stroke="red" points="566,-56.5 566,-75.5 622,-75.5 622,-56.5 566,-56.5"/>
<text text-anchor="middle" x="594" y="-63.5" font-family="Helvetica,sans-Serif" font-size="10.00">options.h</text>
</a>
</g>
</g>
<!-- Node1&#45;&gt;Node13 -->
<g id="edge16" class="edge"><title>Node1&#45;&gt;Node13</title>
<path fill="none" stroke="midnightblue" d="M411.117,-113.148C449.482,-103.467 514.662,-87.0198 555.961,-76.5985"/>
<polygon fill="midnightblue" stroke="midnightblue" points="557.076,-79.927 565.916,-74.0866 555.363,-73.1398 557.076,-79.927"/>
</g>
<!-- Node9&#45;&gt;Node8 -->
<g id="edge9" class="edge"><title>Node9&#45;&gt;Node8</title>
<path fill="none" stroke="midnightblue" d="M709,-56.083C709,-49.0059 709,-38.8611 709,-29.9865"/>
<polygon fill="midnightblue" stroke="midnightblue" points="712.5,-29.751 709,-19.7511 705.5,-29.7511 712.5,-29.751"/>
</g>
<!-- Node10&#45;&gt;Node5 -->
<g id="edge11" class="edge"><title>Node10&#45;&gt;Node5</title>
<path fill="none" stroke="midnightblue" d="M427.266,-56.083C433.545,-48.3768 442.788,-37.0333 450.431,-27.6531"/>
<polygon fill="midnightblue" stroke="midnightblue" points="453.266,-29.7143 456.869,-19.7511 447.839,-25.2926 453.266,-29.7143"/>
</g>
<!-- Node11&#45;&gt;Node8 -->
<g id="edge13" class="edge"><title>Node11&#45;&gt;Node8</title>
<path fill="none" stroke="midnightblue" d="M782.861,-56.324C769.134,-47.9002 748.064,-34.9709 731.936,-25.0741"/>
<polygon fill="midnightblue" stroke="midnightblue" points="733.457,-21.9016 723.104,-19.6545 729.796,-27.8678 733.457,-21.9016"/>
</g>
<!-- Node12&#45;&gt;Node5 -->
<g id="edge15" class="edge"><title>Node12&#45;&gt;Node5</title>
<path fill="none" stroke="midnightblue" d="M500.734,-56.083C494.455,-48.3768 485.212,-37.0333 477.569,-27.6531"/>
<polygon fill="midnightblue" stroke="midnightblue" points="480.161,-25.2926 471.131,-19.7511 474.734,-29.7143 480.161,-25.2926"/>
</g>
<!-- Node13&#45;&gt;Node5 -->
<g id="edge17" class="edge"><title>Node13&#45;&gt;Node5</title>
<path fill="none" stroke="midnightblue" d="M573.401,-56.4435C552.007,-47.5566 518.319,-33.5632 493.976,-23.4514"/>
<polygon fill="midnightblue" stroke="midnightblue" points="495.08,-20.1203 484.503,-19.5164 492.395,-26.5848 495.08,-20.1203"/>
</g>
</g>
</svg>
