<?xml version="1.0" encoding="UTF-8" standalone="no"?>
<!DOCTYPE svg PUBLIC "-//W3C//DTD SVG 1.1//EN"
 "http://www.w3.org/Graphics/SVG/1.1/DTD/svg11.dtd">
<!-- Generated by graphviz version 2.36.0 (20140111.2315)
 -->
<!-- Title: mutt_progress_update Pages: 1 -->
<svg width="598pt" height="955pt"
 viewBox="0.00 0.00 598.00 955.10" xmlns="http://www.w3.org/2000/svg" xmlns:xlink="http://www.w3.org/1999/xlink">
<g id="graph0" class="graph" transform="scale(1 1) rotate(0) translate(4 951.098)">
<title>mutt_progress_update</title>
<polygon fill="white" stroke="none" points="-4,4 -4,-951.098 594,-951.098 594,4 -4,4"/>
<!-- Node1 -->
<g id="node1" class="node"><title>Node1</title>
<polygon fill="#bfbfbf" stroke="black" points="0.5,-418.5 0.5,-437.5 113.5,-437.5 113.5,-418.5 0.5,-418.5"/>
<text text-anchor="middle" x="57" y="-425.5" font-family="Helvetica,sans-Serif" font-size="10.00">mutt_progress_update</text>
</g>
<!-- Node2 -->
<g id="node2" class="node"><title>Node2</title>
<g id="a_node2"><a xlink:href="curs__main_8h.html#af7d9d8649ad205788c9af1bbf871207f" target="_top" xlink:title="Display a list of emails. ">
<polygon fill="white" stroke="red" points="480,-703.5 480,-722.5 574,-722.5 574,-703.5 480,-703.5"/>
<text text-anchor="middle" x="527" y="-710.5" font-family="Helvetica,sans-Serif" font-size="10.00">mutt_index_menu</text>
</a>
</g>
</g>
<!-- Node1&#45;&gt;Node2 -->
<g id="edge1" class="edge"><title>Node1&#45;&gt;Node2</title>
<path fill="none" stroke="midnightblue" d="M59.1766,-447.786C64.265,-526.367 87.0362,-815.098 150,-876 239.227,-962.305 321.995,-967.599 428,-903 496.142,-861.474 518.95,-755.685 524.508,-722.864"/>
<polygon fill="midnightblue" stroke="midnightblue" points="62.6676,-447.531 58.5515,-437.769 55.6812,-447.967 62.6676,-447.531"/>
</g>
<!-- Node3 -->
<g id="node3" class="node"><title>Node3</title>
<g id="a_node3"><a xlink:href="imap__private_8h.html#ade65c451a15dc3b4281f9289953c3812" target="_top" xlink:title="Read bytes bytes from server into file. ">
<polygon fill="white" stroke="red" points="166,-76.5 166,-95.5 256,-95.5 256,-76.5 166,-76.5"/>
<text text-anchor="middle" x="211" y="-83.5" font-family="Helvetica,sans-Serif" font-size="10.00">imap_read_literal</text>
</a>
</g>
</g>
<!-- Node1&#45;&gt;Node3 -->
<g id="edge2" class="edge"><title>Node1&#45;&gt;Node3</title>
<path fill="none" stroke="midnightblue" d="M58.0234,-408.149C59.1531,-353.441 69.6779,-198.685 150,-110 155.724,-103.68 163.337,-98.9976 171.214,-95.537"/>
<polygon fill="midnightblue" stroke="midnightblue" points="54.5226,-408.204 57.9032,-418.245 61.5221,-408.288 54.5226,-408.204"/>
</g>
<!-- Node4 -->
<g id="node4" class="node"><title>Node4</title>
<g id="a_node4"><a xlink:href="message_8c.html#a5dae54814b2746142369bbdef40b1b0f" target="_top" xlink:title="Read headers from the server. ">
<polygon fill="white" stroke="red" points="317.5,-874.5 317.5,-893.5 418.5,-893.5 418.5,-874.5 317.5,-874.5"/>
<text text-anchor="middle" x="368" y="-881.5" font-family="Helvetica,sans-Serif" font-size="10.00">imap_read_headers</text>
</a>
</g>
</g>
<!-- Node1&#45;&gt;Node4 -->
<g id="edge3" class="edge"><title>Node1&#45;&gt;Node4</title>
<path fill="none" stroke="midnightblue" d="M59.6526,-447.964C66.2284,-522.471 92.9942,-782.884 150,-839 194.008,-882.321 268.13,-889.009 317.308,-887.971"/>
<polygon fill="midnightblue" stroke="midnightblue" points="63.1108,-447.326 58.769,-437.662 56.1364,-447.924 63.1108,-447.326"/>
</g>
<!-- Node5 -->
<g id="node5" class="node"><title>Node5</title>
<g id="a_node5"><a xlink:href="message_8c.html#a98f190c0228d94863c21dfd71e4022d1" target="_top" xlink:title="Write an email back to the server. ">
<polygon fill="white" stroke="red" points="308.5,-836.5 308.5,-855.5 427.5,-855.5 427.5,-836.5 308.5,-836.5"/>
<text text-anchor="middle" x="368" y="-843.5" font-family="Helvetica,sans-Serif" font-size="10.00">imap_append_message</text>
</a>
</g>
</g>
<!-- Node1&#45;&gt;Node5 -->
<g id="edge4" class="edge"><title>Node1&#45;&gt;Node5</title>
<path fill="none" stroke="midnightblue" d="M60.052,-447.574C67.7696,-517.381 97.3308,-752.647 150,-803 191.78,-842.943 259.434,-850.783 308.101,-850.461"/>
<polygon fill="midnightblue" stroke="midnightblue" points="63.5192,-447.081 58.966,-437.514 56.5597,-447.832 63.5192,-447.081"/>
</g>
<!-- Node6 -->
<g id="node6" class="node"><title>Node6</title>
<g id="a_node6"><a xlink:href="mh_8c.html#aa8bb577bac75fec130c55fe1c5ff3543" target="_top" xlink:title="Read a Maildir mailbox. ">
<polygon fill="white" stroke="red" points="166,-38.5 166,-57.5 256,-57.5 256,-38.5 166,-38.5"/>
<text text-anchor="middle" x="211" y="-45.5" font-family="Helvetica,sans-Serif" font-size="10.00">maildir_parse_dir</text>
</a>
</g>
</g>
<!-- Node1&#45;&gt;Node6 -->
<g id="edge5" class="edge"><title>Node1&#45;&gt;Node6</title>
<path fill="none" stroke="midnightblue" d="M60.5231,-408.037C69.5149,-339.879 102.038,-117.784 150,-67 154.426,-62.3132 159.999,-58.7775 165.955,-56.1113"/>
<polygon fill="midnightblue" stroke="midnightblue" points="57.0129,-407.891 59.2004,-418.258 63.955,-408.789 57.0129,-407.891"/>
</g>
<!-- Node7 -->
<g id="node7" class="node"><title>Node7</title>
<g id="a_node7"><a xlink:href="mh_8c.html#a9d7bb5e8d059ea54e3630245aee0a89a" target="_top" xlink:title="This function does the second parsing pass. ">
<polygon fill="white" stroke="red" points="150.5,-0.5 150.5,-19.5 271.5,-19.5 271.5,-0.5 150.5,-0.5"/>
<text text-anchor="middle" x="211" y="-7.5" font-family="Helvetica,sans-Serif" font-size="10.00">maildir_delayed_parsing</text>
</a>
</g>
</g>
<!-- Node1&#45;&gt;Node7 -->
<g id="edge6" class="edge"><title>Node1&#45;&gt;Node7</title>
<path fill="none" stroke="midnightblue" d="M59.9719,-408.319C67.5959,-335.975 97.3683,-86.0236 150,-29 153.557,-25.146 157.89,-22.0693 162.582,-19.6138"/>
<polygon fill="midnightblue" stroke="midnightblue" points="56.482,-408.042 58.9384,-418.348 63.4451,-408.76 56.482,-408.042"/>
</g>
<!-- Node8 -->
<g id="node8" class="node"><title>Node8</title>
<g id="a_node8"><a xlink:href="mh_8c.html#a65426833f674cdd2021e2a6fa296beb0" target="_top" xlink:title="Implements MxOps::mbox_sync() ">
<polygon fill="white" stroke="black" points="325,-798.5 325,-817.5 411,-817.5 411,-798.5 325,-798.5"/>
<text text-anchor="middle" x="368" y="-805.5" font-family="Helvetica,sans-Serif" font-size="10.00">mh_mbox_sync</text>
</a>
</g>
</g>
<!-- Node1&#45;&gt;Node8 -->
<g id="edge7" class="edge"><title>Node1&#45;&gt;Node8</title>
<path fill="none" stroke="midnightblue" d="M60.5923,-447.863C69.5967,-513.751 101.632,-723.443 150,-768 197.475,-811.735 276.465,-815.226 324.916,-812.503"/>
<polygon fill="midnightblue" stroke="midnightblue" points="64.0167,-447.065 59.2209,-437.617 57.0786,-447.993 64.0167,-447.065"/>
</g>
<!-- Node9 -->
<g id="node9" class="node"><title>Node9</title>
<g id="a_node9"><a xlink:href="mbox_8c.html#ae1efd8707efa96b7e0b8daf0105024ee" target="_top" xlink:title="Read a mailbox in MMDF format. ">
<polygon fill="white" stroke="red" points="313,-760.5 313,-779.5 423,-779.5 423,-760.5 313,-760.5"/>
<text text-anchor="middle" x="368" y="-767.5" font-family="Helvetica,sans-Serif" font-size="10.00">mmdf_parse_mailbox</text>
</a>
</g>
</g>
<!-- Node1&#45;&gt;Node9 -->
<g id="edge8" class="edge"><title>Node1&#45;&gt;Node9</title>
<path fill="none" stroke="midnightblue" d="M57.3593,-447.679C56.7391,-502.432 63.0975,-657.539 150,-734 194.296,-772.974 264.164,-778.018 312.603,-775.89"/>
<polygon fill="midnightblue" stroke="midnightblue" points="60.8605,-447.655 57.5711,-437.583 53.862,-447.508 60.8605,-447.655"/>
</g>
<!-- Node10 -->
<g id="node10" class="node"><title>Node10</title>
<g id="a_node10"><a xlink:href="mbox_8c.html#ad72dff92f5cf9ec13c2819dbcf9e0c9b" target="_top" xlink:title="Read a mailbox from disk. ">
<polygon fill="white" stroke="red" points="313.5,-456.5 313.5,-475.5 422.5,-475.5 422.5,-456.5 313.5,-456.5"/>
<text text-anchor="middle" x="368" y="-463.5" font-family="Helvetica,sans-Serif" font-size="10.00">mbox_parse_mailbox</text>
</a>
</g>
</g>
<!-- Node1&#45;&gt;Node10 -->
<g id="edge9" class="edge"><title>Node1&#45;&gt;Node10</title>
<path fill="none" stroke="midnightblue" d="M124.052,-438.384C132.771,-439.657 141.595,-440.896 150,-442 205.619,-449.305 269.456,-456.185 313.42,-460.69"/>
<polygon fill="midnightblue" stroke="midnightblue" points="124.302,-434.883 113.898,-436.88 123.277,-441.807 124.302,-434.883"/>
</g>
<!-- Node11 -->
<g id="node11" class="node"><title>Node11</title>
<g id="a_node11"><a xlink:href="mbox_8c.html#ac3bd73b0ad1b3a39f62c9fd00544e4ce" target="_top" xlink:title="Implements MxOps::mbox_sync() ">
<polygon fill="white" stroke="black" points="320,-418.5 320,-437.5 416,-437.5 416,-418.5 320,-418.5"/>
<text text-anchor="middle" x="368" y="-425.5" font-family="Helvetica,sans-Serif" font-size="10.00">mbox_mbox_sync</text>
</a>
</g>
</g>
<!-- Node1&#45;&gt;Node11 -->
<g id="edge10" class="edge"><title>Node1&#45;&gt;Node11</title>
<path fill="none" stroke="midnightblue" d="M123.915,-428C182.807,-428 267.634,-428 319.934,-428"/>
<polygon fill="midnightblue" stroke="midnightblue" points="123.6,-424.5 113.6,-428 123.6,-431.5 123.6,-424.5"/>
</g>
<!-- Node12 -->
<g id="node12" class="node"><title>Node12</title>
<g id="a_node12"><a xlink:href="nntp_8c.html#ab63eaf4bb85b02c391743d69f052d5eb" target="_top" xlink:title="Read lines, calling a callback function for each. ">
<polygon fill="white" stroke="red" points="324,-494.5 324,-513.5 412,-513.5 412,-494.5 324,-494.5"/>
<text text-anchor="middle" x="368" y="-501.5" font-family="Helvetica,sans-Serif" font-size="10.00">nntp_fetch_lines</text>
</a>
</g>
</g>
<!-- Node1&#45;&gt;Node12 -->
<g id="edge11" class="edge"><title>Node1&#45;&gt;Node12</title>
<path fill="none" stroke="midnightblue" d="M90.4104,-441.449C107.845,-448.307 129.848,-456.367 150,-462 209.314,-478.581 279.55,-490.88 323.698,-497.749"/>
<polygon fill="midnightblue" stroke="midnightblue" points="91.3068,-438.038 80.722,-437.577 88.7091,-444.539 91.3068,-438.038"/>
</g>
<!-- Node13 -->
<g id="node13" class="node"><title>Node13</title>
<g id="a_node13"><a xlink:href="nntp_8c.html#a6437065331602c01b06ab900ba7eb9e4" target="_top" xlink:title="Fetch headers. ">
<polygon fill="white" stroke="red" points="476,-361.5 476,-380.5 578,-380.5 578,-361.5 476,-361.5"/>
<text text-anchor="middle" x="527" y="-368.5" font-family="Helvetica,sans-Serif" font-size="10.00">nntp_fetch_headers</text>
</a>
</g>
</g>
<!-- Node1&#45;&gt;Node13 -->
<g id="edge16" class="edge"><title>Node1&#45;&gt;Node13</title>
<path fill="none" stroke="midnightblue" d="M59.8093,-408.072C64.9462,-364.692 83.8595,-262.15 150,-219 171.302,-205.102 420.263,-222.65 428,-227 483.09,-257.977 513.547,-334.353 522.874,-361.353"/>
<polygon fill="midnightblue" stroke="midnightblue" points="56.3095,-407.886 58.7384,-418.199 63.2707,-408.623 56.3095,-407.886"/>
</g>
<!-- Node14 -->
<g id="node14" class="node"><title>Node14</title>
<g id="a_node14"><a xlink:href="nntp__private_8h.html#a8d2eba7519328d548ebd9f811410e62e" target="_top" xlink:title="Check for new groups/articles in subscribed groups. ">
<polygon fill="white" stroke="red" points="464.5,-570.5 464.5,-589.5 589.5,-589.5 589.5,-570.5 464.5,-570.5"/>
<text text-anchor="middle" x="527" y="-577.5" font-family="Helvetica,sans-Serif" font-size="10.00">nntp_check_new_groups</text>
</a>
</g>
</g>
<!-- Node1&#45;&gt;Node14 -->
<g id="edge17" class="edge"><title>Node1&#45;&gt;Node14</title>
<path fill="none" stroke="midnightblue" d="M64.9309,-446.874C77.0475,-476.87 105.148,-534.712 150,-561 256.716,-623.548 411.136,-604.001 484.408,-589.556"/>
<polygon fill="midnightblue" stroke="midnightblue" points="68.1849,-445.584 61.3105,-437.523 61.6571,-448.112 68.1849,-445.584"/>
</g>
<!-- Node15 -->
<g id="node15" class="node"><title>Node15</title>
<g id="a_node15"><a xlink:href="nntp_8c.html#a5e39d9fec82ed686b26efe2aef42d906" target="_top" xlink:title="Parse overview line. ">
<polygon fill="white" stroke="black" points="158.5,-228.5 158.5,-247.5 263.5,-247.5 263.5,-228.5 158.5,-228.5"/>
<text text-anchor="middle" x="211" y="-235.5" font-family="Helvetica,sans-Serif" font-size="10.00">parse_overview_line</text>
</a>
</g>
</g>
<!-- Node1&#45;&gt;Node15 -->
<g id="edge14" class="edge"><title>Node1&#45;&gt;Node15</title>
<path fill="none" stroke="midnightblue" d="M63.9192,-408.57C75.2592,-374.407 103.167,-303.292 150,-262 157.069,-255.767 165.959,-251.041 174.713,-247.503"/>
<polygon fill="midnightblue" stroke="midnightblue" points="60.5267,-407.689 60.8166,-418.28 67.1945,-409.819 60.5267,-407.689"/>
</g>
<!-- Node16 -->
<g id="node16" class="node"><title>Node16</title>
<g id="a_node16"><a xlink:href="mutt__notmuch_8c.html#a7c31c546f7e21a569eede9bfbff68163" target="_top" xlink:title="Update the progress counter. ">
<polygon fill="white" stroke="red" points="323.5,-380.5 323.5,-399.5 412.5,-399.5 412.5,-380.5 323.5,-380.5"/>
<text text-anchor="middle" x="368" y="-387.5" font-family="Helvetica,sans-Serif" font-size="10.00">progress_update</text>
</a>
</g>
</g>
<!-- Node1&#45;&gt;Node16 -->
<g id="edge18" class="edge"><title>Node1&#45;&gt;Node16</title>
<path fill="none" stroke="midnightblue" d="M123.76,-419.913C183.947,-412.511 271.315,-401.767 323.321,-395.372"/>
<polygon fill="midnightblue" stroke="midnightblue" points="123.098,-416.468 113.6,-421.162 123.952,-423.416 123.098,-416.468"/>
</g>
<!-- Node17 -->
<g id="node17" class="node"><title>Node17</title>
<g id="a_node17"><a xlink:href="mutt__notmuch_8c.html#a78bc317b4d7cb56aad2480650c298a65" target="_top" xlink:title="Implements MxOps::mbox_sync() ">
<polygon fill="white" stroke="black" points="325,-342.5 325,-361.5 411,-361.5 411,-342.5 325,-342.5"/>
<text text-anchor="middle" x="368" y="-349.5" font-family="Helvetica,sans-Serif" font-size="10.00">nm_mbox_sync</text>
</a>
</g>
</g>
<!-- Node1&#45;&gt;Node17 -->
<g id="edge19" class="edge"><title>Node1&#45;&gt;Node17</title>
<path fill="none" stroke="midnightblue" d="M94.2113,-415.207C111.049,-409.513 131.417,-402.984 150,-398 210.072,-381.888 280.712,-367.797 324.679,-359.59"/>
<polygon fill="midnightblue" stroke="midnightblue" points="93.0748,-411.896 84.746,-418.445 95.3405,-418.519 93.0748,-411.896"/>
</g>
<!-- Node18 -->
<g id="node18" class="node"><title>Node18</title>
<g id="a_node18"><a xlink:href="pattern_8h.html#a828247b3a5ea339163835205d56d8f52" target="_top" xlink:title="Perform some Pattern matching. ">
<polygon fill="white" stroke="black" points="320.5,-722.5 320.5,-741.5 415.5,-741.5 415.5,-722.5 320.5,-722.5"/>
<text text-anchor="middle" x="368" y="-729.5" font-family="Helvetica,sans-Serif" font-size="10.00">mutt_pattern_func</text>
</a>
</g>
</g>
<!-- Node1&#45;&gt;Node18 -->
<g id="edge20" class="edge"><title>Node1&#45;&gt;Node18</title>
<path fill="none" stroke="midnightblue" d="M58.0943,-447.689C59.4946,-498.588 70.8182,-635.138 150,-701 197.544,-740.546 272.165,-742.378 320.33,-738.441"/>
<polygon fill="midnightblue" stroke="midnightblue" points="61.5936,-447.616 57.9218,-437.678 54.5947,-447.737 61.5936,-447.616"/>
</g>
<!-- Node19 -->
<g id="node19" class="node"><title>Node19</title>
<g id="a_node19"><a xlink:href="pattern_8h.html#aab00543a18eef2429dc8e306c663074f" target="_top" xlink:title="Perform a search. ">
<polygon fill="white" stroke="black" points="308.5,-684.5 308.5,-703.5 427.5,-703.5 427.5,-684.5 308.5,-684.5"/>
<text text-anchor="middle" x="368" y="-691.5" font-family="Helvetica,sans-Serif" font-size="10.00">mutt_search_command</text>
</a>
</g>
</g>
<!-- Node1&#45;&gt;Node19 -->
<g id="edge22" class="edge"><title>Node1&#45;&gt;Node19</title>
<path fill="none" stroke="midnightblue" d="M58.931,-447.793C62.3108,-494.96 77.931,-614.202 150,-670 194.656,-704.574 260.841,-707.032 308.366,-703.047"/>
<polygon fill="midnightblue" stroke="midnightblue" points="62.4163,-447.443 58.3198,-437.672 55.429,-447.865 62.4163,-447.443"/>
</g>
<!-- Node20 -->
<g id="node20" class="node"><title>Node20</title>
<g id="a_node20"><a xlink:href="pop_8c.html#a9eb930464bca4758e5fa653790f32214" target="_top" xlink:title="Read headers. ">
<polygon fill="white" stroke="red" points="318.5,-152.5 318.5,-171.5 417.5,-171.5 417.5,-152.5 318.5,-152.5"/>
<text text-anchor="middle" x="368" y="-159.5" font-family="Helvetica,sans-Serif" font-size="10.00">pop_fetch_headers</text>
</a>
</g>
</g>
<!-- Node1&#45;&gt;Node20 -->
<g id="edge24" class="edge"><title>Node1&#45;&gt;Node20</title>
<path fill="none" stroke="midnightblue" d="M57.2662,-408.223C56.4934,-354.665 62.6715,-206.576 150,-143 210.231,-99.1518 306.265,-134.04 347.332,-152.45"/>
<polygon fill="midnightblue" stroke="midnightblue" points="53.7721,-408.505 57.5193,-418.415 60.7699,-408.332 53.7721,-408.505"/>
</g>
<!-- Node21 -->
<g id="node21" class="node"><title>Node21</title>
<g id="a_node21"><a xlink:href="pop_8c.html#aec648278b895a672134f56f176245bac" target="_top" xlink:title="update POP mailbox, delete messages from server ">
<polygon fill="white" stroke="black" points="324,-304.5 324,-323.5 412,-323.5 412,-304.5 324,-304.5"/>
<text text-anchor="middle" x="368" y="-311.5" font-family="Helvetica,sans-Serif" font-size="10.00">pop_mbox_sync</text>
</a>
</g>
</g>
<!-- Node1&#45;&gt;Node21 -->
<g id="edge25" class="edge"><title>Node1&#45;&gt;Node21</title>
<path fill="none" stroke="midnightblue" d="M77.3044,-411.952C95.1306,-397.902 122.876,-377.921 150,-366 207.455,-340.748 279.091,-326.632 323.953,-319.67"/>
<polygon fill="midnightblue" stroke="midnightblue" points="74.9956,-409.318 69.3963,-418.312 79.3824,-414.773 74.9956,-409.318"/>
</g>
<!-- Node22 -->
<g id="node22" class="node"><title>Node22</title>
<g id="a_node22"><a xlink:href="pop__private_8h.html#ac904f3343289681bd5500b928cc243e9" target="_top" xlink:title="Read Headers with callback function. ">
<polygon fill="white" stroke="red" points="169.5,-152.5 169.5,-171.5 252.5,-171.5 252.5,-152.5 169.5,-152.5"/>
<text text-anchor="middle" x="211" y="-159.5" font-family="Helvetica,sans-Serif" font-size="10.00">pop_fetch_data</text>
</a>
</g>
</g>
<!-- Node1&#45;&gt;Node22 -->
<g id="edge26" class="edge"><title>Node1&#45;&gt;Node22</title>
<path fill="none" stroke="midnightblue" d="M60.148,-408.19C66.0786,-362.836 86.6789,-250.421 150,-186 156.134,-179.759 164.101,-175.093 172.213,-171.622"/>
<polygon fill="midnightblue" stroke="midnightblue" points="56.6627,-407.858 58.9392,-418.206 63.6123,-408.697 56.6627,-407.858"/>
</g>
<!-- Node23 -->
<g id="node23" class="node"><title>Node23</title>
<g id="a_node23"><a xlink:href="progress_8h.html#aa15ea4df7e5b36dca95bcc673b060dcb" target="_top" xlink:title="Set up a progress bar. ">
<polygon fill="white" stroke="red" points="162.5,-532.5 162.5,-551.5 259.5,-551.5 259.5,-532.5 162.5,-532.5"/>
<text text-anchor="middle" x="211" y="-539.5" font-family="Helvetica,sans-Serif" font-size="10.00">mutt_progress_init</text>
</a>
</g>
</g>
<!-- Node1&#45;&gt;Node23 -->
<g id="edge28" class="edge"><title>Node1&#45;&gt;Node23</title>
<path fill="none" stroke="midnightblue" d="M72.2155,-445.595C89.0222,-465.441 118.689,-497.6 150,-518 159.024,-523.879 169.717,-528.724 179.559,-532.484"/>
<polygon fill="midnightblue" stroke="midnightblue" points="74.7168,-443.129 65.6355,-437.671 69.3316,-447.601 74.7168,-443.129"/>
</g>
<!-- Node24 -->
<g id="node24" class="node"><title>Node24</title>
<g id="a_node24"><a xlink:href="smtp_8c.html#a4787e69b95165544ddbc914c5d1bdafe" target="_top" xlink:title="Send data to an SMTP server. ">
<polygon fill="white" stroke="red" points="337,-266.5 337,-285.5 399,-285.5 399,-266.5 337,-266.5"/>
<text text-anchor="middle" x="368" y="-273.5" font-family="Helvetica,sans-Serif" font-size="10.00">smtp_data</text>
</a>
</g>
</g>
<!-- Node1&#45;&gt;Node24 -->
<g id="edge46" class="edge"><title>Node1&#45;&gt;Node24</title>
<path fill="none" stroke="midnightblue" d="M69.1975,-409.589C84.4565,-386.149 114.04,-346.162 150,-325 209.915,-289.741 292.856,-279.84 336.822,-277.069"/>
<polygon fill="midnightblue" stroke="midnightblue" points="66.1121,-407.919 63.7269,-418.242 72.0289,-411.66 66.1121,-407.919"/>
</g>
<!-- Node12&#45;&gt;Node13 -->
<g id="edge12" class="edge"><title>Node12&#45;&gt;Node13</title>
<path fill="none" stroke="midnightblue" d="M418.577,-490.337C421.865,-488.738 425.042,-486.964 428,-485 471.704,-455.982 507.193,-402.254 520.425,-380.507"/>
<polygon fill="midnightblue" stroke="midnightblue" points="416.913,-487.242 409.099,-494.397 419.669,-493.677 416.913,-487.242"/>
</g>
<!-- Node12&#45;&gt;Node14 -->
<g id="edge13" class="edge"><title>Node12&#45;&gt;Node14</title>
<path fill="none" stroke="midnightblue" d="M398.042,-518.059C429.551,-533.311 478.996,-557.246 506.277,-570.453"/>
<polygon fill="midnightblue" stroke="midnightblue" points="399.41,-514.832 388.884,-513.625 396.36,-521.133 399.41,-514.832"/>
</g>
<!-- Node15&#45;&gt;Node13 -->
<g id="edge15" class="edge"><title>Node15&#45;&gt;Node13</title>
<path fill="none" stroke="midnightblue" d="M274.114,-231.423C319.235,-229.416 380.463,-232.599 428,-257 475.135,-281.194 509.139,-338.701 521.199,-361.476"/>
<polygon fill="midnightblue" stroke="midnightblue" points="273.673,-227.942 263.877,-231.979 274.052,-234.931 273.673,-227.942"/>
</g>
<!-- Node18&#45;&gt;Node2 -->
<g id="edge21" class="edge"><title>Node18&#45;&gt;Node2</title>
<path fill="none" stroke="midnightblue" d="M425.89,-725.115C443.594,-722.973 462.888,-720.638 479.77,-718.595"/>
<polygon fill="midnightblue" stroke="midnightblue" points="425.187,-721.675 415.68,-726.351 426.028,-728.624 425.187,-721.675"/>
</g>
<!-- Node19&#45;&gt;Node2 -->
<g id="edge23" class="edge"><title>Node19&#45;&gt;Node2</title>
<path fill="none" stroke="midnightblue" d="M438.025,-702.353C452.055,-704.051 466.494,-705.799 479.515,-707.374"/>
<polygon fill="midnightblue" stroke="midnightblue" points="438.256,-698.856 427.908,-701.129 437.415,-705.805 438.256,-698.856"/>
</g>
<!-- Node22&#45;&gt;Node20 -->
<g id="edge27" class="edge"><title>Node22&#45;&gt;Node20</title>
<path fill="none" stroke="midnightblue" d="M262.926,-162C280.728,-162 300.658,-162 318.276,-162"/>
<polygon fill="midnightblue" stroke="midnightblue" points="262.724,-158.5 252.724,-162 262.724,-165.5 262.724,-158.5"/>
</g>
<!-- Node23&#45;&gt;Node2 -->
<g id="edge29" class="edge"><title>Node23&#45;&gt;Node2</title>
<path fill="none" stroke="midnightblue" d="M238.66,-556.519C301.221,-590.588 456.098,-674.933 508.413,-703.423"/>
<polygon fill="midnightblue" stroke="midnightblue" points="240.238,-553.393 229.782,-551.684 236.89,-559.54 240.238,-553.393"/>
</g>
<!-- Node23&#45;&gt;Node4 -->
<g id="edge30" class="edge"><title>Node23&#45;&gt;Node4</title>
<path fill="none" stroke="midnightblue" d="M211.88,-562.098C212.663,-618.134 222.669,-777.714 308,-865 311.761,-868.847 316.304,-871.917 321.179,-874.365"/>
<polygon fill="midnightblue" stroke="midnightblue" points="215.379,-561.758 211.83,-551.775 208.379,-561.792 215.379,-561.758"/>
</g>
<!-- Node23&#45;&gt;Node5 -->
<g id="edge31" class="edge"><title>Node23&#45;&gt;Node5</title>
<path fill="none" stroke="midnightblue" d="M212.798,-561.779C215.943,-613.047 231.469,-751.485 308,-827 311.907,-830.855 316.598,-833.928 321.607,-836.377"/>
<polygon fill="midnightblue" stroke="midnightblue" points="216.289,-561.513 212.275,-551.708 209.298,-561.875 216.289,-561.513"/>
</g>
<!-- Node23&#45;&gt;Node8 -->
<g id="edge32" class="edge"><title>Node23&#45;&gt;Node8</title>
<path fill="none" stroke="midnightblue" d="M213.958,-561.606C219.633,-607.953 240.265,-725.157 308,-789 312.777,-793.502 318.627,-796.938 324.768,-799.559"/>
<polygon fill="midnightblue" stroke="midnightblue" points="217.435,-561.204 212.842,-551.657 210.479,-561.985 217.435,-561.204"/>
</g>
<!-- Node23&#45;&gt;Node9 -->
<g id="edge33" class="edge"><title>Node23&#45;&gt;Node9</title>
<path fill="none" stroke="midnightblue" d="M215.516,-561.592C223.922,-602.742 249.038,-698.669 308,-751 312.346,-754.857 317.484,-757.933 322.886,-760.384"/>
<polygon fill="midnightblue" stroke="midnightblue" points="218.904,-560.676 213.574,-551.52 212.031,-562.002 218.904,-560.676"/>
</g>
<!-- Node23&#45;&gt;Node10 -->
<g id="edge34" class="edge"><title>Node23&#45;&gt;Node10</title>
<path fill="none" stroke="midnightblue" d="M234.293,-526.806C253.27,-514.359 281.579,-496.916 308,-485 315.848,-481.461 324.552,-478.278 332.812,-475.575"/>
<polygon fill="midnightblue" stroke="midnightblue" points="232.165,-524.018 225.776,-532.47 236.041,-529.847 232.165,-524.018"/>
</g>
<!-- Node23&#45;&gt;Node11 -->
<g id="edge35" class="edge"><title>Node23&#45;&gt;Node11</title>
<path fill="none" stroke="midnightblue" d="M225.273,-524.563C242.268,-503.37 273.653,-467.863 308,-447 314.254,-443.201 321.349,-440.08 328.396,-437.544"/>
<polygon fill="midnightblue" stroke="midnightblue" points="222.518,-522.404 219.098,-532.432 228.025,-526.726 222.518,-522.404"/>
</g>
<!-- Node23&#45;&gt;Node12 -->
<g id="edge36" class="edge"><title>Node23&#45;&gt;Node12</title>
<path fill="none" stroke="midnightblue" d="M261.111,-529.96C282.765,-524.651 307.85,-518.501 328.168,-513.52"/>
<polygon fill="midnightblue" stroke="midnightblue" points="259.992,-526.63 251.113,-532.411 261.659,-533.429 259.992,-526.63"/>
</g>
<!-- Node23&#45;&gt;Node13 -->
<g id="edge37" class="edge"><title>Node23&#45;&gt;Node13</title>
<path fill="none" stroke="midnightblue" d="M270.027,-550.124C316.121,-553.621 380.505,-551.659 428,-523 484.454,-488.934 514.234,-408.475 523.113,-380.66"/>
<polygon fill="midnightblue" stroke="midnightblue" points="270.163,-546.623 259.898,-549.246 269.558,-553.596 270.163,-546.623"/>
</g>
<!-- Node23&#45;&gt;Node14 -->
<g id="edge38" class="edge"><title>Node23&#45;&gt;Node14</title>
<path fill="none" stroke="midnightblue" d="M269.739,-550.756C282.338,-552.573 295.608,-554.415 308,-556 360.687,-562.74 420.686,-569.261 464.383,-573.8"/>
<polygon fill="midnightblue" stroke="midnightblue" points="270.209,-547.288 259.809,-549.31 269.2,-554.215 270.209,-547.288"/>
</g>
<!-- Node23&#45;&gt;Node16 -->
<g id="edge39" class="edge"><title>Node23&#45;&gt;Node16</title>
<path fill="none" stroke="midnightblue" d="M220.782,-522.999C235.046,-494.186 265.945,-439.571 308,-409 313.31,-405.14 319.439,-402.041 325.695,-399.559"/>
<polygon fill="midnightblue" stroke="midnightblue" points="217.464,-521.825 216.29,-532.355 223.774,-524.855 217.464,-521.825"/>
</g>
<!-- Node23&#45;&gt;Node17 -->
<g id="edge40" class="edge"><title>Node23&#45;&gt;Node17</title>
<path fill="none" stroke="midnightblue" d="M217.649,-522.608C228.931,-487.262 257.6,-412.208 308,-371 312.999,-366.913 318.895,-363.698 324.994,-361.171"/>
<polygon fill="midnightblue" stroke="midnightblue" points="214.286,-521.635 214.701,-532.221 220.979,-523.687 214.286,-521.635"/>
</g>
<!-- Node23&#45;&gt;Node18 -->
<g id="edge41" class="edge"><title>Node23&#45;&gt;Node18</title>
<path fill="none" stroke="midnightblue" d="M217.649,-561.392C228.931,-596.738 257.6,-671.792 308,-713 312.749,-716.883 318.308,-719.978 324.081,-722.445"/>
<polygon fill="midnightblue" stroke="midnightblue" points="220.979,-560.313 214.701,-551.779 214.286,-562.365 220.979,-560.313"/>
</g>
<!-- Node23&#45;&gt;Node19 -->
<g id="edge42" class="edge"><title>Node23&#45;&gt;Node19</title>
<path fill="none" stroke="midnightblue" d="M229.124,-558.793C261.705,-590.743 331.651,-659.335 357.308,-684.495"/>
<polygon fill="midnightblue" stroke="midnightblue" points="231.286,-556.011 221.696,-551.508 226.385,-561.009 231.286,-556.011"/>
</g>
<!-- Node23&#45;&gt;Node20 -->
<g id="edge43" class="edge"><title>Node23&#45;&gt;Node20</title>
<path fill="none" stroke="midnightblue" d="M216.877,-522.564C229.014,-475.6 262.88,-352.758 308,-257 323.558,-223.982 348.084,-188.225 360.016,-171.559"/>
<polygon fill="midnightblue" stroke="midnightblue" points="213.463,-521.788 214.382,-532.343 220.246,-523.518 213.463,-521.788"/>
</g>
<!-- Node23&#45;&gt;Node21 -->
<g id="edge44" class="edge"><title>Node23&#45;&gt;Node21</title>
<path fill="none" stroke="midnightblue" d="M215.516,-522.408C223.922,-481.258 249.038,-385.331 308,-333 312.588,-328.928 318.057,-325.728 323.789,-323.213"/>
<polygon fill="midnightblue" stroke="midnightblue" points="212.031,-521.998 213.574,-532.48 218.904,-523.324 212.031,-521.998"/>
</g>
<!-- Node23&#45;&gt;Node24 -->
<g id="edge45" class="edge"><title>Node23&#45;&gt;Node24</title>
<path fill="none" stroke="midnightblue" d="M213.958,-522.394C219.633,-476.047 240.265,-358.843 308,-295 315.831,-287.619 326.547,-283.105 336.698,-280.345"/>
<polygon fill="midnightblue" stroke="midnightblue" points="210.479,-522.015 212.842,-532.343 217.435,-522.796 210.479,-522.015"/>
</g>
</g>
</svg>
