<?xml version="1.0" encoding="UTF-8" standalone="no"?>
<!DOCTYPE svg PUBLIC "-//W3C//DTD SVG 1.1//EN"
 "http://www.w3.org/Graphics/SVG/1.1/DTD/svg11.dtd">
<!-- Generated by graphviz version 2.36.0 (20140111.2315)
 -->
<!-- Title: mutt_system Pages: 1 -->
<svg width="250pt" height="142pt"
 viewBox="0.00 0.00 250.00 142.00" xmlns="http://www.w3.org/2000/svg" xmlns:xlink="http://www.w3.org/1999/xlink">
<g id="graph0" class="graph" transform="scale(1 1) rotate(0) translate(4 138)">
<title>mutt_system</title>
<polygon fill="white" stroke="none" points="-4,4 -4,-138 246,-138 246,4 -4,4"/>
<!-- Node1 -->
<g id="node1" class="node"><title>Node1</title>
<polygon fill="#bfbfbf" stroke="black" points="0,-57.5 0,-76.5 74,-76.5 74,-57.5 0,-57.5"/>
<text text-anchor="middle" x="37" y="-64.5" font-family="Helvetica,sans-Serif" font-size="10.00">mutt_system</text>
</g>
<!-- Node2 -->
<g id="node2" class="node"><title>Node2</title>
<g id="a_node2"><a xlink:href="signal_8c.html#a8f760c89850a7fdab70f3e084dae29ea" target="_top" xlink:title="Block signals before calling exec() ">
<polygon fill="white" stroke="black" points="116,-114.5 116,-133.5 236,-133.5 236,-114.5 116,-114.5"/>
<text text-anchor="middle" x="176" y="-121.5" font-family="Helvetica,sans-Serif" font-size="10.00">mutt_sig_block_system</text>
</a>
</g>
</g>
<!-- Node1&#45;&gt;Node2 -->
<g id="edge1" class="edge"><title>Node1&#45;&gt;Node2</title>
<path fill="none" stroke="midnightblue" d="M53.8539,-76.5602C68.1544,-84.8913 89.9578,-96.8784 110,-105 115.584,-107.263 121.538,-109.381 127.489,-111.322"/>
<polygon fill="midnightblue" stroke="midnightblue" points="126.848,-114.788 137.436,-114.416 128.927,-108.104 126.848,-114.788"/>
</g>
<!-- Node3 -->
<g id="node3" class="node"><title>Node3</title>
<g id="a_node3"><a xlink:href="signal_8c.html#a3cf4984996cb9f496fa76c83421549a3" target="_top" xlink:title="Restore previously blocked signals. ">
<polygon fill="white" stroke="black" points="110.5,-76.5 110.5,-95.5 241.5,-95.5 241.5,-76.5 110.5,-76.5"/>
<text text-anchor="middle" x="176" y="-83.5" font-family="Helvetica,sans-Serif" font-size="10.00">mutt_sig_unblock_system</text>
</a>
</g>
</g>
<!-- Node1&#45;&gt;Node3 -->
<g id="edge2" class="edge"><title>Node1&#45;&gt;Node3</title>
<path fill="none" stroke="midnightblue" d="M74.3538,-72.0418C82.4172,-73.16 91.2491,-74.3849 100.226,-75.6299"/>
<polygon fill="midnightblue" stroke="midnightblue" points="100.003,-79.1324 110.39,-77.0394 100.965,-72.1988 100.003,-79.1324"/>
</g>
<!-- Node4 -->
<g id="node4" class="node"><title>Node4</title>
<g id="a_node4"><a xlink:href="envlist_8c.html#ad8cfe2adb63b9459b335af87364bb7f0" target="_top" xlink:title="Get the private environment. ">
<polygon fill="white" stroke="black" points="125.5,-38.5 125.5,-57.5 226.5,-57.5 226.5,-38.5 125.5,-38.5"/>
<text text-anchor="middle" x="176" y="-45.5" font-family="Helvetica,sans-Serif" font-size="10.00">mutt_envlist_getlist</text>
</a>
</g>
</g>
<!-- Node1&#45;&gt;Node4 -->
<g id="edge3" class="edge"><title>Node1&#45;&gt;Node4</title>
<path fill="none" stroke="midnightblue" d="M74.3538,-61.9582C86.9202,-60.2155 101.353,-58.2138 115.292,-56.2806"/>
<polygon fill="midnightblue" stroke="midnightblue" points="115.897,-59.7304 125.321,-54.8898 114.935,-52.7967 115.897,-59.7304"/>
</g>
<!-- Node5 -->
<g id="node5" class="node"><title>Node5</title>
<g id="a_node5"><a xlink:href="imap_8h.html#a6a2f8aba182b573c023386320bd3593f" target="_top" xlink:title="Wait for a process to change state. ">
<polygon fill="white" stroke="red" points="122.5,-0.5 122.5,-19.5 229.5,-19.5 229.5,-0.5 122.5,-0.5"/>
<text text-anchor="middle" x="176" y="-7.5" font-family="Helvetica,sans-Serif" font-size="10.00">imap_wait_keepalive</text>
</a>
</g>
</g>
<!-- Node1&#45;&gt;Node5 -->
<g id="edge4" class="edge"><title>Node1&#45;&gt;Node5</title>
<path fill="none" stroke="midnightblue" d="M53.8539,-57.4398C68.1544,-49.1087 89.9578,-37.1216 110,-29 115.584,-26.7371 121.538,-24.6187 127.489,-22.6777"/>
<polygon fill="midnightblue" stroke="midnightblue" points="128.927,-25.8961 137.436,-19.5845 126.848,-19.2118 128.927,-25.8961"/>
</g>
</g>
</svg>
