<?xml version="1.0" encoding="UTF-8" standalone="no"?>
<!DOCTYPE svg PUBLIC "-//W3C//DTD SVG 1.1//EN"
 "http://www.w3.org/Graphics/SVG/1.1/DTD/svg11.dtd">
<!-- Generated by graphviz version 2.36.0 (20140111.2315)
 -->
<!-- Title: mutt_help Pages: 1 -->
<svg width="198pt" height="104pt"
 viewBox="0.00 0.00 198.00 104.00" xmlns="http://www.w3.org/2000/svg" xmlns:xlink="http://www.w3.org/1999/xlink">
<g id="graph0" class="graph" transform="scale(1 1) rotate(0) translate(4 100)">
<title>mutt_help</title>
<polygon fill="white" stroke="none" points="-4,4 -4,-100 194,-100 194,4 -4,4"/>
<!-- Node1 -->
<g id="node1" class="node"><title>Node1</title>
<polygon fill="#bfbfbf" stroke="black" points="0.5,-38.5 0.5,-57.5 59.5,-57.5 59.5,-38.5 0.5,-38.5"/>
<text text-anchor="middle" x="30" y="-45.5" font-family="Helvetica,sans-Serif" font-size="10.00">mutt_help</text>
</g>
<!-- Node2 -->
<g id="node2" class="node"><title>Node2</title>
<g id="a_node2"><a xlink:href="curs__main_8h.html#af7d9d8649ad205788c9af1bbf871207f" target="_top" xlink:title="Display a list of emails. ">
<polygon fill="white" stroke="red" points="96,-76.5 96,-95.5 190,-95.5 190,-76.5 96,-76.5"/>
<text text-anchor="middle" x="143" y="-83.5" font-family="Helvetica,sans-Serif" font-size="10.00">mutt_index_menu</text>
</a>
</g>
</g>
<!-- Node1&#45;&gt;Node2 -->
<g id="edge1" class="edge"><title>Node1&#45;&gt;Node2</title>
<path fill="none" stroke="midnightblue" d="M68.8913,-60.9718C83.6795,-66.0344 100.329,-71.7341 113.999,-76.4141"/>
<polygon fill="midnightblue" stroke="midnightblue" points="69.6046,-57.5166 59.01,-57.589 67.3373,-64.1393 69.6046,-57.5166"/>
</g>
<!-- Node3 -->
<g id="node3" class="node"><title>Node3</title>
<g id="a_node3"><a xlink:href="menu_8h.html#a2a7161a4171307d15f2362f5d55dfdb1" target="_top" xlink:title="Menu event loop. ">
<polygon fill="white" stroke="red" points="98.5,-38.5 98.5,-57.5 187.5,-57.5 187.5,-38.5 98.5,-38.5"/>
<text text-anchor="middle" x="143" y="-45.5" font-family="Helvetica,sans-Serif" font-size="10.00">mutt_menu_loop</text>
</a>
</g>
</g>
<!-- Node1&#45;&gt;Node3 -->
<g id="edge2" class="edge"><title>Node1&#45;&gt;Node3</title>
<path fill="none" stroke="midnightblue" d="M69.7,-48C78.9744,-48 88.9399,-48 98.4186,-48"/>
<polygon fill="midnightblue" stroke="midnightblue" points="69.5853,-44.5001 59.5853,-48 69.5852,-51.5001 69.5853,-44.5001"/>
</g>
<!-- Node4 -->
<g id="node4" class="node"><title>Node4</title>
<g id="a_node4"><a xlink:href="pager_8h.html#a1f4fb11389135c8767d9c4adca46f0d4" target="_top" xlink:title="Display a file, or help, in a window. ">
<polygon fill="white" stroke="red" points="110.5,-0.5 110.5,-19.5 175.5,-19.5 175.5,-0.5 110.5,-0.5"/>
<text text-anchor="middle" x="143" y="-7.5" font-family="Helvetica,sans-Serif" font-size="10.00">mutt_pager</text>
</a>
</g>
</g>
<!-- Node1&#45;&gt;Node4 -->
<g id="edge3" class="edge"><title>Node1&#45;&gt;Node4</title>
<path fill="none" stroke="midnightblue" d="M68.8913,-35.0282C83.6795,-29.9656 100.329,-24.2659 113.999,-19.5859"/>
<polygon fill="midnightblue" stroke="midnightblue" points="67.3373,-31.8607 59.01,-38.411 69.6046,-38.4834 67.3373,-31.8607"/>
</g>
</g>
</svg>
