<?xml version="1.0" encoding="UTF-8" standalone="no"?>
<!DOCTYPE svg PUBLIC "-//W3C//DTD SVG 1.1//EN"
 "http://www.w3.org/Graphics/SVG/1.1/DTD/svg11.dtd">
<!-- Generated by graphviz version 2.36.0 (20140111.2315)
 -->
<!-- Title: mutt_enter_string_full Pages: 1 -->
<svg width="250pt" height="66pt"
 viewBox="0.00 0.00 250.00 66.00" xmlns="http://www.w3.org/2000/svg" xmlns:xlink="http://www.w3.org/1999/xlink">
<g id="graph0" class="graph" transform="scale(1 1) rotate(0) translate(4 62)">
<title>mutt_enter_string_full</title>
<polygon fill="white" stroke="none" points="-4,4 -4,-62 246,-62 246,4 -4,4"/>
<!-- Node1 -->
<g id="node1" class="node"><title>Node1</title>
<polygon fill="#bfbfbf" stroke="black" points="0,-19.5 0,-38.5 110,-38.5 110,-19.5 0,-19.5"/>
<text text-anchor="middle" x="55" y="-26.5" font-family="Helvetica,sans-Serif" font-size="10.00">mutt_enter_string_full</text>
</g>
<!-- Node2 -->
<g id="node2" class="node"><title>Node2</title>
<g id="a_node2"><a xlink:href="curs__lib_8h.html#a704f10745bab754036dc28ccf85a086b" target="_top" xlink:title="Ask the user for a string. ">
<polygon fill="white" stroke="red" points="146,-38.5 146,-57.5 242,-57.5 242,-38.5 146,-38.5"/>
<text text-anchor="middle" x="194" y="-45.5" font-family="Helvetica,sans-Serif" font-size="10.00">mutt_get_field_full</text>
</a>
</g>
</g>
<!-- Node1&#45;&gt;Node2 -->
<g id="edge1" class="edge"><title>Node1&#45;&gt;Node2</title>
<path fill="none" stroke="midnightblue" d="M120.225,-37.9071C128.875,-39.1068 137.616,-40.3191 145.894,-41.4671"/>
<polygon fill="midnightblue" stroke="midnightblue" points="120.532,-34.4163 110.146,-36.5093 119.57,-41.3499 120.532,-34.4163"/>
</g>
<!-- Node3 -->
<g id="node3" class="node"><title>Node3</title>
<g id="a_node3"><a xlink:href="protos_8h.html#a2a8b6785cfa3536429d1deb6d9959e5c" target="_top" xlink:title="Ask the user for a string. ">
<polygon fill="white" stroke="red" points="148,-0.5 148,-19.5 240,-19.5 240,-0.5 148,-0.5"/>
<text text-anchor="middle" x="194" y="-7.5" font-family="Helvetica,sans-Serif" font-size="10.00">mutt_enter_string</text>
</a>
</g>
</g>
<!-- Node1&#45;&gt;Node3 -->
<g id="edge2" class="edge"><title>Node1&#45;&gt;Node3</title>
<path fill="none" stroke="midnightblue" d="M120.147,-20.1037C129.432,-18.8161 138.824,-17.5135 147.637,-16.2913"/>
<polygon fill="midnightblue" stroke="midnightblue" points="119.57,-16.6501 110.146,-21.4907 120.532,-23.5837 119.57,-16.6501"/>
</g>
</g>
</svg>
