<?xml version="1.0" encoding="UTF-8" standalone="no"?>
<!DOCTYPE svg PUBLIC "-//W3C//DTD SVG 1.1//EN"
 "http://www.w3.org/Graphics/SVG/1.1/DTD/svg11.dtd">
<!-- Generated by graphviz version 2.36.0 (20140111.2315)
 -->
<!-- Title: mutt_query_complete Pages: 1 -->
<svg width="508pt" height="277pt"
 viewBox="0.00 0.00 508.00 276.96" xmlns="http://www.w3.org/2000/svg" xmlns:xlink="http://www.w3.org/1999/xlink">
<g id="graph0" class="graph" transform="scale(1 1) rotate(0) translate(4 272.963)">
<title>mutt_query_complete</title>
<polygon fill="white" stroke="none" points="-4,4 -4,-272.963 504,-272.963 504,4 -4,4"/>
<!-- Node1 -->
<g id="node1" class="node"><title>Node1</title>
<polygon fill="#bfbfbf" stroke="black" points="0,-133.5 0,-152.5 110,-152.5 110,-133.5 0,-133.5"/>
<text text-anchor="middle" x="55" y="-140.5" font-family="Helvetica,sans-Serif" font-size="10.00">mutt_query_complete</text>
</g>
<!-- Node2 -->
<g id="node2" class="node"><title>Node2</title>
<g id="a_node2"><a xlink:href="query_8c.html#ac91e62e634de5454afe744ee05947ccd" target="_top" xlink:title="Run an external program to find Addresses. ">
<polygon fill="white" stroke="red" points="296.5,-228.5 296.5,-247.5 355.5,-247.5 355.5,-228.5 296.5,-228.5"/>
<text text-anchor="middle" x="326" y="-235.5" font-family="Helvetica,sans-Serif" font-size="10.00">run_query</text>
</a>
</g>
</g>
<!-- Node1&#45;&gt;Node2 -->
<g id="edge1" class="edge"><title>Node1&#45;&gt;Node2</title>
<path fill="none" stroke="midnightblue" d="M72.8116,-152.628C90.5679,-162.503 119.595,-177.819 146,-188 193.194,-206.197 249.71,-220.857 286.434,-229.488"/>
<polygon fill="midnightblue" stroke="midnightblue" points="285.711,-232.913 296.243,-231.761 287.291,-226.094 285.711,-232.913"/>
</g>
<!-- Node3 -->
<g id="node3" class="node"><title>Node3</title>
<g id="a_node3"><a xlink:href="query_8c.html#a9901c228993d9357a8f53e935e8fe981" target="_top" xlink:title="Turn a Query into an Address. ">
<polygon fill="white" stroke="red" points="287,-190.5 287,-209.5 365,-209.5 365,-190.5 287,-190.5"/>
<text text-anchor="middle" x="326" y="-197.5" font-family="Helvetica,sans-Serif" font-size="10.00">result_to_addr</text>
</a>
</g>
</g>
<!-- Node1&#45;&gt;Node3 -->
<g id="edge2" class="edge"><title>Node1&#45;&gt;Node3</title>
<path fill="none" stroke="midnightblue" d="M91.3563,-152.58C107.896,-156.921 127.897,-161.972 146,-166 189.981,-175.787 240.435,-185.209 276.544,-191.642"/>
<polygon fill="midnightblue" stroke="midnightblue" points="276.34,-195.16 286.797,-193.457 277.56,-188.267 276.34,-195.16"/>
</g>
<!-- Node4 -->
<g id="node4" class="node"><title>Node4</title>
<g id="a_node4"><a xlink:href="email_2address_8c.html#ac8a563c423f7db03245f563d8e824e91" target="_top" xlink:title="Convert an Address list from Punycode. ">
<polygon fill="white" stroke="red" points="270,-76.5 270,-95.5 382,-95.5 382,-76.5 270,-76.5"/>
<text text-anchor="middle" x="326" y="-83.5" font-family="Helvetica,sans-Serif" font-size="10.00">mutt_addrlist_to_local</text>
</a>
</g>
</g>
<!-- Node1&#45;&gt;Node4 -->
<g id="edge3" class="edge"><title>Node1&#45;&gt;Node4</title>
<path fill="none" stroke="midnightblue" d="M74.401,-133.333C92.2082,-124.44 120.217,-111.656 146,-105 182.883,-95.4788 225.223,-90.7169 259.463,-88.3408"/>
<polygon fill="midnightblue" stroke="midnightblue" points="260.058,-91.8099 269.814,-87.6773 259.61,-84.8242 260.058,-91.8099"/>
</g>
<!-- Node5 -->
<g id="node5" class="node"><title>Node5</title>
<g id="a_node5"><a xlink:href="email_2address_8c.html#ac1ccf9a098991f797af50f11e6575695" target="_top" xlink:title="Write an Address to a buffer. ">
<polygon fill="white" stroke="red" points="283,-38.5 283,-57.5 369,-57.5 369,-38.5 283,-38.5"/>
<text text-anchor="middle" x="326" y="-45.5" font-family="Helvetica,sans-Serif" font-size="10.00">mutt_addr_write</text>
</a>
</g>
</g>
<!-- Node1&#45;&gt;Node5 -->
<g id="edge4" class="edge"><title>Node1&#45;&gt;Node5</title>
<path fill="none" stroke="midnightblue" d="M68.3665,-133.366C85.0594,-120.833 116.159,-99.1116 146,-87 187.08,-70.3265 236.495,-60.2476 272.988,-54.5252"/>
<polygon fill="midnightblue" stroke="midnightblue" points="273.556,-57.9793 282.921,-53.0249 272.51,-51.0578 273.556,-57.9793"/>
</g>
<!-- Node6 -->
<g id="node6" class="node"><title>Node6</title>
<g id="a_node6"><a xlink:href="email_2address_8c.html#a261c737f5760766b245e5e8506b11b12" target="_top" xlink:title="Free a list of Addresses. ">
<polygon fill="white" stroke="red" points="418,-152.5 418,-171.5 500,-171.5 500,-152.5 418,-152.5"/>
<text text-anchor="middle" x="459" y="-159.5" font-family="Helvetica,sans-Serif" font-size="10.00">mutt_addr_free</text>
</a>
</g>
</g>
<!-- Node1&#45;&gt;Node6 -->
<g id="edge5" class="edge"><title>Node1&#45;&gt;Node6</title>
<path fill="none" stroke="midnightblue" d="M65.6882,-152.688C81.3376,-167.864 113.701,-197.327 146,-215 197.045,-242.93 212.587,-247.541 270,-257 319.116,-265.092 337.135,-278.563 382,-257 414.834,-241.219 437.923,-203.58 449.494,-180.699"/>
<polygon fill="midnightblue" stroke="midnightblue" points="452.677,-182.157 453.869,-171.63 446.372,-179.116 452.677,-182.157"/>
</g>
<!-- Node7 -->
<g id="node7" class="node"><title>Node7</title>
<g id="a_node7"><a xlink:href="query_8c.html#a796c80b2f66d1156b83958da72f16a9f" target="_top" xlink:title="Free a Query. ">
<polygon fill="white" stroke="black" points="295,-152.5 295,-171.5 357,-171.5 357,-152.5 295,-152.5"/>
<text text-anchor="middle" x="326" y="-159.5" font-family="Helvetica,sans-Serif" font-size="10.00">free_query</text>
</a>
</g>
</g>
<!-- Node1&#45;&gt;Node7 -->
<g id="edge6" class="edge"><title>Node1&#45;&gt;Node7</title>
<path fill="none" stroke="midnightblue" d="M110.113,-146.822C161.746,-150.469 238.346,-155.879 284.782,-159.159"/>
<polygon fill="midnightblue" stroke="midnightblue" points="284.554,-162.652 294.776,-159.865 285.048,-155.669 284.554,-162.652"/>
</g>
<!-- Node8 -->
<g id="node8" class="node"><title>Node8</title>
<g id="a_node8"><a xlink:href="mutt__logging_8c.html#af068b3f524a31fad293b2fb61dfc4534" target="_top" xlink:title="Clear the message line (bottom line of screen) ">
<polygon fill="white" stroke="red" points="146.5,-0.5 146.5,-19.5 233.5,-19.5 233.5,-0.5 146.5,-0.5"/>
<text text-anchor="middle" x="190" y="-7.5" font-family="Helvetica,sans-Serif" font-size="10.00">mutt_clear_error</text>
</a>
</g>
</g>
<!-- Node1&#45;&gt;Node8 -->
<g id="edge8" class="edge"><title>Node1&#45;&gt;Node8</title>
<path fill="none" stroke="midnightblue" d="M62.2201,-133.232C75.5862,-112.815 108.863,-64.9531 146,-34 150.082,-30.5977 154.717,-27.4327 159.395,-24.5904"/>
<polygon fill="midnightblue" stroke="midnightblue" points="161.332,-27.5158 168.312,-19.5446 157.885,-21.4236 161.332,-27.5158"/>
</g>
<!-- Node9 -->
<g id="node9" class="node"><title>Node9</title>
<g id="a_node9"><a xlink:href="query_8c.html#a1ca9d237583501cf25a206723b5c15ec" target="_top" xlink:title="Get the user to enter an Address Query. ">
<polygon fill="white" stroke="red" points="155,-114.5 155,-133.5 225,-133.5 225,-114.5 155,-114.5"/>
<text text-anchor="middle" x="190" y="-121.5" font-family="Helvetica,sans-Serif" font-size="10.00">query_menu</text>
</a>
</g>
</g>
<!-- Node1&#45;&gt;Node9 -->
<g id="edge9" class="edge"><title>Node1&#45;&gt;Node9</title>
<path fill="none" stroke="midnightblue" d="M110.096,-135.272C121.659,-133.62 133.741,-131.894 144.875,-130.304"/>
<polygon fill="midnightblue" stroke="midnightblue" points="145.388,-133.766 154.792,-128.887 144.398,-126.836 145.388,-133.766"/>
</g>
<!-- Node7&#45;&gt;Node6 -->
<g id="edge7" class="edge"><title>Node7&#45;&gt;Node6</title>
<path fill="none" stroke="midnightblue" d="M357.054,-162C371.942,-162 390.327,-162 407.31,-162"/>
<polygon fill="midnightblue" stroke="midnightblue" points="407.659,-165.5 417.659,-162 407.659,-158.5 407.659,-165.5"/>
</g>
<!-- Node9&#45;&gt;Node2 -->
<g id="edge10" class="edge"><title>Node9&#45;&gt;Node2</title>
<path fill="none" stroke="midnightblue" d="M196.458,-133.56C207.766,-152.544 235.592,-195.214 270,-219 275.057,-222.496 280.819,-225.404 286.663,-227.805"/>
<polygon fill="midnightblue" stroke="midnightblue" points="285.874,-231.243 296.468,-231.383 288.274,-224.667 285.874,-231.243"/>
</g>
<!-- Node9&#45;&gt;Node3 -->
<g id="edge12" class="edge"><title>Node9&#45;&gt;Node3</title>
<path fill="none" stroke="midnightblue" d="M202.084,-133.625C216.772,-145.982 243.882,-167.442 270,-181 274.043,-183.099 278.369,-185.048 282.751,-186.835"/>
<polygon fill="midnightblue" stroke="midnightblue" points="281.759,-190.202 292.35,-190.482 284.245,-183.658 281.759,-190.202"/>
</g>
<!-- Node9&#45;&gt;Node4 -->
<g id="edge14" class="edge"><title>Node9&#45;&gt;Node4</title>
<path fill="none" stroke="midnightblue" d="M224.814,-114.411C242.033,-109.528 263.164,-103.536 281.573,-98.315"/>
<polygon fill="midnightblue" stroke="midnightblue" points="282.531,-101.681 291.197,-95.5859 280.621,-94.947 282.531,-101.681"/>
</g>
<!-- Node9&#45;&gt;Node5 -->
<g id="edge15" class="edge"><title>Node9&#45;&gt;Node5</title>
<path fill="none" stroke="midnightblue" d="M202.084,-114.375C216.772,-102.018 243.882,-80.5584 270,-67 274.043,-64.9011 278.369,-62.9521 282.751,-61.1654"/>
<polygon fill="midnightblue" stroke="midnightblue" points="284.245,-64.3418 292.35,-57.5177 281.759,-57.7984 284.245,-64.3418"/>
</g>
<!-- Node9&#45;&gt;Node6 -->
<g id="edge13" class="edge"><title>Node9&#45;&gt;Node6</title>
<path fill="none" stroke="midnightblue" d="M225.014,-125.882C263.37,-128.352 327.5,-133.529 382,-143 392.561,-144.835 403.822,-147.341 414.352,-149.931"/>
<polygon fill="midnightblue" stroke="midnightblue" points="413.623,-153.357 424.176,-152.421 415.343,-146.572 413.623,-153.357"/>
</g>
<!-- Node9&#45;&gt;Node7 -->
<g id="edge11" class="edge"><title>Node9&#45;&gt;Node7</title>
<path fill="none" stroke="midnightblue" d="M224.814,-133.589C243.168,-138.794 265.968,-145.26 285.179,-150.707"/>
<polygon fill="midnightblue" stroke="midnightblue" points="284.279,-154.09 294.855,-153.451 286.189,-147.356 284.279,-154.09"/>
</g>
</g>
</svg>
