<?xml version="1.0" encoding="UTF-8" standalone="no"?>
<!DOCTYPE svg PUBLIC "-//W3C//DTD SVG 1.1//EN"
 "http://www.w3.org/Graphics/SVG/1.1/DTD/svg11.dtd">
<!-- Generated by graphviz version 2.36.0 (20140111.2315)
 -->
<!-- Title: query_menu Pages: 1 -->
<svg width="520pt" height="880pt"
 viewBox="0.00 0.00 520.00 880.01" xmlns="http://www.w3.org/2000/svg" xmlns:xlink="http://www.w3.org/1999/xlink">
<g id="graph0" class="graph" transform="scale(1 1) rotate(0) translate(4 876.007)">
<title>query_menu</title>
<polygon fill="white" stroke="none" points="-4,4 -4,-876.007 516,-876.007 516,4 -4,4"/>
<!-- Node1 -->
<g id="node1" class="node"><title>Node1</title>
<polygon fill="#bfbfbf" stroke="black" points="0,-430.653 0,-449.653 70,-449.653 70,-430.653 0,-430.653"/>
<text text-anchor="middle" x="35" y="-437.653" font-family="Helvetica,sans-Serif" font-size="10.00">query_menu</text>
</g>
<!-- Node2 -->
<g id="node2" class="node"><title>Node2</title>
<g id="a_node2"><a xlink:href="query_8c.html#ac91e62e634de5454afe744ee05947ccd" target="_top" xlink:title="Run an external program to find Addresses. ">
<polygon fill="white" stroke="red" points="296.5,-848.653 296.5,-867.653 355.5,-867.653 355.5,-848.653 296.5,-848.653"/>
<text text-anchor="middle" x="326" y="-855.653" font-family="Helvetica,sans-Serif" font-size="10.00">run_query</text>
</a>
</g>
</g>
<!-- Node1&#45;&gt;Node2 -->
<g id="edge1" class="edge"><title>Node1&#45;&gt;Node2</title>
<path fill="none" stroke="midnightblue" d="M36.214,-449.831C37.6452,-505.034 47.654,-779.573 106,-834.153 154.402,-879.431 237.621,-874.409 286.345,-866.436"/>
<polygon fill="midnightblue" stroke="midnightblue" points="287.243,-869.832 296.486,-864.652 286.03,-862.938 287.243,-869.832"/>
</g>
<!-- Node3 -->
<g id="node3" class="node"><title>Node3</title>
<g id="a_node3"><a xlink:href="memory_8c.html#a4c1612d209c7825d55e6a014df352f03" target="_top" xlink:title="Allocate zeroed memory on the heap. ">
<polygon fill="white" stroke="red" points="418,-625.653 418,-644.653 512,-644.653 512,-625.653 418,-625.653"/>
<text text-anchor="middle" x="465" y="-632.653" font-family="Helvetica,sans-Serif" font-size="10.00">mutt_mem_calloc</text>
</a>
</g>
</g>
<!-- Node1&#45;&gt;Node3 -->
<g id="edge12" class="edge"><title>Node1&#45;&gt;Node3</title>
<path fill="none" stroke="midnightblue" d="M36.3735,-449.739C38.5871,-500.972 51.8015,-741.822 106,-786.153 202.557,-865.132 279.606,-806.401 382,-735.153 413.465,-713.259 439.433,-676.089 453.241,-653.757"/>
<polygon fill="midnightblue" stroke="midnightblue" points="456.403,-655.291 458.551,-644.916 450.402,-651.687 456.403,-655.291"/>
</g>
<!-- Node4 -->
<g id="node4" class="node"><title>Node4</title>
<g id="a_node4"><a xlink:href="menu_8c.html#a07fe8255b23ce3d17da2c1cb6f8a7958" target="_top" xlink:title="Create a new Menu. ">
<polygon fill="white" stroke="red" points="281.5,-706.653 281.5,-725.653 370.5,-725.653 370.5,-706.653 281.5,-706.653"/>
<text text-anchor="middle" x="326" y="-713.653" font-family="Helvetica,sans-Serif" font-size="10.00">mutt_menu_new</text>
</a>
</g>
</g>
<!-- Node1&#45;&gt;Node4 -->
<g id="edge3" class="edge"><title>Node1&#45;&gt;Node4</title>
<path fill="none" stroke="midnightblue" d="M36.5206,-449.748C39.4065,-498.945 55.1959,-722.18 106,-763.153 164.797,-810.573 260.454,-758.97 303.182,-731.316"/>
<polygon fill="midnightblue" stroke="midnightblue" points="305.301,-734.11 311.697,-725.664 301.43,-728.278 305.301,-734.11"/>
</g>
<!-- Node5 -->
<g id="node5" class="node"><title>Node5</title>
<g id="a_node5"><a xlink:href="query_8c.html#aa8dcbe1f9d351239c89d2dc1124331a4" target="_top" xlink:title="Format a menu item for the query list. ">
<polygon fill="white" stroke="red" points="136,-734.653 136,-753.653 204,-753.653 204,-734.653 136,-734.653"/>
<text text-anchor="middle" x="170" y="-741.653" font-family="Helvetica,sans-Serif" font-size="10.00">query_entry</text>
</a>
</g>
</g>
<!-- Node1&#45;&gt;Node5 -->
<g id="edge5" class="edge"><title>Node1&#45;&gt;Node5</title>
<path fill="none" stroke="midnightblue" d="M37.0948,-449.85C42.3696,-494.929 66.5385,-683.582 106,-725.153 111.475,-730.921 118.63,-734.956 126.148,-737.776"/>
<polygon fill="midnightblue" stroke="midnightblue" points="125.177,-741.139 135.764,-740.735 127.236,-734.449 125.177,-741.139"/>
</g>
<!-- Node6 -->
<g id="node6" class="node"><title>Node6</title>
<g id="a_node6"><a xlink:href="query_8c.html#acccc5af35dc4bb6889c7b04af206504c" target="_top" xlink:title="Search a Address menu item. ">
<polygon fill="white" stroke="black" points="132.5,-696.653 132.5,-715.653 207.5,-715.653 207.5,-696.653 132.5,-696.653"/>
<text text-anchor="middle" x="170" y="-703.653" font-family="Helvetica,sans-Serif" font-size="10.00">query_search</text>
</a>
</g>
</g>
<!-- Node1&#45;&gt;Node6 -->
<g id="edge6" class="edge"><title>Node1&#45;&gt;Node6</title>
<path fill="none" stroke="midnightblue" d="M35.6751,-449.779C34.9887,-486.274 37.5599,-617.557 106,-687.153 110.626,-691.857 116.371,-695.406 122.494,-698.081"/>
<polygon fill="midnightblue" stroke="midnightblue" points="121.728,-701.524 132.322,-701.606 124.091,-694.935 121.728,-701.524"/>
</g>
<!-- Node7 -->
<g id="node7" class="node"><title>Node7</title>
<g id="a_node7"><a xlink:href="query_8c.html#ab4f4af6bc6a1218158f62aa624803955" target="_top" xlink:title="Tag an entry in the Query Menu. ">
<polygon fill="white" stroke="black" points="140.5,-658.653 140.5,-677.653 199.5,-677.653 199.5,-658.653 140.5,-658.653"/>
<text text-anchor="middle" x="170" y="-665.653" font-family="Helvetica,sans-Serif" font-size="10.00">query_tag</text>
</a>
</g>
</g>
<!-- Node1&#45;&gt;Node7 -->
<g id="edge7" class="edge"><title>Node1&#45;&gt;Node7</title>
<path fill="none" stroke="midnightblue" d="M36.2676,-450.11C37.7124,-483.388 46.9514,-591.866 106,-649.153 112.744,-655.696 121.658,-659.996 130.651,-662.819"/>
<polygon fill="midnightblue" stroke="midnightblue" points="129.783,-666.209 140.341,-665.338 131.544,-659.434 129.783,-666.209"/>
</g>
<!-- Node8 -->
<g id="node8" class="node"><title>Node8</title>
<g id="a_node8"><a xlink:href="help_8c.html#ab2b6859671cace7029a75bacc218164c" target="_top" xlink:title="Create the text for the help menu. ">
<polygon fill="white" stroke="red" points="277,-50.6531 277,-69.6531 375,-69.6531 375,-50.6531 277,-50.6531"/>
<text text-anchor="middle" x="326" y="-57.6531" font-family="Helvetica,sans-Serif" font-size="10.00">mutt_compile_help</text>
</a>
</g>
</g>
<!-- Node1&#45;&gt;Node8 -->
<g id="edge8" class="edge"><title>Node1&#45;&gt;Node8</title>
<path fill="none" stroke="midnightblue" d="M36.3587,-430.585C38.527,-378.336 51.6711,-128.058 106,-79.1531 151.282,-38.3916 225.255,-41.0799 274.524,-48.8781"/>
<polygon fill="midnightblue" stroke="midnightblue" points="274.197,-52.3729 284.644,-50.606 275.376,-45.4727 274.197,-52.3729"/>
</g>
<!-- Node9 -->
<g id="node9" class="node"><title>Node9</title>
<g id="a_node9"><a xlink:href="mutt_2string_8c.html#aca11f88d08a860c07419df3efb18f35a" target="_top" xlink:title="Calculate the length of a string, safely. ">
<polygon fill="white" stroke="black" points="424,-50.6531 424,-69.6531 506,-69.6531 506,-50.6531 424,-50.6531"/>
<text text-anchor="middle" x="465" y="-57.6531" font-family="Helvetica,sans-Serif" font-size="10.00">mutt_str_strlen</text>
</a>
</g>
</g>
<!-- Node1&#45;&gt;Node9 -->
<g id="edge37" class="edge"><title>Node1&#45;&gt;Node9</title>
<path fill="none" stroke="midnightblue" d="M36.0977,-430.617C36.8856,-375.008 43.9315,-93.2803 106,-41.1531 201.625,39.1558 367.254,-18.0852 434.425,-46.6017"/>
<polygon fill="midnightblue" stroke="midnightblue" points="433.034,-49.8134 443.601,-50.5808 435.819,-43.3912 433.034,-49.8134"/>
</g>
<!-- Node10 -->
<g id="node10" class="node"><title>Node10</title>
<g id="a_node10"><a xlink:href="menu_8c.html#a04f3d31793e49bd9c718fd184ce3d575" target="_top" xlink:title="Add a new Menu to the stack. ">
<polygon fill="white" stroke="black" points="106.5,-620.653 106.5,-639.653 233.5,-639.653 233.5,-620.653 106.5,-620.653"/>
<text text-anchor="middle" x="170" y="-627.653" font-family="Helvetica,sans-Serif" font-size="10.00">mutt_menu_push_current</text>
</a>
</g>
</g>
<!-- Node1&#45;&gt;Node10 -->
<g id="edge10" class="edge"><title>Node1&#45;&gt;Node10</title>
<path fill="none" stroke="midnightblue" d="M37.3913,-449.887C41.9151,-478.054 58.7485,-560.531 106,-606.153 110.052,-610.066 114.807,-613.355 119.858,-616.118"/>
<polygon fill="midnightblue" stroke="midnightblue" points="118.645,-619.416 129.179,-620.542 121.646,-613.092 118.645,-619.416"/>
</g>
<!-- Node11 -->
<g id="node11" class="node"><title>Node11</title>
<g id="a_node11"><a xlink:href="memory_8c.html#af778eb8166966fc0666c64849f6c7c5b" target="_top" xlink:title="Resize a block of memory on the heap. ">
<polygon fill="white" stroke="red" points="277.5,-601.653 277.5,-620.653 374.5,-620.653 374.5,-601.653 277.5,-601.653"/>
<text text-anchor="middle" x="326" y="-608.653" font-family="Helvetica,sans-Serif" font-size="10.00">mutt_mem_realloc</text>
</a>
</g>
</g>
<!-- Node1&#45;&gt;Node11 -->
<g id="edge18" class="edge"><title>Node1&#45;&gt;Node11</title>
<path fill="none" stroke="midnightblue" d="M39.5875,-449.792C47.8983,-470.782 70.512,-520.847 106,-547.153 153.434,-582.315 219.88,-598.228 267.114,-605.387"/>
<polygon fill="midnightblue" stroke="midnightblue" points="266.792,-608.876 277.187,-606.825 267.782,-601.947 266.792,-608.876"/>
</g>
<!-- Node12 -->
<g id="node12" class="node"><title>Node12</title>
<g id="a_node12"><a xlink:href="menu_8c.html#a2a7161a4171307d15f2362f5d55dfdb1" target="_top" xlink:title="Menu event loop. ">
<polygon fill="white" stroke="red" points="125.5,-468.653 125.5,-487.653 214.5,-487.653 214.5,-468.653 125.5,-468.653"/>
<text text-anchor="middle" x="170" y="-475.653" font-family="Helvetica,sans-Serif" font-size="10.00">mutt_menu_loop</text>
</a>
</g>
</g>
<!-- Node1&#45;&gt;Node12 -->
<g id="edge13" class="edge"><title>Node1&#45;&gt;Node12</title>
<path fill="none" stroke="midnightblue" d="M69.5615,-449.742C86.573,-454.603 107.432,-460.562 125.645,-465.766"/>
<polygon fill="midnightblue" stroke="midnightblue" points="124.872,-469.185 135.449,-468.567 126.796,-462.455 124.872,-469.185"/>
</g>
<!-- Node13 -->
<g id="node13" class="node"><title>Node13</title>
<g id="a_node13"><a xlink:href="query_8c.html#a796c80b2f66d1156b83958da72f16a9f" target="_top" xlink:title="Free a Query. ">
<polygon fill="white" stroke="black" points="139,-392.653 139,-411.653 201,-411.653 201,-392.653 139,-392.653"/>
<text text-anchor="middle" x="170" y="-399.653" font-family="Helvetica,sans-Serif" font-size="10.00">free_query</text>
</a>
</g>
</g>
<!-- Node1&#45;&gt;Node13 -->
<g id="edge14" class="edge"><title>Node1&#45;&gt;Node13</title>
<path fill="none" stroke="midnightblue" d="M69.5615,-430.564C87.565,-425.42 109.878,-419.045 128.802,-413.638"/>
<polygon fill="midnightblue" stroke="midnightblue" points="129.979,-416.942 138.633,-410.829 128.056,-410.211 129.979,-416.942"/>
</g>
<!-- Node14 -->
<g id="node14" class="node"><title>Node14</title>
<g id="a_node14"><a xlink:href="email_2address_8c.html#a261c737f5760766b245e5e8506b11b12" target="_top" xlink:title="Free a list of Addresses. ">
<polygon fill="white" stroke="red" points="285,-449.653 285,-468.653 367,-468.653 367,-449.653 285,-449.653"/>
<text text-anchor="middle" x="326" y="-456.653" font-family="Helvetica,sans-Serif" font-size="10.00">mutt_addr_free</text>
</a>
</g>
</g>
<!-- Node1&#45;&gt;Node14 -->
<g id="edge21" class="edge"><title>Node1&#45;&gt;Node14</title>
<path fill="none" stroke="midnightblue" d="M43.8176,-449.742C55.6117,-463.361 79.4209,-487.7 106,-497.153 159.6,-516.216 178.22,-508.332 234,-497.153 256.804,-492.583 281.03,-482.163 298.748,-473.389"/>
<polygon fill="midnightblue" stroke="midnightblue" points="300.557,-476.395 307.872,-468.731 297.374,-470.161 300.557,-476.395"/>
</g>
<!-- Node15 -->
<g id="node15" class="node"><title>Node15</title>
<g id="a_node15"><a xlink:href="menu_8c.html#acbb5c8e0e047ca06629a7e8ee967d890" target="_top" xlink:title="Remove a Menu from the stack. ">
<polygon fill="white" stroke="red" points="109,-354.653 109,-373.653 231,-373.653 231,-354.653 109,-354.653"/>
<text text-anchor="middle" x="170" y="-361.653" font-family="Helvetica,sans-Serif" font-size="10.00">mutt_menu_pop_current</text>
</a>
</g>
</g>
<!-- Node1&#45;&gt;Node15 -->
<g id="edge16" class="edge"><title>Node1&#45;&gt;Node15</title>
<path fill="none" stroke="midnightblue" d="M45.5318,-430.292C58.2326,-417.679 81.9154,-395.942 106,-383.153 110.194,-380.926 114.686,-378.922 119.27,-377.126"/>
<polygon fill="midnightblue" stroke="midnightblue" points="120.509,-380.4 128.74,-373.729 118.146,-373.811 120.509,-380.4"/>
</g>
<!-- Node16 -->
<g id="node16" class="node"><title>Node16</title>
<g id="a_node16"><a xlink:href="menu_8c.html#a466caa434b1d937fe3b1c6d690b0110d" target="_top" xlink:title="Destroy a menu. ">
<polygon fill="white" stroke="black" points="118.5,-316.653 118.5,-335.653 221.5,-335.653 221.5,-316.653 118.5,-316.653"/>
<text text-anchor="middle" x="170" y="-323.653" font-family="Helvetica,sans-Serif" font-size="10.00">mutt_menu_destroy</text>
</a>
</g>
</g>
<!-- Node1&#45;&gt;Node16 -->
<g id="edge17" class="edge"><title>Node1&#45;&gt;Node16</title>
<path fill="none" stroke="midnightblue" d="M40.4688,-430.464C49.8277,-411.248 73.3552,-368.181 106,-345.153 108.84,-343.15 111.895,-341.354 115.073,-339.746"/>
<polygon fill="midnightblue" stroke="midnightblue" points="116.541,-342.923 124.281,-335.689 113.719,-336.517 116.541,-342.923"/>
</g>
<!-- Node17 -->
<g id="node17" class="node"><title>Node17</title>
<g id="a_node17"><a xlink:href="query_8c.html#a9901c228993d9357a8f53e935e8fe981" target="_top" xlink:title="Turn a Query into an Address. ">
<polygon fill="white" stroke="red" points="131,-278.653 131,-297.653 209,-297.653 209,-278.653 131,-278.653"/>
<text text-anchor="middle" x="170" y="-285.653" font-family="Helvetica,sans-Serif" font-size="10.00">result_to_addr</text>
</a>
</g>
</g>
<!-- Node1&#45;&gt;Node17 -->
<g id="edge19" class="edge"><title>Node1&#45;&gt;Node17</title>
<path fill="none" stroke="midnightblue" d="M38.3141,-430.473C44.6698,-406 64.7323,-341.186 106,-307.153 110.573,-303.381 115.881,-300.358 121.438,-297.935"/>
<polygon fill="midnightblue" stroke="midnightblue" points="122.789,-301.167 130.938,-294.397 120.346,-294.607 122.789,-301.167"/>
</g>
<!-- Node18 -->
<g id="node18" class="node"><title>Node18</title>
<g id="a_node18"><a xlink:href="email_2address_8c.html#a1a50586ebc0ce723d9955ee49b3be97d" target="_top" xlink:title="Append one list of addresses onto another. ">
<polygon fill="white" stroke="red" points="121.5,-240.653 121.5,-259.653 218.5,-259.653 218.5,-240.653 121.5,-240.653"/>
<text text-anchor="middle" x="170" y="-247.653" font-family="Helvetica,sans-Serif" font-size="10.00">mutt_addr_append</text>
</a>
</g>
</g>
<!-- Node1&#45;&gt;Node18 -->
<g id="edge20" class="edge"><title>Node1&#45;&gt;Node18</title>
<path fill="none" stroke="midnightblue" d="M37.0848,-430.379C40.8352,-401.322 55.9059,-314.672 106,-269.153 107.96,-267.372 110.083,-265.757 112.321,-264.294"/>
<polygon fill="midnightblue" stroke="midnightblue" points="114.304,-267.201 121.436,-259.366 110.975,-261.043 114.304,-267.201"/>
</g>
<!-- Node19 -->
<g id="node19" class="node"><title>Node19</title>
<g id="a_node19"><a xlink:href="alias_8c.html#a95a1f5c567eca51458f60800bef47c84" target="_top" xlink:title="Create a new Alias from an Envelope or an Address. ">
<polygon fill="white" stroke="red" points="123,-126.653 123,-145.653 217,-145.653 217,-126.653 123,-126.653"/>
<text text-anchor="middle" x="170" y="-133.653" font-family="Helvetica,sans-Serif" font-size="10.00">mutt_alias_create</text>
</a>
</g>
</g>
<!-- Node1&#45;&gt;Node19 -->
<g id="edge22" class="edge"><title>Node1&#45;&gt;Node19</title>
<path fill="none" stroke="midnightblue" d="M37.2228,-430.389C42.9786,-385.838 68.6639,-202.219 106,-160.153 109.409,-156.312 113.5,-153.083 117.939,-150.369"/>
<polygon fill="midnightblue" stroke="midnightblue" points="119.555,-153.473 126.817,-145.758 116.329,-147.261 119.555,-153.473"/>
</g>
<!-- Node20 -->
<g id="node20" class="node"><title>Node20</title>
<g id="a_node20"><a xlink:href="email_2address_8c.html#ac8a563c423f7db03245f563d8e824e91" target="_top" xlink:title="Convert an Address list from Punycode. ">
<polygon fill="white" stroke="red" points="270,-164.653 270,-183.653 382,-183.653 382,-164.653 270,-164.653"/>
<text text-anchor="middle" x="326" y="-171.653" font-family="Helvetica,sans-Serif" font-size="10.00">mutt_addrlist_to_local</text>
</a>
</g>
</g>
<!-- Node1&#45;&gt;Node20 -->
<g id="edge35" class="edge"><title>Node1&#45;&gt;Node20</title>
<path fill="none" stroke="midnightblue" d="M35.5134,-430.609C34.2428,-394.485 34.9796,-265.11 106,-204.153 147.867,-168.218 211.783,-163.184 259.777,-165.676"/>
<polygon fill="midnightblue" stroke="midnightblue" points="259.56,-169.17 269.762,-166.314 260.006,-162.184 259.56,-169.17"/>
</g>
<!-- Node21 -->
<g id="node21" class="node"><title>Node21</title>
<g id="a_node21"><a xlink:href="email_2address_8c.html#ac1ccf9a098991f797af50f11e6575695" target="_top" xlink:title="Write an Address to a buffer. ">
<polygon fill="white" stroke="red" points="283,-88.6531 283,-107.653 369,-107.653 369,-88.6531 283,-88.6531"/>
<text text-anchor="middle" x="326" y="-95.6531" font-family="Helvetica,sans-Serif" font-size="10.00">mutt_addr_write</text>
</a>
</g>
</g>
<!-- Node1&#45;&gt;Node21 -->
<g id="edge36" class="edge"><title>Node1&#45;&gt;Node21</title>
<path fill="none" stroke="midnightblue" d="M36.5882,-430.638C39.8117,-381.842 57.0159,-160.286 106,-117.153 151.458,-77.1251 224.726,-79.4262 273.848,-86.9564"/>
<polygon fill="midnightblue" stroke="midnightblue" points="273.508,-90.4476 283.946,-88.6292 274.652,-83.5417 273.508,-90.4476"/>
</g>
<!-- Node22 -->
<g id="node22" class="node"><title>Node22</title>
<g id="a_node22"><a xlink:href="header_8c.html#a6462f919c4f96d1a37866b16e6acb93b" target="_top" xlink:title="Create a new email Header. ">
<polygon fill="white" stroke="black" points="279,-544.653 279,-563.653 373,-563.653 373,-544.653 279,-544.653"/>
<text text-anchor="middle" x="326" y="-551.653" font-family="Helvetica,sans-Serif" font-size="10.00">mutt_header_new</text>
</a>
</g>
</g>
<!-- Node1&#45;&gt;Node22 -->
<g id="edge27" class="edge"><title>Node1&#45;&gt;Node22</title>
<path fill="none" stroke="midnightblue" d="M41.7577,-449.711C52.2647,-466.234 76.2329,-499.925 106,-516.153 156.398,-543.629 222.168,-552.005 268.43,-554.2"/>
<polygon fill="midnightblue" stroke="midnightblue" points="268.447,-557.703 278.577,-554.598 268.721,-550.709 268.447,-557.703"/>
</g>
<!-- Node23 -->
<g id="node23" class="node"><title>Node23</title>
<g id="a_node23"><a xlink:href="envelope_8c.html#a51f04365c2b348d829e7cd3710c55b5b" target="_top" xlink:title="Create a new Envelope. ">
<polygon fill="white" stroke="black" points="286,-411.653 286,-430.653 366,-430.653 366,-411.653 286,-411.653"/>
<text text-anchor="middle" x="326" y="-418.653" font-family="Helvetica,sans-Serif" font-size="10.00">mutt_env_new</text>
</a>
</g>
</g>
<!-- Node1&#45;&gt;Node23 -->
<g id="edge29" class="edge"><title>Node1&#45;&gt;Node23</title>
<path fill="none" stroke="midnightblue" d="M35.6862,-430.456C35.1683,-396.103 38.6023,-279.657 106,-231.153 152.175,-197.923 185.863,-200.835 234,-231.153 294.819,-269.459 315.888,-360.923 322.395,-401.354"/>
<polygon fill="midnightblue" stroke="midnightblue" points="318.943,-401.936 323.865,-411.318 325.868,-400.915 318.943,-401.936"/>
</g>
<!-- Node24 -->
<g id="node24" class="node"><title>Node24</title>
<g id="a_node24"><a xlink:href="send_8c.html#a09c909ab2bb41101590ed2b13f65fc2d" target="_top" xlink:title="Send an email. ">
<polygon fill="white" stroke="red" points="122.5,-430.653 122.5,-449.653 217.5,-449.653 217.5,-430.653 122.5,-430.653"/>
<text text-anchor="middle" x="170" y="-437.653" font-family="Helvetica,sans-Serif" font-size="10.00">ci_send_message</text>
</a>
</g>
</g>
<!-- Node1&#45;&gt;Node24 -->
<g id="edge31" class="edge"><title>Node1&#45;&gt;Node24</title>
<path fill="none" stroke="midnightblue" d="M70.2508,-440.153C83.0092,-440.153 97.8573,-440.153 112.105,-440.153"/>
<polygon fill="midnightblue" stroke="midnightblue" points="112.334,-443.653 122.334,-440.153 112.334,-436.653 112.334,-443.653"/>
</g>
<!-- Node2&#45;&gt;Node3 -->
<g id="edge2" class="edge"><title>Node2&#45;&gt;Node3</title>
<path fill="none" stroke="midnightblue" d="M355.542,-850.458C364.922,-846.779 374.782,-841.521 382,-834.153 432.931,-782.162 453.829,-694.09 460.912,-654.935"/>
<polygon fill="midnightblue" stroke="midnightblue" points="464.401,-655.296 462.621,-644.852 457.499,-654.126 464.401,-655.296"/>
</g>
<!-- Node4&#45;&gt;Node3 -->
<g id="edge4" class="edge"><title>Node4&#45;&gt;Node3</title>
<path fill="none" stroke="midnightblue" d="M343.254,-706.543C366.943,-692.537 411.156,-666.397 439.004,-649.932"/>
<polygon fill="midnightblue" stroke="midnightblue" points="440.941,-652.853 447.767,-644.75 437.378,-646.827 440.941,-652.853"/>
</g>
<!-- Node8&#45;&gt;Node9 -->
<g id="edge9" class="edge"><title>Node8&#45;&gt;Node9</title>
<path fill="none" stroke="midnightblue" d="M375.301,-60.1531C387.699,-60.1531 401.067,-60.1531 413.57,-60.1531"/>
<polygon fill="midnightblue" stroke="midnightblue" points="413.828,-63.6532 423.828,-60.1531 413.828,-56.6532 413.828,-63.6532"/>
</g>
<!-- Node10&#45;&gt;Node11 -->
<g id="edge11" class="edge"><title>Node10&#45;&gt;Node11</title>
<path fill="none" stroke="midnightblue" d="M233.638,-622.425C244.618,-621.07 256.002,-619.666 266.854,-618.327"/>
<polygon fill="midnightblue" stroke="midnightblue" points="267.569,-621.765 277.065,-617.067 266.712,-614.818 267.569,-621.765"/>
</g>
<!-- Node13&#45;&gt;Node14 -->
<g id="edge15" class="edge"><title>Node13&#45;&gt;Node14</title>
<path fill="none" stroke="midnightblue" d="M201.215,-409.983C211.744,-413.047 223.536,-416.861 234,-421.153 250.738,-428.019 253.401,-432.956 270,-440.153 274.801,-442.235 279.911,-444.252 285.008,-446.145"/>
<polygon fill="midnightblue" stroke="midnightblue" points="284.115,-449.543 294.709,-449.618 286.474,-442.953 284.115,-449.543"/>
</g>
<!-- Node19&#45;&gt;Node3 -->
<g id="edge23" class="edge"><title>Node19&#45;&gt;Node3</title>
<path fill="none" stroke="midnightblue" d="M211.723,-126.632C259.009,-118.208 336.338,-112.979 382,-155.153 450.953,-218.838 461.982,-533.19 463.694,-615.433"/>
<polygon fill="midnightblue" stroke="midnightblue" points="460.195,-615.513 463.879,-625.447 467.194,-615.384 460.195,-615.513"/>
</g>
<!-- Node19&#45;&gt;Node20 -->
<g id="edge24" class="edge"><title>Node19&#45;&gt;Node20</title>
<path fill="none" stroke="midnightblue" d="M209.861,-145.742C230.091,-150.734 255.021,-156.886 276.504,-162.186"/>
<polygon fill="midnightblue" stroke="midnightblue" points="275.871,-165.635 286.419,-164.633 277.548,-158.839 275.871,-165.635"/>
</g>
<!-- Node19&#45;&gt;Node21 -->
<g id="edge25" class="edge"><title>Node19&#45;&gt;Node21</title>
<path fill="none" stroke="midnightblue" d="M209.861,-126.564C230.091,-121.572 255.021,-115.421 276.504,-110.12"/>
<polygon fill="midnightblue" stroke="midnightblue" points="277.548,-113.467 286.419,-107.673 275.871,-106.671 277.548,-113.467"/>
</g>
<!-- Node21&#45;&gt;Node9 -->
<g id="edge26" class="edge"><title>Node21&#45;&gt;Node9</title>
<path fill="none" stroke="midnightblue" d="M361.571,-88.5641C379.175,-83.6812 400.779,-77.6888 419.601,-72.4682"/>
<polygon fill="midnightblue" stroke="midnightblue" points="420.739,-75.7846 429.44,-69.7391 418.868,-69.0393 420.739,-75.7846"/>
</g>
<!-- Node22&#45;&gt;Node3 -->
<g id="edge28" class="edge"><title>Node22&#45;&gt;Node3</title>
<path fill="none" stroke="midnightblue" d="M343.254,-563.763C366.943,-577.769 411.156,-603.91 439.004,-620.374"/>
<polygon fill="midnightblue" stroke="midnightblue" points="437.378,-623.479 447.767,-625.556 440.941,-617.454 437.378,-623.479"/>
</g>
<!-- Node23&#45;&gt;Node3 -->
<g id="edge30" class="edge"><title>Node23&#45;&gt;Node3</title>
<path fill="none" stroke="midnightblue" d="M366.009,-429.973C371.845,-432.549 377.429,-435.871 382,-440.153 434.208,-489.052 454.44,-576.422 461.131,-615.417"/>
<polygon fill="midnightblue" stroke="midnightblue" points="457.703,-616.144 462.735,-625.468 464.615,-615.041 457.703,-616.144"/>
</g>
<!-- Node24&#45;&gt;Node14 -->
<g id="edge34" class="edge"><title>Node24&#45;&gt;Node14</title>
<path fill="none" stroke="midnightblue" d="M217.623,-445.905C235.699,-448.136 256.435,-450.694 274.835,-452.964"/>
<polygon fill="midnightblue" stroke="midnightblue" points="274.432,-456.441 284.785,-454.192 275.289,-449.493 274.432,-456.441"/>
</g>
<!-- Node24&#45;&gt;Node22 -->
<g id="edge32" class="edge"><title>Node24&#45;&gt;Node22</title>
<path fill="none" stroke="midnightblue" d="M213.637,-449.736C220.712,-452.234 227.766,-455.332 234,-459.153 267.224,-479.519 296.585,-514.938 312.473,-536.298"/>
<polygon fill="midnightblue" stroke="midnightblue" points="309.724,-538.468 318.43,-544.506 315.389,-534.357 309.724,-538.468"/>
</g>
<!-- Node24&#45;&gt;Node23 -->
<g id="edge33" class="edge"><title>Node24&#45;&gt;Node23</title>
<path fill="none" stroke="midnightblue" d="M217.623,-434.401C235.998,-432.134 257.122,-429.528 275.746,-427.23"/>
<polygon fill="midnightblue" stroke="midnightblue" points="276.305,-430.688 285.802,-425.989 275.448,-423.74 276.305,-430.688"/>
</g>
</g>
</svg>
