<?xml version="1.0" encoding="UTF-8" standalone="no"?>
<!DOCTYPE svg PUBLIC "-//W3C//DTD SVG 1.1//EN"
 "http://www.w3.org/Graphics/SVG/1.1/DTD/svg11.dtd">
<!-- Generated by graphviz version 2.36.0 (20140111.2315)
 -->
<!-- Title: query_search Pages: 1 -->
<svg width="190pt" height="28pt"
 viewBox="0.00 0.00 190.00 28.00" xmlns="http://www.w3.org/2000/svg" xmlns:xlink="http://www.w3.org/1999/xlink">
<g id="graph0" class="graph" transform="scale(1 1) rotate(0) translate(4 24)">
<title>query_search</title>
<polygon fill="white" stroke="none" points="-4,4 -4,-24 186,-24 186,4 -4,4"/>
<!-- Node1 -->
<g id="node1" class="node"><title>Node1</title>
<polygon fill="#bfbfbf" stroke="black" points="0.5,-0.5 0.5,-19.5 75.5,-19.5 75.5,-0.5 0.5,-0.5"/>
<text text-anchor="middle" x="38" y="-7.5" font-family="Helvetica,sans-Serif" font-size="10.00">query_search</text>
</g>
<!-- Node2 -->
<g id="node2" class="node"><title>Node2</title>
<g id="a_node2"><a xlink:href="query_8c.html#a1ca9d237583501cf25a206723b5c15ec" target="_top" xlink:title="Get the user to enter an Address Query. ">
<polygon fill="white" stroke="red" points="112,-0.5 112,-19.5 182,-19.5 182,-0.5 112,-0.5"/>
<text text-anchor="middle" x="147" y="-7.5" font-family="Helvetica,sans-Serif" font-size="10.00">query_menu</text>
</a>
</g>
</g>
<!-- Node1&#45;&gt;Node2 -->
<g id="edge1" class="edge"><title>Node1&#45;&gt;Node2</title>
<path fill="none" stroke="midnightblue" d="M85.6648,-10C94.4505,-10 103.486,-10 111.803,-10"/>
<polygon fill="midnightblue" stroke="midnightblue" points="85.5241,-6.5001 75.5241,-10 85.524,-13.5001 85.5241,-6.5001"/>
</g>
</g>
</svg>
