<?xml version="1.0" encoding="UTF-8" standalone="no"?>
<!DOCTYPE svg PUBLIC "-//W3C//DTD SVG 1.1//EN"
 "http://www.w3.org/Graphics/SVG/1.1/DTD/svg11.dtd">
<!-- Generated by graphviz version 2.36.0 (20140111.2315)
 -->
<!-- Title: run_query Pages: 1 -->
<svg width="336pt" height="305pt"
 viewBox="0.00 0.00 336.00 305.00" xmlns="http://www.w3.org/2000/svg" xmlns:xlink="http://www.w3.org/1999/xlink">
<g id="graph0" class="graph" transform="scale(1 1) rotate(0) translate(4 301)">
<title>run_query</title>
<polygon fill="white" stroke="none" points="-4,4 -4,-301 332,-301 332,4 -4,4"/>
<!-- Node1 -->
<g id="node1" class="node"><title>Node1</title>
<polygon fill="#bfbfbf" stroke="black" points="0.5,-133.5 0.5,-152.5 59.5,-152.5 59.5,-133.5 0.5,-133.5"/>
<text text-anchor="middle" x="30" y="-140.5" font-family="Helvetica,sans-Serif" font-size="10.00">run_query</text>
</g>
<!-- Node2 -->
<g id="node2" class="node"><title>Node2</title>
<g id="a_node2"><a xlink:href="file_8c.html#a8c1018a1e125f626710ba3679eb187fc" target="_top" xlink:title="Replace s in a string with a filename. ">
<polygon fill="white" stroke="red" points="96,-267 96,-297 206,-297 206,-267 96,-267"/>
<text text-anchor="start" x="104" y="-285" font-family="Helvetica,sans-Serif" font-size="10.00">mutt_file_expand_fmt</text>
<text text-anchor="middle" x="151" y="-274" font-family="Helvetica,sans-Serif" font-size="10.00">_quote</text>
</a>
</g>
</g>
<!-- Node1&#45;&gt;Node2 -->
<g id="edge1" class="edge"><title>Node1&#45;&gt;Node2</title>
<path fill="none" stroke="midnightblue" d="M34.1535,-152.553C41.6474,-173.933 62.4463,-226.172 96,-257 97.6689,-258.533 99.4483,-259.987 101.307,-261.365"/>
<polygon fill="midnightblue" stroke="midnightblue" points="99.5735,-264.412 109.868,-266.918 103.383,-258.539 99.5735,-264.412"/>
</g>
<!-- Node3 -->
<g id="node3" class="node"><title>Node3</title>
<g id="a_node3"><a xlink:href="filter_8c.html#a9175e055396a99789d648cd43000f126" target="_top" xlink:title="Set up filter program. ">
<polygon fill="white" stroke="red" points="105,-228.5 105,-247.5 197,-247.5 197,-228.5 105,-228.5"/>
<text text-anchor="middle" x="151" y="-235.5" font-family="Helvetica,sans-Serif" font-size="10.00">mutt_create_filter</text>
</a>
</g>
</g>
<!-- Node1&#45;&gt;Node3 -->
<g id="edge2" class="edge"><title>Node1&#45;&gt;Node3</title>
<path fill="none" stroke="midnightblue" d="M36.7839,-152.587C46.88,-168.554 69.2184,-200.647 96,-219 98.8744,-220.97 101.974,-222.757 105.184,-224.373"/>
<polygon fill="midnightblue" stroke="midnightblue" points="103.867,-227.618 114.425,-228.491 106.715,-221.224 103.867,-227.618"/>
</g>
<!-- Node4 -->
<g id="node4" class="node"><title>Node4</title>
<g id="a_node4"><a xlink:href="file_8c.html#a925820fb917e9a6a0542baa02ec7ed2c" target="_top" xlink:title="Read a line from a file. ">
<polygon fill="white" stroke="red" points="102,-190.5 102,-209.5 200,-209.5 200,-190.5 102,-190.5"/>
<text text-anchor="middle" x="151" y="-197.5" font-family="Helvetica,sans-Serif" font-size="10.00">mutt_file_read_line</text>
</a>
</g>
</g>
<!-- Node1&#45;&gt;Node4 -->
<g id="edge3" class="edge"><title>Node1&#45;&gt;Node4</title>
<path fill="none" stroke="midnightblue" d="M45.5397,-152.585C58.4359,-160.82 77.9704,-172.651 96,-181 100.444,-183.058 105.179,-185.028 109.927,-186.867"/>
<polygon fill="midnightblue" stroke="midnightblue" points="109.01,-190.26 119.603,-190.446 111.438,-183.694 109.01,-190.26"/>
</g>
<!-- Node5 -->
<g id="node5" class="node"><title>Node5</title>
<g id="a_node5"><a xlink:href="memory_8c.html#a4c1612d209c7825d55e6a014df352f03" target="_top" xlink:title="Allocate zeroed memory on the heap. ">
<polygon fill="white" stroke="red" points="104,-152.5 104,-171.5 198,-171.5 198,-152.5 104,-152.5"/>
<text text-anchor="middle" x="151" y="-159.5" font-family="Helvetica,sans-Serif" font-size="10.00">mutt_mem_calloc</text>
</a>
</g>
</g>
<!-- Node1&#45;&gt;Node5 -->
<g id="edge4" class="edge"><title>Node1&#45;&gt;Node5</title>
<path fill="none" stroke="midnightblue" d="M59.5035,-147.551C69.8175,-149.198 81.8555,-151.12 93.7221,-153.014"/>
<polygon fill="midnightblue" stroke="midnightblue" points="93.1813,-156.472 103.608,-154.593 94.2851,-149.56 93.1813,-156.472"/>
</g>
<!-- Node6 -->
<g id="node6" class="node"><title>Node6</title>
<g id="a_node6"><a xlink:href="email_2address_8c.html#abc55e4ec2195cdbfc45eaa22cbce9c64" target="_top" xlink:title="Parse a list of email addresses. ">
<polygon fill="white" stroke="red" points="97.5,-114.5 97.5,-133.5 204.5,-133.5 204.5,-114.5 97.5,-114.5"/>
<text text-anchor="middle" x="151" y="-121.5" font-family="Helvetica,sans-Serif" font-size="10.00">mutt_addr_parse_list</text>
</a>
</g>
</g>
<!-- Node1&#45;&gt;Node6 -->
<g id="edge5" class="edge"><title>Node1&#45;&gt;Node6</title>
<path fill="none" stroke="midnightblue" d="M59.5035,-138.449C67.8728,-137.113 77.3774,-135.595 87.0045,-134.058"/>
<polygon fill="midnightblue" stroke="midnightblue" points="87.7157,-137.489 97.0387,-132.456 86.6119,-130.577 87.7157,-137.489"/>
</g>
<!-- Node7 -->
<g id="node7" class="node"><title>Node7</title>
<g id="a_node7"><a xlink:href="mutt_2string_8c.html#ae48085384a6545e0fac589a88243ea31" target="_top" xlink:title="Copy a string, safely. ">
<polygon fill="white" stroke="red" points="242.5,-95.5 242.5,-114.5 327.5,-114.5 327.5,-95.5 242.5,-95.5"/>
<text text-anchor="middle" x="285" y="-102.5" font-family="Helvetica,sans-Serif" font-size="10.00">mutt_str_strdup</text>
</a>
</g>
</g>
<!-- Node1&#45;&gt;Node7 -->
<g id="edge7" class="edge"><title>Node1&#45;&gt;Node7</title>
<path fill="none" stroke="midnightblue" d="M43.0499,-133.283C55.469,-123.945 75.8128,-110.468 96,-105 140.778,-92.8713 193.788,-94.2108 232.084,-97.8018"/>
<polygon fill="midnightblue" stroke="midnightblue" points="232.172,-101.329 242.477,-98.865 232.885,-94.3653 232.172,-101.329"/>
</g>
<!-- Node8 -->
<g id="node8" class="node"><title>Node8</title>
<g id="a_node8"><a xlink:href="file_8c.html#a4982d9040dfaf38e847729be2af83ed6" target="_top" xlink:title="Close a FILE handle (and NULL the pointer) ">
<polygon fill="white" stroke="black" points="108,-38.5 108,-57.5 194,-57.5 194,-38.5 108,-38.5"/>
<text text-anchor="middle" x="151" y="-45.5" font-family="Helvetica,sans-Serif" font-size="10.00">mutt_file_fclose</text>
</a>
</g>
</g>
<!-- Node1&#45;&gt;Node8 -->
<g id="edge8" class="edge"><title>Node1&#45;&gt;Node8</title>
<path fill="none" stroke="midnightblue" d="M37.9656,-133.086C48.8752,-118.158 71.3138,-89.7678 96,-72 101.3,-68.185 107.304,-64.7833 113.333,-61.8253"/>
<polygon fill="midnightblue" stroke="midnightblue" points="115.08,-64.8757 122.73,-57.5465 112.179,-58.5049 115.08,-64.8757"/>
</g>
<!-- Node9 -->
<g id="node9" class="node"><title>Node9</title>
<g id="a_node9"><a xlink:href="filter_8c.html#a2d652b11c7d2ea31208315aaf61537d2" target="_top" xlink:title="Wait for the exit of a process and return its status. ">
<polygon fill="white" stroke="red" points="109.5,-0.5 109.5,-19.5 192.5,-19.5 192.5,-0.5 109.5,-0.5"/>
<text text-anchor="middle" x="151" y="-7.5" font-family="Helvetica,sans-Serif" font-size="10.00">mutt_wait_filter</text>
</a>
</g>
</g>
<!-- Node1&#45;&gt;Node9 -->
<g id="edge9" class="edge"><title>Node1&#45;&gt;Node9</title>
<path fill="none" stroke="midnightblue" d="M33.9482,-133.213C41.0219,-111.353 61.0166,-58.1956 96,-29 98.0363,-27.3006 100.235,-25.749 102.54,-24.3329"/>
<polygon fill="midnightblue" stroke="midnightblue" points="104.569,-27.2236 111.839,-19.5164 101.349,-21.0079 104.569,-27.2236"/>
</g>
<!-- Node6&#45;&gt;Node7 -->
<g id="edge6" class="edge"><title>Node6&#45;&gt;Node7</title>
<path fill="none" stroke="midnightblue" d="M204.549,-116.436C213.638,-115.128 223.083,-113.768 232.153,-112.463"/>
<polygon fill="midnightblue" stroke="midnightblue" points="232.797,-115.906 242.196,-111.017 231.799,-108.978 232.797,-115.906"/>
</g>
</g>
</svg>
