<?xml version="1.0" encoding="UTF-8" standalone="no"?>
<!DOCTYPE svg PUBLIC "-//W3C//DTD SVG 1.1//EN"
 "http://www.w3.org/Graphics/SVG/1.1/DTD/svg11.dtd">
<!-- Generated by graphviz version 2.36.0 (20140111.2315)
 -->
<!-- Title: recvattach.h Pages: 1 -->
<svg width="172pt" height="140pt"
 viewBox="0.00 0.00 171.81 140.00" xmlns="http://www.w3.org/2000/svg" xmlns:xlink="http://www.w3.org/1999/xlink">
<g id="graph0" class="graph" transform="scale(1 1) rotate(0) translate(4 136)">
<title>recvattach.h</title>
<polygon fill="white" stroke="none" points="-4,4 -4,-136 167.809,-136 167.809,4 -4,4"/>
<!-- Node1 -->
<g id="node1" class="node"><title>Node1</title>
<polygon fill="#bfbfbf" stroke="black" points="4.30922,-112.5 4.30922,-131.5 75.3092,-131.5 75.3092,-112.5 4.30922,-112.5"/>
<text text-anchor="middle" x="39.8092" y="-119.5" font-family="Helvetica,sans-Serif" font-size="10.00">recvattach.h</text>
</g>
<!-- Node2 -->
<g id="node2" class="node"><title>Node2</title>
<polygon fill="white" stroke="#bfbfbf" points="27.8092,-0.5 27.8092,-19.5 79.8092,-19.5 79.8092,-0.5 27.8092,-0.5"/>
<text text-anchor="middle" x="53.8092" y="-7.5" font-family="Helvetica,sans-Serif" font-size="10.00">stddef.h</text>
</g>
<!-- Node1&#45;&gt;Node2 -->
<g id="edge1" class="edge"><title>Node1&#45;&gt;Node2</title>
<path fill="none" stroke="midnightblue" d="M28.95,-112.442C14.9039,-100.263 -6.69781,-77.0673 2.80922,-56 8.42511,-43.5553 19.3719,-33.1723 29.6884,-25.5273"/>
<polygon fill="midnightblue" stroke="midnightblue" points="31.8156,-28.3123 38.0753,-19.7643 27.8513,-22.5431 31.8156,-28.3123"/>
</g>
<!-- Node3 -->
<g id="node3" class="node"><title>Node3</title>
<polygon fill="white" stroke="#bfbfbf" points="11.8092,-56.5 11.8092,-75.5 67.8092,-75.5 67.8092,-56.5 11.8092,-56.5"/>
<text text-anchor="middle" x="39.8092" y="-63.5" font-family="Helvetica,sans-Serif" font-size="10.00">stdbool.h</text>
</g>
<!-- Node1&#45;&gt;Node3 -->
<g id="edge2" class="edge"><title>Node1&#45;&gt;Node3</title>
<path fill="none" stroke="midnightblue" d="M39.8092,-112.083C39.8092,-105.006 39.8092,-94.8611 39.8092,-85.9865"/>
<polygon fill="midnightblue" stroke="midnightblue" points="43.3093,-85.751 39.8092,-75.7511 36.3093,-85.7511 43.3093,-85.751"/>
</g>
<!-- Node4 -->
<g id="node4" class="node"><title>Node4</title>
<g id="a_node4"><a xlink:href="format__flags_8h.html" target="_top" xlink:title="Flags to control mutt_expando_format() ">
<polygon fill="white" stroke="black" points="85.3092,-56.5 85.3092,-75.5 164.309,-75.5 164.309,-56.5 85.3092,-56.5"/>
<text text-anchor="middle" x="124.809" y="-63.5" font-family="Helvetica,sans-Serif" font-size="10.00">format_flags.h</text>
</a>
</g>
</g>
<!-- Node1&#45;&gt;Node4 -->
<g id="edge3" class="edge"><title>Node1&#45;&gt;Node4</title>
<path fill="none" stroke="midnightblue" d="M53.4659,-112.324C66.7255,-103.9 87.0772,-90.9709 102.655,-81.0741"/>
<polygon fill="midnightblue" stroke="midnightblue" points="104.623,-83.9711 111.186,-75.6545 100.869,-78.0626 104.623,-83.9711"/>
</g>
<!-- Node4&#45;&gt;Node2 -->
<g id="edge4" class="edge"><title>Node4&#45;&gt;Node2</title>
<path fill="none" stroke="midnightblue" d="M113.402,-56.324C102.7,-48.1849 86.4686,-35.8395 73.6464,-26.0874"/>
<polygon fill="midnightblue" stroke="midnightblue" points="75.5024,-23.1018 65.4242,-19.8339 71.2648,-28.6734 75.5024,-23.1018"/>
</g>
</g>
</svg>
