<?xml version="1.0" encoding="UTF-8" standalone="no"?>
<!DOCTYPE svg PUBLIC "-//W3C//DTD SVG 1.1//EN"
 "http://www.w3.org/Graphics/SVG/1.1/DTD/svg11.dtd">
<!-- Generated by graphviz version 2.36.0 (20140111.2315)
 -->
<!-- Title: check_msg Pages: 1 -->
<svg width="194pt" height="28pt"
 viewBox="0.00 0.00 194.00 28.00" xmlns="http://www.w3.org/2000/svg" xmlns:xlink="http://www.w3.org/1999/xlink">
<g id="graph0" class="graph" transform="scale(1 1) rotate(0) translate(4 24)">
<title>check_msg</title>
<polygon fill="white" stroke="none" points="-4,4 -4,-24 190,-24 190,4 -4,4"/>
<!-- Node1 -->
<g id="node1" class="node"><title>Node1</title>
<polygon fill="#bfbfbf" stroke="black" points="0.5,-0.5 0.5,-19.5 67.5,-19.5 67.5,-0.5 0.5,-0.5"/>
<text text-anchor="middle" x="34" y="-7.5" font-family="Helvetica,sans-Serif" font-size="10.00">check_msg</text>
</g>
<!-- Node2 -->
<g id="node2" class="node"><title>Node2</title>
<g id="a_node2"><a xlink:href="recvcmd_8c.html#af2a32e11ee4abdd9f23eadfb3cfbe9f7" target="_top" xlink:title="Are all the Attachments RFC822 messages? ">
<polygon fill="white" stroke="red" points="104,-0.5 104,-19.5 186,-19.5 186,-0.5 104,-0.5"/>
<text text-anchor="middle" x="145" y="-7.5" font-family="Helvetica,sans-Serif" font-size="10.00">check_all_msg</text>
</a>
</g>
</g>
<!-- Node1&#45;&gt;Node2 -->
<g id="edge1" class="edge"><title>Node1&#45;&gt;Node2</title>
<path fill="none" stroke="midnightblue" d="M77.9224,-10C86.5136,-10 95.5073,-10 103.995,-10"/>
<polygon fill="midnightblue" stroke="midnightblue" points="77.7036,-6.5001 67.7036,-10 77.7036,-13.5001 77.7036,-6.5001"/>
</g>
</g>
</svg>
