<?xml version="1.0" encoding="UTF-8" standalone="no"?>
<!DOCTYPE svg PUBLIC "-//W3C//DTD SVG 1.1//EN"
 "http://www.w3.org/Graphics/SVG/1.1/DTD/svg11.dtd">
<!-- Generated by graphviz version 2.36.0 (20140111.2315)
 -->
<!-- Title: print_attachment_list Pages: 1 -->
<svg width="602pt" height="353pt"
 viewBox="0.00 0.00 602.00 353.24" xmlns="http://www.w3.org/2000/svg" xmlns:xlink="http://www.w3.org/1999/xlink">
<g id="graph0" class="graph" transform="scale(1 1) rotate(0) translate(4 349.245)">
<title>print_attachment_list</title>
<polygon fill="white" stroke="none" points="-4,4 -4,-349.245 598,-349.245 598,4 -4,4"/>
<!-- Node1 -->
<g id="node1" class="node"><title>Node1</title>
<polygon fill="#bfbfbf" stroke="black" points="0.5,-132.446 0.5,-151.446 107.5,-151.446 107.5,-132.446 0.5,-132.446"/>
<text text-anchor="middle" x="54" y="-139.446" font-family="Helvetica,sans-Serif" font-size="10.00">print_attachment_list</text>
</g>
<!-- Node2 -->
<g id="node2" class="node"><title>Node2</title>
<g id="a_node2"><a xlink:href="rfc1524_8c.html#a834f5cab63e131c8056521ae1029c942" target="_top" xlink:title="Find given type in the list of mailcap files. ">
<polygon fill="white" stroke="red" points="310,-302.446 310,-321.446 432,-321.446 432,-302.446 310,-302.446"/>
<text text-anchor="middle" x="371" y="-309.446" font-family="Helvetica,sans-Serif" font-size="10.00">rfc1524_mailcap_lookup</text>
</a>
</g>
</g>
<!-- Node1&#45;&gt;Node2 -->
<g id="edge1" class="edge"><title>Node1&#45;&gt;Node2</title>
<path fill="none" stroke="midnightblue" d="M62.6237,-151.628C76.9297,-169.258 109.483,-206.901 144,-229.946 196.987,-265.323 267.135,-287.665 315.141,-299.94"/>
<polygon fill="midnightblue" stroke="midnightblue" points="314.484,-303.383 325.034,-302.407 316.178,-296.591 314.484,-303.383"/>
</g>
<!-- Node3 -->
<g id="node3" class="node"><title>Node3</title>
<g id="a_node3"><a xlink:href="mutt_2string_8c.html#a011e5b6fad43bc608584d585987cf9c1" target="_top" xlink:title="Compare two strings ignoring case, safely. ">
<polygon fill="white" stroke="black" points="484.5,-246.446 484.5,-265.446 593.5,-265.446 593.5,-246.446 484.5,-246.446"/>
<text text-anchor="middle" x="539" y="-253.446" font-family="Helvetica,sans-Serif" font-size="10.00">mutt_str_strcasecmp</text>
</a>
</g>
</g>
<!-- Node1&#45;&gt;Node3 -->
<g id="edge2" class="edge"><title>Node1&#45;&gt;Node3</title>
<path fill="none" stroke="midnightblue" d="M59.3477,-151.72C70.2717,-175.248 101.096,-235.623 144,-269.946 200.198,-314.904 223.369,-317.134 294,-330.946 361.172,-344.082 383.644,-354.246 448,-330.946 479.51,-319.538 507.741,-291.746 523.861,-273.387"/>
<polygon fill="midnightblue" stroke="midnightblue" points="526.578,-275.595 530.384,-265.707 521.242,-271.063 526.578,-275.595"/>
</g>
<!-- Node4 -->
<g id="node4" class="node"><title>Node4</title>
<g id="a_node4"><a xlink:href="recvattach_8c.html#aa18a07fb44233ba66b108e547049b0b4" target="_top" xlink:title="Pipe the attachment to a command. ">
<polygon fill="white" stroke="red" points="156.5,-18.4459 156.5,-37.4459 245.5,-37.4459 245.5,-18.4459 156.5,-18.4459"/>
<text text-anchor="middle" x="201" y="-25.4459" font-family="Helvetica,sans-Serif" font-size="10.00">pipe_attachment</text>
</a>
</g>
</g>
<!-- Node1&#45;&gt;Node4 -->
<g id="edge3" class="edge"><title>Node1&#45;&gt;Node4</title>
<path fill="none" stroke="midnightblue" d="M62.3679,-132.337C76.502,-114.447 109.129,-75.6971 144,-51.9459 149.697,-48.0653 156.123,-44.6051 162.538,-41.6027"/>
<polygon fill="midnightblue" stroke="midnightblue" points="164.08,-44.7484 171.841,-37.5359 161.276,-38.3345 164.08,-44.7484"/>
</g>
<!-- Node5 -->
<g id="node5" class="node"><title>Node5</title>
<g id="a_node5"><a xlink:href="file_8c.html#acde526723322b2df0564e5eeae5fbc76" target="_top" xlink:title="Copy the contents of one file into another. ">
<polygon fill="white" stroke="black" points="313,-56.4459 313,-75.4459 429,-75.4459 429,-56.4459 313,-56.4459"/>
<text text-anchor="middle" x="371" y="-63.4459" font-family="Helvetica,sans-Serif" font-size="10.00">mutt_file_copy_stream</text>
</a>
</g>
</g>
<!-- Node1&#45;&gt;Node5 -->
<g id="edge11" class="edge"><title>Node1&#45;&gt;Node5</title>
<path fill="none" stroke="midnightblue" d="M82.8597,-132.428C100.305,-126.656 123.321,-119.382 144,-113.946 199,-99.4888 262.398,-86.3226 308.022,-77.4517"/>
<polygon fill="midnightblue" stroke="midnightblue" points="308.902,-80.8464 318.057,-75.514 307.575,-73.9734 308.902,-80.8464"/>
</g>
<!-- Node6 -->
<g id="node6" class="node"><title>Node6</title>
<g id="a_node6"><a xlink:href="file_8c.html#a4982d9040dfaf38e847729be2af83ed6" target="_top" xlink:title="Close a FILE handle (and NULL the pointer) ">
<polygon fill="white" stroke="black" points="496,-94.4459 496,-113.446 582,-113.446 582,-94.4459 496,-94.4459"/>
<text text-anchor="middle" x="539" y="-101.446" font-family="Helvetica,sans-Serif" font-size="10.00">mutt_file_fclose</text>
</a>
</g>
</g>
<!-- Node1&#45;&gt;Node6 -->
<g id="edge12" class="edge"><title>Node1&#45;&gt;Node6</title>
<path fill="none" stroke="midnightblue" d="M57.958,-132.171C66.3897,-106.276 93.2703,-36.0391 144,-8.94594 180.244,10.4106 417.285,-7.81433 448,-20.9459 480.857,-34.9936 509.374,-66.3871 525.08,-86.285"/>
<polygon fill="midnightblue" stroke="midnightblue" points="522.33,-88.4508 531.184,-94.27 527.892,-84.1997 522.33,-88.4508"/>
</g>
<!-- Node7 -->
<g id="node7" class="node"><title>Node7</title>
<g id="a_node7"><a xlink:href="handler_8c.html#ad8ffd2d9dd15e18644b821ec35c7ce52" target="_top" xlink:title="Will decoding the attachment produce any output. ">
<polygon fill="white" stroke="red" points="324,-246.446 324,-265.446 418,-265.446 418,-246.446 324,-246.446"/>
<text text-anchor="middle" x="371" y="-253.446" font-family="Helvetica,sans-Serif" font-size="10.00">mutt_can_decode</text>
</a>
</g>
</g>
<!-- Node1&#45;&gt;Node7 -->
<g id="edge6" class="edge"><title>Node1&#45;&gt;Node7</title>
<path fill="none" stroke="midnightblue" d="M67.2408,-151.625C83.7613,-164.241 114.53,-186.195 144,-198.946 199.531,-222.973 267.295,-238.378 314.056,-247.036"/>
<polygon fill="midnightblue" stroke="midnightblue" points="313.534,-250.499 323.997,-248.834 314.78,-243.61 313.534,-250.499"/>
</g>
<!-- Node8 -->
<g id="node8" class="node"><title>Node8</title>
<g id="a_node8"><a xlink:href="mutt__attach_8c.html#a786920bfa92274d3dfce23347a0442eb" target="_top" xlink:title="Decode, then save an attachment. ">
<polygon fill="white" stroke="red" points="294.5,-132.446 294.5,-151.446 447.5,-151.446 447.5,-132.446 294.5,-132.446"/>
<text text-anchor="middle" x="371" y="-139.446" font-family="Helvetica,sans-Serif" font-size="10.00">mutt_decode_save_attachment</text>
</a>
</g>
</g>
<!-- Node1&#45;&gt;Node8 -->
<g id="edge9" class="edge"><title>Node1&#45;&gt;Node8</title>
<path fill="none" stroke="midnightblue" d="M107.724,-141.946C155.786,-141.946 227.672,-141.946 284.037,-141.946"/>
<polygon fill="midnightblue" stroke="midnightblue" points="284.372,-145.446 294.372,-141.946 284.372,-138.446 284.372,-145.446"/>
</g>
<!-- Node9 -->
<g id="node9" class="node"><title>Node9</title>
<g id="a_node9"><a xlink:href="file_8c.html#ae57463c2854c006a3c67b78736e9056e" target="_top" xlink:title="Delete a file, carefully. ">
<polygon fill="white" stroke="black" points="328.5,-94.4459 328.5,-113.446 413.5,-113.446 413.5,-94.4459 328.5,-94.4459"/>
<text text-anchor="middle" x="371" y="-101.446" font-family="Helvetica,sans-Serif" font-size="10.00">mutt_file_unlink</text>
</a>
</g>
</g>
<!-- Node1&#45;&gt;Node9 -->
<g id="edge13" class="edge"><title>Node1&#45;&gt;Node9</title>
<path fill="none" stroke="midnightblue" d="M107.724,-135.586C166.213,-128.53 259.982,-117.218 318.126,-110.204"/>
<polygon fill="midnightblue" stroke="midnightblue" points="318.69,-113.661 328.198,-108.989 317.851,-106.712 318.69,-113.661"/>
</g>
<!-- Node10 -->
<g id="node10" class="node"><title>Node10</title>
<g id="a_node10"><a xlink:href="mutt__attach_8c.html#a55e06a71a4e4180b7279d5eb5439d9d5" target="_top" xlink:title="Print out an attachment. ">
<polygon fill="white" stroke="red" points="144,-170.446 144,-189.446 258,-189.446 258,-170.446 144,-170.446"/>
<text text-anchor="middle" x="201" y="-177.446" font-family="Helvetica,sans-Serif" font-size="10.00">mutt_print_attachment</text>
</a>
</g>
</g>
<!-- Node1&#45;&gt;Node10 -->
<g id="edge15" class="edge"><title>Node1&#45;&gt;Node10</title>
<path fill="none" stroke="midnightblue" d="M91.5896,-151.535C110.465,-156.482 133.686,-162.567 153.788,-167.835"/>
<polygon fill="midnightblue" stroke="midnightblue" points="153.113,-171.276 163.673,-170.426 154.887,-164.505 153.113,-171.276"/>
</g>
<!-- Node4&#45;&gt;Node5 -->
<g id="edge4" class="edge"><title>Node4&#45;&gt;Node5</title>
<path fill="none" stroke="midnightblue" d="M244.393,-37.5349C266.763,-42.5946 294.398,-48.8455 318.047,-54.1947"/>
<polygon fill="midnightblue" stroke="midnightblue" points="317.386,-57.6334 327.911,-56.4259 318.93,-50.8059 317.386,-57.6334"/>
</g>
<!-- Node4&#45;&gt;Node6 -->
<g id="edge5" class="edge"><title>Node4&#45;&gt;Node6</title>
<path fill="none" stroke="midnightblue" d="M245.91,-25.0588C296.113,-23.1751 380.115,-24.3872 448,-46.9459 474.754,-55.8363 501.556,-74.348 518.863,-87.8715"/>
<polygon fill="midnightblue" stroke="midnightblue" points="517.011,-90.8735 526.998,-94.4113 521.397,-85.4179 517.011,-90.8735"/>
</g>
<!-- Node7&#45;&gt;Node3 -->
<g id="edge7" class="edge"><title>Node7&#45;&gt;Node3</title>
<path fill="none" stroke="midnightblue" d="M418.24,-255.946C435.562,-255.946 455.561,-255.946 474.195,-255.946"/>
<polygon fill="midnightblue" stroke="midnightblue" points="474.38,-259.446 484.38,-255.946 474.38,-252.446 474.38,-259.446"/>
</g>
<!-- Node7&#45;&gt;Node7 -->
<g id="edge8" class="edge"><title>Node7&#45;&gt;Node7</title>
<path fill="none" stroke="midnightblue" d="M345.106,-265.703C332.509,-274.511 341.141,-283.946 371,-283.946 391.062,-283.946 401.541,-279.687 402.437,-274.22"/>
<polygon fill="midnightblue" stroke="midnightblue" points="405.282,-272.175 396.894,-265.703 399.415,-275.993 405.282,-272.175"/>
</g>
<!-- Node8&#45;&gt;Node6 -->
<g id="edge10" class="edge"><title>Node8&#45;&gt;Node6</title>
<path fill="none" stroke="midnightblue" d="M413.889,-132.357C435.893,-127.32 463.055,-121.102 486.352,-115.769"/>
<polygon fill="midnightblue" stroke="midnightblue" points="487.446,-119.109 496.412,-113.466 485.884,-112.286 487.446,-119.109"/>
</g>
<!-- Node9&#45;&gt;Node6 -->
<g id="edge14" class="edge"><title>Node9&#45;&gt;Node6</title>
<path fill="none" stroke="midnightblue" d="M413.889,-103.946C435.726,-103.946 462.642,-103.946 485.82,-103.946"/>
<polygon fill="midnightblue" stroke="midnightblue" points="485.836,-107.446 495.836,-103.946 485.836,-100.446 485.836,-107.446"/>
</g>
<!-- Node10&#45;&gt;Node2 -->
<g id="edge16" class="edge"><title>Node10&#45;&gt;Node2</title>
<path fill="none" stroke="midnightblue" d="M206.973,-189.575C218.846,-211.564 251.087,-265.668 294,-292.946 297.327,-295.061 300.874,-296.94 304.55,-298.61"/>
<polygon fill="midnightblue" stroke="midnightblue" points="303.314,-301.885 313.899,-302.346 305.912,-295.385 303.314,-301.885"/>
</g>
<!-- Node10&#45;&gt;Node3 -->
<g id="edge20" class="edge"><title>Node10&#45;&gt;Node3</title>
<path fill="none" stroke="midnightblue" d="M244.214,-189.494C305.658,-203.392 419.625,-229.171 486.108,-244.209"/>
<polygon fill="midnightblue" stroke="midnightblue" points="485.432,-247.644 495.958,-246.436 486.977,-240.816 485.432,-247.644"/>
</g>
<!-- Node10&#45;&gt;Node5 -->
<g id="edge18" class="edge"><title>Node10&#45;&gt;Node5</title>
<path fill="none" stroke="midnightblue" d="M208.368,-170.442C221.799,-151.173 255.02,-107.431 294,-84.9459 297.882,-82.7066 302.024,-80.7289 306.295,-78.9826"/>
<polygon fill="midnightblue" stroke="midnightblue" points="307.603,-82.2313 315.799,-75.5177 305.205,-75.6548 307.603,-82.2313"/>
</g>
<!-- Node10&#45;&gt;Node6 -->
<g id="edge17" class="edge"><title>Node10&#45;&gt;Node6</title>
<path fill="none" stroke="midnightblue" d="M258.225,-183.208C309.093,-184.399 385.399,-181.749 448,-160.946 474.754,-152.056 501.556,-133.544 518.863,-120.02"/>
<polygon fill="midnightblue" stroke="midnightblue" points="521.397,-122.474 526.998,-113.481 517.011,-117.018 521.397,-122.474"/>
</g>
<!-- Node10&#45;&gt;Node7 -->
<g id="edge21" class="edge"><title>Node10&#45;&gt;Node7</title>
<path fill="none" stroke="midnightblue" d="M216.802,-189.597C234.579,-200.88 265.565,-219.582 294,-231.946 303.712,-236.169 314.41,-240.012 324.637,-243.325"/>
<polygon fill="midnightblue" stroke="midnightblue" points="323.661,-246.687 334.25,-246.334 325.752,-240.007 323.661,-246.687"/>
</g>
<!-- Node10&#45;&gt;Node8 -->
<g id="edge22" class="edge"><title>Node10&#45;&gt;Node8</title>
<path fill="none" stroke="midnightblue" d="M244.393,-170.357C266.763,-165.297 294.398,-159.046 318.047,-153.697"/>
<polygon fill="midnightblue" stroke="midnightblue" points="318.93,-157.086 327.911,-151.466 317.386,-150.258 318.93,-157.086"/>
</g>
<!-- Node10&#45;&gt;Node9 -->
<g id="edge19" class="edge"><title>Node10&#45;&gt;Node9</title>
<path fill="none" stroke="midnightblue" d="M214.706,-170.282C231.842,-157.682 263.712,-135.745 294,-122.946 301.744,-119.673 310.179,-116.874 318.52,-114.509"/>
<polygon fill="midnightblue" stroke="midnightblue" points="319.456,-117.882 328.221,-111.931 317.658,-111.117 319.456,-117.882"/>
</g>
</g>
</svg>
