<?xml version="1.0" encoding="UTF-8" standalone="no"?>
<!DOCTYPE svg PUBLIC "-//W3C//DTD SVG 1.1//EN"
 "http://www.w3.org/Graphics/SVG/1.1/DTD/svg11.dtd">
<!-- Generated by graphviz version 2.36.0 (20140111.2315)
 -->
<!-- Title: find_parent Pages: 1 -->
<svg width="372pt" height="79pt"
 viewBox="0.00 0.00 372.00 79.45" xmlns="http://www.w3.org/2000/svg" xmlns:xlink="http://www.w3.org/1999/xlink">
<g id="graph0" class="graph" transform="scale(1 1) rotate(0) translate(4 75.4541)">
<title>find_parent</title>
<polygon fill="white" stroke="none" points="-4,4 -4,-75.4541 368,-75.4541 368,4 -4,4"/>
<!-- Node1 -->
<g id="node1" class="node"><title>Node1</title>
<polygon fill="#bfbfbf" stroke="black" points="0.5,-38.5 0.5,-57.5 65.5,-57.5 65.5,-38.5 0.5,-38.5"/>
<text text-anchor="middle" x="33" y="-45.5" font-family="Helvetica,sans-Serif" font-size="10.00">find_parent</text>
</g>
<!-- Node2 -->
<g id="node2" class="node"><title>Node2</title>
<g id="a_node2"><a xlink:href="parse_8c.html#adcc90fb584fec1be116777c533e9b3d4" target="_top" xlink:title="Determine if a mime type matches a message or not. ">
<polygon fill="white" stroke="red" points="246,-38.5 246,-57.5 364,-57.5 364,-38.5 246,-38.5"/>
<text text-anchor="middle" x="305" y="-45.5" font-family="Helvetica,sans-Serif" font-size="10.00">mutt_is_message_type</text>
</a>
</g>
</g>
<!-- Node1&#45;&gt;Node2 -->
<g id="edge1" class="edge"><title>Node1&#45;&gt;Node2</title>
<path fill="none" stroke="midnightblue" d="M61.431,-57.5022C73.6827,-61.2657 88.3985,-65.1355 102,-67 149.555,-73.5189 162.238,-71.7786 210,-67 225.076,-65.4916 241.311,-62.6548 255.977,-59.6246"/>
<polygon fill="midnightblue" stroke="midnightblue" points="256.801,-63.0275 265.846,-57.5098 255.335,-56.1829 256.801,-63.0275"/>
</g>
<!-- Node3 -->
<g id="node3" class="node"><title>Node3</title>
<g id="a_node3"><a xlink:href="recvcmd_8c.html#acb021cf1aaf2ec1daa6eb09f7b9e8942" target="_top" xlink:title="Check whether one attachment is the parent of another. ">
<polygon fill="white" stroke="black" points="128,-38.5 128,-57.5 184,-57.5 184,-38.5 128,-38.5"/>
<text text-anchor="middle" x="156" y="-45.5" font-family="Helvetica,sans-Serif" font-size="10.00">is_parent</text>
</a>
</g>
</g>
<!-- Node1&#45;&gt;Node3 -->
<g id="edge2" class="edge"><title>Node1&#45;&gt;Node3</title>
<path fill="none" stroke="midnightblue" d="M65.7913,-48C81.6443,-48 100.921,-48 117.493,-48"/>
<polygon fill="midnightblue" stroke="midnightblue" points="117.93,-51.5001 127.93,-48 117.93,-44.5001 117.93,-51.5001"/>
</g>
<!-- Node4 -->
<g id="node4" class="node"><title>Node4</title>
<g id="a_node4"><a xlink:href="recvcmd_8c.html#a901d3c7f945de489c16050a731dee83c" target="_top" xlink:title="forward&#45;message, from the attachment menu ">
<polygon fill="white" stroke="red" points="102.5,-0.5 102.5,-19.5 209.5,-19.5 209.5,-0.5 102.5,-0.5"/>
<text text-anchor="middle" x="156" y="-7.5" font-family="Helvetica,sans-Serif" font-size="10.00">find_common_parent</text>
</a>
</g>
</g>
<!-- Node1&#45;&gt;Node4 -->
<g id="edge3" class="edge"><title>Node1&#45;&gt;Node4</title>
<path fill="none" stroke="midnightblue" d="M64.5334,-38.411C79.7234,-33.6406 98.2853,-27.8112 114.633,-22.6771"/>
<polygon fill="midnightblue" stroke="midnightblue" points="115.984,-25.9214 124.476,-19.5859 113.887,-19.243 115.984,-25.9214"/>
</g>
<!-- Node4&#45;&gt;Node2 -->
<g id="edge4" class="edge"><title>Node4&#45;&gt;Node2</title>
<path fill="none" stroke="midnightblue" d="M194.094,-19.589C213.318,-24.5583 236.986,-30.6767 257.429,-35.9613"/>
<polygon fill="midnightblue" stroke="midnightblue" points="256.615,-39.3657 267.172,-38.4799 258.367,-32.5885 256.615,-39.3657"/>
</g>
</g>
</svg>
