<?xml version="1.0" encoding="UTF-8" standalone="no"?>
<!DOCTYPE svg PUBLIC "-//W3C//DTD SVG 1.1//EN"
 "http://www.w3.org/Graphics/SVG/1.1/DTD/svg11.dtd">
<!-- Generated by graphviz version 2.36.0 (20140111.2315)
 -->
<!-- Title: mutt_attach_resend Pages: 1 -->
<svg width="372pt" height="47pt"
 viewBox="0.00 0.00 372.00 47.00" xmlns="http://www.w3.org/2000/svg" xmlns:xlink="http://www.w3.org/1999/xlink">
<g id="graph0" class="graph" transform="scale(1 1) rotate(0) translate(4 43)">
<title>mutt_attach_resend</title>
<polygon fill="white" stroke="none" points="-4,4 -4,-43 368,-43 368,4 -4,4"/>
<!-- Node1 -->
<g id="node1" class="node"><title>Node1</title>
<polygon fill="#bfbfbf" stroke="black" points="0.5,-19.5 0.5,-38.5 103.5,-38.5 103.5,-19.5 0.5,-19.5"/>
<text text-anchor="middle" x="52" y="-26.5" font-family="Helvetica,sans-Serif" font-size="10.00">mutt_attach_resend</text>
</g>
<!-- Node2 -->
<g id="node2" class="node"><title>Node2</title>
<g id="a_node2"><a xlink:href="pager_8h.html#a1f4fb11389135c8767d9c4adca46f0d4" target="_top" xlink:title="Display a file, or help, in a window. ">
<polygon fill="white" stroke="red" points="298.5,-19.5 298.5,-38.5 363.5,-38.5 363.5,-19.5 298.5,-19.5"/>
<text text-anchor="middle" x="331" y="-26.5" font-family="Helvetica,sans-Serif" font-size="10.00">mutt_pager</text>
</a>
</g>
</g>
<!-- Node1&#45;&gt;Node2 -->
<g id="edge1" class="edge"><title>Node1&#45;&gt;Node2</title>
<path fill="none" stroke="midnightblue" d="M114.129,-29C171.098,-29 253.781,-29 298.477,-29"/>
<polygon fill="midnightblue" stroke="midnightblue" points="113.806,-25.5001 103.806,-29 113.806,-32.5001 113.806,-25.5001"/>
</g>
<!-- Node3 -->
<g id="node3" class="node"><title>Node3</title>
<g id="a_node3"><a xlink:href="recvattach_8h.html#a513215b1fd88e123dc01f6fa2b264594" target="_top" xlink:title="Show the attachments in a Menu. ">
<polygon fill="white" stroke="red" points="140.5,-0.5 140.5,-19.5 261.5,-19.5 261.5,-0.5 140.5,-0.5"/>
<text text-anchor="middle" x="201" y="-7.5" font-family="Helvetica,sans-Serif" font-size="10.00">mutt_view_attachments</text>
</a>
</g>
</g>
<!-- Node1&#45;&gt;Node3 -->
<g id="edge2" class="edge"><title>Node1&#45;&gt;Node3</title>
<path fill="none" stroke="midnightblue" d="M113.788,-21.143C122.602,-20.0038 131.667,-18.8321 140.456,-17.6961"/>
<polygon fill="midnightblue" stroke="midnightblue" points="113.058,-17.7082 103.589,-22.4613 113.955,-24.6505 113.058,-17.7082"/>
</g>
<!-- Node3&#45;&gt;Node2 -->
<g id="edge3" class="edge"><title>Node3&#45;&gt;Node2</title>
<path fill="none" stroke="midnightblue" d="M271.609,-20.3325C280.898,-21.7115 290.029,-23.0669 298.211,-24.2812"/>
<polygon fill="midnightblue" stroke="midnightblue" points="271.909,-16.8388 261.503,-18.8325 270.881,-23.763 271.909,-16.8388"/>
</g>
</g>
</svg>
