<?xml version="1.0" encoding="UTF-8" standalone="no"?>
<!DOCTYPE svg PUBLIC "-//W3C//DTD SVG 1.1//EN"
 "http://www.w3.org/Graphics/SVG/1.1/DTD/svg11.dtd">
<!-- Generated by graphviz version 2.36.0 (20140111.2315)
 -->
<!-- Title: pipe_attachment Pages: 1 -->
<svg width="242pt" height="66pt"
 viewBox="0.00 0.00 242.00 66.00" xmlns="http://www.w3.org/2000/svg" xmlns:xlink="http://www.w3.org/1999/xlink">
<g id="graph0" class="graph" transform="scale(1 1) rotate(0) translate(4 62)">
<title>pipe_attachment</title>
<polygon fill="white" stroke="none" points="-4,4 -4,-62 238,-62 238,4 -4,4"/>
<!-- Node1 -->
<g id="node1" class="node"><title>Node1</title>
<polygon fill="#bfbfbf" stroke="black" points="0.5,-19.5 0.5,-38.5 89.5,-38.5 89.5,-19.5 0.5,-19.5"/>
<text text-anchor="middle" x="45" y="-26.5" font-family="Helvetica,sans-Serif" font-size="10.00">pipe_attachment</text>
</g>
<!-- Node2 -->
<g id="node2" class="node"><title>Node2</title>
<g id="a_node2"><a xlink:href="recvattach_8c.html#a98d36f893b4f2d703f4d42b564623eab" target="_top" xlink:title="Pipe a list of attachments to a command. ">
<polygon fill="white" stroke="red" points="126.5,-38.5 126.5,-57.5 233.5,-57.5 233.5,-38.5 126.5,-38.5"/>
<text text-anchor="middle" x="180" y="-45.5" font-family="Helvetica,sans-Serif" font-size="10.00">pipe_attachment_list</text>
</a>
</g>
</g>
<!-- Node1&#45;&gt;Node2 -->
<g id="edge1" class="edge"><title>Node1&#45;&gt;Node2</title>
<path fill="none" stroke="midnightblue" d="M99.6101,-36.6586C108.333,-37.9047 117.364,-39.1949 126.071,-40.4387"/>
<polygon fill="midnightblue" stroke="midnightblue" points="99.9437,-33.1708 89.5492,-35.2213 98.9537,-40.1004 99.9437,-33.1708"/>
</g>
<!-- Node3 -->
<g id="node3" class="node"><title>Node3</title>
<g id="a_node3"><a xlink:href="recvattach_8c.html#a54f776fcfc922681ca8c99d4aa497198" target="_top" xlink:title="Print a list of Attachments. ">
<polygon fill="white" stroke="red" points="126.5,-0.5 126.5,-19.5 233.5,-19.5 233.5,-0.5 126.5,-0.5"/>
<text text-anchor="middle" x="180" y="-7.5" font-family="Helvetica,sans-Serif" font-size="10.00">print_attachment_list</text>
</a>
</g>
</g>
<!-- Node1&#45;&gt;Node3 -->
<g id="edge2" class="edge"><title>Node1&#45;&gt;Node3</title>
<path fill="none" stroke="midnightblue" d="M99.6101,-21.3414C108.333,-20.0953 117.364,-18.8051 126.071,-17.5613"/>
<polygon fill="midnightblue" stroke="midnightblue" points="98.9537,-17.8996 89.5492,-22.7787 99.9437,-24.8292 98.9537,-17.8996"/>
</g>
</g>
</svg>
