<?xml version="1.0" encoding="UTF-8" standalone="no"?>
<!DOCTYPE svg PUBLIC "-//W3C//DTD SVG 1.1//EN"
 "http://www.w3.org/Graphics/SVG/1.1/DTD/svg11.dtd">
<!-- Generated by graphviz version 2.36.0 (20140111.2315)
 -->
<!-- Title: mutt_update_tree Pages: 1 -->
<svg width="348pt" height="123pt"
 viewBox="0.00 0.00 348.00 123.00" xmlns="http://www.w3.org/2000/svg" xmlns:xlink="http://www.w3.org/1999/xlink">
<g id="graph0" class="graph" transform="scale(1 1) rotate(0) translate(4 119)">
<title>mutt_update_tree</title>
<polygon fill="white" stroke="none" points="-4,4 -4,-119 344,-119 344,4 -4,4"/>
<!-- Node1 -->
<g id="node1" class="node"><title>Node1</title>
<polygon fill="#bfbfbf" stroke="black" points="0,-38.5 0,-57.5 92,-57.5 92,-38.5 0,-38.5"/>
<text text-anchor="middle" x="46" y="-45.5" font-family="Helvetica,sans-Serif" font-size="10.00">mutt_update_tree</text>
</g>
<!-- Node2 -->
<g id="node2" class="node"><title>Node2</title>
<g id="a_node2"><a xlink:href="recvattach_8c.html#ada90cfca09573e1031de106fd88cad72" target="_top" xlink:title="Update the virtual list of attachments. ">
<polygon fill="white" stroke="black" points="128.5,-95.5 128.5,-114.5 217.5,-114.5 217.5,-95.5 128.5,-95.5"/>
<text text-anchor="middle" x="173" y="-102.5" font-family="Helvetica,sans-Serif" font-size="10.00">mutt_update_v2r</text>
</a>
</g>
</g>
<!-- Node1&#45;&gt;Node2 -->
<g id="edge1" class="edge"><title>Node1&#45;&gt;Node2</title>
<path fill="none" stroke="midnightblue" d="M66.893,-57.5428C83.2413,-65.3344 107.039,-76.5601 128,-86 131.926,-87.7681 136.063,-89.5978 140.165,-91.392"/>
<polygon fill="midnightblue" stroke="midnightblue" points="138.99,-94.6975 149.557,-95.468 141.777,-88.2762 138.99,-94.6975"/>
</g>
<!-- Node3 -->
<g id="node3" class="node"><title>Node3</title>
<g id="a_node3"><a xlink:href="mutt_2string_8c.html#ab4aaf8bd2ce3982651f0f949d6c665e2" target="_top" xlink:title="Compare two strings, safely. ">
<polygon fill="white" stroke="black" points="129,-57.5 129,-76.5 217,-76.5 217,-57.5 129,-57.5"/>
<text text-anchor="middle" x="173" y="-64.5" font-family="Helvetica,sans-Serif" font-size="10.00">mutt_str_strcmp</text>
</a>
</g>
</g>
<!-- Node1&#45;&gt;Node3 -->
<g id="edge2" class="edge"><title>Node1&#45;&gt;Node3</title>
<path fill="none" stroke="midnightblue" d="M92.1279,-54.8594C100.673,-56.1582 109.688,-57.5286 118.462,-58.8623"/>
<polygon fill="midnightblue" stroke="midnightblue" points="118.198,-62.3621 128.61,-60.4047 119.25,-55.4416 118.198,-62.3621"/>
</g>
<!-- Node4 -->
<g id="node4" class="node"><title>Node4</title>
<g id="a_node4"><a xlink:href="mutt_2string_8c.html#ad5b66f8059a202f7bfa5fc4fa3047c67" target="_top" xlink:title="Replace one string with another. ">
<polygon fill="white" stroke="black" points="128.5,-19.5 128.5,-38.5 217.5,-38.5 217.5,-19.5 128.5,-19.5"/>
<text text-anchor="middle" x="173" y="-26.5" font-family="Helvetica,sans-Serif" font-size="10.00">mutt_str_replace</text>
</a>
</g>
</g>
<!-- Node1&#45;&gt;Node4 -->
<g id="edge3" class="edge"><title>Node1&#45;&gt;Node4</title>
<path fill="none" stroke="midnightblue" d="M92.1279,-41.1406C100.572,-39.857 109.476,-38.5037 118.153,-37.1848"/>
<polygon fill="midnightblue" stroke="midnightblue" points="118.833,-40.6217 128.193,-35.6586 117.781,-33.7012 118.833,-40.6217"/>
</g>
<!-- Node5 -->
<g id="node5" class="node"><title>Node5</title>
<g id="a_node5"><a xlink:href="mutt_2string_8c.html#ae48085384a6545e0fac589a88243ea31" target="_top" xlink:title="Copy a string, safely. ">
<polygon fill="white" stroke="red" points="254.5,-0.5 254.5,-19.5 339.5,-19.5 339.5,-0.5 254.5,-0.5"/>
<text text-anchor="middle" x="297" y="-7.5" font-family="Helvetica,sans-Serif" font-size="10.00">mutt_str_strdup</text>
</a>
</g>
</g>
<!-- Node1&#45;&gt;Node5 -->
<g id="edge5" class="edge"><title>Node1&#45;&gt;Node5</title>
<path fill="none" stroke="midnightblue" d="M62.1007,-38.4328C77.8464,-29.0682 103.591,-15.4411 128,-10 166.312,-1.45987 210.771,-1.89876 244.326,-4.23632"/>
<polygon fill="midnightblue" stroke="midnightblue" points="244.13,-7.73155 254.371,-5.01489 244.671,-0.752484 244.13,-7.73155"/>
</g>
<!-- Node4&#45;&gt;Node5 -->
<g id="edge4" class="edge"><title>Node4&#45;&gt;Node5</title>
<path fill="none" stroke="midnightblue" d="M217.7,-22.1942C226.251,-20.8625 235.296,-19.4539 244.084,-18.0853"/>
<polygon fill="midnightblue" stroke="midnightblue" points="244.895,-21.5013 254.237,-16.504 243.818,-14.5846 244.895,-21.5013"/>
</g>
</g>
</svg>
