<?xml version="1.0" encoding="UTF-8" standalone="no"?>
<!DOCTYPE svg PUBLIC "-//W3C//DTD SVG 1.1//EN"
 "http://www.w3.org/Graphics/SVG/1.1/DTD/svg11.dtd">
<!-- Generated by graphviz version 2.36.0 (20140111.2315)
 -->
<!-- Title: attach_entry Pages: 1 -->
<svg width="358pt" height="74pt"
 viewBox="0.00 0.00 358.00 74.00" xmlns="http://www.w3.org/2000/svg" xmlns:xlink="http://www.w3.org/1999/xlink">
<g id="graph0" class="graph" transform="scale(1 1) rotate(0) translate(4 70)">
<title>attach_entry</title>
<polygon fill="white" stroke="none" points="-4,4 -4,-70 354,-70 354,4 -4,4"/>
<!-- Node1 -->
<g id="node1" class="node"><title>Node1</title>
<polygon fill="#bfbfbf" stroke="black" points="0.5,-28.5 0.5,-47.5 71.5,-47.5 71.5,-28.5 0.5,-28.5"/>
<text text-anchor="middle" x="36" y="-35.5" font-family="Helvetica,sans-Serif" font-size="10.00">attach_entry</text>
</g>
<!-- Node2 -->
<g id="node2" class="node"><title>Node2</title>
<g id="a_node2"><a xlink:href="muttlib_8c.html#a5efffe8bf1716c24b902f42e1d2166a0" target="_top" xlink:title="Expand expandos (x) in a string. ">
<polygon fill="white" stroke="red" points="238.5,-28.5 238.5,-47.5 349.5,-47.5 349.5,-28.5 238.5,-28.5"/>
<text text-anchor="middle" x="294" y="-35.5" font-family="Helvetica,sans-Serif" font-size="10.00">mutt_expando_format</text>
</a>
</g>
</g>
<!-- Node1&#45;&gt;Node2 -->
<g id="edge1" class="edge"><title>Node1&#45;&gt;Node2</title>
<path fill="none" stroke="midnightblue" d="M71.5848,-43.2717C83.1352,-44.795 96.0957,-46.2485 108,-47 149.695,-49.6321 160.273,-49.0584 202,-47 210.434,-46.584 219.291,-45.9523 228.032,-45.2126"/>
<polygon fill="midnightblue" stroke="midnightblue" points="228.559,-48.6795 238.207,-44.301 227.935,-41.7074 228.559,-48.6795"/>
</g>
<!-- Node3 -->
<g id="node3" class="node"><title>Node3</title>
<g id="a_node3"><a xlink:href="recvattach_8c.html#a98b2ae112e8353253ba30462bfef777b" target="_top" xlink:title="Format a string for the attachment menu &#45; Implements format_t. ">
<polygon fill="white" stroke="red" points="108.5,-0.5 108.5,-19.5 201.5,-19.5 201.5,-0.5 108.5,-0.5"/>
<text text-anchor="middle" x="155" y="-7.5" font-family="Helvetica,sans-Serif" font-size="10.00">attach_format_str</text>
</a>
</g>
</g>
<!-- Node1&#45;&gt;Node3 -->
<g id="edge3" class="edge"><title>Node1&#45;&gt;Node3</title>
<path fill="none" stroke="midnightblue" d="M71.7871,-29.6749C81.9985,-27.2311 93.3702,-24.5097 104.32,-21.8892"/>
<polygon fill="midnightblue" stroke="midnightblue" points="105.301,-25.2534 114.212,-19.522 103.672,-18.4456 105.301,-25.2534"/>
</g>
<!-- Node2&#45;&gt;Node2 -->
<g id="edge2" class="edge"><title>Node2&#45;&gt;Node2</title>
<path fill="none" stroke="midnightblue" d="M272.73,-47.7571C262.383,-56.5653 269.473,-66 294,-66 309.713,-66 318.269,-62.128 319.67,-57.0292"/>
<polygon fill="midnightblue" stroke="midnightblue" points="322.719,-55.2911 315.27,-47.7571 316.395,-58.292 322.719,-55.2911"/>
</g>
<!-- Node3&#45;&gt;Node2 -->
<g id="edge4" class="edge"><title>Node3&#45;&gt;Node2</title>
<path fill="none" stroke="midnightblue" d="M201.619,-19.3236C212.696,-21.5876 224.676,-24.0359 236.2,-26.3912"/>
<polygon fill="midnightblue" stroke="midnightblue" points="235.677,-29.8567 246.176,-28.4301 237.079,-22.9985 235.677,-29.8567"/>
</g>
<!-- Node3&#45;&gt;Node3 -->
<g id="edge5" class="edge"><title>Node3&#45;&gt;Node3</title>
<path fill="none" stroke="midnightblue" d="M136.813,-19.7571C127.965,-28.5653 134.027,-38 155,-38 168.436,-38 175.752,-34.128 176.949,-29.0292"/>
<polygon fill="midnightblue" stroke="midnightblue" points="180.19,-27.7074 173.187,-19.7571 173.704,-30.3393 180.19,-27.7074"/>
</g>
</g>
</svg>
