<?xml version="1.0" encoding="UTF-8" standalone="no"?>
<!DOCTYPE svg PUBLIC "-//W3C//DTD SVG 1.1//EN"
 "http://www.w3.org/Graphics/SVG/1.1/DTD/svg11.dtd">
<!-- Generated by graphviz version 2.36.0 (20140111.2315)
 -->
<!-- Title: mutt_update_tree Pages: 1 -->
<svg width="288pt" height="66pt"
 viewBox="0.00 0.00 288.00 66.00" xmlns="http://www.w3.org/2000/svg" xmlns:xlink="http://www.w3.org/1999/xlink">
<g id="graph0" class="graph" transform="scale(1 1) rotate(0) translate(4 62)">
<title>mutt_update_tree</title>
<polygon fill="white" stroke="none" points="-4,4 -4,-62 284,-62 284,4 -4,4"/>
<!-- Node1 -->
<g id="node1" class="node"><title>Node1</title>
<polygon fill="#bfbfbf" stroke="black" points="0,-19.5 0,-38.5 92,-38.5 92,-19.5 0,-19.5"/>
<text text-anchor="middle" x="46" y="-26.5" font-family="Helvetica,sans-Serif" font-size="10.00">mutt_update_tree</text>
</g>
<!-- Node2 -->
<g id="node2" class="node"><title>Node2</title>
<g id="a_node2"><a xlink:href="compose_8c.html#aec953e61fa82157673592462a732b8c0" target="_top" xlink:title="Redraw the compose window. ">
<polygon fill="white" stroke="red" points="131.5,-38.5 131.5,-57.5 276.5,-57.5 276.5,-38.5 131.5,-38.5"/>
<text text-anchor="middle" x="204" y="-45.5" font-family="Helvetica,sans-Serif" font-size="10.00">mutt_update_compose_menu</text>
</a>
</g>
</g>
<!-- Node1&#45;&gt;Node2 -->
<g id="edge1" class="edge"><title>Node1&#45;&gt;Node2</title>
<path fill="none" stroke="midnightblue" d="M102.124,-35.7139C111.546,-36.8614 121.457,-38.0684 131.235,-39.2594"/>
<polygon fill="midnightblue" stroke="midnightblue" points="102.471,-32.2304 92.1217,-34.4956 101.625,-39.179 102.471,-32.2304"/>
</g>
<!-- Node3 -->
<g id="node3" class="node"><title>Node3</title>
<g id="a_node3"><a xlink:href="recvattach_8c.html#a41e1f27d31074d4a407fd7cade575794" target="_top" xlink:title="Update the Attachment Menu. ">
<polygon fill="white" stroke="red" points="128.5,-0.5 128.5,-19.5 279.5,-19.5 279.5,-0.5 128.5,-0.5"/>
<text text-anchor="middle" x="204" y="-7.5" font-family="Helvetica,sans-Serif" font-size="10.00">mutt_update_recvattach_menu</text>
</a>
</g>
</g>
<!-- Node1&#45;&gt;Node3 -->
<g id="edge2" class="edge"><title>Node1&#45;&gt;Node3</title>
<path fill="none" stroke="midnightblue" d="M102.208,-22.2759C110.661,-21.2464 119.506,-20.1691 128.295,-19.0987"/>
<polygon fill="midnightblue" stroke="midnightblue" points="101.625,-18.821 92.1217,-23.5044 102.471,-25.7696 101.625,-18.821"/>
</g>
</g>
</svg>
