<?xml version="1.0" encoding="UTF-8" standalone="no"?>
<!DOCTYPE svg PUBLIC "-//W3C//DTD SVG 1.1//EN"
 "http://www.w3.org/Graphics/SVG/1.1/DTD/svg11.dtd">
<!-- Generated by graphviz version 2.36.0 (20140111.2315)
 -->
<!-- Title: include_header Pages: 1 -->
<svg width="242pt" height="66pt"
 viewBox="0.00 0.00 242.00 66.00" xmlns="http://www.w3.org/2000/svg" xmlns:xlink="http://www.w3.org/1999/xlink">
<g id="graph0" class="graph" transform="scale(1 1) rotate(0) translate(4 62)">
<title>include_header</title>
<polygon fill="white" stroke="none" points="-4,4 -4,-62 238,-62 238,4 -4,4"/>
<!-- Node1 -->
<g id="node1" class="node"><title>Node1</title>
<polygon fill="#bfbfbf" stroke="black" points="0,-19.5 0,-38.5 82,-38.5 82,-19.5 0,-19.5"/>
<text text-anchor="middle" x="41" y="-26.5" font-family="Helvetica,sans-Serif" font-size="10.00">include_header</text>
</g>
<!-- Node2 -->
<g id="node2" class="node"><title>Node2</title>
<g id="a_node2"><a xlink:href="recvcmd_8c.html#ad985f78448cd381d34cb45b710eddc90" target="_top" xlink:title="forward one or several MIME bodies ">
<polygon fill="white" stroke="red" points="118.5,-38.5 118.5,-57.5 233.5,-57.5 233.5,-38.5 118.5,-38.5"/>
<text text-anchor="middle" x="176" y="-45.5" font-family="Helvetica,sans-Serif" font-size="10.00">attach_forward_bodies</text>
</a>
</g>
</g>
<!-- Node1&#45;&gt;Node2 -->
<g id="edge1" class="edge"><title>Node1&#45;&gt;Node2</title>
<path fill="none" stroke="midnightblue" d="M92.3408,-36.1915C100.784,-37.3977 109.597,-38.6567 118.189,-39.8842"/>
<polygon fill="midnightblue" stroke="midnightblue" points="92.6598,-32.7017 82.2653,-34.7522 91.6698,-39.6313 92.6598,-32.7017"/>
</g>
<!-- Node3 -->
<g id="node3" class="node"><title>Node3</title>
<g id="a_node3"><a xlink:href="recvcmd_8h.html#a40682fa92a787a3a065716d851677599" target="_top" xlink:title="Attach a reply. ">
<polygon fill="white" stroke="red" points="128.5,-0.5 128.5,-19.5 223.5,-19.5 223.5,-0.5 128.5,-0.5"/>
<text text-anchor="middle" x="176" y="-7.5" font-family="Helvetica,sans-Serif" font-size="10.00">mutt_attach_reply</text>
</a>
</g>
</g>
<!-- Node1&#45;&gt;Node3 -->
<g id="edge2" class="edge"><title>Node1&#45;&gt;Node3</title>
<path fill="none" stroke="midnightblue" d="M92.4047,-21.7993C104.199,-20.1144 116.712,-18.3268 128.336,-16.6663"/>
<polygon fill="midnightblue" stroke="midnightblue" points="91.6698,-18.3687 82.2653,-23.2478 92.6598,-25.2983 91.6698,-18.3687"/>
</g>
</g>
</svg>
