<?xml version="1.0" encoding="UTF-8" standalone="no"?>
<!DOCTYPE svg PUBLIC "-//W3C//DTD SVG 1.1//EN"
 "http://www.w3.org/Graphics/SVG/1.1/DTD/svg11.dtd">
<!-- Generated by graphviz version 2.36.0 (20140111.2315)
 -->
<!-- Title: attach_reply_envelope_defaults Pages: 1 -->
<svg width="254pt" height="38pt"
 viewBox="0.00 0.00 254.00 38.00" xmlns="http://www.w3.org/2000/svg" xmlns:xlink="http://www.w3.org/1999/xlink">
<g id="graph0" class="graph" transform="scale(1 1) rotate(0) translate(4 34)">
<title>attach_reply_envelope_defaults</title>
<polygon fill="white" stroke="none" points="-4,4 -4,-34 250,-34 250,4 -4,4"/>
<!-- Node1 -->
<g id="node1" class="node"><title>Node1</title>
<polygon fill="#bfbfbf" stroke="black" points="0,-0 0,-30 114,-30 114,-0 0,-0"/>
<text text-anchor="start" x="8" y="-18" font-family="Helvetica,sans-Serif" font-size="10.00">attach_reply_envelope</text>
<text text-anchor="middle" x="57" y="-7" font-family="Helvetica,sans-Serif" font-size="10.00">_defaults</text>
</g>
<!-- Node2 -->
<g id="node2" class="node"><title>Node2</title>
<g id="a_node2"><a xlink:href="recvcmd_8h.html#a40682fa92a787a3a065716d851677599" target="_top" xlink:title="Attach a reply. ">
<polygon fill="white" stroke="red" points="150.5,-5.5 150.5,-24.5 245.5,-24.5 245.5,-5.5 150.5,-5.5"/>
<text text-anchor="middle" x="198" y="-12.5" font-family="Helvetica,sans-Serif" font-size="10.00">mutt_attach_reply</text>
</a>
</g>
</g>
<!-- Node1&#45;&gt;Node2 -->
<g id="edge1" class="edge"><title>Node1&#45;&gt;Node2</title>
<path fill="none" stroke="midnightblue" d="M124.406,-15C133.21,-15 142.08,-15 150.449,-15"/>
<polygon fill="midnightblue" stroke="midnightblue" points="124.136,-11.5001 114.136,-15 124.136,-18.5001 124.136,-11.5001"/>
</g>
</g>
</svg>
