<?xml version="1.0" encoding="UTF-8" standalone="no"?>
<!DOCTYPE svg PUBLIC "-//W3C//DTD SVG 1.1//EN"
 "http://www.w3.org/Graphics/SVG/1.1/DTD/svg11.dtd">
<!-- Generated by graphviz version 2.36.0 (20140111.2315)
 -->
<!-- Title: attach_reply_envelope_defaults Pages: 1 -->
<svg width="406pt" height="240pt"
 viewBox="0.00 0.00 406.00 240.00" xmlns="http://www.w3.org/2000/svg" xmlns:xlink="http://www.w3.org/1999/xlink">
<g id="graph0" class="graph" transform="scale(1 1) rotate(0) translate(4 236)">
<title>attach_reply_envelope_defaults</title>
<polygon fill="white" stroke="none" points="-4,4 -4,-236 402,-236 402,4 -4,4"/>
<!-- Node1 -->
<g id="node1" class="node"><title>Node1</title>
<polygon fill="#bfbfbf" stroke="black" points="0,-112 0,-142 114,-142 114,-112 0,-112"/>
<text text-anchor="start" x="8" y="-130" font-family="Helvetica,sans-Serif" font-size="10.00">attach_reply_envelope</text>
<text text-anchor="middle" x="57" y="-119" font-family="Helvetica,sans-Serif" font-size="10.00">_defaults</text>
</g>
<!-- Node2 -->
<g id="node2" class="node"><title>Node2</title>
<g id="a_node2"><a xlink:href="mutt_2string_8c.html#a011e5b6fad43bc608584d585987cf9c1" target="_top" xlink:title="Compare two strings ignoring case, safely. ">
<polygon fill="white" stroke="black" points="158.5,-212.5 158.5,-231.5 267.5,-231.5 267.5,-212.5 158.5,-212.5"/>
<text text-anchor="middle" x="213" y="-219.5" font-family="Helvetica,sans-Serif" font-size="10.00">mutt_str_strcasecmp</text>
</a>
</g>
</g>
<!-- Node1&#45;&gt;Node2 -->
<g id="edge1" class="edge"><title>Node1&#45;&gt;Node2</title>
<path fill="none" stroke="midnightblue" d="M74.5865,-142.196C92.2491,-157.781 121.528,-181.95 150,-198 157.07,-201.985 164.933,-205.592 172.621,-208.727"/>
<polygon fill="midnightblue" stroke="midnightblue" points="171.603,-212.086 182.191,-212.439 174.134,-205.56 171.603,-212.086"/>
</g>
<!-- Node3 -->
<g id="node3" class="node"><title>Node3</title>
<g id="a_node3"><a xlink:href="mutt_2string_8c.html#ae48085384a6545e0fac589a88243ea31" target="_top" xlink:title="Copy a string, safely. ">
<polygon fill="white" stroke="red" points="312.5,-54.5 312.5,-73.5 397.5,-73.5 397.5,-54.5 312.5,-54.5"/>
<text text-anchor="middle" x="355" y="-61.5" font-family="Helvetica,sans-Serif" font-size="10.00">mutt_str_strdup</text>
</a>
</g>
</g>
<!-- Node1&#45;&gt;Node3 -->
<g id="edge2" class="edge"><title>Node1&#45;&gt;Node3</title>
<path fill="none" stroke="midnightblue" d="M85.6764,-142.069C128.613,-163.26 212.897,-195.997 276,-165 310.799,-147.906 334.471,-106.985 345.967,-82.8016"/>
<polygon fill="midnightblue" stroke="midnightblue" points="349.206,-84.1332 350.145,-73.5801 342.83,-81.2442 349.206,-84.1332"/>
</g>
<!-- Node4 -->
<g id="node4" class="node"><title>Node4</title>
<g id="a_node4"><a xlink:href="send_8c.html#a4d715fd0327fde01ebbab857a3a31fbf" target="_top" xlink:title="Generate recpients for a reply email. ">
<polygon fill="white" stroke="red" points="165.5,-136.5 165.5,-155.5 260.5,-155.5 260.5,-136.5 165.5,-136.5"/>
<text text-anchor="middle" x="213" y="-143.5" font-family="Helvetica,sans-Serif" font-size="10.00">mutt_fetch_recips</text>
</a>
</g>
</g>
<!-- Node1&#45;&gt;Node4 -->
<g id="edge3" class="edge"><title>Node1&#45;&gt;Node4</title>
<path fill="none" stroke="midnightblue" d="M114.033,-133.913C127.465,-135.57 141.819,-137.341 155.282,-139.002"/>
<polygon fill="midnightblue" stroke="midnightblue" points="155.02,-142.497 165.374,-140.247 155.878,-135.549 155.02,-142.497"/>
</g>
<!-- Node5 -->
<g id="node5" class="node"><title>Node5</title>
<g id="a_node5"><a xlink:href="send_8c.html#a9804f2dbaf0406ea6803ba5a304aeab6" target="_top" xlink:title="Remove duplicate recipients. ">
<polygon fill="white" stroke="red" points="150.5,-98.5 150.5,-117.5 275.5,-117.5 275.5,-98.5 150.5,-98.5"/>
<text text-anchor="middle" x="213" y="-105.5" font-family="Helvetica,sans-Serif" font-size="10.00">mutt_fix_reply_recipients</text>
</a>
</g>
</g>
<!-- Node1&#45;&gt;Node5 -->
<g id="edge4" class="edge"><title>Node1&#45;&gt;Node5</title>
<path fill="none" stroke="midnightblue" d="M114.033,-120.087C122.502,-119.042 131.336,-117.952 140.083,-116.873"/>
<polygon fill="midnightblue" stroke="midnightblue" points="140.787,-120.313 150.283,-115.614 139.93,-113.365 140.787,-120.313"/>
</g>
<!-- Node6 -->
<g id="node6" class="node"><title>Node6</title>
<g id="a_node6"><a xlink:href="send_8c.html#a666a7c4e10ccd2d38264a05ebc6409ee" target="_top" xlink:title="Set subject for a reply. ">
<polygon fill="white" stroke="red" points="154,-49 154,-79 272,-79 272,-49 154,-49"/>
<text text-anchor="start" x="162" y="-67" font-family="Helvetica,sans-Serif" font-size="10.00">mutt_make_misc_reply</text>
<text text-anchor="middle" x="213" y="-56" font-family="Helvetica,sans-Serif" font-size="10.00">_headers</text>
</a>
</g>
</g>
<!-- Node1&#45;&gt;Node6 -->
<g id="edge5" class="edge"><title>Node1&#45;&gt;Node6</title>
<path fill="none" stroke="midnightblue" d="M94.2384,-111.95C111.166,-104.94 131.6,-96.5094 150,-89 154.846,-87.0224 159.908,-84.9658 164.96,-82.9194"/>
<polygon fill="midnightblue" stroke="midnightblue" points="166.645,-86.0135 174.604,-79.02 164.021,-79.5239 166.645,-86.0135"/>
</g>
<!-- Node7 -->
<g id="node7" class="node"><title>Node7</title>
<g id="a_node7"><a xlink:href="send_8c.html#a3bd32443d49b53466af32d101c16d418" target="_top" xlink:title="Generate references for a reply email. ">
<polygon fill="white" stroke="red" points="155,-0 155,-30 271,-30 271,-0 155,-0"/>
<text text-anchor="start" x="163" y="-18" font-family="Helvetica,sans-Serif" font-size="10.00">mutt_add_to_reference</text>
<text text-anchor="middle" x="213" y="-7" font-family="Helvetica,sans-Serif" font-size="10.00">_headers</text>
</a>
</g>
</g>
<!-- Node1&#45;&gt;Node7 -->
<g id="edge7" class="edge"><title>Node1&#45;&gt;Node7</title>
<path fill="none" stroke="midnightblue" d="M70.6471,-111.97C87.2289,-93.0466 117.99,-60.5345 150,-40 152.972,-38.0936 156.113,-36.2872 159.341,-34.584"/>
<polygon fill="midnightblue" stroke="midnightblue" points="161.152,-37.5946 168.601,-30.0599 158.079,-31.3051 161.152,-37.5946"/>
</g>
<!-- Node6&#45;&gt;Node3 -->
<g id="edge6" class="edge"><title>Node6&#45;&gt;Node3</title>
<path fill="none" stroke="midnightblue" d="M272.156,-64C282.193,-64 292.564,-64 302.411,-64"/>
<polygon fill="midnightblue" stroke="midnightblue" points="302.448,-67.5001 312.448,-64 302.448,-60.5001 302.448,-67.5001"/>
</g>
<!-- Node7&#45;&gt;Node3 -->
<g id="edge8" class="edge"><title>Node7&#45;&gt;Node3</title>
<path fill="none" stroke="midnightblue" d="M257.147,-30.1014C276.352,-36.8232 298.735,-44.6574 317.143,-51.1002"/>
<polygon fill="midnightblue" stroke="midnightblue" points="316.047,-54.4245 326.642,-54.4246 318.359,-47.8175 316.047,-54.4245"/>
</g>
</g>
</svg>
