<?xml version="1.0" encoding="UTF-8" standalone="no"?>
<!DOCTYPE svg PUBLIC "-//W3C//DTD SVG 1.1//EN"
 "http://www.w3.org/Graphics/SVG/1.1/DTD/svg11.dtd">
<!-- Generated by graphviz version 2.36.0 (20140111.2315)
 -->
<!-- Title: mutt_attach_init Pages: 1 -->
<svg width="282pt" height="66pt"
 viewBox="0.00 0.00 282.00 66.00" xmlns="http://www.w3.org/2000/svg" xmlns:xlink="http://www.w3.org/1999/xlink">
<g id="graph0" class="graph" transform="scale(1 1) rotate(0) translate(4 62)">
<title>mutt_attach_init</title>
<polygon fill="white" stroke="none" points="-4,4 -4,-62 278,-62 278,4 -4,4"/>
<!-- Node1 -->
<g id="node1" class="node"><title>Node1</title>
<polygon fill="#bfbfbf" stroke="black" points="0,-19.5 0,-38.5 86,-38.5 86,-19.5 0,-19.5"/>
<text text-anchor="middle" x="43" y="-26.5" font-family="Helvetica,sans-Serif" font-size="10.00">mutt_attach_init</text>
</g>
<!-- Node2 -->
<g id="node2" class="node"><title>Node2</title>
<g id="a_node2"><a xlink:href="compose_8c.html#aec953e61fa82157673592462a732b8c0" target="_top" xlink:title="Redraw the compose window. ">
<polygon fill="white" stroke="red" points="125.5,-38.5 125.5,-57.5 270.5,-57.5 270.5,-38.5 125.5,-38.5"/>
<text text-anchor="middle" x="198" y="-45.5" font-family="Helvetica,sans-Serif" font-size="10.00">mutt_update_compose_menu</text>
</a>
</g>
</g>
<!-- Node1&#45;&gt;Node2 -->
<g id="edge1" class="edge"><title>Node1&#45;&gt;Node2</title>
<path fill="none" stroke="midnightblue" d="M96.1449,-35.4755C105.523,-36.6402 115.447,-37.8725 125.266,-39.0919"/>
<polygon fill="midnightblue" stroke="midnightblue" points="96.5681,-32.0013 86.2129,-34.2421 95.7054,-38.9479 96.5681,-32.0013"/>
</g>
<!-- Node3 -->
<g id="node3" class="node"><title>Node3</title>
<g id="a_node3"><a xlink:href="recvattach_8c.html#a41e1f27d31074d4a407fd7cade575794" target="_top" xlink:title="Update the Attachment Menu. ">
<polygon fill="white" stroke="red" points="122.5,-0.5 122.5,-19.5 273.5,-19.5 273.5,-0.5 122.5,-0.5"/>
<text text-anchor="middle" x="198" y="-7.5" font-family="Helvetica,sans-Serif" font-size="10.00">mutt_update_recvattach_menu</text>
</a>
</g>
</g>
<!-- Node1&#45;&gt;Node3 -->
<g id="edge2" class="edge"><title>Node1&#45;&gt;Node3</title>
<path fill="none" stroke="midnightblue" d="M96.2345,-22.5134C104.654,-21.4678 113.511,-20.3679 122.336,-19.272"/>
<polygon fill="midnightblue" stroke="midnightblue" points="95.7054,-19.0521 86.2129,-23.7579 96.5681,-25.9987 95.7054,-19.0521"/>
</g>
</g>
</svg>
