<?xml version="1.0" encoding="UTF-8" standalone="no"?>
<!DOCTYPE svg PUBLIC "-//W3C//DTD SVG 1.1//EN"
 "http://www.w3.org/Graphics/SVG/1.1/DTD/svg11.dtd">
<!-- Generated by graphviz version 2.36.0 (20140111.2315)
 -->
<!-- Title: attach_forward_bodies Pages: 1 -->
<svg width="594pt" height="750pt"
 viewBox="0.00 0.00 594.00 750.00" xmlns="http://www.w3.org/2000/svg" xmlns:xlink="http://www.w3.org/1999/xlink">
<g id="graph0" class="graph" transform="scale(1 1) rotate(0) translate(4 746)">
<title>attach_forward_bodies</title>
<polygon fill="white" stroke="none" points="-4,4 -4,-746 590,-746 590,4 -4,4"/>
<!-- Node1 -->
<g id="node1" class="node"><title>Node1</title>
<polygon fill="#bfbfbf" stroke="black" points="0.5,-361.5 0.5,-380.5 115.5,-380.5 115.5,-361.5 0.5,-361.5"/>
<text text-anchor="middle" x="58" y="-368.5" font-family="Helvetica,sans-Serif" font-size="10.00">attach_forward_bodies</text>
</g>
<!-- Node2 -->
<g id="node2" class="node"><title>Node2</title>
<g id="a_node2"><a xlink:href="recvcmd_8c.html#af75f34573790a122a80c96ff84c36c79" target="_top" xlink:title="Find the parent of an Attachment. ">
<polygon fill="white" stroke="red" points="195.5,-722.5 195.5,-741.5 260.5,-741.5 260.5,-722.5 195.5,-722.5"/>
<text text-anchor="middle" x="228" y="-729.5" font-family="Helvetica,sans-Serif" font-size="10.00">find_parent</text>
</a>
</g>
</g>
<!-- Node1&#45;&gt;Node2 -->
<g id="edge1" class="edge"><title>Node1&#45;&gt;Node2</title>
<path fill="none" stroke="midnightblue" d="M58.5908,-380.588C57.2521,-424.646 57.6189,-609.723 152,-708 160.804,-717.167 173.105,-722.841 185.201,-726.35"/>
<polygon fill="midnightblue" stroke="midnightblue" points="184.687,-729.828 195.233,-728.818 186.359,-723.031 184.687,-729.828"/>
</g>
<!-- Node3 -->
<g id="node3" class="node"><title>Node3</title>
<g id="a_node3"><a xlink:href="header_8c.html#a6462f919c4f96d1a37866b16e6acb93b" target="_top" xlink:title="Create a new email Header. ">
<polygon fill="white" stroke="red" points="354,-681.5 354,-700.5 448,-700.5 448,-681.5 354,-681.5"/>
<text text-anchor="middle" x="401" y="-688.5" font-family="Helvetica,sans-Serif" font-size="10.00">mutt_header_new</text>
</a>
</g>
</g>
<!-- Node1&#45;&gt;Node3 -->
<g id="edge2" class="edge"><title>Node1&#45;&gt;Node3</title>
<path fill="none" stroke="midnightblue" d="M58.7419,-380.666C58.2159,-421.888 62.0889,-584.28 152,-659 205.277,-703.275 288.49,-704.788 343.621,-699.646"/>
<polygon fill="midnightblue" stroke="midnightblue" points="343.988,-703.127 353.575,-698.617 343.268,-696.164 343.988,-703.127"/>
</g>
<!-- Node4 -->
<g id="node4" class="node"><title>Node4</title>
<g id="a_node4"><a xlink:href="envelope_8c.html#a51f04365c2b348d829e7cd3710c55b5b" target="_top" xlink:title="Create a new Envelope. ">
<polygon fill="white" stroke="red" points="361,-638.5 361,-657.5 441,-657.5 441,-638.5 361,-638.5"/>
<text text-anchor="middle" x="401" y="-645.5" font-family="Helvetica,sans-Serif" font-size="10.00">mutt_env_new</text>
</a>
</g>
</g>
<!-- Node1&#45;&gt;Node4 -->
<g id="edge3" class="edge"><title>Node1&#45;&gt;Node4</title>
<path fill="none" stroke="midnightblue" d="M59.0931,-380.747C60.0435,-419.498 69.2107,-563.617 152,-627 208.889,-670.554 296.126,-666.498 350.531,-658.234"/>
<polygon fill="midnightblue" stroke="midnightblue" points="351.314,-661.653 360.624,-656.595 350.192,-654.743 351.314,-661.653"/>
</g>
<!-- Node5 -->
<g id="node5" class="node"><title>Node5</title>
<g id="a_node5"><a xlink:href="send_8c.html#afd1ce7628fe8d960740c07f8e2937e4b" target="_top" xlink:title="Create a subject for a forwarded email. ">
<polygon fill="white" stroke="red" points="158,-380.5 158,-399.5 298,-399.5 298,-380.5 158,-380.5"/>
<text text-anchor="middle" x="228" y="-387.5" font-family="Helvetica,sans-Serif" font-size="10.00">mutt_make_forward_subject</text>
</a>
</g>
</g>
<!-- Node1&#45;&gt;Node5 -->
<g id="edge4" class="edge"><title>Node1&#45;&gt;Node5</title>
<path fill="none" stroke="midnightblue" d="M115.877,-377.433C126.121,-378.591 136.967,-379.818 147.71,-381.033"/>
<polygon fill="midnightblue" stroke="midnightblue" points="147.626,-384.545 157.956,-382.191 148.413,-377.59 147.626,-384.545"/>
</g>
<!-- Node6 -->
<g id="node6" class="node"><title>Node6</title>
<g id="a_node6"><a xlink:href="file_8c.html#ae1c0c19fec03274220b3ca065ad1e2e5" target="_top" xlink:title="Call fopen() safely. ">
<polygon fill="white" stroke="red" points="359.5,-591.5 359.5,-610.5 442.5,-610.5 442.5,-591.5 359.5,-591.5"/>
<text text-anchor="middle" x="401" y="-598.5" font-family="Helvetica,sans-Serif" font-size="10.00">mutt_file_fopen</text>
</a>
</g>
</g>
<!-- Node1&#45;&gt;Node6 -->
<g id="edge5" class="edge"><title>Node1&#45;&gt;Node6</title>
<path fill="none" stroke="midnightblue" d="M59.4103,-380.619C61.5402,-416.957 74.5085,-546.464 152,-599 214.312,-641.245 307.191,-626.718 359.818,-613.261"/>
<polygon fill="midnightblue" stroke="midnightblue" points="361.026,-616.561 369.785,-610.601 359.221,-609.798 361.026,-616.561"/>
</g>
<!-- Node7 -->
<g id="node7" class="node"><title>Node7</title>
<g id="a_node7"><a xlink:href="header_8c.html#a417d090ecf2e78b1cd86daeea31c9822" target="_top" xlink:title="Free an email Header. ">
<polygon fill="white" stroke="red" points="355,-534.5 355,-553.5 447,-553.5 447,-534.5 355,-534.5"/>
<text text-anchor="middle" x="401" y="-541.5" font-family="Helvetica,sans-Serif" font-size="10.00">mutt_header_free</text>
</a>
</g>
</g>
<!-- Node1&#45;&gt;Node7 -->
<g id="edge6" class="edge"><title>Node1&#45;&gt;Node7</title>
<path fill="none" stroke="midnightblue" d="M62.6303,-380.709C72.5741,-405.832 102.832,-473.157 152,-504 210.361,-540.609 291.128,-547.269 344.427,-547.001"/>
<polygon fill="midnightblue" stroke="midnightblue" points="344.754,-550.497 354.705,-546.862 344.659,-543.497 344.754,-550.497"/>
</g>
<!-- Node8 -->
<g id="node8" class="node"><title>Node8</title>
<g id="a_node8"><a xlink:href="send_8c.html#aac4aed1c0c37099f13e9afa9f7e4717a" target="_top" xlink:title="Add the &quot;start of forwarded message&quot; text. ">
<polygon fill="white" stroke="black" points="179,-342.5 179,-361.5 277,-361.5 277,-342.5 179,-342.5"/>
<text text-anchor="middle" x="228" y="-349.5" font-family="Helvetica,sans-Serif" font-size="10.00">mutt_forward_intro</text>
</a>
</g>
</g>
<!-- Node1&#45;&gt;Node8 -->
<g id="edge7" class="edge"><title>Node1&#45;&gt;Node8</title>
<path fill="none" stroke="midnightblue" d="M115.877,-364.567C132.826,-362.651 151.425,-360.547 168.476,-358.619"/>
<polygon fill="midnightblue" stroke="midnightblue" points="169.322,-362.046 178.865,-357.444 168.535,-355.09 169.322,-362.046"/>
</g>
<!-- Node9 -->
<g id="node9" class="node"><title>Node9</title>
<g id="a_node9"><a xlink:href="hdrline_8c.html#a6de0878ccf20f84d785878dad420eef0" target="_top" xlink:title="Create formatted strings using mailbox expandos. ">
<polygon fill="white" stroke="red" points="340.5,-304.5 340.5,-323.5 461.5,-323.5 461.5,-304.5 340.5,-304.5"/>
<text text-anchor="middle" x="401" y="-311.5" font-family="Helvetica,sans-Serif" font-size="10.00">mutt_make_string_flags</text>
</a>
</g>
</g>
<!-- Node1&#45;&gt;Node9 -->
<g id="edge8" class="edge"><title>Node1&#45;&gt;Node9</title>
<path fill="none" stroke="midnightblue" d="M77.6614,-361.345C96.0416,-352.33 125.182,-339.341 152,-333 211.07,-319.033 280.042,-314.676 330.232,-313.586"/>
<polygon fill="midnightblue" stroke="midnightblue" points="330.393,-317.084 340.329,-313.405 330.268,-310.085 330.393,-317.084"/>
</g>
<!-- Node10 -->
<g id="node10" class="node"><title>Node10</title>
<g id="a_node10"><a xlink:href="mutt_2string_8c.html#a3b8965b21d6e21536750f8883cd4333a" target="_top" xlink:title="Copy a string into a buffer (guaranteeing NUL&#45;termination) ">
<polygon fill="white" stroke="black" points="498,-228.5 498,-247.5 586,-247.5 586,-228.5 498,-228.5"/>
<text text-anchor="middle" x="542" y="-235.5" font-family="Helvetica,sans-Serif" font-size="10.00">mutt_str_strfcpy</text>
</a>
</g>
</g>
<!-- Node1&#45;&gt;Node10 -->
<g id="edge9" class="edge"><title>Node1&#45;&gt;Node10</title>
<path fill="none" stroke="midnightblue" d="M63.3566,-361.37C74.3575,-338.361 105.717,-280.374 152,-257 209.229,-228.098 395.138,-231.59 487.673,-235.342"/>
<polygon fill="midnightblue" stroke="midnightblue" points="487.536,-238.839 497.674,-235.764 487.831,-231.846 487.536,-238.839"/>
</g>
<!-- Node11 -->
<g id="node11" class="node"><title>Node11</title>
<g id="a_node11"><a xlink:href="recvcmd_8c.html#adfb04a6c8b5a04730eb551224096b9ff" target="_top" xlink:title="Write an email header to a file, optionally quoting it. ">
<polygon fill="white" stroke="red" points="187,-266.5 187,-285.5 269,-285.5 269,-266.5 187,-266.5"/>
<text text-anchor="middle" x="228" y="-273.5" font-family="Helvetica,sans-Serif" font-size="10.00">include_header</text>
</a>
</g>
</g>
<!-- Node1&#45;&gt;Node11 -->
<g id="edge10" class="edge"><title>Node1&#45;&gt;Node11</title>
<path fill="none" stroke="midnightblue" d="M69.0676,-361.413C85.3162,-346.404 118.862,-317.289 152,-300 160.367,-295.635 169.675,-291.878 178.809,-288.72"/>
<polygon fill="midnightblue" stroke="midnightblue" points="180.176,-291.956 188.598,-285.528 178.005,-285.301 180.176,-291.956"/>
</g>
<!-- Node12 -->
<g id="node12" class="node"><title>Node12</title>
<g id="a_node12"><a xlink:href="handler_8c.html#ad8ffd2d9dd15e18644b821ec35c7ce52" target="_top" xlink:title="Will decoding the attachment produce any output. ">
<polygon fill="white" stroke="red" points="354,-114.5 354,-133.5 448,-133.5 448,-114.5 354,-114.5"/>
<text text-anchor="middle" x="401" y="-121.5" font-family="Helvetica,sans-Serif" font-size="10.00">mutt_can_decode</text>
</a>
</g>
</g>
<!-- Node1&#45;&gt;Node12 -->
<g id="edge13" class="edge"><title>Node1&#45;&gt;Node12</title>
<path fill="none" stroke="midnightblue" d="M59.5614,-361.05C62.2043,-324.636 76.6957,-197.904 152,-143 207.89,-102.252 290.929,-105.057 345.264,-112.866"/>
<polygon fill="midnightblue" stroke="midnightblue" points="344.98,-116.363 355.396,-114.428 346.046,-109.445 344.98,-116.363"/>
</g>
<!-- Node13 -->
<g id="node13" class="node"><title>Node13</title>
<g id="a_node13"><a xlink:href="init_8c.html#a620eb80c92ac555970111949ad0b7c56" target="_top" xlink:title="Ask the user a quad&#45;question. ">
<polygon fill="white" stroke="red" points="354.5,-495.5 354.5,-514.5 447.5,-514.5 447.5,-495.5 354.5,-495.5"/>
<text text-anchor="middle" x="401" y="-502.5" font-family="Helvetica,sans-Serif" font-size="10.00">query_quadoption</text>
</a>
</g>
</g>
<!-- Node1&#45;&gt;Node13 -->
<g id="edge15" class="edge"><title>Node1&#45;&gt;Node13</title>
<path fill="none" stroke="midnightblue" d="M64.4872,-380.644C76.9663,-401.56 109.699,-450.982 152,-473 212.289,-504.381 291.593,-509.347 344.105,-508.471"/>
<polygon fill="midnightblue" stroke="midnightblue" points="344.325,-511.966 354.236,-508.223 344.154,-504.969 344.325,-511.966"/>
</g>
<!-- Node14 -->
<g id="node14" class="node"><title>Node14</title>
<g id="a_node14"><a xlink:href="recvcmd_8c.html#a803384ce9ee1cf1bef751ff4808584ef" target="_top" xlink:title="Can we decode all tagged attachments? ">
<polygon fill="white" stroke="black" points="177.5,-76.5 177.5,-95.5 278.5,-95.5 278.5,-76.5 177.5,-76.5"/>
<text text-anchor="middle" x="228" y="-83.5" font-family="Helvetica,sans-Serif" font-size="10.00">check_can_decode</text>
</a>
</g>
</g>
<!-- Node1&#45;&gt;Node14 -->
<g id="edge16" class="edge"><title>Node1&#45;&gt;Node14</title>
<path fill="none" stroke="midnightblue" d="M59.4889,-361.334C61.9308,-323.456 75.9596,-183.602 152,-110 156.642,-105.507 162.125,-101.856 167.981,-98.8872"/>
<polygon fill="midnightblue" stroke="midnightblue" points="169.659,-101.973 177.422,-94.7627 166.857,-95.5586 169.659,-101.973"/>
</g>
<!-- Node15 -->
<g id="node15" class="node"><title>Node15</title>
<g id="a_node15"><a xlink:href="handler_8c.html#adae8bf0eec9bee0bd62f639bbcf8599f" target="_top" xlink:title="Handler for the Body of an email. ">
<polygon fill="white" stroke="red" points="178.5,-38.5 178.5,-57.5 277.5,-57.5 277.5,-38.5 178.5,-38.5"/>
<text text-anchor="middle" x="228" y="-45.5" font-family="Helvetica,sans-Serif" font-size="10.00">mutt_body_handler</text>
</a>
</g>
</g>
<!-- Node1&#45;&gt;Node15 -->
<g id="edge18" class="edge"><title>Node1&#45;&gt;Node15</title>
<path fill="none" stroke="midnightblue" d="M58.7947,-361.379C58.4535,-319.56 62.8743,-151.882 152,-67 156.901,-62.332 162.779,-58.7656 169.059,-56.0478"/>
<polygon fill="midnightblue" stroke="midnightblue" points="170.265,-59.3337 178.48,-52.6439 167.886,-52.7502 170.265,-59.3337"/>
</g>
<!-- Node16 -->
<g id="node16" class="node"><title>Node16</title>
<g id="a_node16"><a xlink:href="mutt__body_8c.html#a34765b4c275e55006a2203472caa0294" target="_top" xlink:title="Create a send&#45;mode duplicate from a receive&#45;mode body. ">
<polygon fill="white" stroke="red" points="356.5,-190.5 356.5,-209.5 445.5,-209.5 445.5,-190.5 356.5,-190.5"/>
<text text-anchor="middle" x="401" y="-197.5" font-family="Helvetica,sans-Serif" font-size="10.00">mutt_body_copy</text>
</a>
</g>
</g>
<!-- Node1&#45;&gt;Node16 -->
<g id="edge19" class="edge"><title>Node1&#45;&gt;Node16</title>
<path fill="none" stroke="midnightblue" d="M61.8173,-361.299C70.2752,-334.123 98.2441,-257.076 152,-224 210.716,-187.872 292.443,-187.426 345.773,-192.236"/>
<polygon fill="midnightblue" stroke="midnightblue" points="345.747,-195.75 356.045,-193.259 346.441,-188.785 345.747,-195.75"/>
</g>
<!-- Node17 -->
<g id="node17" class="node"><title>Node17</title>
<g id="a_node17"><a xlink:href="recvcmd_8c.html#a3ece8162f54f872f718dc0b8a7efcd83" target="_top" xlink:title="Attach the body parts which can&#39;t be decoded. ">
<polygon fill="white" stroke="black" points="152,-152.5 152,-171.5 304,-171.5 304,-152.5 152,-152.5"/>
<text text-anchor="middle" x="228" y="-159.5" font-family="Helvetica,sans-Serif" font-size="10.00">copy_problematic_attachments</text>
</a>
</g>
</g>
<!-- Node1&#45;&gt;Node17 -->
<g id="edge21" class="edge"><title>Node1&#45;&gt;Node17</title>
<path fill="none" stroke="midnightblue" d="M61.0641,-361.306C68.067,-330.786 93.8006,-235.756 152,-186 156.842,-181.861 162.405,-178.433 168.268,-175.595"/>
<polygon fill="midnightblue" stroke="midnightblue" points="169.83,-178.735 177.666,-171.604 167.093,-172.292 169.83,-178.735"/>
</g>
<!-- Node18 -->
<g id="node18" class="node"><title>Node18</title>
<g id="a_node18"><a xlink:href="send_8c.html#af456fd1ca84c554df4308c41581ac411" target="_top" xlink:title="Add a &quot;end of forwarded message&quot; text. ">
<polygon fill="white" stroke="black" points="176.5,-0.5 176.5,-19.5 279.5,-19.5 279.5,-0.5 176.5,-0.5"/>
<text text-anchor="middle" x="228" y="-7.5" font-family="Helvetica,sans-Serif" font-size="10.00">mutt_forward_trailer</text>
</a>
</g>
</g>
<!-- Node1&#45;&gt;Node18 -->
<g id="edge24" class="edge"><title>Node1&#45;&gt;Node18</title>
<path fill="none" stroke="midnightblue" d="M60.2988,-361.386C67.2872,-311.034 101.97,-78.167 152,-29 156.296,-24.778 161.389,-21.4521 166.866,-18.8379"/>
<polygon fill="midnightblue" stroke="midnightblue" points="168.364,-22.0095 176.377,-15.0779 165.79,-15.4998 168.364,-22.0095"/>
</g>
<!-- Node19 -->
<g id="node19" class="node"><title>Node19</title>
<g id="a_node19"><a xlink:href="file_8c.html#a4982d9040dfaf38e847729be2af83ed6" target="_top" xlink:title="Close a FILE handle (and NULL the pointer) ">
<polygon fill="white" stroke="black" points="358,-456.5 358,-475.5 444,-475.5 444,-456.5 358,-456.5"/>
<text text-anchor="middle" x="401" y="-463.5" font-family="Helvetica,sans-Serif" font-size="10.00">mutt_file_fclose</text>
</a>
</g>
</g>
<!-- Node1&#45;&gt;Node19 -->
<g id="edge25" class="edge"><title>Node1&#45;&gt;Node19</title>
<path fill="none" stroke="midnightblue" d="M67.0231,-380.614C81.8071,-397.544 115.22,-432.275 152,-447 215.758,-472.525 296.015,-473.668 347.662,-470.872"/>
<polygon fill="midnightblue" stroke="midnightblue" points="348.146,-474.349 357.914,-470.245 347.719,-467.362 348.146,-474.349"/>
</g>
<!-- Node20 -->
<g id="node20" class="node"><title>Node20</title>
<g id="a_node20"><a xlink:href="send_8c.html#a09c909ab2bb41101590ed2b13f65fc2d" target="_top" xlink:title="Send an email. ">
<polygon fill="white" stroke="red" points="180.5,-570.5 180.5,-589.5 275.5,-589.5 275.5,-570.5 180.5,-570.5"/>
<text text-anchor="middle" x="228" y="-577.5" font-family="Helvetica,sans-Serif" font-size="10.00">ci_send_message</text>
</a>
</g>
</g>
<!-- Node1&#45;&gt;Node20 -->
<g id="edge26" class="edge"><title>Node1&#45;&gt;Node20</title>
<path fill="none" stroke="midnightblue" d="M61.0641,-380.694C68.067,-411.214 93.8006,-506.244 152,-556 157.572,-560.764 164.101,-564.585 170.941,-567.65"/>
<polygon fill="midnightblue" stroke="midnightblue" points="169.814,-570.967 180.401,-571.377 172.38,-564.454 169.814,-570.967"/>
</g>
<!-- Node21 -->
<g id="node21" class="node"><title>Node21</title>
<g id="a_node21"><a xlink:href="file_8c.html#ae57463c2854c006a3c67b78736e9056e" target="_top" xlink:title="Delete a file, carefully. ">
<polygon fill="white" stroke="black" points="185.5,-418.5 185.5,-437.5 270.5,-437.5 270.5,-418.5 185.5,-418.5"/>
<text text-anchor="middle" x="228" y="-425.5" font-family="Helvetica,sans-Serif" font-size="10.00">mutt_file_unlink</text>
</a>
</g>
</g>
<!-- Node1&#45;&gt;Node21 -->
<g id="edge33" class="edge"><title>Node1&#45;&gt;Node21</title>
<path fill="none" stroke="midnightblue" d="M80.1071,-380.615C98.7535,-388.868 126.818,-400.711 152,-409 159.536,-411.481 167.586,-413.828 175.513,-415.971"/>
<polygon fill="midnightblue" stroke="midnightblue" points="174.879,-419.423 185.44,-418.572 176.653,-412.652 174.879,-419.423"/>
</g>
<!-- Node11&#45;&gt;Node9 -->
<g id="edge12" class="edge"><title>Node11&#45;&gt;Node9</title>
<path fill="none" stroke="midnightblue" d="M269.092,-284.909C292.447,-290.099 322.171,-296.705 347.391,-302.309"/>
<polygon fill="midnightblue" stroke="midnightblue" points="346.649,-305.73 357.17,-304.482 348.168,-298.896 346.649,-305.73"/>
</g>
<!-- Node11&#45;&gt;Node10 -->
<g id="edge11" class="edge"><title>Node11&#45;&gt;Node10</title>
<path fill="none" stroke="midnightblue" d="M269.099,-272.762C315.611,-268.8 394.543,-261.439 462,-252 470.328,-250.835 479.123,-249.44 487.7,-247.99"/>
<polygon fill="midnightblue" stroke="midnightblue" points="488.371,-251.426 497.627,-246.272 487.177,-244.528 488.371,-251.426"/>
</g>
<!-- Node12&#45;&gt;Node12 -->
<g id="edge14" class="edge"><title>Node12&#45;&gt;Node12</title>
<path fill="none" stroke="midnightblue" d="M379.422,-133.757C368.924,-142.565 376.117,-152 401,-152 416.941,-152 425.621,-148.128 427.042,-143.029"/>
<polygon fill="midnightblue" stroke="midnightblue" points="430.069,-141.249 422.578,-133.757 423.762,-144.286 430.069,-141.249"/>
</g>
<!-- Node14&#45;&gt;Node12 -->
<g id="edge17" class="edge"><title>Node14&#45;&gt;Node12</title>
<path fill="none" stroke="midnightblue" d="M272.151,-95.589C294.919,-100.649 323.048,-106.9 347.119,-112.249"/>
<polygon fill="midnightblue" stroke="midnightblue" points="346.639,-115.727 357.16,-114.48 348.157,-108.894 346.639,-115.727"/>
</g>
<!-- Node16&#45;&gt;Node10 -->
<g id="edge20" class="edge"><title>Node16&#45;&gt;Node10</title>
<path fill="none" stroke="midnightblue" d="M437.076,-209.589C455.019,-214.494 477.058,-220.52 496.217,-225.757"/>
<polygon fill="midnightblue" stroke="midnightblue" points="495.367,-229.153 505.936,-228.414 497.213,-222.401 495.367,-229.153"/>
</g>
<!-- Node17&#45;&gt;Node12 -->
<g id="edge22" class="edge"><title>Node17&#45;&gt;Node12</title>
<path fill="none" stroke="midnightblue" d="M272.151,-152.411C294.919,-147.351 323.048,-141.1 347.119,-135.751"/>
<polygon fill="midnightblue" stroke="midnightblue" points="348.157,-139.106 357.16,-133.52 346.639,-132.273 348.157,-139.106"/>
</g>
<!-- Node17&#45;&gt;Node16 -->
<g id="edge23" class="edge"><title>Node17&#45;&gt;Node16</title>
<path fill="none" stroke="midnightblue" d="M272.151,-171.589C294.919,-176.649 323.048,-182.9 347.119,-188.249"/>
<polygon fill="midnightblue" stroke="midnightblue" points="346.639,-191.727 357.16,-190.48 348.157,-184.894 346.639,-191.727"/>
</g>
<!-- Node20&#45;&gt;Node3 -->
<g id="edge28" class="edge"><title>Node20&#45;&gt;Node3</title>
<path fill="none" stroke="midnightblue" d="M239.291,-589.736C258.071,-607.103 299.689,-643.778 340,-667 346.904,-670.977 354.594,-674.594 362.104,-677.746"/>
<polygon fill="midnightblue" stroke="midnightblue" points="360.862,-681.018 371.447,-681.48 363.46,-674.518 360.862,-681.018"/>
</g>
<!-- Node20&#45;&gt;Node4 -->
<g id="edge30" class="edge"><title>Node20&#45;&gt;Node4</title>
<path fill="none" stroke="midnightblue" d="M253.137,-589.599C282.8,-601.394 333.288,-621.471 366.644,-634.736"/>
<polygon fill="midnightblue" stroke="midnightblue" points="365.4,-638.007 375.985,-638.45 367.986,-631.503 365.4,-638.007"/>
</g>
<!-- Node20&#45;&gt;Node6 -->
<g id="edge29" class="edge"><title>Node20&#45;&gt;Node6</title>
<path fill="none" stroke="midnightblue" d="M275.727,-585.738C298.553,-588.542 326.059,-591.919 349.383,-594.784"/>
<polygon fill="midnightblue" stroke="midnightblue" points="349.083,-598.273 359.435,-596.018 349.936,-591.325 349.083,-598.273"/>
</g>
<!-- Node20&#45;&gt;Node7 -->
<g id="edge32" class="edge"><title>Node20&#45;&gt;Node7</title>
<path fill="none" stroke="midnightblue" d="M274.376,-570.447C296.01,-565.893 322.076,-560.405 344.843,-555.612"/>
<polygon fill="midnightblue" stroke="midnightblue" points="345.645,-559.02 354.709,-553.535 344.202,-552.17 345.645,-559.02"/>
</g>
<!-- Node20&#45;&gt;Node13 -->
<g id="edge27" class="edge"><title>Node20&#45;&gt;Node13</title>
<path fill="none" stroke="midnightblue" d="M246.339,-570.471C267.894,-558.845 305.998,-539.012 340,-525 345.996,-522.529 352.419,-520.134 358.753,-517.911"/>
<polygon fill="midnightblue" stroke="midnightblue" points="360.22,-521.109 368.558,-514.573 357.964,-514.482 360.22,-521.109"/>
</g>
<!-- Node20&#45;&gt;Node19 -->
<g id="edge31" class="edge"><title>Node20&#45;&gt;Node19</title>
<path fill="none" stroke="midnightblue" d="M237.864,-570.355C255.571,-551.612 297.297,-510.01 340,-486 344.491,-483.475 349.351,-481.204 354.295,-479.178"/>
<polygon fill="midnightblue" stroke="midnightblue" points="355.707,-482.386 363.828,-475.583 353.237,-475.836 355.707,-482.386"/>
</g>
<!-- Node21&#45;&gt;Node19 -->
<g id="edge34" class="edge"><title>Node21&#45;&gt;Node19</title>
<path fill="none" stroke="midnightblue" d="M270.831,-437.296C294.034,-442.452 323.102,-448.912 347.785,-454.397"/>
<polygon fill="midnightblue" stroke="midnightblue" points="347.189,-457.85 357.711,-456.602 348.708,-451.016 347.189,-457.85"/>
</g>
</g>
</svg>
