<?xml version="1.0" encoding="UTF-8" standalone="no"?>
<!DOCTYPE svg PUBLIC "-//W3C//DTD SVG 1.1//EN"
 "http://www.w3.org/Graphics/SVG/1.1/DTD/svg11.dtd">
<!-- Generated by graphviz version 2.36.0 (20140111.2315)
 -->
<!-- Title: attach_format_str Pages: 1 -->
<svg width="356pt" height="229pt"
 viewBox="0.00 0.00 356.00 229.00" xmlns="http://www.w3.org/2000/svg" xmlns:xlink="http://www.w3.org/1999/xlink">
<g id="graph0" class="graph" transform="scale(1 1) rotate(0) translate(4 225)">
<title>attach_format_str</title>
<polygon fill="white" stroke="none" points="-4,4 -4,-225 352,-225 352,4 -4,4"/>
<!-- Node1 -->
<g id="node1" class="node"><title>Node1</title>
<polygon fill="#bfbfbf" stroke="black" points="0.5,-95.5 0.5,-114.5 93.5,-114.5 93.5,-95.5 0.5,-95.5"/>
<text text-anchor="middle" x="47" y="-102.5" font-family="Helvetica,sans-Serif" font-size="10.00">attach_format_str</text>
</g>
<!-- Node2 -->
<g id="node2" class="node"><title>Node2</title>
<g id="a_node2"><a xlink:href="compose_8c.html#a960cc34e1fd3d276e76cb02f81c4d3e3" target="_top" xlink:title="Format a menu item for the attachment list. ">
<polygon fill="white" stroke="red" points="274.5,-201.5 274.5,-220.5 333.5,-220.5 333.5,-201.5 274.5,-201.5"/>
<text text-anchor="middle" x="304" y="-208.5" font-family="Helvetica,sans-Serif" font-size="10.00">snd_entry</text>
</a>
</g>
</g>
<!-- Node1&#45;&gt;Node2 -->
<g id="edge1" class="edge"><title>Node1&#45;&gt;Node2</title>
<path fill="none" stroke="midnightblue" d="M62.6199,-122.651C77.692,-139.61 102.776,-164.581 130,-178 177.035,-201.183 238.692,-208.115 274.271,-210.165"/>
<polygon fill="midnightblue" stroke="midnightblue" points="64.8732,-119.905 55.6924,-114.617 59.5716,-124.476 64.8732,-119.905"/>
</g>
<!-- Node3 -->
<g id="node3" class="node"><title>Node3</title>
<g id="a_node3"><a xlink:href="crypt__gpgme_8c.html#a40d07d9c1d42f50976324b170272906f" target="_top" xlink:title="Format a string for the key selection menu &#45; Implements format_t. ">
<polygon fill="white" stroke="red" points="260,-135.5 260,-154.5 348,-154.5 348,-135.5 260,-135.5"/>
<text text-anchor="middle" x="304" y="-142.5" font-family="Helvetica,sans-Serif" font-size="10.00">crypt_format_str</text>
</a>
</g>
</g>
<!-- Node1&#45;&gt;Node3 -->
<g id="edge2" class="edge"><title>Node1&#45;&gt;Node3</title>
<path fill="none" stroke="midnightblue" d="M65.7676,-121.876C81.3273,-135.409 105.262,-153.359 130,-161 178.705,-176.044 238.499,-164.252 273.514,-154.5"/>
<polygon fill="midnightblue" stroke="midnightblue" points="67.8047,-119.001 58.033,-114.906 63.1185,-124.201 67.8047,-119.001"/>
</g>
<!-- Node4 -->
<g id="node4" class="node"><title>Node4</title>
<g id="a_node4"><a xlink:href="pgpkey_8c.html#a48bfb11bc71b8c6d58b6aeaa643fe5ff" target="_top" xlink:title="Format an entry on the PGP key selection menu &#45; Implements format_t. ">
<polygon fill="white" stroke="red" points="264.5,-83.5 264.5,-102.5 343.5,-102.5 343.5,-83.5 264.5,-83.5"/>
<text text-anchor="middle" x="304" y="-90.5" font-family="Helvetica,sans-Serif" font-size="10.00">pgp_entry_fmt</text>
</a>
</g>
</g>
<!-- Node1&#45;&gt;Node4 -->
<g id="edge3" class="edge"><title>Node1&#45;&gt;Node4</title>
<path fill="none" stroke="midnightblue" d="M103.641,-102.382C152.303,-100.092 221.702,-96.8258 264.47,-94.8132"/>
<polygon fill="midnightblue" stroke="midnightblue" points="103.413,-98.8883 93.5889,-102.855 103.742,-105.881 103.413,-98.8883"/>
</g>
<!-- Node5 -->
<g id="node5" class="node"><title>Node5</title>
<g id="a_node5"><a xlink:href="recvattach_8h.html#a98b2ae112e8353253ba30462bfef777b" target="_top" xlink:title="Format a string for the attachment menu &#45; Implements format_t. ">
<polygon fill="white" stroke="black" points="130.5,-114.5 130.5,-133.5 223.5,-133.5 223.5,-114.5 130.5,-114.5"/>
<text text-anchor="middle" x="177" y="-121.5" font-family="Helvetica,sans-Serif" font-size="10.00">attach_format_str</text>
</a>
</g>
</g>
<!-- Node1&#45;&gt;Node5 -->
<g id="edge4" class="edge"><title>Node1&#45;&gt;Node5</title>
<path fill="none" stroke="midnightblue" d="M103.785,-113.281C112.7,-114.604 121.831,-115.959 130.471,-117.242"/>
<polygon fill="midnightblue" stroke="midnightblue" points="104.255,-109.812 93.8494,-111.806 103.227,-116.736 104.255,-109.812"/>
</g>
<!-- Node6 -->
<g id="node6" class="node"><title>Node6</title>
<g id="a_node6"><a xlink:href="recvattach_8c.html#ae338f31584f65c5bcec0ebfb803b3c68" target="_top" xlink:title="Format a menu item for the attachment list. ">
<polygon fill="white" stroke="red" points="268.5,-38.5 268.5,-57.5 339.5,-57.5 339.5,-38.5 268.5,-38.5"/>
<text text-anchor="middle" x="304" y="-45.5" font-family="Helvetica,sans-Serif" font-size="10.00">attach_entry</text>
</a>
</g>
</g>
<!-- Node1&#45;&gt;Node6 -->
<g id="edge11" class="edge"><title>Node1&#45;&gt;Node6</title>
<path fill="none" stroke="midnightblue" d="M100.709,-93.218C150.965,-81.9844 225.202,-65.3902 268.377,-55.7392"/>
<polygon fill="midnightblue" stroke="midnightblue" points="99.6769,-89.8622 90.6813,-95.4595 101.204,-96.6937 99.6769,-89.8622"/>
</g>
<!-- Node7 -->
<g id="node7" class="node"><title>Node7</title>
<g id="a_node7"><a xlink:href="remailer_8c.html#a00f293965c485cb7a94e042a28df1f4b" target="_top" xlink:title="Format a string for the remailer menu &#45; Implements format_t. ">
<polygon fill="white" stroke="red" points="263,-0.5 263,-19.5 345,-19.5 345,-0.5 263,-0.5"/>
<text text-anchor="middle" x="304" y="-7.5" font-family="Helvetica,sans-Serif" font-size="10.00">mix_format_str</text>
</a>
</g>
</g>
<!-- Node1&#45;&gt;Node7 -->
<g id="edge12" class="edge"><title>Node1&#45;&gt;Node7</title>
<path fill="none" stroke="midnightblue" d="M72.6208,-90.5055C88.605,-81.4964 110.094,-70.1239 130,-62 174.572,-43.8097 227.891,-28.7379 263.443,-19.5849"/>
<polygon fill="midnightblue" stroke="midnightblue" points="70.8416,-87.491 63.8993,-95.4944 74.3174,-93.5672 70.8416,-87.491"/>
</g>
<!-- Node5&#45;&gt;Node2 -->
<g id="edge5" class="edge"><title>Node5&#45;&gt;Node2</title>
<path fill="none" stroke="midnightblue" d="M200.236,-139.476C225.967,-157.385 267.551,-186.328 289.083,-201.314"/>
<polygon fill="midnightblue" stroke="midnightblue" points="202.062,-136.483 191.855,-133.643 198.063,-142.228 202.062,-136.483"/>
</g>
<!-- Node5&#45;&gt;Node3 -->
<g id="edge6" class="edge"><title>Node5&#45;&gt;Node3</title>
<path fill="none" stroke="midnightblue" d="M233.872,-133.386C242.522,-134.84 251.344,-136.322 259.665,-137.72"/>
<polygon fill="midnightblue" stroke="midnightblue" points="234.277,-129.906 223.836,-131.7 233.117,-136.809 234.277,-129.906"/>
</g>
<!-- Node5&#45;&gt;Node4 -->
<g id="edge7" class="edge"><title>Node5&#45;&gt;Node4</title>
<path fill="none" stroke="midnightblue" d="M226.404,-111.996C238.99,-108.874 252.381,-105.553 264.388,-102.576"/>
<polygon fill="midnightblue" stroke="midnightblue" points="225.388,-108.642 216.524,-114.446 227.073,-115.436 225.388,-108.642"/>
</g>
<!-- Node5&#45;&gt;Node5 -->
<g id="edge8" class="edge"><title>Node5&#45;&gt;Node5</title>
<path fill="none" stroke="midnightblue" d="M153.563,-143.029C154.841,-148.128 162.654,-152 177,-152 199.395,-152 205.868,-142.565 196.42,-133.757"/>
<polygon fill="midnightblue" stroke="midnightblue" points="156.816,-144.324 157.58,-133.757 150.393,-141.541 156.816,-144.324"/>
</g>
<!-- Node5&#45;&gt;Node6 -->
<g id="edge9" class="edge"><title>Node5&#45;&gt;Node6</title>
<path fill="none" stroke="midnightblue" d="M202.593,-108.972C218.872,-99.0315 240.699,-85.7194 260,-74 268.948,-68.5666 278.956,-62.5142 287.063,-57.6168"/>
<polygon fill="midnightblue" stroke="midnightblue" points="200.419,-106.198 193.709,-114.397 204.068,-112.172 200.419,-106.198"/>
</g>
<!-- Node5&#45;&gt;Node7 -->
<g id="edge10" class="edge"><title>Node5&#45;&gt;Node7</title>
<path fill="none" stroke="midnightblue" d="M189.919,-105.85C204.389,-84.9836 230.543,-50.8126 260,-29 264.854,-25.4059 270.494,-22.302 276.061,-19.7053"/>
<polygon fill="midnightblue" stroke="midnightblue" points="186.832,-104.166 184.122,-114.409 192.628,-108.091 186.832,-104.166"/>
</g>
</g>
</svg>
