<?xml version="1.0" encoding="UTF-8" standalone="no"?>
<!DOCTYPE svg PUBLIC "-//W3C//DTD SVG 1.1//EN"
 "http://www.w3.org/Graphics/SVG/1.1/DTD/svg11.dtd">
<!-- Generated by graphviz version 2.36.0 (20140111.2315)
 -->
<!-- Title: mutt_generate_recvattach_list Pages: 1 -->
<svg width="482pt" height="601pt"
 viewBox="0.00 0.00 482.00 601.00" xmlns="http://www.w3.org/2000/svg" xmlns:xlink="http://www.w3.org/1999/xlink">
<g id="graph0" class="graph" transform="scale(1 1) rotate(0) translate(4 597)">
<title>mutt_generate_recvattach_list</title>
<polygon fill="white" stroke="none" points="-4,4 -4,-597 478,-597 478,4 -4,4"/>
<!-- Node1 -->
<g id="node1" class="node"><title>Node1</title>
<polygon fill="#bfbfbf" stroke="black" points="0,-278.5 0,-297.5 148,-297.5 148,-278.5 0,-278.5"/>
<text text-anchor="middle" x="74" y="-285.5" font-family="Helvetica,sans-Serif" font-size="10.00">mutt_generate_recvattach_list</text>
</g>
<!-- Node2 -->
<g id="node2" class="node"><title>Node2</title>
<g id="a_node2"><a xlink:href="crypt_8c.html#a1d2bf368c209730b1f196b860dbbc01f" target="_top" xlink:title="Does the message use S/MIME? ">
<polygon fill="white" stroke="red" points="205.5,-563 205.5,-593 306.5,-593 306.5,-563 205.5,-563"/>
<text text-anchor="start" x="213.5" y="-581" font-family="Helvetica,sans-Serif" font-size="10.00">mutt_is_application</text>
<text text-anchor="middle" x="256" y="-570" font-family="Helvetica,sans-Serif" font-size="10.00">_smime</text>
</a>
</g>
</g>
<!-- Node1&#45;&gt;Node2 -->
<g id="edge1" class="edge"><title>Node1&#45;&gt;Node2</title>
<path fill="none" stroke="midnightblue" d="M76.3892,-297.71C82.234,-335.162 108.139,-471.926 184,-548 187.685,-551.695 191.895,-554.961 196.385,-557.842"/>
<polygon fill="midnightblue" stroke="midnightblue" points="194.877,-561.012 205.299,-562.921 198.343,-554.93 194.877,-561.012"/>
</g>
<!-- Node3 -->
<g id="node3" class="node"><title>Node3</title>
<g id="a_node3"><a xlink:href="mutt_2string_8c.html#a011e5b6fad43bc608584d585987cf9c1" target="_top" xlink:title="Compare two strings ignoring case, safely. ">
<polygon fill="white" stroke="black" points="364.5,-278.5 364.5,-297.5 473.5,-297.5 473.5,-278.5 364.5,-278.5"/>
<text text-anchor="middle" x="419" y="-285.5" font-family="Helvetica,sans-Serif" font-size="10.00">mutt_str_strcasecmp</text>
</a>
</g>
</g>
<!-- Node1&#45;&gt;Node3 -->
<g id="edge16" class="edge"><title>Node1&#45;&gt;Node3</title>
<path fill="none" stroke="midnightblue" d="M76.0942,-297.66C80.8059,-334.138 102.962,-464.016 184,-515 238.171,-549.081 275.058,-550.961 328,-515 398.801,-466.908 413.905,-353.488 417.127,-307.691"/>
<polygon fill="midnightblue" stroke="midnightblue" points="420.628,-307.773 417.716,-297.586 413.64,-307.365 420.628,-307.773"/>
</g>
<!-- Node4 -->
<g id="node4" class="node"><title>Node4</title>
<g id="a_node4"><a xlink:href="crypt_8c.html#a99c2d9b5ec280d93293e3b6a7416fc72" target="_top" xlink:title="Check that we have a usable passphrase, ask if not. ">
<polygon fill="white" stroke="red" points="196.5,-486.5 196.5,-505.5 315.5,-505.5 315.5,-486.5 196.5,-486.5"/>
<text text-anchor="middle" x="256" y="-493.5" font-family="Helvetica,sans-Serif" font-size="10.00">crypt_valid_passphrase</text>
</a>
</g>
</g>
<!-- Node1&#45;&gt;Node4 -->
<g id="edge3" class="edge"><title>Node1&#45;&gt;Node4</title>
<path fill="none" stroke="midnightblue" d="M77.6464,-297.607C86.7316,-328.735 119.695,-427.649 184,-477 186.452,-478.881 189.075,-480.577 191.815,-482.105"/>
<polygon fill="midnightblue" stroke="midnightblue" points="190.367,-485.292 200.899,-486.437 193.38,-478.973 190.367,-485.292"/>
</g>
<!-- Node5 -->
<g id="node5" class="node"><title>Node5</title>
<g id="a_node5"><a xlink:href="cryptglue_8c.html#a3f60f47f4d4dee7f43f502b7244af35f" target="_top" xlink:title="Wrapper for CryptModuleSpecs::smime_getkeys() ">
<polygon fill="white" stroke="black" points="199.5,-448.5 199.5,-467.5 312.5,-467.5 312.5,-448.5 199.5,-448.5"/>
<text text-anchor="middle" x="256" y="-455.5" font-family="Helvetica,sans-Serif" font-size="10.00">crypt_smime_getkeys</text>
</a>
</g>
</g>
<!-- Node1&#45;&gt;Node5 -->
<g id="edge4" class="edge"><title>Node1&#45;&gt;Node5</title>
<path fill="none" stroke="midnightblue" d="M79.0471,-297.522C90.9205,-324.274 128.364,-400.649 184,-439 186.925,-441.016 190.054,-442.819 193.308,-444.43"/>
<polygon fill="midnightblue" stroke="midnightblue" points="192.172,-447.752 202.741,-448.484 194.936,-441.32 192.172,-447.752"/>
</g>
<!-- Node6 -->
<g id="node6" class="node"><title>Node6</title>
<g id="a_node6"><a xlink:href="cryptglue_8c.html#a11d23ec1900940d734d29d45ced2b896" target="_top" xlink:title="Wrapper for CryptModuleSpecs::decrypt_mime() ">
<polygon fill="white" stroke="black" points="186,-410.5 186,-429.5 326,-429.5 326,-410.5 186,-410.5"/>
<text text-anchor="middle" x="256" y="-417.5" font-family="Helvetica,sans-Serif" font-size="10.00">crypt_smime_decrypt_mime</text>
</a>
</g>
</g>
<!-- Node1&#45;&gt;Node6 -->
<g id="edge5" class="edge"><title>Node1&#45;&gt;Node6</title>
<path fill="none" stroke="midnightblue" d="M81.3954,-297.555C96.5221,-319.388 136.797,-373.187 184,-401 187.71,-403.186 191.676,-405.126 195.766,-406.847"/>
<polygon fill="midnightblue" stroke="midnightblue" points="194.88,-410.252 205.472,-410.477 197.332,-403.695 194.88,-410.252"/>
</g>
<!-- Node7 -->
<g id="node7" class="node"><title>Node7</title>
<g id="a_node7"><a xlink:href="body_8c.html#a43826190bac1662a61f5b08d915ee000" target="_top" xlink:title="Free a Body. ">
<polygon fill="white" stroke="red" points="214,-354.5 214,-373.5 298,-373.5 298,-354.5 214,-354.5"/>
<text text-anchor="middle" x="256" y="-361.5" font-family="Helvetica,sans-Serif" font-size="10.00">mutt_body_free</text>
</a>
</g>
</g>
<!-- Node1&#45;&gt;Node7 -->
<g id="edge6" class="edge"><title>Node1&#45;&gt;Node7</title>
<path fill="none" stroke="midnightblue" d="M90.7296,-297.645C111.466,-310.023 149.379,-331.506 184,-345 190.39,-347.491 197.227,-349.773 204.041,-351.825"/>
<polygon fill="midnightblue" stroke="midnightblue" points="203.377,-355.275 213.954,-354.663 205.304,-348.546 203.377,-355.275"/>
</g>
<!-- Node8 -->
<g id="node8" class="node"><title>Node8</title>
<g id="a_node8"><a xlink:href="file_8c.html#a4982d9040dfaf38e847729be2af83ed6" target="_top" xlink:title="Close a FILE handle (and NULL the pointer) ">
<polygon fill="white" stroke="black" points="213,-316.5 213,-335.5 299,-335.5 299,-316.5 213,-316.5"/>
<text text-anchor="middle" x="256" y="-323.5" font-family="Helvetica,sans-Serif" font-size="10.00">mutt_file_fclose</text>
</a>
</g>
</g>
<!-- Node1&#45;&gt;Node8 -->
<g id="edge8" class="edge"><title>Node1&#45;&gt;Node8</title>
<path fill="none" stroke="midnightblue" d="M120.422,-297.589C145.522,-302.888 176.811,-309.493 202.901,-315.001"/>
<polygon fill="midnightblue" stroke="midnightblue" points="202.482,-318.49 212.99,-317.131 203.928,-311.641 202.482,-318.49"/>
</g>
<!-- Node9 -->
<g id="node9" class="node"><title>Node9</title>
<g id="a_node9"><a xlink:href="crypt_8c.html#ad25b7a6f1ca21e0c78215cd31a5f8c5b" target="_top" xlink:title="Does the message have encrypted parts? ">
<polygon fill="white" stroke="red" points="186,-278.5 186,-297.5 326,-297.5 326,-278.5 186,-278.5"/>
<text text-anchor="middle" x="256" y="-285.5" font-family="Helvetica,sans-Serif" font-size="10.00">mutt_is_multipart_encrypted</text>
</a>
</g>
</g>
<!-- Node1&#45;&gt;Node9 -->
<g id="edge9" class="edge"><title>Node1&#45;&gt;Node9</title>
<path fill="none" stroke="midnightblue" d="M148.213,-288C157.265,-288 166.552,-288 175.689,-288"/>
<polygon fill="midnightblue" stroke="midnightblue" points="175.922,-291.5 185.922,-288 175.922,-284.5 175.922,-291.5"/>
</g>
<!-- Node10 -->
<g id="node10" class="node"><title>Node10</title>
<g id="a_node10"><a xlink:href="crypt_8c.html#a677a7f08680a1ed23ca7c69a623da45b" target="_top" xlink:title="Check for malformed layout. ">
<polygon fill="white" stroke="black" points="184.5,-229 184.5,-259 327.5,-259 327.5,-229 184.5,-229"/>
<text text-anchor="start" x="192.5" y="-247" font-family="Helvetica,sans-Serif" font-size="10.00">mutt_is_malformed_multipart</text>
<text text-anchor="middle" x="256" y="-236" font-family="Helvetica,sans-Serif" font-size="10.00">_pgp_encrypted</text>
</a>
</g>
</g>
<!-- Node1&#45;&gt;Node10 -->
<g id="edge11" class="edge"><title>Node1&#45;&gt;Node10</title>
<path fill="none" stroke="midnightblue" d="M114.057,-278.453C134.323,-273.499 159.728,-267.289 183.366,-261.51"/>
<polygon fill="midnightblue" stroke="midnightblue" points="184.486,-264.84 193.369,-259.065 182.824,-258.04 184.486,-264.84"/>
</g>
<!-- Node11 -->
<g id="node11" class="node"><title>Node11</title>
<g id="a_node11"><a xlink:href="cryptglue_8c.html#ae7d3a1da085190a1b22203d376dbd337" target="_top" xlink:title="Wrapper for CryptModuleSpecs::decrypt_mime() ">
<polygon fill="white" stroke="black" points="193,-190.5 193,-209.5 319,-209.5 319,-190.5 193,-190.5"/>
<text text-anchor="middle" x="256" y="-197.5" font-family="Helvetica,sans-Serif" font-size="10.00">crypt_pgp_decrypt_mime</text>
</a>
</g>
</g>
<!-- Node1&#45;&gt;Node11 -->
<g id="edge13" class="edge"><title>Node1&#45;&gt;Node11</title>
<path fill="none" stroke="midnightblue" d="M87.7507,-278.353C107.443,-263.857 146.871,-236.411 184,-220 190.217,-217.252 196.908,-214.784 203.61,-212.598"/>
<polygon fill="midnightblue" stroke="midnightblue" points="204.85,-215.878 213.381,-209.596 202.794,-209.187 204.85,-215.878"/>
</g>
<!-- Node12 -->
<g id="node12" class="node"><title>Node12</title>
<g id="a_node12"><a xlink:href="attach_8c.html#abf8d6e3611faf77712e4e4066a0e198f" target="_top" xlink:title="Save a File handle to the Attachment Context. ">
<polygon fill="white" stroke="red" points="208.5,-152.5 208.5,-171.5 303.5,-171.5 303.5,-152.5 208.5,-152.5"/>
<text text-anchor="middle" x="256" y="-159.5" font-family="Helvetica,sans-Serif" font-size="10.00">mutt_actx_add_fp</text>
</a>
</g>
</g>
<!-- Node1&#45;&gt;Node12 -->
<g id="edge14" class="edge"><title>Node1&#45;&gt;Node12</title>
<path fill="none" stroke="midnightblue" d="M81.9893,-278.34C97.7284,-257.308 138.174,-207.166 184,-181 188.524,-178.417 193.411,-176.174 198.43,-174.229"/>
<polygon fill="midnightblue" stroke="midnightblue" points="199.884,-177.43 208.184,-170.845 197.589,-170.817 199.884,-177.43"/>
</g>
<!-- Node13 -->
<g id="node13" class="node"><title>Node13</title>
<g id="a_node13"><a xlink:href="attach_8c.html#a0de4bc51c9c5a28627f56ee542661e58" target="_top" xlink:title="Add an email box to an Attachment Context. ">
<polygon fill="white" stroke="red" points="202.5,-114.5 202.5,-133.5 309.5,-133.5 309.5,-114.5 202.5,-114.5"/>
<text text-anchor="middle" x="256" y="-121.5" font-family="Helvetica,sans-Serif" font-size="10.00">mutt_actx_add_body</text>
</a>
</g>
</g>
<!-- Node1&#45;&gt;Node13 -->
<g id="edge15" class="edge"><title>Node1&#45;&gt;Node13</title>
<path fill="none" stroke="midnightblue" d="M79.3331,-278.484C91.6838,-252.468 129.709,-179.653 184,-143 186.945,-141.012 190.089,-139.232 193.354,-137.637"/>
<polygon fill="midnightblue" stroke="midnightblue" points="194.977,-140.751 202.812,-133.619 192.239,-134.308 194.977,-140.751"/>
</g>
<!-- Node14 -->
<g id="node14" class="node"><title>Node14</title>
<g id="a_node14"><a xlink:href="memory_8c.html#a4c1612d209c7825d55e6a014df352f03" target="_top" xlink:title="Allocate zeroed memory on the heap. ">
<polygon fill="white" stroke="red" points="209,-76.5 209,-95.5 303,-95.5 303,-76.5 209,-76.5"/>
<text text-anchor="middle" x="256" y="-83.5" font-family="Helvetica,sans-Serif" font-size="10.00">mutt_mem_calloc</text>
</a>
</g>
</g>
<!-- Node1&#45;&gt;Node14 -->
<g id="edge17" class="edge"><title>Node1&#45;&gt;Node14</title>
<path fill="none" stroke="midnightblue" d="M77.8754,-278.267C87.4377,-247.648 121.178,-152.514 184,-105 188.516,-101.584 193.6,-98.782 198.919,-96.4828"/>
<polygon fill="midnightblue" stroke="midnightblue" points="200.516,-99.6234 208.675,-92.8642 198.082,-93.0602 200.516,-99.6234"/>
</g>
<!-- Node15 -->
<g id="node15" class="node"><title>Node15</title>
<g id="a_node15"><a xlink:href="attach_8c.html#a1ac389e189d5c0cbb84711076812f103" target="_top" xlink:title="Add an Attachment to an Attachment Context. ">
<polygon fill="white" stroke="red" points="199.5,-38.5 199.5,-57.5 312.5,-57.5 312.5,-38.5 199.5,-38.5"/>
<text text-anchor="middle" x="256" y="-45.5" font-family="Helvetica,sans-Serif" font-size="10.00">mutt_actx_add_attach</text>
</a>
</g>
</g>
<!-- Node1&#45;&gt;Node15 -->
<g id="edge18" class="edge"><title>Node1&#45;&gt;Node15</title>
<path fill="none" stroke="midnightblue" d="M76.8212,-278.275C83.8128,-243.733 112.227,-125.88 184,-67 186.072,-65.3005 188.281,-63.7519 190.592,-62.341"/>
<polygon fill="midnightblue" stroke="midnightblue" points="192.629,-65.2301 199.93,-57.5531 189.435,-59.0011 192.629,-65.2301"/>
</g>
<!-- Node16 -->
<g id="node16" class="node"><title>Node16</title>
<g id="a_node16"><a xlink:href="parse_8c.html#adcc90fb584fec1be116777c533e9b3d4" target="_top" xlink:title="Determine if a mime type matches a message or not. ">
<polygon fill="white" stroke="black" points="197,-0.5 197,-19.5 315,-19.5 315,-0.5 197,-0.5"/>
<text text-anchor="middle" x="256" y="-7.5" font-family="Helvetica,sans-Serif" font-size="10.00">mutt_is_message_type</text>
</a>
</g>
</g>
<!-- Node1&#45;&gt;Node16 -->
<g id="edge19" class="edge"><title>Node1&#45;&gt;Node16</title>
<path fill="none" stroke="midnightblue" d="M76.0606,-278.259C80.7466,-240.113 103.096,-99.5244 184,-29 185.936,-27.3126 188.006,-25.7731 190.177,-24.3686"/>
<polygon fill="midnightblue" stroke="midnightblue" points="191.862,-27.4366 198.985,-19.5939 188.526,-21.2826 191.862,-27.4366"/>
</g>
<!-- Node2&#45;&gt;Node3 -->
<g id="edge2" class="edge"><title>Node2&#45;&gt;Node3</title>
<path fill="none" stroke="midnightblue" d="M306.669,-563.427C314.555,-559.412 322.058,-554.352 328,-548 394.175,-477.268 411.984,-355.457 416.528,-307.867"/>
<polygon fill="midnightblue" stroke="midnightblue" points="420.035,-307.942 417.402,-297.68 413.06,-307.344 420.035,-307.942"/>
</g>
<!-- Node7&#45;&gt;Node7 -->
<g id="edge7" class="edge"><title>Node7&#45;&gt;Node7</title>
<path fill="none" stroke="midnightblue" d="M231.031,-373.757C218.884,-382.565 227.207,-392 256,-392 275.345,-392 285.45,-387.741 286.314,-382.275"/>
<polygon fill="midnightblue" stroke="midnightblue" points="289.249,-380.367 280.969,-373.757 283.32,-384.088 289.249,-380.367"/>
</g>
<!-- Node9&#45;&gt;Node3 -->
<g id="edge10" class="edge"><title>Node9&#45;&gt;Node3</title>
<path fill="none" stroke="midnightblue" d="M326.213,-288C335.501,-288 344.994,-288 354.184,-288"/>
<polygon fill="midnightblue" stroke="midnightblue" points="354.403,-291.5 364.403,-288 354.403,-284.5 354.403,-291.5"/>
</g>
<!-- Node10&#45;&gt;Node3 -->
<g id="edge12" class="edge"><title>Node10&#45;&gt;Node3</title>
<path fill="none" stroke="midnightblue" d="M311.957,-259.019C331.879,-264.464 354.129,-270.545 373.084,-275.725"/>
<polygon fill="midnightblue" stroke="midnightblue" points="372.383,-279.162 382.952,-278.422 374.229,-272.409 372.383,-279.162"/>
</g>
<!-- Node16&#45;&gt;Node3 -->
<g id="edge20" class="edge"><title>Node16&#45;&gt;Node3</title>
<path fill="none" stroke="midnightblue" d="M313.968,-19.6446C319.092,-22.1076 323.888,-25.1774 328,-29 399.011,-95.0104 413.997,-219.925 417.157,-268.233"/>
<polygon fill="midnightblue" stroke="midnightblue" points="413.667,-268.513 417.712,-278.305 420.656,-268.128 413.667,-268.513"/>
</g>
</g>
</svg>
