<?xml version="1.0" encoding="UTF-8" standalone="no"?>
<!DOCTYPE svg PUBLIC "-//W3C//DTD SVG 1.1//EN"
 "http://www.w3.org/Graphics/SVG/1.1/DTD/svg11.dtd">
<!-- Generated by graphviz version 2.36.0 (20140111.2315)
 -->
<!-- Title: include_header Pages: 1 -->
<svg width="372pt" height="80pt"
 viewBox="0.00 0.00 372.00 79.91" xmlns="http://www.w3.org/2000/svg" xmlns:xlink="http://www.w3.org/1999/xlink">
<g id="graph0" class="graph" transform="scale(1 1) rotate(0) translate(4 75.9085)">
<title>include_header</title>
<polygon fill="white" stroke="none" points="-4,4 -4,-75.9085 368,-75.9085 368,4 -4,4"/>
<!-- Node1 -->
<g id="node1" class="node"><title>Node1</title>
<polygon fill="#bfbfbf" stroke="black" points="0,-38.5 0,-57.5 82,-57.5 82,-38.5 0,-38.5"/>
<text text-anchor="middle" x="41" y="-45.5" font-family="Helvetica,sans-Serif" font-size="10.00">include_header</text>
</g>
<!-- Node2 -->
<g id="node2" class="node"><title>Node2</title>
<g id="a_node2"><a xlink:href="mutt_2string_8c.html#a3b8965b21d6e21536750f8883cd4333a" target="_top" xlink:title="Copy a string into a buffer (guaranteeing NUL&#45;termination) ">
<polygon fill="white" stroke="black" points="276,-38.5 276,-57.5 364,-57.5 364,-38.5 276,-38.5"/>
<text text-anchor="middle" x="320" y="-45.5" font-family="Helvetica,sans-Serif" font-size="10.00">mutt_str_strfcpy</text>
</a>
</g>
</g>
<!-- Node1&#45;&gt;Node2 -->
<g id="edge1" class="edge"><title>Node1&#45;&gt;Node2</title>
<path fill="none" stroke="midnightblue" d="M72.7372,-57.5053C86.4449,-61.2695 102.882,-65.1388 118,-67 171.816,-73.625 186.155,-73.384 240,-67 252.257,-65.5467 265.365,-62.8673 277.309,-59.9695"/>
<polygon fill="midnightblue" stroke="midnightblue" points="278.192,-63.3566 287.025,-57.5063 276.471,-56.5713 278.192,-63.3566"/>
</g>
<!-- Node3 -->
<g id="node3" class="node"><title>Node3</title>
<g id="a_node3"><a xlink:href="hdrline_8c.html#a6de0878ccf20f84d785878dad420eef0" target="_top" xlink:title="Create formatted strings using mailbox expandos. ">
<polygon fill="white" stroke="red" points="118.5,-38.5 118.5,-57.5 239.5,-57.5 239.5,-38.5 118.5,-38.5"/>
<text text-anchor="middle" x="179" y="-45.5" font-family="Helvetica,sans-Serif" font-size="10.00">mutt_make_string_flags</text>
</a>
</g>
</g>
<!-- Node1&#45;&gt;Node3 -->
<g id="edge2" class="edge"><title>Node1&#45;&gt;Node3</title>
<path fill="none" stroke="midnightblue" d="M82.0689,-48C90.3235,-48 99.2427,-48 108.204,-48"/>
<polygon fill="midnightblue" stroke="midnightblue" points="108.305,-51.5001 118.305,-48 108.305,-44.5001 108.305,-51.5001"/>
</g>
<!-- Node4 -->
<g id="node4" class="node"><title>Node4</title>
<g id="a_node4"><a xlink:href="copy_8c.html#abab1732612a46d6e72e452b7ffef1b82" target="_top" xlink:title="Copy email header. ">
<polygon fill="white" stroke="red" points="130.5,-0.5 130.5,-19.5 227.5,-19.5 227.5,-0.5 130.5,-0.5"/>
<text text-anchor="middle" x="179" y="-7.5" font-family="Helvetica,sans-Serif" font-size="10.00">mutt_copy_header</text>
</a>
</g>
</g>
<!-- Node1&#45;&gt;Node4 -->
<g id="edge3" class="edge"><title>Node1&#45;&gt;Node4</title>
<path fill="none" stroke="midnightblue" d="M76.3185,-38.411C93.7943,-33.5281 115.241,-27.5357 133.925,-22.315"/>
<polygon fill="midnightblue" stroke="midnightblue" points="135.003,-25.6479 143.692,-19.5859 133.119,-18.9062 135.003,-25.6479"/>
</g>
<!-- Node4&#45;&gt;Node2 -->
<g id="edge4" class="edge"><title>Node4&#45;&gt;Node2</title>
<path fill="none" stroke="midnightblue" d="M215.076,-19.589C233.019,-24.4944 255.058,-30.5196 274.217,-35.7571"/>
<polygon fill="midnightblue" stroke="midnightblue" points="273.367,-39.1531 283.936,-38.4141 275.213,-32.4008 273.367,-39.1531"/>
</g>
</g>
</svg>
