<?xml version="1.0" encoding="UTF-8" standalone="no"?>
<!DOCTYPE svg PUBLIC "-//W3C//DTD SVG 1.1//EN"
 "http://www.w3.org/Graphics/SVG/1.1/DTD/svg11.dtd">
<!-- Generated by graphviz version 2.36.0 (20140111.2315)
 -->
<!-- Title: mutt_save_attachment_list Pages: 1 -->
<svg width="598pt" height="390pt"
 viewBox="0.00 0.00 598.00 390.14" xmlns="http://www.w3.org/2000/svg" xmlns:xlink="http://www.w3.org/1999/xlink">
<g id="graph0" class="graph" transform="scale(1 1) rotate(0) translate(4 386.14)">
<title>mutt_save_attachment_list</title>
<polygon fill="white" stroke="none" points="-4,4 -4,-386.14 594,-386.14 594,4 -4,4"/>
<!-- Node1 -->
<g id="node1" class="node"><title>Node1</title>
<polygon fill="#bfbfbf" stroke="black" points="0,-171.5 0,-190.5 134,-190.5 134,-171.5 0,-171.5"/>
<text text-anchor="middle" x="67" y="-178.5" font-family="Helvetica,sans-Serif" font-size="10.00">mutt_save_attachment_list</text>
</g>
<!-- Node2 -->
<g id="node2" class="node"><title>Node2</title>
<g id="a_node2"><a xlink:href="mutt_2string_8c.html#a3b8965b21d6e21536750f8883cd4333a" target="_top" xlink:title="Copy a string into a buffer (guaranteeing NUL&#45;termination) ">
<polygon fill="white" stroke="black" points="491,-190.5 491,-209.5 579,-209.5 579,-190.5 491,-190.5"/>
<text text-anchor="middle" x="535" y="-197.5" font-family="Helvetica,sans-Serif" font-size="10.00">mutt_str_strfcpy</text>
</a>
</g>
</g>
<!-- Node1&#45;&gt;Node2 -->
<g id="edge1" class="edge"><title>Node1&#45;&gt;Node2</title>
<path fill="none" stroke="midnightblue" d="M134.099,-176.862C209.364,-173.108 335.9,-169.714 444,-181 458.315,-182.495 473.705,-185.292 487.639,-188.289"/>
<polygon fill="midnightblue" stroke="midnightblue" points="486.969,-191.725 497.492,-190.491 488.496,-184.894 486.969,-191.725"/>
</g>
<!-- Node3 -->
<g id="node3" class="node"><title>Node3</title>
<g id="a_node3"><a xlink:href="mutt_2path_8c.html#a39d221597eb8f311c7cdaa7261a6319b" target="_top" xlink:title="Find the last component for a pathname. ">
<polygon fill="white" stroke="black" points="480,-266.5 480,-285.5 590,-285.5 590,-266.5 480,-266.5"/>
<text text-anchor="middle" x="535" y="-273.5" font-family="Helvetica,sans-Serif" font-size="10.00">mutt_path_basename</text>
</a>
</g>
</g>
<!-- Node1&#45;&gt;Node3 -->
<g id="edge2" class="edge"><title>Node1&#45;&gt;Node3</title>
<path fill="none" stroke="midnightblue" d="M72.0714,-190.848C83.4263,-217.072 118.059,-289.106 170,-326 229.526,-368.282 255.687,-360.903 328,-371 379.06,-378.129 396.64,-391.371 444,-371 480.158,-355.447 508.596,-317.435 523.202,-294.486"/>
<polygon fill="midnightblue" stroke="midnightblue" points="526.356,-296.038 528.598,-285.682 520.388,-292.38 526.356,-296.038"/>
</g>
<!-- Node4 -->
<g id="node4" class="node"><title>Node4</title>
<g id="a_node4"><a xlink:href="recvattach_8c.html#a17d62226c10271b90c7054b5a5e806a1" target="_top" xlink:title="Add &#39;. ">
<polygon fill="white" stroke="black" points="346,-342.5 346,-361.5 426,-361.5 426,-342.5 346,-342.5"/>
<text text-anchor="middle" x="386" y="-349.5" font-family="Helvetica,sans-Serif" font-size="10.00">prepend_curdir</text>
</a>
</g>
</g>
<!-- Node1&#45;&gt;Node4 -->
<g id="edge3" class="edge"><title>Node1&#45;&gt;Node4</title>
<path fill="none" stroke="midnightblue" d="M74.3776,-190.798C88.7812,-212.138 126.022,-263.058 170,-290 221.738,-321.696 290.374,-337.795 336.03,-345.529"/>
<polygon fill="midnightblue" stroke="midnightblue" points="335.546,-348.997 345.978,-347.144 336.668,-342.087 335.546,-348.997"/>
</g>
<!-- Node5 -->
<g id="node5" class="node"><title>Node5</title>
<g id="a_node5"><a xlink:href="muttlib_8c.html#a483f037de523c624d449b4296a3ddfb2" target="_top" xlink:title="Create the canonical path. ">
<polygon fill="white" stroke="red" points="337.5,-304.5 337.5,-323.5 434.5,-323.5 434.5,-304.5 337.5,-304.5"/>
<text text-anchor="middle" x="386" y="-311.5" font-family="Helvetica,sans-Serif" font-size="10.00">mutt_expand_path</text>
</a>
</g>
</g>
<!-- Node1&#45;&gt;Node5 -->
<g id="edge4" class="edge"><title>Node1&#45;&gt;Node5</title>
<path fill="none" stroke="midnightblue" d="M78.1305,-190.675C95.527,-206.77 132.811,-239.047 170,-257 220.491,-281.375 282.867,-296.436 327.406,-304.907"/>
<polygon fill="midnightblue" stroke="midnightblue" points="327.005,-308.392 337.475,-306.768 328.277,-301.509 327.005,-308.392"/>
</g>
<!-- Node6 -->
<g id="node6" class="node"><title>Node6</title>
<g id="a_node6"><a xlink:href="muttlib_8c.html#afd093174cd5963b6dca62e043fcffaae" target="_top" xlink:title="Ask the user if overwriting is necessary. ">
<polygon fill="white" stroke="red" points="329.5,-190.5 329.5,-209.5 442.5,-209.5 442.5,-190.5 329.5,-190.5"/>
<text text-anchor="middle" x="386" y="-197.5" font-family="Helvetica,sans-Serif" font-size="10.00">mutt_check_overwrite</text>
</a>
</g>
</g>
<!-- Node1&#45;&gt;Node6 -->
<g id="edge5" class="edge"><title>Node1&#45;&gt;Node6</title>
<path fill="none" stroke="midnightblue" d="M134.068,-184.96C188.361,-188.214 264.897,-192.801 319.135,-196.052"/>
<polygon fill="midnightblue" stroke="midnightblue" points="319.14,-199.559 329.332,-196.663 319.559,-192.571 319.14,-199.559"/>
</g>
<!-- Node7 -->
<g id="node7" class="node"><title>Node7</title>
<g id="a_node7"><a xlink:href="mutt__attach_8c.html#a7eca34952ac9afff3ff8ac5706fa6bc8" target="_top" xlink:title="Save an attachment. ">
<polygon fill="white" stroke="red" points="328,-114.5 328,-133.5 444,-133.5 444,-114.5 328,-114.5"/>
<text text-anchor="middle" x="386" y="-121.5" font-family="Helvetica,sans-Serif" font-size="10.00">mutt_save_attachment</text>
</a>
</g>
</g>
<!-- Node1&#45;&gt;Node7 -->
<g id="edge8" class="edge"><title>Node1&#45;&gt;Node7</title>
<path fill="none" stroke="midnightblue" d="M92.7658,-171.431C113.187,-163.921 143.071,-153.797 170,-148 218.948,-137.463 275.221,-131.392 317.916,-127.993"/>
<polygon fill="midnightblue" stroke="midnightblue" points="318.209,-131.481 327.912,-127.226 317.673,-124.501 318.209,-131.481"/>
</g>
<!-- Node8 -->
<g id="node8" class="node"><title>Node8</title>
<g id="a_node8"><a xlink:href="file_8c.html#a4982d9040dfaf38e847729be2af83ed6" target="_top" xlink:title="Close a FILE handle (and NULL the pointer) ">
<polygon fill="white" stroke="black" points="492,-95.5 492,-114.5 578,-114.5 578,-95.5 492,-95.5"/>
<text text-anchor="middle" x="535" y="-102.5" font-family="Helvetica,sans-Serif" font-size="10.00">mutt_file_fclose</text>
</a>
</g>
</g>
<!-- Node1&#45;&gt;Node8 -->
<g id="edge10" class="edge"><title>Node1&#45;&gt;Node8</title>
<path fill="none" stroke="midnightblue" d="M81.7886,-171.441C100.736,-158.817 136.315,-136.914 170,-126 276.468,-91.504 409.497,-94.6401 481.614,-99.8818"/>
<polygon fill="midnightblue" stroke="midnightblue" points="481.563,-103.388 491.802,-100.666 482.1,-96.4088 481.563,-103.388"/>
</g>
<!-- Node9 -->
<g id="node9" class="node"><title>Node9</title>
<g id="a_node9"><a xlink:href="menu_8c.html#a71465e725b041bc3175323d0210f69ca" target="_top" xlink:title="Recentre the menu on screen. ">
<polygon fill="white" stroke="black" points="329.5,-19.5 329.5,-38.5 442.5,-38.5 442.5,-19.5 329.5,-19.5"/>
<text text-anchor="middle" x="386" y="-26.5" font-family="Helvetica,sans-Serif" font-size="10.00">menu_check_recenter</text>
</a>
</g>
</g>
<!-- Node1&#45;&gt;Node9 -->
<g id="edge11" class="edge"><title>Node1&#45;&gt;Node9</title>
<path fill="none" stroke="midnightblue" d="M74.0058,-171.254C87.9303,-149.559 124.711,-97.2126 170,-72 215.82,-46.4914 274.591,-35.9847 319.102,-31.7208"/>
<polygon fill="midnightblue" stroke="midnightblue" points="319.575,-35.1929 329.232,-30.8339 318.964,-28.2195 319.575,-35.1929"/>
</g>
<!-- Node10 -->
<g id="node10" class="node"><title>Node10</title>
<g id="a_node10"><a xlink:href="menu_8c.html#a3da31793ff9ae935dccab75ae653a064" target="_top" xlink:title="Redraw the parts of the screen that have been flagged to be redrawn. ">
<polygon fill="white" stroke="red" points="193.5,-0.5 193.5,-19.5 268.5,-19.5 268.5,-0.5 193.5,-0.5"/>
<text text-anchor="middle" x="231" y="-7.5" font-family="Helvetica,sans-Serif" font-size="10.00">menu_redraw</text>
</a>
</g>
</g>
<!-- Node1&#45;&gt;Node10 -->
<g id="edge12" class="edge"><title>Node1&#45;&gt;Node10</title>
<path fill="none" stroke="midnightblue" d="M72.2511,-171.307C84.0523,-145.443 119.694,-74.0477 170,-34 175.011,-30.0106 180.772,-26.6068 186.698,-23.726"/>
<polygon fill="midnightblue" stroke="midnightblue" points="188.31,-26.8411 196.063,-19.6204 185.499,-20.4301 188.31,-26.8411"/>
</g>
<!-- Node11 -->
<g id="node11" class="node"><title>Node11</title>
<g id="a_node11"><a xlink:href="recvattach_8c.html#a52858af768d4460d586488eda40016c1" target="_top" xlink:title="Ask the user if we should save the attachment. ">
<polygon fill="white" stroke="red" points="170.5,-228.5 170.5,-247.5 291.5,-247.5 291.5,-228.5 170.5,-228.5"/>
<text text-anchor="middle" x="231" y="-235.5" font-family="Helvetica,sans-Serif" font-size="10.00">query_save_attachment</text>
</a>
</g>
</g>
<!-- Node1&#45;&gt;Node11 -->
<g id="edge14" class="edge"><title>Node1&#45;&gt;Node11</title>
<path fill="none" stroke="midnightblue" d="M95.1152,-190.541C121.982,-199.994 163.325,-214.54 193.158,-225.037"/>
<polygon fill="midnightblue" stroke="midnightblue" points="192.202,-228.411 202.796,-228.428 194.525,-221.808 192.202,-228.411"/>
</g>
<!-- Node6&#45;&gt;Node2 -->
<g id="edge6" class="edge"><title>Node6&#45;&gt;Node2</title>
<path fill="none" stroke="midnightblue" d="M442.574,-200C455.024,-200 468.205,-200 480.565,-200"/>
<polygon fill="midnightblue" stroke="midnightblue" points="480.721,-203.5 490.721,-200 480.721,-196.5 480.721,-203.5"/>
</g>
<!-- Node6&#45;&gt;Node3 -->
<g id="edge7" class="edge"><title>Node6&#45;&gt;Node3</title>
<path fill="none" stroke="midnightblue" d="M405.618,-209.625C431.132,-222.817 477.147,-246.607 506.6,-261.834"/>
<polygon fill="midnightblue" stroke="midnightblue" points="505.043,-264.969 515.534,-266.453 508.258,-258.751 505.043,-264.969"/>
</g>
<!-- Node7&#45;&gt;Node8 -->
<g id="edge9" class="edge"><title>Node7&#45;&gt;Node8</title>
<path fill="none" stroke="midnightblue" d="M444.255,-116.6C456.599,-115.004 469.587,-113.325 481.729,-111.756"/>
<polygon fill="midnightblue" stroke="midnightblue" points="482.228,-115.221 491.697,-110.468 481.331,-108.279 482.228,-115.221"/>
</g>
<!-- Node10&#45;&gt;Node9 -->
<g id="edge13" class="edge"><title>Node10&#45;&gt;Node9</title>
<path fill="none" stroke="midnightblue" d="M268.647,-14.551C283.797,-16.4323 301.84,-18.6729 319.142,-20.8216"/>
<polygon fill="midnightblue" stroke="midnightblue" points="318.861,-24.3135 329.216,-22.0726 319.724,-17.3669 318.861,-24.3135"/>
</g>
<!-- Node11&#45;&gt;Node2 -->
<g id="edge16" class="edge"><title>Node11&#45;&gt;Node2</title>
<path fill="none" stroke="midnightblue" d="M291.623,-234.554C334.23,-231.629 392.837,-226.666 444,-219 456.96,-217.058 470.86,-214.409 483.764,-211.705"/>
<polygon fill="midnightblue" stroke="midnightblue" points="484.82,-215.058 493.863,-209.538 483.351,-208.214 484.82,-215.058"/>
</g>
<!-- Node11&#45;&gt;Node3 -->
<g id="edge15" class="edge"><title>Node11&#45;&gt;Node3</title>
<path fill="none" stroke="midnightblue" d="M291.623,-246.967C303.657,-248.701 316.227,-250.456 328,-252 375.392,-258.215 429.026,-264.438 469.686,-268.989"/>
<polygon fill="midnightblue" stroke="midnightblue" points="469.405,-272.48 479.731,-270.11 470.181,-265.523 469.405,-272.48"/>
</g>
<!-- Node11&#45;&gt;Node4 -->
<g id="edge17" class="edge"><title>Node11&#45;&gt;Node4</title>
<path fill="none" stroke="midnightblue" d="M239.119,-247.534C253.734,-266.472 289.043,-309.064 328,-333 331.354,-335.061 334.957,-336.926 338.664,-338.61"/>
<polygon fill="midnightblue" stroke="midnightblue" points="337.426,-341.885 348.007,-342.428 340.074,-335.406 337.426,-341.885"/>
</g>
<!-- Node11&#45;&gt;Node5 -->
<g id="edge18" class="edge"><title>Node11&#45;&gt;Node5</title>
<path fill="none" stroke="midnightblue" d="M248.394,-247.519C267.304,-258.348 299.462,-276.304 328,-290 335.57,-293.633 343.834,-297.286 351.662,-300.608"/>
<polygon fill="midnightblue" stroke="midnightblue" points="350.341,-303.849 360.918,-304.472 353.038,-297.39 350.341,-303.849"/>
</g>
<!-- Node11&#45;&gt;Node6 -->
<g id="edge19" class="edge"><title>Node11&#45;&gt;Node6</title>
<path fill="none" stroke="midnightblue" d="M270.608,-228.411C290.707,-223.419 315.475,-217.268 336.819,-211.967"/>
<polygon fill="midnightblue" stroke="midnightblue" points="337.808,-215.327 346.669,-209.52 336.12,-208.534 337.808,-215.327"/>
</g>
<!-- Node11&#45;&gt;Node7 -->
<g id="edge20" class="edge"><title>Node11&#45;&gt;Node7</title>
<path fill="none" stroke="midnightblue" d="M244.782,-228.477C271.041,-208.911 331.301,-164.011 363.61,-139.937"/>
<polygon fill="midnightblue" stroke="midnightblue" points="366.003,-142.519 371.931,-133.738 361.82,-136.906 366.003,-142.519"/>
</g>
</g>
</svg>
