<?xml version="1.0" encoding="UTF-8" standalone="no"?>
<!DOCTYPE svg PUBLIC "-//W3C//DTD SVG 1.1//EN"
 "http://www.w3.org/Graphics/SVG/1.1/DTD/svg11.dtd">
<!-- Generated by graphviz version 2.36.0 (20140111.2315)
 -->
<!-- Title: mutt_attach_bounce Pages: 1 -->
<svg width="374pt" height="47pt"
 viewBox="0.00 0.00 374.00 47.00" xmlns="http://www.w3.org/2000/svg" xmlns:xlink="http://www.w3.org/1999/xlink">
<g id="graph0" class="graph" transform="scale(1 1) rotate(0) translate(4 43)">
<title>mutt_attach_bounce</title>
<polygon fill="white" stroke="none" points="-4,4 -4,-43 370,-43 370,4 -4,4"/>
<!-- Node1 -->
<g id="node1" class="node"><title>Node1</title>
<polygon fill="#bfbfbf" stroke="black" points="0.5,-19.5 0.5,-38.5 105.5,-38.5 105.5,-19.5 0.5,-19.5"/>
<text text-anchor="middle" x="53" y="-26.5" font-family="Helvetica,sans-Serif" font-size="10.00">mutt_attach_bounce</text>
</g>
<!-- Node2 -->
<g id="node2" class="node"><title>Node2</title>
<g id="a_node2"><a xlink:href="pager_8h.html#a1f4fb11389135c8767d9c4adca46f0d4" target="_top" xlink:title="Display a file, or help, in a window. ">
<polygon fill="white" stroke="red" points="300.5,-19.5 300.5,-38.5 365.5,-38.5 365.5,-19.5 300.5,-19.5"/>
<text text-anchor="middle" x="333" y="-26.5" font-family="Helvetica,sans-Serif" font-size="10.00">mutt_pager</text>
</a>
</g>
</g>
<!-- Node1&#45;&gt;Node2 -->
<g id="edge1" class="edge"><title>Node1&#45;&gt;Node2</title>
<path fill="none" stroke="midnightblue" d="M115.982,-29C173.034,-29 255.381,-29 300.128,-29"/>
<polygon fill="midnightblue" stroke="midnightblue" points="115.638,-25.5001 105.638,-29 115.638,-32.5001 115.638,-25.5001"/>
</g>
<!-- Node3 -->
<g id="node3" class="node"><title>Node3</title>
<g id="a_node3"><a xlink:href="recvattach_8h.html#a513215b1fd88e123dc01f6fa2b264594" target="_top" xlink:title="Show the attachments in a Menu. ">
<polygon fill="white" stroke="red" points="142.5,-0.5 142.5,-19.5 263.5,-19.5 263.5,-0.5 142.5,-0.5"/>
<text text-anchor="middle" x="203" y="-7.5" font-family="Helvetica,sans-Serif" font-size="10.00">mutt_view_attachments</text>
</a>
</g>
</g>
<!-- Node1&#45;&gt;Node3 -->
<g id="edge2" class="edge"><title>Node1&#45;&gt;Node3</title>
<path fill="none" stroke="midnightblue" d="M115.918,-21.051C124.686,-19.9254 133.687,-18.77 142.409,-17.6502"/>
<polygon fill="midnightblue" stroke="midnightblue" points="115.236,-17.6098 105.763,-22.3547 116.128,-24.5528 115.236,-17.6098"/>
</g>
<!-- Node3&#45;&gt;Node2 -->
<g id="edge3" class="edge"><title>Node3&#45;&gt;Node2</title>
<path fill="none" stroke="midnightblue" d="M273.609,-20.3325C282.898,-21.7115 292.029,-23.0669 300.211,-24.2812"/>
<polygon fill="midnightblue" stroke="midnightblue" points="273.909,-16.8388 263.503,-18.8325 272.881,-23.763 273.909,-16.8388"/>
</g>
</g>
</svg>
