<?xml version="1.0" encoding="UTF-8" standalone="no"?>
<!DOCTYPE svg PUBLIC "-//W3C//DTD SVG 1.1//EN"
 "http://www.w3.org/Graphics/SVG/1.1/DTD/svg11.dtd">
<!-- Generated by graphviz version 2.36.0 (20140111.2315)
 -->
<!-- Title: count_tagged Pages: 1 -->
<svg width="226pt" height="104pt"
 viewBox="0.00 0.00 226.00 104.00" xmlns="http://www.w3.org/2000/svg" xmlns:xlink="http://www.w3.org/1999/xlink">
<g id="graph0" class="graph" transform="scale(1 1) rotate(0) translate(4 100)">
<title>count_tagged</title>
<polygon fill="white" stroke="none" points="-4,4 -4,-100 222,-100 222,4 -4,4"/>
<!-- Node1 -->
<g id="node1" class="node"><title>Node1</title>
<polygon fill="#bfbfbf" stroke="black" points="0.5,-38.5 0.5,-57.5 75.5,-57.5 75.5,-38.5 0.5,-38.5"/>
<text text-anchor="middle" x="38" y="-45.5" font-family="Helvetica,sans-Serif" font-size="10.00">count_tagged</text>
</g>
<!-- Node2 -->
<g id="node2" class="node"><title>Node2</title>
<g id="a_node2"><a xlink:href="recvcmd_8h.html#a4894c4b5eb8d84ca5007940b13e5087e" target="_top" xlink:title="Bounce function, from the attachment menu. ">
<polygon fill="white" stroke="red" points="112.5,-76.5 112.5,-95.5 217.5,-95.5 217.5,-76.5 112.5,-76.5"/>
<text text-anchor="middle" x="165" y="-83.5" font-family="Helvetica,sans-Serif" font-size="10.00">mutt_attach_bounce</text>
</a>
</g>
</g>
<!-- Node1&#45;&gt;Node2 -->
<g id="edge1" class="edge"><title>Node1&#45;&gt;Node2</title>
<path fill="none" stroke="midnightblue" d="M80.2345,-60.5353C97.2393,-65.7048 116.629,-71.5991 132.467,-76.4141"/>
<polygon fill="midnightblue" stroke="midnightblue" points="81.1285,-57.149 70.5428,-57.589 79.0924,-63.8463 81.1285,-57.149"/>
</g>
<!-- Node3 -->
<g id="node3" class="node"><title>Node3</title>
<g id="a_node3"><a xlink:href="recvcmd_8h.html#ab8947a47dfe6e7998856eb3fcede1439" target="_top" xlink:title="Forward an Attachment. ">
<polygon fill="white" stroke="red" points="112,-38.5 112,-57.5 218,-57.5 218,-38.5 112,-38.5"/>
<text text-anchor="middle" x="165" y="-45.5" font-family="Helvetica,sans-Serif" font-size="10.00">mutt_attach_forward</text>
</a>
</g>
</g>
<!-- Node1&#45;&gt;Node3 -->
<g id="edge2" class="edge"><title>Node1&#45;&gt;Node3</title>
<path fill="none" stroke="midnightblue" d="M85.8612,-48C94.2883,-48 103.121,-48 111.69,-48"/>
<polygon fill="midnightblue" stroke="midnightblue" points="85.8281,-44.5001 75.828,-48 85.828,-51.5001 85.8281,-44.5001"/>
</g>
<!-- Node4 -->
<g id="node4" class="node"><title>Node4</title>
<g id="a_node4"><a xlink:href="recvcmd_8h.html#a40682fa92a787a3a065716d851677599" target="_top" xlink:title="Attach a reply. ">
<polygon fill="white" stroke="red" points="117.5,-0.5 117.5,-19.5 212.5,-19.5 212.5,-0.5 117.5,-0.5"/>
<text text-anchor="middle" x="165" y="-7.5" font-family="Helvetica,sans-Serif" font-size="10.00">mutt_attach_reply</text>
</a>
</g>
</g>
<!-- Node1&#45;&gt;Node4 -->
<g id="edge3" class="edge"><title>Node1&#45;&gt;Node4</title>
<path fill="none" stroke="midnightblue" d="M80.2345,-35.4647C97.2393,-30.2952 116.629,-24.4009 132.467,-19.5859"/>
<polygon fill="midnightblue" stroke="midnightblue" points="79.0924,-32.1537 70.5428,-38.411 81.1285,-38.851 79.0924,-32.1537"/>
</g>
</g>
</svg>
