<?xml version="1.0" encoding="UTF-8" standalone="no"?>
<!DOCTYPE svg PUBLIC "-//W3C//DTD SVG 1.1//EN"
 "http://www.w3.org/Graphics/SVG/1.1/DTD/svg11.dtd">
<!-- Generated by graphviz version 2.36.0 (20140111.2315)
 -->
<!-- Title: copy_problematic_attachments Pages: 1 -->
<svg width="312pt" height="66pt"
 viewBox="0.00 0.00 312.00 66.00" xmlns="http://www.w3.org/2000/svg" xmlns:xlink="http://www.w3.org/1999/xlink">
<g id="graph0" class="graph" transform="scale(1 1) rotate(0) translate(4 62)">
<title>copy_problematic_attachments</title>
<polygon fill="white" stroke="none" points="-4,4 -4,-62 308,-62 308,4 -4,4"/>
<!-- Node1 -->
<g id="node1" class="node"><title>Node1</title>
<polygon fill="#bfbfbf" stroke="black" points="0,-19.5 0,-38.5 152,-38.5 152,-19.5 0,-19.5"/>
<text text-anchor="middle" x="76" y="-26.5" font-family="Helvetica,sans-Serif" font-size="10.00">copy_problematic_attachments</text>
</g>
<!-- Node2 -->
<g id="node2" class="node"><title>Node2</title>
<g id="a_node2"><a xlink:href="recvcmd_8c.html#ad985f78448cd381d34cb45b710eddc90" target="_top" xlink:title="forward one or several MIME bodies ">
<polygon fill="white" stroke="red" points="188.5,-38.5 188.5,-57.5 303.5,-57.5 303.5,-38.5 188.5,-38.5"/>
<text text-anchor="middle" x="246" y="-45.5" font-family="Helvetica,sans-Serif" font-size="10.00">attach_forward_bodies</text>
</a>
</g>
</g>
<!-- Node1&#45;&gt;Node2 -->
<g id="edge1" class="edge"><title>Node1&#45;&gt;Node2</title>
<path fill="none" stroke="midnightblue" d="M162.152,-38.6303C171.018,-39.633 179.867,-40.6338 188.304,-41.588"/>
<polygon fill="midnightblue" stroke="midnightblue" points="162.485,-35.1457 152.155,-37.4997 161.699,-42.1014 162.485,-35.1457"/>
</g>
<!-- Node3 -->
<g id="node3" class="node"><title>Node3</title>
<g id="a_node3"><a xlink:href="recvcmd_8h.html#a40682fa92a787a3a065716d851677599" target="_top" xlink:title="Attach a reply. ">
<polygon fill="white" stroke="red" points="198.5,-0.5 198.5,-19.5 293.5,-19.5 293.5,-0.5 198.5,-0.5"/>
<text text-anchor="middle" x="246" y="-7.5" font-family="Helvetica,sans-Serif" font-size="10.00">mutt_attach_reply</text>
</a>
</g>
</g>
<!-- Node1&#45;&gt;Node3 -->
<g id="edge2" class="edge"><title>Node1&#45;&gt;Node3</title>
<path fill="none" stroke="midnightblue" d="M162.141,-19.3709C174.611,-17.9607 187.046,-16.5543 198.349,-15.276"/>
<polygon fill="midnightblue" stroke="midnightblue" points="161.699,-15.8986 152.155,-20.5003 162.485,-22.8543 161.699,-15.8986"/>
</g>
</g>
</svg>
