<?xml version="1.0" encoding="UTF-8" standalone="no"?>
<!DOCTYPE svg PUBLIC "-//W3C//DTD SVG 1.1//EN"
 "http://www.w3.org/Graphics/SVG/1.1/DTD/svg11.dtd">
<!-- Generated by graphviz version 2.36.0 (20140111.2315)
 -->
<!-- Title: regex_create Pages: 1 -->
<svg width="210pt" height="180pt"
 viewBox="0.00 0.00 210.00 180.00" xmlns="http://www.w3.org/2000/svg" xmlns:xlink="http://www.w3.org/1999/xlink">
<g id="graph0" class="graph" transform="scale(1 1) rotate(0) translate(4 176)">
<title>regex_create</title>
<polygon fill="white" stroke="none" points="-4,4 -4,-176 206,-176 206,4 -4,4"/>
<!-- Node1 -->
<g id="node1" class="node"><title>Node1</title>
<polygon fill="#bfbfbf" stroke="black" points="0.5,-76.5 0.5,-95.5 73.5,-95.5 73.5,-76.5 0.5,-76.5"/>
<text text-anchor="middle" x="37" y="-83.5" font-family="Helvetica,sans-Serif" font-size="10.00">regex_create</text>
</g>
<!-- Node2 -->
<g id="node2" class="node"><title>Node2</title>
<g id="a_node2"><a xlink:href="config_2regex_8c.html#a8aa6e89df1126458626f7217c9c6747a" target="_top" xlink:title="Set a Regex by string &#45; Implements cst_string_set. ">
<polygon fill="white" stroke="red" points="111.5,-152.5 111.5,-171.5 200.5,-171.5 200.5,-152.5 111.5,-152.5"/>
<text text-anchor="middle" x="156" y="-159.5" font-family="Helvetica,sans-Serif" font-size="10.00">regex_string_set</text>
</a>
</g>
</g>
<!-- Node1&#45;&gt;Node2 -->
<g id="edge1" class="edge"><title>Node1&#45;&gt;Node2</title>
<path fill="none" stroke="midnightblue" d="M56.3992,-102.868C70.374,-115.089 90.4595,-131.43 110,-143 115.838,-146.456 122.421,-149.608 128.715,-152.308"/>
<polygon fill="midnightblue" stroke="midnightblue" points="58.3414,-99.9111 48.5472,-95.871 53.6842,-105.137 58.3414,-99.9111"/>
</g>
<!-- Node3 -->
<g id="node3" class="node"><title>Node3</title>
<g id="a_node3"><a xlink:href="config_2regex_8c.html#a7ecbccf08fd5cd85c8f3c734d91c853d" target="_top" xlink:title="Set a Regex config item by Regex object &#45; Implements cst_native_set. ">
<polygon fill="white" stroke="red" points="110.5,-114.5 110.5,-133.5 201.5,-133.5 201.5,-114.5 110.5,-114.5"/>
<text text-anchor="middle" x="156" y="-121.5" font-family="Helvetica,sans-Serif" font-size="10.00">regex_native_set</text>
</a>
</g>
</g>
<!-- Node1&#45;&gt;Node3 -->
<g id="edge2" class="edge"><title>Node1&#45;&gt;Node3</title>
<path fill="none" stroke="midnightblue" d="M77.0424,-98.6804C92.8509,-103.815 110.799,-109.644 125.485,-114.414"/>
<polygon fill="midnightblue" stroke="midnightblue" points="78.1162,-95.3493 67.524,-95.589 75.9538,-102.007 78.1162,-95.3493"/>
</g>
<!-- Node4 -->
<g id="node4" class="node"><title>Node4</title>
<g id="a_node4"><a xlink:href="config_2regex_8c.html#ad7344b1ac14714c2e96844a49f454e58" target="_top" xlink:title="Reset a Regex to its initial value &#45; Implements cst_reset. ">
<polygon fill="white" stroke="red" points="122,-76.5 122,-95.5 190,-95.5 190,-76.5 122,-76.5"/>
<text text-anchor="middle" x="156" y="-83.5" font-family="Helvetica,sans-Serif" font-size="10.00">regex_reset</text>
</a>
</g>
</g>
<!-- Node1&#45;&gt;Node4 -->
<g id="edge3" class="edge"><title>Node1&#45;&gt;Node4</title>
<path fill="none" stroke="midnightblue" d="M84.0942,-86C96.7124,-86 110.138,-86 121.873,-86"/>
<polygon fill="midnightblue" stroke="midnightblue" points="83.7396,-82.5001 73.7396,-86 83.7396,-89.5001 83.7396,-82.5001"/>
</g>
<!-- Node5 -->
<g id="node5" class="node"><title>Node5</title>
<g id="a_node5"><a xlink:href="test_2config_2regex_8c.html#ab5935bf604cc953008fde261e13163b8" target="_top" xlink:title="test_native_set">
<polygon fill="white" stroke="red" points="114.5,-38.5 114.5,-57.5 197.5,-57.5 197.5,-38.5 114.5,-38.5"/>
<text text-anchor="middle" x="156" y="-45.5" font-family="Helvetica,sans-Serif" font-size="10.00">test_native_set</text>
</a>
</g>
</g>
<!-- Node1&#45;&gt;Node5 -->
<g id="edge4" class="edge"><title>Node1&#45;&gt;Node5</title>
<path fill="none" stroke="midnightblue" d="M77.0424,-73.3196C92.8509,-68.1852 110.799,-62.3559 125.485,-57.5859"/>
<polygon fill="midnightblue" stroke="midnightblue" points="75.9538,-69.9931 67.524,-76.411 78.1162,-76.6507 75.9538,-69.9931"/>
</g>
<!-- Node6 -->
<g id="node6" class="node"><title>Node6</title>
<g id="a_node6"><a xlink:href="test_2config_2regex_8c.html#a906a32278ed761fb29743aebd54e5bac" target="_top" xlink:title="test_validator">
<polygon fill="white" stroke="red" points="118.5,-0.5 118.5,-19.5 193.5,-19.5 193.5,-0.5 118.5,-0.5"/>
<text text-anchor="middle" x="156" y="-7.5" font-family="Helvetica,sans-Serif" font-size="10.00">test_validator</text>
</a>
</g>
</g>
<!-- Node1&#45;&gt;Node6 -->
<g id="edge5" class="edge"><title>Node1&#45;&gt;Node6</title>
<path fill="none" stroke="midnightblue" d="M56.3992,-69.1316C70.374,-56.9105 90.4595,-40.5696 110,-29 115.838,-25.5436 122.421,-22.3919 128.715,-19.6922"/>
<polygon fill="midnightblue" stroke="midnightblue" points="53.6842,-66.8629 48.5472,-76.129 58.3414,-72.0889 53.6842,-66.8629"/>
</g>
</g>
</svg>
