<?xml version="1.0" encoding="UTF-8" standalone="no"?>
<!DOCTYPE svg PUBLIC "-//W3C//DTD SVG 1.1//EN"
 "http://www.w3.org/Graphics/SVG/1.1/DTD/svg11.dtd">
<!-- Generated by graphviz version 2.36.0 (20140111.2315)
 -->
<!-- Title: mix_redraw_head Pages: 1 -->
<svg width="258pt" height="66pt"
 viewBox="0.00 0.00 258.00 66.00" xmlns="http://www.w3.org/2000/svg" xmlns:xlink="http://www.w3.org/1999/xlink">
<g id="graph0" class="graph" transform="scale(1 1) rotate(0) translate(4 62)">
<title>mix_redraw_head</title>
<polygon fill="white" stroke="none" points="-4,4 -4,-62 254,-62 254,4 -4,4"/>
<!-- Node1 -->
<g id="node1" class="node"><title>Node1</title>
<polygon fill="#bfbfbf" stroke="black" points="0.5,-19.5 0.5,-38.5 93.5,-38.5 93.5,-19.5 0.5,-19.5"/>
<text text-anchor="middle" x="47" y="-26.5" font-family="Helvetica,sans-Serif" font-size="10.00">mix_redraw_head</text>
</g>
<!-- Node2 -->
<g id="node2" class="node"><title>Node2</title>
<g id="a_node2"><a xlink:href="mutt__window_8c.html#ae914e6b3e3ce0857086ec112e26fa568" target="_top" xlink:title="Move the cursor and write a formatted string to a Window. ">
<polygon fill="white" stroke="red" points="130.5,-38.5 130.5,-57.5 249.5,-57.5 249.5,-38.5 130.5,-38.5"/>
<text text-anchor="middle" x="190" y="-45.5" font-family="Helvetica,sans-Serif" font-size="10.00">mutt_window_mvprintw</text>
</a>
</g>
</g>
<!-- Node1&#45;&gt;Node2 -->
<g id="edge1" class="edge"><title>Node1&#45;&gt;Node2</title>
<path fill="none" stroke="midnightblue" d="M93.7787,-35.1688C102.25,-36.3103 111.267,-37.5254 120.246,-38.7353"/>
<polygon fill="midnightblue" stroke="midnightblue" points="119.959,-42.2281 130.337,-40.095 120.894,-35.2908 119.959,-42.2281"/>
</g>
<!-- Node3 -->
<g id="node3" class="node"><title>Node3</title>
<g id="a_node3"><a xlink:href="mutt__window_8c.html#ae2ba61d0bc2413c09e6a12f1fe345ab4" target="_top" xlink:title="Clear to the end of the line. ">
<polygon fill="white" stroke="black" points="134.5,-0.5 134.5,-19.5 245.5,-19.5 245.5,-0.5 134.5,-0.5"/>
<text text-anchor="middle" x="190" y="-7.5" font-family="Helvetica,sans-Serif" font-size="10.00">mutt_window_clrtoeol</text>
</a>
</g>
</g>
<!-- Node1&#45;&gt;Node3 -->
<g id="edge2" class="edge"><title>Node1&#45;&gt;Node3</title>
<path fill="none" stroke="midnightblue" d="M93.7787,-22.8312C103.428,-21.531 113.785,-20.1353 123.988,-18.7605"/>
<polygon fill="midnightblue" stroke="midnightblue" points="124.664,-22.2011 134.107,-17.3969 123.729,-15.2638 124.664,-22.2011"/>
</g>
</g>
</svg>
