<?xml version="1.0" encoding="UTF-8" standalone="no"?>
<!DOCTYPE svg PUBLIC "-//W3C//DTD SVG 1.1//EN"
 "http://www.w3.org/Graphics/SVG/1.1/DTD/svg11.dtd">
<!-- Generated by graphviz version 2.36.0 (20140111.2315)
 -->
<!-- Title: mutt_resize_screen Pages: 1 -->
<svg width="252pt" height="142pt"
 viewBox="0.00 0.00 252.00 142.00" xmlns="http://www.w3.org/2000/svg" xmlns:xlink="http://www.w3.org/1999/xlink">
<g id="graph0" class="graph" transform="scale(1 1) rotate(0) translate(4 138)">
<title>mutt_resize_screen</title>
<polygon fill="white" stroke="none" points="-4,4 -4,-138 248,-138 248,4 -4,4"/>
<!-- Node1 -->
<g id="node1" class="node"><title>Node1</title>
<polygon fill="#bfbfbf" stroke="black" points="0,-57.5 0,-76.5 102,-76.5 102,-57.5 0,-57.5"/>
<text text-anchor="middle" x="51" y="-64.5" font-family="Helvetica,sans-Serif" font-size="10.00">mutt_resize_screen</text>
</g>
<!-- Node2 -->
<g id="node2" class="node"><title>Node2</title>
<g id="a_node2"><a xlink:href="resize_8c.html#acd6f60d2ef7a1589ee57d17838ba0d5f" target="_top" xlink:title="Use an ioctl to get the window size. ">
<polygon fill="white" stroke="black" points="144.5,-114.5 144.5,-133.5 237.5,-133.5 237.5,-114.5 144.5,-114.5"/>
<text text-anchor="middle" x="191" y="-121.5" font-family="Helvetica,sans-Serif" font-size="10.00">mutt_get_winsize</text>
</a>
</g>
</g>
<!-- Node1&#45;&gt;Node2 -->
<g id="edge1" class="edge"><title>Node1&#45;&gt;Node2</title>
<path fill="none" stroke="midnightblue" d="M72.6906,-76.6004C90.0099,-84.5257 115.442,-95.9067 138,-105 142.889,-106.971 148.07,-108.969 153.193,-110.893"/>
<polygon fill="midnightblue" stroke="midnightblue" points="152.289,-114.29 162.882,-114.473 154.716,-107.724 152.289,-114.29"/>
</g>
<!-- Node3 -->
<g id="node3" class="node"><title>Node3</title>
<g id="a_node3"><a xlink:href="mutt_2string_8c.html#ad000586e39822e85693adda33c02e485" target="_top" xlink:title="Get an environment variable. ">
<polygon fill="white" stroke="black" points="147.5,-76.5 147.5,-95.5 234.5,-95.5 234.5,-76.5 147.5,-76.5"/>
<text text-anchor="middle" x="191" y="-83.5" font-family="Helvetica,sans-Serif" font-size="10.00">mutt_str_getenv</text>
</a>
</g>
</g>
<!-- Node1&#45;&gt;Node3 -->
<g id="edge2" class="edge"><title>Node1&#45;&gt;Node3</title>
<path fill="none" stroke="midnightblue" d="M102.212,-73.9132C113.656,-75.4888 125.846,-77.1673 137.388,-78.7563"/>
<polygon fill="midnightblue" stroke="midnightblue" points="136.944,-82.2281 147.328,-80.1249 137.899,-75.2936 136.944,-82.2281"/>
</g>
<!-- Node4 -->
<g id="node4" class="node"><title>Node4</title>
<g id="a_node4"><a xlink:href="mutt_2string_8c.html#a28ed71d2f686113e100516424be6ac42" target="_top" xlink:title="Convert ASCII string to an integer. ">
<polygon fill="white" stroke="red" points="154,-38.5 154,-57.5 228,-57.5 228,-38.5 154,-38.5"/>
<text text-anchor="middle" x="191" y="-45.5" font-family="Helvetica,sans-Serif" font-size="10.00">mutt_str_atoi</text>
</a>
</g>
</g>
<!-- Node1&#45;&gt;Node4 -->
<g id="edge3" class="edge"><title>Node1&#45;&gt;Node4</title>
<path fill="none" stroke="midnightblue" d="M102.212,-60.0868C115.845,-58.2098 130.538,-56.1868 143.93,-54.343"/>
<polygon fill="midnightblue" stroke="midnightblue" points="144.45,-57.8045 153.879,-52.9732 143.495,-50.87 144.45,-57.8045"/>
</g>
<!-- Node5 -->
<g id="node5" class="node"><title>Node5</title>
<g id="a_node5"><a xlink:href="mutt__window_8c.html#aeff3b6bc4a89ec53751b8a8ed3704533" target="_top" xlink:title="Resize the Windows to fit the screen. ">
<polygon fill="white" stroke="red" points="138,-0.5 138,-19.5 244,-19.5 244,-0.5 138,-0.5"/>
<text text-anchor="middle" x="191" y="-7.5" font-family="Helvetica,sans-Serif" font-size="10.00">mutt_window_reflow</text>
</a>
</g>
</g>
<!-- Node1&#45;&gt;Node5 -->
<g id="edge4" class="edge"><title>Node1&#45;&gt;Node5</title>
<path fill="none" stroke="midnightblue" d="M72.6906,-57.3996C90.0099,-49.4743 115.442,-38.0933 138,-29 142.889,-27.0292 148.07,-25.0307 153.193,-23.107"/>
<polygon fill="midnightblue" stroke="midnightblue" points="154.716,-26.2758 162.882,-19.5265 152.289,-19.7098 154.716,-26.2758"/>
</g>
</g>
</svg>
