<?xml version="1.0" encoding="UTF-8" standalone="no"?>
<!DOCTYPE svg PUBLIC "-//W3C//DTD SVG 1.1//EN"
 "http://www.w3.org/Graphics/SVG/1.1/DTD/svg11.dtd">
<!-- Generated by graphviz version 2.36.0 (20140111.2315)
 -->
<!-- Title: rfc1524_free_entry Pages: 1 -->
<svg width="278pt" height="218pt"
 viewBox="0.00 0.00 278.00 218.00" xmlns="http://www.w3.org/2000/svg" xmlns:xlink="http://www.w3.org/1999/xlink">
<g id="graph0" class="graph" transform="scale(1 1) rotate(0) translate(4 214)">
<title>rfc1524_free_entry</title>
<polygon fill="white" stroke="none" points="-4,4 -4,-214 274,-214 274,4 -4,4"/>
<!-- Node1 -->
<g id="node1" class="node"><title>Node1</title>
<polygon fill="#bfbfbf" stroke="black" points="0,-95.5 0,-114.5 98,-114.5 98,-95.5 0,-95.5"/>
<text text-anchor="middle" x="49" y="-102.5" font-family="Helvetica,sans-Serif" font-size="10.00">rfc1524_free_entry</text>
</g>
<!-- Node2 -->
<g id="node2" class="node"><title>Node2</title>
<g id="a_node2"><a xlink:href="handler_8c.html#a4019b110ff53c32c7779c33209b7ebb1" target="_top" xlink:title="Handler for autoviewable attachments &#45; Implements handler_t. ">
<polygon fill="white" stroke="red" points="156,-190.5 156,-209.5 248,-209.5 248,-190.5 156,-190.5"/>
<text text-anchor="middle" x="202" y="-197.5" font-family="Helvetica,sans-Serif" font-size="10.00">autoview_handler</text>
</a>
</g>
</g>
<!-- Node1&#45;&gt;Node2 -->
<g id="edge1" class="edge"><title>Node1&#45;&gt;Node2</title>
<path fill="none" stroke="midnightblue" d="M64.7613,-122.387C80.3159,-139.649 106.354,-165.685 134,-181 140.875,-184.808 148.577,-187.908 156.245,-190.412"/>
<polygon fill="midnightblue" stroke="midnightblue" points="67.2376,-119.903 58.0064,-114.703 61.9803,-124.525 67.2376,-119.903"/>
</g>
<!-- Node3 -->
<g id="node3" class="node"><title>Node3</title>
<g id="a_node3"><a xlink:href="mutt__attach_8h.html#ac18a72e3cc5fd8ed7b255817efe0fb3d" target="_top" xlink:title="Get a temporary copy of an attachment. ">
<polygon fill="white" stroke="red" points="136.5,-152.5 136.5,-171.5 267.5,-171.5 267.5,-152.5 136.5,-152.5"/>
<text text-anchor="middle" x="202" y="-159.5" font-family="Helvetica,sans-Serif" font-size="10.00">mutt_get_tmp_attachment</text>
</a>
</g>
</g>
<!-- Node1&#45;&gt;Node3 -->
<g id="edge2" class="edge"><title>Node1&#45;&gt;Node3</title>
<path fill="none" stroke="midnightblue" d="M78.379,-119.11C94.4551,-126.778 115.078,-136.08 134,-143 143.425,-146.447 153.781,-149.655 163.474,-152.418"/>
<polygon fill="midnightblue" stroke="midnightblue" points="79.5393,-115.783 69.0128,-114.582 76.4926,-122.085 79.5393,-115.783"/>
</g>
<!-- Node4 -->
<g id="node4" class="node"><title>Node4</title>
<g id="a_node4"><a xlink:href="mutt__attach_8h.html#acf4b24753bffc9e93f0ec9c157c850fe" target="_top" xlink:title="Create an attachment. ">
<polygon fill="white" stroke="red" points="134.5,-114.5 134.5,-133.5 269.5,-133.5 269.5,-114.5 134.5,-114.5"/>
<text text-anchor="middle" x="202" y="-121.5" font-family="Helvetica,sans-Serif" font-size="10.00">mutt_compose_attachment</text>
</a>
</g>
</g>
<!-- Node1&#45;&gt;Node4 -->
<g id="edge3" class="edge"><title>Node1&#45;&gt;Node4</title>
<path fill="none" stroke="midnightblue" d="M108.36,-112.343C116.845,-113.411 125.635,-114.517 134.27,-115.604"/>
<polygon fill="midnightblue" stroke="midnightblue" points="108.551,-108.84 98.1925,-111.064 107.677,-115.785 108.551,-108.84"/>
</g>
<!-- Node5 -->
<g id="node5" class="node"><title>Node5</title>
<g id="a_node5"><a xlink:href="mutt__attach_8h.html#adef1563a136b685ed418f12a6228ef42" target="_top" xlink:title="Edit an attachment. ">
<polygon fill="white" stroke="red" points="146.5,-76.5 146.5,-95.5 257.5,-95.5 257.5,-76.5 146.5,-76.5"/>
<text text-anchor="middle" x="202" y="-83.5" font-family="Helvetica,sans-Serif" font-size="10.00">mutt_edit_attachment</text>
</a>
</g>
</g>
<!-- Node1&#45;&gt;Node5 -->
<g id="edge4" class="edge"><title>Node1&#45;&gt;Node5</title>
<path fill="none" stroke="midnightblue" d="M108.119,-97.6871C120.714,-96.1022 133.992,-94.4315 146.444,-92.8647"/>
<polygon fill="midnightblue" stroke="midnightblue" points="107.677,-94.2149 98.1925,-98.936 108.551,-101.16 107.677,-94.2149"/>
</g>
<!-- Node6 -->
<g id="node6" class="node"><title>Node6</title>
<g id="a_node6"><a xlink:href="mutt__attach_8h.html#afbb8b45ca96f6108f920ec8752084c21" target="_top" xlink:title="View an attachment. ">
<polygon fill="white" stroke="red" points="144,-38.5 144,-57.5 260,-57.5 260,-38.5 144,-38.5"/>
<text text-anchor="middle" x="202" y="-45.5" font-family="Helvetica,sans-Serif" font-size="10.00">mutt_view_attachment</text>
</a>
</g>
</g>
<!-- Node1&#45;&gt;Node6 -->
<g id="edge5" class="edge"><title>Node1&#45;&gt;Node6</title>
<path fill="none" stroke="midnightblue" d="M78.379,-90.8903C94.4551,-83.2217 115.078,-73.9196 134,-67 143.425,-63.5535 153.781,-60.3446 163.474,-57.5815"/>
<polygon fill="midnightblue" stroke="midnightblue" points="76.4926,-87.9147 69.0128,-95.4182 79.5393,-94.2169 76.4926,-87.9147"/>
</g>
<!-- Node7 -->
<g id="node7" class="node"><title>Node7</title>
<g id="a_node7"><a xlink:href="mutt__attach_8h.html#a55e06a71a4e4180b7279d5eb5439d9d5" target="_top" xlink:title="Print out an attachment. ">
<polygon fill="white" stroke="red" points="145,-0.5 145,-19.5 259,-19.5 259,-0.5 145,-0.5"/>
<text text-anchor="middle" x="202" y="-7.5" font-family="Helvetica,sans-Serif" font-size="10.00">mutt_print_attachment</text>
</a>
</g>
</g>
<!-- Node1&#45;&gt;Node7 -->
<g id="edge6" class="edge"><title>Node1&#45;&gt;Node7</title>
<path fill="none" stroke="midnightblue" d="M64.7613,-87.6129C80.3159,-70.3511 106.354,-44.3149 134,-29 140.875,-25.1917 148.577,-22.0924 156.245,-19.5876"/>
<polygon fill="midnightblue" stroke="midnightblue" points="61.9803,-85.4753 58.0064,-95.2967 67.2376,-90.0971 61.9803,-85.4753"/>
</g>
</g>
</svg>
