<?xml version="1.0" encoding="UTF-8" standalone="no"?>
<!DOCTYPE svg PUBLIC "-//W3C//DTD SVG 1.1//EN"
 "http://www.w3.org/Graphics/SVG/1.1/DTD/svg11.dtd">
<!-- Generated by graphviz version 2.36.0 (20140111.2315)
 -->
<!-- Title: rfc1524_expand_command Pages: 1 -->
<svg width="304pt" height="154pt"
 viewBox="0.00 0.00 304.00 154.00" xmlns="http://www.w3.org/2000/svg" xmlns:xlink="http://www.w3.org/1999/xlink">
<g id="graph0" class="graph" transform="scale(1 1) rotate(0) translate(4 150)">
<title>rfc1524_expand_command</title>
<polygon fill="white" stroke="none" points="-4,4 -4,-150 300,-150 300,4 -4,4"/>
<!-- Node1 -->
<g id="node1" class="node"><title>Node1</title>
<polygon fill="#bfbfbf" stroke="black" points="0,-60.5 0,-79.5 134,-79.5 134,-60.5 0,-60.5"/>
<text text-anchor="middle" x="67" y="-67.5" font-family="Helvetica,sans-Serif" font-size="10.00">rfc1524_expand_command</text>
</g>
<!-- Node2 -->
<g id="node2" class="node"><title>Node2</title>
<g id="a_node2"><a xlink:href="mutt_2string_8c.html#a3b8965b21d6e21536750f8883cd4333a" target="_top" xlink:title="Copy a string into a buffer (guaranteeing NUL&#45;termination) ">
<polygon fill="white" stroke="black" points="189,-126.5 189,-145.5 277,-145.5 277,-126.5 189,-126.5"/>
<text text-anchor="middle" x="233" y="-133.5" font-family="Helvetica,sans-Serif" font-size="10.00">mutt_str_strfcpy</text>
</a>
</g>
</g>
<!-- Node1&#45;&gt;Node2 -->
<g id="edge1" class="edge"><title>Node1&#45;&gt;Node2</title>
<path fill="none" stroke="midnightblue" d="M87.6578,-79.656C107.997,-89.4584 140.817,-104.753 170,-116 176.523,-118.514 183.511,-120.98 190.359,-123.275"/>
<polygon fill="midnightblue" stroke="midnightblue" points="189.628,-126.718 200.221,-126.5 191.804,-120.065 189.628,-126.718"/>
</g>
<!-- Node3 -->
<g id="node3" class="node"><title>Node3</title>
<g id="a_node3"><a xlink:href="file_8c.html#a6ffe0a6129e5a22756de929de1870121" target="_top" xlink:title="Replace unsafe characters in a filename. ">
<polygon fill="white" stroke="black" points="186.5,-77 186.5,-107 279.5,-107 279.5,-77 186.5,-77"/>
<text text-anchor="start" x="194.5" y="-95" font-family="Helvetica,sans-Serif" font-size="10.00">mutt_file_sanitize</text>
<text text-anchor="middle" x="233" y="-84" font-family="Helvetica,sans-Serif" font-size="10.00">_filename</text>
</a>
</g>
</g>
<!-- Node1&#45;&gt;Node3 -->
<g id="edge2" class="edge"><title>Node1&#45;&gt;Node3</title>
<path fill="none" stroke="midnightblue" d="M134.232,-78.8848C148.117,-80.7474 162.629,-82.6941 176.093,-84.5002"/>
<polygon fill="midnightblue" stroke="midnightblue" points="175.78,-87.9896 186.157,-85.8503 176.711,-81.0517 175.78,-87.9896"/>
</g>
<!-- Node4 -->
<g id="node4" class="node"><title>Node4</title>
<g id="a_node4"><a xlink:href="parameter_8c.html#a4e936faaaa08c332e3414247583a0ffa" target="_top" xlink:title="Find a matching Parameter. ">
<polygon fill="white" stroke="red" points="189.5,-38.5 189.5,-57.5 276.5,-57.5 276.5,-38.5 189.5,-38.5"/>
<text text-anchor="middle" x="233" y="-45.5" font-family="Helvetica,sans-Serif" font-size="10.00">mutt_param_get</text>
</a>
</g>
</g>
<!-- Node1&#45;&gt;Node4 -->
<g id="edge3" class="edge"><title>Node1&#45;&gt;Node4</title>
<path fill="none" stroke="midnightblue" d="M134.232,-61.1152C149.112,-59.1192 164.711,-57.0266 178.969,-55.1139"/>
<polygon fill="midnightblue" stroke="midnightblue" points="179.639,-58.5555 189.085,-53.7569 178.708,-51.6176 179.639,-58.5555"/>
</g>
<!-- Node5 -->
<g id="node5" class="node"><title>Node5</title>
<g id="a_node5"><a xlink:href="file_8c.html#acec2e9d722d748720d061972d701efa4" target="_top" xlink:title="Quote a filename to survive the shell&#39;s quoting rules. ">
<polygon fill="white" stroke="black" points="170.5,-0.5 170.5,-19.5 295.5,-19.5 295.5,-0.5 170.5,-0.5"/>
<text text-anchor="middle" x="233" y="-7.5" font-family="Helvetica,sans-Serif" font-size="10.00">mutt_file_quote_filename</text>
</a>
</g>
</g>
<!-- Node1&#45;&gt;Node5 -->
<g id="edge4" class="edge"><title>Node1&#45;&gt;Node5</title>
<path fill="none" stroke="midnightblue" d="M90.0785,-60.494C110.6,-51.8098 142.109,-38.8592 170,-29 176.13,-26.8332 182.649,-24.6771 189.07,-22.6371"/>
<polygon fill="midnightblue" stroke="midnightblue" points="190.502,-25.857 199.01,-19.5423 188.421,-19.1735 190.502,-25.857"/>
</g>
</g>
</svg>
