<?xml version="1.0" encoding="UTF-8" standalone="no"?>
<!DOCTYPE svg PUBLIC "-//W3C//DTD SVG 1.1//EN"
 "http://www.w3.org/Graphics/SVG/1.1/DTD/svg11.dtd">
<!-- Generated by graphviz version 2.36.0 (20140111.2315)
 -->
<!-- Title: rfc1524_mailcap_lookup Pages: 1 -->
<svg width="446pt" height="332pt"
 viewBox="0.00 0.00 446.00 332.00" xmlns="http://www.w3.org/2000/svg" xmlns:xlink="http://www.w3.org/1999/xlink">
<g id="graph0" class="graph" transform="scale(1 1) rotate(0) translate(4 328)">
<title>rfc1524_mailcap_lookup</title>
<polygon fill="white" stroke="none" points="-4,4 -4,-328 442,-328 442,4 -4,4"/>
<!-- Node1 -->
<g id="node1" class="node"><title>Node1</title>
<polygon fill="#bfbfbf" stroke="black" points="0,-152.5 0,-171.5 122,-171.5 122,-152.5 0,-152.5"/>
<text text-anchor="middle" x="61" y="-159.5" font-family="Helvetica,sans-Serif" font-size="10.00">rfc1524_mailcap_lookup</text>
</g>
<!-- Node2 -->
<g id="node2" class="node"><title>Node2</title>
<g id="a_node2"><a xlink:href="handler_8c.html#a09f27e2821153040ea4cad0b9ade6153" target="_top" xlink:title="Should email body be filtered by mailcap. ">
<polygon fill="white" stroke="red" points="192,-304.5 192,-323.5 260,-323.5 260,-304.5 192,-304.5"/>
<text text-anchor="middle" x="226" y="-311.5" font-family="Helvetica,sans-Serif" font-size="10.00">is_autoview</text>
</a>
</g>
</g>
<!-- Node1&#45;&gt;Node2 -->
<g id="edge1" class="edge"><title>Node1&#45;&gt;Node2</title>
<path fill="none" stroke="midnightblue" d="M70.4666,-180.804C84.4726,-209.759 115.226,-265.043 158,-295 167.903,-301.936 180.293,-306.352 191.716,-309.159"/>
<polygon fill="midnightblue" stroke="midnightblue" points="73.6333,-179.313 66.2188,-171.745 67.2954,-182.285 73.6333,-179.313"/>
</g>
<!-- Node3 -->
<g id="node3" class="node"><title>Node3</title>
<g id="a_node3"><a xlink:href="handler_8c.html#a4019b110ff53c32c7779c33209b7ebb1" target="_top" xlink:title="Handler for autoviewable attachments &#45; Implements handler_t. ">
<polygon fill="white" stroke="red" points="180,-266.5 180,-285.5 272,-285.5 272,-266.5 180,-266.5"/>
<text text-anchor="middle" x="226" y="-273.5" font-family="Helvetica,sans-Serif" font-size="10.00">autoview_handler</text>
</a>
</g>
</g>
<!-- Node1&#45;&gt;Node3 -->
<g id="edge2" class="edge"><title>Node1&#45;&gt;Node3</title>
<path fill="none" stroke="midnightblue" d="M75.1545,-179.636C92.0287,-201.032 123.291,-236.745 158,-257 164.683,-260.9 172.212,-264.038 179.747,-266.55"/>
<polygon fill="midnightblue" stroke="midnightblue" points="77.9042,-177.47 69.0278,-171.686 72.3596,-181.743 77.9042,-177.47"/>
</g>
<!-- Node4 -->
<g id="node4" class="node"><title>Node4</title>
<g id="a_node4"><a xlink:href="mutt__attach_8h.html#ac18a72e3cc5fd8ed7b255817efe0fb3d" target="_top" xlink:title="Get a temporary copy of an attachment. ">
<polygon fill="white" stroke="red" points="160.5,-228.5 160.5,-247.5 291.5,-247.5 291.5,-228.5 160.5,-228.5"/>
<text text-anchor="middle" x="226" y="-235.5" font-family="Helvetica,sans-Serif" font-size="10.00">mutt_get_tmp_attachment</text>
</a>
</g>
</g>
<!-- Node1&#45;&gt;Node4 -->
<g id="edge3" class="edge"><title>Node1&#45;&gt;Node4</title>
<path fill="none" stroke="midnightblue" d="M84.1862,-177.436C103.099,-190.03 131.373,-207.551 158,-219 166.442,-222.63 175.776,-225.779 184.729,-228.413"/>
<polygon fill="midnightblue" stroke="midnightblue" points="85.9462,-174.401 75.702,-171.698 82.0244,-180.199 85.9462,-174.401"/>
</g>
<!-- Node5 -->
<g id="node5" class="node"><title>Node5</title>
<g id="a_node5"><a xlink:href="mutt__attach_8h.html#acf4b24753bffc9e93f0ec9c157c850fe" target="_top" xlink:title="Create an attachment. ">
<polygon fill="white" stroke="red" points="158.5,-190.5 158.5,-209.5 293.5,-209.5 293.5,-190.5 158.5,-190.5"/>
<text text-anchor="middle" x="226" y="-197.5" font-family="Helvetica,sans-Serif" font-size="10.00">mutt_compose_attachment</text>
</a>
</g>
</g>
<!-- Node1&#45;&gt;Node5 -->
<g id="edge4" class="edge"><title>Node1&#45;&gt;Node5</title>
<path fill="none" stroke="midnightblue" d="M113.028,-173.896C135.939,-179.237 162.604,-185.454 184.164,-190.48"/>
<polygon fill="midnightblue" stroke="midnightblue" points="113.665,-170.451 103.132,-171.589 112.076,-177.268 113.665,-170.451"/>
</g>
<!-- Node6 -->
<g id="node6" class="node"><title>Node6</title>
<g id="a_node6"><a xlink:href="mutt__attach_8h.html#adef1563a136b685ed418f12a6228ef42" target="_top" xlink:title="Edit an attachment. ">
<polygon fill="white" stroke="red" points="170.5,-152.5 170.5,-171.5 281.5,-171.5 281.5,-152.5 170.5,-152.5"/>
<text text-anchor="middle" x="226" y="-159.5" font-family="Helvetica,sans-Serif" font-size="10.00">mutt_edit_attachment</text>
</a>
</g>
</g>
<!-- Node1&#45;&gt;Node6 -->
<g id="edge5" class="edge"><title>Node1&#45;&gt;Node6</title>
<path fill="none" stroke="midnightblue" d="M132.346,-162C145.087,-162 158.198,-162 170.403,-162"/>
<polygon fill="midnightblue" stroke="midnightblue" points="132.232,-158.5 122.232,-162 132.232,-165.5 132.232,-158.5"/>
</g>
<!-- Node7 -->
<g id="node7" class="node"><title>Node7</title>
<g id="a_node7"><a xlink:href="mutt__attach_8h.html#afbb8b45ca96f6108f920ec8752084c21" target="_top" xlink:title="View an attachment. ">
<polygon fill="white" stroke="red" points="168,-114.5 168,-133.5 284,-133.5 284,-114.5 168,-114.5"/>
<text text-anchor="middle" x="226" y="-121.5" font-family="Helvetica,sans-Serif" font-size="10.00">mutt_view_attachment</text>
</a>
</g>
</g>
<!-- Node1&#45;&gt;Node7 -->
<g id="edge6" class="edge"><title>Node1&#45;&gt;Node7</title>
<path fill="none" stroke="midnightblue" d="M113.028,-150.104C135.939,-144.763 162.604,-138.546 184.164,-133.52"/>
<polygon fill="midnightblue" stroke="midnightblue" points="112.076,-146.732 103.132,-152.411 113.665,-153.549 112.076,-146.732"/>
</g>
<!-- Node8 -->
<g id="node8" class="node"><title>Node8</title>
<g id="a_node8"><a xlink:href="mutt__attach_8h.html#a55e06a71a4e4180b7279d5eb5439d9d5" target="_top" xlink:title="Print out an attachment. ">
<polygon fill="white" stroke="black" points="169,-76.5 169,-95.5 283,-95.5 283,-76.5 169,-76.5"/>
<text text-anchor="middle" x="226" y="-83.5" font-family="Helvetica,sans-Serif" font-size="10.00">mutt_print_attachment</text>
</a>
</g>
</g>
<!-- Node1&#45;&gt;Node8 -->
<g id="edge7" class="edge"><title>Node1&#45;&gt;Node8</title>
<path fill="none" stroke="midnightblue" d="M84.1862,-146.564C103.099,-133.97 131.373,-116.449 158,-105 166.442,-101.37 175.776,-98.2213 184.729,-95.5873"/>
<polygon fill="midnightblue" stroke="midnightblue" points="82.0244,-143.801 75.702,-152.302 85.9462,-149.599 82.0244,-143.801"/>
</g>
<!-- Node9 -->
<g id="node9" class="node"><title>Node9</title>
<g id="a_node9"><a xlink:href="recvattach_8c.html#a54f776fcfc922681ca8c99d4aa497198" target="_top" xlink:title="Print a list of Attachments. ">
<polygon fill="white" stroke="red" points="330.5,-57.5 330.5,-76.5 437.5,-76.5 437.5,-57.5 330.5,-57.5"/>
<text text-anchor="middle" x="384" y="-64.5" font-family="Helvetica,sans-Serif" font-size="10.00">print_attachment_list</text>
</a>
</g>
</g>
<!-- Node1&#45;&gt;Node9 -->
<g id="edge10" class="edge"><title>Node1&#45;&gt;Node9</title>
<path fill="none" stroke="midnightblue" d="M73.6179,-143.788C89.4686,-120.837 120.261,-82.5165 158,-67 217.069,-42.7136 292.465,-49.4493 339.238,-57.4877"/>
<polygon fill="midnightblue" stroke="midnightblue" points="70.5777,-142.038 67.9381,-152.299 76.4002,-145.924 70.5777,-142.038"/>
</g>
<!-- Node10 -->
<g id="node10" class="node"><title>Node10</title>
<g id="a_node10"><a xlink:href="recvattach_8c.html#aa65ac63b4bb9d0b83b6f4128736ad190" target="_top" xlink:title="Do we know how to print this attachment type? ">
<polygon fill="white" stroke="red" points="198,-0.5 198,-19.5 254,-19.5 254,-0.5 198,-0.5"/>
<text text-anchor="middle" x="226" y="-7.5" font-family="Helvetica,sans-Serif" font-size="10.00">can_print</text>
</a>
</g>
</g>
<!-- Node1&#45;&gt;Node10 -->
<g id="edge9" class="edge"><title>Node1&#45;&gt;Node10</title>
<path fill="none" stroke="midnightblue" d="M71.3053,-143.479C86.067,-115.869 117.388,-63.9626 158,-34 169.732,-25.3442 184.884,-19.5689 197.81,-15.8576"/>
<polygon fill="midnightblue" stroke="midnightblue" points="68.14,-141.979 66.6294,-152.466 74.3498,-145.21 68.14,-141.979"/>
</g>
<!-- Node8&#45;&gt;Node9 -->
<g id="edge8" class="edge"><title>Node8&#45;&gt;Node9</title>
<path fill="none" stroke="midnightblue" d="M293.547,-77.8949C305.864,-76.3947 318.571,-74.8471 330.403,-73.406"/>
<polygon fill="midnightblue" stroke="midnightblue" points="292.823,-74.4571 283.32,-79.1406 293.669,-81.4058 292.823,-74.4571"/>
</g>
</g>
</svg>
