<?xml version="1.0" encoding="UTF-8" standalone="no"?>
<!DOCTYPE svg PUBLIC "-//W3C//DTD SVG 1.1//EN"
 "http://www.w3.org/Graphics/SVG/1.1/DTD/svg11.dtd">
<!-- Generated by graphviz version 2.36.0 (20140111.2315)
 -->
<!-- Title: rfc1524_mailcap_parse Pages: 1 -->
<svg width="430pt" height="446pt"
 viewBox="0.00 0.00 430.00 446.00" xmlns="http://www.w3.org/2000/svg" xmlns:xlink="http://www.w3.org/1999/xlink">
<g id="graph0" class="graph" transform="scale(1 1) rotate(0) translate(4 442)">
<title>rfc1524_mailcap_parse</title>
<polygon fill="white" stroke="none" points="-4,4 -4,-442 426,-442 426,4 -4,4"/>
<!-- Node1 -->
<g id="node1" class="node"><title>Node1</title>
<polygon fill="#bfbfbf" stroke="black" points="0.5,-209.5 0.5,-228.5 117.5,-228.5 117.5,-209.5 0.5,-209.5"/>
<text text-anchor="middle" x="59" y="-216.5" font-family="Helvetica,sans-Serif" font-size="10.00">rfc1524_mailcap_parse</text>
</g>
<!-- Node2 -->
<g id="node2" class="node"><title>Node2</title>
<g id="a_node2"><a xlink:href="file_8c.html#a925820fb917e9a6a0542baa02ec7ed2c" target="_top" xlink:title="Read a line from a file. ">
<polygon fill="white" stroke="red" points="172,-418.5 172,-437.5 270,-437.5 270,-418.5 172,-418.5"/>
<text text-anchor="middle" x="221" y="-425.5" font-family="Helvetica,sans-Serif" font-size="10.00">mutt_file_read_line</text>
</a>
</g>
</g>
<!-- Node1&#45;&gt;Node2 -->
<g id="edge1" class="edge"><title>Node1&#45;&gt;Node2</title>
<path fill="none" stroke="midnightblue" d="M62.2026,-228.599C69.6262,-258.84 96.5493,-353.129 154,-404 158.561,-408.039 163.856,-411.415 169.425,-414.234"/>
<polygon fill="midnightblue" stroke="midnightblue" points="168.414,-417.615 178.974,-418.47 171.253,-411.216 168.414,-417.615"/>
</g>
<!-- Node3 -->
<g id="node3" class="node"><title>Node3</title>
<g id="a_node3"><a xlink:href="memory_8c.html#af778eb8166966fc0666c64849f6c7c5b" target="_top" xlink:title="Resize a block of memory on the heap. ">
<polygon fill="white" stroke="red" points="324.5,-399.5 324.5,-418.5 421.5,-418.5 421.5,-399.5 324.5,-399.5"/>
<text text-anchor="middle" x="373" y="-406.5" font-family="Helvetica,sans-Serif" font-size="10.00">mutt_mem_realloc</text>
</a>
</g>
</g>
<!-- Node1&#45;&gt;Node3 -->
<g id="edge10" class="edge"><title>Node1&#45;&gt;Node3</title>
<path fill="none" stroke="midnightblue" d="M62.9105,-228.815C71.6249,-256.348 100.288,-334.665 154,-371 179.538,-388.276 258.751,-398.826 314.293,-404.294"/>
<polygon fill="midnightblue" stroke="midnightblue" points="314.083,-407.79 324.37,-405.256 314.748,-400.821 314.083,-407.79"/>
</g>
<!-- Node4 -->
<g id="node4" class="node"><title>Node4</title>
<g id="a_node4"><a xlink:href="rfc1524_8c.html#ae97f4a4b5d7ac7eba96619f47bfc6925" target="_top" xlink:title="NUL terminate a RFC1524 field. ">
<polygon fill="white" stroke="red" points="194.5,-342.5 194.5,-361.5 247.5,-361.5 247.5,-342.5 194.5,-342.5"/>
<text text-anchor="middle" x="221" y="-349.5" font-family="Helvetica,sans-Serif" font-size="10.00">get_field</text>
</a>
</g>
</g>
<!-- Node1&#45;&gt;Node4 -->
<g id="edge3" class="edge"><title>Node1&#45;&gt;Node4</title>
<path fill="none" stroke="midnightblue" d="M65.183,-228.608C77.5294,-250.566 110.893,-304.71 154,-333 163.141,-338.999 174.201,-343.138 184.633,-345.98"/>
<polygon fill="midnightblue" stroke="midnightblue" points="183.817,-349.383 194.359,-348.326 185.458,-342.579 183.817,-349.383"/>
</g>
<!-- Node5 -->
<g id="node5" class="node"><title>Node5</title>
<g id="a_node5"><a xlink:href="mutt_2string_8c.html#a011e5b6fad43bc608584d585987cf9c1" target="_top" xlink:title="Compare two strings ignoring case, safely. ">
<polygon fill="white" stroke="black" points="166.5,-304.5 166.5,-323.5 275.5,-323.5 275.5,-304.5 166.5,-304.5"/>
<text text-anchor="middle" x="221" y="-311.5" font-family="Helvetica,sans-Serif" font-size="10.00">mutt_str_strcasecmp</text>
</a>
</g>
</g>
<!-- Node1&#45;&gt;Node5 -->
<g id="edge4" class="edge"><title>Node1&#45;&gt;Node5</title>
<path fill="none" stroke="midnightblue" d="M69.2193,-228.637C85.0797,-244.677 119.193,-276.874 154,-295 158.333,-297.256 162.969,-299.277 167.701,-301.08"/>
<polygon fill="midnightblue" stroke="midnightblue" points="166.886,-304.502 177.481,-304.48 169.184,-297.89 166.886,-304.502"/>
</g>
<!-- Node6 -->
<g id="node6" class="node"><title>Node6</title>
<g id="a_node6"><a xlink:href="mutt_2string_8c.html#a0ab98e8f251c9db11831b77a1681edc3" target="_top" xlink:title="Compare two strings ignoring case (to a maximum), safely. ">
<polygon fill="white" stroke="black" points="164,-266.5 164,-285.5 278,-285.5 278,-266.5 164,-266.5"/>
<text text-anchor="middle" x="221" y="-273.5" font-family="Helvetica,sans-Serif" font-size="10.00">mutt_str_strncasecmp</text>
</a>
</g>
</g>
<!-- Node1&#45;&gt;Node6 -->
<g id="edge5" class="edge"><title>Node1&#45;&gt;Node6</title>
<path fill="none" stroke="midnightblue" d="M81.7875,-228.559C100.685,-236.668 128.874,-248.331 154,-257 160.513,-259.247 167.448,-261.448 174.283,-263.508"/>
<polygon fill="midnightblue" stroke="midnightblue" points="173.583,-266.951 184.165,-266.417 175.56,-260.236 173.583,-266.951"/>
</g>
<!-- Node7 -->
<g id="node7" class="node"><title>Node7</title>
<g id="a_node7"><a xlink:href="mutt_2string_8c.html#ab4aaf8bd2ce3982651f0f949d6c665e2" target="_top" xlink:title="Compare two strings, safely. ">
<polygon fill="white" stroke="black" points="177,-228.5 177,-247.5 265,-247.5 265,-228.5 177,-228.5"/>
<text text-anchor="middle" x="221" y="-235.5" font-family="Helvetica,sans-Serif" font-size="10.00">mutt_str_strcmp</text>
</a>
</g>
</g>
<!-- Node1&#45;&gt;Node7 -->
<g id="edge6" class="edge"><title>Node1&#45;&gt;Node7</title>
<path fill="none" stroke="midnightblue" d="M117.764,-225.859C133.771,-227.76 151.068,-229.814 166.802,-231.683"/>
<polygon fill="midnightblue" stroke="midnightblue" points="166.543,-235.177 176.886,-232.88 167.369,-228.225 166.543,-235.177"/>
</g>
<!-- Node8 -->
<g id="node8" class="node"><title>Node8</title>
<g id="a_node8"><a xlink:href="mutt_2string_8c.html#ae48085384a6545e0fac589a88243ea31" target="_top" xlink:title="Copy a string, safely. ">
<polygon fill="white" stroke="red" points="178.5,-190.5 178.5,-209.5 263.5,-209.5 263.5,-190.5 178.5,-190.5"/>
<text text-anchor="middle" x="221" y="-197.5" font-family="Helvetica,sans-Serif" font-size="10.00">mutt_str_strdup</text>
</a>
</g>
</g>
<!-- Node1&#45;&gt;Node8 -->
<g id="edge7" class="edge"><title>Node1&#45;&gt;Node8</title>
<path fill="none" stroke="midnightblue" d="M117.764,-212.141C134.211,-210.187 152.021,-208.072 168.097,-206.163"/>
<polygon fill="midnightblue" stroke="midnightblue" points="168.862,-209.597 178.38,-204.942 168.037,-202.646 168.862,-209.597"/>
</g>
<!-- Node9 -->
<g id="node9" class="node"><title>Node9</title>
<g id="a_node9"><a xlink:href="rfc1524_8c.html#a037c5d1655b267dd9810479759418364" target="_top" xlink:title="Get the matching text from a mailcap. ">
<polygon fill="white" stroke="red" points="183.5,-152.5 183.5,-171.5 258.5,-171.5 258.5,-152.5 183.5,-152.5"/>
<text text-anchor="middle" x="221" y="-159.5" font-family="Helvetica,sans-Serif" font-size="10.00">get_field_text</text>
</a>
</g>
</g>
<!-- Node1&#45;&gt;Node9 -->
<g id="edge8" class="edge"><title>Node1&#45;&gt;Node9</title>
<path fill="none" stroke="midnightblue" d="M81.7875,-209.441C100.685,-201.332 128.874,-189.669 154,-181 160.513,-178.753 167.448,-176.552 174.283,-174.492"/>
<polygon fill="midnightblue" stroke="midnightblue" points="175.56,-177.764 184.165,-171.583 173.583,-171.049 175.56,-177.764"/>
</g>
<!-- Node10 -->
<g id="node10" class="node"><title>Node10</title>
<g id="a_node10"><a xlink:href="mutt_2string_8c.html#aca11f88d08a860c07419df3efb18f35a" target="_top" xlink:title="Calculate the length of a string, safely. ">
<polygon fill="white" stroke="black" points="180,-114.5 180,-133.5 262,-133.5 262,-114.5 180,-114.5"/>
<text text-anchor="middle" x="221" y="-121.5" font-family="Helvetica,sans-Serif" font-size="10.00">mutt_str_strlen</text>
</a>
</g>
</g>
<!-- Node1&#45;&gt;Node10 -->
<g id="edge9" class="edge"><title>Node1&#45;&gt;Node10</title>
<path fill="none" stroke="midnightblue" d="M69.2193,-209.363C85.0797,-193.323 119.193,-161.126 154,-143 159.149,-140.319 164.727,-137.97 170.384,-135.924"/>
<polygon fill="midnightblue" stroke="midnightblue" points="171.528,-139.233 179.918,-132.763 169.324,-132.588 171.528,-139.233"/>
</g>
<!-- Node11 -->
<g id="node11" class="node"><title>Node11</title>
<g id="a_node11"><a xlink:href="rfc1524_8c.html#a660eed26810b8c8fa6dcd101f0df6555" target="_top" xlink:title="Expand expandos in a command. ">
<polygon fill="white" stroke="red" points="154,-76.5 154,-95.5 288,-95.5 288,-76.5 154,-76.5"/>
<text text-anchor="middle" x="221" y="-83.5" font-family="Helvetica,sans-Serif" font-size="10.00">rfc1524_expand_command</text>
</a>
</g>
</g>
<!-- Node1&#45;&gt;Node11 -->
<g id="edge11" class="edge"><title>Node1&#45;&gt;Node11</title>
<path fill="none" stroke="midnightblue" d="M65.183,-209.392C77.5294,-187.434 110.893,-133.29 154,-105 157.125,-102.949 160.473,-101.116 163.945,-99.4777"/>
<polygon fill="midnightblue" stroke="midnightblue" points="165.451,-102.642 173.35,-95.5803 162.772,-96.1753 165.451,-102.642"/>
</g>
<!-- Node12 -->
<g id="node12" class="node"><title>Node12</title>
<g id="a_node12"><a xlink:href="protos_8h.html#aa1d4ad04b000036513ca3f741059942c" target="_top" xlink:title="Run an external command. ">
<polygon fill="white" stroke="red" points="184,-38.5 184,-57.5 258,-57.5 258,-38.5 184,-38.5"/>
<text text-anchor="middle" x="221" y="-45.5" font-family="Helvetica,sans-Serif" font-size="10.00">mutt_system</text>
</a>
</g>
</g>
<!-- Node1&#45;&gt;Node12 -->
<g id="edge12" class="edge"><title>Node1&#45;&gt;Node12</title>
<path fill="none" stroke="midnightblue" d="M63.1162,-209.472C72.3717,-182.695 102.322,-106.173 154,-67 159.945,-62.4937 166.926,-59.0551 174.081,-56.4316"/>
<polygon fill="midnightblue" stroke="midnightblue" points="175.388,-59.6893 183.866,-53.3356 173.276,-53.0154 175.388,-59.6893"/>
</g>
<!-- Node13 -->
<g id="node13" class="node"><title>Node13</title>
<g id="a_node13"><a xlink:href="file_8c.html#a4982d9040dfaf38e847729be2af83ed6" target="_top" xlink:title="Close a FILE handle (and NULL the pointer) ">
<polygon fill="white" stroke="black" points="178,-0.5 178,-19.5 264,-19.5 264,-0.5 178,-0.5"/>
<text text-anchor="middle" x="221" y="-7.5" font-family="Helvetica,sans-Serif" font-size="10.00">mutt_file_fclose</text>
</a>
</g>
</g>
<!-- Node1&#45;&gt;Node13 -->
<g id="edge13" class="edge"><title>Node1&#45;&gt;Node13</title>
<path fill="none" stroke="midnightblue" d="M61.8791,-209.412C68.4793,-178.336 93.5526,-79.4852 154,-29 158.29,-25.4172 163.222,-22.5094 168.416,-20.1495"/>
<polygon fill="midnightblue" stroke="midnightblue" points="169.897,-23.3296 177.969,-16.4662 167.379,-16.7983 169.897,-23.3296"/>
</g>
<!-- Node2&#45;&gt;Node3 -->
<g id="edge2" class="edge"><title>Node2&#45;&gt;Node3</title>
<path fill="none" stroke="midnightblue" d="M270.287,-421.884C284.208,-420.12 299.541,-418.178 313.988,-416.348"/>
<polygon fill="midnightblue" stroke="midnightblue" points="314.836,-419.769 324.317,-415.04 313.956,-412.824 314.836,-419.769"/>
</g>
</g>
</svg>
