<?xml version="1.0" encoding="UTF-8" standalone="no"?>
<!DOCTYPE svg PUBLIC "-//W3C//DTD SVG 1.1//EN"
 "http://www.w3.org/Graphics/SVG/1.1/DTD/svg11.dtd">
<!-- Generated by graphviz version 2.36.0 (20140111.2315)
 -->
<!-- Title: get_field_text Pages: 1 -->
<svg width="252pt" height="66pt"
 viewBox="0.00 0.00 252.00 66.00" xmlns="http://www.w3.org/2000/svg" xmlns:xlink="http://www.w3.org/1999/xlink">
<g id="graph0" class="graph" transform="scale(1 1) rotate(0) translate(4 62)">
<title>get_field_text</title>
<polygon fill="white" stroke="none" points="-4,4 -4,-62 248,-62 248,4 -4,4"/>
<!-- Node1 -->
<g id="node1" class="node"><title>Node1</title>
<polygon fill="#bfbfbf" stroke="black" points="0.5,-19.5 0.5,-38.5 75.5,-38.5 75.5,-19.5 0.5,-19.5"/>
<text text-anchor="middle" x="38" y="-26.5" font-family="Helvetica,sans-Serif" font-size="10.00">get_field_text</text>
</g>
<!-- Node2 -->
<g id="node2" class="node"><title>Node2</title>
<g id="a_node2"><a xlink:href="mutt_2string_8c.html#ab5e30c649c593675baa66edef1cd4633" target="_top" xlink:title="Find the first non&#45;whitespace character in a string. ">
<polygon fill="white" stroke="black" points="112.5,-38.5 112.5,-57.5 243.5,-57.5 243.5,-38.5 112.5,-38.5"/>
<text text-anchor="middle" x="178" y="-45.5" font-family="Helvetica,sans-Serif" font-size="10.00">mutt_str_skip_whitespace</text>
</a>
</g>
</g>
<!-- Node1&#45;&gt;Node2 -->
<g id="edge1" class="edge"><title>Node1&#45;&gt;Node2</title>
<path fill="none" stroke="midnightblue" d="M75.6192,-34.0418C83.946,-35.1882 93.0865,-36.4467 102.364,-37.724"/>
<polygon fill="midnightblue" stroke="midnightblue" points="102.068,-41.2163 112.452,-39.113 103.023,-34.2817 102.068,-41.2163"/>
</g>
<!-- Node3 -->
<g id="node3" class="node"><title>Node3</title>
<g id="a_node3"><a xlink:href="mutt_2string_8c.html#ad5b66f8059a202f7bfa5fc4fa3047c67" target="_top" xlink:title="Replace one string with another. ">
<polygon fill="white" stroke="red" points="133.5,-0.5 133.5,-19.5 222.5,-19.5 222.5,-0.5 133.5,-0.5"/>
<text text-anchor="middle" x="178" y="-7.5" font-family="Helvetica,sans-Serif" font-size="10.00">mutt_str_replace</text>
</a>
</g>
</g>
<!-- Node1&#45;&gt;Node3 -->
<g id="edge2" class="edge"><title>Node1&#45;&gt;Node3</title>
<path fill="none" stroke="midnightblue" d="M75.6192,-23.9582C90.1606,-21.9562 107.183,-19.6124 123.083,-17.4234"/>
<polygon fill="midnightblue" stroke="midnightblue" points="123.902,-20.8436 133.331,-16.0123 122.948,-13.9091 123.902,-20.8436"/>
</g>
</g>
</svg>
