<?xml version="1.0" encoding="UTF-8" standalone="no"?>
<!DOCTYPE svg PUBLIC "-//W3C//DTD SVG 1.1//EN"
 "http://www.w3.org/Graphics/SVG/1.1/DTD/svg11.dtd">
<!-- Generated by graphviz version 2.36.0 (20140111.2315)
 -->
<!-- Title: rfc2231_decode_parameters Pages: 1 -->
<svg width="642pt" height="361pt"
 viewBox="0.00 0.00 642.00 360.85" xmlns="http://www.w3.org/2000/svg" xmlns:xlink="http://www.w3.org/1999/xlink">
<g id="graph0" class="graph" transform="scale(1 1) rotate(0) translate(4 356.85)">
<title>rfc2231_decode_parameters</title>
<polygon fill="white" stroke="none" points="-4,4 -4,-356.85 638,-356.85 638,4 -4,4"/>
<!-- Node1 -->
<g id="node1" class="node"><title>Node1</title>
<polygon fill="#bfbfbf" stroke="black" points="0,-162.35 0,-181.35 140,-181.35 140,-162.35 0,-162.35"/>
<text text-anchor="middle" x="70" y="-169.35" font-family="Helvetica,sans-Serif" font-size="10.00">rfc2231_decode_parameters</text>
</g>
<!-- Node2 -->
<g id="node2" class="node"><title>Node2</title>
<g id="a_node2"><a xlink:href="rfc2231_8c.html#a1bacaa0d872bbf123cfad8f0f40d2582" target="_top" xlink:title="Remove any ill&#45;formed Parameters from a list. ">
<polygon fill="white" stroke="red" points="178.5,-333.35 178.5,-352.35 305.5,-352.35 305.5,-333.35 178.5,-333.35"/>
<text text-anchor="middle" x="242" y="-340.35" font-family="Helvetica,sans-Serif" font-size="10.00">purge_empty_parameters</text>
</a>
</g>
</g>
<!-- Node1&#45;&gt;Node2 -->
<g id="edge1" class="edge"><title>Node1&#45;&gt;Node2</title>
<path fill="none" stroke="midnightblue" d="M75.3967,-181.614C87.5959,-207.655 124.401,-279.451 176,-318.85 181.46,-323.019 187.719,-326.522 194.148,-329.45"/>
<polygon fill="midnightblue" stroke="midnightblue" points="193.037,-332.777 203.617,-333.336 195.695,-326.301 193.037,-332.777"/>
</g>
<!-- Node3 -->
<g id="node3" class="node"><title>Node3</title>
<g id="a_node3"><a xlink:href="email_2rfc2047_8c.html#a89c57c82465740567f73641c9397d760" target="_top" xlink:title="Decode any RFC2047&#45;encoded header fields. ">
<polygon fill="white" stroke="red" points="199,-143.35 199,-162.35 285,-162.35 285,-143.35 199,-143.35"/>
<text text-anchor="middle" x="242" y="-150.35" font-family="Helvetica,sans-Serif" font-size="10.00">rfc2047_decode</text>
</a>
</g>
</g>
<!-- Node1&#45;&gt;Node3 -->
<g id="edge2" class="edge"><title>Node1&#45;&gt;Node3</title>
<path fill="none" stroke="midnightblue" d="M140.146,-164.122C156.278,-162.319 173.201,-160.427 188.477,-158.72"/>
<polygon fill="midnightblue" stroke="midnightblue" points="189.21,-162.16 198.759,-157.571 188.432,-155.203 189.21,-162.16"/>
</g>
<!-- Node4 -->
<g id="node4" class="node"><title>Node4</title>
<g id="a_node4"><a xlink:href="charset_8c.html#acc2835b9ab71b4fa4bd1b330b3405ab6" target="_top" xlink:title="Try to convert a string using a list of character sets. ">
<polygon fill="white" stroke="red" points="344,-131.85 344,-161.85 478,-161.85 478,-131.85 344,-131.85"/>
<text text-anchor="start" x="352" y="-149.85" font-family="Helvetica,sans-Serif" font-size="10.00">mutt_ch_convert_nonmime</text>
<text text-anchor="middle" x="411" y="-138.85" font-family="Helvetica,sans-Serif" font-size="10.00">_string</text>
</a>
</g>
</g>
<!-- Node1&#45;&gt;Node4 -->
<g id="edge5" class="edge"><title>Node1&#45;&gt;Node4</title>
<path fill="none" stroke="midnightblue" d="M74.0374,-162.325C83.6012,-134.162 116.072,-51.2884 176,-19.8497 227.952,7.40458 255.099,5.51334 308,-19.8497 352.409,-41.1414 383.601,-92.2379 399.006,-122.734"/>
<polygon fill="midnightblue" stroke="midnightblue" points="395.921,-124.394 403.45,-131.848 402.213,-121.326 395.921,-124.394"/>
</g>
<!-- Node5 -->
<g id="node5" class="node"><title>Node5</title>
<g id="a_node5"><a xlink:href="charset_8c.html#ab7e77d77daee2304cbdabeb54bdb3e97" target="_top" xlink:title="Convert a string between encodings. ">
<polygon fill="white" stroke="red" points="514.5,-219.35 514.5,-238.35 633.5,-238.35 633.5,-219.35 514.5,-219.35"/>
<text text-anchor="middle" x="574" y="-226.35" font-family="Helvetica,sans-Serif" font-size="10.00">mutt_ch_convert_string</text>
</a>
</g>
</g>
<!-- Node1&#45;&gt;Node5 -->
<g id="edge8" class="edge"><title>Node1&#45;&gt;Node5</title>
<path fill="none" stroke="midnightblue" d="M77.4678,-181.578C92.1006,-202.647 130.073,-252.252 176,-272.85 298.582,-327.828 348.528,-321.711 478,-285.85 506.673,-277.908 535.381,-258.752 553.612,-244.834"/>
<polygon fill="midnightblue" stroke="midnightblue" points="555.977,-247.427 561.675,-238.494 551.65,-241.924 555.977,-247.427"/>
</g>
<!-- Node6 -->
<g id="node6" class="node"><title>Node6</title>
<g id="a_node6"><a xlink:href="rfc2231_8c.html#adff03833afc464d04a290f5faed3bc5c" target="_top" xlink:title="Get the charset from an RFC2231 header. ">
<polygon fill="white" stroke="red" points="377,-257.35 377,-276.35 445,-276.35 445,-257.35 377,-257.35"/>
<text text-anchor="middle" x="411" y="-264.35" font-family="Helvetica,sans-Serif" font-size="10.00">get_charset</text>
</a>
</g>
</g>
<!-- Node1&#45;&gt;Node6 -->
<g id="edge6" class="edge"><title>Node1&#45;&gt;Node6</title>
<path fill="none" stroke="midnightblue" d="M80.3409,-181.446C97.4807,-198.348 135.892,-233.037 176,-247.85 239.227,-271.2 318.41,-272.312 366.552,-270.172"/>
<polygon fill="midnightblue" stroke="midnightblue" points="366.822,-273.663 376.63,-269.656 366.464,-266.672 366.822,-273.663"/>
</g>
<!-- Node7 -->
<g id="node7" class="node"><title>Node7</title>
<g id="a_node7"><a xlink:href="rfc2231_8c.html#ad5b8314b3c077f2f4ff930fff6741a86" target="_top" xlink:title="Decode one percent&#45;encoded character. ">
<polygon fill="white" stroke="black" points="376.5,-181.35 376.5,-200.35 445.5,-200.35 445.5,-181.35 376.5,-181.35"/>
<text text-anchor="middle" x="411" y="-188.35" font-family="Helvetica,sans-Serif" font-size="10.00">decode_one</text>
</a>
</g>
</g>
<!-- Node1&#45;&gt;Node7 -->
<g id="edge7" class="edge"><title>Node1&#45;&gt;Node7</title>
<path fill="none" stroke="midnightblue" d="M140.01,-175.718C207.624,-179.507 308.627,-185.168 366.003,-188.384"/>
<polygon fill="midnightblue" stroke="midnightblue" points="366.011,-191.89 376.191,-188.955 366.402,-184.901 366.011,-191.89"/>
</g>
<!-- Node8 -->
<g id="node8" class="node"><title>Node8</title>
<g id="a_node8"><a xlink:href="mbyte_8c.html#a2ff7f0c0693d59c4fbb25cff5198a208" target="_top" xlink:title="Replace unprintable characters. ">
<polygon fill="white" stroke="red" points="176.5,-105.35 176.5,-124.35 307.5,-124.35 307.5,-105.35 176.5,-105.35"/>
<text text-anchor="middle" x="242" y="-112.35" font-family="Helvetica,sans-Serif" font-size="10.00">mutt_mb_filter_unprintable</text>
</a>
</g>
</g>
<!-- Node1&#45;&gt;Node8 -->
<g id="edge9" class="edge"><title>Node1&#45;&gt;Node8</title>
<path fill="none" stroke="midnightblue" d="M95.8811,-162.345C117.061,-154.375 148.359,-142.881 176,-133.85 182.683,-131.666 189.79,-129.466 196.759,-127.376"/>
<polygon fill="midnightblue" stroke="midnightblue" points="198.206,-130.598 206.804,-124.408 196.222,-123.885 198.206,-130.598"/>
</g>
<!-- Node9 -->
<g id="node9" class="node"><title>Node9</title>
<g id="a_node9"><a xlink:href="rfc2231_8c.html#afcfc3794504c036d072b160f68bf590c" target="_top" xlink:title="Create a new Rfc2231Parameter. ">
<polygon fill="white" stroke="red" points="200.5,-67.3497 200.5,-86.3497 283.5,-86.3497 283.5,-67.3497 200.5,-67.3497"/>
<text text-anchor="middle" x="242" y="-74.3497" font-family="Helvetica,sans-Serif" font-size="10.00">new_parameter</text>
</a>
</g>
</g>
<!-- Node1&#45;&gt;Node9 -->
<g id="edge10" class="edge"><title>Node1&#45;&gt;Node9</title>
<path fill="none" stroke="midnightblue" d="M81.5356,-162.297C99.6017,-146.38 138.209,-114.36 176,-95.8497 180.633,-93.5807 185.586,-91.5313 190.615,-89.693"/>
<polygon fill="midnightblue" stroke="midnightblue" points="191.961,-92.9328 200.314,-86.4156 189.72,-86.3011 191.961,-92.9328"/>
</g>
<!-- Node10 -->
<g id="node10" class="node"><title>Node10</title>
<g id="a_node10"><a xlink:href="rfc2231_8c.html#a6ab88476a6050396968d81de51aba465" target="_top" xlink:title="Insert parameter into an ordered list. ">
<polygon fill="white" stroke="black" points="212.5,-29.3497 212.5,-48.3497 271.5,-48.3497 271.5,-29.3497 212.5,-29.3497"/>
<text text-anchor="middle" x="242" y="-36.3497" font-family="Helvetica,sans-Serif" font-size="10.00">list_insert</text>
</a>
</g>
</g>
<!-- Node1&#45;&gt;Node10 -->
<g id="edge11" class="edge"><title>Node1&#45;&gt;Node10</title>
<path fill="none" stroke="midnightblue" d="M77.0938,-162.274C91.5248,-140.382 130.046,-86.3686 176,-57.8497 184.07,-52.8416 193.519,-49.1023 202.673,-46.3297"/>
<polygon fill="midnightblue" stroke="midnightblue" points="203.678,-49.6836 212.412,-43.6862 201.844,-42.9281 203.678,-49.6836"/>
</g>
<!-- Node11 -->
<g id="node11" class="node"><title>Node11</title>
<g id="a_node11"><a xlink:href="rfc2231_8c.html#a8d669c126aa4e34c5de1ae7407683a86" target="_top" xlink:title="Process continuation parameters. ">
<polygon fill="white" stroke="red" points="194.5,-219.35 194.5,-238.35 289.5,-238.35 289.5,-219.35 194.5,-219.35"/>
<text text-anchor="middle" x="242" y="-226.35" font-family="Helvetica,sans-Serif" font-size="10.00">join_continuations</text>
</a>
</g>
</g>
<!-- Node1&#45;&gt;Node11 -->
<g id="edge12" class="edge"><title>Node1&#45;&gt;Node11</title>
<path fill="none" stroke="midnightblue" d="M99.4542,-181.39C127.771,-190.885 171.41,-205.516 202.746,-216.023"/>
<polygon fill="midnightblue" stroke="midnightblue" points="201.859,-219.417 212.453,-219.278 204.084,-212.781 201.859,-219.417"/>
</g>
<!-- Node3&#45;&gt;Node4 -->
<g id="edge3" class="edge"><title>Node3&#45;&gt;Node4</title>
<path fill="none" stroke="midnightblue" d="M285.141,-151.336C299.864,-150.807 316.883,-150.195 333.527,-149.597"/>
<polygon fill="midnightblue" stroke="midnightblue" points="333.949,-153.084 343.817,-149.228 333.698,-146.089 333.949,-153.084"/>
</g>
<!-- Node4&#45;&gt;Node5 -->
<g id="edge4" class="edge"><title>Node4&#45;&gt;Node5</title>
<path fill="none" stroke="midnightblue" d="M455.075,-161.894C462.811,-164.953 470.723,-168.323 478,-171.85 503.733,-184.32 531.618,-201.53 550.476,-213.77"/>
<polygon fill="midnightblue" stroke="midnightblue" points="548.679,-216.776 558.96,-219.336 552.519,-210.924 548.679,-216.776"/>
</g>
<!-- Node11&#45;&gt;Node5 -->
<g id="edge15" class="edge"><title>Node11&#45;&gt;Node5</title>
<path fill="none" stroke="midnightblue" d="M289.581,-228.85C345.571,-228.85 440.01,-228.85 504.354,-228.85"/>
<polygon fill="midnightblue" stroke="midnightblue" points="504.413,-232.35 514.413,-228.85 504.413,-225.35 504.413,-232.35"/>
</g>
<!-- Node11&#45;&gt;Node6 -->
<g id="edge13" class="edge"><title>Node11&#45;&gt;Node6</title>
<path fill="none" stroke="midnightblue" d="M285.141,-238.439C310.109,-244.12 341.678,-251.303 366.825,-257.025"/>
<polygon fill="midnightblue" stroke="midnightblue" points="366.292,-260.493 376.819,-259.3 367.845,-253.668 366.292,-260.493"/>
</g>
<!-- Node11&#45;&gt;Node7 -->
<g id="edge14" class="edge"><title>Node11&#45;&gt;Node7</title>
<path fill="none" stroke="midnightblue" d="M285.141,-219.261C309.939,-213.618 341.248,-206.494 366.311,-200.791"/>
<polygon fill="midnightblue" stroke="midnightblue" points="367.306,-204.154 376.28,-198.522 365.753,-197.328 367.306,-204.154"/>
</g>
</g>
</svg>
