<?xml version="1.0" encoding="UTF-8" standalone="no"?>
<!DOCTYPE svg PUBLIC "-//W3C//DTD SVG 1.1//EN"
 "http://www.w3.org/Graphics/SVG/1.1/DTD/svg11.dtd">
<!-- Generated by graphviz version 2.36.0 (20140111.2315)
 -->
<!-- Title: rfc2047_encode Pages: 1 -->
<svg width="178pt" height="28pt"
 viewBox="0.00 0.00 178.00 28.00" xmlns="http://www.w3.org/2000/svg" xmlns:xlink="http://www.w3.org/1999/xlink">
<g id="graph0" class="graph" transform="scale(1 1) rotate(0) translate(4 24)">
<title>rfc2047_encode</title>
<polygon fill="white" stroke="none" points="-4,4 -4,-24 174,-24 174,4 -4,4"/>
<!-- Node1 -->
<g id="node1" class="node"><title>Node1</title>
<polygon fill="#bfbfbf" stroke="black" points="0,-0.5 0,-19.5 86,-19.5 86,-0.5 0,-0.5"/>
<text text-anchor="middle" x="43" y="-7.5" font-family="Helvetica,sans-Serif" font-size="10.00">rfc2047_encode</text>
</g>
<!-- Node2 -->
<g id="node2" class="node"><title>Node2</title>
<g id="a_node2"><a xlink:href="email_2rfc2047_8c.html#ad304a6e40f646f43a411b649f960b306" target="_top" xlink:title="RFC2047&#45;encode a string. ">
<polygon fill="white" stroke="red" points="122,-0.5 122,-19.5 170,-19.5 170,-0.5 122,-0.5"/>
<text text-anchor="middle" x="146" y="-7.5" font-family="Helvetica,sans-Serif" font-size="10.00">encode</text>
</a>
</g>
</g>
<!-- Node1&#45;&gt;Node2 -->
<g id="edge1" class="edge"><title>Node1&#45;&gt;Node2</title>
<path fill="none" stroke="midnightblue" d="M86.2479,-10C94.7423,-10 103.557,-10 111.695,-10"/>
<polygon fill="midnightblue" stroke="midnightblue" points="111.92,-13.5001 121.92,-10 111.92,-6.5001 111.92,-13.5001"/>
</g>
</g>
</svg>
