<?xml version="1.0" encoding="UTF-8" standalone="no"?>
<!DOCTYPE svg PUBLIC "-//W3C//DTD SVG 1.1//EN"
 "http://www.w3.org/Graphics/SVG/1.1/DTD/svg11.dtd">
<!-- Generated by graphviz version 2.36.0 (20140111.2315)
 -->
<!-- Title: rfc2047_decode Pages: 1 -->
<svg width="434pt" height="370pt"
 viewBox="0.00 0.00 434.00 370.00" xmlns="http://www.w3.org/2000/svg" xmlns:xlink="http://www.w3.org/1999/xlink">
<g id="graph0" class="graph" transform="scale(1 1) rotate(0) translate(4 366)">
<title>rfc2047_decode</title>
<polygon fill="white" stroke="none" points="-4,4 -4,-366 430,-366 430,4 -4,4"/>
<!-- Node1 -->
<g id="node1" class="node"><title>Node1</title>
<polygon fill="#bfbfbf" stroke="black" points="0,-171.5 0,-190.5 86,-190.5 86,-171.5 0,-171.5"/>
<text text-anchor="middle" x="43" y="-178.5" font-family="Helvetica,sans-Serif" font-size="10.00">rfc2047_decode</text>
</g>
<!-- Node2 -->
<g id="node2" class="node"><title>Node2</title>
<g id="a_node2"><a xlink:href="copy_8h.html#aa45776815c6dfcc380ffaee845483d70" target="_top" xlink:title="Copy header from one file to another. ">
<polygon fill="white" stroke="red" points="151.5,-342.5 151.5,-361.5 232.5,-361.5 232.5,-342.5 151.5,-342.5"/>
<text text-anchor="middle" x="192" y="-349.5" font-family="Helvetica,sans-Serif" font-size="10.00">mutt_copy_hdr</text>
</a>
</g>
</g>
<!-- Node1&#45;&gt;Node2 -->
<g id="edge1" class="edge"><title>Node1&#45;&gt;Node2</title>
<path fill="none" stroke="midnightblue" d="M49.2829,-200.536C58.7193,-231.822 81.3899,-293.176 122,-328 130.376,-335.183 141.028,-340.256 151.442,-343.823"/>
<polygon fill="midnightblue" stroke="midnightblue" points="52.6155,-199.46 46.4893,-190.816 45.8879,-201.394 52.6155,-199.46"/>
</g>
<!-- Node3 -->
<g id="node3" class="node"><title>Node3</title>
<g id="a_node3"><a xlink:href="parse_8h.html#a8a7093d918de1a8a681701742eb5a3d2" target="_top" xlink:title="Parse an email header. ">
<polygon fill="white" stroke="black" points="133,-266.5 133,-285.5 251,-285.5 251,-266.5 133,-266.5"/>
<text text-anchor="middle" x="192" y="-273.5" font-family="Helvetica,sans-Serif" font-size="10.00">mutt_rfc822_parse_line</text>
</a>
</g>
</g>
<!-- Node1&#45;&gt;Node3 -->
<g id="edge2" class="edge"><title>Node1&#45;&gt;Node3</title>
<path fill="none" stroke="midnightblue" d="M57.811,-198.946C72.0748,-216.274 95.8803,-242.026 122,-257 128.683,-260.831 136.176,-263.921 143.695,-266.404"/>
<polygon fill="midnightblue" stroke="midnightblue" points="60.2391,-196.379 51.26,-190.755 54.7723,-200.751 60.2391,-196.379"/>
</g>
<!-- Node4 -->
<g id="node4" class="node"><title>Node4</title>
<g id="a_node4"><a xlink:href="parse_8h.html#ae50079838fa2a151db9ecfb0a149aaea" target="_top" xlink:title="parses an RFC822 header ">
<polygon fill="white" stroke="red" points="298.5,-266.5 298.5,-285.5 425.5,-285.5 425.5,-266.5 298.5,-266.5"/>
<text text-anchor="middle" x="362" y="-273.5" font-family="Helvetica,sans-Serif" font-size="10.00">mutt_rfc822_read_header</text>
</a>
</g>
</g>
<!-- Node1&#45;&gt;Node4 -->
<g id="edge5" class="edge"><title>Node1&#45;&gt;Node4</title>
<path fill="none" stroke="midnightblue" d="M50.5833,-200.206C60.9709,-227.105 83.9872,-274.95 122,-295 193.24,-332.576 293.331,-302.493 337.958,-285.564"/>
<polygon fill="midnightblue" stroke="midnightblue" points="53.8333,-198.902 47.1086,-190.715 47.26,-201.309 53.8333,-198.902"/>
</g>
<!-- Node5 -->
<g id="node5" class="node"><title>Node5</title>
<g id="a_node5"><a xlink:href="protos_8h.html#afdde3fd7b63e3baeb62575594fd49aa8" target="_top" xlink:title="Parse a mailto:// url. ">
<polygon fill="white" stroke="red" points="318,-228.5 318,-247.5 406,-247.5 406,-228.5 318,-228.5"/>
<text text-anchor="middle" x="362" y="-235.5" font-family="Helvetica,sans-Serif" font-size="10.00">url_parse_mailto</text>
</a>
</g>
</g>
<!-- Node1&#45;&gt;Node5 -->
<g id="edge13" class="edge"><title>Node1&#45;&gt;Node5</title>
<path fill="none" stroke="midnightblue" d="M96.171,-189.837C140.362,-197.384 205.38,-208.633 262,-219 280.248,-222.341 300.358,-226.173 317.659,-229.516"/>
<polygon fill="midnightblue" stroke="midnightblue" points="96.6833,-186.374 86.2372,-188.143 95.5064,-193.275 96.6833,-186.374"/>
</g>
<!-- Node6 -->
<g id="node6" class="node"><title>Node6</title>
<g id="a_node6"><a xlink:href="parse_8h.html#ad373211d5d49e235c1aa9b818f0f10a1" target="_top" xlink:title="Parse a MIME header. ">
<polygon fill="white" stroke="red" points="130,-114.5 130,-133.5 254,-133.5 254,-114.5 130,-114.5"/>
<text text-anchor="middle" x="192" y="-121.5" font-family="Helvetica,sans-Serif" font-size="10.00">mutt_read_mime_header</text>
</a>
</g>
</g>
<!-- Node1&#45;&gt;Node6 -->
<g id="edge6" class="edge"><title>Node1&#45;&gt;Node6</title>
<path fill="none" stroke="midnightblue" d="M75.0276,-167.322C89.2536,-161.193 106.391,-154.009 122,-148 135.138,-142.942 149.855,-137.758 162.312,-133.509"/>
<polygon fill="midnightblue" stroke="midnightblue" points="73.4796,-164.178 65.6985,-171.369 76.2654,-170.6 73.4796,-164.178"/>
</g>
<!-- Node7 -->
<g id="node7" class="node"><title>Node7</title>
<g id="a_node7"><a xlink:href="rfc2047_8h.html#a5b4551c4258a843325609099be84f39a" target="_top" xlink:title="Decode any RFC2047 headers in an Address list. ">
<polygon fill="white" stroke="red" points="131,-228.5 131,-247.5 253,-247.5 253,-228.5 131,-228.5"/>
<text text-anchor="middle" x="192" y="-235.5" font-family="Helvetica,sans-Serif" font-size="10.00">rfc2047_decode_addrlist</text>
</a>
</g>
</g>
<!-- Node1&#45;&gt;Node7 -->
<g id="edge7" class="edge"><title>Node1&#45;&gt;Node7</title>
<path fill="none" stroke="midnightblue" d="M75.0276,-194.678C89.2536,-200.807 106.391,-207.991 122,-214 135.138,-219.058 149.855,-224.242 162.312,-228.491"/>
<polygon fill="midnightblue" stroke="midnightblue" points="76.2654,-191.4 65.6985,-190.631 73.4796,-197.822 76.2654,-191.4"/>
</g>
<!-- Node8 -->
<g id="node8" class="node"><title>Node8</title>
<g id="a_node8"><a xlink:href="sendlib_8h.html#a99b5cff5076c9e25bce367f0bae45f4c" target="_top" xlink:title="Undo the encodings of mutt_prepare_envelope() ">
<polygon fill="white" stroke="red" points="298,-171.5 298,-190.5 426,-190.5 426,-171.5 298,-171.5"/>
<text text-anchor="middle" x="362" y="-178.5" font-family="Helvetica,sans-Serif" font-size="10.00">mutt_unprepare_envelope</text>
</a>
</g>
</g>
<!-- Node1&#45;&gt;Node8 -->
<g id="edge15" class="edge"><title>Node1&#45;&gt;Node8</title>
<path fill="none" stroke="midnightblue" d="M96.3752,-181C151.683,-181 238.881,-181 297.93,-181"/>
<polygon fill="midnightblue" stroke="midnightblue" points="96.0952,-177.5 86.0952,-181 96.0951,-184.5 96.0952,-177.5"/>
</g>
<!-- Node9 -->
<g id="node9" class="node"><title>Node9</title>
<g id="a_node9"><a xlink:href="test_2rfc2047_8c.html#a3b6f824883e721fc2b0ac9704d505cd8" target="_top" xlink:title="test_rfc2047">
<polygon fill="white" stroke="black" points="156.5,-76.5 156.5,-95.5 227.5,-95.5 227.5,-76.5 156.5,-76.5"/>
<text text-anchor="middle" x="192" y="-83.5" font-family="Helvetica,sans-Serif" font-size="10.00">test_rfc2047</text>
</a>
</g>
</g>
<!-- Node1&#45;&gt;Node9 -->
<g id="edge11" class="edge"><title>Node1&#45;&gt;Node9</title>
<path fill="none" stroke="midnightblue" d="M57.811,-163.054C72.0748,-145.726 95.8803,-119.974 122,-105 132.456,-99.0056 144.894,-94.826 156.312,-91.9466"/>
<polygon fill="midnightblue" stroke="midnightblue" points="54.7723,-161.249 51.26,-171.245 60.2391,-165.621 54.7723,-161.249"/>
</g>
<!-- Node10 -->
<g id="node10" class="node"><title>Node10</title>
<g id="a_node10"><a xlink:href="rfc2231_8h.html#a7ab08bae79dcf296a21998d44cbfefb8" target="_top" xlink:title="Decode a Parameter list. ">
<polygon fill="white" stroke="red" points="122,-38.5 122,-57.5 262,-57.5 262,-38.5 122,-38.5"/>
<text text-anchor="middle" x="192" y="-45.5" font-family="Helvetica,sans-Serif" font-size="10.00">rfc2231_decode_parameters</text>
</a>
</g>
</g>
<!-- Node1&#45;&gt;Node10 -->
<g id="edge12" class="edge"><title>Node1&#45;&gt;Node10</title>
<path fill="none" stroke="midnightblue" d="M51.8947,-162.028C63.4795,-136.54 87.5134,-91.6059 122,-67 127.462,-63.103 133.69,-60.0047 140.117,-57.5415"/>
<polygon fill="midnightblue" stroke="midnightblue" points="48.6175,-160.787 47.8205,-171.352 55.0318,-163.59 48.6175,-160.787"/>
</g>
<!-- Node11 -->
<g id="node11" class="node"><title>Node11</title>
<g id="a_node11"><a xlink:href="send_8c.html#af1b54154700865964598299ed1cf9a6a" target="_top" xlink:title="rfc2047 decode them in case of an error ">
<polygon fill="white" stroke="red" points="139,-0.5 139,-19.5 245,-19.5 245,-0.5 139,-0.5"/>
<text text-anchor="middle" x="192" y="-7.5" font-family="Helvetica,sans-Serif" font-size="10.00">decode_descriptions</text>
</a>
</g>
</g>
<!-- Node1&#45;&gt;Node11 -->
<g id="edge14" class="edge"><title>Node1&#45;&gt;Node11</title>
<path fill="none" stroke="midnightblue" d="M48.5718,-161.429C57.1922,-128.938 78.9756,-63.9841 122,-29 127.013,-24.9239 132.836,-21.7197 138.934,-19.2015"/>
<polygon fill="midnightblue" stroke="midnightblue" points="45.0926,-160.915 46.0584,-171.466 51.8829,-162.616 45.0926,-160.915"/>
</g>
<!-- Node3&#45;&gt;Node4 -->
<g id="edge3" class="edge"><title>Node3&#45;&gt;Node4</title>
<path fill="none" stroke="midnightblue" d="M261.392,-276C273.577,-276 286.216,-276 298.234,-276"/>
<polygon fill="midnightblue" stroke="midnightblue" points="261.287,-272.5 251.287,-276 261.287,-279.5 261.287,-272.5"/>
</g>
<!-- Node3&#45;&gt;Node5 -->
<g id="edge4" class="edge"><title>Node3&#45;&gt;Node5</title>
<path fill="none" stroke="midnightblue" d="M245.276,-264.176C268.961,-258.818 296.59,-252.569 318.911,-247.52"/>
<polygon fill="midnightblue" stroke="midnightblue" points="244.375,-260.791 235.393,-266.411 245.919,-267.619 244.375,-260.791"/>
</g>
<!-- Node7&#45;&gt;Node4 -->
<g id="edge8" class="edge"><title>Node7&#45;&gt;Node4</title>
<path fill="none" stroke="midnightblue" d="M245.276,-249.824C268.961,-255.182 296.59,-261.431 318.911,-266.48"/>
<polygon fill="midnightblue" stroke="midnightblue" points="245.919,-246.381 235.393,-247.589 244.375,-253.209 245.919,-246.381"/>
</g>
<!-- Node7&#45;&gt;Node5 -->
<g id="edge9" class="edge"><title>Node7&#45;&gt;Node5</title>
<path fill="none" stroke="midnightblue" d="M263.336,-238C281.833,-238 301.239,-238 317.834,-238"/>
<polygon fill="midnightblue" stroke="midnightblue" points="263.177,-234.5 253.177,-238 263.177,-241.5 263.177,-234.5"/>
</g>
<!-- Node7&#45;&gt;Node8 -->
<g id="edge10" class="edge"><title>Node7&#45;&gt;Node8</title>
<path fill="none" stroke="midnightblue" d="M230.702,-225.208C261.644,-214.71 304.772,-200.077 332.789,-190.572"/>
<polygon fill="midnightblue" stroke="midnightblue" points="229.465,-221.932 221.119,-228.459 231.714,-228.561 229.465,-221.932"/>
</g>
</g>
</svg>
