<?xml version="1.0" encoding="UTF-8" standalone="no"?>
<!DOCTYPE svg PUBLIC "-//W3C//DTD SVG 1.1//EN"
 "http://www.w3.org/Graphics/SVG/1.1/DTD/svg11.dtd">
<!-- Generated by graphviz version 2.36.0 (20140111.2315)
 -->
<!-- Title: print_fixed_line Pages: 1 -->
<svg width="218pt" height="66pt"
 viewBox="0.00 0.00 218.00 66.00" xmlns="http://www.w3.org/2000/svg" xmlns:xlink="http://www.w3.org/1999/xlink">
<g id="graph0" class="graph" transform="scale(1 1) rotate(0) translate(4 62)">
<title>print_fixed_line</title>
<polygon fill="white" stroke="none" points="-4,4 -4,-62 214,-62 214,4 -4,4"/>
<!-- Node1 -->
<g id="node1" class="node"><title>Node1</title>
<polygon fill="#bfbfbf" stroke="black" points="0,-19.5 0,-38.5 82,-38.5 82,-19.5 0,-19.5"/>
<text text-anchor="middle" x="41" y="-26.5" font-family="Helvetica,sans-Serif" font-size="10.00">print_fixed_line</text>
</g>
<!-- Node2 -->
<g id="node2" class="node"><title>Node2</title>
<g id="a_node2"><a xlink:href="rfc3676_8c.html#accd9e2230903403065c98b39900c746d" target="_top" xlink:title="Print indented text. ">
<polygon fill="white" stroke="red" points="130.5,-38.5 130.5,-57.5 197.5,-57.5 197.5,-38.5 130.5,-38.5"/>
<text text-anchor="middle" x="164" y="-45.5" font-family="Helvetica,sans-Serif" font-size="10.00">print_indent</text>
</a>
</g>
</g>
<!-- Node1&#45;&gt;Node2 -->
<g id="edge1" class="edge"><title>Node1&#45;&gt;Node2</title>
<path fill="none" stroke="midnightblue" d="M82.2912,-35.3267C94.4296,-37.2327 107.794,-39.3313 120.096,-41.2629"/>
<polygon fill="midnightblue" stroke="midnightblue" points="119.707,-44.7447 130.128,-42.8384 120.792,-37.8294 119.707,-44.7447"/>
</g>
<!-- Node3 -->
<g id="node3" class="node"><title>Node3</title>
<g id="a_node3"><a xlink:href="rfc3676_8c.html#a65b6441acda161a859dcf941c4d0ee9f" target="_top" xlink:title="Should we add a trailing space to quotes. ">
<polygon fill="white" stroke="red" points="118.5,-0.5 118.5,-19.5 209.5,-19.5 209.5,-0.5 118.5,-0.5"/>
<text text-anchor="middle" x="164" y="-7.5" font-family="Helvetica,sans-Serif" font-size="10.00">add_quote_suffix</text>
</a>
</g>
</g>
<!-- Node1&#45;&gt;Node3 -->
<g id="edge2" class="edge"><title>Node1&#45;&gt;Node3</title>
<path fill="none" stroke="midnightblue" d="M82.2912,-22.6733C90.5926,-21.3698 99.4674,-19.9762 108.183,-18.6076"/>
<polygon fill="midnightblue" stroke="midnightblue" points="108.963,-22.0282 118.299,-17.0192 107.877,-15.1129 108.963,-22.0282"/>
</g>
</g>
</svg>
