<?xml version="1.0" encoding="UTF-8" standalone="no"?>
<!DOCTYPE svg PUBLIC "-//W3C//DTD SVG 1.1//EN"
 "http://www.w3.org/Graphics/SVG/1.1/DTD/svg11.dtd">
<!-- Generated by graphviz version 2.36.0 (20140111.2315)
 -->
<!-- Title: mutt_sasl_setup_conn Pages: 1 -->
<svg width="246pt" height="142pt"
 viewBox="0.00 0.00 246.00 142.00" xmlns="http://www.w3.org/2000/svg" xmlns:xlink="http://www.w3.org/1999/xlink">
<g id="graph0" class="graph" transform="scale(1 1) rotate(0) translate(4 138)">
<title>mutt_sasl_setup_conn</title>
<polygon fill="white" stroke="none" points="-4,4 -4,-138 242,-138 242,4 -4,4"/>
<!-- Node1 -->
<g id="node1" class="node"><title>Node1</title>
<polygon fill="#bfbfbf" stroke="black" points="0.5,-57.5 0.5,-76.5 115.5,-76.5 115.5,-57.5 0.5,-57.5"/>
<text text-anchor="middle" x="58" y="-64.5" font-family="Helvetica,sans-Serif" font-size="10.00">mutt_sasl_setup_conn</text>
</g>
<!-- Node2 -->
<g id="node2" class="node"><title>Node2</title>
<g id="a_node2"><a xlink:href="auth__sasl_8c.html#a20df19153f0a84479482001b8f911099" target="_top" xlink:title="Default authenticator if available. ">
<polygon fill="white" stroke="black" points="152.5,-114.5 152.5,-133.5 237.5,-133.5 237.5,-114.5 152.5,-114.5"/>
<text text-anchor="middle" x="195" y="-121.5" font-family="Helvetica,sans-Serif" font-size="10.00">imap_auth_sasl</text>
</a>
</g>
</g>
<!-- Node1&#45;&gt;Node2 -->
<g id="edge1" class="edge"><title>Node1&#45;&gt;Node2</title>
<path fill="none" stroke="midnightblue" d="M90.9246,-80.4793C115.655,-90.9208 149.304,-105.129 171.33,-114.428"/>
<polygon fill="midnightblue" stroke="midnightblue" points="92.1699,-77.2059 81.596,-76.5405 89.447,-83.6547 92.1699,-77.2059"/>
</g>
<!-- Node3 -->
<g id="node3" class="node"><title>Node3</title>
<g id="a_node3"><a xlink:href="nntp_8c.html#aedcf4307ed69f367cbfad56e292a1f63" target="_top" xlink:title="Get login, password and authenticate. ">
<polygon fill="white" stroke="red" points="165.5,-76.5 165.5,-95.5 224.5,-95.5 224.5,-76.5 165.5,-76.5"/>
<text text-anchor="middle" x="195" y="-83.5" font-family="Helvetica,sans-Serif" font-size="10.00">nntp_auth</text>
</a>
</g>
</g>
<!-- Node1&#45;&gt;Node3 -->
<g id="edge2" class="edge"><title>Node1&#45;&gt;Node3</title>
<path fill="none" stroke="midnightblue" d="M125.898,-76.4153C139.736,-78.3628 153.608,-80.3152 165.187,-81.9448"/>
<polygon fill="midnightblue" stroke="midnightblue" points="126.251,-72.9306 115.861,-75.0026 125.275,-79.8622 126.251,-72.9306"/>
</g>
<!-- Node4 -->
<g id="node4" class="node"><title>Node4</title>
<g id="a_node4"><a xlink:href="pop__auth_8c.html#aaf8962f4a757a58d43baa013f316da05" target="_top" xlink:title="POP SASL authenticator. ">
<polygon fill="white" stroke="black" points="155,-38.5 155,-57.5 235,-57.5 235,-38.5 155,-38.5"/>
<text text-anchor="middle" x="195" y="-45.5" font-family="Helvetica,sans-Serif" font-size="10.00">pop_auth_sasl</text>
</a>
</g>
</g>
<!-- Node1&#45;&gt;Node4 -->
<g id="edge3" class="edge"><title>Node1&#45;&gt;Node4</title>
<path fill="none" stroke="midnightblue" d="M125.768,-57.603C135.714,-56.2032 145.682,-54.8003 154.807,-53.5161"/>
<polygon fill="midnightblue" stroke="midnightblue" points="125.275,-54.1378 115.861,-58.9974 126.251,-61.0694 125.275,-54.1378"/>
</g>
<!-- Node5 -->
<g id="node5" class="node"><title>Node5</title>
<g id="a_node5"><a xlink:href="smtp_8c.html#a4aa2b2050276890e734bc568f67d482a" target="_top" xlink:title="Authenticate using SASL. ">
<polygon fill="white" stroke="red" points="152,-0.5 152,-19.5 238,-19.5 238,-0.5 152,-0.5"/>
<text text-anchor="middle" x="195" y="-7.5" font-family="Helvetica,sans-Serif" font-size="10.00">smtp_auth_sasl</text>
</a>
</g>
</g>
<!-- Node1&#45;&gt;Node5 -->
<g id="edge4" class="edge"><title>Node1&#45;&gt;Node5</title>
<path fill="none" stroke="midnightblue" d="M90.9246,-53.5207C115.655,-43.0792 149.304,-28.8715 171.33,-19.5716"/>
<polygon fill="midnightblue" stroke="midnightblue" points="89.447,-50.3453 81.596,-57.4595 92.1699,-56.7941 89.447,-50.3453"/>
</g>
</g>
</svg>
