<?xml version="1.0" encoding="UTF-8" standalone="no"?>
<!DOCTYPE svg PUBLIC "-//W3C//DTD SVG 1.1//EN"
 "http://www.w3.org/Graphics/SVG/1.1/DTD/svg11.dtd">
<!-- Generated by graphviz version 2.36.0 (20140111.2315)
 -->
<!-- Title: mutt_sasl_setup_conn Pages: 1 -->
<svg width="274pt" height="218pt"
 viewBox="0.00 0.00 274.00 218.00" xmlns="http://www.w3.org/2000/svg" xmlns:xlink="http://www.w3.org/1999/xlink">
<g id="graph0" class="graph" transform="scale(1 1) rotate(0) translate(4 214)">
<title>mutt_sasl_setup_conn</title>
<polygon fill="white" stroke="none" points="-4,4 -4,-214 270,-214 270,4 -4,4"/>
<!-- Node1 -->
<g id="node1" class="node"><title>Node1</title>
<polygon fill="#bfbfbf" stroke="black" points="0.5,-95.5 0.5,-114.5 115.5,-114.5 115.5,-95.5 0.5,-95.5"/>
<text text-anchor="middle" x="58" y="-102.5" font-family="Helvetica,sans-Serif" font-size="10.00">mutt_sasl_setup_conn</text>
</g>
<!-- Node2 -->
<g id="node2" class="node"><title>Node2</title>
<g id="a_node2"><a xlink:href="memory_8c.html#a264da4dc58e6dc8983285bd1f538f24d" target="_top" xlink:title="Allocate memory on the heap. ">
<polygon fill="white" stroke="red" points="160.5,-190.5 160.5,-209.5 257.5,-209.5 257.5,-190.5 160.5,-190.5"/>
<text text-anchor="middle" x="209" y="-197.5" font-family="Helvetica,sans-Serif" font-size="10.00">mutt_mem_malloc</text>
</a>
</g>
</g>
<!-- Node1&#45;&gt;Node2 -->
<g id="edge1" class="edge"><title>Node1&#45;&gt;Node2</title>
<path fill="none" stroke="midnightblue" d="M68.4489,-114.722C84.3552,-130.598 118.079,-162.198 152,-181 155.738,-183.072 159.74,-184.972 163.823,-186.702"/>
<polygon fill="midnightblue" stroke="midnightblue" points="162.819,-190.067 173.408,-190.43 165.357,-183.543 162.819,-190.067"/>
</g>
<!-- Node3 -->
<g id="node3" class="node"><title>Node3</title>
<g id="a_node3"><a xlink:href="sasl_8c.html#a81c5a307c99446a04d2267b9df1e0238" target="_top" xlink:title="empty wrapper for underlying open function ">
<polygon fill="white" stroke="black" points="153,-152.5 153,-171.5 265,-171.5 265,-152.5 153,-152.5"/>
<text text-anchor="middle" x="209" y="-159.5" font-family="Helvetica,sans-Serif" font-size="10.00">mutt_sasl_conn_open</text>
</a>
</g>
</g>
<!-- Node1&#45;&gt;Node3 -->
<g id="edge2" class="edge"><title>Node1&#45;&gt;Node3</title>
<path fill="none" stroke="midnightblue" d="M81.4003,-114.6C100.144,-122.525 127.655,-133.906 152,-143 157.545,-145.071 163.433,-147.173 169.228,-149.187"/>
<polygon fill="midnightblue" stroke="midnightblue" points="168.221,-152.542 178.816,-152.472 170.49,-145.92 168.221,-152.542"/>
</g>
<!-- Node4 -->
<g id="node4" class="node"><title>Node4</title>
<g id="a_node4"><a xlink:href="sasl_8c.html#a829bb0b8ce9d7115de445243cfc83fd1" target="_top" xlink:title="close SASL connection ">
<polygon fill="white" stroke="black" points="152,-114.5 152,-133.5 266,-133.5 266,-114.5 152,-114.5"/>
<text text-anchor="middle" x="209" y="-121.5" font-family="Helvetica,sans-Serif" font-size="10.00">mutt_sasl_conn_close</text>
</a>
</g>
</g>
<!-- Node1&#45;&gt;Node4 -->
<g id="edge3" class="edge"><title>Node1&#45;&gt;Node4</title>
<path fill="none" stroke="midnightblue" d="M115.756,-112.237C124.267,-113.323 133.108,-114.45 141.795,-115.558"/>
<polygon fill="midnightblue" stroke="midnightblue" points="141.533,-119.053 151.895,-116.846 142.418,-112.109 141.533,-119.053"/>
</g>
<!-- Node5 -->
<g id="node5" class="node"><title>Node5</title>
<g id="a_node5"><a xlink:href="sasl_8c.html#a2d7a38950d4070459699d286637b9d71" target="_top" xlink:title="Read data from an SASL connection. ">
<polygon fill="white" stroke="black" points="154,-76.5 154,-95.5 264,-95.5 264,-76.5 154,-76.5"/>
<text text-anchor="middle" x="209" y="-83.5" font-family="Helvetica,sans-Serif" font-size="10.00">mutt_sasl_conn_read</text>
</a>
</g>
</g>
<!-- Node1&#45;&gt;Node5 -->
<g id="edge4" class="edge"><title>Node1&#45;&gt;Node5</title>
<path fill="none" stroke="midnightblue" d="M115.756,-97.7627C124.936,-96.5921 134.498,-95.3728 143.838,-94.1817"/>
<polygon fill="midnightblue" stroke="midnightblue" points="144.382,-97.6408 153.859,-92.9039 143.496,-90.6971 144.382,-97.6408"/>
</g>
<!-- Node6 -->
<g id="node6" class="node"><title>Node6</title>
<g id="a_node6"><a xlink:href="sasl_8c.html#aa3a519aced4df0ed73226817d4b09fe8" target="_top" xlink:title="Write to an SASL connection. ">
<polygon fill="white" stroke="black" points="153,-38.5 153,-57.5 265,-57.5 265,-38.5 153,-38.5"/>
<text text-anchor="middle" x="209" y="-45.5" font-family="Helvetica,sans-Serif" font-size="10.00">mutt_sasl_conn_write</text>
</a>
</g>
</g>
<!-- Node1&#45;&gt;Node6 -->
<g id="edge5" class="edge"><title>Node1&#45;&gt;Node6</title>
<path fill="none" stroke="midnightblue" d="M81.4003,-95.4C100.144,-87.475 127.655,-76.0941 152,-67 157.545,-64.9286 163.433,-62.8265 169.228,-60.8126"/>
<polygon fill="midnightblue" stroke="midnightblue" points="170.49,-64.0799 178.816,-57.5276 168.221,-57.4578 170.49,-64.0799"/>
</g>
<!-- Node7 -->
<g id="node7" class="node"><title>Node7</title>
<g id="a_node7"><a xlink:href="sasl_8c.html#a7d132b90b0dc63dc7b2610ed90f54446" target="_top" xlink:title="Check an SASL connection for data. ">
<polygon fill="white" stroke="black" points="156,-0.5 156,-19.5 262,-19.5 262,-0.5 156,-0.5"/>
<text text-anchor="middle" x="209" y="-7.5" font-family="Helvetica,sans-Serif" font-size="10.00">mutt_sasl_conn_poll</text>
</a>
</g>
</g>
<!-- Node1&#45;&gt;Node7 -->
<g id="edge6" class="edge"><title>Node1&#45;&gt;Node7</title>
<path fill="none" stroke="midnightblue" d="M68.4489,-95.2778C84.3552,-79.4021 118.079,-47.8018 152,-29 155.738,-26.9283 159.74,-25.0279 163.823,-23.298"/>
<polygon fill="midnightblue" stroke="midnightblue" points="165.357,-26.4572 173.408,-19.5705 162.819,-19.9332 165.357,-26.4572"/>
</g>
</g>
</svg>
