<?xml version="1.0" encoding="UTF-8" standalone="no"?>
<!DOCTYPE svg PUBLIC "-//W3C//DTD SVG 1.1//EN"
 "http://www.w3.org/Graphics/SVG/1.1/DTD/svg11.dtd">
<!-- Generated by graphviz version 2.36.0 (20140111.2315)
 -->
<!-- Title: mutt_sasl_client_new Pages: 1 -->
<svg width="282pt" height="104pt"
 viewBox="0.00 0.00 282.00 104.00" xmlns="http://www.w3.org/2000/svg" xmlns:xlink="http://www.w3.org/1999/xlink">
<g id="graph0" class="graph" transform="scale(1 1) rotate(0) translate(4 100)">
<title>mutt_sasl_client_new</title>
<polygon fill="white" stroke="none" points="-4,4 -4,-100 278,-100 278,4 -4,4"/>
<!-- Node1 -->
<g id="node1" class="node"><title>Node1</title>
<polygon fill="#bfbfbf" stroke="black" points="0.5,-38.5 0.5,-57.5 111.5,-57.5 111.5,-38.5 0.5,-38.5"/>
<text text-anchor="middle" x="56" y="-45.5" font-family="Helvetica,sans-Serif" font-size="10.00">mutt_sasl_client_new</text>
</g>
<!-- Node2 -->
<g id="node2" class="node"><title>Node2</title>
<g id="a_node2"><a xlink:href="sasl_8c.html#a6a905ca367f178fe5a8a04b390b71d27" target="_top" xlink:title="Initialise SASL library. ">
<polygon fill="white" stroke="red" points="169,-76.5 169,-95.5 253,-95.5 253,-76.5 169,-76.5"/>
<text text-anchor="middle" x="211" y="-83.5" font-family="Helvetica,sans-Serif" font-size="10.00">mutt_sasl_start</text>
</a>
</g>
</g>
<!-- Node1&#45;&gt;Node2 -->
<g id="edge1" class="edge"><title>Node1&#45;&gt;Node2</title>
<path fill="none" stroke="midnightblue" d="M95.6084,-57.589C115.707,-62.5809 140.475,-68.7324 161.819,-74.0334"/>
<polygon fill="midnightblue" stroke="midnightblue" points="161.12,-77.4662 171.669,-76.4799 162.808,-70.6726 161.12,-77.4662"/>
</g>
<!-- Node3 -->
<g id="node3" class="node"><title>Node3</title>
<g id="a_node3"><a xlink:href="sasl_8c.html#abd06051d6bdbf9f011dbfa8df64c424c" target="_top" xlink:title="Convert IP Address to string. ">
<polygon fill="white" stroke="red" points="183,-38.5 183,-57.5 239,-57.5 239,-38.5 183,-38.5"/>
<text text-anchor="middle" x="211" y="-45.5" font-family="Helvetica,sans-Serif" font-size="10.00">iptostring</text>
</a>
</g>
</g>
<!-- Node1&#45;&gt;Node3 -->
<g id="edge2" class="edge"><title>Node1&#45;&gt;Node3</title>
<path fill="none" stroke="midnightblue" d="M111.804,-48C132.018,-48 154.434,-48 172.739,-48"/>
<polygon fill="midnightblue" stroke="midnightblue" points="172.995,-51.5001 182.995,-48 172.995,-44.5001 172.995,-51.5001"/>
</g>
<!-- Node4 -->
<g id="node4" class="node"><title>Node4</title>
<g id="a_node4"><a xlink:href="sasl_8c.html#a4597955ada69ccd58fd6f2c091ea5db4" target="_top" xlink:title="Get the SASL callback functions. ">
<polygon fill="white" stroke="red" points="148.5,-0.5 148.5,-19.5 273.5,-19.5 273.5,-0.5 148.5,-0.5"/>
<text text-anchor="middle" x="211" y="-7.5" font-family="Helvetica,sans-Serif" font-size="10.00">mutt_sasl_get_callbacks</text>
</a>
</g>
</g>
<!-- Node1&#45;&gt;Node4 -->
<g id="edge3" class="edge"><title>Node1&#45;&gt;Node4</title>
<path fill="none" stroke="midnightblue" d="M95.6084,-38.411C115.707,-33.4191 140.475,-27.2676 161.819,-21.9666"/>
<polygon fill="midnightblue" stroke="midnightblue" points="162.808,-25.3274 171.669,-19.5201 161.12,-18.5338 162.808,-25.3274"/>
</g>
</g>
</svg>
