<?xml version="1.0" encoding="UTF-8" standalone="no"?>
<!DOCTYPE svg PUBLIC "-//W3C//DTD SVG 1.1//EN"
 "http://www.w3.org/Graphics/SVG/1.1/DTD/svg11.dtd">
<!-- Generated by graphviz version 2.36.0 (20140111.2315)
 -->
<!-- Title: conn/sasl.c Pages: 1 -->
<svg width="984pt" height="140pt"
 viewBox="0.00 0.00 984.00 140.00" xmlns="http://www.w3.org/2000/svg" xmlns:xlink="http://www.w3.org/1999/xlink">
<g id="graph0" class="graph" transform="scale(1 1) rotate(0) translate(4 136)">
<title>conn/sasl.c</title>
<polygon fill="white" stroke="none" points="-4,4 -4,-136 980,-136 980,4 -4,4"/>
<!-- Node1 -->
<g id="node1" class="node"><title>Node1</title>
<polygon fill="#bfbfbf" stroke="black" points="441.5,-112.5 441.5,-131.5 508.5,-131.5 508.5,-112.5 441.5,-112.5"/>
<text text-anchor="middle" x="475" y="-119.5" font-family="Helvetica,sans-Serif" font-size="10.00">conn/sasl.c</text>
</g>
<!-- Node2 -->
<g id="node2" class="node"><title>Node2</title>
<polygon fill="white" stroke="#bfbfbf" points="-0.5,-56.5 -0.5,-75.5 50.5,-75.5 50.5,-56.5 -0.5,-56.5"/>
<text text-anchor="middle" x="25" y="-63.5" font-family="Helvetica,sans-Serif" font-size="10.00">config.h</text>
</g>
<!-- Node1&#45;&gt;Node2 -->
<g id="edge1" class="edge"><title>Node1&#45;&gt;Node2</title>
<path fill="none" stroke="midnightblue" d="M441.318,-119.087C371.803,-114.768 207.32,-102.641 60.6093,-76.0549"/>
<polygon fill="midnightblue" stroke="midnightblue" points="60.9942,-72.5671 50.5259,-74.1993 59.7273,-79.4515 60.9942,-72.5671"/>
</g>
<!-- Node3 -->
<g id="node3" class="node"><title>Node3</title>
<polygon fill="white" stroke="#bfbfbf" points="68.5,-56.5 68.5,-75.5 115.5,-75.5 115.5,-56.5 68.5,-56.5"/>
<text text-anchor="middle" x="92" y="-63.5" font-family="Helvetica,sans-Serif" font-size="10.00">errno.h</text>
</g>
<!-- Node1&#45;&gt;Node3 -->
<g id="edge2" class="edge"><title>Node1&#45;&gt;Node3</title>
<path fill="none" stroke="midnightblue" d="M441.338,-118.339C380.16,-113.148 246.574,-100.178 125.48,-76.0591"/>
<polygon fill="midnightblue" stroke="midnightblue" points="126.166,-72.6272 115.671,-74.075 124.779,-79.4882 126.166,-72.6272"/>
</g>
<!-- Node4 -->
<g id="node4" class="node"><title>Node4</title>
<polygon fill="white" stroke="#bfbfbf" points="133.5,-56.5 133.5,-75.5 182.5,-75.5 182.5,-56.5 133.5,-56.5"/>
<text text-anchor="middle" x="158" y="-63.5" font-family="Helvetica,sans-Serif" font-size="10.00">netdb.h</text>
</g>
<!-- Node1&#45;&gt;Node4 -->
<g id="edge3" class="edge"><title>Node1&#45;&gt;Node4</title>
<path fill="none" stroke="midnightblue" d="M441.494,-116.309C389.132,-108.814 284.8,-93.2173 197,-76 195.551,-75.7159 194.074,-75.4169 192.583,-75.1075"/>
<polygon fill="midnightblue" stroke="midnightblue" points="193.22,-71.6642 182.705,-72.9612 191.734,-78.5046 193.22,-71.6642"/>
</g>
<!-- Node5 -->
<g id="node5" class="node"><title>Node5</title>
<polygon fill="white" stroke="#bfbfbf" points="193,-0.5 193,-19.5 257,-19.5 257,-0.5 193,-0.5"/>
<text text-anchor="middle" x="225" y="-7.5" font-family="Helvetica,sans-Serif" font-size="10.00">sasl/sasl.h</text>
</g>
<!-- Node1&#45;&gt;Node5 -->
<g id="edge4" class="edge"><title>Node1&#45;&gt;Node5</title>
<path fill="none" stroke="midnightblue" d="M441.455,-119.73C381.056,-116.688 257.705,-106.775 230,-76 218.897,-63.6666 218.872,-44.1381 220.878,-29.7025"/>
<polygon fill="midnightblue" stroke="midnightblue" points="224.322,-30.323 222.658,-19.8598 217.434,-29.0775 224.322,-30.323"/>
</g>
<!-- Node6 -->
<g id="node6" class="node"><title>Node6</title>
<polygon fill="white" stroke="#bfbfbf" points="769,-0.5 769,-19.5 825,-19.5 825,-0.5 769,-0.5"/>
<text text-anchor="middle" x="797" y="-7.5" font-family="Helvetica,sans-Serif" font-size="10.00">stdbool.h</text>
</g>
<!-- Node1&#45;&gt;Node6 -->
<g id="edge5" class="edge"><title>Node1&#45;&gt;Node6</title>
<path fill="none" stroke="midnightblue" d="M508.593,-121.121C559.126,-120.007 656.498,-112.746 729,-76 751.65,-64.5204 771.871,-43.0077 784.258,-27.8839"/>
<polygon fill="midnightblue" stroke="midnightblue" points="787.157,-29.8598 790.605,-19.8417 781.663,-25.523 787.157,-29.8598"/>
</g>
<!-- Node7 -->
<g id="node7" class="node"><title>Node7</title>
<polygon fill="white" stroke="#bfbfbf" points="542,-0.5 542,-19.5 588,-19.5 588,-0.5 542,-0.5"/>
<text text-anchor="middle" x="565" y="-7.5" font-family="Helvetica,sans-Serif" font-size="10.00">stdio.h</text>
</g>
<!-- Node1&#45;&gt;Node7 -->
<g id="edge6" class="edge"><title>Node1&#45;&gt;Node7</title>
<path fill="none" stroke="midnightblue" d="M481.991,-112.109C491.906,-99.5343 510.666,-75.872 527,-56 534.889,-46.4024 543.849,-35.7786 551.087,-27.2645"/>
<polygon fill="midnightblue" stroke="midnightblue" points="553.823,-29.4505 557.647,-19.5699 548.496,-24.9091 553.823,-29.4505"/>
</g>
<!-- Node8 -->
<g id="node8" class="node"><title>Node8</title>
<polygon fill="white" stroke="#bfbfbf" points="339.5,-56.5 339.5,-75.5 388.5,-75.5 388.5,-56.5 339.5,-56.5"/>
<text text-anchor="middle" x="364" y="-63.5" font-family="Helvetica,sans-Serif" font-size="10.00">string.h</text>
</g>
<!-- Node1&#45;&gt;Node8 -->
<g id="edge7" class="edge"><title>Node1&#45;&gt;Node8</title>
<path fill="none" stroke="midnightblue" d="M457.166,-112.324C439.284,-103.625 411.525,-90.1202 390.954,-80.113"/>
<polygon fill="midnightblue" stroke="midnightblue" points="392.313,-76.8819 381.79,-75.6545 389.251,-83.1765 392.313,-76.8819"/>
</g>
<!-- Node9 -->
<g id="node9" class="node"><title>Node9</title>
<polygon fill="white" stroke="#bfbfbf" points="406.5,-56.5 406.5,-75.5 479.5,-75.5 479.5,-56.5 406.5,-56.5"/>
<text text-anchor="middle" x="443" y="-63.5" font-family="Helvetica,sans-Serif" font-size="10.00">sys/socket.h</text>
</g>
<!-- Node1&#45;&gt;Node9 -->
<g id="edge8" class="edge"><title>Node1&#45;&gt;Node9</title>
<path fill="none" stroke="midnightblue" d="M469.716,-112.083C465.289,-104.613 458.837,-93.7244 453.382,-84.5199"/>
<polygon fill="midnightblue" stroke="midnightblue" points="456.295,-82.5697 448.186,-75.7511 450.273,-86.1383 456.295,-82.5697"/>
</g>
<!-- Node10 -->
<g id="node10" class="node"><title>Node10</title>
<polygon fill="white" stroke="#bfbfbf" points="289,-0.5 289,-19.5 333,-19.5 333,-0.5 289,-0.5"/>
<text text-anchor="middle" x="311" y="-7.5" font-family="Helvetica,sans-Serif" font-size="10.00">time.h</text>
</g>
<!-- Node1&#45;&gt;Node10 -->
<g id="edge9" class="edge"><title>Node1&#45;&gt;Node10</title>
<path fill="none" stroke="midnightblue" d="M441.301,-119.225C408.816,-115.724 360.383,-105.512 331,-76 318.905,-63.8522 314.096,-44.5764 312.199,-30.165"/>
<polygon fill="midnightblue" stroke="midnightblue" points="315.652,-29.5019 311.219,-19.8793 308.684,-30.1664 315.652,-29.5019"/>
</g>
<!-- Node11 -->
<g id="node11" class="node"><title>Node11</title>
<polygon fill="white" stroke="#bfbfbf" points="606.5,-0.5 606.5,-19.5 673.5,-19.5 673.5,-0.5 606.5,-0.5"/>
<text text-anchor="middle" x="640" y="-7.5" font-family="Helvetica,sans-Serif" font-size="10.00">mutt/mutt.h</text>
</g>
<!-- Node1&#45;&gt;Node11 -->
<g id="edge10" class="edge"><title>Node1&#45;&gt;Node11</title>
<path fill="none" stroke="midnightblue" d="M508.709,-119.116C564.213,-115.232 671.004,-104.202 694,-76 708.456,-58.2711 685.269,-38.025 664.932,-24.9053"/>
<polygon fill="midnightblue" stroke="midnightblue" points="666.579,-21.8101 656.221,-19.5802 662.928,-27.7824 666.579,-21.8101"/>
</g>
<!-- Node12 -->
<g id="node12" class="node"><title>Node12</title>
<g id="a_node12"><a xlink:href="sasl_8h.html" target="_top" xlink:title="SASL authentication support. ">
<polygon fill="white" stroke="red" points="239.5,-56.5 239.5,-75.5 282.5,-75.5 282.5,-56.5 239.5,-56.5"/>
<text text-anchor="middle" x="261" y="-63.5" font-family="Helvetica,sans-Serif" font-size="10.00">sasl.h</text>
</a>
</g>
</g>
<!-- Node1&#45;&gt;Node12 -->
<g id="edge11" class="edge"><title>Node1&#45;&gt;Node12</title>
<path fill="none" stroke="midnightblue" d="M441.091,-112.444C400.304,-102.152 332.376,-85.0107 292.632,-74.9819"/>
<polygon fill="midnightblue" stroke="midnightblue" points="293.244,-71.5267 282.692,-72.4736 291.531,-78.314 293.244,-71.5267"/>
</g>
<!-- Node13 -->
<g id="node13" class="node"><title>Node13</title>
<g id="a_node13"><a xlink:href="conn_2account_8h.html" target="_top" xlink:title="Account object. ">
<polygon fill="white" stroke="black" points="691.5,-0.5 691.5,-19.5 750.5,-19.5 750.5,-0.5 691.5,-0.5"/>
<text text-anchor="middle" x="721" y="-7.5" font-family="Helvetica,sans-Serif" font-size="10.00">account.h</text>
</a>
</g>
</g>
<!-- Node1&#45;&gt;Node13 -->
<g id="edge14" class="edge"><title>Node1&#45;&gt;Node13</title>
<path fill="none" stroke="midnightblue" d="M508.761,-119.162C566.93,-115.272 682.471,-104.129 710,-76 721.749,-63.995 723.642,-44.391 723.118,-29.8469"/>
<polygon fill="midnightblue" stroke="midnightblue" points="726.58,-29.2111 722.322,-19.5094 719.6,-29.7486 726.58,-29.2111"/>
</g>
<!-- Node14 -->
<g id="node14" class="node"><title>Node14</title>
<g id="a_node14"><a xlink:href="connection_8h.html" target="_top" xlink:title="An open network connection (socket) ">
<polygon fill="white" stroke="black" points="536,-56.5 536,-75.5 608,-75.5 608,-56.5 536,-56.5"/>
<text text-anchor="middle" x="572" y="-63.5" font-family="Helvetica,sans-Serif" font-size="10.00">connection.h</text>
</a>
</g>
</g>
<!-- Node1&#45;&gt;Node14 -->
<g id="edge15" class="edge"><title>Node1&#45;&gt;Node14</title>
<path fill="none" stroke="midnightblue" d="M490.585,-112.324C505.999,-103.743 529.812,-90.486 547.71,-80.5224"/>
<polygon fill="midnightblue" stroke="midnightblue" points="549.419,-83.5767 556.454,-75.6545 546.014,-77.4606 549.419,-83.5767"/>
</g>
<!-- Node15 -->
<g id="node15" class="node"><title>Node15</title>
<g id="a_node15"><a xlink:href="curs__lib_8h.html" target="_top" xlink:title="GUI miscellaneous curses (window drawing) routines. ">
<polygon fill="white" stroke="red" points="626.5,-56.5 626.5,-75.5 685.5,-75.5 685.5,-56.5 626.5,-56.5"/>
<text text-anchor="middle" x="656" y="-63.5" font-family="Helvetica,sans-Serif" font-size="10.00">curs_lib.h</text>
</a>
</g>
</g>
<!-- Node1&#45;&gt;Node15 -->
<g id="edge20" class="edge"><title>Node1&#45;&gt;Node15</title>
<path fill="none" stroke="midnightblue" d="M503.68,-112.444C534.527,-103.241 583.728,-88.5617 617.829,-78.3879"/>
<polygon fill="midnightblue" stroke="midnightblue" points="618.872,-81.7293 627.454,-75.5164 616.871,-75.0215 618.872,-81.7293"/>
</g>
<!-- Node16 -->
<g id="node16" class="node"><title>Node16</title>
<g id="a_node16"><a xlink:href="mutt__account_8h.html" target="_top" xlink:title="Account object used by POP and IMAP. ">
<polygon fill="white" stroke="black" points="818,-56.5 818,-75.5 902,-75.5 902,-56.5 818,-56.5"/>
<text text-anchor="middle" x="860" y="-63.5" font-family="Helvetica,sans-Serif" font-size="10.00">mutt_account.h</text>
</a>
</g>
</g>
<!-- Node1&#45;&gt;Node16 -->
<g id="edge23" class="edge"><title>Node1&#45;&gt;Node16</title>
<path fill="none" stroke="midnightblue" d="M508.664,-116.66C568.263,-108.918 696.227,-92.0286 804,-76 805.26,-75.8126 806.536,-75.6211 807.822,-75.4265"/>
<polygon fill="midnightblue" stroke="midnightblue" points="808.468,-78.8684 817.819,-73.8875 807.403,-71.95 808.468,-78.8684"/>
</g>
<!-- Node17 -->
<g id="node17" class="node"><title>Node17</title>
<g id="a_node17"><a xlink:href="options_8h.html" target="_top" xlink:title="Handling of global boolean variables. ">
<polygon fill="white" stroke="red" points="920,-56.5 920,-75.5 976,-75.5 976,-56.5 920,-56.5"/>
<text text-anchor="middle" x="948" y="-63.5" font-family="Helvetica,sans-Serif" font-size="10.00">options.h</text>
</a>
</g>
</g>
<!-- Node1&#45;&gt;Node17 -->
<g id="edge24" class="edge"><title>Node1&#45;&gt;Node17</title>
<path fill="none" stroke="midnightblue" d="M508.766,-119.001C582.167,-114.33 761.596,-101.142 910,-76 910.1,-75.983 910.201,-75.9659 910.301,-75.9487"/>
<polygon fill="midnightblue" stroke="midnightblue" points="910.712,-79.4345 919.861,-74.0929 909.378,-72.5628 910.712,-79.4345"/>
</g>
<!-- Node12&#45;&gt;Node5 -->
<g id="edge12" class="edge"><title>Node12&#45;&gt;Node5</title>
<path fill="none" stroke="midnightblue" d="M255.055,-56.083C250.023,-48.5341 242.663,-37.4948 236.487,-28.2298"/>
<polygon fill="midnightblue" stroke="midnightblue" points="239.293,-26.1301 230.834,-19.7511 233.469,-30.0131 239.293,-26.1301"/>
</g>
<!-- Node12&#45;&gt;Node10 -->
<g id="edge13" class="edge"><title>Node12&#45;&gt;Node10</title>
<path fill="none" stroke="midnightblue" d="M269.256,-56.083C276.465,-48.2982 287.11,-36.8015 295.846,-27.3665"/>
<polygon fill="midnightblue" stroke="midnightblue" points="298.671,-29.4666 302.897,-19.7511 293.535,-24.7108 298.671,-29.4666"/>
</g>
<!-- Node14&#45;&gt;Node7 -->
<g id="edge16" class="edge"><title>Node14&#45;&gt;Node7</title>
<path fill="none" stroke="midnightblue" d="M570.844,-56.083C569.916,-48.9272 568.582,-38.6353 567.423,-29.6911"/>
<polygon fill="midnightblue" stroke="midnightblue" points="570.891,-29.2181 566.134,-19.7511 563.949,-30.1181 570.891,-29.2181"/>
</g>
<!-- Node14&#45;&gt;Node10 -->
<g id="edge17" class="edge"><title>Node14&#45;&gt;Node10</title>
<path fill="none" stroke="midnightblue" d="M535.983,-57.5482C484.912,-46.9819 392.231,-27.8065 343.284,-17.6794"/>
<polygon fill="midnightblue" stroke="midnightblue" points="343.751,-14.202 333.249,-15.6033 342.333,-21.0568 343.751,-14.202"/>
</g>
<!-- Node14&#45;&gt;Node11 -->
<g id="edge18" class="edge"><title>Node14&#45;&gt;Node11</title>
<path fill="none" stroke="midnightblue" d="M582.925,-56.324C593.175,-48.1849 608.721,-35.8395 621.001,-26.0874"/>
<polygon fill="midnightblue" stroke="midnightblue" points="623.221,-28.7937 628.876,-19.8339 618.868,-23.3119 623.221,-28.7937"/>
</g>
<!-- Node14&#45;&gt;Node13 -->
<g id="edge19" class="edge"><title>Node14&#45;&gt;Node13</title>
<path fill="none" stroke="midnightblue" d="M595.609,-56.4435C620.458,-47.4381 659.774,-33.1891 687.754,-23.049"/>
<polygon fill="midnightblue" stroke="midnightblue" points="689.292,-26.2144 697.501,-19.5164 686.907,-19.6332 689.292,-26.2144"/>
</g>
<!-- Node15&#45;&gt;Node6 -->
<g id="edge21" class="edge"><title>Node15&#45;&gt;Node6</title>
<path fill="none" stroke="midnightblue" d="M678.342,-56.4435C701.753,-47.4776 738.736,-33.314 765.19,-23.1827"/>
<polygon fill="midnightblue" stroke="midnightblue" points="766.676,-26.3615 774.763,-19.5164 764.172,-19.8245 766.676,-26.3615"/>
</g>
<!-- Node15&#45;&gt;Node7 -->
<g id="edge22" class="edge"><title>Node15&#45;&gt;Node7</title>
<path fill="none" stroke="midnightblue" d="M641.379,-56.324C627.051,-47.8215 604.987,-34.7288 588.251,-24.7975"/>
<polygon fill="midnightblue" stroke="midnightblue" points="589.97,-21.7478 579.584,-19.6545 586.398,-27.7677 589.97,-21.7478"/>
</g>
<!-- Node17&#45;&gt;Node6 -->
<g id="edge25" class="edge"><title>Node17&#45;&gt;Node6</title>
<path fill="none" stroke="midnightblue" d="M924.074,-56.4435C898.781,-47.3986 858.698,-33.064 830.32,-22.9158"/>
<polygon fill="midnightblue" stroke="midnightblue" points="831.409,-19.5882 820.814,-19.5164 829.052,-26.1794 831.409,-19.5882"/>
</g>
</g>
</svg>
