<?xml version="1.0" encoding="UTF-8" standalone="no"?>
<!DOCTYPE svg PUBLIC "-//W3C//DTD SVG 1.1//EN"
 "http://www.w3.org/Graphics/SVG/1.1/DTD/svg11.dtd">
<!-- Generated by graphviz version 2.36.0 (20140111.2315)
 -->
<!-- Title: score.c Pages: 1 -->
<svg width="1033pt" height="140pt"
 viewBox="0.00 0.00 1033.00 140.00" xmlns="http://www.w3.org/2000/svg" xmlns:xlink="http://www.w3.org/1999/xlink">
<g id="graph0" class="graph" transform="scale(1 1) rotate(0) translate(4 136)">
<title>score.c</title>
<polygon fill="white" stroke="none" points="-4,4 -4,-136 1029,-136 1029,4 -4,4"/>
<!-- Node1 -->
<g id="node1" class="node"><title>Node1</title>
<polygon fill="#bfbfbf" stroke="black" points="493.5,-112.5 493.5,-131.5 542.5,-131.5 542.5,-112.5 493.5,-112.5"/>
<text text-anchor="middle" x="518" y="-119.5" font-family="Helvetica,sans-Serif" font-size="10.00">score.c</text>
</g>
<!-- Node2 -->
<g id="node2" class="node"><title>Node2</title>
<polygon fill="white" stroke="#bfbfbf" points="-0.5,-56.5 -0.5,-75.5 50.5,-75.5 50.5,-56.5 -0.5,-56.5"/>
<text text-anchor="middle" x="25" y="-63.5" font-family="Helvetica,sans-Serif" font-size="10.00">config.h</text>
</g>
<!-- Node1&#45;&gt;Node2 -->
<g id="edge1" class="edge"><title>Node1&#45;&gt;Node2</title>
<path fill="none" stroke="midnightblue" d="M493.311,-119.612C424.907,-115.538 227.284,-102.217 65,-76 63.5507,-75.7659 62.0753,-75.511 60.5874,-75.2404"/>
<polygon fill="midnightblue" stroke="midnightblue" points="61.222,-71.7981 50.7307,-73.2757 59.8536,-78.6631 61.222,-71.7981"/>
</g>
<!-- Node3 -->
<g id="node3" class="node"><title>Node3</title>
<polygon fill="white" stroke="#bfbfbf" points="349,-0.5 349,-19.5 405,-19.5 405,-0.5 349,-0.5"/>
<text text-anchor="middle" x="377" y="-7.5" font-family="Helvetica,sans-Serif" font-size="10.00">stdbool.h</text>
</g>
<!-- Node1&#45;&gt;Node3 -->
<g id="edge2" class="edge"><title>Node1&#45;&gt;Node3</title>
<path fill="none" stroke="midnightblue" d="M493.282,-120.235C407.228,-117.323 124.56,-105.558 98,-76 92.0588,-69.3883 92.2367,-62.7673 98,-56 128.485,-20.2041 269.707,-12.7841 338.767,-11.3154"/>
<polygon fill="midnightblue" stroke="midnightblue" points="338.872,-14.8142 348.807,-11.1332 338.745,-7.81531 338.872,-14.8142"/>
</g>
<!-- Node4 -->
<g id="node4" class="node"><title>Node4</title>
<polygon fill="white" stroke="#bfbfbf" points="885,-56.5 885,-75.5 933,-75.5 933,-56.5 885,-56.5"/>
<text text-anchor="middle" x="909" y="-63.5" font-family="Helvetica,sans-Serif" font-size="10.00">stdlib.h</text>
</g>
<!-- Node1&#45;&gt;Node4 -->
<g id="edge3" class="edge"><title>Node1&#45;&gt;Node4</title>
<path fill="none" stroke="midnightblue" d="M542.851,-119.017C601.214,-114.111 751.439,-100.03 875,-76 875.101,-75.9803 875.202,-75.9605 875.304,-75.9406"/>
<polygon fill="midnightblue" stroke="midnightblue" points="875.947,-79.3833 884.946,-73.7919 874.424,-72.5509 875.947,-79.3833"/>
</g>
<!-- Node5 -->
<g id="node5" class="node"><title>Node5</title>
<g id="a_node5"><a xlink:href="mutt_2mutt_8h.html" target="_top" xlink:title="Convenience wrapper for the library headers. ">
<polygon fill="white" stroke="red" points="710.5,-0.5 710.5,-19.5 777.5,-19.5 777.5,-0.5 710.5,-0.5"/>
<text text-anchor="middle" x="744" y="-7.5" font-family="Helvetica,sans-Serif" font-size="10.00">mutt/mutt.h</text>
</a>
</g>
</g>
<!-- Node1&#45;&gt;Node5 -->
<g id="edge4" class="edge"><title>Node1&#45;&gt;Node5</title>
<path fill="none" stroke="midnightblue" d="M542.65,-119.496C594.282,-115.805 711.154,-104.436 737,-76 748.083,-63.8055 748.847,-44.536 747.431,-30.1387"/>
<polygon fill="midnightblue" stroke="midnightblue" points="750.844,-29.2792 745.984,-19.8653 743.913,-30.2557 750.844,-29.2792"/>
</g>
<!-- Node6 -->
<g id="node6" class="node"><title>Node6</title>
<g id="a_node6"><a xlink:href="lib_8h.html" target="_top" xlink:title="Convenience wrapper for the config headers. ">
<polygon fill="white" stroke="red" points="593,-0.5 593,-19.5 657,-19.5 657,-0.5 593,-0.5"/>
<text text-anchor="middle" x="625" y="-7.5" font-family="Helvetica,sans-Serif" font-size="10.00">config/lib.h</text>
</a>
</g>
</g>
<!-- Node1&#45;&gt;Node6 -->
<g id="edge5" class="edge"><title>Node1&#45;&gt;Node6</title>
<path fill="none" stroke="midnightblue" d="M542.577,-119.29C591.625,-115.311 698.857,-103.589 721,-76 740.551,-51.6409 701.123,-32.9294 667.037,-21.9693"/>
<polygon fill="midnightblue" stroke="midnightblue" points="667.747,-18.5265 657.16,-18.9522 665.702,-25.2211 667.747,-18.5265"/>
</g>
<!-- Node7 -->
<g id="node7" class="node"><title>Node7</title>
<g id="a_node7"><a xlink:href="email_8h.html" target="_top" xlink:title="Structs that make up an email. ">
<polygon fill="white" stroke="red" points="951,-56.5 951,-75.5 1025,-75.5 1025,-56.5 951,-56.5"/>
<text text-anchor="middle" x="988" y="-63.5" font-family="Helvetica,sans-Serif" font-size="10.00">email/email.h</text>
</a>
</g>
</g>
<!-- Node1&#45;&gt;Node7 -->
<g id="edge6" class="edge"><title>Node1&#45;&gt;Node7</title>
<path fill="none" stroke="midnightblue" d="M542.948,-119.12C607.139,-114.119 783.415,-99.3613 940.569,-76.0944"/>
<polygon fill="midnightblue" stroke="midnightblue" points="941.52,-79.4912 950.891,-74.5496 940.483,-72.5683 941.52,-79.4912"/>
</g>
<!-- Node8 -->
<g id="node8" class="node"><title>Node8</title>
<g id="a_node8"><a xlink:href="mutt_8h.html" target="_top" xlink:title="Many unsorted constants and some structs. ">
<polygon fill="white" stroke="red" points="107,-56.5 107,-75.5 151,-75.5 151,-56.5 107,-56.5"/>
<text text-anchor="middle" x="129" y="-63.5" font-family="Helvetica,sans-Serif" font-size="10.00">mutt.h</text>
</a>
</g>
</g>
<!-- Node1&#45;&gt;Node8 -->
<g id="edge7" class="edge"><title>Node1&#45;&gt;Node8</title>
<path fill="none" stroke="midnightblue" d="M493.474,-119.256C436.656,-114.935 291.539,-102.275 161.386,-75.995"/>
<polygon fill="midnightblue" stroke="midnightblue" points="161.745,-72.4959 151.246,-73.9133 160.338,-79.3529 161.745,-72.4959"/>
</g>
<!-- Node9 -->
<g id="node9" class="node"><title>Node9</title>
<g id="a_node9"><a xlink:href="score_8h.html" target="_top" xlink:title="Routines for adding user scores to emails. ">
<polygon fill="white" stroke="black" points="169.5,-56.5 169.5,-75.5 218.5,-75.5 218.5,-56.5 169.5,-56.5"/>
<text text-anchor="middle" x="194" y="-63.5" font-family="Helvetica,sans-Serif" font-size="10.00">score.h</text>
</a>
</g>
</g>
<!-- Node1&#45;&gt;Node9 -->
<g id="edge9" class="edge"><title>Node1&#45;&gt;Node9</title>
<path fill="none" stroke="midnightblue" d="M493.302,-118.136C444.486,-112.273 332.069,-97.7632 228.76,-76.1934"/>
<polygon fill="midnightblue" stroke="midnightblue" points="229.301,-72.7305 218.793,-74.084 227.851,-79.5788 229.301,-72.7305"/>
</g>
<!-- Node10 -->
<g id="node10" class="node"><title>Node10</title>
<g id="a_node10"><a xlink:href="context_8h.html" target="_top" xlink:title="The &quot;currently&#45;open&quot; mailbox. ">
<polygon fill="white" stroke="red" points="236.5,-56.5 236.5,-75.5 293.5,-75.5 293.5,-56.5 236.5,-56.5"/>
<text text-anchor="middle" x="265" y="-63.5" font-family="Helvetica,sans-Serif" font-size="10.00">context.h</text>
</a>
</g>
</g>
<!-- Node1&#45;&gt;Node10 -->
<g id="edge11" class="edge"><title>Node1&#45;&gt;Node10</title>
<path fill="none" stroke="midnightblue" d="M493.45,-116.08C455.192,-108.365 378.795,-92.7736 303.716,-76.1122"/>
<polygon fill="midnightblue" stroke="midnightblue" points="304.137,-72.6202 293.615,-73.8622 302.615,-79.4527 304.137,-72.6202"/>
</g>
<!-- Node11 -->
<g id="node11" class="node"><title>Node11</title>
<g id="a_node11"><a xlink:href="globals_8h.html" target="_top" xlink:title="Hundreds of global variables to back the user variables. ">
<polygon fill="white" stroke="red" points="597,-56.5 597,-75.5 653,-75.5 653,-56.5 597,-56.5"/>
<text text-anchor="middle" x="625" y="-63.5" font-family="Helvetica,sans-Serif" font-size="10.00">globals.h</text>
</a>
</g>
</g>
<!-- Node1&#45;&gt;Node11 -->
<g id="edge13" class="edge"><title>Node1&#45;&gt;Node11</title>
<path fill="none" stroke="midnightblue" d="M535.191,-112.324C552.351,-103.664 578.946,-90.2424 598.747,-80.249"/>
<polygon fill="midnightblue" stroke="midnightblue" points="600.501,-83.2847 607.851,-75.6545 597.347,-77.0354 600.501,-83.2847"/>
</g>
<!-- Node12 -->
<g id="node12" class="node"><title>Node12</title>
<g id="a_node12"><a xlink:href="keymap_8h.html" target="_top" xlink:title="Manage keymappings. ">
<polygon fill="white" stroke="red" points="807.5,-56.5 807.5,-75.5 866.5,-75.5 866.5,-56.5 807.5,-56.5"/>
<text text-anchor="middle" x="837" y="-63.5" font-family="Helvetica,sans-Serif" font-size="10.00">keymap.h</text>
</a>
</g>
</g>
<!-- Node1&#45;&gt;Node12 -->
<g id="edge17" class="edge"><title>Node1&#45;&gt;Node12</title>
<path fill="none" stroke="midnightblue" d="M542.708,-117.292C590.932,-109.982 700.934,-92.9416 793,-76 794.438,-75.7354 795.901,-75.4613 797.378,-75.1805"/>
<polygon fill="midnightblue" stroke="midnightblue" points="798.066,-78.6124 807.209,-73.2597 796.723,-71.7423 798.066,-78.6124"/>
</g>
<!-- Node13 -->
<g id="node13" class="node"><title>Node13</title>
<g id="a_node13"><a xlink:href="menu_8h.html" target="_top" xlink:title="GUI present the user with a selectable list. ">
<polygon fill="white" stroke="red" points="459.5,-56.5 459.5,-75.5 508.5,-75.5 508.5,-56.5 459.5,-56.5"/>
<text text-anchor="middle" x="484" y="-63.5" font-family="Helvetica,sans-Serif" font-size="10.00">menu.h</text>
</a>
</g>
</g>
<!-- Node1&#45;&gt;Node13 -->
<g id="edge19" class="edge"><title>Node1&#45;&gt;Node13</title>
<path fill="none" stroke="midnightblue" d="M512.386,-112.083C507.633,-104.534 500.682,-93.4948 494.848,-84.2298"/>
<polygon fill="midnightblue" stroke="midnightblue" points="497.8,-82.3486 489.51,-75.7511 491.876,-86.0783 497.8,-82.3486"/>
</g>
<!-- Node14 -->
<g id="node14" class="node"><title>Node14</title>
<g id="a_node14"><a xlink:href="options_8h.html" target="_top" xlink:title="Handling of global boolean variables. ">
<polygon fill="white" stroke="red" points="312,-56.5 312,-75.5 368,-75.5 368,-56.5 312,-56.5"/>
<text text-anchor="middle" x="340" y="-63.5" font-family="Helvetica,sans-Serif" font-size="10.00">options.h</text>
</a>
</g>
</g>
<!-- Node1&#45;&gt;Node14 -->
<g id="edge22" class="edge"><title>Node1&#45;&gt;Node14</title>
<path fill="none" stroke="midnightblue" d="M493.25,-113.492C463.341,-104.418 412.704,-89.0564 377.875,-78.49"/>
<polygon fill="midnightblue" stroke="midnightblue" points="378.643,-75.0656 368.057,-75.5118 376.611,-81.7642 378.643,-75.0656"/>
</g>
<!-- Node15 -->
<g id="node15" class="node"><title>Node15</title>
<g id="a_node15"><a xlink:href="pattern_8h.html" target="_top" xlink:title="Match patterns to emails. ">
<polygon fill="white" stroke="red" points="386.5,-56.5 386.5,-75.5 441.5,-75.5 441.5,-56.5 386.5,-56.5"/>
<text text-anchor="middle" x="414" y="-63.5" font-family="Helvetica,sans-Serif" font-size="10.00">pattern.h</text>
</a>
</g>
</g>
<!-- Node1&#45;&gt;Node15 -->
<g id="edge24" class="edge"><title>Node1&#45;&gt;Node15</title>
<path fill="none" stroke="midnightblue" d="M501.291,-112.324C484.688,-103.703 458.998,-90.3643 439.78,-80.3855"/>
<polygon fill="midnightblue" stroke="midnightblue" points="441.156,-77.1565 430.668,-75.6545 437.93,-83.3689 441.156,-77.1565"/>
</g>
<!-- Node16 -->
<g id="node16" class="node"><title>Node16</title>
<g id="a_node16"><a xlink:href="protos_8h.html" target="_top" xlink:title="Prototypes for many functions. ">
<polygon fill="white" stroke="red" points="527,-56.5 527,-75.5 579,-75.5 579,-56.5 527,-56.5"/>
<text text-anchor="middle" x="553" y="-63.5" font-family="Helvetica,sans-Serif" font-size="10.00">protos.h</text>
</a>
</g>
</g>
<!-- Node1&#45;&gt;Node16 -->
<g id="edge26" class="edge"><title>Node1&#45;&gt;Node16</title>
<path fill="none" stroke="midnightblue" d="M523.78,-112.083C528.672,-104.534 535.827,-93.4948 541.833,-84.2298"/>
<polygon fill="midnightblue" stroke="midnightblue" points="544.826,-86.0463 547.328,-75.7511 538.952,-82.239 544.826,-86.0463"/>
</g>
<!-- Node17 -->
<g id="node17" class="node"><title>Node17</title>
<g id="a_node17"><a xlink:href="sort_8h.html" target="_top" xlink:title="Assorted sorting methods. ">
<polygon fill="white" stroke="red" points="671.5,-56.5 671.5,-75.5 712.5,-75.5 712.5,-56.5 671.5,-56.5"/>
<text text-anchor="middle" x="692" y="-63.5" font-family="Helvetica,sans-Serif" font-size="10.00">sort.h</text>
</a>
</g>
</g>
<!-- Node1&#45;&gt;Node17 -->
<g id="edge29" class="edge"><title>Node1&#45;&gt;Node17</title>
<path fill="none" stroke="midnightblue" d="M542.561,-113.378C573.803,-103.682 627.749,-86.9401 661.566,-76.445"/>
<polygon fill="midnightblue" stroke="midnightblue" points="662.854,-79.71 671.367,-73.4032 660.779,-73.0246 662.854,-79.71"/>
</g>
<!-- Node8&#45;&gt;Node3 -->
<g id="edge8" class="edge"><title>Node8&#45;&gt;Node3</title>
<path fill="none" stroke="midnightblue" d="M151.295,-58.3017C154.214,-57.4912 157.172,-56.7027 160,-56 222.224,-40.5408 295.387,-26.1401 338.883,-17.9703"/>
<polygon fill="midnightblue" stroke="midnightblue" points="339.563,-21.4039 348.751,-16.1282 338.279,-14.5227 339.563,-21.4039"/>
</g>
<!-- Node9&#45;&gt;Node3 -->
<g id="edge10" class="edge"><title>Node9&#45;&gt;Node3</title>
<path fill="none" stroke="midnightblue" d="M218.68,-57.7173C249.625,-48.5862 302.988,-32.8397 339.118,-22.1784"/>
<polygon fill="midnightblue" stroke="midnightblue" points="340.218,-25.5031 348.818,-19.3159 338.236,-18.7893 340.218,-25.5031"/>
</g>
<!-- Node10&#45;&gt;Node3 -->
<g id="edge12" class="edge"><title>Node10&#45;&gt;Node3</title>
<path fill="none" stroke="midnightblue" d="M282.995,-56.324C301.038,-47.6247 329.047,-34.1202 349.803,-24.113"/>
<polygon fill="midnightblue" stroke="midnightblue" points="351.562,-27.1502 359.05,-19.6545 348.522,-20.8449 351.562,-27.1502"/>
</g>
<!-- Node11&#45;&gt;Node3 -->
<g id="edge14" class="edge"><title>Node11&#45;&gt;Node3</title>
<path fill="none" stroke="midnightblue" d="M596.738,-58.0377C593.79,-57.3378 590.836,-56.6472 588,-56 527.614,-42.2194 457.199,-27.4654 414.909,-18.7457"/>
<polygon fill="midnightblue" stroke="midnightblue" points="415.543,-15.3029 405.043,-16.7158 414.133,-22.1593 415.543,-15.3029"/>
</g>
<!-- Node11&#45;&gt;Node5 -->
<g id="edge15" class="edge"><title>Node11&#45;&gt;Node5</title>
<path fill="none" stroke="midnightblue" d="M643.856,-56.4435C663.266,-47.6356 693.73,-33.8116 715.965,-23.722"/>
<polygon fill="midnightblue" stroke="midnightblue" points="717.572,-26.836 725.232,-19.5164 714.68,-20.4615 717.572,-26.836"/>
</g>
<!-- Node11&#45;&gt;Node6 -->
<g id="edge16" class="edge"><title>Node11&#45;&gt;Node6</title>
<path fill="none" stroke="midnightblue" d="M625,-56.083C625,-49.0059 625,-38.8611 625,-29.9865"/>
<polygon fill="midnightblue" stroke="midnightblue" points="628.5,-29.751 625,-19.7511 621.5,-29.7511 628.5,-29.751"/>
</g>
<!-- Node12&#45;&gt;Node5 -->
<g id="edge18" class="edge"><title>Node12&#45;&gt;Node5</title>
<path fill="none" stroke="midnightblue" d="M822.058,-56.324C807.415,-47.8215 784.866,-34.7288 767.762,-24.7975"/>
<polygon fill="midnightblue" stroke="midnightblue" points="769.31,-21.6491 758.905,-19.6545 765.795,-27.7027 769.31,-21.6491"/>
</g>
<!-- Node13&#45;&gt;Node3 -->
<g id="edge20" class="edge"><title>Node13&#45;&gt;Node3</title>
<path fill="none" stroke="midnightblue" d="M466.809,-56.324C449.649,-47.6641 423.054,-34.2424 403.253,-24.249"/>
<polygon fill="midnightblue" stroke="midnightblue" points="404.653,-21.0354 394.149,-19.6545 401.499,-27.2847 404.653,-21.0354"/>
</g>
<!-- Node13&#45;&gt;Node6 -->
<g id="edge21" class="edge"><title>Node13&#45;&gt;Node6</title>
<path fill="none" stroke="midnightblue" d="M506.342,-56.4435C529.753,-47.4776 566.736,-33.314 593.19,-23.1827"/>
<polygon fill="midnightblue" stroke="midnightblue" points="594.676,-26.3615 602.763,-19.5164 592.172,-19.8245 594.676,-26.3615"/>
</g>
<!-- Node14&#45;&gt;Node3 -->
<g id="edge23" class="edge"><title>Node14&#45;&gt;Node3</title>
<path fill="none" stroke="midnightblue" d="M346.11,-56.083C351.282,-48.5341 358.846,-37.4948 365.194,-28.2298"/>
<polygon fill="midnightblue" stroke="midnightblue" points="368.239,-29.9787 371.004,-19.7511 362.464,-26.0221 368.239,-29.9787"/>
</g>
<!-- Node15&#45;&gt;Node3 -->
<g id="edge25" class="edge"><title>Node15&#45;&gt;Node3</title>
<path fill="none" stroke="midnightblue" d="M407.89,-56.083C402.718,-48.5341 395.154,-37.4948 388.806,-28.2298"/>
<polygon fill="midnightblue" stroke="midnightblue" points="391.536,-26.0221 382.996,-19.7511 385.761,-29.9787 391.536,-26.0221"/>
</g>
<!-- Node16&#45;&gt;Node3 -->
<g id="edge27" class="edge"><title>Node16&#45;&gt;Node3</title>
<path fill="none" stroke="midnightblue" d="M526.651,-56.9157C497.017,-47.8233 448.637,-32.9795 414.936,-22.6395"/>
<polygon fill="midnightblue" stroke="midnightblue" points="415.573,-19.1738 404.986,-19.5865 413.519,-25.8659 415.573,-19.1738"/>
</g>
<!-- Node16&#45;&gt;Node6 -->
<g id="edge28" class="edge"><title>Node16&#45;&gt;Node6</title>
<path fill="none" stroke="midnightblue" d="M564.568,-56.324C575.42,-48.1849 591.881,-35.8395 604.883,-26.0874"/>
<polygon fill="midnightblue" stroke="midnightblue" points="607.321,-28.6339 613.221,-19.8339 603.121,-23.0339 607.321,-28.6339"/>
</g>
<!-- Node17&#45;&gt;Node3 -->
<g id="edge30" class="edge"><title>Node17&#45;&gt;Node3</title>
<path fill="none" stroke="midnightblue" d="M671.416,-58.6335C667.958,-57.6764 664.391,-56.7577 661,-56 573.809,-36.5163 469.73,-22.2817 414.986,-15.4792"/>
<polygon fill="midnightblue" stroke="midnightblue" points="415.387,-12.0021 405.034,-14.2571 414.533,-18.9499 415.387,-12.0021"/>
</g>
<!-- Node17&#45;&gt;Node5 -->
<g id="edge31" class="edge"><title>Node17&#45;&gt;Node5</title>
<path fill="none" stroke="midnightblue" d="M700.587,-56.083C708.159,-48.2195 719.378,-36.5688 728.514,-27.0813"/>
<polygon fill="midnightblue" stroke="midnightblue" points="731.158,-29.3821 735.573,-19.7511 726.115,-24.5266 731.158,-29.3821"/>
</g>
<!-- Node17&#45;&gt;Node6 -->
<g id="edge32" class="edge"><title>Node17&#45;&gt;Node6</title>
<path fill="none" stroke="midnightblue" d="M681.235,-56.324C671.234,-48.2631 656.113,-36.0765 644.07,-26.3695"/>
<polygon fill="midnightblue" stroke="midnightblue" points="645.943,-23.3841 635.961,-19.8339 641.55,-28.8343 645.943,-23.3841"/>
</g>
</g>
</svg>
