<?xml version="1.0" encoding="UTF-8" standalone="no"?>
<!DOCTYPE svg PUBLIC "-//W3C//DTD SVG 1.1//EN"
 "http://www.w3.org/Graphics/SVG/1.1/DTD/svg11.dtd">
<!-- Generated by graphviz version 2.36.0 (20140111.2315)
 -->
<!-- Title: mutt_check_rescore Pages: 1 -->
<svg width="288pt" height="66pt"
 viewBox="0.00 0.00 288.00 66.00" xmlns="http://www.w3.org/2000/svg" xmlns:xlink="http://www.w3.org/1999/xlink">
<g id="graph0" class="graph" transform="scale(1 1) rotate(0) translate(4 62)">
<title>mutt_check_rescore</title>
<polygon fill="white" stroke="none" points="-4,4 -4,-62 284,-62 284,4 -4,4"/>
<!-- Node1 -->
<g id="node1" class="node"><title>Node1</title>
<polygon fill="#bfbfbf" stroke="black" points="0.5,-19.5 0.5,-38.5 105.5,-38.5 105.5,-19.5 0.5,-19.5"/>
<text text-anchor="middle" x="53" y="-26.5" font-family="Helvetica,sans-Serif" font-size="10.00">mutt_check_rescore</text>
</g>
<!-- Node2 -->
<g id="node2" class="node"><title>Node2</title>
<g id="a_node2"><a xlink:href="menu_8c.html#afbd7a1cbb5183ed9ddfc0cc4f0195c7b" target="_top" xlink:title="Flag a menu to be fully redrawn. ">
<polygon fill="white" stroke="red" points="142.5,-38.5 142.5,-57.5 279.5,-57.5 279.5,-38.5 142.5,-38.5"/>
<text text-anchor="middle" x="211" y="-45.5" font-family="Helvetica,sans-Serif" font-size="10.00">mutt_menu_set_redraw_full</text>
</a>
</g>
</g>
<!-- Node1&#45;&gt;Node2 -->
<g id="edge1" class="edge"><title>Node1&#45;&gt;Node2</title>
<path fill="none" stroke="midnightblue" d="M105.513,-35.274C114.089,-36.3185 123.149,-37.422 132.206,-38.5252"/>
<polygon fill="midnightblue" stroke="midnightblue" points="132.055,-42.0325 142.405,-39.7672 132.901,-35.0838 132.055,-42.0325"/>
</g>
<!-- Node3 -->
<g id="node3" class="node"><title>Node3</title>
<g id="a_node3"><a xlink:href="score_8c.html#ad294f414a3d6be0a913ade754ea5fc49" target="_top" xlink:title="Apply scoring to an email. ">
<polygon fill="white" stroke="red" points="156,-0.5 156,-19.5 266,-19.5 266,-0.5 156,-0.5"/>
<text text-anchor="middle" x="211" y="-7.5" font-family="Helvetica,sans-Serif" font-size="10.00">mutt_score_message</text>
</a>
</g>
</g>
<!-- Node1&#45;&gt;Node3 -->
<g id="edge2" class="edge"><title>Node1&#45;&gt;Node3</title>
<path fill="none" stroke="midnightblue" d="M105.513,-22.726C118.384,-21.1584 132.347,-19.4577 145.751,-17.8252"/>
<polygon fill="midnightblue" stroke="midnightblue" points="146.361,-21.2768 155.865,-16.5934 145.515,-14.3282 146.361,-21.2768"/>
</g>
</g>
</svg>
