<?xml version="1.0" encoding="UTF-8" standalone="no"?>
<!DOCTYPE svg PUBLIC "-//W3C//DTD SVG 1.1//EN"
 "http://www.w3.org/Graphics/SVG/1.1/DTD/svg11.dtd">
<!-- Generated by graphviz version 2.36.0 (20140111.2315)
 -->
<!-- Title: mutt_score_message Pages: 1 -->
<svg width="264pt" height="66pt"
 viewBox="0.00 0.00 264.00 66.00" xmlns="http://www.w3.org/2000/svg" xmlns:xlink="http://www.w3.org/1999/xlink">
<g id="graph0" class="graph" transform="scale(1 1) rotate(0) translate(4 62)">
<title>mutt_score_message</title>
<polygon fill="white" stroke="none" points="-4,4 -4,-62 260,-62 260,4 -4,4"/>
<!-- Node1 -->
<g id="node1" class="node"><title>Node1</title>
<polygon fill="#bfbfbf" stroke="black" points="0,-19.5 0,-38.5 110,-38.5 110,-19.5 0,-19.5"/>
<text text-anchor="middle" x="55" y="-26.5" font-family="Helvetica,sans-Serif" font-size="10.00">mutt_score_message</text>
</g>
<!-- Node2 -->
<g id="node2" class="node"><title>Node2</title>
<g id="a_node2"><a xlink:href="pattern_8c.html#acaf69ac14a310b3f1dd1c3fb2e7036a7" target="_top" xlink:title="Match a pattern against an email header. ">
<polygon fill="white" stroke="red" points="152,-38.5 152,-57.5 250,-57.5 250,-38.5 152,-38.5"/>
<text text-anchor="middle" x="201" y="-45.5" font-family="Helvetica,sans-Serif" font-size="10.00">mutt_pattern_exec</text>
</a>
</g>
</g>
<!-- Node1&#45;&gt;Node2 -->
<g id="edge1" class="edge"><title>Node1&#45;&gt;Node2</title>
<path fill="none" stroke="midnightblue" d="M110.03,-36.129C120.432,-37.5015 131.369,-38.9445 141.894,-40.3332"/>
<polygon fill="midnightblue" stroke="midnightblue" points="141.456,-43.8057 151.828,-41.644 142.372,-36.8658 141.456,-43.8057"/>
</g>
<!-- Node3 -->
<g id="node3" class="node"><title>Node3</title>
<g id="a_node3"><a xlink:href="flags_8c.html#acd7bd1e27c93090308771ebe62a30fbf" target="_top" xlink:title="Set a flag on an email. ">
<polygon fill="white" stroke="red" points="146,-0.5 146,-19.5 256,-19.5 256,-0.5 146,-0.5"/>
<text text-anchor="middle" x="201" y="-7.5" font-family="Helvetica,sans-Serif" font-size="10.00">mutt_set_flag_update</text>
</a>
</g>
</g>
<!-- Node1&#45;&gt;Node3 -->
<g id="edge2" class="edge"><title>Node1&#45;&gt;Node3</title>
<path fill="none" stroke="midnightblue" d="M110.03,-21.871C118.405,-20.7661 127.126,-19.6154 135.7,-18.4841"/>
<polygon fill="midnightblue" stroke="midnightblue" points="136.211,-21.947 145.667,-17.1689 135.295,-15.0072 136.211,-21.947"/>
</g>
</g>
</svg>
