<?xml version="1.0" encoding="UTF-8" standalone="no"?>
<!DOCTYPE svg PUBLIC "-//W3C//DTD SVG 1.1//EN"
 "http://www.w3.org/Graphics/SVG/1.1/DTD/svg11.dtd">
<!-- Generated by graphviz version 2.36.0 (20140111.2315)
 -->
<!-- Title: mutt_make_multipart Pages: 1 -->
<svg width="400pt" height="256pt"
 viewBox="0.00 0.00 400.00 256.00" xmlns="http://www.w3.org/2000/svg" xmlns:xlink="http://www.w3.org/1999/xlink">
<g id="graph0" class="graph" transform="scale(1 1) rotate(0) translate(4 252)">
<title>mutt_make_multipart</title>
<polygon fill="white" stroke="none" points="-4,4 -4,-252 396,-252 396,4 -4,4"/>
<!-- Node1 -->
<g id="node1" class="node"><title>Node1</title>
<polygon fill="#bfbfbf" stroke="black" points="0,-114.5 0,-133.5 108,-133.5 108,-114.5 0,-114.5"/>
<text text-anchor="middle" x="54" y="-121.5" font-family="Helvetica,sans-Serif" font-size="10.00">mutt_make_multipart</text>
</g>
<!-- Node2 -->
<g id="node2" class="node"><title>Node2</title>
<g id="a_node2"><a xlink:href="body_8c.html#aee001296b775e82e3988b5a81e53e30c" target="_top" xlink:title="Create a new Body. ">
<polygon fill="white" stroke="red" points="163,-228.5 163,-247.5 249,-247.5 249,-228.5 163,-228.5"/>
<text text-anchor="middle" x="206" y="-235.5" font-family="Helvetica,sans-Serif" font-size="10.00">mutt_body_new</text>
</a>
</g>
</g>
<!-- Node1&#45;&gt;Node2 -->
<g id="edge1" class="edge"><title>Node1&#45;&gt;Node2</title>
<path fill="none" stroke="midnightblue" d="M61.3914,-133.624C74.5663,-152.724 106.661,-195.591 144,-219 147.341,-221.094 150.93,-222.973 154.634,-224.657"/>
<polygon fill="midnightblue" stroke="midnightblue" points="153.419,-227.941 164.002,-228.448 156.045,-221.452 153.419,-227.941"/>
</g>
<!-- Node3 -->
<g id="node3" class="node"><title>Node3</title>
<g id="a_node3"><a xlink:href="mutt_2string_8c.html#ae48085384a6545e0fac589a88243ea31" target="_top" xlink:title="Copy a string, safely. ">
<polygon fill="white" stroke="red" points="163.5,-190.5 163.5,-209.5 248.5,-209.5 248.5,-190.5 163.5,-190.5"/>
<text text-anchor="middle" x="206" y="-197.5" font-family="Helvetica,sans-Serif" font-size="10.00">mutt_str_strdup</text>
</a>
</g>
</g>
<!-- Node1&#45;&gt;Node3 -->
<g id="edge2" class="edge"><title>Node1&#45;&gt;Node3</title>
<path fill="none" stroke="midnightblue" d="M67.6359,-133.65C84.3428,-146.034 115.057,-167.523 144,-181 148.718,-183.197 153.756,-185.227 158.838,-187.077"/>
<polygon fill="midnightblue" stroke="midnightblue" points="157.998,-190.489 168.592,-190.411 160.262,-183.865 157.998,-190.489"/>
</g>
<!-- Node4 -->
<g id="node4" class="node"><title>Node4</title>
<g id="a_node4"><a xlink:href="sendlib_8c.html#a8d290c7ff9cbf2d3f5ef9e4ff67d3c73" target="_top" xlink:title="Find the most restrictive encoding type. ">
<polygon fill="white" stroke="black" points="149.5,-152.5 149.5,-171.5 262.5,-171.5 262.5,-152.5 149.5,-152.5"/>
<text text-anchor="middle" x="206" y="-159.5" font-family="Helvetica,sans-Serif" font-size="10.00">get_toplevel_encoding</text>
</a>
</g>
</g>
<!-- Node1&#45;&gt;Node4 -->
<g id="edge3" class="edge"><title>Node1&#45;&gt;Node4</title>
<path fill="none" stroke="midnightblue" d="M92.8513,-133.589C112.467,-138.558 136.619,-144.677 157.479,-149.961"/>
<polygon fill="midnightblue" stroke="midnightblue" points="156.868,-153.417 167.421,-152.48 158.587,-146.631 156.868,-153.417"/>
</g>
<!-- Node5 -->
<g id="node5" class="node"><title>Node5</title>
<g id="a_node5"><a xlink:href="sendlib_8c.html#acf444c886b59f427ec6c0c144958cb3a" target="_top" xlink:title="Create a unique boundary id for a MIME part. ">
<polygon fill="white" stroke="red" points="144,-114.5 144,-133.5 268,-133.5 268,-114.5 144,-114.5"/>
<text text-anchor="middle" x="206" y="-121.5" font-family="Helvetica,sans-Serif" font-size="10.00">mutt_generate_boundary</text>
</a>
</g>
</g>
<!-- Node1&#45;&gt;Node5 -->
<g id="edge4" class="edge"><title>Node1&#45;&gt;Node5</title>
<path fill="none" stroke="midnightblue" d="M108.307,-124C116.599,-124 125.277,-124 133.888,-124"/>
<polygon fill="midnightblue" stroke="midnightblue" points="133.937,-127.5 143.937,-124 133.937,-120.5 133.937,-127.5"/>
</g>
<!-- Node6 -->
<g id="node6" class="node"><title>Node6</title>
<g id="a_node6"><a xlink:href="sendlib_8c.html#a48c9cd72d78c39644f329b3b731272fe" target="_top" xlink:title="check for duplicate boundary ">
<polygon fill="white" stroke="red" points="162,-76.5 162,-95.5 250,-95.5 250,-76.5 162,-76.5"/>
<text text-anchor="middle" x="206" y="-83.5" font-family="Helvetica,sans-Serif" font-size="10.00">check_boundary</text>
</a>
</g>
</g>
<!-- Node1&#45;&gt;Node6 -->
<g id="edge5" class="edge"><title>Node1&#45;&gt;Node6</title>
<path fill="none" stroke="midnightblue" d="M92.8513,-114.411C112.467,-109.442 136.619,-103.323 157.479,-98.0387"/>
<polygon fill="midnightblue" stroke="midnightblue" points="158.587,-101.369 167.421,-95.5201 156.868,-94.5831 158.587,-101.369"/>
</g>
<!-- Node7 -->
<g id="node7" class="node"><title>Node7</title>
<g id="a_node7"><a xlink:href="parameter_8c.html#a4e936faaaa08c332e3414247583a0ffa" target="_top" xlink:title="Find a matching Parameter. ">
<polygon fill="white" stroke="red" points="304.5,-57.5 304.5,-76.5 391.5,-76.5 391.5,-57.5 304.5,-57.5"/>
<text text-anchor="middle" x="348" y="-64.5" font-family="Helvetica,sans-Serif" font-size="10.00">mutt_param_get</text>
</a>
</g>
</g>
<!-- Node1&#45;&gt;Node7 -->
<g id="edge7" class="edge"><title>Node1&#45;&gt;Node7</title>
<path fill="none" stroke="midnightblue" d="M65.4938,-114.365C81.1797,-100.69 112.303,-76.2801 144,-67 193.422,-52.5306 252.559,-54.5786 294.222,-59.0025"/>
<polygon fill="midnightblue" stroke="midnightblue" points="294.087,-62.5099 304.421,-60.1699 294.884,-55.5553 294.087,-62.5099"/>
</g>
<!-- Node8 -->
<g id="node8" class="node"><title>Node8</title>
<g id="a_node8"><a xlink:href="parameter_8c.html#a808f2417517d44fed6931e6266e6328e" target="_top" xlink:title="Delete a matching Parameter. ">
<polygon fill="white" stroke="red" points="156,-0.5 156,-19.5 256,-19.5 256,-0.5 156,-0.5"/>
<text text-anchor="middle" x="206" y="-7.5" font-family="Helvetica,sans-Serif" font-size="10.00">mutt_param_delete</text>
</a>
</g>
</g>
<!-- Node1&#45;&gt;Node8 -->
<g id="edge8" class="edge"><title>Node1&#45;&gt;Node8</title>
<path fill="none" stroke="midnightblue" d="M62.3017,-114.292C76.3255,-96.2373 108.776,-57.2246 144,-34 150.14,-29.9516 157.068,-26.4177 163.993,-23.3966"/>
<polygon fill="midnightblue" stroke="midnightblue" points="165.413,-26.5979 173.363,-19.5945 162.781,-20.1116 165.413,-26.5979"/>
</g>
<!-- Node6&#45;&gt;Node7 -->
<g id="edge6" class="edge"><title>Node6&#45;&gt;Node7</title>
<path fill="none" stroke="midnightblue" d="M250.147,-80.1443C263.982,-78.2667 279.467,-76.1652 293.927,-74.2028"/>
<polygon fill="midnightblue" stroke="midnightblue" points="294.798,-77.6168 304.236,-72.8037 293.856,-70.6804 294.798,-77.6168"/>
</g>
</g>
</svg>
