<?xml version="1.0" encoding="UTF-8" standalone="no"?>
<!DOCTYPE svg PUBLIC "-//W3C//DTD SVG 1.1//EN"
 "http://www.w3.org/Graphics/SVG/1.1/DTD/svg11.dtd">
<!-- Generated by graphviz version 2.36.0 (20140111.2315)
 -->
<!-- Title: mutt_get_content_info Pages: 1 -->
<svg width="294pt" height="256pt"
 viewBox="0.00 0.00 294.00 256.00" xmlns="http://www.w3.org/2000/svg" xmlns:xlink="http://www.w3.org/1999/xlink">
<g id="graph0" class="graph" transform="scale(1 1) rotate(0) translate(4 252)">
<title>mutt_get_content_info</title>
<polygon fill="white" stroke="none" points="-4,4 -4,-252 290,-252 290,4 -4,4"/>
<!-- Node1 -->
<g id="node1" class="node"><title>Node1</title>
<polygon fill="#bfbfbf" stroke="black" points="0.5,-114.5 0.5,-133.5 113.5,-133.5 113.5,-114.5 0.5,-114.5"/>
<text text-anchor="middle" x="57" y="-121.5" font-family="Helvetica,sans-Serif" font-size="10.00">mutt_get_content_info</text>
</g>
<!-- Node2 -->
<g id="node2" class="node"><title>Node2</title>
<g id="a_node2"><a xlink:href="memory_8c.html#a4c1612d209c7825d55e6a014df352f03" target="_top" xlink:title="Allocate zeroed memory on the heap. ">
<polygon fill="white" stroke="red" points="171,-228.5 171,-247.5 265,-247.5 265,-228.5 171,-228.5"/>
<text text-anchor="middle" x="218" y="-235.5" font-family="Helvetica,sans-Serif" font-size="10.00">mutt_mem_calloc</text>
</a>
</g>
</g>
<!-- Node1&#45;&gt;Node2 -->
<g id="edge1" class="edge"><title>Node1&#45;&gt;Node2</title>
<path fill="none" stroke="midnightblue" d="M64.6361,-133.698C78.3078,-152.93 111.574,-196.025 150,-219 153.619,-221.164 157.495,-223.091 161.492,-224.805"/>
<polygon fill="midnightblue" stroke="midnightblue" points="160.38,-228.127 170.971,-228.431 162.881,-221.589 160.38,-228.127"/>
</g>
<!-- Node3 -->
<g id="node3" class="node"><title>Node3</title>
<g id="a_node3"><a xlink:href="parameter_8c.html#a4e936faaaa08c332e3414247583a0ffa" target="_top" xlink:title="Find a matching Parameter. ">
<polygon fill="white" stroke="red" points="174.5,-190.5 174.5,-209.5 261.5,-209.5 261.5,-190.5 174.5,-190.5"/>
<text text-anchor="middle" x="218" y="-197.5" font-family="Helvetica,sans-Serif" font-size="10.00">mutt_param_get</text>
</a>
</g>
</g>
<!-- Node1&#45;&gt;Node3 -->
<g id="edge2" class="edge"><title>Node1&#45;&gt;Node3</title>
<path fill="none" stroke="midnightblue" d="M70.7675,-133.522C87.9711,-145.965 119.916,-167.727 150,-181 155.315,-183.345 160.995,-185.479 166.716,-187.398"/>
<polygon fill="midnightblue" stroke="midnightblue" points="165.735,-190.759 176.324,-190.426 167.838,-184.083 165.735,-190.759"/>
</g>
<!-- Node4 -->
<g id="node4" class="node"><title>Node4</title>
<g id="a_node4"><a xlink:href="sendlib_8c.html#a86695d2910e82545150e33572552e77d" target="_top" xlink:title="Convert a file between encodings. ">
<polygon fill="white" stroke="red" points="165.5,-152.5 165.5,-171.5 270.5,-171.5 270.5,-152.5 165.5,-152.5"/>
<text text-anchor="middle" x="218" y="-159.5" font-family="Helvetica,sans-Serif" font-size="10.00">convert_file_from_to</text>
</a>
</g>
</g>
<!-- Node1&#45;&gt;Node4 -->
<g id="edge3" class="edge"><title>Node1&#45;&gt;Node4</title>
<path fill="none" stroke="midnightblue" d="M98.1224,-133.589C119.104,-138.604 144.982,-144.788 167.23,-150.105"/>
<polygon fill="midnightblue" stroke="midnightblue" points="166.626,-153.56 177.166,-152.48 168.254,-146.751 166.626,-153.56"/>
</g>
<!-- Node5 -->
<g id="node5" class="node"><title>Node5</title>
<g id="a_node5"><a xlink:href="charset_8c.html#a4b347dd75af05a18dbe328c354c18fe8" target="_top" xlink:title="Canonicalise the charset of a string. ">
<polygon fill="white" stroke="red" points="150,-114.5 150,-133.5 286,-133.5 286,-114.5 150,-114.5"/>
<text text-anchor="middle" x="218" y="-121.5" font-family="Helvetica,sans-Serif" font-size="10.00">mutt_ch_canonical_charset</text>
</a>
</g>
</g>
<!-- Node1&#45;&gt;Node5 -->
<g id="edge4" class="edge"><title>Node1&#45;&gt;Node5</title>
<path fill="none" stroke="midnightblue" d="M113.61,-124C122.042,-124 130.87,-124 139.662,-124"/>
<polygon fill="midnightblue" stroke="midnightblue" points="139.941,-127.5 149.941,-124 139.941,-120.5 139.941,-127.5"/>
</g>
<!-- Node6 -->
<g id="node6" class="node"><title>Node6</title>
<g id="a_node6"><a xlink:href="parameter_8c.html#a0ae25acb8447c3823aa66e23fb6bc3c4" target="_top" xlink:title="Set a Parameter. ">
<polygon fill="white" stroke="red" points="174.5,-76.5 174.5,-95.5 261.5,-95.5 261.5,-76.5 174.5,-76.5"/>
<text text-anchor="middle" x="218" y="-83.5" font-family="Helvetica,sans-Serif" font-size="10.00">mutt_param_set</text>
</a>
</g>
</g>
<!-- Node1&#45;&gt;Node6 -->
<g id="edge5" class="edge"><title>Node1&#45;&gt;Node6</title>
<path fill="none" stroke="midnightblue" d="M98.1224,-114.411C119.104,-109.396 144.982,-103.212 167.23,-97.8947"/>
<polygon fill="midnightblue" stroke="midnightblue" points="168.254,-101.249 177.166,-95.5201 166.626,-94.4405 168.254,-101.249"/>
</g>
<!-- Node7 -->
<g id="node7" class="node"><title>Node7</title>
<g id="a_node7"><a xlink:href="file_8c.html#a4982d9040dfaf38e847729be2af83ed6" target="_top" xlink:title="Close a FILE handle (and NULL the pointer) ">
<polygon fill="white" stroke="black" points="175,-38.5 175,-57.5 261,-57.5 261,-38.5 175,-38.5"/>
<text text-anchor="middle" x="218" y="-45.5" font-family="Helvetica,sans-Serif" font-size="10.00">mutt_file_fclose</text>
</a>
</g>
</g>
<!-- Node1&#45;&gt;Node7 -->
<g id="edge6" class="edge"><title>Node1&#45;&gt;Node7</title>
<path fill="none" stroke="midnightblue" d="M70.7675,-114.478C87.9711,-102.035 119.916,-80.2726 150,-67 155.315,-64.6551 160.995,-62.5212 166.716,-60.6015"/>
<polygon fill="midnightblue" stroke="midnightblue" points="167.838,-63.9174 176.324,-57.5739 165.735,-57.241 167.838,-63.9174"/>
</g>
<!-- Node8 -->
<g id="node8" class="node"><title>Node8</title>
<g id="a_node8"><a xlink:href="sendlib_8c.html#ac3e92e1179befa263745dcfa128bc8a6" target="_top" xlink:title="Cache some info about an email. ">
<polygon fill="white" stroke="black" points="166,-0.5 166,-19.5 270,-19.5 270,-0.5 166,-0.5"/>
<text text-anchor="middle" x="218" y="-7.5" font-family="Helvetica,sans-Serif" font-size="10.00">update_content_info</text>
</a>
</g>
</g>
<!-- Node1&#45;&gt;Node8 -->
<g id="edge7" class="edge"><title>Node1&#45;&gt;Node8</title>
<path fill="none" stroke="midnightblue" d="M64.6361,-114.302C78.3078,-95.0697 111.574,-51.9754 150,-29 153.619,-26.8361 157.495,-24.9092 161.492,-23.1949"/>
<polygon fill="midnightblue" stroke="midnightblue" points="162.881,-26.4109 170.971,-19.5689 160.38,-19.8729 162.881,-26.4109"/>
</g>
</g>
</svg>
