<?xml version="1.0" encoding="UTF-8" standalone="no"?>
<!DOCTYPE svg PUBLIC "-//W3C//DTD SVG 1.1//EN"
 "http://www.w3.org/Graphics/SVG/1.1/DTD/svg11.dtd">
<!-- Generated by graphviz version 2.36.0 (20140111.2315)
 -->
<!-- Title: mutt_invoke_sendmail Pages: 1 -->
<svg width="252pt" height="66pt"
 viewBox="0.00 0.00 252.00 66.00" xmlns="http://www.w3.org/2000/svg" xmlns:xlink="http://www.w3.org/1999/xlink">
<g id="graph0" class="graph" transform="scale(1 1) rotate(0) translate(4 62)">
<title>mutt_invoke_sendmail</title>
<polygon fill="white" stroke="none" points="-4,4 -4,-62 248,-62 248,4 -4,4"/>
<!-- Node1 -->
<g id="node1" class="node"><title>Node1</title>
<polygon fill="#bfbfbf" stroke="black" points="0,-19.5 0,-38.5 114,-38.5 114,-19.5 0,-19.5"/>
<text text-anchor="middle" x="57" y="-26.5" font-family="Helvetica,sans-Serif" font-size="10.00">mutt_invoke_sendmail</text>
</g>
<!-- Node2 -->
<g id="node2" class="node"><title>Node2</title>
<g id="a_node2"><a xlink:href="send_8c.html#ae6a53a87d2adfab9e338964ca78e1f6f" target="_top" xlink:title="Send an email. ">
<polygon fill="white" stroke="red" points="155.5,-38.5 155.5,-57.5 238.5,-57.5 238.5,-38.5 155.5,-38.5"/>
<text text-anchor="middle" x="197" y="-45.5" font-family="Helvetica,sans-Serif" font-size="10.00">send_message</text>
</a>
</g>
</g>
<!-- Node1&#45;&gt;Node2 -->
<g id="edge1" class="edge"><title>Node1&#45;&gt;Node2</title>
<path fill="none" stroke="midnightblue" d="M124.197,-38.1141C134.76,-39.5684 145.41,-41.0347 155.156,-42.3765"/>
<polygon fill="midnightblue" stroke="midnightblue" points="124.514,-34.6248 114.13,-36.728 123.559,-41.5593 124.514,-34.6248"/>
</g>
<!-- Node3 -->
<g id="node3" class="node"><title>Node3</title>
<g id="a_node3"><a xlink:href="sendlib_8c.html#a9a653a3e76847d5e165a910082e246cf" target="_top" xlink:title="Bounce an email message. ">
<polygon fill="white" stroke="red" points="150.5,-0.5 150.5,-19.5 243.5,-19.5 243.5,-0.5 150.5,-0.5"/>
<text text-anchor="middle" x="197" y="-7.5" font-family="Helvetica,sans-Serif" font-size="10.00">bounce_message</text>
</a>
</g>
</g>
<!-- Node1&#45;&gt;Node3 -->
<g id="edge2" class="edge"><title>Node1&#45;&gt;Node3</title>
<path fill="none" stroke="midnightblue" d="M124.137,-19.8942C133.053,-18.6666 142.032,-17.4303 150.479,-16.2674"/>
<polygon fill="midnightblue" stroke="midnightblue" points="123.559,-16.4407 114.13,-21.272 124.514,-23.3752 123.559,-16.4407"/>
</g>
</g>
</svg>
