<?xml version="1.0" encoding="UTF-8" standalone="no"?>
<!DOCTYPE svg PUBLIC "-//W3C//DTD SVG 1.1//EN"
 "http://www.w3.org/Graphics/SVG/1.1/DTD/svg11.dtd">
<!-- Generated by graphviz version 2.36.0 (20140111.2315)
 -->
<!-- Title: mutt_make_message_attach Pages: 1 -->
<svg width="450pt" height="496pt"
 viewBox="0.00 0.00 450.00 496.00" xmlns="http://www.w3.org/2000/svg" xmlns:xlink="http://www.w3.org/1999/xlink">
<g id="graph0" class="graph" transform="scale(1 1) rotate(0) translate(4 492)">
<title>mutt_make_message_attach</title>
<polygon fill="white" stroke="none" points="-4,4 -4,-492 446,-492 446,4 -4,4"/>
<!-- Node1 -->
<g id="node1" class="node"><title>Node1</title>
<polygon fill="#bfbfbf" stroke="black" points="0.5,-240.5 0.5,-259.5 143.5,-259.5 143.5,-240.5 0.5,-240.5"/>
<text text-anchor="middle" x="72" y="-247.5" font-family="Helvetica,sans-Serif" font-size="10.00">mutt_make_message_attach</text>
</g>
<!-- Node2 -->
<g id="node2" class="node"><title>Node2</title>
<g id="a_node2"><a xlink:href="crypt_8c.html#a99c2d9b5ec280d93293e3b6a7416fc72" target="_top" xlink:title="Check that we have a usable passphrase, ask if not. ">
<polygon fill="white" stroke="red" points="190.5,-468.5 190.5,-487.5 309.5,-487.5 309.5,-468.5 190.5,-468.5"/>
<text text-anchor="middle" x="250" y="-475.5" font-family="Helvetica,sans-Serif" font-size="10.00">crypt_valid_passphrase</text>
</a>
</g>
</g>
<!-- Node1&#45;&gt;Node2 -->
<g id="edge1" class="edge"><title>Node1&#45;&gt;Node2</title>
<path fill="none" stroke="midnightblue" d="M75.0189,-259.642C82.4848,-292.841 111.711,-403.419 180,-459 182.066,-460.681 184.27,-462.214 186.574,-463.612"/>
<polygon fill="midnightblue" stroke="midnightblue" points="185.38,-466.932 195.878,-468.36 188.562,-460.697 185.38,-466.932"/>
</g>
<!-- Node3 -->
<g id="node3" class="node"><title>Node3</title>
<g id="a_node3"><a xlink:href="file_8c.html#ae1c0c19fec03274220b3ca065ad1e2e5" target="_top" xlink:title="Call fopen() safely. ">
<polygon fill="white" stroke="red" points="208.5,-430.5 208.5,-449.5 291.5,-449.5 291.5,-430.5 208.5,-430.5"/>
<text text-anchor="middle" x="250" y="-437.5" font-family="Helvetica,sans-Serif" font-size="10.00">mutt_file_fopen</text>
</a>
</g>
</g>
<!-- Node1&#45;&gt;Node3 -->
<g id="edge2" class="edge"><title>Node1&#45;&gt;Node3</title>
<path fill="none" stroke="midnightblue" d="M76.6408,-259.841C87.6595,-288.299 123.405,-371.485 180,-416 185.688,-420.474 192.269,-424.146 199.062,-427.152"/>
<polygon fill="midnightblue" stroke="midnightblue" points="197.806,-430.419 208.392,-430.849 200.385,-423.911 197.806,-430.419"/>
</g>
<!-- Node4 -->
<g id="node4" class="node"><title>Node4</title>
<g id="a_node4"><a xlink:href="body_8c.html#aee001296b775e82e3988b5a81e53e30c" target="_top" xlink:title="Create a new Body. ">
<polygon fill="white" stroke="red" points="356,-373.5 356,-392.5 442,-392.5 442,-373.5 356,-373.5"/>
<text text-anchor="middle" x="399" y="-380.5" font-family="Helvetica,sans-Serif" font-size="10.00">mutt_body_new</text>
</a>
</g>
</g>
<!-- Node1&#45;&gt;Node4 -->
<g id="edge3" class="edge"><title>Node1&#45;&gt;Node4</title>
<path fill="none" stroke="midnightblue" d="M77.1787,-259.84C88.8611,-285.898 124.673,-356.502 180,-383 233.631,-408.686 303.546,-402.843 349.556,-394.497"/>
<polygon fill="midnightblue" stroke="midnightblue" points="350.408,-397.897 359.567,-392.573 349.087,-391.023 350.408,-397.897"/>
</g>
<!-- Node5 -->
<g id="node5" class="node"><title>Node5</title>
<g id="a_node5"><a xlink:href="mutt_2string_8c.html#ae48085384a6545e0fac589a88243ea31" target="_top" xlink:title="Copy a string, safely. ">
<polygon fill="white" stroke="red" points="356.5,-215.5 356.5,-234.5 441.5,-234.5 441.5,-215.5 356.5,-215.5"/>
<text text-anchor="middle" x="399" y="-222.5" font-family="Helvetica,sans-Serif" font-size="10.00">mutt_str_strdup</text>
</a>
</g>
</g>
<!-- Node1&#45;&gt;Node5 -->
<g id="edge4" class="edge"><title>Node1&#45;&gt;Node5</title>
<path fill="none" stroke="midnightblue" d="M76.5932,-240.112C87.2497,-212.466 121.63,-134.469 180,-105 235.545,-76.9574 265.312,-75.3215 320,-105 359.505,-126.439 382.126,-177.495 391.999,-205.609"/>
<polygon fill="midnightblue" stroke="midnightblue" points="388.694,-206.763 395.167,-215.151 395.337,-204.557 388.694,-206.763"/>
</g>
<!-- Node6 -->
<g id="node6" class="node"><title>Node6</title>
<g id="a_node6"><a xlink:href="mutt__parse_8c.html#afa9b05dc295f1a3a537fd04532252d62" target="_top" xlink:title="Parse a MIME email. ">
<polygon fill="white" stroke="red" points="180,-316.5 180,-335.5 320,-335.5 320,-316.5 180,-316.5"/>
<text text-anchor="middle" x="250" y="-323.5" font-family="Helvetica,sans-Serif" font-size="10.00">mutt_parse_mime_message</text>
</a>
</g>
</g>
<!-- Node1&#45;&gt;Node6 -->
<g id="edge5" class="edge"><title>Node1&#45;&gt;Node6</title>
<path fill="none" stroke="midnightblue" d="M88.4294,-259.626C108.773,-271.985 145.977,-293.447 180,-307 185.909,-309.354 192.213,-311.526 198.518,-313.495"/>
<polygon fill="midnightblue" stroke="midnightblue" points="197.789,-316.929 208.372,-316.419 199.781,-310.218 197.789,-316.929"/>
</g>
<!-- Node7 -->
<g id="node7" class="node"><title>Node7</title>
<g id="a_node7"><a xlink:href="crypt_8c.html#ad25b7a6f1ca21e0c78215cd31a5f8c5b" target="_top" xlink:title="Does the message have encrypted parts? ">
<polygon fill="white" stroke="red" points="180,-278.5 180,-297.5 320,-297.5 320,-278.5 180,-278.5"/>
<text text-anchor="middle" x="250" y="-285.5" font-family="Helvetica,sans-Serif" font-size="10.00">mutt_is_multipart_encrypted</text>
</a>
</g>
</g>
<!-- Node1&#45;&gt;Node7 -->
<g id="edge6" class="edge"><title>Node1&#45;&gt;Node7</title>
<path fill="none" stroke="midnightblue" d="M117.412,-259.589C140.951,-264.671 170.057,-270.955 194.905,-276.32"/>
<polygon fill="midnightblue" stroke="midnightblue" points="194.394,-279.791 204.907,-278.48 195.871,-272.948 194.394,-279.791"/>
</g>
<!-- Node8 -->
<g id="node8" class="node"><title>Node8</title>
<g id="a_node8"><a xlink:href="crypt_8c.html#a48685463993d7c829855e1f92b7e5f29" target="_top" xlink:title="Does the message use PGP? ">
<polygon fill="white" stroke="red" points="189,-240.5 189,-259.5 311,-259.5 311,-240.5 189,-240.5"/>
<text text-anchor="middle" x="250" y="-247.5" font-family="Helvetica,sans-Serif" font-size="10.00">mutt_is_application_pgp</text>
</a>
</g>
</g>
<!-- Node1&#45;&gt;Node8 -->
<g id="edge7" class="edge"><title>Node1&#45;&gt;Node8</title>
<path fill="none" stroke="midnightblue" d="M143.572,-250C155.185,-250 167.219,-250 178.822,-250"/>
<polygon fill="midnightblue" stroke="midnightblue" points="178.887,-253.5 188.887,-250 178.886,-246.5 178.887,-253.5"/>
</g>
<!-- Node9 -->
<g id="node9" class="node"><title>Node9</title>
<g id="a_node9"><a xlink:href="crypt_8c.html#a1d2bf368c209730b1f196b860dbbc01f" target="_top" xlink:title="Does the message use S/MIME? ">
<polygon fill="white" stroke="red" points="199.5,-191 199.5,-221 300.5,-221 300.5,-191 199.5,-191"/>
<text text-anchor="start" x="207.5" y="-209" font-family="Helvetica,sans-Serif" font-size="10.00">mutt_is_application</text>
<text text-anchor="middle" x="250" y="-198" font-family="Helvetica,sans-Serif" font-size="10.00">_smime</text>
</a>
</g>
</g>
<!-- Node1&#45;&gt;Node9 -->
<g id="edge8" class="edge"><title>Node1&#45;&gt;Node9</title>
<path fill="none" stroke="midnightblue" d="M111.189,-240.453C134.049,-234.738 163.596,-227.351 189.465,-220.884"/>
<polygon fill="midnightblue" stroke="midnightblue" points="190.325,-224.277 199.178,-218.456 188.627,-217.486 190.325,-224.277"/>
</g>
<!-- Node10 -->
<g id="node10" class="node"><title>Node10</title>
<g id="a_node10"><a xlink:href="copy_8c.html#afe88afbb99e45f4551735b80ce631f85" target="_top" xlink:title="Copy a message from a Context. ">
<polygon fill="white" stroke="red" points="187,-152.5 187,-171.5 313,-171.5 313,-152.5 187,-152.5"/>
<text text-anchor="middle" x="250" y="-159.5" font-family="Helvetica,sans-Serif" font-size="10.00">mutt_copy_message_ctx</text>
</a>
</g>
</g>
<!-- Node1&#45;&gt;Node10 -->
<g id="edge9" class="edge"><title>Node1&#45;&gt;Node10</title>
<path fill="none" stroke="midnightblue" d="M85.5012,-240.372C104.812,-225.9 143.49,-198.485 180,-182 186.11,-179.241 192.696,-176.759 199.289,-174.559"/>
<polygon fill="midnightblue" stroke="midnightblue" points="200.408,-177.877 208.898,-171.539 198.309,-171.199 200.408,-177.877"/>
</g>
<!-- Node11 -->
<g id="node11" class="node"><title>Node11</title>
<g id="a_node11"><a xlink:href="header_8c.html#a6462f919c4f96d1a37866b16e6acb93b" target="_top" xlink:title="Create a new email Header. ">
<polygon fill="white" stroke="red" points="203,-114.5 203,-133.5 297,-133.5 297,-114.5 203,-114.5"/>
<text text-anchor="middle" x="250" y="-121.5" font-family="Helvetica,sans-Serif" font-size="10.00">mutt_header_new</text>
</a>
</g>
</g>
<!-- Node1&#45;&gt;Node11 -->
<g id="edge10" class="edge"><title>Node1&#45;&gt;Node11</title>
<path fill="none" stroke="midnightblue" d="M79.8314,-240.359C95.2225,-219.366 134.815,-169.296 180,-143 184.145,-140.588 188.608,-138.471 193.199,-136.616"/>
<polygon fill="midnightblue" stroke="midnightblue" points="194.53,-139.857 202.743,-133.163 192.149,-133.274 194.53,-139.857"/>
</g>
<!-- Node12 -->
<g id="node12" class="node"><title>Node12</title>
<g id="a_node12"><a xlink:href="parse_8c.html#ae50079838fa2a151db9ecfb0a149aaea" target="_top" xlink:title="parses an RFC822 header ">
<polygon fill="white" stroke="red" points="186.5,-354.5 186.5,-373.5 313.5,-373.5 313.5,-354.5 186.5,-354.5"/>
<text text-anchor="middle" x="250" y="-361.5" font-family="Helvetica,sans-Serif" font-size="10.00">mutt_rfc822_read_header</text>
</a>
</g>
</g>
<!-- Node1&#45;&gt;Node12 -->
<g id="edge11" class="edge"><title>Node1&#45;&gt;Node12</title>
<path fill="none" stroke="midnightblue" d="M81.0791,-259.674C97.6289,-278.865 137.428,-321.887 180,-345 184.214,-347.288 188.726,-349.318 193.35,-351.116"/>
<polygon fill="midnightblue" stroke="midnightblue" points="192.344,-354.472 202.939,-354.488 194.666,-347.868 192.344,-354.472"/>
</g>
<!-- Node13 -->
<g id="node13" class="node"><title>Node13</title>
<g id="a_node13"><a xlink:href="sendlib_8c.html#a3d800a72894aa007528c1bfd4b5a9dbc" target="_top" xlink:title="Update the encoding type. ">
<polygon fill="white" stroke="red" points="192.5,-38.5 192.5,-57.5 307.5,-57.5 307.5,-38.5 192.5,-38.5"/>
<text text-anchor="middle" x="250" y="-45.5" font-family="Helvetica,sans-Serif" font-size="10.00">mutt_update_encoding</text>
</a>
</g>
</g>
<!-- Node1&#45;&gt;Node13 -->
<g id="edge14" class="edge"><title>Node1&#45;&gt;Node13</title>
<path fill="none" stroke="midnightblue" d="M76.1377,-240.304C86.2243,-210.637 120.666,-120.192 180,-72 185.039,-67.907 190.822,-64.4912 196.85,-61.6455"/>
<polygon fill="midnightblue" stroke="midnightblue" points="198.577,-64.7167 206.451,-57.6276 195.875,-58.2593 198.577,-64.7167"/>
</g>
<!-- Node14 -->
<g id="node14" class="node"><title>Node14</title>
<g id="a_node14"><a xlink:href="file_8c.html#a4982d9040dfaf38e847729be2af83ed6" target="_top" xlink:title="Close a FILE handle (and NULL the pointer) ">
<polygon fill="white" stroke="black" points="207,-0.5 207,-19.5 293,-19.5 293,-0.5 207,-0.5"/>
<text text-anchor="middle" x="250" y="-7.5" font-family="Helvetica,sans-Serif" font-size="10.00">mutt_file_fclose</text>
</a>
</g>
</g>
<!-- Node1&#45;&gt;Node14 -->
<g id="edge15" class="edge"><title>Node1&#45;&gt;Node14</title>
<path fill="none" stroke="midnightblue" d="M74.7437,-240.297C81.4582,-205.827 108.911,-88.1884 180,-29 185.013,-24.8262 190.872,-21.5652 197.019,-19.0182"/>
<polygon fill="midnightblue" stroke="midnightblue" points="198.557,-22.1876 206.835,-15.5748 196.24,-15.5822 198.557,-22.1876"/>
</g>
<!-- Node12&#45;&gt;Node4 -->
<g id="edge12" class="edge"><title>Node12&#45;&gt;Node4</title>
<path fill="none" stroke="midnightblue" d="M313.768,-372.113C324.419,-373.49 335.379,-374.906 345.724,-376.243"/>
<polygon fill="midnightblue" stroke="midnightblue" points="345.465,-379.739 355.831,-377.55 346.362,-372.797 345.465,-379.739"/>
</g>
<!-- Node12&#45;&gt;Node5 -->
<g id="edge13" class="edge"><title>Node12&#45;&gt;Node5</title>
<path fill="none" stroke="midnightblue" d="M302.326,-354.44C308.613,-351.98 314.685,-348.888 320,-345 355.763,-318.839 379.55,-270.896 390.693,-244.212"/>
<polygon fill="midnightblue" stroke="midnightblue" points="393.989,-245.394 394.46,-234.81 387.492,-242.791 393.989,-245.394"/>
</g>
</g>
</svg>
