<?xml version="1.0" encoding="UTF-8" standalone="no"?>
<!DOCTYPE svg PUBLIC "-//W3C//DTD SVG 1.1//EN"
 "http://www.w3.org/Graphics/SVG/1.1/DTD/svg11.dtd">
<!-- Generated by graphviz version 2.36.0 (20140111.2315)
 -->
<!-- Title: mutt_make_post_indent Pages: 1 -->
<svg width="404pt" height="104pt"
 viewBox="0.00 0.00 404.00 104.00" xmlns="http://www.w3.org/2000/svg" xmlns:xlink="http://www.w3.org/1999/xlink">
<g id="graph0" class="graph" transform="scale(1 1) rotate(0) translate(4 100)">
<title>mutt_make_post_indent</title>
<polygon fill="white" stroke="none" points="-4,4 -4,-100 400,-100 400,4 -4,4"/>
<!-- Node1 -->
<g id="node1" class="node"><title>Node1</title>
<polygon fill="#bfbfbf" stroke="black" points="0.5,-38.5 0.5,-57.5 121.5,-57.5 121.5,-38.5 0.5,-38.5"/>
<text text-anchor="middle" x="61" y="-45.5" font-family="Helvetica,sans-Serif" font-size="10.00">mutt_make_post_indent</text>
</g>
<!-- Node2 -->
<g id="node2" class="node"><title>Node2</title>
<g id="a_node2"><a xlink:href="recvcmd_8c.html#ad787a7b5d402e6892f455ebf6f699125" target="_top" xlink:title="This is very similar to send.c&#39;s include_reply() ">
<polygon fill="white" stroke="black" points="158,-76.5 158,-95.5 264,-95.5 264,-76.5 158,-76.5"/>
<text text-anchor="middle" x="211" y="-83.5" font-family="Helvetica,sans-Serif" font-size="10.00">attach_include_reply</text>
</a>
</g>
</g>
<!-- Node1&#45;&gt;Node2 -->
<g id="edge1" class="edge"><title>Node1&#45;&gt;Node2</title>
<path fill="none" stroke="midnightblue" d="M109.173,-60.1121C129.786,-65.4044 153.609,-71.5213 172.922,-76.4799"/>
<polygon fill="midnightblue" stroke="midnightblue" points="109.903,-56.6859 99.3466,-57.589 108.162,-63.466 109.903,-56.6859"/>
</g>
<!-- Node3 -->
<g id="node3" class="node"><title>Node3</title>
<g id="a_node3"><a xlink:href="recvcmd_8h.html#a40682fa92a787a3a065716d851677599" target="_top" xlink:title="Attach a reply. ">
<polygon fill="white" stroke="red" points="300.5,-57.5 300.5,-76.5 395.5,-76.5 395.5,-57.5 300.5,-57.5"/>
<text text-anchor="middle" x="348" y="-64.5" font-family="Helvetica,sans-Serif" font-size="10.00">mutt_attach_reply</text>
</a>
</g>
</g>
<!-- Node1&#45;&gt;Node3 -->
<g id="edge3" class="edge"><title>Node1&#45;&gt;Node3</title>
<path fill="none" stroke="midnightblue" d="M131.986,-52.6657C184.444,-56.1629 254.775,-60.8516 300.484,-63.8989"/>
<polygon fill="midnightblue" stroke="midnightblue" points="131.956,-49.1561 121.745,-51.983 131.49,-56.1406 131.956,-49.1561"/>
</g>
<!-- Node4 -->
<g id="node4" class="node"><title>Node4</title>
<g id="a_node4"><a xlink:href="send_8c.html#a41e3fbbc7857aef9878e86e6a26ec064" target="_top" xlink:title="Generate the reply text for an email. ">
<polygon fill="white" stroke="red" points="174,-0.5 174,-19.5 248,-19.5 248,-0.5 174,-0.5"/>
<text text-anchor="middle" x="211" y="-7.5" font-family="Helvetica,sans-Serif" font-size="10.00">include_reply</text>
</a>
</g>
</g>
<!-- Node1&#45;&gt;Node4 -->
<g id="edge4" class="edge"><title>Node1&#45;&gt;Node4</title>
<path fill="none" stroke="midnightblue" d="M109.042,-35.9216C130.049,-30.528 154.413,-24.2724 173.943,-19.2579"/>
<polygon fill="midnightblue" stroke="midnightblue" points="108.162,-32.534 99.3466,-38.411 109.903,-39.3141 108.162,-32.534"/>
</g>
<!-- Node2&#45;&gt;Node3 -->
<g id="edge2" class="edge"><title>Node2&#45;&gt;Node3</title>
<path fill="none" stroke="midnightblue" d="M274.334,-77.227C283.047,-76.0008 291.875,-74.7583 300.233,-73.582"/>
<polygon fill="midnightblue" stroke="midnightblue" points="273.609,-73.7945 264.195,-78.6541 274.585,-80.7262 273.609,-73.7945"/>
</g>
</g>
</svg>
