<?xml version="1.0" encoding="UTF-8" standalone="no"?>
<!DOCTYPE svg PUBLIC "-//W3C//DTD SVG 1.1//EN"
 "http://www.w3.org/Graphics/SVG/1.1/DTD/svg11.dtd">
<!-- Generated by graphviz version 2.36.0 (20140111.2315)
 -->
<!-- Title: bounce_message Pages: 1 -->
<svg width="258pt" height="446pt"
 viewBox="0.00 0.00 258.00 446.00" xmlns="http://www.w3.org/2000/svg" xmlns:xlink="http://www.w3.org/1999/xlink">
<g id="graph0" class="graph" transform="scale(1 1) rotate(0) translate(4 442)">
<title>bounce_message</title>
<polygon fill="white" stroke="none" points="-4,4 -4,-442 254,-442 254,4 -4,4"/>
<!-- Node1 -->
<g id="node1" class="node"><title>Node1</title>
<polygon fill="#bfbfbf" stroke="black" points="0.5,-209.5 0.5,-228.5 93.5,-228.5 93.5,-209.5 0.5,-209.5"/>
<text text-anchor="middle" x="47" y="-216.5" font-family="Helvetica,sans-Serif" font-size="10.00">bounce_message</text>
</g>
<!-- Node2 -->
<g id="node2" class="node"><title>Node2</title>
<g id="a_node2"><a xlink:href="curs__lib_8c.html#a25532ef8e160d4f2e43c20325e5f1cdc" target="_top" xlink:title="Is a message in the index tagged (and within limit) ">
<polygon fill="white" stroke="red" points="138,-418.5 138,-437.5 242,-437.5 242,-418.5 138,-418.5"/>
<text text-anchor="middle" x="190" y="-425.5" font-family="Helvetica,sans-Serif" font-size="10.00">message_is_tagged</text>
</a>
</g>
</g>
<!-- Node1&#45;&gt;Node2 -->
<g id="edge1" class="edge"><title>Node1&#45;&gt;Node2</title>
<path fill="none" stroke="midnightblue" d="M49.3691,-228.926C54.2052,-260.182 73.358,-357.544 130,-409 131.747,-410.587 133.628,-412.042 135.608,-413.376"/>
<polygon fill="midnightblue" stroke="midnightblue" points="134.36,-416.686 144.802,-418.478 137.757,-410.565 134.36,-416.686"/>
</g>
<!-- Node3 -->
<g id="node3" class="node"><title>Node3</title>
<g id="a_node3"><a xlink:href="mx_8c.html#a023ab20d4926e2bac4206686fb35a33e" target="_top" xlink:title="return a stream pointer for a message ">
<polygon fill="white" stroke="red" points="150,-380.5 150,-399.5 230,-399.5 230,-380.5 150,-380.5"/>
<text text-anchor="middle" x="190" y="-387.5" font-family="Helvetica,sans-Serif" font-size="10.00">mx_msg_open</text>
</a>
</g>
</g>
<!-- Node1&#45;&gt;Node3 -->
<g id="edge2" class="edge"><title>Node1&#45;&gt;Node3</title>
<path fill="none" stroke="midnightblue" d="M50.5103,-228.821C57.8865,-255.701 82.0515,-331.118 130,-371 133.258,-373.71 136.909,-376.035 140.756,-378.031"/>
<polygon fill="midnightblue" stroke="midnightblue" points="139.432,-381.272 149.993,-382.113 142.262,-374.87 139.432,-381.272"/>
</g>
<!-- Node4 -->
<g id="node4" class="node"><title>Node4</title>
<g id="a_node4"><a xlink:href="file_8c.html#ae1c0c19fec03274220b3ca065ad1e2e5" target="_top" xlink:title="Call fopen() safely. ">
<polygon fill="white" stroke="red" points="148.5,-342.5 148.5,-361.5 231.5,-361.5 231.5,-342.5 148.5,-342.5"/>
<text text-anchor="middle" x="190" y="-349.5" font-family="Helvetica,sans-Serif" font-size="10.00">mutt_file_fopen</text>
</a>
</g>
</g>
<!-- Node1&#45;&gt;Node4 -->
<g id="edge3" class="edge"><title>Node1&#45;&gt;Node4</title>
<path fill="none" stroke="midnightblue" d="M52.243,-228.531C62.4279,-250.328 90.3863,-304.154 130,-333 132.826,-335.058 135.885,-336.899 139.071,-338.546"/>
<polygon fill="midnightblue" stroke="midnightblue" points="137.749,-341.789 148.306,-342.69 140.615,-335.403 137.749,-341.789"/>
</g>
<!-- Node5 -->
<g id="node5" class="node"><title>Node5</title>
<g id="a_node5"><a xlink:href="date_8c.html#a808bc580b1cc9cb503d16dfb7ba3c128" target="_top" xlink:title="Write a date in RFC822 format to a buffer. ">
<polygon fill="white" stroke="red" points="133.5,-304.5 133.5,-323.5 246.5,-323.5 246.5,-304.5 133.5,-304.5"/>
<text text-anchor="middle" x="190" y="-311.5" font-family="Helvetica,sans-Serif" font-size="10.00">mutt_date_make_date</text>
</a>
</g>
</g>
<!-- Node1&#45;&gt;Node5 -->
<g id="edge4" class="edge"><title>Node1&#45;&gt;Node5</title>
<path fill="none" stroke="midnightblue" d="M55.8325,-228.592C69.3589,-244.565 98.6732,-276.666 130,-295 133.605,-297.11 137.473,-299.016 141.441,-300.733"/>
<polygon fill="midnightblue" stroke="midnightblue" points="140.218,-304.013 150.806,-304.4 142.771,-297.495 140.218,-304.013"/>
</g>
<!-- Node6 -->
<g id="node6" class="node"><title>Node6</title>
<g id="a_node6"><a xlink:href="sendlib_8c.html#ac62eae092c686382b22e33cb0b736edc" target="_top" xlink:title="Generate a unique Message ID. ">
<polygon fill="white" stroke="red" points="158,-266.5 158,-285.5 222,-285.5 222,-266.5 158,-266.5"/>
<text text-anchor="middle" x="190" y="-273.5" font-family="Helvetica,sans-Serif" font-size="10.00">gen_msgid</text>
</a>
</g>
</g>
<!-- Node1&#45;&gt;Node6 -->
<g id="edge5" class="edge"><title>Node1&#45;&gt;Node6</title>
<path fill="none" stroke="midnightblue" d="M66.932,-228.579C83.3702,-236.701 107.934,-248.372 130,-257 135.854,-259.289 142.107,-261.522 148.274,-263.607"/>
<polygon fill="midnightblue" stroke="midnightblue" points="147.229,-266.947 157.822,-266.745 149.415,-260.298 147.229,-266.947"/>
</g>
<!-- Node7 -->
<g id="node7" class="node"><title>Node7</title>
<g id="a_node7"><a xlink:href="sendlib_8c.html#aeeb18bfb6476338561d662eb3eeccd88" target="_top" xlink:title="wrapper around mutt_write_address() ">
<polygon fill="white" stroke="red" points="130,-228.5 130,-247.5 250,-247.5 250,-228.5 130,-228.5"/>
<text text-anchor="middle" x="190" y="-235.5" font-family="Helvetica,sans-Serif" font-size="10.00">mutt_write_address_list</text>
</a>
</g>
</g>
<!-- Node1&#45;&gt;Node7 -->
<g id="edge6" class="edge"><title>Node1&#45;&gt;Node7</title>
<path fill="none" stroke="midnightblue" d="M93.7787,-225.169C102.133,-226.295 111.018,-227.492 119.875,-228.685"/>
<polygon fill="midnightblue" stroke="midnightblue" points="119.453,-232.16 129.831,-230.027 120.388,-225.223 119.453,-232.16"/>
</g>
<!-- Node8 -->
<g id="node8" class="node"><title>Node8</title>
<g id="a_node8"><a xlink:href="copy_8c.html#abab1732612a46d6e72e452b7ffef1b82" target="_top" xlink:title="Copy email header. ">
<polygon fill="white" stroke="red" points="141.5,-190.5 141.5,-209.5 238.5,-209.5 238.5,-190.5 141.5,-190.5"/>
<text text-anchor="middle" x="190" y="-197.5" font-family="Helvetica,sans-Serif" font-size="10.00">mutt_copy_header</text>
</a>
</g>
</g>
<!-- Node1&#45;&gt;Node8 -->
<g id="edge7" class="edge"><title>Node1&#45;&gt;Node8</title>
<path fill="none" stroke="midnightblue" d="M93.7787,-212.831C105.589,-211.24 118.46,-209.505 130.81,-207.841"/>
<polygon fill="midnightblue" stroke="midnightblue" points="131.584,-211.269 141.027,-206.464 130.649,-204.331 131.584,-211.269"/>
</g>
<!-- Node9 -->
<g id="node9" class="node"><title>Node9</title>
<g id="a_node9"><a xlink:href="file_8c.html#aea32dff0f06cb42cf6acfce282df1c95" target="_top" xlink:title="Copy some content from one file to another. ">
<polygon fill="white" stroke="black" points="135,-152.5 135,-171.5 245,-171.5 245,-152.5 135,-152.5"/>
<text text-anchor="middle" x="190" y="-159.5" font-family="Helvetica,sans-Serif" font-size="10.00">mutt_file_copy_bytes</text>
</a>
</g>
</g>
<!-- Node1&#45;&gt;Node9 -->
<g id="edge8" class="edge"><title>Node1&#45;&gt;Node9</title>
<path fill="none" stroke="midnightblue" d="M66.932,-209.421C83.3702,-201.299 107.934,-189.628 130,-181 135.522,-178.841 141.399,-176.731 147.224,-174.749"/>
<polygon fill="midnightblue" stroke="midnightblue" points="148.508,-178.011 156.904,-171.549 146.311,-171.365 148.508,-178.011"/>
</g>
<!-- Node10 -->
<g id="node10" class="node"><title>Node10</title>
<g id="a_node10"><a xlink:href="file_8c.html#a4982d9040dfaf38e847729be2af83ed6" target="_top" xlink:title="Close a FILE handle (and NULL the pointer) ">
<polygon fill="white" stroke="black" points="147,-114.5 147,-133.5 233,-133.5 233,-114.5 147,-114.5"/>
<text text-anchor="middle" x="190" y="-121.5" font-family="Helvetica,sans-Serif" font-size="10.00">mutt_file_fclose</text>
</a>
</g>
</g>
<!-- Node1&#45;&gt;Node10 -->
<g id="edge9" class="edge"><title>Node1&#45;&gt;Node10</title>
<path fill="none" stroke="midnightblue" d="M55.8325,-209.408C69.3589,-193.435 98.6732,-161.334 130,-143 133.605,-140.89 137.473,-138.984 141.441,-137.267"/>
<polygon fill="midnightblue" stroke="midnightblue" points="142.771,-140.505 150.806,-133.6 140.218,-133.987 142.771,-140.505"/>
</g>
<!-- Node11 -->
<g id="node11" class="node"><title>Node11</title>
<g id="a_node11"><a xlink:href="smtp_8c.html#a935dac37947ee542858ad8cf03c7654a" target="_top" xlink:title="Send a message using SMTP. ">
<polygon fill="white" stroke="red" points="145.5,-76.5 145.5,-95.5 234.5,-95.5 234.5,-76.5 145.5,-76.5"/>
<text text-anchor="middle" x="190" y="-83.5" font-family="Helvetica,sans-Serif" font-size="10.00">mutt_smtp_send</text>
</a>
</g>
</g>
<!-- Node1&#45;&gt;Node11 -->
<g id="edge10" class="edge"><title>Node1&#45;&gt;Node11</title>
<path fill="none" stroke="midnightblue" d="M52.243,-209.469C62.4279,-187.672 90.3863,-133.846 130,-105 132.653,-103.068 135.512,-101.327 138.489,-99.7579"/>
<polygon fill="midnightblue" stroke="midnightblue" points="140.05,-102.893 147.69,-95.5518 137.14,-96.5262 140.05,-102.893"/>
</g>
<!-- Node12 -->
<g id="node12" class="node"><title>Node12</title>
<g id="a_node12"><a xlink:href="sendlib_8c.html#ab4c0786d3bd0279716711f0b89bdb316" target="_top" xlink:title="Run sendmail. ">
<polygon fill="white" stroke="red" points="133,-38.5 133,-57.5 247,-57.5 247,-38.5 133,-38.5"/>
<text text-anchor="middle" x="190" y="-45.5" font-family="Helvetica,sans-Serif" font-size="10.00">mutt_invoke_sendmail</text>
</a>
</g>
</g>
<!-- Node1&#45;&gt;Node12 -->
<g id="edge11" class="edge"><title>Node1&#45;&gt;Node12</title>
<path fill="none" stroke="midnightblue" d="M50.5103,-209.179C57.8865,-182.299 82.0515,-106.882 130,-67 132.027,-65.3141 134.206,-63.7768 136.49,-62.3752"/>
<polygon fill="midnightblue" stroke="midnightblue" points="138.436,-65.3098 145.718,-57.6141 135.226,-59.089 138.436,-65.3098"/>
</g>
<!-- Node13 -->
<g id="node13" class="node"><title>Node13</title>
<g id="a_node13"><a xlink:href="mx_8c.html#a80867e6aff3b2804c4eef734b673982c" target="_top" xlink:title="Close a message. ">
<polygon fill="white" stroke="black" points="148.5,-0.5 148.5,-19.5 231.5,-19.5 231.5,-0.5 148.5,-0.5"/>
<text text-anchor="middle" x="190" y="-7.5" font-family="Helvetica,sans-Serif" font-size="10.00">mx_msg_close</text>
</a>
</g>
</g>
<!-- Node1&#45;&gt;Node13 -->
<g id="edge12" class="edge"><title>Node1&#45;&gt;Node13</title>
<path fill="none" stroke="midnightblue" d="M49.3691,-209.074C54.2052,-177.818 73.358,-80.4557 130,-29 132.793,-26.4629 135.927,-24.2644 139.258,-22.3593"/>
<polygon fill="midnightblue" stroke="midnightblue" points="140.92,-25.444 148.43,-17.9706 137.899,-19.1295 140.92,-25.444"/>
</g>
</g>
</svg>
