<?xml version="1.0" encoding="UTF-8" standalone="no"?>
<!DOCTYPE svg PUBLIC "-//W3C//DTD SVG 1.1//EN"
 "http://www.w3.org/Graphics/SVG/1.1/DTD/svg11.dtd">
<!-- Generated by graphviz version 2.36.0 (20140111.2315)
 -->
<!-- Title: mutt_message_to_7bit Pages: 1 -->
<svg width="270pt" height="122pt"
 viewBox="0.00 0.00 270.00 122.00" xmlns="http://www.w3.org/2000/svg" xmlns:xlink="http://www.w3.org/1999/xlink">
<g id="graph0" class="graph" transform="scale(1 1) rotate(0) translate(4 118)">
<title>mutt_message_to_7bit</title>
<polygon fill="white" stroke="none" points="-4,4 -4,-118 266,-118 266,4 -4,4"/>
<!-- Node1 -->
<g id="node1" class="node"><title>Node1</title>
<polygon fill="#bfbfbf" stroke="black" points="0,-38.5 0,-57.5 116,-57.5 116,-38.5 0,-38.5"/>
<text text-anchor="middle" x="58" y="-45.5" font-family="Helvetica,sans-Serif" font-size="10.00">mutt_message_to_7bit</text>
</g>
<!-- Node2 -->
<g id="node2" class="node"><title>Node2</title>
<g id="a_node2"><a xlink:href="crypt_8h.html#a7321a72cf7c00a3a126fdba74a648191" target="_top" xlink:title="Convert an email to 7bit encoding. ">
<polygon fill="white" stroke="red" points="152,-76.5 152,-95.5 262,-95.5 262,-76.5 152,-76.5"/>
<text text-anchor="middle" x="207" y="-83.5" font-family="Helvetica,sans-Serif" font-size="10.00">crypt_convert_to_7bit</text>
</a>
</g>
</g>
<!-- Node1&#45;&gt;Node2 -->
<g id="edge1" class="edge"><title>Node1&#45;&gt;Node2</title>
<path fill="none" stroke="midnightblue" d="M105.855,-60.1121C126.328,-65.4044 149.99,-71.5213 169.172,-76.4799"/>
<polygon fill="midnightblue" stroke="midnightblue" points="106.652,-56.7032 96.0943,-57.589 104.9,-63.4805 106.652,-56.7032"/>
</g>
<!-- Node3 -->
<g id="node3" class="node"><title>Node3</title>
<g id="a_node3"><a xlink:href="sendlib_8c.html#a10c422b33240afd393feacb12180643b" target="_top" xlink:title="Convert MIME parts to 7&#45;bit. ">
<polygon fill="white" stroke="black" points="161,-38.5 161,-57.5 253,-57.5 253,-38.5 161,-38.5"/>
<text text-anchor="middle" x="207" y="-45.5" font-family="Helvetica,sans-Serif" font-size="10.00">transform_to_7bit</text>
</a>
</g>
</g>
<!-- Node1&#45;&gt;Node3 -->
<g id="edge3" class="edge"><title>Node1&#45;&gt;Node3</title>
<path fill="none" stroke="midnightblue" d="M126.45,-41.2704C138.146,-41.1915 150.047,-41.3418 160.959,-41.7215"/>
<polygon fill="midnightblue" stroke="midnightblue" points="126.21,-37.773 116.255,-41.3987 126.298,-44.7725 126.21,-37.773"/>
</g>
<!-- Node4 -->
<g id="node4" class="node"><title>Node4</title>
<g id="a_node4"><a xlink:href="sendlib_8c.html#af55a2bb3c93ce7c7eb54f41aca6fcdca" target="_top" xlink:title="determine which Content&#45;Transfer&#45;Encoding to use ">
<polygon fill="white" stroke="red" points="170,-0.5 170,-19.5 244,-19.5 244,-0.5 170,-0.5"/>
<text text-anchor="middle" x="207" y="-7.5" font-family="Helvetica,sans-Serif" font-size="10.00">set_encoding</text>
</a>
</g>
</g>
<!-- Node1&#45;&gt;Node4 -->
<g id="edge5" class="edge"><title>Node1&#45;&gt;Node4</title>
<path fill="none" stroke="midnightblue" d="M105.969,-35.8582C126.688,-30.5025 150.655,-24.307 169.934,-19.3232"/>
<polygon fill="midnightblue" stroke="midnightblue" points="104.9,-32.5195 96.0943,-38.411 106.652,-39.2968 104.9,-32.5195"/>
</g>
<!-- Node2&#45;&gt;Node2 -->
<g id="edge2" class="edge"><title>Node2&#45;&gt;Node2</title>
<path fill="none" stroke="midnightblue" d="M179.374,-104.654C180.529,-109.937 189.738,-114 207,-114 233.305,-114 240.908,-104.565 229.811,-95.7571"/>
<polygon fill="midnightblue" stroke="midnightblue" points="182.508,-106.218 184.189,-95.7571 176.351,-102.886 182.508,-106.218"/>
</g>
<!-- Node3&#45;&gt;Node1 -->
<g id="edge4" class="edge"><title>Node3&#45;&gt;Node1</title>
<path fill="none" stroke="midnightblue" d="M150.8,-54.5605C139.513,-54.7988 127.612,-54.8123 116.255,-54.6013"/>
<polygon fill="midnightblue" stroke="midnightblue" points="151.06,-58.0547 160.959,-54.2785 150.865,-51.0574 151.06,-58.0547"/>
</g>
</g>
</svg>
