<?xml version="1.0" encoding="UTF-8" standalone="no"?>
<!DOCTYPE svg PUBLIC "-//W3C//DTD SVG 1.1//EN"
 "http://www.w3.org/Graphics/SVG/1.1/DTD/svg11.dtd">
<!-- Generated by graphviz version 2.36.0 (20140111.2315)
 -->
<!-- Title: send.c Pages: 1 -->
<svg width="2227pt" height="196pt"
 viewBox="0.00 0.00 2227.16 196.00" xmlns="http://www.w3.org/2000/svg" xmlns:xlink="http://www.w3.org/1999/xlink">
<g id="graph0" class="graph" transform="scale(1 1) rotate(0) translate(4 192)">
<title>send.c</title>
<polygon fill="white" stroke="none" points="-4,4 -4,-192 2223.16,-192 2223.16,4 -4,4"/>
<!-- Node1 -->
<g id="node1" class="node"><title>Node1</title>
<polygon fill="#bfbfbf" stroke="black" points="1073,-168.5 1073,-187.5 1119,-187.5 1119,-168.5 1073,-168.5"/>
<text text-anchor="middle" x="1096" y="-175.5" font-family="Helvetica,sans-Serif" font-size="10.00">send.c</text>
</g>
<!-- Node2 -->
<g id="node2" class="node"><title>Node2</title>
<polygon fill="white" stroke="#bfbfbf" points="-0.5,-112.5 -0.5,-131.5 50.5,-131.5 50.5,-112.5 -0.5,-112.5"/>
<text text-anchor="middle" x="25" y="-119.5" font-family="Helvetica,sans-Serif" font-size="10.00">config.h</text>
</g>
<!-- Node1&#45;&gt;Node2 -->
<g id="edge1" class="edge"><title>Node1&#45;&gt;Node2</title>
<path fill="none" stroke="midnightblue" d="M1072.86,-176.673C941.161,-174.714 284.409,-163.567 60.8643,-131.935"/>
<polygon fill="midnightblue" stroke="midnightblue" points="61.271,-128.457 50.8675,-130.462 60.2505,-135.382 61.271,-128.457"/>
</g>
<!-- Node3 -->
<g id="node3" class="node"><title>Node3</title>
<polygon fill="white" stroke="#bfbfbf" points="68.5,-112.5 68.5,-131.5 115.5,-131.5 115.5,-112.5 68.5,-112.5"/>
<text text-anchor="middle" x="92" y="-119.5" font-family="Helvetica,sans-Serif" font-size="10.00">errno.h</text>
</g>
<!-- Node1&#45;&gt;Node3 -->
<g id="edge2" class="edge"><title>Node1&#45;&gt;Node3</title>
<path fill="none" stroke="midnightblue" d="M1072.8,-176.506C944.495,-173.681 320.573,-158.769 130,-132 128.531,-131.794 127.036,-131.557 125.53,-131.296"/>
<polygon fill="midnightblue" stroke="midnightblue" points="126.08,-127.837 115.587,-129.304 124.705,-134.701 126.08,-127.837"/>
</g>
<!-- Node4 -->
<g id="node4" class="node"><title>Node4</title>
<polygon fill="white" stroke="#bfbfbf" points="243,-0.5 243,-19.5 291,-19.5 291,-0.5 243,-0.5"/>
<text text-anchor="middle" x="267" y="-7.5" font-family="Helvetica,sans-Serif" font-size="10.00">limits.h</text>
</g>
<!-- Node1&#45;&gt;Node4 -->
<g id="edge3" class="edge"><title>Node1&#45;&gt;Node4</title>
<path fill="none" stroke="midnightblue" d="M1072.89,-176.776C932.16,-175.301 195.373,-165.972 163,-132 127.277,-94.5129 199.182,-47.2528 240.578,-24.4822"/>
<polygon fill="midnightblue" stroke="midnightblue" points="242.475,-27.4362 249.631,-19.623 239.165,-21.2685 242.475,-27.4362"/>
</g>
<!-- Node5 -->
<g id="node5" class="node"><title>Node5</title>
<polygon fill="white" stroke="#bfbfbf" points="172,-112.5 172,-131.5 222,-131.5 222,-112.5 172,-112.5"/>
<text text-anchor="middle" x="197" y="-119.5" font-family="Helvetica,sans-Serif" font-size="10.00">locale.h</text>
</g>
<!-- Node1&#45;&gt;Node5 -->
<g id="edge4" class="edge"><title>Node1&#45;&gt;Node5</title>
<path fill="none" stroke="midnightblue" d="M1072.94,-177.264C972.779,-178.102 565.796,-178.32 236,-132 234.723,-131.821 233.426,-131.62 232.118,-131.402"/>
<polygon fill="midnightblue" stroke="midnightblue" points="232.537,-127.918 222.055,-129.46 231.21,-134.791 232.537,-127.918"/>
</g>
<!-- Node6 -->
<g id="node6" class="node"><title>Node6</title>
<polygon fill="white" stroke="#bfbfbf" points="431.5,-0.5 431.5,-19.5 480.5,-19.5 480.5,-0.5 431.5,-0.5"/>
<text text-anchor="middle" x="456" y="-7.5" font-family="Helvetica,sans-Serif" font-size="10.00">regex.h</text>
</g>
<!-- Node1&#45;&gt;Node6 -->
<g id="edge5" class="edge"><title>Node1&#45;&gt;Node6</title>
<path fill="none" stroke="midnightblue" d="M1072.95,-177.018C951.198,-176.935 386.136,-174.26 322,-132 291.941,-112.194 272.217,-84.6585 294,-56 309.339,-35.8193 378.43,-22.3089 421.278,-15.7066"/>
<polygon fill="midnightblue" stroke="midnightblue" points="421.921,-19.1495 431.296,-14.2146 420.89,-12.2259 421.921,-19.1495"/>
</g>
<!-- Node7 -->
<g id="node7" class="node"><title>Node7</title>
<polygon fill="white" stroke="#bfbfbf" points="1442,-0.5 1442,-19.5 1498,-19.5 1498,-0.5 1442,-0.5"/>
<text text-anchor="middle" x="1470" y="-7.5" font-family="Helvetica,sans-Serif" font-size="10.00">stdbool.h</text>
</g>
<!-- Node1&#45;&gt;Node7 -->
<g id="edge6" class="edge"><title>Node1&#45;&gt;Node7</title>
<path fill="none" stroke="midnightblue" d="M1119.07,-173.876C1157.71,-168.223 1237.62,-154.727 1302,-132 1320.74,-125.384 1323.6,-119.507 1342,-112 1390.41,-92.251 1418.34,-114.237 1454,-76 1465.51,-63.6608 1469.11,-44.4107 1470.07,-30.0574"/>
<polygon fill="midnightblue" stroke="midnightblue" points="1473.58,-29.9217 1470.38,-19.8217 1466.58,-29.7128 1473.58,-29.9217"/>
</g>
<!-- Node8 -->
<g id="node8" class="node"><title>Node8</title>
<polygon fill="white" stroke="#bfbfbf" points="1065,-0.5 1065,-19.5 1111,-19.5 1111,-0.5 1065,-0.5"/>
<text text-anchor="middle" x="1088" y="-7.5" font-family="Helvetica,sans-Serif" font-size="10.00">stdio.h</text>
</g>
<!-- Node1&#45;&gt;Node8 -->
<g id="edge7" class="edge"><title>Node1&#45;&gt;Node8</title>
<path fill="none" stroke="midnightblue" d="M1072.92,-175.613C1022.35,-171.17 902.321,-152.647 853,-76 848.19,-68.525 847.336,-62.851 853,-56 878.166,-25.5582 995.615,-15.5117 1054.36,-12.3577"/>
<polygon fill="midnightblue" stroke="midnightblue" points="1054.8,-15.8403 1064.61,-11.8457 1054.45,-8.84907 1054.8,-15.8403"/>
</g>
<!-- Node9 -->
<g id="node9" class="node"><title>Node9</title>
<polygon fill="white" stroke="#bfbfbf" points="354.5,-112.5 354.5,-131.5 403.5,-131.5 403.5,-112.5 354.5,-112.5"/>
<text text-anchor="middle" x="379" y="-119.5" font-family="Helvetica,sans-Serif" font-size="10.00">string.h</text>
</g>
<!-- Node1&#45;&gt;Node9 -->
<g id="edge8" class="edge"><title>Node1&#45;&gt;Node9</title>
<path fill="none" stroke="midnightblue" d="M1072.82,-177.087C986.735,-177.073 677.236,-174.03 413.898,-131.795"/>
<polygon fill="midnightblue" stroke="midnightblue" points="414.195,-128.297 403.763,-130.146 413.071,-135.206 414.195,-128.297"/>
</g>
<!-- Node10 -->
<g id="node10" class="node"><title>Node10</title>
<polygon fill="white" stroke="#bfbfbf" points="422,-112.5 422,-131.5 482,-131.5 482,-112.5 422,-112.5"/>
<text text-anchor="middle" x="452" y="-119.5" font-family="Helvetica,sans-Serif" font-size="10.00">sys/stat.h</text>
</g>
<!-- Node1&#45;&gt;Node10 -->
<g id="edge9" class="edge"><title>Node1&#45;&gt;Node10</title>
<path fill="none" stroke="midnightblue" d="M1072.78,-176.546C993.142,-174.723 723.709,-166.356 492.102,-131.935"/>
<polygon fill="midnightblue" stroke="midnightblue" points="492.556,-128.464 482.146,-130.435 491.513,-135.386 492.556,-128.464"/>
</g>
<!-- Node11 -->
<g id="node11" class="node"><title>Node11</title>
<polygon fill="white" stroke="#bfbfbf" points="1759,-0.5 1759,-19.5 1803,-19.5 1803,-0.5 1759,-0.5"/>
<text text-anchor="middle" x="1781" y="-7.5" font-family="Helvetica,sans-Serif" font-size="10.00">time.h</text>
</g>
<!-- Node1&#45;&gt;Node11 -->
<g id="edge10" class="edge"><title>Node1&#45;&gt;Node11</title>
<path fill="none" stroke="midnightblue" d="M1119.09,-176.792C1249.17,-175.493 1887.54,-167.344 1967,-132 2005.34,-114.949 2049.82,-88.2663 2023,-56 1996.65,-24.3 1872.59,-14.8223 1813.04,-12.0761"/>
<polygon fill="midnightblue" stroke="midnightblue" points="1813.19,-8.57934 1803.05,-11.651 1812.89,-15.573 1813.19,-8.57934"/>
</g>
<!-- Node12 -->
<g id="node12" class="node"><title>Node12</title>
<polygon fill="white" stroke="#bfbfbf" points="680.5,-56.5 680.5,-75.5 731.5,-75.5 731.5,-56.5 680.5,-56.5"/>
<text text-anchor="middle" x="706" y="-63.5" font-family="Helvetica,sans-Serif" font-size="10.00">unistd.h</text>
</g>
<!-- Node1&#45;&gt;Node12 -->
<g id="edge11" class="edge"><title>Node1&#45;&gt;Node12</title>
<path fill="none" stroke="midnightblue" d="M1072.77,-177.082C1001.37,-176.887 786.705,-172.845 733,-132 718.584,-121.036 711.81,-100.979 708.662,-86.0331"/>
<polygon fill="midnightblue" stroke="midnightblue" points="712.051,-85.0912 706.894,-75.8358 705.154,-86.2867 712.051,-85.0912"/>
</g>
<!-- Node13 -->
<g id="node13" class="node"><title>Node13</title>
<g id="a_node13"><a xlink:href="mutt_2mutt_8h.html" target="_top" xlink:title="Convenience wrapper for the library headers. ">
<polygon fill="white" stroke="red" points="2132.5,-0.5 2132.5,-19.5 2199.5,-19.5 2199.5,-0.5 2132.5,-0.5"/>
<text text-anchor="middle" x="2166" y="-7.5" font-family="Helvetica,sans-Serif" font-size="10.00">mutt/mutt.h</text>
</a>
</g>
</g>
<!-- Node1&#45;&gt;Node13 -->
<g id="edge12" class="edge"><title>Node1&#45;&gt;Node13</title>
<path fill="none" stroke="midnightblue" d="M1119.31,-176.759C1273.78,-175.071 2144.85,-164.148 2190,-132 2218.64,-111.603 2225.64,-88.4134 2212,-56 2206.97,-44.0528 2197.06,-33.6922 2187.71,-25.9339"/>
<polygon fill="midnightblue" stroke="midnightblue" points="2189.84,-23.1547 2179.79,-19.8113 2185.56,-28.6944 2189.84,-23.1547"/>
</g>
<!-- Node14 -->
<g id="node14" class="node"><title>Node14</title>
<g id="a_node14"><a xlink:href="lib_8h.html" target="_top" xlink:title="Convenience wrapper for the config headers. ">
<polygon fill="white" stroke="red" points="2050,-0.5 2050,-19.5 2114,-19.5 2114,-0.5 2050,-0.5"/>
<text text-anchor="middle" x="2082" y="-7.5" font-family="Helvetica,sans-Serif" font-size="10.00">config/lib.h</text>
</a>
</g>
</g>
<!-- Node1&#45;&gt;Node14 -->
<g id="edge13" class="edge"><title>Node1&#45;&gt;Node14</title>
<path fill="none" stroke="midnightblue" d="M1119.2,-176.664C1271.02,-174.384 2118.02,-160.42 2164,-132 2195.03,-112.819 2215.47,-86.192 2195,-56 2186.55,-43.5323 2152.41,-30.9839 2123.85,-22.3176"/>
<polygon fill="midnightblue" stroke="midnightblue" points="2124.62,-18.8937 2114.04,-19.4206 2122.64,-25.6075 2124.62,-18.8937"/>
</g>
<!-- Node15 -->
<g id="node15" class="node"><title>Node15</title>
<g id="a_node15"><a xlink:href="email_8h.html" target="_top" xlink:title="Structs that make up an email. ">
<polygon fill="white" stroke="red" points="742,-112.5 742,-131.5 816,-131.5 816,-112.5 742,-112.5"/>
<text text-anchor="middle" x="779" y="-119.5" font-family="Helvetica,sans-Serif" font-size="10.00">email/email.h</text>
</a>
</g>
</g>
<!-- Node1&#45;&gt;Node15 -->
<g id="edge14" class="edge"><title>Node1&#45;&gt;Node15</title>
<path fill="none" stroke="midnightblue" d="M1072.86,-173.143C1026.68,-165.43 919.767,-147.513 830,-132 828.729,-131.78 827.441,-131.557 826.14,-131.331"/>
<polygon fill="midnightblue" stroke="midnightblue" points="826.495,-127.84 816.042,-129.569 825.291,-134.736 826.495,-127.84"/>
</g>
<!-- Node16 -->
<g id="node16" class="node"><title>Node16</title>
<g id="a_node16"><a xlink:href="mutt_8h.html" target="_top" xlink:title="Many unsorted constants and some structs. ">
<polygon fill="white" stroke="red" points="434,-56.5 434,-75.5 478,-75.5 478,-56.5 434,-56.5"/>
<text text-anchor="middle" x="456" y="-63.5" font-family="Helvetica,sans-Serif" font-size="10.00">mutt.h</text>
</a>
</g>
</g>
<!-- Node1&#45;&gt;Node16 -->
<g id="edge15" class="edge"><title>Node1&#45;&gt;Node16</title>
<path fill="none" stroke="midnightblue" d="M1072.78,-176.493C949.01,-173.678 371.544,-159.123 346,-132 318.941,-103.269 382.628,-83.0773 423.994,-73.4331"/>
<polygon fill="midnightblue" stroke="midnightblue" points="424.963,-76.8031 433.961,-71.2097 423.438,-69.9711 424.963,-76.8031"/>
</g>
<!-- Node17 -->
<g id="node17" class="node"><title>Node17</title>
<g id="a_node17"><a xlink:href="send_8h.html" target="_top" xlink:title="Prepare and send an email. ">
<polygon fill="white" stroke="black" points="1031,-56.5 1031,-75.5 1077,-75.5 1077,-56.5 1031,-56.5"/>
<text text-anchor="middle" x="1054" y="-63.5" font-family="Helvetica,sans-Serif" font-size="10.00">send.h</text>
</a>
</g>
</g>
<!-- Node1&#45;&gt;Node17 -->
<g id="edge19" class="edge"><title>Node1&#45;&gt;Node17</title>
<path fill="none" stroke="midnightblue" d="M1082.94,-168.436C1072.09,-160.471 1057.43,-147.515 1051,-132 1044.92,-117.323 1046.43,-99.1572 1049.02,-85.764"/>
<polygon fill="midnightblue" stroke="midnightblue" points="1052.47,-86.348 1051.31,-75.8177 1045.65,-84.7777 1052.47,-86.348"/>
</g>
<!-- Node18 -->
<g id="node18" class="node"><title>Node18</title>
<g id="a_node18"><a xlink:href="alias_8h.html" target="_top" xlink:title="Representation of a single alias to an email address. ">
<polygon fill="white" stroke="red" points="1969.5,-56.5 1969.5,-75.5 2014.5,-75.5 2014.5,-56.5 1969.5,-56.5"/>
<text text-anchor="middle" x="1992" y="-63.5" font-family="Helvetica,sans-Serif" font-size="10.00">alias.h</text>
</a>
</g>
</g>
<!-- Node1&#45;&gt;Node18 -->
<g id="edge22" class="edge"><title>Node1&#45;&gt;Node18</title>
<path fill="none" stroke="midnightblue" d="M1119.34,-176.914C1247.97,-176.286 1867.39,-171.234 1942,-132 1961.43,-121.781 1975.6,-100.285 1983.79,-84.8079"/>
<polygon fill="midnightblue" stroke="midnightblue" points="1987.01,-86.2001 1988.31,-75.6852 1980.73,-83.0947 1987.01,-86.2001"/>
</g>
<!-- Node19 -->
<g id="node19" class="node"><title>Node19</title>
<g id="a_node19"><a xlink:href="compose_8h.html" target="_top" xlink:title="GUI editor for an email&#39;s headers. ">
<polygon fill="white" stroke="black" points="302.5,-56.5 302.5,-75.5 367.5,-75.5 367.5,-56.5 302.5,-56.5"/>
<text text-anchor="middle" x="335" y="-63.5" font-family="Helvetica,sans-Serif" font-size="10.00">compose.h</text>
</a>
</g>
</g>
<!-- Node1&#45;&gt;Node19 -->
<g id="edge25" class="edge"><title>Node1&#45;&gt;Node19</title>
<path fill="none" stroke="midnightblue" d="M1072.85,-176.515C948.139,-173.792 360.958,-159.538 335,-132 323.651,-119.96 325.302,-100.389 328.785,-85.8631"/>
<polygon fill="midnightblue" stroke="midnightblue" points="332.236,-86.524 331.62,-75.9471 325.506,-84.5996 332.236,-86.524"/>
</g>
<!-- Node20 -->
<g id="node20" class="node"><title>Node20</title>
<g id="a_node20"><a xlink:href="context_8h.html" target="_top" xlink:title="The &quot;currently&#45;open&quot; mailbox. ">
<polygon fill="white" stroke="red" points="1649.5,-56.5 1649.5,-75.5 1706.5,-75.5 1706.5,-56.5 1649.5,-56.5"/>
<text text-anchor="middle" x="1678" y="-63.5" font-family="Helvetica,sans-Serif" font-size="10.00">context.h</text>
</a>
</g>
</g>
<!-- Node1&#45;&gt;Node20 -->
<g id="edge27" class="edge"><title>Node1&#45;&gt;Node20</title>
<path fill="none" stroke="midnightblue" d="M1119.28,-176.393C1238.31,-173.178 1774.24,-157.331 1798,-132 1804.08,-125.517 1803.06,-119.306 1798,-112 1793.02,-104.811 1748.89,-89.4775 1715.58,-78.7158"/>
<polygon fill="midnightblue" stroke="midnightblue" points="1716.23,-75.2509 1705.64,-75.5368 1714.1,-81.918 1716.23,-75.2509"/>
</g>
<!-- Node21 -->
<g id="node21" class="node"><title>Node21</title>
<g id="a_node21"><a xlink:href="copy_8h.html" target="_top" xlink:title="Duplicate the structure of an entire email. ">
<polygon fill="white" stroke="black" points="500,-112.5 500,-131.5 546,-131.5 546,-112.5 500,-112.5"/>
<text text-anchor="middle" x="523" y="-119.5" font-family="Helvetica,sans-Serif" font-size="10.00">copy.h</text>
</a>
</g>
</g>
<!-- Node1&#45;&gt;Node21 -->
<g id="edge31" class="edge"><title>Node1&#45;&gt;Node21</title>
<path fill="none" stroke="midnightblue" d="M1072.91,-176.583C999.04,-174.936 761.838,-167.205 556.384,-131.694"/>
<polygon fill="midnightblue" stroke="midnightblue" points="556.77,-128.208 546.316,-129.927 555.56,-135.103 556.77,-128.208"/>
</g>
<!-- Node22 -->
<g id="node22" class="node"><title>Node22</title>
<g id="a_node22"><a xlink:href="curs__lib_8h.html" target="_top" xlink:title="GUI miscellaneous curses (window drawing) routines. ">
<polygon fill="white" stroke="red" points="564.5,-112.5 564.5,-131.5 623.5,-131.5 623.5,-112.5 564.5,-112.5"/>
<text text-anchor="middle" x="594" y="-119.5" font-family="Helvetica,sans-Serif" font-size="10.00">curs_lib.h</text>
</a>
</g>
</g>
<!-- Node1&#45;&gt;Node22 -->
<g id="edge33" class="edge"><title>Node1&#45;&gt;Node22</title>
<path fill="none" stroke="midnightblue" d="M1072.74,-175.81C1006.01,-172.173 808.114,-159.812 633.852,-131.922"/>
<polygon fill="midnightblue" stroke="midnightblue" points="634.163,-128.427 623.732,-130.28 633.042,-135.336 634.163,-128.427"/>
</g>
<!-- Node23 -->
<g id="node23" class="node"><title>Node23</title>
<g id="a_node23"><a xlink:href="edit_8h.html" target="_top" xlink:title="GUI basic built&#45;in text editor. ">
<polygon fill="white" stroke="black" points="1100.5,-112.5 1100.5,-131.5 1141.5,-131.5 1141.5,-112.5 1100.5,-112.5"/>
<text text-anchor="middle" x="1121" y="-119.5" font-family="Helvetica,sans-Serif" font-size="10.00">edit.h</text>
</a>
</g>
</g>
<!-- Node1&#45;&gt;Node23 -->
<g id="edge37" class="edge"><title>Node1&#45;&gt;Node23</title>
<path fill="none" stroke="midnightblue" d="M1100.13,-168.083C1103.51,-160.77 1108.42,-150.181 1112.62,-141.103"/>
<polygon fill="midnightblue" stroke="midnightblue" points="1115.92,-142.296 1116.95,-131.751 1109.57,-139.355 1115.92,-142.296"/>
</g>
<!-- Node24 -->
<g id="node24" class="node"><title>Node24</title>
<g id="a_node24"><a xlink:href="filter_8h.html" target="_top" xlink:title="Pass files through external commands (filters) ">
<polygon fill="white" stroke="black" points="642,-112.5 642,-131.5 686,-131.5 686,-112.5 642,-112.5"/>
<text text-anchor="middle" x="664" y="-119.5" font-family="Helvetica,sans-Serif" font-size="10.00">filter.h</text>
</a>
</g>
</g>
<!-- Node1&#45;&gt;Node24 -->
<g id="edge38" class="edge"><title>Node1&#45;&gt;Node24</title>
<path fill="none" stroke="midnightblue" d="M1072.63,-175.426C1011.21,-171.055 840.257,-157.387 700,-132 698.752,-131.774 697.483,-131.53 696.204,-131.271"/>
<polygon fill="midnightblue" stroke="midnightblue" points="696.892,-127.839 686.369,-129.077 695.367,-134.671 696.892,-127.839"/>
</g>
<!-- Node25 -->
<g id="node25" class="node"><title>Node25</title>
<g id="a_node25"><a xlink:href="globals_8h.html" target="_top" xlink:title="Hundreds of global variables to back the user variables. ">
<polygon fill="white" stroke="red" points="2071,-56.5 2071,-75.5 2127,-75.5 2127,-56.5 2071,-56.5"/>
<text text-anchor="middle" x="2099" y="-63.5" font-family="Helvetica,sans-Serif" font-size="10.00">globals.h</text>
</a>
</g>
</g>
<!-- Node1&#45;&gt;Node25 -->
<g id="edge41" class="edge"><title>Node1&#45;&gt;Node25</title>
<path fill="none" stroke="midnightblue" d="M1119.08,-176.886C1268.22,-176.037 2090.95,-169.653 2127,-132 2140.07,-118.348 2127.33,-97.6362 2115.07,-83.2765"/>
<polygon fill="midnightblue" stroke="midnightblue" points="2117.44,-80.6793 2108.11,-75.6571 2112.27,-85.4007 2117.44,-80.6793"/>
</g>
<!-- Node26 -->
<g id="node26" class="node"><title>Node26</title>
<g id="a_node26"><a xlink:href="hdrline_8h.html" target="_top" xlink:title="String processing routines to generate the mail index. ">
<polygon fill="white" stroke="red" points="1267.5,-56.5 1267.5,-75.5 1320.5,-75.5 1320.5,-56.5 1267.5,-56.5"/>
<text text-anchor="middle" x="1294" y="-63.5" font-family="Helvetica,sans-Serif" font-size="10.00">hdrline.h</text>
</a>
</g>
</g>
<!-- Node1&#45;&gt;Node26 -->
<g id="edge45" class="edge"><title>Node1&#45;&gt;Node26</title>
<path fill="none" stroke="midnightblue" d="M1107.68,-168.346C1125.66,-155.232 1161.47,-129.953 1194,-112 1216.49,-99.5896 1243.05,-87.7611 1263.14,-79.3484"/>
<polygon fill="midnightblue" stroke="midnightblue" points="1264.54,-82.5596 1272.44,-75.5053 1261.86,-76.0903 1264.54,-82.5596"/>
</g>
<!-- Node27 -->
<g id="node27" class="node"><title>Node27</title>
<g id="a_node27"><a xlink:href="hook_8h.html" target="_top" xlink:title="Parse and execute user&#45;defined hooks. ">
<polygon fill="white" stroke="black" points="1377,-56.5 1377,-75.5 1423,-75.5 1423,-56.5 1377,-56.5"/>
<text text-anchor="middle" x="1400" y="-63.5" font-family="Helvetica,sans-Serif" font-size="10.00">hook.h</text>
</a>
</g>
</g>
<!-- Node1&#45;&gt;Node27 -->
<g id="edge48" class="edge"><title>Node1&#45;&gt;Node27</title>
<path fill="none" stroke="midnightblue" d="M1114.71,-168.495C1133.97,-159.655 1164.79,-145.28 1191,-132 1207.67,-123.551 1210.61,-118.859 1228,-112 1274.71,-93.5755 1331.51,-80.3961 1366.71,-73.2354"/>
<polygon fill="midnightblue" stroke="midnightblue" points="1367.78,-76.5908 1376.91,-71.2072 1366.42,-69.7252 1367.78,-76.5908"/>
</g>
<!-- Node28 -->
<g id="node28" class="node"><title>Node28</title>
<g id="a_node28"><a xlink:href="mutt__attach_8h.html" target="_top" xlink:title="Handling of email attachments. ">
<polygon fill="white" stroke="black" points="861.5,-56.5 861.5,-75.5 938.5,-75.5 938.5,-56.5 861.5,-56.5"/>
<text text-anchor="middle" x="900" y="-63.5" font-family="Helvetica,sans-Serif" font-size="10.00">mutt_attach.h</text>
</a>
</g>
</g>
<!-- Node1&#45;&gt;Node28 -->
<g id="edge51" class="edge"><title>Node1&#45;&gt;Node28</title>
<path fill="none" stroke="midnightblue" d="M1080.62,-168.368C1046.63,-149.292 964.898,-103.422 924.064,-80.5054"/>
<polygon fill="midnightblue" stroke="midnightblue" points="925.742,-77.4334 915.308,-75.5914 922.316,-83.5378 925.742,-77.4334"/>
</g>
<!-- Node29 -->
<g id="node29" class="node"><title>Node29</title>
<g id="a_node29"><a xlink:href="mutt__header_8h.html" target="_top" xlink:title="Representation of the email&#39;s header. ">
<polygon fill="white" stroke="red" points="1433.5,-112.5 1433.5,-131.5 1512.5,-131.5 1512.5,-112.5 1433.5,-112.5"/>
<text text-anchor="middle" x="1473" y="-119.5" font-family="Helvetica,sans-Serif" font-size="10.00">mutt_header.h</text>
</a>
</g>
</g>
<!-- Node1&#45;&gt;Node29 -->
<g id="edge54" class="edge"><title>Node1&#45;&gt;Node29</title>
<path fill="none" stroke="midnightblue" d="M1119.12,-174.194C1171.31,-167.781 1302.49,-151.23 1423.29,-132.048"/>
<polygon fill="midnightblue" stroke="midnightblue" points="1424.12,-135.458 1433.45,-130.424 1423.02,-128.546 1424.12,-135.458"/>
</g>
<!-- Node30 -->
<g id="node30" class="node"><title>Node30</title>
<g id="a_node30"><a xlink:href="mutt__logging_8h.html" target="_top" xlink:title="Mutt Logging. ">
<polygon fill="white" stroke="black" points="1871,-56.5 1871,-75.5 1951,-75.5 1951,-56.5 1871,-56.5"/>
<text text-anchor="middle" x="1911" y="-63.5" font-family="Helvetica,sans-Serif" font-size="10.00">mutt_logging.h</text>
</a>
</g>
</g>
<!-- Node1&#45;&gt;Node30 -->
<g id="edge55" class="edge"><title>Node1&#45;&gt;Node30</title>
<path fill="none" stroke="midnightblue" d="M1119.03,-176.633C1250.05,-174.435 1896.5,-162.085 1925,-132 1936.87,-119.471 1930.1,-99.4078 1922.41,-84.8832"/>
<polygon fill="midnightblue" stroke="midnightblue" points="1925.22,-82.7519 1917.17,-75.8733 1919.18,-86.2757 1925.22,-82.7519"/>
</g>
<!-- Node31 -->
<g id="node31" class="node"><title>Node31</title>
<g id="a_node31"><a xlink:href="mutt__parse_8h.html" target="_top" xlink:title="Miscellaneous email parsing routines. ">
<polygon fill="white" stroke="black" points="1569,-112.5 1569,-131.5 1643,-131.5 1643,-112.5 1569,-112.5"/>
<text text-anchor="middle" x="1606" y="-119.5" font-family="Helvetica,sans-Serif" font-size="10.00">mutt_parse.h</text>
</a>
</g>
</g>
<!-- Node1&#45;&gt;Node31 -->
<g id="edge59" class="edge"><title>Node1&#45;&gt;Node31</title>
<path fill="none" stroke="midnightblue" d="M1119.48,-175.34C1187.23,-170.411 1388.81,-154.776 1555,-132 1556.25,-131.828 1557.52,-131.648 1558.8,-131.462"/>
<polygon fill="midnightblue" stroke="midnightblue" points="1559.38,-134.913 1568.73,-129.918 1558.31,-127.996 1559.38,-134.913"/>
</g>
<!-- Node32 -->
<g id="node32" class="node"><title>Node32</title>
<g id="a_node32"><a xlink:href="muttlib_8h.html" target="_top" xlink:title="Some miscellaneous functions. ">
<polygon fill="white" stroke="red" points="1095,-56.5 1095,-75.5 1149,-75.5 1149,-56.5 1095,-56.5"/>
<text text-anchor="middle" x="1122" y="-63.5" font-family="Helvetica,sans-Serif" font-size="10.00">muttlib.h</text>
</a>
</g>
</g>
<!-- Node1&#45;&gt;Node32 -->
<g id="edge60" class="edge"><title>Node1&#45;&gt;Node32</title>
<path fill="none" stroke="midnightblue" d="M1084.58,-168.325C1069.84,-156.008 1047.28,-132.649 1058,-112 1065.15,-98.2262 1078.67,-87.783 1091.45,-80.4413"/>
<polygon fill="midnightblue" stroke="midnightblue" points="1093.32,-83.412 1100.52,-75.6403 1090.04,-77.2252 1093.32,-83.412"/>
</g>
<!-- Node33 -->
<g id="node33" class="node"><title>Node33</title>
<g id="a_node33"><a xlink:href="ncrypt_8h.html" target="_top" xlink:title="API for encryption/signing of emails. ">
<polygon fill="white" stroke="black" points="1167,-56.5 1167,-75.5 1249,-75.5 1249,-56.5 1167,-56.5"/>
<text text-anchor="middle" x="1208" y="-63.5" font-family="Helvetica,sans-Serif" font-size="10.00">ncrypt/ncrypt.h</text>
</a>
</g>
</g>
<!-- Node1&#45;&gt;Node33 -->
<g id="edge63" class="edge"><title>Node1&#45;&gt;Node33</title>
<path fill="none" stroke="midnightblue" d="M1092.28,-168.102C1087.3,-154.669 1080.38,-128.979 1092,-112 1100.66,-99.3493 1135.38,-86.892 1164.6,-78.3033"/>
<polygon fill="midnightblue" stroke="midnightblue" points="1165.6,-81.6579 1174.26,-75.5443 1163.68,-74.9275 1165.6,-81.6579"/>
</g>
<!-- Node34 -->
<g id="node34" class="node"><title>Node34</title>
<g id="a_node34"><a xlink:href="options_8h.html" target="_top" xlink:title="Handling of global boolean variables. ">
<polygon fill="white" stroke="red" points="1845,-112.5 1845,-131.5 1901,-131.5 1901,-112.5 1845,-112.5"/>
<text text-anchor="middle" x="1873" y="-119.5" font-family="Helvetica,sans-Serif" font-size="10.00">options.h</text>
</a>
</g>
</g>
<!-- Node1&#45;&gt;Node34 -->
<g id="edge66" class="edge"><title>Node1&#45;&gt;Node34</title>
<path fill="none" stroke="midnightblue" d="M1119.3,-176.842C1210.59,-175.955 1552.66,-170.123 1831,-132 1832.25,-131.829 1833.51,-131.642 1834.79,-131.441"/>
<polygon fill="midnightblue" stroke="midnightblue" points="1835.41,-134.886 1844.64,-129.681 1834.18,-127.995 1835.41,-134.886"/>
</g>
<!-- Node35 -->
<g id="node35" class="node"><title>Node35</title>
<g id="a_node35"><a xlink:href="pattern_8h.html" target="_top" xlink:title="Match patterns to emails. ">
<polygon fill="white" stroke="red" points="749.5,-56.5 749.5,-75.5 804.5,-75.5 804.5,-56.5 749.5,-56.5"/>
<text text-anchor="middle" x="777" y="-63.5" font-family="Helvetica,sans-Serif" font-size="10.00">pattern.h</text>
</a>
</g>
</g>
<!-- Node1&#45;&gt;Node35 -->
<g id="edge68" class="edge"><title>Node1&#45;&gt;Node35</title>
<path fill="none" stroke="midnightblue" d="M1072.72,-175.653C1030.36,-172.508 938.565,-162.465 868,-132 839.508,-119.699 811.119,-97.4184 793.812,-82.4159"/>
<polygon fill="midnightblue" stroke="midnightblue" points="796.058,-79.7294 786.254,-75.7114 791.412,-84.9659 796.058,-79.7294"/>
</g>
<!-- Node36 -->
<g id="node36" class="node"><title>Node36</title>
<g id="a_node36"><a xlink:href="protos_8h.html" target="_top" xlink:title="Prototypes for many functions. ">
<polygon fill="white" stroke="red" points="1801,-56.5 1801,-75.5 1853,-75.5 1853,-56.5 1801,-56.5"/>
<text text-anchor="middle" x="1827" y="-63.5" font-family="Helvetica,sans-Serif" font-size="10.00">protos.h</text>
</a>
</g>
</g>
<!-- Node1&#45;&gt;Node36 -->
<g id="edge71" class="edge"><title>Node1&#45;&gt;Node36</title>
<path fill="none" stroke="midnightblue" d="M1119.01,-176.608C1248.46,-174.292 1881.1,-161.489 1909,-132 1928.66,-111.222 1893.11,-91.4137 1862.83,-79.2426"/>
<polygon fill="midnightblue" stroke="midnightblue" points="1863.86,-75.8856 1853.27,-75.5678 1861.35,-82.4203 1863.86,-75.8856"/>
</g>
<!-- Node37 -->
<g id="node37" class="node"><title>Node37</title>
<g id="a_node37"><a xlink:href="rfc3676_8h.html" target="_top" xlink:title="RFC3676 Format Flowed routines. ">
<polygon fill="white" stroke="black" points="1236.5,-112.5 1236.5,-131.5 1293.5,-131.5 1293.5,-112.5 1236.5,-112.5"/>
<text text-anchor="middle" x="1265" y="-119.5" font-family="Helvetica,sans-Serif" font-size="10.00">rfc3676.h</text>
</a>
</g>
</g>
<!-- Node1&#45;&gt;Node37 -->
<g id="edge76" class="edge"><title>Node1&#45;&gt;Node37</title>
<path fill="none" stroke="midnightblue" d="M1119.14,-169.605C1147.33,-160.6 1195.26,-145.282 1228.45,-134.678"/>
<polygon fill="midnightblue" stroke="midnightblue" points="1229.78,-137.929 1238.24,-131.551 1227.65,-131.261 1229.78,-137.929"/>
</g>
<!-- Node38 -->
<g id="node38" class="node"><title>Node38</title>
<g id="a_node38"><a xlink:href="sendlib_8h.html" target="_top" xlink:title="Miscellaneous functions for sending an email. ">
<polygon fill="white" stroke="black" points="957,-56.5 957,-75.5 1013,-75.5 1013,-56.5 957,-56.5"/>
<text text-anchor="middle" x="985" y="-63.5" font-family="Helvetica,sans-Serif" font-size="10.00">sendlib.h</text>
</a>
</g>
</g>
<!-- Node1&#45;&gt;Node38 -->
<g id="edge78" class="edge"><title>Node1&#45;&gt;Node38</title>
<path fill="none" stroke="midnightblue" d="M1084.39,-168.183C1073.14,-159.448 1055.8,-145.461 1042,-132 1026.13,-116.528 1009.61,-97.2797 998.461,-83.7587"/>
<polygon fill="midnightblue" stroke="midnightblue" points="1001,-81.3392 991.974,-75.7978 995.578,-85.761 1001,-81.3392"/>
</g>
<!-- Node39 -->
<g id="node39" class="node"><title>Node39</title>
<g id="a_node39"><a xlink:href="smtp_8h.html" target="_top" xlink:title="Send email to an SMTP server. ">
<polygon fill="white" stroke="black" points="2071.5,-112.5 2071.5,-131.5 2118.5,-131.5 2118.5,-112.5 2071.5,-112.5"/>
<text text-anchor="middle" x="2095" y="-119.5" font-family="Helvetica,sans-Serif" font-size="10.00">smtp.h</text>
</a>
</g>
</g>
<!-- Node1&#45;&gt;Node39 -->
<g id="edge81" class="edge"><title>Node1&#45;&gt;Node39</title>
<path fill="none" stroke="midnightblue" d="M1119.08,-176.502C1246.72,-173.657 1867.41,-158.654 2057,-132 2058.47,-131.794 2059.96,-131.557 2061.47,-131.296"/>
<polygon fill="midnightblue" stroke="midnightblue" points="2062.3,-134.7 2071.41,-129.303 2060.92,-127.837 2062.3,-134.7"/>
</g>
<!-- Node40 -->
<g id="node40" class="node"><title>Node40</title>
<g id="a_node40"><a xlink:href="sort_8h.html" target="_top" xlink:title="Assorted sorting methods. ">
<polygon fill="white" stroke="red" points="2145.5,-56.5 2145.5,-75.5 2186.5,-75.5 2186.5,-56.5 2145.5,-56.5"/>
<text text-anchor="middle" x="2166" y="-63.5" font-family="Helvetica,sans-Serif" font-size="10.00">sort.h</text>
</a>
</g>
</g>
<!-- Node1&#45;&gt;Node40 -->
<g id="edge82" class="edge"><title>Node1&#45;&gt;Node40</title>
<path fill="none" stroke="midnightblue" d="M1119.29,-176.733C1269.81,-174.915 2100.44,-163.476 2143,-132 2157.26,-121.45 2162.72,-101.327 2164.79,-86.2531"/>
<polygon fill="midnightblue" stroke="midnightblue" points="2168.31,-86.2459 2165.8,-75.9523 2161.34,-85.5634 2168.31,-86.2459"/>
</g>
<!-- Node41 -->
<g id="node41" class="node"><title>Node41</title>
<g id="a_node41"><a xlink:href="mx_8h.html" target="_top" xlink:title="API for mailboxes. ">
<polygon fill="white" stroke="red" points="1555,-56.5 1555,-75.5 1593,-75.5 1593,-56.5 1555,-56.5"/>
<text text-anchor="middle" x="1574" y="-63.5" font-family="Helvetica,sans-Serif" font-size="10.00">mx.h</text>
</a>
</g>
</g>
<!-- Node1&#45;&gt;Node41 -->
<g id="edge86" class="edge"><title>Node1&#45;&gt;Node41</title>
<path fill="none" stroke="midnightblue" d="M1119.27,-176.835C1197.59,-175.929 1450.69,-170.056 1521,-132 1540.75,-121.311 1555.94,-99.9116 1564.89,-84.5851"/>
<polygon fill="midnightblue" stroke="midnightblue" points="1568.1,-86.0115 1569.86,-75.564 1561.97,-82.6333 1568.1,-86.0115"/>
</g>
<!-- Node42 -->
<g id="node42" class="node"><title>Node42</title>
<g id="a_node42"><a xlink:href="nntp_8h.html" target="_top" xlink:title="Usenet network mailbox type; talk to an NNTP server. ">
<polygon fill="white" stroke="red" points="1350.5,-112.5 1350.5,-131.5 1415.5,-131.5 1415.5,-112.5 1350.5,-112.5"/>
<text text-anchor="middle" x="1383" y="-119.5" font-family="Helvetica,sans-Serif" font-size="10.00">nntp/nntp.h</text>
</a>
</g>
</g>
<!-- Node1&#45;&gt;Node42 -->
<g id="edge90" class="edge"><title>Node1&#45;&gt;Node42</title>
<path fill="none" stroke="midnightblue" d="M1119.17,-172.686C1162,-164.705 1256.45,-147.075 1336,-132 1337.45,-131.724 1338.93,-131.444 1340.43,-131.16"/>
<polygon fill="midnightblue" stroke="midnightblue" points="1341.22,-134.572 1350.39,-129.262 1339.91,-127.696 1341.22,-134.572"/>
</g>
<!-- Node43 -->
<g id="node43" class="node"><title>Node43</title>
<g id="a_node43"><a xlink:href="mutt__notmuch_8h.html" target="_top" xlink:title="Notmuch virtual mailbox type. ">
<polygon fill="white" stroke="red" points="1661,-112.5 1661,-131.5 1789,-131.5 1789,-112.5 1661,-112.5"/>
<text text-anchor="middle" x="1725" y="-119.5" font-family="Helvetica,sans-Serif" font-size="10.00">notmuch/mutt_notmuch.h</text>
</a>
</g>
</g>
<!-- Node1&#45;&gt;Node43 -->
<g id="edge95" class="edge"><title>Node1&#45;&gt;Node43</title>
<path fill="none" stroke="midnightblue" d="M1119.07,-175.481C1194.05,-170.47 1437.8,-153.606 1650.8,-132.082"/>
<polygon fill="midnightblue" stroke="midnightblue" points="1651.33,-135.547 1660.92,-131.054 1650.62,-128.583 1651.33,-135.547"/>
</g>
<!-- Node16&#45;&gt;Node4 -->
<g id="edge16" class="edge"><title>Node16&#45;&gt;Node4</title>
<path fill="none" stroke="midnightblue" d="M433.949,-58.6998C401.234,-49.3525 339.565,-31.7329 301.029,-20.7227"/>
<polygon fill="midnightblue" stroke="midnightblue" points="301.867,-17.3219 291.29,-17.94 299.944,-24.0526 301.867,-17.3219"/>
</g>
<!-- Node16&#45;&gt;Node6 -->
<g id="edge17" class="edge"><title>Node16&#45;&gt;Node6</title>
<path fill="none" stroke="midnightblue" d="M456,-56.083C456,-49.0059 456,-38.8611 456,-29.9865"/>
<polygon fill="midnightblue" stroke="midnightblue" points="459.5,-29.751 456,-19.7511 452.5,-29.7511 459.5,-29.751"/>
</g>
<!-- Node16&#45;&gt;Node7 -->
<g id="edge18" class="edge"><title>Node16&#45;&gt;Node7</title>
<path fill="none" stroke="midnightblue" d="M478.122,-63.8219C607.353,-56.9398 1264.66,-21.9351 1431.47,-13.0518"/>
<polygon fill="midnightblue" stroke="midnightblue" points="1431.94,-16.532 1441.74,-12.5051 1431.57,-9.5419 1431.94,-16.532"/>
</g>
<!-- Node17&#45;&gt;Node7 -->
<g id="edge20" class="edge"><title>Node17&#45;&gt;Node7</title>
<path fill="none" stroke="midnightblue" d="M1077.32,-57.9843C1080.22,-57.245 1083.17,-56.5603 1086,-56 1211.26,-31.2063 1362.4,-18.412 1431.79,-13.4747"/>
<polygon fill="midnightblue" stroke="midnightblue" points="1432.09,-16.9629 1441.82,-12.7759 1431.6,-9.97983 1432.09,-16.9629"/>
</g>
<!-- Node17&#45;&gt;Node8 -->
<g id="edge21" class="edge"><title>Node17&#45;&gt;Node8</title>
<path fill="none" stroke="midnightblue" d="M1059.61,-56.083C1064.37,-48.5341 1071.32,-37.4948 1077.15,-28.2298"/>
<polygon fill="midnightblue" stroke="midnightblue" points="1080.12,-30.0783 1082.49,-19.7511 1074.2,-26.3486 1080.12,-30.0783"/>
</g>
<!-- Node18&#45;&gt;Node7 -->
<g id="edge23" class="edge"><title>Node18&#45;&gt;Node7</title>
<path fill="none" stroke="midnightblue" d="M1969.39,-58.091C1966.26,-57.2948 1963.06,-56.5667 1960,-56 1793.62,-25.2291 1591.37,-15.1356 1508.36,-12.143"/>
<polygon fill="midnightblue" stroke="midnightblue" points="1508.26,-8.63756 1498.14,-11.7893 1508.02,-15.6334 1508.26,-8.63756"/>
</g>
<!-- Node18&#45;&gt;Node13 -->
<g id="edge24" class="edge"><title>Node18&#45;&gt;Node13</title>
<path fill="none" stroke="midnightblue" d="M2014.75,-57.9404C2043.67,-48.9635 2094.01,-33.3421 2128.61,-22.6026"/>
<polygon fill="midnightblue" stroke="midnightblue" points="2129.85,-25.8828 2138.37,-19.576 2127.78,-19.1974 2129.85,-25.8828"/>
</g>
<!-- Node19&#45;&gt;Node8 -->
<g id="edge26" class="edge"><title>Node19&#45;&gt;Node8</title>
<path fill="none" stroke="midnightblue" d="M367.892,-61.4568C384.924,-59.6864 406.066,-57.5888 425,-56 666.291,-35.752 957.576,-18.4577 1054.69,-12.8837"/>
<polygon fill="midnightblue" stroke="midnightblue" points="1055,-16.372 1064.79,-12.3067 1054.6,-9.38337 1055,-16.372"/>
</g>
<!-- Node20&#45;&gt;Node7 -->
<g id="edge28" class="edge"><title>Node20&#45;&gt;Node7</title>
<path fill="none" stroke="midnightblue" d="M1649.08,-57.4915C1612.24,-47.9272 1548.48,-31.3759 1507.82,-20.8191"/>
<polygon fill="midnightblue" stroke="midnightblue" points="1508.57,-17.3974 1498.01,-18.2722 1506.81,-24.1728 1508.57,-17.3974"/>
</g>
<!-- Node20&#45;&gt;Node8 -->
<g id="edge29" class="edge"><title>Node20&#45;&gt;Node8</title>
<path fill="none" stroke="midnightblue" d="M1649.15,-61.3736C1634.96,-59.6434 1617.6,-57.6058 1602,-56 1420.79,-37.342 1203.11,-19.9293 1121.26,-13.5581"/>
<polygon fill="midnightblue" stroke="midnightblue" points="1121.32,-10.0519 1111.08,-12.7676 1120.78,-17.0309 1121.32,-10.0519"/>
</g>
<!-- Node20&#45;&gt;Node11 -->
<g id="edge30" class="edge"><title>Node20&#45;&gt;Node11</title>
<path fill="none" stroke="midnightblue" d="M1694.55,-56.324C1710.99,-47.7034 1736.43,-34.3643 1755.47,-24.3855"/>
<polygon fill="midnightblue" stroke="midnightblue" points="1757.26,-27.3977 1764.49,-19.6545 1754.01,-21.198 1757.26,-27.3977"/>
</g>
<!-- Node21&#45;&gt;Node8 -->
<g id="edge32" class="edge"><title>Node21&#45;&gt;Node8</title>
<path fill="none" stroke="midnightblue" d="M532.981,-112.405C550.473,-97.8987 588.393,-68.8824 626,-56 705.569,-28.7436 962.534,-16.018 1054.71,-12.2481"/>
<polygon fill="midnightblue" stroke="midnightblue" points="1055.01,-15.739 1064.86,-11.8421 1054.73,-8.74457 1055.01,-15.739"/>
</g>
<!-- Node22&#45;&gt;Node7 -->
<g id="edge34" class="edge"><title>Node22&#45;&gt;Node7</title>
<path fill="none" stroke="midnightblue" d="M601.061,-112.251C613.556,-97.512 641.17,-68.1545 672,-56 743.07,-27.9811 1282.36,-14.8681 1431.75,-11.7496"/>
<polygon fill="midnightblue" stroke="midnightblue" points="1431.89,-15.2475 1441.82,-11.5423 1431.75,-8.24897 1431.89,-15.2475"/>
</g>
<!-- Node22&#45;&gt;Node8 -->
<g id="edge35" class="edge"><title>Node22&#45;&gt;Node8</title>
<path fill="none" stroke="midnightblue" d="M599.349,-112.412C608.908,-97.9177 630.429,-68.9182 657,-56 727.138,-21.9008 966.349,-13.5185 1054.78,-11.5636"/>
<polygon fill="midnightblue" stroke="midnightblue" points="1054.87,-15.0626 1064.8,-11.3558 1054.73,-8.06412 1054.87,-15.0626"/>
</g>
<!-- Node22&#45;&gt;Node16 -->
<g id="edge36" class="edge"><title>Node22&#45;&gt;Node16</title>
<path fill="none" stroke="midnightblue" d="M572.133,-112.444C549.221,-103.478 513.025,-89.314 487.134,-79.1827"/>
<polygon fill="midnightblue" stroke="midnightblue" points="488.352,-75.9011 477.764,-75.5164 485.801,-82.4198 488.352,-75.9011"/>
</g>
<!-- Node24&#45;&gt;Node8 -->
<g id="edge39" class="edge"><title>Node24&#45;&gt;Node8</title>
<path fill="none" stroke="midnightblue" d="M662.089,-112.407C659.539,-98.4306 656.937,-70.8435 672,-56 699.122,-29.2736 960.868,-16.1404 1054.72,-12.2621"/>
<polygon fill="midnightblue" stroke="midnightblue" points="1054.95,-15.7558 1064.8,-11.8547 1054.67,-8.76147 1054.95,-15.7558"/>
</g>
<!-- Node24&#45;&gt;Node12 -->
<g id="edge40" class="edge"><title>Node24&#45;&gt;Node12</title>
<path fill="none" stroke="midnightblue" d="M670.935,-112.083C676.929,-104.377 685.752,-93.0333 693.048,-83.6531"/>
<polygon fill="midnightblue" stroke="midnightblue" points="695.817,-85.7934 699.194,-75.7511 690.291,-81.4958 695.817,-85.7934"/>
</g>
<!-- Node25&#45;&gt;Node7 -->
<g id="edge42" class="edge"><title>Node25&#45;&gt;Node7</title>
<path fill="none" stroke="midnightblue" d="M2070.87,-61.4201C2056.56,-59.6609 2038.87,-57.5843 2023,-56 1829.85,-36.711 1598.11,-19.9051 1508.23,-13.6258"/>
<polygon fill="midnightblue" stroke="midnightblue" points="1508.45,-10.1328 1498.23,-12.9299 1507.97,-17.1159 1508.45,-10.1328"/>
</g>
<!-- Node25&#45;&gt;Node13 -->
<g id="edge43" class="edge"><title>Node25&#45;&gt;Node13</title>
<path fill="none" stroke="midnightblue" d="M2109.76,-56.324C2119.77,-48.2631 2134.89,-36.0765 2146.93,-26.3695"/>
<polygon fill="midnightblue" stroke="midnightblue" points="2149.45,-28.8343 2155.04,-19.8339 2145.06,-23.3841 2149.45,-28.8343"/>
</g>
<!-- Node25&#45;&gt;Node14 -->
<g id="edge44" class="edge"><title>Node25&#45;&gt;Node14</title>
<path fill="none" stroke="midnightblue" d="M2096.19,-56.083C2093.92,-48.8486 2090.63,-38.4087 2087.79,-29.3968"/>
<polygon fill="midnightblue" stroke="midnightblue" points="2091.1,-28.2385 2084.75,-19.7511 2084.42,-30.3406 2091.1,-28.2385"/>
</g>
<!-- Node26&#45;&gt;Node7 -->
<g id="edge46" class="edge"><title>Node26&#45;&gt;Node7</title>
<path fill="none" stroke="midnightblue" d="M1320.73,-56.7986C1350.45,-47.6807 1398.67,-32.8849 1432.24,-22.5869"/>
<polygon fill="midnightblue" stroke="midnightblue" points="1433.61,-25.826 1442.14,-19.5467 1431.56,-19.1339 1433.61,-25.826"/>
</g>
<!-- Node26&#45;&gt;Node8 -->
<g id="edge47" class="edge"><title>Node26&#45;&gt;Node8</title>
<path fill="none" stroke="midnightblue" d="M1267.49,-58.051C1230.02,-48.2298 1161.62,-30.2996 1120.94,-19.6353"/>
<polygon fill="midnightblue" stroke="midnightblue" points="1121.79,-16.2401 1111.23,-17.0899 1120.02,-23.0113 1121.79,-16.2401"/>
</g>
<!-- Node27&#45;&gt;Node7 -->
<g id="edge49" class="edge"><title>Node27&#45;&gt;Node7</title>
<path fill="none" stroke="midnightblue" d="M1411.25,-56.324C1421.8,-48.1849 1437.8,-35.8395 1450.44,-26.0874"/>
<polygon fill="midnightblue" stroke="midnightblue" points="1452.77,-28.7132 1458.55,-19.8339 1448.49,-23.1707 1452.77,-28.7132"/>
</g>
<!-- Node27&#45;&gt;Node8 -->
<g id="edge50" class="edge"><title>Node27&#45;&gt;Node8</title>
<path fill="none" stroke="midnightblue" d="M1376.97,-59.1096C1372.36,-58.0115 1367.54,-56.9212 1363,-56 1276.29,-38.3861 1173.11,-22.9709 1121.25,-15.6036"/>
<polygon fill="midnightblue" stroke="midnightblue" points="1121.68,-12.1291 1111.29,-14.1974 1120.7,-19.0605 1121.68,-12.1291"/>
</g>
<!-- Node28&#45;&gt;Node7 -->
<g id="edge52" class="edge"><title>Node28&#45;&gt;Node7</title>
<path fill="none" stroke="midnightblue" d="M938.719,-57.3986C941.853,-56.8875 944.976,-56.4128 948,-56 1128.17,-31.4049 1345.27,-17.7811 1431.75,-12.9919"/>
<polygon fill="midnightblue" stroke="midnightblue" points="1432.09,-16.479 1441.88,-12.4386 1431.71,-9.48944 1432.09,-16.479"/>
</g>
<!-- Node28&#45;&gt;Node8 -->
<g id="edge53" class="edge"><title>Node28&#45;&gt;Node8</title>
<path fill="none" stroke="midnightblue" d="M929.789,-56.4435C963.902,-46.6451 1019.63,-30.6391 1055.02,-20.4723"/>
<polygon fill="midnightblue" stroke="midnightblue" points="1056.22,-23.7686 1064.87,-17.6439 1054.29,-17.0407 1056.22,-23.7686"/>
</g>
<!-- Node30&#45;&gt;Node7 -->
<g id="edge56" class="edge"><title>Node30&#45;&gt;Node7</title>
<path fill="none" stroke="midnightblue" d="M1870.93,-57.4122C1867.91,-56.9107 1864.91,-56.4336 1862,-56 1732.79,-36.7392 1578.54,-21.202 1508.27,-14.5296"/>
<polygon fill="midnightblue" stroke="midnightblue" points="1508.41,-11.0275 1498.13,-13.5728 1507.76,-17.9965 1508.41,-11.0275"/>
</g>
<!-- Node30&#45;&gt;Node11 -->
<g id="edge57" class="edge"><title>Node30&#45;&gt;Node11</title>
<path fill="none" stroke="midnightblue" d="M1890.4,-56.4435C1869.01,-47.5566 1835.32,-33.5632 1810.98,-23.4514"/>
<polygon fill="midnightblue" stroke="midnightblue" points="1812.08,-20.1203 1801.5,-19.5164 1809.39,-26.5848 1812.08,-20.1203"/>
</g>
<!-- Node30&#45;&gt;Node14 -->
<g id="edge58" class="edge"><title>Node30&#45;&gt;Node14</title>
<path fill="none" stroke="midnightblue" d="M1938.1,-56.4435C1966.99,-47.3196 2012.92,-32.8133 2045.11,-22.6509"/>
<polygon fill="midnightblue" stroke="midnightblue" points="2046.55,-25.8654 2055.03,-19.5164 2044.44,-19.1903 2046.55,-25.8654"/>
</g>
<!-- Node32&#45;&gt;Node7 -->
<g id="edge61" class="edge"><title>Node32&#45;&gt;Node7</title>
<path fill="none" stroke="midnightblue" d="M1149.06,-57.9213C1152.07,-57.2284 1155.09,-56.5716 1158,-56 1256.02,-36.7301 1372.89,-22.0613 1431.89,-15.2295"/>
<polygon fill="midnightblue" stroke="midnightblue" points="1432.33,-18.701 1441.87,-14.0843 1431.54,-11.7466 1432.33,-18.701"/>
</g>
<!-- Node32&#45;&gt;Node8 -->
<g id="edge62" class="edge"><title>Node32&#45;&gt;Node8</title>
<path fill="none" stroke="midnightblue" d="M1116.39,-56.083C1111.63,-48.5341 1104.68,-37.4948 1098.85,-28.2298"/>
<polygon fill="midnightblue" stroke="midnightblue" points="1101.8,-26.3486 1093.51,-19.7511 1095.88,-30.0783 1101.8,-26.3486"/>
</g>
<!-- Node33&#45;&gt;Node7 -->
<g id="edge64" class="edge"><title>Node33&#45;&gt;Node7</title>
<path fill="none" stroke="midnightblue" d="M1249.23,-56.5031C1299.41,-46.1601 1383.46,-28.8373 1432.09,-18.8137"/>
<polygon fill="midnightblue" stroke="midnightblue" points="1432.82,-22.2373 1441.9,-16.7907 1431.4,-15.3814 1432.82,-22.2373"/>
</g>
<!-- Node33&#45;&gt;Node8 -->
<g id="edge65" class="edge"><title>Node33&#45;&gt;Node8</title>
<path fill="none" stroke="midnightblue" d="M1188.99,-56.4435C1169.41,-47.6356 1138.69,-33.8116 1116.27,-23.722"/>
<polygon fill="midnightblue" stroke="midnightblue" points="1117.48,-20.4284 1106.93,-19.5164 1114.61,-26.8119 1117.48,-20.4284"/>
</g>
<!-- Node34&#45;&gt;Node7 -->
<g id="edge67" class="edge"><title>Node34&#45;&gt;Node7</title>
<path fill="none" stroke="midnightblue" d="M1855.43,-112.346C1826.71,-98.5311 1767.64,-71.479 1715,-56 1643.49,-34.9742 1557.22,-21.8626 1508.47,-15.5391"/>
<polygon fill="midnightblue" stroke="midnightblue" points="1508.73,-12.0438 1498.37,-14.2563 1507.85,-18.9881 1508.73,-12.0438"/>
</g>
<!-- Node35&#45;&gt;Node6 -->
<g id="edge69" class="edge"><title>Node35&#45;&gt;Node6</title>
<path fill="none" stroke="midnightblue" d="M749.174,-57.9742C746.086,-57.2714 742.982,-56.5978 740,-56 650.749,-38.1051 544.556,-22.8721 490.837,-15.5879"/>
<polygon fill="midnightblue" stroke="midnightblue" points="491.191,-12.104 480.813,-14.2386 490.257,-19.0415 491.191,-12.104"/>
</g>
<!-- Node35&#45;&gt;Node7 -->
<g id="edge70" class="edge"><title>Node35&#45;&gt;Node7</title>
<path fill="none" stroke="midnightblue" d="M804.763,-61.408C819.142,-59.6247 836.996,-57.5304 853,-56 1071.73,-35.0835 1334.9,-18.8592 1431.8,-13.1855"/>
<polygon fill="midnightblue" stroke="midnightblue" points="1432.2,-16.6679 1441.98,-12.5922 1431.79,-9.67978 1432.2,-16.6679"/>
</g>
<!-- Node36&#45;&gt;Node7 -->
<g id="edge72" class="edge"><title>Node36&#45;&gt;Node7</title>
<path fill="none" stroke="midnightblue" d="M1800.81,-58.7913C1796.22,-57.7937 1791.48,-56.8208 1787,-56 1686.94,-37.6709 1567.93,-22.5503 1508.21,-15.4182"/>
<polygon fill="midnightblue" stroke="midnightblue" points="1508.45,-11.9226 1498.11,-14.221 1507.63,-18.8739 1508.45,-11.9226"/>
</g>
<!-- Node36&#45;&gt;Node8 -->
<g id="edge73" class="edge"><title>Node36&#45;&gt;Node8</title>
<path fill="none" stroke="midnightblue" d="M1800.75,-62.8273C1778.06,-60.9638 1744.37,-58.234 1715,-56 1488.12,-38.7427 1214.91,-19.7467 1121.32,-13.2909"/>
<polygon fill="midnightblue" stroke="midnightblue" points="1121.28,-9.77987 1111.06,-12.5839 1120.8,-16.7633 1121.28,-9.77987"/>
</g>
<!-- Node36&#45;&gt;Node11 -->
<g id="edge74" class="edge"><title>Node36&#45;&gt;Node11</title>
<path fill="none" stroke="midnightblue" d="M1819.4,-56.083C1812.77,-48.2982 1802.98,-36.8015 1794.94,-27.3665"/>
<polygon fill="midnightblue" stroke="midnightblue" points="1797.6,-25.0939 1788.45,-19.7511 1792.27,-29.6332 1797.6,-25.0939"/>
</g>
<!-- Node36&#45;&gt;Node14 -->
<g id="edge75" class="edge"><title>Node36&#45;&gt;Node14</title>
<path fill="none" stroke="midnightblue" d="M1853.34,-58.077C1856.26,-57.355 1859.19,-56.6488 1862,-56 1923.67,-41.7722 1995.61,-27.4917 2039.98,-18.9478"/>
<polygon fill="midnightblue" stroke="midnightblue" points="2040.67,-22.3797 2049.83,-17.0584 2039.35,-15.505 2040.67,-22.3797"/>
</g>
<!-- Node37&#45;&gt;Node7 -->
<g id="edge77" class="edge"><title>Node37&#45;&gt;Node7</title>
<path fill="none" stroke="midnightblue" d="M1293.5,-114.565C1338.22,-104.284 1420.94,-84.4548 1432,-76 1447.55,-64.1211 1457.9,-43.9138 1463.82,-29.1772"/>
<polygon fill="midnightblue" stroke="midnightblue" points="1467.18,-30.204 1467.36,-19.6108 1460.61,-27.7753 1467.18,-30.204"/>
</g>
<!-- Node38&#45;&gt;Node7 -->
<g id="edge79" class="edge"><title>Node38&#45;&gt;Node7</title>
<path fill="none" stroke="midnightblue" d="M1013.2,-57.7149C1016.16,-57.0779 1019.13,-56.4903 1022,-56 1172.31,-30.2979 1353.68,-17.6366 1431.49,-13.0659"/>
<polygon fill="midnightblue" stroke="midnightblue" points="1431.99,-16.5432 1441.77,-12.4741 1431.59,-9.55475 1431.99,-16.5432"/>
</g>
<!-- Node38&#45;&gt;Node8 -->
<g id="edge80" class="edge"><title>Node38&#45;&gt;Node8</title>
<path fill="none" stroke="midnightblue" d="M1001.55,-56.324C1017.99,-47.7034 1043.43,-34.3643 1062.47,-24.3855"/>
<polygon fill="midnightblue" stroke="midnightblue" points="1064.26,-27.3977 1071.49,-19.6545 1061.01,-21.198 1064.26,-27.3977"/>
</g>
<!-- Node40&#45;&gt;Node7 -->
<g id="edge83" class="edge"><title>Node40&#45;&gt;Node7</title>
<path fill="none" stroke="midnightblue" d="M2145.47,-58.3706C2142,-57.4451 2138.42,-56.6052 2135,-56 2013.21,-34.4586 1631.12,-17.515 1508.38,-12.5111"/>
<polygon fill="midnightblue" stroke="midnightblue" points="1508.45,-9.01134 1498.32,-12.1042 1508.17,-16.0056 1508.45,-9.01134"/>
</g>
<!-- Node40&#45;&gt;Node13 -->
<g id="edge84" class="edge"><title>Node40&#45;&gt;Node13</title>
<path fill="none" stroke="midnightblue" d="M2166,-56.083C2166,-49.0059 2166,-38.8611 2166,-29.9865"/>
<polygon fill="midnightblue" stroke="midnightblue" points="2169.5,-29.751 2166,-19.7511 2162.5,-29.7511 2169.5,-29.751"/>
</g>
<!-- Node40&#45;&gt;Node14 -->
<g id="edge85" class="edge"><title>Node40&#45;&gt;Node14</title>
<path fill="none" stroke="midnightblue" d="M2152.5,-56.324C2139.4,-47.9002 2119.29,-34.9709 2103.89,-25.0741"/>
<polygon fill="midnightblue" stroke="midnightblue" points="2105.77,-22.118 2095.46,-19.6545 2101.98,-28.0063 2105.77,-22.118"/>
</g>
<!-- Node41&#45;&gt;Node7 -->
<g id="edge87" class="edge"><title>Node41&#45;&gt;Node7</title>
<path fill="none" stroke="midnightblue" d="M1557.29,-56.324C1540.69,-47.7034 1515,-34.3643 1495.78,-24.3855"/>
<polygon fill="midnightblue" stroke="midnightblue" points="1497.16,-21.1565 1486.67,-19.6545 1493.93,-27.3689 1497.16,-21.1565"/>
</g>
<!-- Node41&#45;&gt;Node8 -->
<g id="edge88" class="edge"><title>Node41&#45;&gt;Node8</title>
<path fill="none" stroke="midnightblue" d="M1554.95,-62.8831C1481.36,-54.7062 1215.08,-25.1204 1121.12,-14.6795"/>
<polygon fill="midnightblue" stroke="midnightblue" points="1121.36,-11.1857 1111.04,-13.5599 1120.59,-18.1429 1121.36,-11.1857"/>
</g>
<!-- Node41&#45;&gt;Node11 -->
<g id="edge89" class="edge"><title>Node41&#45;&gt;Node11</title>
<path fill="none" stroke="midnightblue" d="M1593.1,-60.0166C1628.68,-50.7346 1705.44,-30.7112 1749.04,-19.3376"/>
<polygon fill="midnightblue" stroke="midnightblue" points="1750.05,-22.6899 1758.85,-16.7789 1748.29,-15.9166 1750.05,-22.6899"/>
</g>
<!-- Node42&#45;&gt;Node7 -->
<g id="edge91" class="edge"><title>Node42&#45;&gt;Node7</title>
<path fill="none" stroke="midnightblue" d="M1415.5,-113.246C1447.41,-104.899 1492.73,-90.8132 1503,-76 1513.85,-60.3481 1500.54,-40.6399 1487.73,-27.0511"/>
<polygon fill="midnightblue" stroke="midnightblue" points="1490,-24.3753 1480.43,-19.8342 1485.08,-29.3535 1490,-24.3753"/>
</g>
<!-- Node42&#45;&gt;Node8 -->
<g id="edge92" class="edge"><title>Node42&#45;&gt;Node8</title>
<path fill="none" stroke="midnightblue" d="M1378.37,-112.178C1370.37,-97.8711 1352.53,-69.8205 1329,-56 1262.67,-17.0382 1169.87,-10.6609 1121.04,-10.2788"/>
<polygon fill="midnightblue" stroke="midnightblue" points="1121.03,-6.77866 1111.03,-10.281 1121.03,-13.7787 1121.03,-6.77866"/>
</g>
<!-- Node42&#45;&gt;Node11 -->
<g id="edge93" class="edge"><title>Node42&#45;&gt;Node11</title>
<path fill="none" stroke="midnightblue" d="M1415.51,-113.741C1418.71,-113.114 1421.91,-112.522 1425,-112 1553.06,-90.3726 1598.09,-132.567 1715,-76 1737.75,-64.9921 1757.44,-43.0034 1769.26,-27.6645"/>
<polygon fill="midnightblue" stroke="midnightblue" points="1772.14,-29.6569 1775.26,-19.5348 1766.51,-25.4961 1772.14,-29.6569"/>
</g>
<!-- Node42&#45;&gt;Node41 -->
<g id="edge94" class="edge"><title>Node42&#45;&gt;Node41</title>
<path fill="none" stroke="midnightblue" d="M1413.26,-112.444C1449.45,-102.212 1509.58,-85.2121 1545.14,-75.1595"/>
<polygon fill="midnightblue" stroke="midnightblue" points="1546.23,-78.4875 1554.9,-72.3989 1544.33,-71.7515 1546.23,-78.4875"/>
</g>
<!-- Node43&#45;&gt;Node7 -->
<g id="edge96" class="edge"><title>Node43&#45;&gt;Node7</title>
<path fill="none" stroke="midnightblue" d="M1709.22,-112.482C1678.52,-95.9371 1612.81,-60.6648 1602,-56 1570.95,-42.6037 1534.5,-30.4312 1507.77,-22.1342"/>
<polygon fill="midnightblue" stroke="midnightblue" points="1508.62,-18.7348 1498.04,-19.1495 1506.57,-25.4273 1508.62,-18.7348"/>
</g>
<!-- Node43&#45;&gt;Node41 -->
<g id="edge97" class="edge"><title>Node43&#45;&gt;Node41</title>
<path fill="none" stroke="midnightblue" d="M1701.07,-112.444C1674.41,-102.908 1631.31,-87.4946 1602.81,-77.3042"/>
<polygon fill="midnightblue" stroke="midnightblue" points="1603.63,-73.8784 1593.03,-73.8067 1601.27,-80.4696 1603.63,-73.8784"/>
</g>
</g>
</svg>
