<?xml version="1.0" encoding="UTF-8" standalone="no"?>
<!DOCTYPE svg PUBLIC "-//W3C//DTD SVG 1.1//EN"
 "http://www.w3.org/Graphics/SVG/1.1/DTD/svg11.dtd">
<!-- Generated by graphviz version 2.36.0 (20140111.2315)
 -->
<!-- Title: process_user_header Pages: 1 -->
<svg width="406pt" height="256pt"
 viewBox="0.00 0.00 406.00 256.00" xmlns="http://www.w3.org/2000/svg" xmlns:xlink="http://www.w3.org/1999/xlink">
<g id="graph0" class="graph" transform="scale(1 1) rotate(0) translate(4 252)">
<title>process_user_header</title>
<polygon fill="white" stroke="none" points="-4,4 -4,-252 402,-252 402,4 -4,4"/>
<!-- Node1 -->
<g id="node1" class="node"><title>Node1</title>
<polygon fill="#bfbfbf" stroke="black" points="0,-114.5 0,-133.5 110,-133.5 110,-114.5 0,-114.5"/>
<text text-anchor="middle" x="55" y="-121.5" font-family="Helvetica,sans-Serif" font-size="10.00">process_user_header</text>
</g>
<!-- Node2 -->
<g id="node2" class="node"><title>Node2</title>
<g id="a_node2"><a xlink:href="mutt_2string_8c.html#a0ab98e8f251c9db11831b77a1681edc3" target="_top" xlink:title="Compare two strings ignoring case (to a maximum), safely. ">
<polygon fill="white" stroke="black" points="154,-228.5 154,-247.5 268,-247.5 268,-228.5 154,-228.5"/>
<text text-anchor="middle" x="211" y="-235.5" font-family="Helvetica,sans-Serif" font-size="10.00">mutt_str_strncasecmp</text>
</a>
</g>
</g>
<!-- Node1&#45;&gt;Node2 -->
<g id="edge1" class="edge"><title>Node1&#45;&gt;Node2</title>
<path fill="none" stroke="midnightblue" d="M63.3742,-133.756C77.5395,-151.89 110.329,-191.031 146,-214 152.379,-218.108 159.564,-221.661 166.754,-224.68"/>
<polygon fill="midnightblue" stroke="midnightblue" points="165.899,-228.102 176.487,-228.467 168.438,-221.579 165.899,-228.102"/>
</g>
<!-- Node3 -->
<g id="node3" class="node"><title>Node3</title>
<g id="a_node3"><a xlink:href="email_2address_8c.html#a261c737f5760766b245e5e8506b11b12" target="_top" xlink:title="Free a list of Addresses. ">
<polygon fill="white" stroke="red" points="314,-171.5 314,-190.5 396,-190.5 396,-171.5 314,-171.5"/>
<text text-anchor="middle" x="355" y="-178.5" font-family="Helvetica,sans-Serif" font-size="10.00">mutt_addr_free</text>
</a>
</g>
</g>
<!-- Node1&#45;&gt;Node3 -->
<g id="edge2" class="edge"><title>Node1&#45;&gt;Node3</title>
<path fill="none" stroke="midnightblue" d="M66.6327,-133.636C82.5211,-147.314 114.026,-171.727 146,-181 198.225,-196.147 260.979,-193.474 303.805,-188.705"/>
<polygon fill="midnightblue" stroke="midnightblue" points="304.46,-192.152 313.975,-187.491 303.631,-185.201 304.46,-192.152"/>
</g>
<!-- Node4 -->
<g id="node4" class="node"><title>Node4</title>
<g id="a_node4"><a xlink:href="email_2address_8c.html#abc55e4ec2195cdbfc45eaa22cbce9c64" target="_top" xlink:title="Parse a list of email addresses. ">
<polygon fill="white" stroke="red" points="157.5,-152.5 157.5,-171.5 264.5,-171.5 264.5,-152.5 157.5,-152.5"/>
<text text-anchor="middle" x="211" y="-159.5" font-family="Helvetica,sans-Serif" font-size="10.00">mutt_addr_parse_list</text>
</a>
</g>
</g>
<!-- Node1&#45;&gt;Node4 -->
<g id="edge3" class="edge"><title>Node1&#45;&gt;Node4</title>
<path fill="none" stroke="midnightblue" d="M94.8607,-133.589C115.091,-138.581 140.021,-144.732 161.504,-150.033"/>
<polygon fill="midnightblue" stroke="midnightblue" points="160.871,-153.482 171.419,-152.48 162.548,-146.686 160.871,-153.482"/>
</g>
<!-- Node5 -->
<g id="node5" class="node"><title>Node5</title>
<g id="a_node5"><a xlink:href="mutt_2string_8c.html#ae48085384a6545e0fac589a88243ea31" target="_top" xlink:title="Copy a string, safely. ">
<polygon fill="white" stroke="red" points="312.5,-124.5 312.5,-143.5 397.5,-143.5 397.5,-124.5 312.5,-124.5"/>
<text text-anchor="middle" x="355" y="-131.5" font-family="Helvetica,sans-Serif" font-size="10.00">mutt_str_strdup</text>
</a>
</g>
</g>
<!-- Node1&#45;&gt;Node5 -->
<g id="edge9" class="edge"><title>Node1&#45;&gt;Node5</title>
<path fill="none" stroke="midnightblue" d="M110.311,-125.823C164.88,-127.654 248.381,-130.456 302.084,-132.258"/>
<polygon fill="midnightblue" stroke="midnightblue" points="301.968,-135.756 312.08,-132.593 302.203,-128.76 301.968,-135.756"/>
</g>
<!-- Node6 -->
<g id="node6" class="node"><title>Node6</title>
<g id="a_node6"><a xlink:href="parse_8c.html#ae6e13de7c8b7aa92cb468ff00818a4ce" target="_top" xlink:title="Find a message&#45;id. ">
<polygon fill="white" stroke="red" points="146.5,-76.5 146.5,-95.5 275.5,-95.5 275.5,-76.5 146.5,-76.5"/>
<text text-anchor="middle" x="211" y="-83.5" font-family="Helvetica,sans-Serif" font-size="10.00">mutt_extract_message_id</text>
</a>
</g>
</g>
<!-- Node1&#45;&gt;Node6 -->
<g id="edge6" class="edge"><title>Node1&#45;&gt;Node6</title>
<path fill="none" stroke="midnightblue" d="M94.8607,-114.411C115.091,-109.419 140.021,-103.268 161.504,-97.9666"/>
<polygon fill="midnightblue" stroke="midnightblue" points="162.548,-101.314 171.419,-95.5201 160.871,-94.5177 162.548,-101.314"/>
</g>
<!-- Node7 -->
<g id="node7" class="node"><title>Node7</title>
<g id="a_node7"><a xlink:href="email_2address_8c.html#a434492a707aadd897d74bdf7b493bbc2" target="_top" xlink:title="Is this a valid Message ID? ">
<polygon fill="white" stroke="red" points="152.5,-38.5 152.5,-57.5 269.5,-57.5 269.5,-38.5 152.5,-38.5"/>
<text text-anchor="middle" x="211" y="-45.5" font-family="Helvetica,sans-Serif" font-size="10.00">mutt_addr_valid_msgid</text>
</a>
</g>
</g>
<!-- Node1&#45;&gt;Node7 -->
<g id="edge7" class="edge"><title>Node1&#45;&gt;Node7</title>
<path fill="none" stroke="midnightblue" d="M68.7687,-114.3C85.6535,-101.863 116.702,-80.3153 146,-67 151.012,-64.7221 156.368,-62.6354 161.767,-60.7473"/>
<polygon fill="midnightblue" stroke="midnightblue" points="163.056,-64.0079 171.467,-57.565 160.874,-57.3567 163.056,-64.0079"/>
</g>
<!-- Node8 -->
<g id="node8" class="node"><title>Node8</title>
<g id="a_node8"><a xlink:href="list_8c.html#ace47a64c8bec9d1b24be6524f650293d" target="_top" xlink:title="Append a string to the end of a List. ">
<polygon fill="white" stroke="red" points="160.5,-0.5 160.5,-19.5 261.5,-19.5 261.5,-0.5 160.5,-0.5"/>
<text text-anchor="middle" x="211" y="-7.5" font-family="Helvetica,sans-Serif" font-size="10.00">mutt_list_insert_tail</text>
</a>
</g>
</g>
<!-- Node1&#45;&gt;Node8 -->
<g id="edge8" class="edge"><title>Node1&#45;&gt;Node8</title>
<path fill="none" stroke="midnightblue" d="M62.4635,-114.336C75.7869,-95.1649 108.243,-52.1753 146,-29 149.403,-26.9111 153.05,-25.0403 156.812,-23.3667"/>
<polygon fill="midnightblue" stroke="midnightblue" points="158.32,-26.5342 166.332,-19.6011 155.745,-20.025 158.32,-26.5342"/>
</g>
<!-- Node4&#45;&gt;Node3 -->
<g id="edge5" class="edge"><title>Node4&#45;&gt;Node3</title>
<path fill="none" stroke="midnightblue" d="M264.876,-169.075C277.693,-170.79 291.355,-172.618 304.033,-174.314"/>
<polygon fill="midnightblue" stroke="midnightblue" points="303.579,-177.785 313.955,-175.642 304.507,-170.846 303.579,-177.785"/>
</g>
<!-- Node4&#45;&gt;Node5 -->
<g id="edge4" class="edge"><title>Node4&#45;&gt;Node5</title>
<path fill="none" stroke="midnightblue" d="M260.471,-152.442C273.916,-149.791 288.564,-146.903 302.192,-144.216"/>
<polygon fill="midnightblue" stroke="midnightblue" points="303.243,-147.576 312.377,-142.207 301.889,-140.708 303.243,-147.576"/>
</g>
</g>
</svg>
