<?xml version="1.0" encoding="UTF-8" standalone="no"?>
<!DOCTYPE svg PUBLIC "-//W3C//DTD SVG 1.1//EN"
 "http://www.w3.org/Graphics/SVG/1.1/DTD/svg11.dtd">
<!-- Generated by graphviz version 2.36.0 (20140111.2315)
 -->
<!-- Title: mutt_rfc822_write_header Pages: 1 -->
<svg width="424pt" height="294pt"
 viewBox="0.00 0.00 424.00 294.00" xmlns="http://www.w3.org/2000/svg" xmlns:xlink="http://www.w3.org/1999/xlink">
<g id="graph0" class="graph" transform="scale(1 1) rotate(0) translate(4 290)">
<title>mutt_rfc822_write_header</title>
<polygon fill="white" stroke="none" points="-4,4 -4,-290 420,-290 420,4 -4,4"/>
<!-- Node1 -->
<g id="node1" class="node"><title>Node1</title>
<polygon fill="#bfbfbf" stroke="black" points="0.5,-133.5 0.5,-152.5 129.5,-152.5 129.5,-133.5 0.5,-133.5"/>
<text text-anchor="middle" x="65" y="-140.5" font-family="Helvetica,sans-Serif" font-size="10.00">mutt_rfc822_write_header</text>
</g>
<!-- Node2 -->
<g id="node2" class="node"><title>Node2</title>
<g id="a_node2"><a xlink:href="date_8c.html#a808bc580b1cc9cb503d16dfb7ba3c128" target="_top" xlink:title="Write a date in RFC822 format to a buffer. ">
<polygon fill="white" stroke="red" points="173.5,-266.5 173.5,-285.5 286.5,-285.5 286.5,-266.5 173.5,-266.5"/>
<text text-anchor="middle" x="230" y="-273.5" font-family="Helvetica,sans-Serif" font-size="10.00">mutt_date_make_date</text>
</a>
</g>
</g>
<!-- Node1&#45;&gt;Node2 -->
<g id="edge1" class="edge"><title>Node1&#45;&gt;Node2</title>
<path fill="none" stroke="midnightblue" d="M72.3757,-152.537C86.7423,-173.357 123.712,-223.304 166,-252 172.059,-256.112 178.919,-259.647 185.827,-262.642"/>
<polygon fill="midnightblue" stroke="midnightblue" points="184.621,-265.929 195.206,-266.395 187.222,-259.43 184.621,-265.929"/>
</g>
<!-- Node3 -->
<g id="node3" class="node"><title>Node3</title>
<g id="a_node3"><a xlink:href="email_2address_8c.html#ac1ccf9a098991f797af50f11e6575695" target="_top" xlink:title="Write an Address to a buffer. ">
<polygon fill="white" stroke="red" points="330,-209.5 330,-228.5 416,-228.5 416,-209.5 330,-209.5"/>
<text text-anchor="middle" x="373" y="-216.5" font-family="Helvetica,sans-Serif" font-size="10.00">mutt_addr_write</text>
</a>
</g>
</g>
<!-- Node1&#45;&gt;Node3 -->
<g id="edge2" class="edge"><title>Node1&#45;&gt;Node3</title>
<path fill="none" stroke="midnightblue" d="M74.433,-152.639C90.2911,-169.942 126.53,-205.704 166,-219 216.097,-235.877 277.02,-233.264 319.565,-228.042"/>
<polygon fill="midnightblue" stroke="midnightblue" points="320.241,-231.484 329.698,-226.707 319.326,-224.544 320.241,-231.484"/>
</g>
<!-- Node4 -->
<g id="node4" class="node"><title>Node4</title>
<g id="a_node4"><a xlink:href="sendlib_8c.html#aeeb18bfb6476338561d662eb3eeccd88" target="_top" xlink:title="wrapper around mutt_write_address() ">
<polygon fill="white" stroke="red" points="170,-190.5 170,-209.5 290,-209.5 290,-190.5 170,-190.5"/>
<text text-anchor="middle" x="230" y="-197.5" font-family="Helvetica,sans-Serif" font-size="10.00">mutt_write_address_list</text>
</a>
</g>
</g>
<!-- Node1&#45;&gt;Node4 -->
<g id="edge3" class="edge"><title>Node1&#45;&gt;Node4</title>
<path fill="none" stroke="midnightblue" d="M89.6715,-152.533C109.828,-160.521 139.627,-172.025 166,-181 172.467,-183.201 179.35,-185.41 186.102,-187.504"/>
<polygon fill="midnightblue" stroke="midnightblue" points="185.251,-190.904 195.837,-190.475 187.294,-184.208 185.251,-190.904"/>
</g>
<!-- Node5 -->
<g id="node5" class="node"><title>Node5</title>
<g id="a_node5"><a xlink:href="sendlib_8c.html#af4efff59dc837ce6e4e5490113c1cde4" target="_top" xlink:title="Write one header line to a file. ">
<polygon fill="white" stroke="red" points="171,-152.5 171,-171.5 289,-171.5 289,-152.5 171,-152.5"/>
<text text-anchor="middle" x="230" y="-159.5" font-family="Helvetica,sans-Serif" font-size="10.00">mutt_write_one_header</text>
</a>
</g>
</g>
<!-- Node1&#45;&gt;Node5 -->
<g id="edge5" class="edge"><title>Node1&#45;&gt;Node5</title>
<path fill="none" stroke="midnightblue" d="M129.954,-150.455C140.055,-151.632 150.533,-152.854 160.728,-154.042"/>
<polygon fill="midnightblue" stroke="midnightblue" points="160.465,-157.535 170.803,-155.216 161.276,-150.582 160.465,-157.535"/>
</g>
<!-- Node6 -->
<g id="node6" class="node"><title>Node6</title>
<g id="a_node6"><a xlink:href="sendlib_8c.html#a9b6c3070cde5c6c3705cde2dd7656880" target="_top" xlink:title="Add the message references to a list. ">
<polygon fill="white" stroke="red" points="173.5,-114.5 173.5,-133.5 286.5,-133.5 286.5,-114.5 173.5,-114.5"/>
<text text-anchor="middle" x="230" y="-121.5" font-family="Helvetica,sans-Serif" font-size="10.00">mutt_write_references</text>
</a>
</g>
</g>
<!-- Node1&#45;&gt;Node6 -->
<g id="edge6" class="edge"><title>Node1&#45;&gt;Node6</title>
<path fill="none" stroke="midnightblue" d="M129.954,-135.545C140.948,-134.264 152.389,-132.93 163.425,-131.644"/>
<polygon fill="midnightblue" stroke="midnightblue" points="163.894,-135.113 173.422,-130.478 163.084,-128.16 163.894,-135.113"/>
</g>
<!-- Node7 -->
<g id="node7" class="node"><title>Node7</title>
<g id="a_node7"><a xlink:href="sendlib_8c.html#aedba34745a31061e882b1333e918137c" target="_top" xlink:title="Create a MIME header. ">
<polygon fill="white" stroke="red" points="167,-76.5 167,-95.5 293,-95.5 293,-76.5 167,-76.5"/>
<text text-anchor="middle" x="230" y="-83.5" font-family="Helvetica,sans-Serif" font-size="10.00">mutt_write_mime_header</text>
</a>
</g>
</g>
<!-- Node1&#45;&gt;Node7 -->
<g id="edge7" class="edge"><title>Node1&#45;&gt;Node7</title>
<path fill="none" stroke="midnightblue" d="M89.6715,-133.467C109.828,-125.479 139.627,-113.975 166,-105 172.467,-102.799 179.35,-100.59 186.102,-98.496"/>
<polygon fill="midnightblue" stroke="midnightblue" points="187.294,-101.792 195.837,-95.5255 185.251,-95.0964 187.294,-101.792"/>
</g>
<!-- Node8 -->
<g id="node8" class="node"><title>Node8</title>
<g id="a_node8"><a xlink:href="mutt_2string_8c.html#aa5fb929533630a48c6d2e893267ce208" target="_top" xlink:title="Skip over whitespace as defined by RFC5322. ">
<polygon fill="white" stroke="black" points="166,-38.5 166,-57.5 294,-57.5 294,-38.5 166,-38.5"/>
<text text-anchor="middle" x="230" y="-45.5" font-family="Helvetica,sans-Serif" font-size="10.00">mutt_str_skip_email_wsp</text>
</a>
</g>
</g>
<!-- Node1&#45;&gt;Node8 -->
<g id="edge8" class="edge"><title>Node1&#45;&gt;Node8</title>
<path fill="none" stroke="midnightblue" d="M75.9602,-133.449C93.0574,-117.535 129.67,-85.518 166,-67 170.351,-64.7821 175.006,-62.7752 179.742,-60.9705"/>
<polygon fill="midnightblue" stroke="midnightblue" points="181.226,-64.1591 189.504,-57.5476 178.91,-57.5534 181.226,-64.1591"/>
</g>
<!-- Node9 -->
<g id="node9" class="node"><title>Node9</title>
<g id="a_node9"><a xlink:href="mutt_2string_8c.html#a0ab98e8f251c9db11831b77a1681edc3" target="_top" xlink:title="Compare two strings ignoring case (to a maximum), safely. ">
<polygon fill="white" stroke="black" points="173,-0.5 173,-19.5 287,-19.5 287,-0.5 173,-0.5"/>
<text text-anchor="middle" x="230" y="-7.5" font-family="Helvetica,sans-Serif" font-size="10.00">mutt_str_strncasecmp</text>
</a>
</g>
</g>
<!-- Node1&#45;&gt;Node9 -->
<g id="edge9" class="edge"><title>Node1&#45;&gt;Node9</title>
<path fill="none" stroke="midnightblue" d="M71.702,-133.44C85.2322,-111.583 121.501,-57.637 166,-29 169.164,-26.9637 172.557,-25.1369 176.067,-23.4993"/>
<polygon fill="midnightblue" stroke="midnightblue" points="177.643,-26.6359 185.557,-19.5928 174.978,-20.1629 177.643,-26.6359"/>
</g>
<!-- Node4&#45;&gt;Node3 -->
<g id="edge4" class="edge"><title>Node4&#45;&gt;Node3</title>
<path fill="none" stroke="midnightblue" d="M290.388,-208.003C300.116,-209.313 310.133,-210.663 319.674,-211.949"/>
<polygon fill="midnightblue" stroke="midnightblue" points="319.425,-215.447 329.803,-213.314 320.36,-208.51 319.425,-215.447"/>
</g>
</g>
</svg>
