<?xml version="1.0" encoding="UTF-8" standalone="no"?>
<!DOCTYPE svg PUBLIC "-//W3C//DTD SVG 1.1//EN"
 "http://www.w3.org/Graphics/SVG/1.1/DTD/svg11.dtd">
<!-- Generated by graphviz version 2.36.0 (20140111.2315)
 -->
<!-- Title: mutt_add_to_reference_headers Pages: 1 -->
<svg width="286pt" height="77pt"
 viewBox="0.00 0.00 286.00 77.00" xmlns="http://www.w3.org/2000/svg" xmlns:xlink="http://www.w3.org/1999/xlink">
<g id="graph0" class="graph" transform="scale(1 1) rotate(0) translate(4 73)">
<title>mutt_add_to_reference_headers</title>
<polygon fill="white" stroke="none" points="-4,4 -4,-73 282,-73 282,4 -4,4"/>
<!-- Node1 -->
<g id="node1" class="node"><title>Node1</title>
<polygon fill="#bfbfbf" stroke="black" points="0,-17 0,-47 116,-47 116,-17 0,-17"/>
<text text-anchor="start" x="8" y="-35" font-family="Helvetica,sans-Serif" font-size="10.00">mutt_add_to_reference</text>
<text text-anchor="middle" x="58" y="-24" font-family="Helvetica,sans-Serif" font-size="10.00">_headers</text>
</g>
<!-- Node2 -->
<g id="node2" class="node"><title>Node2</title>
<g id="a_node2"><a xlink:href="recvcmd_8c.html#a587795a78df89b46f69e4ef82a6e52ec" target="_top" xlink:title="the various reply functions, from the attachment menu ">
<polygon fill="white" stroke="red" points="158,-39 158,-69 272,-69 272,-39 158,-39"/>
<text text-anchor="start" x="166" y="-57" font-family="Helvetica,sans-Serif" font-size="10.00">attach_reply_envelope</text>
<text text-anchor="middle" x="215" y="-46" font-family="Helvetica,sans-Serif" font-size="10.00">_defaults</text>
</a>
</g>
</g>
<!-- Node1&#45;&gt;Node2 -->
<g id="edge1" class="edge"><title>Node1&#45;&gt;Node2</title>
<path fill="none" stroke="midnightblue" d="M126.307,-41.5533C136.88,-43.0539 147.71,-44.5911 157.992,-46.0504"/>
<polygon fill="midnightblue" stroke="midnightblue" points="126.669,-38.0696 116.276,-40.1295 125.685,-45.0001 126.669,-38.0696"/>
</g>
<!-- Node3 -->
<g id="node3" class="node"><title>Node3</title>
<g id="a_node3"><a xlink:href="send_8c.html#a4dc1db31fa9f20289bbfd6d04e4b94f5" target="_top" xlink:title="Generate reference headers for an email. ">
<polygon fill="white" stroke="red" points="152,-0.5 152,-19.5 278,-19.5 278,-0.5 152,-0.5"/>
<text text-anchor="middle" x="215" y="-7.5" font-family="Helvetica,sans-Serif" font-size="10.00">make_reference_headers</text>
</a>
</g>
</g>
<!-- Node1&#45;&gt;Node3 -->
<g id="edge2" class="edge"><title>Node1&#45;&gt;Node3</title>
<path fill="none" stroke="midnightblue" d="M126.431,-22.4291C134.845,-21.2349 143.419,-20.0179 151.749,-18.8356"/>
<polygon fill="midnightblue" stroke="midnightblue" points="125.685,-18.9999 116.276,-23.8705 126.669,-25.9304 125.685,-18.9999"/>
</g>
</g>
</svg>
