<?xml version="1.0" encoding="UTF-8" standalone="no"?>
<!DOCTYPE svg PUBLIC "-//W3C//DTD SVG 1.1//EN"
 "http://www.w3.org/Graphics/SVG/1.1/DTD/svg11.dtd">
<!-- Generated by graphviz version 2.36.0 (20140111.2315)
 -->
<!-- Title: mutt_fix_reply_recipients Pages: 1 -->
<svg width="284pt" height="77pt"
 viewBox="0.00 0.00 284.00 77.00" xmlns="http://www.w3.org/2000/svg" xmlns:xlink="http://www.w3.org/1999/xlink">
<g id="graph0" class="graph" transform="scale(1 1) rotate(0) translate(4 73)">
<title>mutt_fix_reply_recipients</title>
<polygon fill="white" stroke="none" points="-4,4 -4,-73 280,-73 280,4 -4,4"/>
<!-- Node1 -->
<g id="node1" class="node"><title>Node1</title>
<polygon fill="#bfbfbf" stroke="black" points="0.5,-22.5 0.5,-41.5 125.5,-41.5 125.5,-22.5 0.5,-22.5"/>
<text text-anchor="middle" x="63" y="-29.5" font-family="Helvetica,sans-Serif" font-size="10.00">mutt_fix_reply_recipients</text>
</g>
<!-- Node2 -->
<g id="node2" class="node"><title>Node2</title>
<g id="a_node2"><a xlink:href="recvcmd_8c.html#a587795a78df89b46f69e4ef82a6e52ec" target="_top" xlink:title="the various reply functions, from the attachment menu ">
<polygon fill="white" stroke="red" points="162,-39 162,-69 276,-69 276,-39 162,-39"/>
<text text-anchor="start" x="170" y="-57" font-family="Helvetica,sans-Serif" font-size="10.00">attach_reply_envelope</text>
<text text-anchor="middle" x="219" y="-46" font-family="Helvetica,sans-Serif" font-size="10.00">_defaults</text>
</a>
</g>
</g>
<!-- Node1&#45;&gt;Node2 -->
<g id="edge1" class="edge"><title>Node1&#45;&gt;Node2</title>
<path fill="none" stroke="midnightblue" d="M135.869,-42.2671C144.546,-43.5066 153.31,-44.7586 161.718,-45.9597"/>
<polygon fill="midnightblue" stroke="midnightblue" points="136.145,-38.771 125.75,-40.8215 135.155,-45.7006 136.145,-38.771"/>
</g>
<!-- Node3 -->
<g id="node3" class="node"><title>Node3</title>
<g id="a_node3"><a xlink:href="send_8h.html#a09c909ab2bb41101590ed2b13f65fc2d" target="_top" xlink:title="Send an email. ">
<polygon fill="white" stroke="red" points="171.5,-0.5 171.5,-19.5 266.5,-19.5 266.5,-0.5 171.5,-0.5"/>
<text text-anchor="middle" x="219" y="-7.5" font-family="Helvetica,sans-Serif" font-size="10.00">ci_send_message</text>
</a>
</g>
</g>
<!-- Node1&#45;&gt;Node3 -->
<g id="edge2" class="edge"><title>Node1&#45;&gt;Node3</title>
<path fill="none" stroke="midnightblue" d="M135.838,-21.7375C147.925,-20.0107 160.183,-18.2595 171.413,-16.6553"/>
<polygon fill="midnightblue" stroke="midnightblue" points="135.155,-18.2994 125.75,-23.1785 136.145,-25.229 135.155,-18.2994"/>
</g>
</g>
</svg>
