<?xml version="1.0" encoding="UTF-8" standalone="no"?>
<!DOCTYPE svg PUBLIC "-//W3C//DTD SVG 1.1//EN"
 "http://www.w3.org/Graphics/SVG/1.1/DTD/svg11.dtd">
<!-- Generated by graphviz version 2.36.0 (20140111.2315)
 -->
<!-- Title: mutt_lookup_mime_type Pages: 1 -->
<svg width="288pt" height="66pt"
 viewBox="0.00 0.00 288.00 66.00" xmlns="http://www.w3.org/2000/svg" xmlns:xlink="http://www.w3.org/1999/xlink">
<g id="graph0" class="graph" transform="scale(1 1) rotate(0) translate(4 62)">
<title>mutt_lookup_mime_type</title>
<polygon fill="white" stroke="none" points="-4,4 -4,-62 284,-62 284,4 -4,4"/>
<!-- Node1 -->
<g id="node1" class="node"><title>Node1</title>
<polygon fill="#bfbfbf" stroke="black" points="0.5,-19.5 0.5,-38.5 123.5,-38.5 123.5,-19.5 0.5,-19.5"/>
<text text-anchor="middle" x="62" y="-26.5" font-family="Helvetica,sans-Serif" font-size="10.00">mutt_lookup_mime_type</text>
</g>
<!-- Node2 -->
<g id="node2" class="node"><title>Node2</title>
<g id="a_node2"><a xlink:href="mutt__attach_8h.html#a1a97d711180c816108d8866ef7b120cc" target="_top" xlink:title="Update the mime type. ">
<polygon fill="white" stroke="red" points="160.5,-38.5 160.5,-57.5 279.5,-57.5 279.5,-38.5 160.5,-38.5"/>
<text text-anchor="middle" x="220" y="-45.5" font-family="Helvetica,sans-Serif" font-size="10.00">mutt_check_lookup_list</text>
</a>
</g>
</g>
<!-- Node1&#45;&gt;Node2 -->
<g id="edge1" class="edge"><title>Node1&#45;&gt;Node2</title>
<path fill="none" stroke="midnightblue" d="M133.76,-37.6182C142.688,-38.7055 151.743,-39.8084 160.452,-40.8691"/>
<polygon fill="midnightblue" stroke="midnightblue" points="134.11,-34.1351 123.76,-36.4003 133.264,-41.0837 134.11,-34.1351"/>
</g>
<!-- Node3 -->
<g id="node3" class="node"><title>Node3</title>
<g id="a_node3"><a xlink:href="sendlib_8h.html#ac3c97bd11a16a252a685410e35a39dda" target="_top" xlink:title="Create a file attachment. ">
<polygon fill="white" stroke="red" points="162,-0.5 162,-19.5 278,-19.5 278,-0.5 162,-0.5"/>
<text text-anchor="middle" x="220" y="-7.5" font-family="Helvetica,sans-Serif" font-size="10.00">mutt_make_file_attach</text>
</a>
</g>
</g>
<!-- Node1&#45;&gt;Node3 -->
<g id="edge2" class="edge"><title>Node1&#45;&gt;Node3</title>
<path fill="none" stroke="midnightblue" d="M133.889,-20.3661C143.298,-19.2202 152.845,-18.0573 161.979,-16.9449"/>
<polygon fill="midnightblue" stroke="midnightblue" points="133.264,-16.9163 123.76,-21.5997 134.11,-23.8649 133.264,-16.9163"/>
</g>
</g>
</svg>
