<?xml version="1.0" encoding="UTF-8" standalone="no"?>
<!DOCTYPE svg PUBLIC "-//W3C//DTD SVG 1.1//EN"
 "http://www.w3.org/Graphics/SVG/1.1/DTD/svg11.dtd">
<!-- Generated by graphviz version 2.36.0 (20140111.2315)
 -->
<!-- Title: mutt_forward_trailer Pages: 1 -->
<svg width="264pt" height="104pt"
 viewBox="0.00 0.00 264.00 104.00" xmlns="http://www.w3.org/2000/svg" xmlns:xlink="http://www.w3.org/1999/xlink">
<g id="graph0" class="graph" transform="scale(1 1) rotate(0) translate(4 100)">
<title>mutt_forward_trailer</title>
<polygon fill="white" stroke="none" points="-4,4 -4,-100 260,-100 260,4 -4,4"/>
<!-- Node1 -->
<g id="node1" class="node"><title>Node1</title>
<polygon fill="#bfbfbf" stroke="black" points="0.5,-38.5 0.5,-57.5 103.5,-57.5 103.5,-38.5 0.5,-38.5"/>
<text text-anchor="middle" x="52" y="-45.5" font-family="Helvetica,sans-Serif" font-size="10.00">mutt_forward_trailer</text>
</g>
<!-- Node2 -->
<g id="node2" class="node"><title>Node2</title>
<g id="a_node2"><a xlink:href="recvcmd_8c.html#ad985f78448cd381d34cb45b710eddc90" target="_top" xlink:title="forward one or several MIME bodies ">
<polygon fill="white" stroke="red" points="140.5,-76.5 140.5,-95.5 255.5,-95.5 255.5,-76.5 140.5,-76.5"/>
<text text-anchor="middle" x="198" y="-83.5" font-family="Helvetica,sans-Serif" font-size="10.00">attach_forward_bodies</text>
</a>
</g>
</g>
<!-- Node1&#45;&gt;Node2 -->
<g id="edge1" class="edge"><title>Node1&#45;&gt;Node2</title>
<path fill="none" stroke="midnightblue" d="M99.1722,-60.1843C119.164,-65.46 142.219,-71.5438 160.924,-76.4799"/>
<polygon fill="midnightblue" stroke="midnightblue" points="99.8994,-56.7565 89.3373,-57.589 98.1132,-63.5248 99.8994,-56.7565"/>
</g>
<!-- Node3 -->
<g id="node3" class="node"><title>Node3</title>
<g id="a_node3"><a xlink:href="recvcmd_8c.html#ab5979027a0a9e06fb96e3e54ad77b9a7" target="_top" xlink:title="Forward one or several message&#45;type attachments. ">
<polygon fill="white" stroke="red" points="143,-38.5 143,-57.5 253,-57.5 253,-38.5 143,-38.5"/>
<text text-anchor="middle" x="198" y="-45.5" font-family="Helvetica,sans-Serif" font-size="10.00">attach_forward_msgs</text>
</a>
</g>
</g>
<!-- Node1&#45;&gt;Node3 -->
<g id="edge2" class="edge"><title>Node1&#45;&gt;Node3</title>
<path fill="none" stroke="midnightblue" d="M114.005,-48C123.564,-48 133.388,-48 142.781,-48"/>
<polygon fill="midnightblue" stroke="midnightblue" points="113.769,-44.5001 103.769,-48 113.769,-51.5001 113.769,-44.5001"/>
</g>
<!-- Node4 -->
<g id="node4" class="node"><title>Node4</title>
<g id="a_node4"><a xlink:href="send_8c.html#a0a0be08e79d9956ae69693f80c2ea54f" target="_top" xlink:title="Write out a forwarded message. ">
<polygon fill="white" stroke="red" points="155.5,-0.5 155.5,-19.5 240.5,-19.5 240.5,-0.5 155.5,-0.5"/>
<text text-anchor="middle" x="198" y="-7.5" font-family="Helvetica,sans-Serif" font-size="10.00">include_forward</text>
</a>
</g>
</g>
<!-- Node1&#45;&gt;Node4 -->
<g id="edge3" class="edge"><title>Node1&#45;&gt;Node4</title>
<path fill="none" stroke="midnightblue" d="M99.1722,-35.8157C119.164,-30.54 142.219,-24.4562 160.924,-19.5201"/>
<polygon fill="midnightblue" stroke="midnightblue" points="98.1132,-32.4752 89.3373,-38.411 99.8994,-39.2435 98.1132,-32.4752"/>
</g>
</g>
</svg>
