<?xml version="1.0" encoding="UTF-8" standalone="no"?>
<!DOCTYPE svg PUBLIC "-//W3C//DTD SVG 1.1//EN"
 "http://www.w3.org/Graphics/SVG/1.1/DTD/svg11.dtd">
<!-- Generated by graphviz version 2.36.0 (20140111.2315)
 -->
<!-- Title: mutt_write_one_header Pages: 1 -->
<svg width="292pt" height="66pt"
 viewBox="0.00 0.00 292.00 66.00" xmlns="http://www.w3.org/2000/svg" xmlns:xlink="http://www.w3.org/1999/xlink">
<g id="graph0" class="graph" transform="scale(1 1) rotate(0) translate(4 62)">
<title>mutt_write_one_header</title>
<polygon fill="white" stroke="none" points="-4,4 -4,-62 288,-62 288,4 -4,4"/>
<!-- Node1 -->
<g id="node1" class="node"><title>Node1</title>
<polygon fill="#bfbfbf" stroke="black" points="0,-19.5 0,-38.5 118,-38.5 118,-19.5 0,-19.5"/>
<text text-anchor="middle" x="59" y="-26.5" font-family="Helvetica,sans-Serif" font-size="10.00">mutt_write_one_header</text>
</g>
<!-- Node2 -->
<g id="node2" class="node"><title>Node2</title>
<g id="a_node2"><a xlink:href="copy_8h.html#aa45776815c6dfcc380ffaee845483d70" target="_top" xlink:title="Copy header from one file to another. ">
<polygon fill="white" stroke="red" points="178.5,-38.5 178.5,-57.5 259.5,-57.5 259.5,-38.5 178.5,-38.5"/>
<text text-anchor="middle" x="219" y="-45.5" font-family="Helvetica,sans-Serif" font-size="10.00">mutt_copy_hdr</text>
</a>
</g>
</g>
<!-- Node1&#45;&gt;Node2 -->
<g id="edge1" class="edge"><title>Node1&#45;&gt;Node2</title>
<path fill="none" stroke="midnightblue" d="M128.766,-37.2693C145.616,-39.2956 163.097,-41.3977 178.074,-43.1988"/>
<polygon fill="midnightblue" stroke="midnightblue" points="128.731,-33.74 118.384,-36.0209 127.895,-40.6899 128.731,-33.74"/>
</g>
<!-- Node3 -->
<g id="node3" class="node"><title>Node3</title>
<g id="a_node3"><a xlink:href="sendlib_8h.html#ae59a6b56ab028e4d7bcd8e16a945f6cc" target="_top" xlink:title="Write out one RFC822 header line. ">
<polygon fill="white" stroke="red" points="154.5,-0.5 154.5,-19.5 283.5,-19.5 283.5,-0.5 154.5,-0.5"/>
<text text-anchor="middle" x="219" y="-7.5" font-family="Helvetica,sans-Serif" font-size="10.00">mutt_rfc822_write_header</text>
</a>
</g>
</g>
<!-- Node1&#45;&gt;Node3 -->
<g id="edge2" class="edge"><title>Node1&#45;&gt;Node3</title>
<path fill="none" stroke="midnightblue" d="M128.378,-20.7773C136.979,-19.743 145.751,-18.6881 154.277,-17.6629"/>
<polygon fill="midnightblue" stroke="midnightblue" points="127.895,-17.3101 118.384,-21.9791 128.731,-24.26 127.895,-17.3101"/>
</g>
</g>
</svg>
