<?xml version="1.0" encoding="UTF-8" standalone="no"?>
<!DOCTYPE svg PUBLIC "-//W3C//DTD SVG 1.1//EN"
 "http://www.w3.org/Graphics/SVG/1.1/DTD/svg11.dtd">
<!-- Generated by graphviz version 2.36.0 (20140111.2315)
 -->
<!-- Title: mutt_prepare_envelope Pages: 1 -->
<svg width="332pt" height="47pt"
 viewBox="0.00 0.00 332.00 47.00" xmlns="http://www.w3.org/2000/svg" xmlns:xlink="http://www.w3.org/1999/xlink">
<g id="graph0" class="graph" transform="scale(1 1) rotate(0) translate(4 43)">
<title>mutt_prepare_envelope</title>
<polygon fill="white" stroke="none" points="-4,4 -4,-43 328,-43 328,4 -4,4"/>
<!-- Node1 -->
<g id="node1" class="node"><title>Node1</title>
<polygon fill="#bfbfbf" stroke="black" points="0,-19.5 0,-38.5 118,-38.5 118,-19.5 0,-19.5"/>
<text text-anchor="middle" x="59" y="-26.5" font-family="Helvetica,sans-Serif" font-size="10.00">mutt_prepare_envelope</text>
</g>
<!-- Node2 -->
<g id="node2" class="node"><title>Node2</title>
<g id="a_node2"><a xlink:href="main_8c.html#adedb285b02c41bde2158ded9cc9fd7ac" target="_top" xlink:title="Start NeoMutt. ">
<polygon fill="white" stroke="black" points="286,-19.5 286,-38.5 324,-38.5 324,-19.5 286,-19.5"/>
<text text-anchor="middle" x="305" y="-26.5" font-family="Helvetica,sans-Serif" font-size="10.00">main</text>
</a>
</g>
</g>
<!-- Node1&#45;&gt;Node2 -->
<g id="edge1" class="edge"><title>Node1&#45;&gt;Node2</title>
<path fill="none" stroke="midnightblue" d="M128.289,-29C182.004,-29 253.077,-29 285.928,-29"/>
<polygon fill="midnightblue" stroke="midnightblue" points="128.134,-25.5001 118.134,-29 128.134,-32.5001 128.134,-25.5001"/>
</g>
<!-- Node3 -->
<g id="node3" class="node"><title>Node3</title>
<g id="a_node3"><a xlink:href="send_8h.html#a09c909ab2bb41101590ed2b13f65fc2d" target="_top" xlink:title="Send an email. ">
<polygon fill="white" stroke="red" points="154.5,-0.5 154.5,-19.5 249.5,-19.5 249.5,-0.5 154.5,-0.5"/>
<text text-anchor="middle" x="202" y="-7.5" font-family="Helvetica,sans-Serif" font-size="10.00">ci_send_message</text>
</a>
</g>
</g>
<!-- Node1&#45;&gt;Node3 -->
<g id="edge2" class="edge"><title>Node1&#45;&gt;Node3</title>
<path fill="none" stroke="midnightblue" d="M128.077,-19.8265C136.902,-18.6373 145.778,-17.4413 154.15,-16.3131"/>
<polygon fill="midnightblue" stroke="midnightblue" points="127.607,-16.3581 118.164,-21.1623 128.542,-23.2954 127.607,-16.3581"/>
</g>
<!-- Node3&#45;&gt;Node2 -->
<g id="edge3" class="edge"><title>Node3&#45;&gt;Node2</title>
<path fill="none" stroke="midnightblue" d="M259.58,-20.6438C269.057,-22.4265 278.243,-24.1547 285.779,-25.5723"/>
<polygon fill="midnightblue" stroke="midnightblue" points="260.131,-17.1862 249.657,-18.777 258.837,-24.0655 260.131,-17.1862"/>
</g>
</g>
</svg>
