<?xml version="1.0" encoding="UTF-8" standalone="no"?>
<!DOCTYPE svg PUBLIC "-//W3C//DTD SVG 1.1//EN"
 "http://www.w3.org/Graphics/SVG/1.1/DTD/svg11.dtd">
<!-- Generated by graphviz version 2.36.0 (20140111.2315)
 -->
<!-- Title: mutt_remove_xrefs Pages: 1 -->
<svg width="272pt" height="66pt"
 viewBox="0.00 0.00 272.00 66.00" xmlns="http://www.w3.org/2000/svg" xmlns:xlink="http://www.w3.org/1999/xlink">
<g id="graph0" class="graph" transform="scale(1 1) rotate(0) translate(4 62)">
<title>mutt_remove_xrefs</title>
<polygon fill="white" stroke="none" points="-4,4 -4,-62 268,-62 268,4 -4,4"/>
<!-- Node1 -->
<g id="node1" class="node"><title>Node1</title>
<polygon fill="#bfbfbf" stroke="black" points="0.5,-19.5 0.5,-38.5 101.5,-38.5 101.5,-19.5 0.5,-19.5"/>
<text text-anchor="middle" x="51" y="-26.5" font-family="Helvetica,sans-Serif" font-size="10.00">mutt_remove_xrefs</text>
</g>
<!-- Node2 -->
<g id="node2" class="node"><title>Node2</title>
<g id="a_node2"><a xlink:href="group_8c.html#aedb6af6c44f0b159f266b101038551a5" target="_top" xlink:title="Add an Address List to a Group. ">
<polygon fill="white" stroke="red" points="152,-38.5 152,-57.5 250,-57.5 250,-38.5 152,-38.5"/>
<text text-anchor="middle" x="201" y="-45.5" font-family="Helvetica,sans-Serif" font-size="10.00">group_add_addrlist</text>
</a>
</g>
</g>
<!-- Node1&#45;&gt;Node2 -->
<g id="edge1" class="edge"><title>Node1&#45;&gt;Node2</title>
<path fill="none" stroke="midnightblue" d="M111.703,-36.6646C124.995,-38.371 138.926,-40.1595 151.693,-41.7984"/>
<polygon fill="midnightblue" stroke="midnightblue" points="112.058,-33.1815 101.694,-35.3796 111.166,-40.1245 112.058,-33.1815"/>
</g>
<!-- Node3 -->
<g id="node3" class="node"><title>Node3</title>
<g id="a_node3"><a xlink:href="send_8h.html#a9804f2dbaf0406ea6803ba5a304aeab6" target="_top" xlink:title="Remove duplicate recipients. ">
<polygon fill="white" stroke="red" points="138.5,-0.5 138.5,-19.5 263.5,-19.5 263.5,-0.5 138.5,-0.5"/>
<text text-anchor="middle" x="201" y="-7.5" font-family="Helvetica,sans-Serif" font-size="10.00">mutt_fix_reply_recipients</text>
</a>
</g>
</g>
<!-- Node1&#45;&gt;Node3 -->
<g id="edge2" class="edge"><title>Node1&#45;&gt;Node3</title>
<path fill="none" stroke="midnightblue" d="M111.801,-21.3229C120.545,-20.2003 129.563,-19.0426 138.343,-17.9154"/>
<polygon fill="midnightblue" stroke="midnightblue" points="111.166,-17.8755 101.694,-22.6204 112.058,-24.8185 111.166,-17.8755"/>
</g>
</g>
</svg>
