<?xml version="1.0" encoding="UTF-8" standalone="no"?>
<!DOCTYPE svg PUBLIC "-//W3C//DTD SVG 1.1//EN"
 "http://www.w3.org/Graphics/SVG/1.1/DTD/svg11.dtd">
<!-- Generated by graphviz version 2.36.0 (20140111.2315)
 -->
<!-- Title: mutt_write_mime_header Pages: 1 -->
<svg width="480pt" height="350pt"
 viewBox="0.00 0.00 480.00 350.00" xmlns="http://www.w3.org/2000/svg" xmlns:xlink="http://www.w3.org/1999/xlink">
<g id="graph0" class="graph" transform="scale(1 1) rotate(0) translate(4 346)">
<title>mutt_write_mime_header</title>
<polygon fill="white" stroke="none" points="-4,4 -4,-346 476,-346 476,4 -4,4"/>
<!-- Node1 -->
<g id="node1" class="node"><title>Node1</title>
<polygon fill="#bfbfbf" stroke="black" points="0,-152.5 0,-171.5 126,-171.5 126,-152.5 0,-152.5"/>
<text text-anchor="middle" x="63" y="-159.5" font-family="Helvetica,sans-Serif" font-size="10.00">mutt_write_mime_header</text>
</g>
<!-- Node2 -->
<g id="node2" class="node"><title>Node2</title>
<g id="a_node2"><a xlink:href="copy_8h.html#a83d41783f47bc19055f396db29a6ceb6" target="_top" xlink:title="make a copy of a message from a FILE pointer ">
<polygon fill="white" stroke="red" points="166.5,-322.5 166.5,-341.5 287.5,-341.5 287.5,-322.5 166.5,-322.5"/>
<text text-anchor="middle" x="227" y="-329.5" font-family="Helvetica,sans-Serif" font-size="10.00">mutt_copy_message_fp</text>
</a>
</g>
</g>
<!-- Node1&#45;&gt;Node2 -->
<g id="edge1" class="edge"><title>Node1&#45;&gt;Node2</title>
<path fill="none" stroke="midnightblue" d="M71.9906,-180.889C85.9194,-211.679 117.471,-272.779 162,-308 169.818,-314.184 179.396,-318.893 188.737,-322.431"/>
<polygon fill="midnightblue" stroke="midnightblue" points="75.176,-179.438 67.9492,-171.69 68.7672,-182.254 75.176,-179.438"/>
</g>
<!-- Node3 -->
<g id="node3" class="node"><title>Node3</title>
<g id="a_node3"><a xlink:href="crypt__gpgme_8c.html#a5f88576e041b52a5e0196a77d808ad74" target="_top" xlink:title="Create GPGME object from the mail body. ">
<polygon fill="white" stroke="red" points="346.5,-281.5 346.5,-300.5 453.5,-300.5 453.5,-281.5 346.5,-281.5"/>
<text text-anchor="middle" x="400" y="-288.5" font-family="Helvetica,sans-Serif" font-size="10.00">body_to_data_object</text>
</a>
</g>
</g>
<!-- Node1&#45;&gt;Node3 -->
<g id="edge2" class="edge"><title>Node1&#45;&gt;Node3</title>
<path fill="none" stroke="midnightblue" d="M78.6956,-179.404C96.3606,-199.102 127.914,-230.576 162,-247 221.001,-275.43 296.436,-285.543 346.162,-289.111"/>
<polygon fill="midnightblue" stroke="midnightblue" points="81.2274,-176.983 72.0083,-171.762 75.9594,-181.592 81.2274,-176.983"/>
</g>
<!-- Node4 -->
<g id="node4" class="node"><title>Node4</title>
<g id="a_node4"><a xlink:href="pgp_8h.html#a12c1b61b61e1456fb4f358d563dcf64a" target="_top" xlink:title="Implements CryptModuleSpecs::sign_message() ">
<polygon fill="white" stroke="black" points="335.5,-241.5 335.5,-260.5 464.5,-260.5 464.5,-241.5 335.5,-241.5"/>
<text text-anchor="middle" x="400" y="-248.5" font-family="Helvetica,sans-Serif" font-size="10.00">pgp_class_sign_message</text>
</a>
</g>
</g>
<!-- Node1&#45;&gt;Node4 -->
<g id="edge3" class="edge"><title>Node1&#45;&gt;Node4</title>
<path fill="none" stroke="midnightblue" d="M84.693,-177.645C103.73,-191.181 133.281,-210.092 162,-220 218.585,-239.523 286.65,-246.887 335.292,-249.596"/>
<polygon fill="midnightblue" stroke="midnightblue" points="86.6305,-174.726 76.4844,-171.676 82.5135,-180.388 86.6305,-174.726"/>
</g>
<!-- Node5 -->
<g id="node5" class="node"><title>Node5</title>
<g id="a_node5"><a xlink:href="pgp_8h.html#a2402514e625cf2d0a44e3826056f17d9" target="_top" xlink:title="Implements CryptModuleSpecs::pgp_encrypt_message() ">
<polygon fill="white" stroke="black" points="328.5,-198.5 328.5,-217.5 471.5,-217.5 471.5,-198.5 328.5,-198.5"/>
<text text-anchor="middle" x="400" y="-205.5" font-family="Helvetica,sans-Serif" font-size="10.00">pgp_class_encrypt_message</text>
</a>
</g>
</g>
<!-- Node1&#45;&gt;Node5 -->
<g id="edge4" class="edge"><title>Node1&#45;&gt;Node5</title>
<path fill="none" stroke="midnightblue" d="M93.0492,-175.808C112.173,-184.179 138.016,-194.151 162,-199 217.09,-210.138 280.812,-211.957 328.299,-211.228"/>
<polygon fill="midnightblue" stroke="midnightblue" points="94.263,-172.516 83.7068,-171.612 91.3951,-178.902 94.263,-172.516"/>
</g>
<!-- Node6 -->
<g id="node6" class="node"><title>Node6</title>
<g id="a_node6"><a xlink:href="smime_8h.html#a7c447834a2bcda8aecc09a295778bbae" target="_top" xlink:title="Implements CryptModuleSpecs::smime_build_smime_entity() ">
<polygon fill="white" stroke="black" points="333,-139 333,-169 467,-169 467,-139 333,-139"/>
<text text-anchor="start" x="341" y="-157" font-family="Helvetica,sans-Serif" font-size="10.00">smime_class_build_smime</text>
<text text-anchor="middle" x="400" y="-146" font-family="Helvetica,sans-Serif" font-size="10.00">_entity</text>
</a>
</g>
</g>
<!-- Node1&#45;&gt;Node6 -->
<g id="edge5" class="edge"><title>Node1&#45;&gt;Node6</title>
<path fill="none" stroke="midnightblue" d="M113.649,-150.462C129.055,-147.399 146.15,-144.522 162,-143 219.607,-137.467 285.369,-141.321 332.982,-145.924"/>
<polygon fill="midnightblue" stroke="midnightblue" points="112.888,-147.045 103.799,-152.49 114.3,-153.902 112.888,-147.045"/>
</g>
<!-- Node7 -->
<g id="node7" class="node"><title>Node7</title>
<g id="a_node7"><a xlink:href="smime_8h.html#aab6734ab49c71e47278862ae0714cb96" target="_top" xlink:title="Implements CryptModuleSpecs::sign_message() ">
<polygon fill="white" stroke="black" points="328.5,-92.5 328.5,-111.5 471.5,-111.5 471.5,-92.5 328.5,-92.5"/>
<text text-anchor="middle" x="400" y="-99.5" font-family="Helvetica,sans-Serif" font-size="10.00">smime_class_sign_message</text>
</a>
</g>
</g>
<!-- Node1&#45;&gt;Node7 -->
<g id="edge6" class="edge"><title>Node1&#45;&gt;Node7</title>
<path fill="none" stroke="midnightblue" d="M107.921,-149.766C124.748,-145.351 144.18,-140.579 162,-137 217.56,-125.842 281.113,-116.647 328.412,-110.486"/>
<polygon fill="midnightblue" stroke="midnightblue" points="106.581,-146.501 97.8179,-152.456 108.382,-153.266 106.581,-146.501"/>
</g>
<!-- Node8 -->
<g id="node8" class="node"><title>Node8</title>
<g id="a_node8"><a xlink:href="sendlib_8h.html#a96e81f3dcb5a6c959a95ad70024cc2ec" target="_top" xlink:title="Write a MIME part. ">
<polygon fill="white" stroke="red" points="168,-152.5 168,-171.5 286,-171.5 286,-152.5 168,-152.5"/>
<text text-anchor="middle" x="227" y="-159.5" font-family="Helvetica,sans-Serif" font-size="10.00">mutt_write_mime_body</text>
</a>
</g>
</g>
<!-- Node1&#45;&gt;Node8 -->
<g id="edge7" class="edge"><title>Node1&#45;&gt;Node8</title>
<path fill="none" stroke="midnightblue" d="M136.264,-162C146.883,-162 157.704,-162 167.986,-162"/>
<polygon fill="midnightblue" stroke="midnightblue" points="136.17,-158.5 126.17,-162 136.17,-165.5 136.17,-158.5"/>
</g>
<!-- Node9 -->
<g id="node9" class="node"><title>Node9</title>
<g id="a_node9"><a xlink:href="sendlib_8h.html#af41734ef550be557043b573b7256ad9a" target="_top" xlink:title="Convert an email&#39;s MIME parts to 7&#45;bit. ">
<polygon fill="white" stroke="red" points="342,-46.5 342,-65.5 458,-65.5 458,-46.5 342,-46.5"/>
<text text-anchor="middle" x="400" y="-53.5" font-family="Helvetica,sans-Serif" font-size="10.00">mutt_message_to_7bit</text>
</a>
</g>
</g>
<!-- Node1&#45;&gt;Node9 -->
<g id="edge15" class="edge"><title>Node1&#45;&gt;Node9</title>
<path fill="none" stroke="midnightblue" d="M88.5384,-147.389C107.924,-136.367 135.96,-121.562 162,-112 221.73,-90.0677 293.142,-74.5686 341.856,-65.5187"/>
<polygon fill="midnightblue" stroke="midnightblue" points="86.6729,-144.424 79.7633,-152.456 90.1734,-150.486 86.6729,-144.424"/>
</g>
<!-- Node10 -->
<g id="node10" class="node"><title>Node10</title>
<g id="a_node10"><a xlink:href="sendlib_8h.html#ae59a6b56ab028e4d7bcd8e16a945f6cc" target="_top" xlink:title="Write out one RFC822 header line. ">
<polygon fill="white" stroke="red" points="162.5,-0.5 162.5,-19.5 291.5,-19.5 291.5,-0.5 162.5,-0.5"/>
<text text-anchor="middle" x="227" y="-7.5" font-family="Helvetica,sans-Serif" font-size="10.00">mutt_rfc822_write_header</text>
</a>
</g>
</g>
<!-- Node1&#45;&gt;Node10 -->
<g id="edge16" class="edge"><title>Node1&#45;&gt;Node10</title>
<path fill="none" stroke="midnightblue" d="M73.8799,-143.155C89.2406,-115.551 121.355,-64.14 162,-34 170.293,-27.8505 180.341,-23.1089 189.993,-19.5285"/>
<polygon fill="midnightblue" stroke="midnightblue" points="70.6846,-141.705 68.994,-152.164 76.838,-145.042 70.6846,-141.705"/>
</g>
<!-- Node8&#45;&gt;Node3 -->
<g id="edge8" class="edge"><title>Node8&#45;&gt;Node3</title>
<path fill="none" stroke="midnightblue" d="M240.092,-180.229C256.975,-204.278 289.863,-246.317 328,-270 335.753,-274.815 344.667,-278.574 353.502,-281.493"/>
<polygon fill="midnightblue" stroke="midnightblue" points="242.78,-177.959 234.24,-171.688 237.005,-181.916 242.78,-177.959"/>
</g>
<!-- Node8&#45;&gt;Node4 -->
<g id="edge9" class="edge"><title>Node8&#45;&gt;Node4</title>
<path fill="none" stroke="midnightblue" d="M248.841,-177.772C268.461,-192.068 299.074,-212.986 328,-227 339.71,-232.673 353.105,-237.576 365.082,-241.445"/>
<polygon fill="midnightblue" stroke="midnightblue" points="250.769,-174.845 240.646,-171.718 246.609,-180.475 250.769,-174.845"/>
</g>
<!-- Node8&#45;&gt;Node5 -->
<g id="edge10" class="edge"><title>Node8&#45;&gt;Node5</title>
<path fill="none" stroke="midnightblue" d="M273.094,-174.131C301.398,-181.744 337.373,-191.422 363.614,-198.481"/>
<polygon fill="midnightblue" stroke="midnightblue" points="273.997,-170.749 263.431,-171.531 272.179,-177.509 273.997,-170.749"/>
</g>
<!-- Node8&#45;&gt;Node6 -->
<g id="edge11" class="edge"><title>Node8&#45;&gt;Node6</title>
<path fill="none" stroke="midnightblue" d="M296.368,-158.802C308.429,-158.237 320.965,-157.651 332.961,-157.09"/>
<polygon fill="midnightblue" stroke="midnightblue" points="296.196,-155.306 286.37,-159.269 296.523,-162.298 296.196,-155.306"/>
</g>
<!-- Node8&#45;&gt;Node7 -->
<g id="edge12" class="edge"><title>Node8&#45;&gt;Node7</title>
<path fill="none" stroke="midnightblue" d="M264.589,-149.162C296.726,-137.886 342.755,-121.735 371.749,-111.562"/>
<polygon fill="midnightblue" stroke="midnightblue" points="263.373,-145.879 255.095,-152.493 265.69,-152.484 263.373,-145.879"/>
</g>
<!-- Node8&#45;&gt;Node8 -->
<g id="edge13" class="edge"><title>Node8&#45;&gt;Node8</title>
<path fill="none" stroke="midnightblue" d="M196.311,-180.275C197.186,-185.741 207.416,-190 227,-190 256.148,-190 264.574,-180.565 252.277,-171.757"/>
<polygon fill="midnightblue" stroke="midnightblue" points="199.314,-182.075 201.723,-171.757 193.406,-178.321 199.314,-182.075"/>
</g>
<!-- Node8&#45;&gt;Node9 -->
<g id="edge14" class="edge"><title>Node8&#45;&gt;Node9</title>
<path fill="none" stroke="midnightblue" d="M245.621,-145.309C264.709,-127.921 296.652,-100.783 328,-83 340.388,-75.9726 354.96,-70.0691 367.669,-65.592"/>
<polygon fill="midnightblue" stroke="midnightblue" points="243,-142.966 238.035,-152.325 247.753,-148.105 243,-142.966"/>
</g>
</g>
</svg>
