<?xml version="1.0" encoding="UTF-8" standalone="no"?>
<!DOCTYPE svg PUBLIC "-//W3C//DTD SVG 1.1//EN"
 "http://www.w3.org/Graphics/SVG/1.1/DTD/svg11.dtd">
<!-- Generated by graphviz version 2.36.0 (20140111.2315)
 -->
<!-- Title: mutt_bounce_message Pages: 1 -->
<svg width="406pt" height="360pt"
 viewBox="0.00 0.00 406.00 360.38" xmlns="http://www.w3.org/2000/svg" xmlns:xlink="http://www.w3.org/1999/xlink">
<g id="graph0" class="graph" transform="scale(1 1) rotate(0) translate(4 356.376)">
<title>mutt_bounce_message</title>
<polygon fill="white" stroke="none" points="-4,4 -4,-356.376 402,-356.376 402,4 -4,4"/>
<!-- Node1 -->
<g id="node1" class="node"><title>Node1</title>
<polygon fill="#bfbfbf" stroke="black" points="0,-171.5 0,-190.5 118,-190.5 118,-171.5 0,-171.5"/>
<text text-anchor="middle" x="59" y="-178.5" font-family="Helvetica,sans-Serif" font-size="10.00">mutt_bounce_message</text>
</g>
<!-- Node2 -->
<g id="node2" class="node"><title>Node2</title>
<g id="a_node2"><a xlink:href="sendlib_8c.html#a2b5c4f6a3ed63bac7f4d59bbeca72d2c" target="_top" xlink:title="Get the Fully&#45;Qualified Domain Name. ">
<polygon fill="white" stroke="black" points="325,-323.5 325,-342.5 385,-342.5 385,-323.5 325,-323.5"/>
<text text-anchor="middle" x="355" y="-330.5" font-family="Helvetica,sans-Serif" font-size="10.00">mutt_fqdn</text>
</a>
</g>
</g>
<!-- Node1&#45;&gt;Node2 -->
<g id="edge1" class="edge"><title>Node1&#45;&gt;Node2</title>
<path fill="none" stroke="midnightblue" d="M62.5015,-190.887C70.2926,-219.317 97.0856,-301.279 154,-333 204.014,-360.876 272.582,-352.839 315.047,-343.589"/>
<polygon fill="midnightblue" stroke="midnightblue" points="316.036,-346.953 324.994,-341.296 314.463,-340.132 316.036,-346.953"/>
</g>
<!-- Node3 -->
<g id="node3" class="node"><title>Node3</title>
<g id="a_node3"><a xlink:href="send_8c.html#aa57b6946b9f64b289da0da408ee27789" target="_top" xlink:title="Get a default &#39;from&#39; Address. ">
<polygon fill="white" stroke="red" points="167.5,-304.5 167.5,-323.5 262.5,-323.5 262.5,-304.5 167.5,-304.5"/>
<text text-anchor="middle" x="215" y="-311.5" font-family="Helvetica,sans-Serif" font-size="10.00">mutt_default_from</text>
</a>
</g>
</g>
<!-- Node1&#45;&gt;Node3 -->
<g id="edge2" class="edge"><title>Node1&#45;&gt;Node3</title>
<path fill="none" stroke="midnightblue" d="M65.8852,-190.509C79.1744,-211.272 113.523,-261.114 154,-290 159.645,-294.028 166.062,-297.511 172.549,-300.476"/>
<polygon fill="midnightblue" stroke="midnightblue" points="171.446,-303.809 182.021,-304.453 174.156,-297.355 171.446,-303.809"/>
</g>
<!-- Node4 -->
<g id="node4" class="node"><title>Node4</title>
<g id="a_node4"><a xlink:href="mutt_2string_8c.html#ae48085384a6545e0fac589a88243ea31" target="_top" xlink:title="Copy a string, safely. ">
<polygon fill="white" stroke="red" points="312.5,-266.5 312.5,-285.5 397.5,-285.5 397.5,-266.5 312.5,-266.5"/>
<text text-anchor="middle" x="355" y="-273.5" font-family="Helvetica,sans-Serif" font-size="10.00">mutt_str_strdup</text>
</a>
</g>
</g>
<!-- Node1&#45;&gt;Node4 -->
<g id="edge5" class="edge"><title>Node1&#45;&gt;Node4</title>
<path fill="none" stroke="midnightblue" d="M68.1603,-190.547C83.1839,-207.371 117.08,-241.94 154,-257 201.486,-276.37 260.404,-279.757 301.955,-279.131"/>
<polygon fill="midnightblue" stroke="midnightblue" points="302.212,-282.626 312.127,-278.893 302.048,-275.628 302.212,-282.626"/>
</g>
<!-- Node5 -->
<g id="node5" class="node"><title>Node5</title>
<g id="a_node5"><a xlink:href="email_2address_8c.html#ac4e28048c66d87462bf941c89bfaf08a" target="_top" xlink:title="Expand local names in an Address list using a hostname. ">
<polygon fill="white" stroke="red" points="168,-228.5 168,-247.5 262,-247.5 262,-228.5 168,-228.5"/>
<text text-anchor="middle" x="215" y="-235.5" font-family="Helvetica,sans-Serif" font-size="10.00">mutt_addr_qualify</text>
</a>
</g>
</g>
<!-- Node1&#45;&gt;Node5 -->
<g id="edge6" class="edge"><title>Node1&#45;&gt;Node5</title>
<path fill="none" stroke="midnightblue" d="M82.2237,-190.551C101.154,-198.55 129.156,-210.06 154,-219 160.005,-221.161 166.393,-223.325 172.676,-225.378"/>
<polygon fill="midnightblue" stroke="midnightblue" points="171.804,-228.773 182.395,-228.496 173.943,-222.108 171.804,-228.773"/>
</g>
<!-- Node6 -->
<g id="node6" class="node"><title>Node6</title>
<g id="a_node6"><a xlink:href="email_2rfc2047_8c.html#a19b03a80b48367cf63a33b4ce7f092ad" target="_top" xlink:title="Encode any RFC2047 headers, where required, in an Address list. ">
<polygon fill="white" stroke="red" points="154,-190.5 154,-209.5 276,-209.5 276,-190.5 154,-190.5"/>
<text text-anchor="middle" x="215" y="-197.5" font-family="Helvetica,sans-Serif" font-size="10.00">rfc2047_encode_addrlist</text>
</a>
</g>
</g>
<!-- Node1&#45;&gt;Node6 -->
<g id="edge7" class="edge"><title>Node1&#45;&gt;Node6</title>
<path fill="none" stroke="midnightblue" d="M118.221,-188.183C126.608,-189.218 135.312,-190.292 143.9,-191.351"/>
<polygon fill="midnightblue" stroke="midnightblue" points="143.55,-194.835 153.903,-192.585 144.407,-187.887 143.55,-194.835"/>
</g>
<!-- Node7 -->
<g id="node7" class="node"><title>Node7</title>
<g id="a_node7"><a xlink:href="email_2address_8c.html#adc78f8cb7c880c8a427dde656617ecf2" target="_top" xlink:title="Convert an Address list to Punycode. ">
<polygon fill="white" stroke="red" points="163,-152.5 163,-171.5 267,-171.5 267,-152.5 163,-152.5"/>
<text text-anchor="middle" x="215" y="-159.5" font-family="Helvetica,sans-Serif" font-size="10.00">mutt_addrlist_to_intl</text>
</a>
</g>
</g>
<!-- Node1&#45;&gt;Node7 -->
<g id="edge8" class="edge"><title>Node1&#45;&gt;Node7</title>
<path fill="none" stroke="midnightblue" d="M118.221,-173.817C129.437,-172.433 141.22,-170.979 152.536,-169.583"/>
<polygon fill="midnightblue" stroke="midnightblue" points="153.271,-173.019 162.767,-168.321 152.414,-166.072 153.271,-173.019"/>
</g>
<!-- Node8 -->
<g id="node8" class="node"><title>Node8</title>
<g id="a_node8"><a xlink:href="email_2address_8c.html#a261c737f5760766b245e5e8506b11b12" target="_top" xlink:title="Free a list of Addresses. ">
<polygon fill="white" stroke="red" points="174,-114.5 174,-133.5 256,-133.5 256,-114.5 174,-114.5"/>
<text text-anchor="middle" x="215" y="-121.5" font-family="Helvetica,sans-Serif" font-size="10.00">mutt_addr_free</text>
</a>
</g>
</g>
<!-- Node1&#45;&gt;Node8 -->
<g id="edge10" class="edge"><title>Node1&#45;&gt;Node8</title>
<path fill="none" stroke="midnightblue" d="M82.2237,-171.449C101.154,-163.45 129.156,-151.94 154,-143 160.005,-140.839 166.393,-138.675 172.676,-136.622"/>
<polygon fill="midnightblue" stroke="midnightblue" points="173.943,-139.892 182.395,-133.504 171.804,-133.227 173.943,-139.892"/>
</g>
<!-- Node9 -->
<g id="node9" class="node"><title>Node9</title>
<g id="a_node9"><a xlink:href="email_2address_8c.html#ac1ccf9a098991f797af50f11e6575695" target="_top" xlink:title="Write an Address to a buffer. ">
<polygon fill="white" stroke="red" points="172,-76.5 172,-95.5 258,-95.5 258,-76.5 172,-76.5"/>
<text text-anchor="middle" x="215" y="-83.5" font-family="Helvetica,sans-Serif" font-size="10.00">mutt_addr_write</text>
</a>
</g>
</g>
<!-- Node1&#45;&gt;Node9 -->
<g id="edge11" class="edge"><title>Node1&#45;&gt;Node9</title>
<path fill="none" stroke="midnightblue" d="M69.2721,-171.463C85.2102,-155.57 119.435,-123.583 154,-105 158.006,-102.846 162.295,-100.891 166.67,-99.1256"/>
<polygon fill="midnightblue" stroke="midnightblue" points="168.141,-102.313 176.307,-95.5632 165.714,-95.7477 168.141,-102.313"/>
</g>
<!-- Node10 -->
<g id="node10" class="node"><title>Node10</title>
<g id="a_node10"><a xlink:href="email_2address_8c.html#a6b3fad2ce581da1efea393b53d7940fb" target="_top" xlink:title="Copy a list of addresses. ">
<polygon fill="white" stroke="red" points="163,-38.5 163,-57.5 267,-57.5 267,-38.5 163,-38.5"/>
<text text-anchor="middle" x="215" y="-45.5" font-family="Helvetica,sans-Serif" font-size="10.00">mutt_addr_copy_list</text>
</a>
</g>
</g>
<!-- Node1&#45;&gt;Node10 -->
<g id="edge12" class="edge"><title>Node1&#45;&gt;Node10</title>
<path fill="none" stroke="midnightblue" d="M65.2352,-171.471C77.6913,-149.677 111.27,-95.8562 154,-67 156.941,-65.0136 160.103,-63.2253 163.38,-61.617"/>
<polygon fill="midnightblue" stroke="midnightblue" points="165.038,-64.7138 172.84,-57.5454 162.271,-58.284 165.038,-64.7138"/>
</g>
<!-- Node11 -->
<g id="node11" class="node"><title>Node11</title>
<g id="a_node11"><a xlink:href="sendlib_8c.html#a9a653a3e76847d5e165a910082e246cf" target="_top" xlink:title="Bounce an email message. ">
<polygon fill="white" stroke="red" points="168.5,-0.5 168.5,-19.5 261.5,-19.5 261.5,-0.5 168.5,-0.5"/>
<text text-anchor="middle" x="215" y="-7.5" font-family="Helvetica,sans-Serif" font-size="10.00">bounce_message</text>
</a>
</g>
</g>
<!-- Node1&#45;&gt;Node11 -->
<g id="edge13" class="edge"><title>Node1&#45;&gt;Node11</title>
<path fill="none" stroke="midnightblue" d="M63.3052,-171.156C72.8533,-144.217 103.088,-68.6609 154,-29 156.422,-27.1136 159.034,-25.4123 161.767,-23.8784"/>
<polygon fill="midnightblue" stroke="midnightblue" points="163.321,-27.0149 170.816,-19.5268 160.287,-20.7065 163.321,-27.0149"/>
</g>
<!-- Node3&#45;&gt;Node2 -->
<g id="edge3" class="edge"><title>Node3&#45;&gt;Node2</title>
<path fill="none" stroke="midnightblue" d="M262.721,-320.433C279.526,-322.746 298.307,-325.332 314.443,-327.554"/>
<polygon fill="midnightblue" stroke="midnightblue" points="314.234,-331.058 324.618,-328.955 315.188,-324.123 314.234,-331.058"/>
</g>
<!-- Node3&#45;&gt;Node4 -->
<g id="edge4" class="edge"><title>Node3&#45;&gt;Node4</title>
<path fill="none" stroke="midnightblue" d="M250.823,-304.411C268.638,-299.506 290.518,-293.48 309.539,-288.243"/>
<polygon fill="midnightblue" stroke="midnightblue" points="310.476,-291.615 319.188,-285.586 308.618,-284.866 310.476,-291.615"/>
</g>
<!-- Node7&#45;&gt;Node4 -->
<g id="edge9" class="edge"><title>Node7&#45;&gt;Node4</title>
<path fill="none" stroke="midnightblue" d="M257.167,-171.535C263.771,-174.032 270.299,-177.142 276,-181 305.885,-201.227 330.322,-236.183 343.469,-257.584"/>
<polygon fill="midnightblue" stroke="midnightblue" points="340.572,-259.559 348.694,-266.362 346.587,-255.979 340.572,-259.559"/>
</g>
</g>
</svg>
