<?xml version="1.0" encoding="UTF-8" standalone="no"?>
<!DOCTYPE svg PUBLIC "-//W3C//DTD SVG 1.1//EN"
 "http://www.w3.org/Graphics/SVG/1.1/DTD/svg11.dtd">
<!-- Generated by graphviz version 2.36.0 (20140111.2315)
 -->
<!-- Title: sendlib.c Pages: 1 -->
<svg width="2086pt" height="196pt"
 viewBox="0.00 0.00 2086.11 196.00" xmlns="http://www.w3.org/2000/svg" xmlns:xlink="http://www.w3.org/1999/xlink">
<g id="graph0" class="graph" transform="scale(1 1) rotate(0) translate(4 192)">
<title>sendlib.c</title>
<polygon fill="white" stroke="none" points="-4,4 -4,-192 2082.11,-192 2082.11,4 -4,4"/>
<!-- Node1 -->
<g id="node1" class="node"><title>Node1</title>
<polygon fill="#bfbfbf" stroke="black" points="1115,-168.5 1115,-187.5 1171,-187.5 1171,-168.5 1115,-168.5"/>
<text text-anchor="middle" x="1143" y="-175.5" font-family="Helvetica,sans-Serif" font-size="10.00">sendlib.c</text>
</g>
<!-- Node2 -->
<g id="node2" class="node"><title>Node2</title>
<polygon fill="white" stroke="#bfbfbf" points="-0.5,-112.5 -0.5,-131.5 50.5,-131.5 50.5,-112.5 -0.5,-112.5"/>
<text text-anchor="middle" x="25" y="-119.5" font-family="Helvetica,sans-Serif" font-size="10.00">config.h</text>
</g>
<!-- Node1&#45;&gt;Node2 -->
<g id="edge1" class="edge"><title>Node1&#45;&gt;Node2</title>
<path fill="none" stroke="midnightblue" d="M1114.55,-176.655C967.472,-174.748 291.526,-164.425 60.8559,-131.931"/>
<polygon fill="midnightblue" stroke="midnightblue" points="61.2686,-128.454 50.8668,-130.467 60.2535,-135.38 61.2686,-128.454"/>
</g>
<!-- Node3 -->
<g id="node3" class="node"><title>Node3</title>
<polygon fill="white" stroke="#bfbfbf" points="68.5,-112.5 68.5,-131.5 115.5,-131.5 115.5,-112.5 68.5,-112.5"/>
<text text-anchor="middle" x="92" y="-119.5" font-family="Helvetica,sans-Serif" font-size="10.00">errno.h</text>
</g>
<!-- Node1&#45;&gt;Node3 -->
<g id="edge2" class="edge"><title>Node1&#45;&gt;Node3</title>
<path fill="none" stroke="midnightblue" d="M1114.88,-176.601C974.029,-174.474 343.729,-163.428 125.722,-131.656"/>
<polygon fill="midnightblue" stroke="midnightblue" points="126.069,-128.169 115.656,-130.127 125.018,-135.089 126.069,-128.169"/>
</g>
<!-- Node4 -->
<g id="node4" class="node"><title>Node4</title>
<polygon fill="white" stroke="#bfbfbf" points="134,-112.5 134,-131.5 178,-131.5 178,-112.5 134,-112.5"/>
<text text-anchor="middle" x="156" y="-119.5" font-family="Helvetica,sans-Serif" font-size="10.00">fcntl.h</text>
</g>
<!-- Node1&#45;&gt;Node4 -->
<g id="edge3" class="edge"><title>Node1&#45;&gt;Node4</title>
<path fill="none" stroke="midnightblue" d="M1114.95,-176.421C977.806,-173.477 376.99,-159.227 192,-132 190.745,-131.815 189.47,-131.606 188.186,-131.376"/>
<polygon fill="midnightblue" stroke="midnightblue" points="188.837,-127.937 178.331,-129.309 187.4,-134.788 188.837,-127.937"/>
</g>
<!-- Node5 -->
<g id="node5" class="node"><title>Node5</title>
<polygon fill="white" stroke="#bfbfbf" points="326,-56.5 326,-75.5 374,-75.5 374,-56.5 326,-56.5"/>
<text text-anchor="middle" x="350" y="-63.5" font-family="Helvetica,sans-Serif" font-size="10.00">iconv.h</text>
</g>
<!-- Node1&#45;&gt;Node5 -->
<g id="edge4" class="edge"><title>Node1&#45;&gt;Node5</title>
<path fill="none" stroke="midnightblue" d="M1114.59,-176.488C975.065,-173.839 368.126,-160.69 341,-132 329.299,-119.624 334.334,-99.5354 340.548,-84.9629"/>
<polygon fill="midnightblue" stroke="midnightblue" points="343.715,-86.4522 344.847,-75.9181 337.393,-83.4471 343.715,-86.4522"/>
</g>
<!-- Node6 -->
<g id="node6" class="node"><title>Node6</title>
<polygon fill="white" stroke="#bfbfbf" points="234.5,-112.5 234.5,-131.5 293.5,-131.5 293.5,-112.5 234.5,-112.5"/>
<text text-anchor="middle" x="264" y="-119.5" font-family="Helvetica,sans-Serif" font-size="10.00">inttypes.h</text>
</g>
<!-- Node1&#45;&gt;Node6 -->
<g id="edge5" class="edge"><title>Node1&#45;&gt;Node6</title>
<path fill="none" stroke="midnightblue" d="M1114.75,-176.989C1008.46,-176.627 622.622,-172.429 308,-132 306.55,-131.814 305.076,-131.606 303.59,-131.382"/>
<polygon fill="midnightblue" stroke="midnightblue" points="304.168,-127.93 293.722,-129.7 302.992,-134.831 304.168,-127.93"/>
</g>
<!-- Node7 -->
<g id="node7" class="node"><title>Node7</title>
<polygon fill="white" stroke="#bfbfbf" points="663,-0.5 663,-19.5 711,-19.5 711,-0.5 663,-0.5"/>
<text text-anchor="middle" x="687" y="-7.5" font-family="Helvetica,sans-Serif" font-size="10.00">limits.h</text>
</g>
<!-- Node1&#45;&gt;Node7 -->
<g id="edge6" class="edge"><title>Node1&#45;&gt;Node7</title>
<path fill="none" stroke="midnightblue" d="M1114.62,-176.695C963.315,-174.935 257.393,-164.972 226,-132 177.608,-81.1754 187.371,-101.322 317,-56 435.039,-14.7304 585.701,-10.1246 652.476,-10.3466"/>
<polygon fill="midnightblue" stroke="midnightblue" points="652.802,-13.849 662.828,-10.4231 652.854,-6.84922 652.802,-13.849"/>
</g>
<!-- Node8 -->
<g id="node8" class="node"><title>Node8</title>
<polygon fill="white" stroke="#bfbfbf" points="1399,-56.5 1399,-75.5 1449,-75.5 1449,-56.5 1399,-56.5"/>
<text text-anchor="middle" x="1424" y="-63.5" font-family="Helvetica,sans-Serif" font-size="10.00">signal.h</text>
</g>
<!-- Node1&#45;&gt;Node8 -->
<g id="edge7" class="edge"><title>Node1&#45;&gt;Node8</title>
<path fill="none" stroke="midnightblue" d="M1166.73,-168.413C1191.18,-159.507 1230.37,-145.081 1264,-132 1309.58,-114.27 1362.04,-92.743 1394.1,-79.4572"/>
<polygon fill="midnightblue" stroke="midnightblue" points="1395.47,-82.6778 1403.37,-75.6119 1392.79,-76.2124 1395.47,-82.6778"/>
</g>
<!-- Node9 -->
<g id="node9" class="node"><title>Node9</title>
<polygon fill="white" stroke="#bfbfbf" points="1089,-0.5 1089,-19.5 1145,-19.5 1145,-0.5 1089,-0.5"/>
<text text-anchor="middle" x="1117" y="-7.5" font-family="Helvetica,sans-Serif" font-size="10.00">stdbool.h</text>
</g>
<!-- Node1&#45;&gt;Node9 -->
<g id="edge8" class="edge"><title>Node1&#45;&gt;Node9</title>
<path fill="none" stroke="midnightblue" d="M1114.78,-176.179C1045.57,-173.678 869.579,-164.235 822,-132 798.268,-115.922 797.358,-103.705 790,-76 787.719,-67.4089 784.159,-62.7002 790,-56 827.045,-13.5075 1000.29,-9.74994 1078.51,-10.287"/>
<polygon fill="midnightblue" stroke="midnightblue" points="1078.86,-13.7904 1088.89,-10.3877 1078.92,-6.79076 1078.86,-13.7904"/>
</g>
<!-- Node10 -->
<g id="node10" class="node"><title>Node10</title>
<polygon fill="white" stroke="#bfbfbf" points="1597,-0.5 1597,-19.5 1643,-19.5 1643,-0.5 1597,-0.5"/>
<text text-anchor="middle" x="1620" y="-7.5" font-family="Helvetica,sans-Serif" font-size="10.00">stdio.h</text>
</g>
<!-- Node1&#45;&gt;Node10 -->
<g id="edge9" class="edge"><title>Node1&#45;&gt;Node10</title>
<path fill="none" stroke="midnightblue" d="M1171.4,-176.877C1303.12,-176.101 1850.96,-170.563 1916,-132 1947.99,-113.035 1975.55,-83.9331 1951,-56 1909.88,-9.20875 1734.61,-29.2162 1673,-20 1666.58,-19.0395 1659.73,-17.9364 1653.17,-16.8392"/>
<polygon fill="midnightblue" stroke="midnightblue" points="1653.63,-13.3677 1643.19,-15.1412 1652.46,-20.2686 1653.63,-13.3677"/>
</g>
<!-- Node11 -->
<g id="node11" class="node"><title>Node11</title>
<polygon fill="white" stroke="#bfbfbf" points="500,-112.5 500,-131.5 548,-131.5 548,-112.5 500,-112.5"/>
<text text-anchor="middle" x="524" y="-119.5" font-family="Helvetica,sans-Serif" font-size="10.00">stdlib.h</text>
</g>
<!-- Node1&#45;&gt;Node11 -->
<g id="edge10" class="edge"><title>Node1&#45;&gt;Node11</title>
<path fill="none" stroke="midnightblue" d="M1114.77,-176.644C1029.91,-175.188 769.912,-167.89 558,-132 557.898,-131.983 557.797,-131.965 557.695,-131.948"/>
<polygon fill="midnightblue" stroke="midnightblue" points="558.53,-128.547 548.027,-129.939 557.106,-135.4 558.53,-128.547"/>
</g>
<!-- Node12 -->
<g id="node12" class="node"><title>Node12</title>
<polygon fill="white" stroke="#bfbfbf" points="566.5,-112.5 566.5,-131.5 615.5,-131.5 615.5,-112.5 566.5,-112.5"/>
<text text-anchor="middle" x="591" y="-119.5" font-family="Helvetica,sans-Serif" font-size="10.00">string.h</text>
</g>
<!-- Node1&#45;&gt;Node12 -->
<g id="edge11" class="edge"><title>Node1&#45;&gt;Node12</title>
<path fill="none" stroke="midnightblue" d="M1114.99,-176.259C1038.2,-173.872 817.893,-164.63 625.768,-131.818"/>
<polygon fill="midnightblue" stroke="midnightblue" points="626.224,-128.345 615.773,-130.085 625.028,-135.242 626.224,-128.345"/>
</g>
<!-- Node13 -->
<g id="node13" class="node"><title>Node13</title>
<polygon fill="white" stroke="#bfbfbf" points="634,-112.5 634,-131.5 694,-131.5 694,-112.5 634,-112.5"/>
<text text-anchor="middle" x="664" y="-119.5" font-family="Helvetica,sans-Serif" font-size="10.00">sys/stat.h</text>
</g>
<!-- Node1&#45;&gt;Node13 -->
<g id="edge12" class="edge"><title>Node1&#45;&gt;Node13</title>
<path fill="none" stroke="midnightblue" d="M1114.78,-175.341C1046.16,-171.045 864.982,-158.143 704.229,-132.011"/>
<polygon fill="midnightblue" stroke="midnightblue" points="704.595,-128.524 694.159,-130.352 703.457,-135.431 704.595,-128.524"/>
</g>
<!-- Node14 -->
<g id="node14" class="node"><title>Node14</title>
<polygon fill="white" stroke="#bfbfbf" points="712,-112.5 712,-131.5 774,-131.5 774,-112.5 712,-112.5"/>
<text text-anchor="middle" x="743" y="-119.5" font-family="Helvetica,sans-Serif" font-size="10.00">sys/wait.h</text>
</g>
<!-- Node1&#45;&gt;Node14 -->
<g id="edge13" class="edge"><title>Node1&#45;&gt;Node14</title>
<path fill="none" stroke="midnightblue" d="M1114.83,-174.12C1054.64,-167.814 909.096,-151.759 788,-132 786.899,-131.82 785.784,-131.633 784.66,-131.441"/>
<polygon fill="midnightblue" stroke="midnightblue" points="784.884,-127.924 774.419,-129.581 783.633,-134.811 784.884,-127.924"/>
</g>
<!-- Node15 -->
<g id="node15" class="node"><title>Node15</title>
<polygon fill="white" stroke="#bfbfbf" points="1682,-0.5 1682,-19.5 1726,-19.5 1726,-0.5 1682,-0.5"/>
<text text-anchor="middle" x="1704" y="-7.5" font-family="Helvetica,sans-Serif" font-size="10.00">time.h</text>
</g>
<!-- Node1&#45;&gt;Node15 -->
<g id="edge14" class="edge"><title>Node1&#45;&gt;Node15</title>
<path fill="none" stroke="midnightblue" d="M1171.1,-176.588C1320.92,-174.271 2020.05,-161.882 2054,-132 2079.57,-109.491 2086.55,-81.5407 2064,-56 2042.44,-31.5756 1820.58,-17.2372 1736.27,-12.6356"/>
<polygon fill="midnightblue" stroke="midnightblue" points="1736.4,-9.13803 1726.23,-12.0986 1736.03,-16.128 1736.4,-9.13803"/>
</g>
<!-- Node16 -->
<g id="node16" class="node"><title>Node16</title>
<polygon fill="white" stroke="#bfbfbf" points="1891.5,-56.5 1891.5,-75.5 1942.5,-75.5 1942.5,-56.5 1891.5,-56.5"/>
<text text-anchor="middle" x="1917" y="-63.5" font-family="Helvetica,sans-Serif" font-size="10.00">unistd.h</text>
</g>
<!-- Node1&#45;&gt;Node16 -->
<g id="edge15" class="edge"><title>Node1&#45;&gt;Node16</title>
<path fill="none" stroke="midnightblue" d="M1171.27,-177.146C1301.13,-177.572 1836.59,-176.596 1895,-132 1909.03,-121.284 1914.19,-101.188 1916.05,-86.165"/>
<polygon fill="midnightblue" stroke="midnightblue" points="1919.56,-86.165 1916.92,-75.9057 1912.59,-85.5752 1919.56,-86.165"/>
</g>
<!-- Node17 -->
<g id="node17" class="node"><title>Node17</title>
<g id="a_node17"><a xlink:href="mutt_2mutt_8h.html" target="_top" xlink:title="Convenience wrapper for the library headers. ">
<polygon fill="white" stroke="red" points="955.5,-56.5 955.5,-75.5 1022.5,-75.5 1022.5,-56.5 955.5,-56.5"/>
<text text-anchor="middle" x="989" y="-63.5" font-family="Helvetica,sans-Serif" font-size="10.00">mutt/mutt.h</text>
</a>
</g>
</g>
<!-- Node1&#45;&gt;Node17 -->
<g id="edge16" class="edge"><title>Node1&#45;&gt;Node17</title>
<path fill="none" stroke="midnightblue" d="M1114.76,-174.069C1085.92,-169.657 1041.6,-158.739 1014,-132 1001.27,-119.664 994.92,-100.136 991.819,-85.701"/>
<polygon fill="midnightblue" stroke="midnightblue" points="995.262,-85.0712 990.029,-75.859 988.375,-86.3239 995.262,-85.0712"/>
</g>
<!-- Node18 -->
<g id="node18" class="node"><title>Node18</title>
<g id="a_node18"><a xlink:href="lib_8h.html" target="_top" xlink:title="Convenience wrapper for the config headers. ">
<polygon fill="white" stroke="red" points="1079,-56.5 1079,-75.5 1143,-75.5 1143,-56.5 1079,-56.5"/>
<text text-anchor="middle" x="1111" y="-63.5" font-family="Helvetica,sans-Serif" font-size="10.00">config/lib.h</text>
</a>
</g>
</g>
<!-- Node1&#45;&gt;Node18 -->
<g id="edge17" class="edge"><title>Node1&#45;&gt;Node18</title>
<path fill="none" stroke="midnightblue" d="M1154.02,-168.208C1168.22,-155.75 1189.87,-132.226 1179,-112 1171.38,-97.8153 1157.1,-87.3516 1143.59,-80.1027"/>
<polygon fill="midnightblue" stroke="midnightblue" points="1144.97,-76.8791 1134.45,-75.5916 1141.87,-83.1562 1144.97,-76.8791"/>
</g>
<!-- Node19 -->
<g id="node19" class="node"><title>Node19</title>
<g id="a_node19"><a xlink:href="email_8h.html" target="_top" xlink:title="Structs that make up an email. ">
<polygon fill="white" stroke="red" points="1023,-112.5 1023,-131.5 1097,-131.5 1097,-112.5 1023,-112.5"/>
<text text-anchor="middle" x="1060" y="-119.5" font-family="Helvetica,sans-Serif" font-size="10.00">email/email.h</text>
</a>
</g>
</g>
<!-- Node1&#45;&gt;Node19 -->
<g id="edge18" class="edge"><title>Node1&#45;&gt;Node19</title>
<path fill="none" stroke="midnightblue" d="M1129.66,-168.324C1116.84,-159.979 1097.22,-147.212 1082.06,-137.352"/>
<polygon fill="midnightblue" stroke="midnightblue" points="1083.59,-134.174 1073.3,-131.655 1079.78,-140.042 1083.59,-134.174"/>
</g>
<!-- Node20 -->
<g id="node20" class="node"><title>Node20</title>
<g id="a_node20"><a xlink:href="mutt_8h.html" target="_top" xlink:title="Many unsorted constants and some structs. ">
<polygon fill="white" stroke="red" points="665,-56.5 665,-75.5 709,-75.5 709,-56.5 665,-56.5"/>
<text text-anchor="middle" x="687" y="-63.5" font-family="Helvetica,sans-Serif" font-size="10.00">mutt.h</text>
</a>
</g>
</g>
<!-- Node1&#45;&gt;Node20 -->
<g id="edge19" class="edge"><title>Node1&#45;&gt;Node20</title>
<path fill="none" stroke="midnightblue" d="M1114.64,-177.26C994.795,-178.069 534.065,-178.139 491,-132 484.935,-125.502 485.462,-118.953 491,-112 511.103,-86.7584 604.368,-74.5068 654.656,-69.6465"/>
<polygon fill="midnightblue" stroke="midnightblue" points="655.057,-73.1244 664.692,-68.7195 654.413,-66.1541 655.057,-73.1244"/>
</g>
<!-- Node21 -->
<g id="node21" class="node"><title>Node21</title>
<g id="a_node21"><a xlink:href="sendlib_8h.html" target="_top" xlink:title="Miscellaneous functions for sending an email. ">
<polygon fill="white" stroke="black" points="1325,-56.5 1325,-75.5 1381,-75.5 1381,-56.5 1325,-56.5"/>
<text text-anchor="middle" x="1353" y="-63.5" font-family="Helvetica,sans-Serif" font-size="10.00">sendlib.h</text>
</a>
</g>
</g>
<!-- Node1&#45;&gt;Node21 -->
<g id="edge22" class="edge"><title>Node1&#45;&gt;Node21</title>
<path fill="none" stroke="midnightblue" d="M1160.13,-168.498C1178.09,-159.542 1207.13,-144.966 1232,-132 1265.6,-114.484 1304.11,-93.6683 1328.49,-80.3987"/>
<polygon fill="midnightblue" stroke="midnightblue" points="1330.3,-83.3979 1337.4,-75.5386 1326.95,-77.2517 1330.3,-83.3979"/>
</g>
<!-- Node22 -->
<g id="node22" class="node"><title>Node22</title>
<g id="a_node22"><a xlink:href="context_8h.html" target="_top" xlink:title="The &quot;currently&#45;open&quot; mailbox. ">
<polygon fill="white" stroke="red" points="1675.5,-56.5 1675.5,-75.5 1732.5,-75.5 1732.5,-56.5 1675.5,-56.5"/>
<text text-anchor="middle" x="1704" y="-63.5" font-family="Helvetica,sans-Serif" font-size="10.00">context.h</text>
</a>
</g>
</g>
<!-- Node1&#45;&gt;Node22 -->
<g id="edge25" class="edge"><title>Node1&#45;&gt;Node22</title>
<path fill="none" stroke="midnightblue" d="M1171.25,-177.131C1286.48,-177.374 1716.71,-175.354 1757,-132 1772.54,-115.277 1749.16,-94.6549 1728.71,-81.1837"/>
<polygon fill="midnightblue" stroke="midnightblue" points="1730.29,-78.0448 1719.96,-75.7088 1726.58,-83.9794 1730.29,-78.0448"/>
</g>
<!-- Node23 -->
<g id="node23" class="node"><title>Node23</title>
<g id="a_node23"><a xlink:href="copy_8h.html" target="_top" xlink:title="Duplicate the structure of an entire email. ">
<polygon fill="white" stroke="black" points="1789,-56.5 1789,-75.5 1835,-75.5 1835,-56.5 1789,-56.5"/>
<text text-anchor="middle" x="1812" y="-63.5" font-family="Helvetica,sans-Serif" font-size="10.00">copy.h</text>
</a>
</g>
</g>
<!-- Node1&#45;&gt;Node23 -->
<g id="edge29" class="edge"><title>Node1&#45;&gt;Node23</title>
<path fill="none" stroke="midnightblue" d="M1171.03,-176.508C1286.44,-174.278 1721.2,-163.817 1773,-132 1790.13,-121.478 1800.7,-100.371 1806.44,-85.0567"/>
<polygon fill="midnightblue" stroke="midnightblue" points="1809.76,-86.1755 1809.67,-75.5811 1803.13,-83.9202 1809.76,-86.1755"/>
</g>
<!-- Node24 -->
<g id="node24" class="node"><title>Node24</title>
<g id="a_node24"><a xlink:href="curs__lib_8h.html" target="_top" xlink:title="GUI miscellaneous curses (window drawing) routines. ">
<polygon fill="white" stroke="red" points="830.5,-112.5 830.5,-131.5 889.5,-131.5 889.5,-112.5 830.5,-112.5"/>
<text text-anchor="middle" x="860" y="-119.5" font-family="Helvetica,sans-Serif" font-size="10.00">curs_lib.h</text>
</a>
</g>
</g>
<!-- Node1&#45;&gt;Node24 -->
<g id="edge31" class="edge"><title>Node1&#45;&gt;Node24</title>
<path fill="none" stroke="midnightblue" d="M1114.74,-172.208C1070.94,-164.69 983.786,-149.372 899.746,-132.079"/>
<polygon fill="midnightblue" stroke="midnightblue" points="900.283,-128.616 889.781,-130.016 898.863,-135.47 900.283,-128.616"/>
</g>
<!-- Node25 -->
<g id="node25" class="node"><title>Node25</title>
<g id="a_node25"><a xlink:href="filter_8h.html" target="_top" xlink:title="Pass files through external commands (filters) ">
<polygon fill="white" stroke="black" points="1843,-112.5 1843,-131.5 1887,-131.5 1887,-112.5 1843,-112.5"/>
<text text-anchor="middle" x="1865" y="-119.5" font-family="Helvetica,sans-Serif" font-size="10.00">filter.h</text>
</a>
</g>
</g>
<!-- Node1&#45;&gt;Node25 -->
<g id="edge35" class="edge"><title>Node1&#45;&gt;Node25</title>
<path fill="none" stroke="midnightblue" d="M1171.3,-176.956C1265.38,-176.427 1576.07,-171.584 1829,-132 1830.25,-131.804 1831.53,-131.585 1832.81,-131.347"/>
<polygon fill="midnightblue" stroke="midnightblue" points="1833.61,-134.755 1842.66,-129.245 1832.15,-127.909 1833.61,-134.755"/>
</g>
<!-- Node26 -->
<g id="node26" class="node"><title>Node26</title>
<g id="a_node26"><a xlink:href="globals_8h.html" target="_top" xlink:title="Hundreds of global variables to back the user variables. ">
<polygon fill="white" stroke="red" points="1115,-112.5 1115,-131.5 1171,-131.5 1171,-112.5 1115,-112.5"/>
<text text-anchor="middle" x="1143" y="-119.5" font-family="Helvetica,sans-Serif" font-size="10.00">globals.h</text>
</a>
</g>
</g>
<!-- Node1&#45;&gt;Node26 -->
<g id="edge38" class="edge"><title>Node1&#45;&gt;Node26</title>
<path fill="none" stroke="midnightblue" d="M1143,-168.083C1143,-161.006 1143,-150.861 1143,-141.986"/>
<polygon fill="midnightblue" stroke="midnightblue" points="1146.5,-141.751 1143,-131.751 1139.5,-141.751 1146.5,-141.751"/>
</g>
<!-- Node27 -->
<g id="node27" class="node"><title>Node27</title>
<g id="a_node27"><a xlink:href="handler_8h.html" target="_top" xlink:title="Decide how to display email content. ">
<polygon fill="white" stroke="red" points="350,-112.5 350,-131.5 406,-131.5 406,-112.5 350,-112.5"/>
<text text-anchor="middle" x="378" y="-119.5" font-family="Helvetica,sans-Serif" font-size="10.00">handler.h</text>
</a>
</g>
</g>
<!-- Node1&#45;&gt;Node27 -->
<g id="edge43" class="edge"><title>Node1&#45;&gt;Node27</title>
<path fill="none" stroke="midnightblue" d="M1114.94,-176.753C1018.05,-175.583 688.807,-168.956 420,-132 418.753,-131.829 417.489,-131.641 416.213,-131.439"/>
<polygon fill="midnightblue" stroke="midnightblue" points="416.825,-127.993 406.365,-129.677 415.592,-134.884 416.825,-127.993"/>
</g>
<!-- Node28 -->
<g id="node28" class="node"><title>Node28</title>
<g id="a_node28"><a xlink:href="mailbox_8h.html" target="_top" xlink:title="Representation of a mailbox. ">
<polygon fill="white" stroke="red" points="907.5,-112.5 907.5,-131.5 966.5,-131.5 966.5,-112.5 907.5,-112.5"/>
<text text-anchor="middle" x="937" y="-119.5" font-family="Helvetica,sans-Serif" font-size="10.00">mailbox.h</text>
</a>
</g>
</g>
<!-- Node1&#45;&gt;Node28 -->
<g id="edge46" class="edge"><title>Node1&#45;&gt;Node28</title>
<path fill="none" stroke="midnightblue" d="M1114.79,-169.605C1078.93,-160.205 1016.83,-143.927 976.336,-133.311"/>
<polygon fill="midnightblue" stroke="midnightblue" points="977.095,-129.892 966.534,-130.742 975.32,-136.663 977.095,-129.892"/>
</g>
<!-- Node29 -->
<g id="node29" class="node"><title>Node29</title>
<g id="a_node29"><a xlink:href="mutt__parse_8h.html" target="_top" xlink:title="Miscellaneous email parsing routines. ">
<polygon fill="white" stroke="black" points="1573,-112.5 1573,-131.5 1647,-131.5 1647,-112.5 1573,-112.5"/>
<text text-anchor="middle" x="1610" y="-119.5" font-family="Helvetica,sans-Serif" font-size="10.00">mutt_parse.h</text>
</a>
</g>
</g>
<!-- Node1&#45;&gt;Node29 -->
<g id="edge51" class="edge"><title>Node1&#45;&gt;Node29</title>
<path fill="none" stroke="midnightblue" d="M1171.12,-174.794C1237.36,-169.425 1408.55,-154.551 1562.72,-131.91"/>
<polygon fill="midnightblue" stroke="midnightblue" points="1563.47,-135.337 1572.85,-130.407 1562.44,-128.413 1563.47,-135.337"/>
</g>
<!-- Node30 -->
<g id="node30" class="node"><title>Node30</title>
<g id="a_node30"><a xlink:href="mutt__window_8h.html" target="_top" xlink:title="Window management. ">
<polygon fill="white" stroke="red" points="1665.5,-112.5 1665.5,-131.5 1748.5,-131.5 1748.5,-112.5 1665.5,-112.5"/>
<text text-anchor="middle" x="1707" y="-119.5" font-family="Helvetica,sans-Serif" font-size="10.00">mutt_window.h</text>
</a>
</g>
</g>
<!-- Node1&#45;&gt;Node30 -->
<g id="edge52" class="edge"><title>Node1&#45;&gt;Node30</title>
<path fill="none" stroke="midnightblue" d="M1171.18,-175.394C1247.41,-170.866 1464.27,-156.771 1655.35,-131.968"/>
<polygon fill="midnightblue" stroke="midnightblue" points="1655.84,-135.435 1665.3,-130.664 1654.93,-128.494 1655.84,-135.435"/>
</g>
<!-- Node31 -->
<g id="node31" class="node"><title>Node31</title>
<g id="a_node31"><a xlink:href="muttlib_8h.html" target="_top" xlink:title="Some miscellaneous functions. ">
<polygon fill="white" stroke="red" points="1379,-112.5 1379,-131.5 1433,-131.5 1433,-112.5 1379,-112.5"/>
<text text-anchor="middle" x="1406" y="-119.5" font-family="Helvetica,sans-Serif" font-size="10.00">muttlib.h</text>
</a>
</g>
</g>
<!-- Node1&#45;&gt;Node31 -->
<g id="edge53" class="edge"><title>Node1&#45;&gt;Node31</title>
<path fill="none" stroke="midnightblue" d="M1171.07,-171.461C1213.22,-163.109 1295.36,-146.701 1365,-132 1366.24,-131.738 1367.51,-131.469 1368.78,-131.197"/>
<polygon fill="midnightblue" stroke="midnightblue" points="1369.63,-134.595 1378.67,-129.064 1368.15,-127.752 1369.63,-134.595"/>
</g>
<!-- Node32 -->
<g id="node32" class="node"><title>Node32</title>
<g id="a_node32"><a xlink:href="mx_8h.html" target="_top" xlink:title="API for mailboxes. ">
<polygon fill="white" stroke="red" points="1581,-56.5 1581,-75.5 1619,-75.5 1619,-56.5 1581,-56.5"/>
<text text-anchor="middle" x="1600" y="-63.5" font-family="Helvetica,sans-Serif" font-size="10.00">mx.h</text>
</a>
</g>
</g>
<!-- Node1&#45;&gt;Node32 -->
<g id="edge57" class="edge"><title>Node1&#45;&gt;Node32</title>
<path fill="none" stroke="midnightblue" d="M1171.31,-175.786C1225.22,-172.815 1345.82,-162.982 1442,-132 1460.54,-126.028 1463.2,-119.902 1481,-112 1511.21,-98.5939 1546.76,-85.4864 1571.08,-76.9081"/>
<polygon fill="midnightblue" stroke="midnightblue" points="1572.49,-80.1247 1580.77,-73.5213 1570.18,-73.5167 1572.49,-80.1247"/>
</g>
<!-- Node33 -->
<g id="node33" class="node"><title>Node33</title>
<g id="a_node33"><a xlink:href="ncrypt_8h.html" target="_top" xlink:title="API for encryption/signing of emails. ">
<polygon fill="white" stroke="black" points="1225,-56.5 1225,-75.5 1307,-75.5 1307,-56.5 1225,-56.5"/>
<text text-anchor="middle" x="1266" y="-63.5" font-family="Helvetica,sans-Serif" font-size="10.00">ncrypt/ncrypt.h</text>
</a>
</g>
</g>
<!-- Node1&#45;&gt;Node33 -->
<g id="edge61" class="edge"><title>Node1&#45;&gt;Node33</title>
<path fill="none" stroke="midnightblue" d="M1157.66,-168.491C1171.57,-160.088 1192.7,-146.433 1209,-132 1225.78,-117.146 1242.37,-97.5104 1253.29,-83.7221"/>
<polygon fill="midnightblue" stroke="midnightblue" points="1256.22,-85.6584 1259.59,-75.6147 1250.69,-81.363 1256.22,-85.6584"/>
</g>
<!-- Node34 -->
<g id="node34" class="node"><title>Node34</title>
<g id="a_node34"><a xlink:href="options_8h.html" target="_top" xlink:title="Handling of global boolean variables. ">
<polygon fill="white" stroke="red" points="500,-56.5 500,-75.5 556,-75.5 556,-56.5 500,-56.5"/>
<text text-anchor="middle" x="528" y="-63.5" font-family="Helvetica,sans-Serif" font-size="10.00">options.h</text>
</a>
</g>
</g>
<!-- Node1&#45;&gt;Node34 -->
<g id="edge64" class="edge"><title>Node1&#45;&gt;Node34</title>
<path fill="none" stroke="midnightblue" d="M1114.66,-177.289C993.805,-178.228 525.727,-178.805 482,-132 467.239,-116.2 487.685,-95.4433 505.828,-81.6847"/>
<polygon fill="midnightblue" stroke="midnightblue" points="508.301,-84.2184 514.386,-75.5449 504.22,-78.5309 508.301,-84.2184"/>
</g>
<!-- Node35 -->
<g id="node35" class="node"><title>Node35</title>
<g id="a_node35"><a xlink:href="send_8h.html" target="_top" xlink:title="Prepare and send an email. ">
<polygon fill="white" stroke="black" points="1161,-56.5 1161,-75.5 1207,-75.5 1207,-56.5 1161,-56.5"/>
<text text-anchor="middle" x="1184" y="-63.5" font-family="Helvetica,sans-Serif" font-size="10.00">send.h</text>
</a>
</g>
</g>
<!-- Node1&#45;&gt;Node35 -->
<g id="edge66" class="edge"><title>Node1&#45;&gt;Node35</title>
<path fill="none" stroke="midnightblue" d="M1158.73,-168.236C1170.89,-160.481 1186.81,-147.929 1194,-132 1200.67,-117.219 1196.86,-98.8313 1192.15,-85.3889"/>
<polygon fill="midnightblue" stroke="midnightblue" points="1195.3,-83.8365 1188.36,-75.8319 1188.79,-86.4178 1195.3,-83.8365"/>
</g>
<!-- Node36 -->
<g id="node36" class="node"><title>Node36</title>
<g id="a_node36"><a xlink:href="smtp_8h.html" target="_top" xlink:title="Send email to an SMTP server. ">
<polygon fill="white" stroke="black" points="1981.5,-112.5 1981.5,-131.5 2028.5,-131.5 2028.5,-112.5 1981.5,-112.5"/>
<text text-anchor="middle" x="2005" y="-119.5" font-family="Helvetica,sans-Serif" font-size="10.00">smtp.h</text>
</a>
</g>
</g>
<!-- Node1&#45;&gt;Node36 -->
<g id="edge69" class="edge"><title>Node1&#45;&gt;Node36</title>
<path fill="none" stroke="midnightblue" d="M1171.28,-177.271C1276.83,-177.9 1657.53,-176.734 1967,-132 1968.47,-131.788 1969.96,-131.546 1971.47,-131.282"/>
<polygon fill="midnightblue" stroke="midnightblue" points="1972.3,-134.685 1981.41,-129.274 1970.91,-127.823 1972.3,-134.685"/>
</g>
<!-- Node37 -->
<g id="node37" class="node"><title>Node37</title>
<g id="a_node37"><a xlink:href="state_8h.html" target="_top" xlink:title="Keep track when processing files. ">
<polygon fill="white" stroke="black" points="2008.5,-56.5 2008.5,-75.5 2055.5,-75.5 2055.5,-56.5 2008.5,-56.5"/>
<text text-anchor="middle" x="2032" y="-63.5" font-family="Helvetica,sans-Serif" font-size="10.00">state.h</text>
</a>
</g>
</g>
<!-- Node1&#45;&gt;Node37 -->
<g id="edge70" class="edge"><title>Node1&#45;&gt;Node37</title>
<path fill="none" stroke="midnightblue" d="M1171.16,-176.661C1319.69,-174.739 2006.45,-164.131 2037,-132 2048.67,-119.724 2044.99,-99.5842 2039.91,-84.9718"/>
<polygon fill="midnightblue" stroke="midnightblue" points="2043.1,-83.5149 2036.17,-75.5002 2036.59,-86.0867 2043.1,-83.5149"/>
</g>
<!-- Node38 -->
<g id="node38" class="node"><title>Node38</title>
<g id="a_node38"><a xlink:href="nntp_8h.html" target="_top" xlink:title="Usenet network mailbox type; talk to an NNTP server. ">
<polygon fill="white" stroke="red" points="1489.5,-112.5 1489.5,-131.5 1554.5,-131.5 1554.5,-112.5 1489.5,-112.5"/>
<text text-anchor="middle" x="1522" y="-119.5" font-family="Helvetica,sans-Serif" font-size="10.00">nntp/nntp.h</text>
</a>
</g>
</g>
<!-- Node1&#45;&gt;Node38 -->
<g id="edge72" class="edge"><title>Node1&#45;&gt;Node38</title>
<path fill="none" stroke="midnightblue" d="M1171.06,-173.72C1228.33,-166.911 1362.77,-150.337 1475,-132 1476.46,-131.761 1477.95,-131.512 1479.44,-131.256"/>
<polygon fill="midnightblue" stroke="midnightblue" points="1480.19,-134.677 1489.42,-129.476 1478.97,-127.786 1480.19,-134.677"/>
</g>
<!-- Node20&#45;&gt;Node7 -->
<g id="edge20" class="edge"><title>Node20&#45;&gt;Node7</title>
<path fill="none" stroke="midnightblue" d="M687,-56.083C687,-49.0059 687,-38.8611 687,-29.9865"/>
<polygon fill="midnightblue" stroke="midnightblue" points="690.5,-29.751 687,-19.7511 683.5,-29.7511 690.5,-29.751"/>
</g>
<!-- Node20&#45;&gt;Node9 -->
<g id="edge21" class="edge"><title>Node20&#45;&gt;Node9</title>
<path fill="none" stroke="midnightblue" d="M709.37,-58.9248C713.86,-57.8419 718.563,-56.8045 723,-56 852.193,-32.5776 1007.56,-19.0793 1078.4,-13.7175"/>
<polygon fill="midnightblue" stroke="midnightblue" points="1078.91,-17.189 1088.63,-12.9559 1078.39,-10.2083 1078.91,-17.189"/>
</g>
<!-- Node21&#45;&gt;Node9 -->
<g id="edge23" class="edge"><title>Node21&#45;&gt;Node9</title>
<path fill="none" stroke="midnightblue" d="M1324.73,-58.0735C1321.78,-57.3665 1318.83,-56.6646 1316,-56 1260.01,-42.8607 1194.99,-28.2865 1154.92,-19.3831"/>
<polygon fill="midnightblue" stroke="midnightblue" points="1155.57,-15.9413 1145.05,-17.1915 1154.05,-22.775 1155.57,-15.9413"/>
</g>
<!-- Node21&#45;&gt;Node10 -->
<g id="edge24" class="edge"><title>Node21&#45;&gt;Node10</title>
<path fill="none" stroke="midnightblue" d="M1381.25,-57.9883C1384.2,-57.298 1387.16,-56.6232 1390,-56 1459.72,-40.7077 1541.9,-25.2415 1586.72,-17.0215"/>
<polygon fill="midnightblue" stroke="midnightblue" points="1587.54,-20.4288 1596.75,-15.1881 1586.28,-13.5429 1587.54,-20.4288"/>
</g>
<!-- Node22&#45;&gt;Node9 -->
<g id="edge26" class="edge"><title>Node22&#45;&gt;Node9</title>
<path fill="none" stroke="midnightblue" d="M1675.15,-61.377C1660.96,-59.6477 1643.6,-57.6097 1628,-56 1451.51,-37.7827 1240.23,-20.6657 1155.21,-13.9699"/>
<polygon fill="midnightblue" stroke="midnightblue" points="1155.24,-10.4622 1145,-13.1686 1154.7,-17.4408 1155.24,-10.4622"/>
</g>
<!-- Node22&#45;&gt;Node10 -->
<g id="edge27" class="edge"><title>Node22&#45;&gt;Node10</title>
<path fill="none" stroke="midnightblue" d="M1690.5,-56.324C1677.4,-47.9002 1657.29,-34.9709 1641.89,-25.0741"/>
<polygon fill="midnightblue" stroke="midnightblue" points="1643.77,-22.118 1633.46,-19.6545 1639.98,-28.0063 1643.77,-22.118"/>
</g>
<!-- Node22&#45;&gt;Node15 -->
<g id="edge28" class="edge"><title>Node22&#45;&gt;Node15</title>
<path fill="none" stroke="midnightblue" d="M1704,-56.083C1704,-49.0059 1704,-38.8611 1704,-29.9865"/>
<polygon fill="midnightblue" stroke="midnightblue" points="1707.5,-29.751 1704,-19.7511 1700.5,-29.7511 1707.5,-29.751"/>
</g>
<!-- Node23&#45;&gt;Node10 -->
<g id="edge30" class="edge"><title>Node23&#45;&gt;Node10</title>
<path fill="none" stroke="midnightblue" d="M1788.84,-58.4863C1754.96,-48.9587 1691.73,-31.1747 1653,-20.2812"/>
<polygon fill="midnightblue" stroke="midnightblue" points="1653.82,-16.875 1643.24,-17.5368 1651.92,-23.6136 1653.82,-16.875"/>
</g>
<!-- Node24&#45;&gt;Node9 -->
<g id="edge32" class="edge"><title>Node24&#45;&gt;Node9</title>
<path fill="none" stroke="midnightblue" d="M841.432,-112.367C817.484,-100.099 780.938,-76.7984 799,-56 834.835,-14.737 1002.25,-10.2814 1078.72,-10.4582"/>
<polygon fill="midnightblue" stroke="midnightblue" points="1078.87,-13.9589 1088.89,-10.5106 1078.9,-6.95902 1078.87,-13.9589"/>
</g>
<!-- Node24&#45;&gt;Node10 -->
<g id="edge33" class="edge"><title>Node24&#45;&gt;Node10</title>
<path fill="none" stroke="midnightblue" d="M864.08,-112.329C871.485,-97.7077 888.659,-68.5229 913,-56 973.302,-24.9766 1454.45,-14.008 1586.55,-11.5651"/>
<polygon fill="midnightblue" stroke="midnightblue" points="1586.91,-15.0592 1596.85,-11.379 1586.79,-8.06034 1586.91,-15.0592"/>
</g>
<!-- Node24&#45;&gt;Node20 -->
<g id="edge34" class="edge"><title>Node24&#45;&gt;Node20</title>
<path fill="none" stroke="midnightblue" d="M832.588,-112.444C801.724,-102.81 751.635,-87.1752 719.004,-76.9896"/>
<polygon fill="midnightblue" stroke="midnightblue" points="719.658,-73.5273 709.069,-73.8886 717.572,-80.2093 719.658,-73.5273"/>
</g>
<!-- Node25&#45;&gt;Node10 -->
<g id="edge36" class="edge"><title>Node25&#45;&gt;Node10</title>
<path fill="none" stroke="midnightblue" d="M1864.84,-112.371C1864.09,-98.3419 1860.46,-70.6814 1844,-56 1836.88,-49.649 1713.88,-27.4166 1653.25,-16.7691"/>
<polygon fill="midnightblue" stroke="midnightblue" points="1653.49,-13.2589 1643.04,-14.9825 1652.28,-20.1541 1653.49,-13.2589"/>
</g>
<!-- Node25&#45;&gt;Node16 -->
<g id="edge37" class="edge"><title>Node25&#45;&gt;Node16</title>
<path fill="none" stroke="midnightblue" d="M1873.59,-112.083C1881.16,-104.22 1892.38,-92.5688 1901.51,-83.0813"/>
<polygon fill="midnightblue" stroke="midnightblue" points="1904.16,-85.3821 1908.57,-75.7511 1899.12,-80.5266 1904.16,-85.3821"/>
</g>
<!-- Node26&#45;&gt;Node8 -->
<g id="edge39" class="edge"><title>Node26&#45;&gt;Node8</title>
<path fill="none" stroke="midnightblue" d="M1171.17,-116.514C1217.02,-109.063 1310.55,-93.239 1389,-76 1389.1,-75.9781 1389.2,-75.9562 1389.3,-75.9341"/>
<polygon fill="midnightblue" stroke="midnightblue" points="1389.88,-79.3932 1398.82,-73.7029 1388.28,-72.578 1389.88,-79.3932"/>
</g>
<!-- Node26&#45;&gt;Node9 -->
<g id="edge40" class="edge"><title>Node26&#45;&gt;Node9</title>
<path fill="none" stroke="midnightblue" d="M1116.79,-112.414C1100.15,-105.445 1079.94,-93.8092 1070,-76 1059.77,-57.673 1077.88,-38.3943 1094.5,-25.6377"/>
<polygon fill="midnightblue" stroke="midnightblue" points="1096.82,-28.279 1102.9,-19.601 1092.74,-22.5946 1096.82,-28.279"/>
</g>
<!-- Node26&#45;&gt;Node17 -->
<g id="edge41" class="edge"><title>Node26&#45;&gt;Node17</title>
<path fill="none" stroke="midnightblue" d="M1118.6,-112.444C1092.8,-103.399 1051.92,-89.064 1022.98,-78.9158"/>
<polygon fill="midnightblue" stroke="midnightblue" points="1023.88,-75.5226 1013.29,-75.5164 1021.57,-82.1283 1023.88,-75.5226"/>
</g>
<!-- Node26&#45;&gt;Node18 -->
<g id="edge42" class="edge"><title>Node26&#45;&gt;Node18</title>
<path fill="none" stroke="midnightblue" d="M1137.72,-112.083C1133.29,-104.613 1126.84,-93.7244 1121.38,-84.5199"/>
<polygon fill="midnightblue" stroke="midnightblue" points="1124.29,-82.5697 1116.19,-75.7511 1118.27,-86.1383 1124.29,-82.5697"/>
</g>
<!-- Node27&#45;&gt;Node5 -->
<g id="edge44" class="edge"><title>Node27&#45;&gt;Node5</title>
<path fill="none" stroke="midnightblue" d="M373.376,-112.083C369.544,-104.691 363.976,-93.9533 359.235,-84.8111"/>
<polygon fill="midnightblue" stroke="midnightblue" points="362.248,-83.0175 354.538,-75.7511 356.034,-86.2398 362.248,-83.0175"/>
</g>
<!-- Node27&#45;&gt;Node9 -->
<g id="edge45" class="edge"><title>Node27&#45;&gt;Node9</title>
<path fill="none" stroke="midnightblue" d="M389.071,-112.313C408.443,-97.6674 450.313,-68.4471 491,-56 601.75,-22.1191 960.239,-13.4772 1078.65,-11.5204"/>
<polygon fill="midnightblue" stroke="midnightblue" points="1078.76,-15.0192 1088.7,-11.361 1078.65,-8.02011 1078.76,-15.0192"/>
</g>
<!-- Node28&#45;&gt;Node7 -->
<g id="edge47" class="edge"><title>Node28&#45;&gt;Node7</title>
<path fill="none" stroke="midnightblue" d="M917.383,-112.368C873.479,-93.0507 767.135,-46.2592 715.746,-23.6481"/>
<polygon fill="midnightblue" stroke="midnightblue" points="717.089,-20.4153 706.526,-19.5914 714.27,-26.8225 717.089,-20.4153"/>
</g>
<!-- Node28&#45;&gt;Node9 -->
<g id="edge48" class="edge"><title>Node28&#45;&gt;Node9</title>
<path fill="none" stroke="midnightblue" d="M928.706,-112.125C917.203,-98.72 899.287,-73.0672 913,-56 933.391,-30.6206 1025.51,-18.7064 1078.73,-13.8533"/>
<polygon fill="midnightblue" stroke="midnightblue" points="1079.16,-17.3289 1088.82,-12.9749 1078.55,-10.3553 1079.16,-17.3289"/>
</g>
<!-- Node28&#45;&gt;Node15 -->
<g id="edge49" class="edge"><title>Node28&#45;&gt;Node15</title>
<path fill="none" stroke="midnightblue" d="M935.299,-112.271C933.102,-98.0975 931.24,-70.2344 947,-56 1005.21,-3.42648 1574.05,-28.704 1652,-20 1658.45,-19.2794 1665.32,-18.268 1671.87,-17.182"/>
<polygon fill="midnightblue" stroke="midnightblue" points="1672.57,-20.614 1681.82,-15.4451 1671.36,-13.7184 1672.57,-20.614"/>
</g>
<!-- Node28&#45;&gt;Node17 -->
<g id="edge50" class="edge"><title>Node28&#45;&gt;Node17</title>
<path fill="none" stroke="midnightblue" d="M945.587,-112.083C953.159,-104.22 964.378,-92.5688 973.514,-83.0813"/>
<polygon fill="midnightblue" stroke="midnightblue" points="976.158,-85.3821 980.573,-75.7511 971.115,-80.5266 976.158,-85.3821"/>
</g>
<!-- Node31&#45;&gt;Node8 -->
<g id="edge54" class="edge"><title>Node31&#45;&gt;Node8</title>
<path fill="none" stroke="midnightblue" d="M1408.97,-112.083C1411.38,-104.849 1414.86,-94.4087 1417.87,-85.3968"/>
<polygon fill="midnightblue" stroke="midnightblue" points="1421.24,-86.3447 1421.08,-75.7511 1414.6,-84.1311 1421.24,-86.3447"/>
</g>
<!-- Node31&#45;&gt;Node9 -->
<g id="edge55" class="edge"><title>Node31&#45;&gt;Node9</title>
<path fill="none" stroke="midnightblue" d="M1421.56,-112.387C1442.47,-99.7488 1475.15,-75.56 1458,-56 1438.25,-33.4781 1240.01,-18.6182 1155.18,-13.2439"/>
<polygon fill="midnightblue" stroke="midnightblue" points="1155.38,-9.74946 1145.18,-12.621 1154.94,-16.7359 1155.38,-9.74946"/>
</g>
<!-- Node31&#45;&gt;Node10 -->
<g id="edge56" class="edge"><title>Node31&#45;&gt;Node10</title>
<path fill="none" stroke="midnightblue" d="M1422.79,-112.368C1460.06,-93.2113 1549.89,-47.0355 1594.29,-24.2172"/>
<polygon fill="midnightblue" stroke="midnightblue" points="1595.99,-27.2759 1603.29,-19.5914 1592.79,-21.0502 1595.99,-27.2759"/>
</g>
<!-- Node32&#45;&gt;Node9 -->
<g id="edge58" class="edge"><title>Node32&#45;&gt;Node9</title>
<path fill="none" stroke="midnightblue" d="M1580.93,-59.2197C1576.4,-58.0075 1571.55,-56.8427 1567,-56 1416.21,-28.0994 1233.57,-16.5782 1155.45,-12.6838"/>
<polygon fill="midnightblue" stroke="midnightblue" points="1155.3,-9.17216 1145.14,-12.184 1154.96,-16.164 1155.3,-9.17216"/>
</g>
<!-- Node32&#45;&gt;Node10 -->
<g id="edge59" class="edge"><title>Node32&#45;&gt;Node10</title>
<path fill="none" stroke="midnightblue" d="M1603.3,-56.083C1605.98,-48.8486 1609.85,-38.4087 1613.19,-29.3968"/>
<polygon fill="midnightblue" stroke="midnightblue" points="1616.57,-30.3442 1616.76,-19.7511 1610,-27.9129 1616.57,-30.3442"/>
</g>
<!-- Node32&#45;&gt;Node15 -->
<g id="edge60" class="edge"><title>Node32&#45;&gt;Node15</title>
<path fill="none" stroke="midnightblue" d="M1616.71,-56.324C1633.31,-47.7034 1659,-34.3643 1678.22,-24.3855"/>
<polygon fill="midnightblue" stroke="midnightblue" points="1680.07,-27.3689 1687.33,-19.6545 1676.84,-21.1565 1680.07,-27.3689"/>
</g>
<!-- Node33&#45;&gt;Node9 -->
<g id="edge62" class="edge"><title>Node33&#45;&gt;Node9</title>
<path fill="none" stroke="midnightblue" d="M1242.39,-56.4435C1217.54,-47.4381 1178.23,-33.1891 1150.25,-23.049"/>
<polygon fill="midnightblue" stroke="midnightblue" points="1151.09,-19.6332 1140.5,-19.5164 1148.71,-26.2144 1151.09,-19.6332"/>
</g>
<!-- Node33&#45;&gt;Node10 -->
<g id="edge63" class="edge"><title>Node33&#45;&gt;Node10</title>
<path fill="none" stroke="midnightblue" d="M1307.18,-57.4822C1310.17,-56.9701 1313.13,-56.471 1316,-56 1414.18,-39.9009 1530.64,-23.378 1586.64,-15.5914"/>
<polygon fill="midnightblue" stroke="midnightblue" points="1587.27,-19.0376 1596.7,-14.1972 1586.31,-12.104 1587.27,-19.0376"/>
</g>
<!-- Node34&#45;&gt;Node9 -->
<g id="edge65" class="edge"><title>Node34&#45;&gt;Node9</title>
<path fill="none" stroke="midnightblue" d="M556.012,-62.4318C652.133,-53.6194 968.674,-24.5987 1078.82,-14.5008"/>
<polygon fill="midnightblue" stroke="midnightblue" points="1079.18,-17.9824 1088.82,-13.5839 1078.54,-11.0116 1079.18,-17.9824"/>
</g>
<!-- Node35&#45;&gt;Node9 -->
<g id="edge67" class="edge"><title>Node35&#45;&gt;Node9</title>
<path fill="none" stroke="midnightblue" d="M1173.24,-56.324C1163.23,-48.2631 1148.11,-36.0765 1136.07,-26.3695"/>
<polygon fill="midnightblue" stroke="midnightblue" points="1137.94,-23.3841 1127.96,-19.8339 1133.55,-28.8343 1137.94,-23.3841"/>
</g>
<!-- Node35&#45;&gt;Node10 -->
<g id="edge68" class="edge"><title>Node35&#45;&gt;Node10</title>
<path fill="none" stroke="midnightblue" d="M1207.31,-57.9685C1210.22,-57.232 1213.17,-56.5522 1216,-56 1351.78,-29.5287 1516.48,-17.2126 1586.21,-12.8941"/>
<polygon fill="midnightblue" stroke="midnightblue" points="1586.8,-16.3652 1596.57,-12.2688 1586.38,-9.3779 1586.8,-16.3652"/>
</g>
<!-- Node37&#45;&gt;Node10 -->
<g id="edge71" class="edge"><title>Node37&#45;&gt;Node10</title>
<path fill="none" stroke="midnightblue" d="M2008.15,-60.0769C2000.75,-58.6455 1992.56,-57.1576 1985,-56 1847.02,-34.8592 1811.19,-39.6914 1673,-20 1666.57,-19.0841 1659.72,-18.0015 1653.16,-16.9103"/>
<polygon fill="midnightblue" stroke="midnightblue" points="1653.62,-13.4388 1643.18,-15.2113 1652.45,-20.3396 1653.62,-13.4388"/>
</g>
<!-- Node38&#45;&gt;Node9 -->
<g id="edge73" class="edge"><title>Node38&#45;&gt;Node9</title>
<path fill="none" stroke="midnightblue" d="M1518.25,-112.037C1511.65,-97.5273 1496.51,-69.1918 1474,-56 1420.61,-24.7157 1236.07,-14.9022 1155.33,-12.0635"/>
<polygon fill="midnightblue" stroke="midnightblue" points="1155.21,-8.55778 1145.1,-11.722 1154.98,-15.5539 1155.21,-8.55778"/>
</g>
<!-- Node38&#45;&gt;Node10 -->
<g id="edge74" class="edge"><title>Node38&#45;&gt;Node10</title>
<path fill="none" stroke="midnightblue" d="M1551.55,-112.471C1579.73,-103.67 1619.15,-89.379 1628,-76 1637.1,-62.2491 1633.32,-43.2167 1628.34,-29.3005"/>
<polygon fill="midnightblue" stroke="midnightblue" points="1631.49,-27.7713 1624.48,-19.8281 1625.01,-30.4098 1631.49,-27.7713"/>
</g>
<!-- Node38&#45;&gt;Node15 -->
<g id="edge75" class="edge"><title>Node38&#45;&gt;Node15</title>
<path fill="none" stroke="midnightblue" d="M1554.55,-113.989C1557.74,-113.313 1560.93,-112.64 1564,-112 1642.58,-95.5896 1690.21,-138.165 1741,-76 1753.62,-60.559 1737.78,-40.2541 1723.09,-26.4766"/>
<polygon fill="midnightblue" stroke="midnightblue" points="1725.06,-23.5428 1715.24,-19.5663 1720.43,-28.7989 1725.06,-23.5428"/>
</g>
<!-- Node38&#45;&gt;Node32 -->
<g id="edge76" class="edge"><title>Node38&#45;&gt;Node32</title>
<path fill="none" stroke="midnightblue" d="M1534.53,-112.324C1546.59,-103.979 1565.03,-91.2122 1579.27,-81.3524"/>
<polygon fill="midnightblue" stroke="midnightblue" points="1581.27,-84.2243 1587.5,-75.6545 1577.28,-78.469 1581.27,-84.2243"/>
</g>
</g>
</svg>
