<?xml version="1.0" encoding="UTF-8" standalone="no"?>
<!DOCTYPE svg PUBLIC "-//W3C//DTD SVG 1.1//EN"
 "http://www.w3.org/Graphics/SVG/1.1/DTD/svg11.dtd">
<!-- Generated by graphviz version 2.36.0 (20140111.2315)
 -->
<!-- Title: mutt_set_followup_to Pages: 1 -->
<svg width="404pt" height="294pt"
 viewBox="0.00 0.00 404.00 294.00" xmlns="http://www.w3.org/2000/svg" xmlns:xlink="http://www.w3.org/1999/xlink">
<g id="graph0" class="graph" transform="scale(1 1) rotate(0) translate(4 290)">
<title>mutt_set_followup_to</title>
<polygon fill="white" stroke="none" points="-4,4 -4,-290 400,-290 400,4 -4,4"/>
<!-- Node1 -->
<g id="node1" class="node"><title>Node1</title>
<polygon fill="#bfbfbf" stroke="black" points="0,-133.5 0,-152.5 110,-152.5 110,-133.5 0,-133.5"/>
<text text-anchor="middle" x="55" y="-140.5" font-family="Helvetica,sans-Serif" font-size="10.00">mutt_set_followup_to</text>
</g>
<!-- Node2 -->
<g id="node2" class="node"><title>Node2</title>
<g id="a_node2"><a xlink:href="mutt_2string_8c.html#ae48085384a6545e0fac589a88243ea31" target="_top" xlink:title="Copy a string, safely. ">
<polygon fill="white" stroke="red" points="301.5,-95.5 301.5,-114.5 386.5,-114.5 386.5,-95.5 301.5,-95.5"/>
<text text-anchor="middle" x="344" y="-102.5" font-family="Helvetica,sans-Serif" font-size="10.00">mutt_str_strdup</text>
</a>
</g>
</g>
<!-- Node1&#45;&gt;Node2 -->
<g id="edge1" class="edge"><title>Node1&#45;&gt;Node2</title>
<path fill="none" stroke="midnightblue" d="M110.092,-148.934C150.686,-151.962 207.396,-153.152 256,-143 277.714,-138.465 300.643,-128.195 317.507,-119.474"/>
<polygon fill="midnightblue" stroke="midnightblue" points="319.51,-122.373 326.681,-114.574 316.211,-116.199 319.51,-122.373"/>
</g>
<!-- Node3 -->
<g id="node3" class="node"><title>Node3</title>
<g id="a_node3"><a xlink:href="pattern_8c.html#abef73fd2aaec68c6f537178fd9c58be3" target="_top" xlink:title="Matches known mailing lists. ">
<polygon fill="white" stroke="red" points="159.5,-228.5 159.5,-247.5 242.5,-247.5 242.5,-228.5 159.5,-228.5"/>
<text text-anchor="middle" x="201" y="-235.5" font-family="Helvetica,sans-Serif" font-size="10.00">mutt_is_list_cc</text>
</a>
</g>
</g>
<!-- Node1&#45;&gt;Node3 -->
<g id="edge2" class="edge"><title>Node1&#45;&gt;Node3</title>
<path fill="none" stroke="midnightblue" d="M66.4396,-152.676C82.5836,-167.293 114.99,-195.282 146,-214 152.137,-217.705 158.947,-221.175 165.605,-224.263"/>
<polygon fill="midnightblue" stroke="midnightblue" points="164.596,-227.643 175.156,-228.496 167.432,-221.244 164.596,-227.643"/>
</g>
<!-- Node4 -->
<g id="node4" class="node"><title>Node4</title>
<g id="a_node4"><a xlink:href="email_2address_8c.html#a1a50586ebc0ce723d9955ee49b3be97d" target="_top" xlink:title="Append one list of addresses onto another. ">
<polygon fill="white" stroke="black" points="152.5,-266.5 152.5,-285.5 249.5,-285.5 249.5,-266.5 152.5,-266.5"/>
<text text-anchor="middle" x="201" y="-273.5" font-family="Helvetica,sans-Serif" font-size="10.00">mutt_addr_append</text>
</a>
</g>
</g>
<!-- Node1&#45;&gt;Node4 -->
<g id="edge3" class="edge"><title>Node1&#45;&gt;Node4</title>
<path fill="none" stroke="midnightblue" d="M61.1452,-152.77C73.1162,-174.592 104.967,-227.68 146,-257 148.668,-258.907 151.546,-260.638 154.535,-262.206"/>
<polygon fill="midnightblue" stroke="midnightblue" points="153.189,-265.439 163.736,-266.439 156.114,-259.08 153.189,-265.439"/>
</g>
<!-- Node5 -->
<g id="node5" class="node"><title>Node5</title>
<g id="a_node5"><a xlink:href="email_2address_8c.html#a6b3fad2ce581da1efea393b53d7940fb" target="_top" xlink:title="Copy a list of addresses. ">
<polygon fill="white" stroke="red" points="292,-228.5 292,-247.5 396,-247.5 396,-228.5 292,-228.5"/>
<text text-anchor="middle" x="344" y="-235.5" font-family="Helvetica,sans-Serif" font-size="10.00">mutt_addr_copy_list</text>
</a>
</g>
</g>
<!-- Node1&#45;&gt;Node5 -->
<g id="edge7" class="edge"><title>Node1&#45;&gt;Node5</title>
<path fill="none" stroke="midnightblue" d="M84.8327,-152.544C136.835,-169.757 246.329,-206.001 304.607,-225.292"/>
<polygon fill="midnightblue" stroke="midnightblue" points="303.593,-228.643 314.186,-228.462 305.793,-221.997 303.593,-228.643"/>
</g>
<!-- Node6 -->
<g id="node6" class="node"><title>Node6</title>
<g id="a_node6"><a xlink:href="send_8c.html#a8dbe8fe3aaa8670c489f20ddd3429b19" target="_top" xlink:title="Remove any address which matches the current user. ">
<polygon fill="white" stroke="red" points="164.5,-114.5 164.5,-133.5 237.5,-133.5 237.5,-114.5 164.5,-114.5"/>
<text text-anchor="middle" x="201" y="-121.5" font-family="Helvetica,sans-Serif" font-size="10.00">remove_user</text>
</a>
</g>
</g>
<!-- Node1&#45;&gt;Node6 -->
<g id="edge5" class="edge"><title>Node1&#45;&gt;Node6</title>
<path fill="none" stroke="midnightblue" d="M110.03,-135.871C124.672,-133.939 140.373,-131.867 154.494,-130.004"/>
<polygon fill="midnightblue" stroke="midnightblue" points="155.003,-133.468 164.459,-128.689 154.087,-126.528 155.003,-133.468"/>
</g>
<!-- Node7 -->
<g id="node7" class="node"><title>Node7</title>
<g id="a_node7"><a xlink:href="pattern_8c.html#ae89e335995c5281b880614b2ab37b373" target="_top" xlink:title="Matches subscribed mailing lists. ">
<polygon fill="white" stroke="red" points="146.5,-76.5 146.5,-95.5 255.5,-95.5 255.5,-76.5 146.5,-76.5"/>
<text text-anchor="middle" x="201" y="-83.5" font-family="Helvetica,sans-Serif" font-size="10.00">mutt_is_list_recipient</text>
</a>
</g>
</g>
<!-- Node1&#45;&gt;Node7 -->
<g id="edge6" class="edge"><title>Node1&#45;&gt;Node7</title>
<path fill="none" stroke="midnightblue" d="M77.6717,-133.41C95.8076,-125.491 122.429,-114.113 146,-105 151.214,-102.984 156.744,-100.937 162.199,-98.9691"/>
<polygon fill="midnightblue" stroke="midnightblue" points="163.603,-102.185 171.853,-95.5375 161.259,-95.589 163.603,-102.185"/>
</g>
<!-- Node8 -->
<g id="node8" class="node"><title>Node8</title>
<g id="a_node8"><a xlink:href="send_8c.html#aa57b6946b9f64b289da0da408ee27789" target="_top" xlink:title="Get a default &#39;from&#39; Address. ">
<polygon fill="white" stroke="red" points="153.5,-38.5 153.5,-57.5 248.5,-57.5 248.5,-38.5 153.5,-38.5"/>
<text text-anchor="middle" x="201" y="-45.5" font-family="Helvetica,sans-Serif" font-size="10.00">mutt_default_from</text>
</a>
</g>
</g>
<!-- Node1&#45;&gt;Node8 -->
<g id="edge8" class="edge"><title>Node1&#45;&gt;Node8</title>
<path fill="none" stroke="midnightblue" d="M65.1021,-133.298C80.4349,-117.452 112.986,-85.8937 146,-67 149.639,-64.9175 153.545,-63.0053 157.531,-61.264"/>
<polygon fill="midnightblue" stroke="midnightblue" points="158.912,-64.4814 166.891,-57.5109 156.306,-57.9843 158.912,-64.4814"/>
</g>
<!-- Node9 -->
<g id="node9" class="node"><title>Node9</title>
<g id="a_node9"><a xlink:href="email_2address_8c.html#a4ba49d19e127aeecd6b3374e8acef101" target="_top" xlink:title="Remove duplicate addresses. ">
<polygon fill="white" stroke="red" points="146,-0.5 146,-19.5 256,-19.5 256,-0.5 146,-0.5"/>
<text text-anchor="middle" x="201" y="-7.5" font-family="Helvetica,sans-Serif" font-size="10.00">mutt_addrlist_dedupe</text>
</a>
</g>
</g>
<!-- Node1&#45;&gt;Node9 -->
<g id="edge10" class="edge"><title>Node1&#45;&gt;Node9</title>
<path fill="none" stroke="midnightblue" d="M61.1452,-133.23C73.1162,-111.408 104.967,-58.3199 146,-29 148.668,-27.0933 151.546,-25.3624 154.535,-23.7938"/>
<polygon fill="midnightblue" stroke="midnightblue" points="156.114,-26.9199 163.736,-19.5608 153.189,-20.5606 156.114,-26.9199"/>
</g>
<!-- Node4&#45;&gt;Node5 -->
<g id="edge4" class="edge"><title>Node4&#45;&gt;Node5</title>
<path fill="none" stroke="midnightblue" d="M237.58,-266.411C255.782,-261.506 278.138,-255.48 297.572,-250.243"/>
<polygon fill="midnightblue" stroke="midnightblue" points="298.686,-253.568 307.431,-247.586 296.865,-246.809 298.686,-253.568"/>
</g>
<!-- Node8&#45;&gt;Node2 -->
<g id="edge9" class="edge"><title>Node8&#45;&gt;Node2</title>
<path fill="none" stroke="midnightblue" d="M230.451,-57.5707C238.735,-60.476 247.77,-63.7597 256,-67 275.102,-74.5205 296.211,-83.7184 312.852,-91.1812"/>
<polygon fill="midnightblue" stroke="midnightblue" points="311.531,-94.4246 322.085,-95.3489 314.411,-88.0445 311.531,-94.4246"/>
</g>
</g>
</svg>
