<?xml version="1.0" encoding="UTF-8" standalone="no"?>
<!DOCTYPE svg PUBLIC "-//W3C//DTD SVG 1.1//EN"
 "http://www.w3.org/Graphics/SVG/1.1/DTD/svg11.dtd">
<!-- Generated by graphviz version 2.36.0 (20140111.2315)
 -->
<!-- Title: mutt_update_encoding Pages: 1 -->
<svg width="438pt" height="161pt"
 viewBox="0.00 0.00 438.00 160.64" xmlns="http://www.w3.org/2000/svg" xmlns:xlink="http://www.w3.org/1999/xlink">
<g id="graph0" class="graph" transform="scale(1 1) rotate(0) translate(4 156.644)">
<title>mutt_update_encoding</title>
<polygon fill="white" stroke="none" points="-4,4 -4,-156.644 434,-156.644 434,4 -4,4"/>
<!-- Node1 -->
<g id="node1" class="node"><title>Node1</title>
<polygon fill="#bfbfbf" stroke="black" points="0.5,-76.5 0.5,-95.5 115.5,-95.5 115.5,-76.5 0.5,-76.5"/>
<text text-anchor="middle" x="58" y="-83.5" font-family="Helvetica,sans-Serif" font-size="10.00">mutt_update_encoding</text>
</g>
<!-- Node2 -->
<g id="node2" class="node"><title>Node2</title>
<g id="a_node2"><a xlink:href="sendlib_8c.html#a8465f41e6b0f0256527ca2404edfb762" target="_top" xlink:title="Get a body&#39;s character set. ">
<polygon fill="white" stroke="red" points="310.5,-95.5 310.5,-114.5 429.5,-114.5 429.5,-95.5 310.5,-95.5"/>
<text text-anchor="middle" x="370" y="-102.5" font-family="Helvetica,sans-Serif" font-size="10.00">mutt_body_get_charset</text>
</a>
</g>
</g>
<!-- Node1&#45;&gt;Node2 -->
<g id="edge1" class="edge"><title>Node1&#45;&gt;Node2</title>
<path fill="none" stroke="midnightblue" d="M70.0487,-95.6415C86.5432,-109.326 119.193,-133.746 152,-143 204.186,-157.72 220.756,-153.254 274,-143 297.915,-138.394 323.462,-127.823 342.034,-118.996"/>
<polygon fill="midnightblue" stroke="midnightblue" points="343.618,-122.118 351.064,-114.581 340.543,-115.829 343.618,-122.118"/>
</g>
<!-- Node3 -->
<g id="node3" class="node"><title>Node3</title>
<g id="a_node3"><a xlink:href="parameter_8c.html#a808f2417517d44fed6931e6266e6328e" target="_top" xlink:title="Delete a matching Parameter. ">
<polygon fill="white" stroke="red" points="163,-114.5 163,-133.5 263,-133.5 263,-114.5 163,-114.5"/>
<text text-anchor="middle" x="213" y="-121.5" font-family="Helvetica,sans-Serif" font-size="10.00">mutt_param_delete</text>
</a>
</g>
</g>
<!-- Node1&#45;&gt;Node3 -->
<g id="edge2" class="edge"><title>Node1&#45;&gt;Node3</title>
<path fill="none" stroke="midnightblue" d="M97.6084,-95.589C117.707,-100.581 142.475,-106.732 163.819,-112.033"/>
<polygon fill="midnightblue" stroke="midnightblue" points="163.12,-115.466 173.669,-114.48 164.808,-108.673 163.12,-115.466"/>
</g>
<!-- Node4 -->
<g id="node4" class="node"><title>Node4</title>
<g id="a_node4"><a xlink:href="sendlib_8c.html#a0ca26551c77ac46f69710b91eec6675e" target="_top" xlink:title="Analyze file to determine MIME encoding to use. ">
<polygon fill="white" stroke="red" points="156.5,-76.5 156.5,-95.5 269.5,-95.5 269.5,-76.5 156.5,-76.5"/>
<text text-anchor="middle" x="213" y="-83.5" font-family="Helvetica,sans-Serif" font-size="10.00">mutt_get_content_info</text>
</a>
</g>
</g>
<!-- Node1&#45;&gt;Node4 -->
<g id="edge3" class="edge"><title>Node1&#45;&gt;Node4</title>
<path fill="none" stroke="midnightblue" d="M115.537,-86C125.56,-86 136.075,-86 146.326,-86"/>
<polygon fill="midnightblue" stroke="midnightblue" points="146.46,-89.5001 156.46,-86 146.46,-82.5001 146.46,-89.5001"/>
</g>
<!-- Node5 -->
<g id="node5" class="node"><title>Node5</title>
<g id="a_node5"><a xlink:href="sendlib_8c.html#af55a2bb3c93ce7c7eb54f41aca6fcdca" target="_top" xlink:title="determine which Content&#45;Transfer&#45;Encoding to use ">
<polygon fill="white" stroke="red" points="176,-38.5 176,-57.5 250,-57.5 250,-38.5 176,-38.5"/>
<text text-anchor="middle" x="213" y="-45.5" font-family="Helvetica,sans-Serif" font-size="10.00">set_encoding</text>
</a>
</g>
</g>
<!-- Node1&#45;&gt;Node5 -->
<g id="edge4" class="edge"><title>Node1&#45;&gt;Node5</title>
<path fill="none" stroke="midnightblue" d="M97.6084,-76.411C118.413,-71.244 144.219,-64.8346 166.052,-59.412"/>
<polygon fill="midnightblue" stroke="midnightblue" points="166.91,-62.8053 175.771,-56.9979 165.223,-56.0116 166.91,-62.8053"/>
</g>
<!-- Node6 -->
<g id="node6" class="node"><title>Node6</title>
<g id="a_node6"><a xlink:href="sendlib_8c.html#a0ee1ea636faabfacf94efbd968b0bea9" target="_top" xlink:title="Timestamp an Attachment. ">
<polygon fill="white" stroke="black" points="152,-0.5 152,-19.5 274,-19.5 274,-0.5 152,-0.5"/>
<text text-anchor="middle" x="213" y="-7.5" font-family="Helvetica,sans-Serif" font-size="10.00">mutt_stamp_attachment</text>
</a>
</g>
</g>
<!-- Node1&#45;&gt;Node6 -->
<g id="edge6" class="edge"><title>Node1&#45;&gt;Node6</title>
<path fill="none" stroke="midnightblue" d="M72.2865,-76.4139C89.8337,-64.099 122.025,-42.6842 152,-29 156.785,-26.8155 161.892,-24.7807 167.031,-22.9166"/>
<polygon fill="midnightblue" stroke="midnightblue" points="168.548,-26.0968 176.876,-19.5476 166.282,-19.4739 168.548,-26.0968"/>
</g>
<!-- Node5&#45;&gt;Node2 -->
<g id="edge5" class="edge"><title>Node5&#45;&gt;Node2</title>
<path fill="none" stroke="midnightblue" d="M245.597,-57.5252C254.802,-60.4295 264.844,-63.7241 274,-67 295.266,-74.6086 318.842,-84.0332 337.188,-91.593"/>
<polygon fill="midnightblue" stroke="midnightblue" points="335.951,-94.869 346.529,-95.467 338.633,-88.403 335.951,-94.869"/>
</g>
</g>
</svg>
