<?xml version="1.0" encoding="UTF-8" standalone="no"?>
<!DOCTYPE svg PUBLIC "-//W3C//DTD SVG 1.1//EN"
 "http://www.w3.org/Graphics/SVG/1.1/DTD/svg11.dtd">
<!-- Generated by graphviz version 2.36.0 (20140111.2315)
 -->
<!-- Title: mutt_invoke_sendmail Pages: 1 -->
<svg width="414pt" height="453pt"
 viewBox="0.00 0.00 414.00 452.70" xmlns="http://www.w3.org/2000/svg" xmlns:xlink="http://www.w3.org/1999/xlink">
<g id="graph0" class="graph" transform="scale(1 1) rotate(0) translate(4 448.705)">
<title>mutt_invoke_sendmail</title>
<polygon fill="white" stroke="none" points="-4,4 -4,-448.705 410,-448.705 410,4 -4,4"/>
<!-- Node1 -->
<g id="node1" class="node"><title>Node1</title>
<polygon fill="#bfbfbf" stroke="black" points="0,-198.205 0,-217.205 114,-217.205 114,-198.205 0,-198.205"/>
<text text-anchor="middle" x="57" y="-205.205" font-family="Helvetica,sans-Serif" font-size="10.00">mutt_invoke_sendmail</text>
</g>
<!-- Node2 -->
<g id="node2" class="node"><title>Node2</title>
<g id="a_node2"><a xlink:href="muttlib_8c.html#a5efffe8bf1716c24b902f42e1d2166a0" target="_top" xlink:title="Expand expandos (x) in a string. ">
<polygon fill="white" stroke="red" points="155.5,-407.205 155.5,-426.205 266.5,-426.205 266.5,-407.205 155.5,-407.205"/>
<text text-anchor="middle" x="211" y="-414.205" font-family="Helvetica,sans-Serif" font-size="10.00">mutt_expando_format</text>
</a>
</g>
</g>
<!-- Node1&#45;&gt;Node2 -->
<g id="edge1" class="edge"><title>Node1&#45;&gt;Node2</title>
<path fill="none" stroke="midnightblue" d="M60.1608,-217.226C67.4416,-247.234 93.8318,-340.91 150,-392.705 154.333,-396.7 159.414,-400.066 164.753,-402.893"/>
<polygon fill="midnightblue" stroke="midnightblue" points="163.355,-406.103 173.898,-407.158 166.314,-399.759 163.355,-406.103"/>
</g>
<!-- Node3 -->
<g id="node3" class="node"><title>Node3</title>
<g id="a_node3"><a xlink:href="mutt_2string_8c.html#ae48085384a6545e0fac589a88243ea31" target="_top" xlink:title="Copy a string, safely. ">
<polygon fill="white" stroke="red" points="314.5,-369.205 314.5,-388.205 399.5,-388.205 399.5,-369.205 314.5,-369.205"/>
<text text-anchor="middle" x="357" y="-376.205" font-family="Helvetica,sans-Serif" font-size="10.00">mutt_str_strdup</text>
</a>
</g>
</g>
<!-- Node1&#45;&gt;Node3 -->
<g id="edge6" class="edge"><title>Node1&#45;&gt;Node3</title>
<path fill="none" stroke="midnightblue" d="M60.5253,-217.335C68.3593,-245.071 95.0914,-325.338 150,-359.705 196.179,-388.608 259.956,-389.931 304.265,-386.209"/>
<polygon fill="midnightblue" stroke="midnightblue" points="304.624,-389.691 314.247,-385.258 303.96,-382.722 304.624,-389.691"/>
</g>
<!-- Node4 -->
<g id="node4" class="node"><title>Node4</title>
<g id="a_node4"><a xlink:href="newsrc_8c.html#aacc897caa899d06ff3babd20feeb6e42" target="_top" xlink:title="Expand the newsrc filename &#45; Implements format_t. ">
<polygon fill="white" stroke="red" points="168.5,-331.205 168.5,-350.205 253.5,-350.205 253.5,-331.205 168.5,-331.205"/>
<text text-anchor="middle" x="211" y="-338.205" font-family="Helvetica,sans-Serif" font-size="10.00">nntp_format_str</text>
</a>
</g>
</g>
<!-- Node1&#45;&gt;Node4 -->
<g id="edge4" class="edge"><title>Node1&#45;&gt;Node4</title>
<path fill="none" stroke="midnightblue" d="M63.0695,-217.237C75.1463,-239.038 107.787,-292.873 150,-321.705 152.884,-323.675 155.984,-325.449 159.2,-327.046"/>
<polygon fill="midnightblue" stroke="midnightblue" points="157.925,-330.308 168.491,-331.091 160.719,-323.89 157.925,-330.308"/>
</g>
<!-- Node5 -->
<g id="node5" class="node"><title>Node5</title>
<g id="a_node5"><a xlink:href="nntp_8c.html#abe053ff2eae1047d92b96054b41bfbdc" target="_top" xlink:title="Post article. ">
<polygon fill="white" stroke="red" points="181.5,-293.205 181.5,-312.205 240.5,-312.205 240.5,-293.205 181.5,-293.205"/>
<text text-anchor="middle" x="211" y="-300.205" font-family="Helvetica,sans-Serif" font-size="10.00">nntp_post</text>
</a>
</g>
</g>
<!-- Node1&#45;&gt;Node5 -->
<g id="edge5" class="edge"><title>Node1&#45;&gt;Node5</title>
<path fill="none" stroke="midnightblue" d="M67.0322,-217.255C82.5684,-233.167 115.975,-265.18 150,-283.705 156.664,-287.333 164.126,-290.39 171.465,-292.92"/>
<polygon fill="midnightblue" stroke="midnightblue" points="170.718,-296.355 181.308,-296.047 172.837,-289.684 170.718,-296.355"/>
</g>
<!-- Node6 -->
<g id="node6" class="node"><title>Node6</title>
<g id="a_node6"><a xlink:href="memory_8c.html#af778eb8166966fc0666c64849f6c7c5b" target="_top" xlink:title="Resize a block of memory on the heap. ">
<polygon fill="white" stroke="red" points="308.5,-179.205 308.5,-198.205 405.5,-198.205 405.5,-179.205 308.5,-179.205"/>
<text text-anchor="middle" x="357" y="-186.205" font-family="Helvetica,sans-Serif" font-size="10.00">mutt_mem_realloc</text>
</a>
</g>
</g>
<!-- Node1&#45;&gt;Node6 -->
<g id="edge7" class="edge"><title>Node1&#45;&gt;Node6</title>
<path fill="none" stroke="midnightblue" d="M75.3304,-198.127C93.3571,-188.753 122.709,-175.119 150,-169.705 203.186,-159.153 218.113,-163.687 272,-169.705 285.132,-171.172 299.208,-173.89 312.011,-176.821"/>
<polygon fill="midnightblue" stroke="midnightblue" points="311.424,-180.279 321.963,-179.197 313.05,-173.47 311.424,-180.279"/>
</g>
<!-- Node7 -->
<g id="node7" class="node"><title>Node7</title>
<g id="a_node7"><a xlink:href="mutt_2string_8c.html#ab4aaf8bd2ce3982651f0f949d6c665e2" target="_top" xlink:title="Compare two strings, safely. ">
<polygon fill="white" stroke="black" points="313,-27.2049 313,-46.2049 401,-46.2049 401,-27.2049 313,-27.2049"/>
<text text-anchor="middle" x="357" y="-34.2049" font-family="Helvetica,sans-Serif" font-size="10.00">mutt_str_strcmp</text>
</a>
</g>
</g>
<!-- Node1&#45;&gt;Node7 -->
<g id="edge8" class="edge"><title>Node1&#45;&gt;Node7</title>
<path fill="none" stroke="midnightblue" d="M59.186,-197.866C63.7237,-165.124 83.2362,-59.5559 150,-17.7049 204.488,16.4508 283.529,-6.46686 326.123,-23.3297"/>
<polygon fill="midnightblue" stroke="midnightblue" points="324.804,-26.5716 335.384,-27.1302 327.461,-20.0956 324.804,-26.5716"/>
</g>
<!-- Node8 -->
<g id="node8" class="node"><title>Node8</title>
<g id="a_node8"><a xlink:href="sendlib_8c.html#a205098a093c5307a510e7a0412e558e0" target="_top" xlink:title="Add a string to a dynamic array. ">
<polygon fill="white" stroke="black" points="179,-217.205 179,-236.205 243,-236.205 243,-217.205 179,-217.205"/>
<text text-anchor="middle" x="211" y="-224.205" font-family="Helvetica,sans-Serif" font-size="10.00">add_option</text>
</a>
</g>
</g>
<!-- Node1&#45;&gt;Node8 -->
<g id="edge9" class="edge"><title>Node1&#45;&gt;Node8</title>
<path fill="none" stroke="midnightblue" d="M114.167,-214.726C132.236,-216.984 151.913,-219.444 168.709,-221.543"/>
<polygon fill="midnightblue" stroke="midnightblue" points="168.398,-225.032 178.755,-222.799 169.266,-218.086 168.398,-225.032"/>
</g>
<!-- Node9 -->
<g id="node9" class="node"><title>Node9</title>
<g id="a_node9"><a xlink:href="sendlib_8c.html#a4b0b8a6562fe869c943ee4836daaba85" target="_top" xlink:title="Add an Address to a dynamic array. ">
<polygon fill="white" stroke="black" points="183,-179.205 183,-198.205 239,-198.205 239,-179.205 183,-179.205"/>
<text text-anchor="middle" x="211" y="-186.205" font-family="Helvetica,sans-Serif" font-size="10.00">add_args</text>
</a>
</g>
</g>
<!-- Node1&#45;&gt;Node9 -->
<g id="edge11" class="edge"><title>Node1&#45;&gt;Node9</title>
<path fill="none" stroke="midnightblue" d="M114.167,-200.684C133.637,-198.25 154.973,-195.583 172.561,-193.385"/>
<polygon fill="midnightblue" stroke="midnightblue" points="173.489,-196.796 182.977,-192.083 172.62,-189.85 173.489,-196.796"/>
</g>
<!-- Node10 -->
<g id="node10" class="node"><title>Node10</title>
<g id="a_node10"><a xlink:href="curs__lib_8c.html#abbd51b0f01f2565da12fddf6716c7b9c" target="_top" xlink:title="Force a hard refresh. ">
<polygon fill="white" stroke="red" points="150.5,-103.205 150.5,-122.205 271.5,-122.205 271.5,-103.205 150.5,-103.205"/>
<text text-anchor="middle" x="211" y="-110.205" font-family="Helvetica,sans-Serif" font-size="10.00">mutt_need_hard_redraw</text>
</a>
</g>
</g>
<!-- Node1&#45;&gt;Node10 -->
<g id="edge13" class="edge"><title>Node1&#45;&gt;Node10</title>
<path fill="none" stroke="midnightblue" d="M68.3551,-198.144C84.7029,-183.428 117.939,-155.015 150,-136.705 156.919,-132.754 164.616,-129.148 172.127,-126"/>
<polygon fill="midnightblue" stroke="midnightblue" points="173.484,-129.227 181.47,-122.265 170.885,-122.727 173.484,-129.227"/>
</g>
<!-- Node11 -->
<g id="node11" class="node"><title>Node11</title>
<g id="a_node11"><a xlink:href="sendlib_8c.html#ae1afad860f60962e81e0ce93c147dc80" target="_top" xlink:title="invoke sendmail in a subshell ">
<polygon fill="white" stroke="red" points="180,-255.205 180,-274.205 242,-274.205 242,-255.205 180,-255.205"/>
<text text-anchor="middle" x="211" y="-262.205" font-family="Helvetica,sans-Serif" font-size="10.00">send_msg</text>
</a>
</g>
</g>
<!-- Node1&#45;&gt;Node11 -->
<g id="edge14" class="edge"><title>Node1&#45;&gt;Node11</title>
<path fill="none" stroke="midnightblue" d="M79.7294,-217.293C98.2435,-225.314 125.643,-236.836 150,-245.705 156.484,-248.066 163.421,-250.418 170.192,-252.623"/>
<polygon fill="midnightblue" stroke="midnightblue" points="169.332,-256.022 179.922,-255.73 171.461,-249.354 169.332,-256.022"/>
</g>
<!-- Node12 -->
<g id="node12" class="node"><title>Node12</title>
<g id="a_node12"><a xlink:href="mutt_2string_8c.html#a1ca58dcecaae9d97c2c7b09f9b818e88" target="_top" xlink:title="Return a string matching an error code. ">
<polygon fill="white" stroke="black" points="166.5,-27.2049 166.5,-46.2049 255.5,-46.2049 255.5,-27.2049 166.5,-27.2049"/>
<text text-anchor="middle" x="211" y="-34.2049" font-family="Helvetica,sans-Serif" font-size="10.00">mutt_str_sysexit</text>
</a>
</g>
</g>
<!-- Node1&#45;&gt;Node12 -->
<g id="edge16" class="edge"><title>Node1&#45;&gt;Node12</title>
<path fill="none" stroke="midnightblue" d="M61.1719,-197.862C70.3561,-170.925 99.5747,-95.3759 150,-55.7049 152.294,-53.8998 154.764,-52.2645 157.346,-50.7832"/>
<polygon fill="midnightblue" stroke="midnightblue" points="159.028,-53.8566 166.472,-46.3176 155.952,-47.5689 159.028,-53.8566"/>
</g>
<!-- Node13 -->
<g id="node13" class="node"><title>Node13</title>
<g id="a_node13"><a xlink:href="curs__lib_8c.html#a95e40a397b5bae999a08988b8314631a" target="_top" xlink:title="Display some page&#45;able text to the user. ">
<polygon fill="white" stroke="red" points="170.5,-65.2049 170.5,-84.2049 251.5,-84.2049 251.5,-65.2049 170.5,-65.2049"/>
<text text-anchor="middle" x="211" y="-72.2049" font-family="Helvetica,sans-Serif" font-size="10.00">mutt_do_pager</text>
</a>
</g>
</g>
<!-- Node1&#45;&gt;Node13 -->
<g id="edge17" class="edge"><title>Node1&#45;&gt;Node13</title>
<path fill="none" stroke="midnightblue" d="M63.0695,-198.172C75.1463,-176.371 107.787,-122.537 150,-93.7049 153.451,-91.3477 157.211,-89.2707 161.109,-87.4428"/>
<polygon fill="midnightblue" stroke="midnightblue" points="162.471,-90.6672 170.378,-83.6153 159.799,-84.1971 162.471,-90.6672"/>
</g>
<!-- Node2&#45;&gt;Node2 -->
<g id="edge2" class="edge"><title>Node2&#45;&gt;Node2</title>
<path fill="none" stroke="midnightblue" d="M188.497,-426.462C177.55,-435.27 185.051,-444.705 211,-444.705 228.029,-444.705 237.113,-440.642 238.253,-435.359"/>
<polygon fill="midnightblue" stroke="midnightblue" points="241.3,-433.635 233.503,-426.462 235.125,-436.932 241.3,-433.635"/>
</g>
<!-- Node2&#45;&gt;Node3 -->
<g id="edge3" class="edge"><title>Node2&#45;&gt;Node3</title>
<path fill="none" stroke="midnightblue" d="M248.337,-407.116C267.083,-402.169 290.143,-396.084 310.107,-390.816"/>
<polygon fill="midnightblue" stroke="midnightblue" points="311.148,-394.161 319.924,-388.225 309.362,-387.392 311.148,-394.161"/>
</g>
<!-- Node8&#45;&gt;Node6 -->
<g id="edge10" class="edge"><title>Node8&#45;&gt;Node6</title>
<path fill="none" stroke="midnightblue" d="M243.246,-218.459C262.829,-213.292 288.409,-206.541 310.253,-200.777"/>
<polygon fill="midnightblue" stroke="midnightblue" points="311.216,-204.143 319.992,-198.207 309.43,-197.374 311.216,-204.143"/>
</g>
<!-- Node9&#45;&gt;Node6 -->
<g id="edge12" class="edge"><title>Node9&#45;&gt;Node6</title>
<path fill="none" stroke="midnightblue" d="M239.085,-188.705C255.743,-188.705 277.74,-188.705 298.157,-188.705"/>
<polygon fill="midnightblue" stroke="midnightblue" points="298.336,-192.205 308.336,-188.705 298.336,-185.205 298.336,-192.205"/>
</g>
<!-- Node11&#45;&gt;Node3 -->
<g id="edge15" class="edge"><title>Node11&#45;&gt;Node3</title>
<path fill="none" stroke="midnightblue" d="M242.096,-270.811C252.128,-273.713 263.024,-277.866 272,-283.705 303.348,-304.097 330.078,-339.253 344.517,-360.603"/>
<polygon fill="midnightblue" stroke="midnightblue" points="341.675,-362.65 350.095,-369.081 347.523,-358.803 341.675,-362.65"/>
</g>
<!-- Node13&#45;&gt;Node7 -->
<g id="edge18" class="edge"><title>Node13&#45;&gt;Node7</title>
<path fill="none" stroke="midnightblue" d="M248.337,-65.1159C267.083,-60.1691 290.143,-54.0837 310.107,-48.8156"/>
<polygon fill="midnightblue" stroke="midnightblue" points="311.148,-52.1607 319.924,-46.2249 309.362,-45.3924 311.148,-52.1607"/>
</g>
</g>
</svg>
