<?xml version="1.0" encoding="UTF-8" standalone="no"?>
<!DOCTYPE svg PUBLIC "-//W3C//DTD SVG 1.1//EN"
 "http://www.w3.org/Graphics/SVG/1.1/DTD/svg11.dtd">
<!-- Generated by graphviz version 2.36.0 (20140111.2315)
 -->
<!-- Title: mutt_write_mime_body Pages: 1 -->
<svg width="306pt" height="344pt"
 viewBox="0.00 0.00 306.00 344.00" xmlns="http://www.w3.org/2000/svg" xmlns:xlink="http://www.w3.org/1999/xlink">
<g id="graph0" class="graph" transform="scale(1 1) rotate(0) translate(4 340)">
<title>mutt_write_mime_body</title>
<polygon fill="white" stroke="none" points="-4,4 -4,-340 302,-340 302,4 -4,4"/>
<!-- Node1 -->
<g id="node1" class="node"><title>Node1</title>
<polygon fill="#bfbfbf" stroke="black" points="0,-158.5 0,-177.5 118,-177.5 118,-158.5 0,-158.5"/>
<text text-anchor="middle" x="59" y="-165.5" font-family="Helvetica,sans-Serif" font-size="10.00">mutt_write_mime_body</text>
</g>
<!-- Node1&#45;&gt;Node1 -->
<g id="edge8" class="edge"><title>Node1&#45;&gt;Node1</title>
<path fill="none" stroke="midnightblue" d="M27.9371,-186.275C28.8228,-191.741 39.1771,-196 59,-196 88.5039,-196 97.0324,-186.565 84.5854,-177.757"/>
<polygon fill="midnightblue" stroke="midnightblue" points="30.9495,-188.061 33.4146,-177.757 25.0618,-184.275 30.9495,-188.061"/>
</g>
<!-- Node2 -->
<g id="node2" class="node"><title>Node2</title>
<g id="a_node2"><a xlink:href="main_8c.html#adedb285b02c41bde2158ded9cc9fd7ac" target="_top" xlink:title="Start NeoMutt. ">
<polygon fill="white" stroke="black" points="207,-316.5 207,-335.5 245,-335.5 245,-316.5 207,-316.5"/>
<text text-anchor="middle" x="226" y="-323.5" font-family="Helvetica,sans-Serif" font-size="10.00">main</text>
</a>
</g>
</g>
<!-- Node1&#45;&gt;Node2 -->
<g id="edge1" class="edge"><title>Node1&#45;&gt;Node2</title>
<path fill="none" stroke="midnightblue" d="M67.7044,-187.287C80.7917,-217.529 110.272,-275.86 154,-307 169.695,-318.177 191.577,-322.779 206.886,-324.674"/>
<polygon fill="midnightblue" stroke="midnightblue" points="70.8471,-185.73 63.7625,-177.852 64.3882,-188.428 70.8471,-185.73"/>
</g>
<!-- Node3 -->
<g id="node3" class="node"><title>Node3</title>
<g id="a_node3"><a xlink:href="crypt__gpgme_8c.html#a5f88576e041b52a5e0196a77d808ad74" target="_top" xlink:title="Create GPGME object from the mail body. ">
<polygon fill="white" stroke="red" points="172.5,-278.5 172.5,-297.5 279.5,-297.5 279.5,-278.5 172.5,-278.5"/>
<text text-anchor="middle" x="226" y="-285.5" font-family="Helvetica,sans-Serif" font-size="10.00">body_to_data_object</text>
</a>
</g>
</g>
<!-- Node1&#45;&gt;Node3 -->
<g id="edge2" class="edge"><title>Node1&#45;&gt;Node3</title>
<path fill="none" stroke="midnightblue" d="M71.9963,-186.175C87.9924,-208.963 118.456,-247.627 154,-269 160.452,-272.88 167.701,-275.98 175.037,-278.455"/>
<polygon fill="midnightblue" stroke="midnightblue" points="74.7667,-184.026 66.2331,-177.746 68.9884,-187.977 74.7667,-184.026"/>
</g>
<!-- Node4 -->
<g id="node4" class="node"><title>Node4</title>
<g id="a_node4"><a xlink:href="pgp_8h.html#a12c1b61b61e1456fb4f358d563dcf64a" target="_top" xlink:title="Implements CryptModuleSpecs::sign_message() ">
<polygon fill="white" stroke="black" points="161.5,-240.5 161.5,-259.5 290.5,-259.5 290.5,-240.5 161.5,-240.5"/>
<text text-anchor="middle" x="226" y="-247.5" font-family="Helvetica,sans-Serif" font-size="10.00">pgp_class_sign_message</text>
</a>
</g>
</g>
<!-- Node1&#45;&gt;Node4 -->
<g id="edge3" class="edge"><title>Node1&#45;&gt;Node4</title>
<path fill="none" stroke="midnightblue" d="M79.8166,-184.128C98.0924,-198.285 126.48,-218.513 154,-231 162.25,-234.743 171.385,-237.872 180.28,-240.439"/>
<polygon fill="midnightblue" stroke="midnightblue" points="81.7234,-181.174 71.7052,-177.726 77.3867,-186.669 81.7234,-181.174"/>
</g>
<!-- Node5 -->
<g id="node5" class="node"><title>Node5</title>
<g id="a_node5"><a xlink:href="pgp_8h.html#a2402514e625cf2d0a44e3826056f17d9" target="_top" xlink:title="Implements CryptModuleSpecs::pgp_encrypt_message() ">
<polygon fill="white" stroke="black" points="154.5,-202.5 154.5,-221.5 297.5,-221.5 297.5,-202.5 154.5,-202.5"/>
<text text-anchor="middle" x="226" y="-209.5" font-family="Helvetica,sans-Serif" font-size="10.00">pgp_class_encrypt_message</text>
</a>
</g>
</g>
<!-- Node1&#45;&gt;Node5 -->
<g id="edge4" class="edge"><title>Node1&#45;&gt;Node5</title>
<path fill="none" stroke="midnightblue" d="M105.58,-180.155C131.983,-187.195 164.742,-195.931 189.267,-202.471"/>
<polygon fill="midnightblue" stroke="midnightblue" points="106.367,-176.742 95.8025,-177.547 104.563,-183.506 106.367,-176.742"/>
</g>
<!-- Node6 -->
<g id="node6" class="node"><title>Node6</title>
<g id="a_node6"><a xlink:href="smime_8h.html#a7c447834a2bcda8aecc09a295778bbae" target="_top" xlink:title="Implements CryptModuleSpecs::smime_build_smime_entity() ">
<polygon fill="white" stroke="black" points="159,-153 159,-183 293,-183 293,-153 159,-153"/>
<text text-anchor="start" x="167" y="-171" font-family="Helvetica,sans-Serif" font-size="10.00">smime_class_build_smime</text>
<text text-anchor="middle" x="226" y="-160" font-family="Helvetica,sans-Serif" font-size="10.00">_entity</text>
</a>
</g>
</g>
<!-- Node1&#45;&gt;Node6 -->
<g id="edge5" class="edge"><title>Node1&#45;&gt;Node6</title>
<path fill="none" stroke="midnightblue" d="M128.201,-168C138.352,-168 148.801,-168 158.908,-168"/>
<polygon fill="midnightblue" stroke="midnightblue" points="128.173,-164.5 118.173,-168 128.173,-171.5 128.173,-164.5"/>
</g>
<!-- Node7 -->
<g id="node7" class="node"><title>Node7</title>
<g id="a_node7"><a xlink:href="smime_8h.html#aab6734ab49c71e47278862ae0714cb96" target="_top" xlink:title="Implements CryptModuleSpecs::sign_message() ">
<polygon fill="white" stroke="black" points="154.5,-114.5 154.5,-133.5 297.5,-133.5 297.5,-114.5 154.5,-114.5"/>
<text text-anchor="middle" x="226" y="-121.5" font-family="Helvetica,sans-Serif" font-size="10.00">smime_class_sign_message</text>
</a>
</g>
</g>
<!-- Node1&#45;&gt;Node7 -->
<g id="edge6" class="edge"><title>Node1&#45;&gt;Node7</title>
<path fill="none" stroke="midnightblue" d="M105.58,-155.845C131.983,-148.805 164.742,-140.069 189.267,-133.529"/>
<polygon fill="midnightblue" stroke="midnightblue" points="104.563,-152.494 95.8025,-158.453 106.367,-159.258 104.563,-152.494"/>
</g>
<!-- Node8 -->
<g id="node8" class="node"><title>Node8</title>
<g id="a_node8"><a xlink:href="send_8c.html#ae6a53a87d2adfab9e338964ca78e1f6f" target="_top" xlink:title="Send an email. ">
<polygon fill="white" stroke="red" points="184.5,-76.5 184.5,-95.5 267.5,-95.5 267.5,-76.5 184.5,-76.5"/>
<text text-anchor="middle" x="226" y="-83.5" font-family="Helvetica,sans-Serif" font-size="10.00">send_message</text>
</a>
</g>
</g>
<!-- Node1&#45;&gt;Node8 -->
<g id="edge7" class="edge"><title>Node1&#45;&gt;Node8</title>
<path fill="none" stroke="midnightblue" d="M79.8166,-151.872C98.0924,-137.715 126.48,-117.487 154,-105 163.528,-100.677 174.237,-97.1734 184.393,-94.4087"/>
<polygon fill="midnightblue" stroke="midnightblue" points="77.3867,-149.331 71.7052,-158.274 81.7234,-154.826 77.3867,-149.331"/>
</g>
<!-- Node9 -->
<g id="node9" class="node"><title>Node9</title>
<g id="a_node9"><a xlink:href="sendlib_8h.html#af41734ef550be557043b573b7256ad9a" target="_top" xlink:title="Convert an email&#39;s MIME parts to 7&#45;bit. ">
<polygon fill="white" stroke="red" points="168,-38.5 168,-57.5 284,-57.5 284,-38.5 168,-38.5"/>
<text text-anchor="middle" x="226" y="-45.5" font-family="Helvetica,sans-Serif" font-size="10.00">mutt_message_to_7bit</text>
</a>
</g>
</g>
<!-- Node1&#45;&gt;Node9 -->
<g id="edge9" class="edge"><title>Node1&#45;&gt;Node9</title>
<path fill="none" stroke="midnightblue" d="M71.9963,-149.825C87.9924,-127.037 118.456,-88.3728 154,-67 160.452,-63.1204 167.701,-60.0199 175.037,-57.5454"/>
<polygon fill="midnightblue" stroke="midnightblue" points="68.9884,-148.023 66.2331,-158.254 74.7667,-151.974 68.9884,-148.023"/>
</g>
<!-- Node10 -->
<g id="node10" class="node"><title>Node10</title>
<g id="a_node10"><a xlink:href="sendlib_8h.html#ad77b7100b114c03b9972ebbd278a8c22" target="_top" xlink:title="Write email to FCC mailbox. ">
<polygon fill="white" stroke="red" points="185.5,-0.5 185.5,-19.5 266.5,-19.5 266.5,-0.5 185.5,-0.5"/>
<text text-anchor="middle" x="226" y="-7.5" font-family="Helvetica,sans-Serif" font-size="10.00">mutt_write_fcc</text>
</a>
</g>
</g>
<!-- Node1&#45;&gt;Node10 -->
<g id="edge10" class="edge"><title>Node1&#45;&gt;Node10</title>
<path fill="none" stroke="midnightblue" d="M67.7044,-148.713C80.7917,-118.471 110.272,-60.1404 154,-29 163.147,-22.4863 174.395,-18.2057 185.218,-15.3925"/>
<polygon fill="midnightblue" stroke="midnightblue" points="64.3882,-147.572 63.7625,-158.148 70.8471,-150.27 64.3882,-147.572"/>
</g>
</g>
</svg>
