<?xml version="1.0" encoding="UTF-8" standalone="no"?>
<!DOCTYPE svg PUBLIC "-//W3C//DTD SVG 1.1//EN"
 "http://www.w3.org/Graphics/SVG/1.1/DTD/svg11.dtd">
<!-- Generated by graphviz version 2.36.0 (20140111.2315)
 -->
<!-- Title: mutt_make_misc_reply_headers Pages: 1 -->
<svg width="276pt" height="77pt"
 viewBox="0.00 0.00 276.00 77.00" xmlns="http://www.w3.org/2000/svg" xmlns:xlink="http://www.w3.org/1999/xlink">
<g id="graph0" class="graph" transform="scale(1 1) rotate(0) translate(4 73)">
<title>mutt_make_misc_reply_headers</title>
<polygon fill="white" stroke="none" points="-4,4 -4,-73 272,-73 272,4 -4,4"/>
<!-- Node1 -->
<g id="node1" class="node"><title>Node1</title>
<polygon fill="#bfbfbf" stroke="black" points="0,-17 0,-47 118,-47 118,-17 0,-17"/>
<text text-anchor="start" x="8" y="-35" font-family="Helvetica,sans-Serif" font-size="10.00">mutt_make_misc_reply</text>
<text text-anchor="middle" x="59" y="-24" font-family="Helvetica,sans-Serif" font-size="10.00">_headers</text>
</g>
<!-- Node2 -->
<g id="node2" class="node"><title>Node2</title>
<g id="a_node2"><a xlink:href="recvcmd_8c.html#a587795a78df89b46f69e4ef82a6e52ec" target="_top" xlink:title="the various reply functions, from the attachment menu ">
<polygon fill="white" stroke="red" points="154,-39 154,-69 268,-69 268,-39 154,-39"/>
<text text-anchor="start" x="162" y="-57" font-family="Helvetica,sans-Serif" font-size="10.00">attach_reply_envelope</text>
<text text-anchor="middle" x="211" y="-46" font-family="Helvetica,sans-Serif" font-size="10.00">_defaults</text>
</a>
</g>
</g>
<!-- Node1&#45;&gt;Node2 -->
<g id="edge1" class="edge"><title>Node1&#45;&gt;Node2</title>
<path fill="none" stroke="midnightblue" d="M128.386,-42.03C136.941,-43.2848 145.612,-44.5565 153.949,-45.7792"/>
<polygon fill="midnightblue" stroke="midnightblue" points="128.826,-38.557 118.423,-40.5688 127.81,-45.4829 128.826,-38.557"/>
</g>
<!-- Node3 -->
<g id="node3" class="node"><title>Node3</title>
<g id="a_node3"><a xlink:href="send_8c.html#a9bb1ac9097cd8ddb93a26b50d05feddc" target="_top" xlink:title="Fill in some defaults for a new email. ">
<polygon fill="white" stroke="red" points="163.5,-0.5 163.5,-19.5 258.5,-19.5 258.5,-0.5 163.5,-0.5"/>
<text text-anchor="middle" x="211" y="-7.5" font-family="Helvetica,sans-Serif" font-size="10.00">envelope_defaults</text>
</a>
</g>
</g>
<!-- Node1&#45;&gt;Node3 -->
<g id="edge2" class="edge"><title>Node1&#45;&gt;Node3</title>
<path fill="none" stroke="midnightblue" d="M128.599,-21.9389C140.271,-20.2269 152.151,-18.4845 163.098,-16.8789"/>
<polygon fill="midnightblue" stroke="midnightblue" points="127.81,-18.5171 118.423,-23.4312 128.826,-25.443 127.81,-18.5171"/>
</g>
</g>
</svg>
