<?xml version="1.0" encoding="UTF-8" standalone="no"?>
<!DOCTYPE svg PUBLIC "-//W3C//DTD SVG 1.1//EN"
 "http://www.w3.org/Graphics/SVG/1.1/DTD/svg11.dtd">
<!-- Generated by graphviz version 2.36.0 (20140111.2315)
 -->
<!-- Title: mutt_bounce_message Pages: 1 -->
<svg width="268pt" height="66pt"
 viewBox="0.00 0.00 268.00 66.00" xmlns="http://www.w3.org/2000/svg" xmlns:xlink="http://www.w3.org/1999/xlink">
<g id="graph0" class="graph" transform="scale(1 1) rotate(0) translate(4 62)">
<title>mutt_bounce_message</title>
<polygon fill="white" stroke="none" points="-4,4 -4,-62 264,-62 264,4 -4,4"/>
<!-- Node1 -->
<g id="node1" class="node"><title>Node1</title>
<polygon fill="#bfbfbf" stroke="black" points="0,-19.5 0,-38.5 118,-38.5 118,-19.5 0,-19.5"/>
<text text-anchor="middle" x="59" y="-26.5" font-family="Helvetica,sans-Serif" font-size="10.00">mutt_bounce_message</text>
</g>
<!-- Node2 -->
<g id="node2" class="node"><title>Node2</title>
<g id="a_node2"><a xlink:href="commands_8h.html#a2815f046da32dd09b3c3f4f93a1537b4" target="_top" xlink:title="Bounce an email. ">
<polygon fill="white" stroke="red" points="154,-38.5 154,-57.5 260,-57.5 260,-38.5 154,-38.5"/>
<text text-anchor="middle" x="207" y="-45.5" font-family="Helvetica,sans-Serif" font-size="10.00">ci_bounce_message</text>
</a>
</g>
</g>
<!-- Node1&#45;&gt;Node2 -->
<g id="edge1" class="edge"><title>Node1&#45;&gt;Node2</title>
<path fill="none" stroke="midnightblue" d="M128.152,-37.8691C136.755,-38.9887 145.448,-40.12 153.751,-41.2005"/>
<polygon fill="midnightblue" stroke="midnightblue" points="128.491,-34.3837 118.123,-36.5639 127.587,-41.3252 128.491,-34.3837"/>
</g>
<!-- Node3 -->
<g id="node3" class="node"><title>Node3</title>
<g id="a_node3"><a xlink:href="recvcmd_8h.html#a4894c4b5eb8d84ca5007940b13e5087e" target="_top" xlink:title="Bounce function, from the attachment menu. ">
<polygon fill="white" stroke="red" points="154.5,-0.5 154.5,-19.5 259.5,-19.5 259.5,-0.5 154.5,-0.5"/>
<text text-anchor="middle" x="207" y="-7.5" font-family="Helvetica,sans-Serif" font-size="10.00">mutt_attach_bounce</text>
</a>
</g>
</g>
<!-- Node1&#45;&gt;Node3 -->
<g id="edge2" class="edge"><title>Node1&#45;&gt;Node3</title>
<path fill="none" stroke="midnightblue" d="M128.288,-20.1132C137.009,-18.9783 145.819,-17.8317 154.219,-16.7386"/>
<polygon fill="midnightblue" stroke="midnightblue" points="127.587,-16.6748 118.123,-21.4361 128.491,-23.6163 127.587,-16.6748"/>
</g>
</g>
</svg>
