<?xml version="1.0" encoding="UTF-8" standalone="no"?>
<!DOCTYPE svg PUBLIC "-//W3C//DTD SVG 1.1//EN"
 "http://www.w3.org/Graphics/SVG/1.1/DTD/svg11.dtd">
<!-- Generated by graphviz version 2.36.0 (20140111.2315)
 -->
<!-- Title: mutt_get_content_info Pages: 1 -->
<svg width="426pt" height="85pt"
 viewBox="0.00 0.00 426.00 85.00" xmlns="http://www.w3.org/2000/svg" xmlns:xlink="http://www.w3.org/1999/xlink">
<g id="graph0" class="graph" transform="scale(1 1) rotate(0) translate(4 81)">
<title>mutt_get_content_info</title>
<polygon fill="white" stroke="none" points="-4,4 -4,-81 422,-81 422,4 -4,4"/>
<!-- Node1 -->
<g id="node1" class="node"><title>Node1</title>
<polygon fill="#bfbfbf" stroke="black" points="0.5,-19.5 0.5,-38.5 113.5,-38.5 113.5,-19.5 0.5,-19.5"/>
<text text-anchor="middle" x="57" y="-26.5" font-family="Helvetica,sans-Serif" font-size="10.00">mutt_get_content_info</text>
</g>
<!-- Node2 -->
<g id="node2" class="node"><title>Node2</title>
<g id="a_node2"><a xlink:href="compose_8c.html#a10fb95e2265c7801f3cc2dcb92c3b836" target="_top" xlink:title="Cumulative Attachments Size. ">
<polygon fill="white" stroke="red" points="160,-57.5 160,-76.5 256,-76.5 256,-57.5 160,-57.5"/>
<text text-anchor="middle" x="208" y="-64.5" font-family="Helvetica,sans-Serif" font-size="10.00">cum_attachs_size</text>
</a>
</g>
</g>
<!-- Node1&#45;&gt;Node2 -->
<g id="edge1" class="edge"><title>Node1&#45;&gt;Node2</title>
<path fill="none" stroke="midnightblue" d="M105.492,-41.1121C126.244,-46.4044 150.228,-52.5213 169.671,-57.4799"/>
<polygon fill="midnightblue" stroke="midnightblue" points="106.154,-37.6689 95.599,-38.589 104.424,-44.4518 106.154,-37.6689"/>
</g>
<!-- Node3 -->
<g id="node3" class="node"><title>Node3</title>
<g id="a_node3"><a xlink:href="sendlib_8h.html#a3d800a72894aa007528c1bfd4b5a9dbc" target="_top" xlink:title="Update the encoding type. ">
<polygon fill="white" stroke="red" points="150.5,-19.5 150.5,-38.5 265.5,-38.5 265.5,-19.5 150.5,-19.5"/>
<text text-anchor="middle" x="208" y="-26.5" font-family="Helvetica,sans-Serif" font-size="10.00">mutt_update_encoding</text>
</a>
</g>
</g>
<!-- Node1&#45;&gt;Node3 -->
<g id="edge2" class="edge"><title>Node1&#45;&gt;Node3</title>
<path fill="none" stroke="midnightblue" d="M124.07,-29C132.815,-29 141.716,-29 150.284,-29"/>
<polygon fill="midnightblue" stroke="midnightblue" points="123.906,-25.5001 113.906,-29 123.906,-32.5001 123.906,-25.5001"/>
</g>
<!-- Node4 -->
<g id="node4" class="node"><title>Node4</title>
<g id="a_node4"><a xlink:href="sendlib_8h.html#ac3c97bd11a16a252a685410e35a39dda" target="_top" xlink:title="Create a file attachment. ">
<polygon fill="white" stroke="red" points="302,-0.5 302,-19.5 418,-19.5 418,-0.5 302,-0.5"/>
<text text-anchor="middle" x="360" y="-7.5" font-family="Helvetica,sans-Serif" font-size="10.00">mutt_make_file_attach</text>
</a>
</g>
</g>
<!-- Node1&#45;&gt;Node4 -->
<g id="edge4" class="edge"><title>Node1&#45;&gt;Node4</title>
<path fill="none" stroke="midnightblue" d="M105.404,-17.2884C119.648,-14.2912 135.377,-11.4942 150,-10 201.077,-4.78082 259.543,-5.33128 301.624,-6.86777"/>
<polygon fill="midnightblue" stroke="midnightblue" points="104.353,-13.9355 95.3311,-19.4906 105.848,-20.7739 104.353,-13.9355"/>
</g>
<!-- Node3&#45;&gt;Node4 -->
<g id="edge3" class="edge"><title>Node3&#45;&gt;Node4</title>
<path fill="none" stroke="midnightblue" d="M275.773,-20.5421C284.428,-19.4458 293.231,-18.3308 301.713,-17.2564"/>
<polygon fill="midnightblue" stroke="midnightblue" points="275.189,-17.0879 265.709,-21.8169 276.069,-24.0325 275.189,-17.0879"/>
</g>
</g>
</svg>
