<?xml version="1.0" encoding="UTF-8" standalone="no"?>
<!DOCTYPE svg PUBLIC "-//W3C//DTD SVG 1.1//EN"
 "http://www.w3.org/Graphics/SVG/1.1/DTD/svg11.dtd">
<!-- Generated by graphviz version 2.36.0 (20140111.2315)
 -->
<!-- Title: mutt_make_file_attach Pages: 1 -->
<svg width="404pt" height="142pt"
 viewBox="0.00 0.00 404.00 142.00" xmlns="http://www.w3.org/2000/svg" xmlns:xlink="http://www.w3.org/1999/xlink">
<g id="graph0" class="graph" transform="scale(1 1) rotate(0) translate(4 138)">
<title>mutt_make_file_attach</title>
<polygon fill="white" stroke="none" points="-4,4 -4,-138 400,-138 400,4 -4,4"/>
<!-- Node1 -->
<g id="node1" class="node"><title>Node1</title>
<polygon fill="#bfbfbf" stroke="black" points="0,-57.5 0,-76.5 116,-76.5 116,-57.5 0,-57.5"/>
<text text-anchor="middle" x="58" y="-64.5" font-family="Helvetica,sans-Serif" font-size="10.00">mutt_make_file_attach</text>
</g>
<!-- Node2 -->
<g id="node2" class="node"><title>Node2</title>
<g id="a_node2"><a xlink:href="browser_8h.html#ab036990112b8014c0b84c401e77f96d3" target="_top" xlink:title="Let the user select a file. ">
<polygon fill="white" stroke="red" points="158,-114.5 158,-133.5 244,-133.5 244,-114.5 158,-114.5"/>
<text text-anchor="middle" x="201" y="-121.5" font-family="Helvetica,sans-Serif" font-size="10.00">mutt_select_file</text>
</a>
</g>
</g>
<!-- Node1&#45;&gt;Node2 -->
<g id="edge1" class="edge"><title>Node1&#45;&gt;Node2</title>
<path fill="none" stroke="midnightblue" d="M92.0012,-80.3409C117.861,-90.795 153.216,-105.087 176.323,-114.428"/>
<polygon fill="midnightblue" stroke="midnightblue" points="93.1831,-77.0436 82.6002,-76.5405 90.5596,-83.5334 93.1831,-77.0436"/>
</g>
<!-- Node3 -->
<g id="node3" class="node"><title>Node3</title>
<g id="a_node3"><a xlink:href="main_8c.html#adedb285b02c41bde2158ded9cc9fd7ac" target="_top" xlink:title="Start NeoMutt. ">
<polygon fill="white" stroke="black" points="322,-85.5 322,-104.5 360,-104.5 360,-85.5 322,-85.5"/>
<text text-anchor="middle" x="341" y="-92.5" font-family="Helvetica,sans-Serif" font-size="10.00">main</text>
</a>
</g>
</g>
<!-- Node1&#45;&gt;Node3 -->
<g id="edge4" class="edge"><title>Node1&#45;&gt;Node3</title>
<path fill="none" stroke="midnightblue" d="M126.25,-73.7011C190.443,-80.0975 282.957,-89.316 321.773,-93.1837"/>
<polygon fill="midnightblue" stroke="midnightblue" points="126.501,-70.2088 116.203,-72.7 125.807,-77.1743 126.501,-70.2088"/>
</g>
<!-- Node4 -->
<g id="node4" class="node"><title>Node4</title>
<g id="a_node4"><a xlink:href="compose_8h.html#ad69c04d8ece089edb91f7b1178c2262c" target="_top" xlink:title="Allow the user to edit the message envelope. ">
<polygon fill="white" stroke="red" points="286,-28.5 286,-47.5 396,-47.5 396,-28.5 286,-28.5"/>
<text text-anchor="middle" x="341" y="-35.5" font-family="Helvetica,sans-Serif" font-size="10.00">mutt_compose_menu</text>
</a>
</g>
</g>
<!-- Node1&#45;&gt;Node4 -->
<g id="edge3" class="edge"><title>Node1&#45;&gt;Node4</title>
<path fill="none" stroke="midnightblue" d="M126.355,-60.0488C175.151,-55.0128 240.27,-48.2924 285.739,-43.5999"/>
<polygon fill="midnightblue" stroke="midnightblue" points="125.791,-56.5883 116.203,-61.0965 126.51,-63.5513 125.791,-56.5883"/>
</g>
<!-- Node5 -->
<g id="node5" class="node"><title>Node5</title>
<g id="a_node5"><a xlink:href="mutt__header_8h.html#ac62ee78bf6fa15d23c2066f7e31cc3e5" target="_top" xlink:title="Let the user edit the message header and body. ">
<polygon fill="white" stroke="red" points="152.5,-0.5 152.5,-19.5 249.5,-19.5 249.5,-0.5 152.5,-0.5"/>
<text text-anchor="middle" x="201" y="-7.5" font-family="Helvetica,sans-Serif" font-size="10.00">mutt_edit_headers</text>
</a>
</g>
</g>
<!-- Node1&#45;&gt;Node5 -->
<g id="edge5" class="edge"><title>Node1&#45;&gt;Node5</title>
<path fill="none" stroke="midnightblue" d="M92.0012,-53.6591C117.861,-43.205 153.216,-28.9126 176.323,-19.5716"/>
<polygon fill="midnightblue" stroke="midnightblue" points="90.5596,-50.4666 82.6002,-57.4595 93.1831,-56.9564 90.5596,-50.4666"/>
</g>
<!-- Node2&#45;&gt;Node3 -->
<g id="edge2" class="edge"><title>Node2&#45;&gt;Node3</title>
<path fill="none" stroke="midnightblue" d="M254.15,-113.041C277.966,-108.036 304.633,-102.432 321.835,-98.8173"/>
<polygon fill="midnightblue" stroke="midnightblue" points="253.221,-109.66 244.154,-115.141 254.66,-116.51 253.221,-109.66"/>
</g>
<!-- Node5&#45;&gt;Node4 -->
<g id="edge6" class="edge"><title>Node5&#45;&gt;Node4</title>
<path fill="none" stroke="midnightblue" d="M258.945,-21.5541C270.31,-23.8601 282.126,-26.2575 293.106,-28.4854"/>
<polygon fill="midnightblue" stroke="midnightblue" points="259.602,-18.1161 249.106,-19.5577 258.21,-24.9764 259.602,-18.1161"/>
</g>
</g>
</svg>
