<?xml version="1.0" encoding="UTF-8" standalone="no"?>
<!DOCTYPE svg PUBLIC "-//W3C//DTD SVG 1.1//EN"
 "http://www.w3.org/Graphics/SVG/1.1/DTD/svg11.dtd">
<!-- Generated by graphviz version 2.36.0 (20140111.2315)
 -->
<!-- Title: mutt_make_attribution Pages: 1 -->
<svg width="396pt" height="104pt"
 viewBox="0.00 0.00 396.00 104.00" xmlns="http://www.w3.org/2000/svg" xmlns:xlink="http://www.w3.org/1999/xlink">
<g id="graph0" class="graph" transform="scale(1 1) rotate(0) translate(4 100)">
<title>mutt_make_attribution</title>
<polygon fill="white" stroke="none" points="-4,4 -4,-100 392,-100 392,4 -4,4"/>
<!-- Node1 -->
<g id="node1" class="node"><title>Node1</title>
<polygon fill="#bfbfbf" stroke="black" points="0.5,-38.5 0.5,-57.5 113.5,-57.5 113.5,-38.5 0.5,-38.5"/>
<text text-anchor="middle" x="57" y="-45.5" font-family="Helvetica,sans-Serif" font-size="10.00">mutt_make_attribution</text>
</g>
<!-- Node2 -->
<g id="node2" class="node"><title>Node2</title>
<g id="a_node2"><a xlink:href="recvcmd_8c.html#ad787a7b5d402e6892f455ebf6f699125" target="_top" xlink:title="This is very similar to send.c&#39;s include_reply() ">
<polygon fill="white" stroke="black" points="150,-76.5 150,-95.5 256,-95.5 256,-76.5 150,-76.5"/>
<text text-anchor="middle" x="203" y="-83.5" font-family="Helvetica,sans-Serif" font-size="10.00">attach_include_reply</text>
</a>
</g>
</g>
<!-- Node1&#45;&gt;Node2 -->
<g id="edge1" class="edge"><title>Node1&#45;&gt;Node2</title>
<path fill="none" stroke="midnightblue" d="M104.172,-60.1843C124.164,-65.46 147.219,-71.5438 165.924,-76.4799"/>
<polygon fill="midnightblue" stroke="midnightblue" points="104.899,-56.7565 94.3373,-57.589 103.113,-63.5248 104.899,-56.7565"/>
</g>
<!-- Node3 -->
<g id="node3" class="node"><title>Node3</title>
<g id="a_node3"><a xlink:href="recvcmd_8h.html#a40682fa92a787a3a065716d851677599" target="_top" xlink:title="Attach a reply. ">
<polygon fill="white" stroke="red" points="292.5,-57.5 292.5,-76.5 387.5,-76.5 387.5,-57.5 292.5,-57.5"/>
<text text-anchor="middle" x="340" y="-64.5" font-family="Helvetica,sans-Serif" font-size="10.00">mutt_attach_reply</text>
</a>
</g>
</g>
<!-- Node1&#45;&gt;Node3 -->
<g id="edge3" class="edge"><title>Node1&#45;&gt;Node3</title>
<path fill="none" stroke="midnightblue" d="M123.605,-52.4359C175.392,-55.9375 246.36,-60.7361 292.443,-63.852"/>
<polygon fill="midnightblue" stroke="midnightblue" points="123.73,-48.9365 113.517,-51.7538 123.258,-55.9205 123.73,-48.9365"/>
</g>
<!-- Node4 -->
<g id="node4" class="node"><title>Node4</title>
<g id="a_node4"><a xlink:href="send_8c.html#a41e3fbbc7857aef9878e86e6a26ec064" target="_top" xlink:title="Generate the reply text for an email. ">
<polygon fill="white" stroke="red" points="166,-0.5 166,-19.5 240,-19.5 240,-0.5 166,-0.5"/>
<text text-anchor="middle" x="203" y="-7.5" font-family="Helvetica,sans-Serif" font-size="10.00">include_reply</text>
</a>
</g>
</g>
<!-- Node1&#45;&gt;Node4 -->
<g id="edge4" class="edge"><title>Node1&#45;&gt;Node4</title>
<path fill="none" stroke="midnightblue" d="M104.172,-35.8157C124.164,-30.54 147.219,-24.4562 165.924,-19.5201"/>
<polygon fill="midnightblue" stroke="midnightblue" points="103.113,-32.4752 94.3373,-38.411 104.899,-39.2435 103.113,-32.4752"/>
</g>
<!-- Node2&#45;&gt;Node3 -->
<g id="edge2" class="edge"><title>Node2&#45;&gt;Node3</title>
<path fill="none" stroke="midnightblue" d="M266.334,-77.227C275.047,-76.0008 283.875,-74.7583 292.233,-73.582"/>
<polygon fill="midnightblue" stroke="midnightblue" points="265.609,-73.7945 256.195,-78.6541 266.585,-80.7262 265.609,-73.7945"/>
</g>
</g>
</svg>
