<?xml version="1.0" encoding="UTF-8" standalone="no"?>
<!DOCTYPE svg PUBLIC "-//W3C//DTD SVG 1.1//EN"
 "http://www.w3.org/Graphics/SVG/1.1/DTD/svg11.dtd">
<!-- Generated by graphviz version 2.36.0 (20140111.2315)
 -->
<!-- Title: write_as_text_part Pages: 1 -->
<svg width="392pt" height="47pt"
 viewBox="0.00 0.00 392.00 47.00" xmlns="http://www.w3.org/2000/svg" xmlns:xlink="http://www.w3.org/1999/xlink">
<g id="graph0" class="graph" transform="scale(1 1) rotate(0) translate(4 43)">
<title>write_as_text_part</title>
<polygon fill="white" stroke="none" points="-4,4 -4,-43 388,-43 388,4 -4,4"/>
<!-- Node1 -->
<g id="node1" class="node"><title>Node1</title>
<polygon fill="#bfbfbf" stroke="black" points="0.5,-0.5 0.5,-19.5 97.5,-19.5 97.5,-0.5 0.5,-0.5"/>
<text text-anchor="middle" x="49" y="-7.5" font-family="Helvetica,sans-Serif" font-size="10.00">write_as_text_part</text>
</g>
<!-- Node2 -->
<g id="node2" class="node"><title>Node2</title>
<g id="a_node2"><a xlink:href="muttlib_8c.html#ab74b8ff8a0761cc4ef015c39a63f502d" target="_top" xlink:title="Is this part of an email in plain text? ">
<polygon fill="white" stroke="red" points="134,-19.5 134,-38.5 226,-38.5 226,-19.5 134,-19.5"/>
<text text-anchor="middle" x="180" y="-26.5" font-family="Helvetica,sans-Serif" font-size="10.00">mutt_is_text_part</text>
</a>
</g>
</g>
<!-- Node1&#45;&gt;Node2 -->
<g id="edge1" class="edge"><title>Node1&#45;&gt;Node2</title>
<path fill="none" stroke="midnightblue" d="M97.6683,-17.0209C106.128,-18.267 115.004,-19.5742 123.655,-20.8484"/>
<polygon fill="midnightblue" stroke="midnightblue" points="123.266,-24.3288 133.67,-22.3234 124.286,-17.4036 123.266,-24.3288"/>
</g>
<!-- Node3 -->
<g id="node3" class="node"><title>Node3</title>
<g id="a_node3"><a xlink:href="crypt_8c.html#a48685463993d7c829855e1f92b7e5f29" target="_top" xlink:title="Does the message use PGP? ">
<polygon fill="white" stroke="red" points="262,-0.5 262,-19.5 384,-19.5 384,-0.5 262,-0.5"/>
<text text-anchor="middle" x="323" y="-7.5" font-family="Helvetica,sans-Serif" font-size="10.00">mutt_is_application_pgp</text>
</a>
</g>
</g>
<!-- Node1&#45;&gt;Node3 -->
<g id="edge3" class="edge"><title>Node1&#45;&gt;Node3</title>
<path fill="none" stroke="midnightblue" d="M97.69,-10C140.363,-10 203.472,-10 251.889,-10"/>
<polygon fill="midnightblue" stroke="midnightblue" points="251.985,-13.5001 261.985,-10 251.985,-6.5001 251.985,-13.5001"/>
</g>
<!-- Node2&#45;&gt;Node3 -->
<g id="edge2" class="edge"><title>Node2&#45;&gt;Node3</title>
<path fill="none" stroke="midnightblue" d="M226.001,-22.936C234.316,-21.8156 243.178,-20.6214 252.029,-19.4287"/>
<polygon fill="midnightblue" stroke="midnightblue" points="252.545,-22.891 261.988,-18.0868 251.61,-15.9537 252.545,-22.891"/>
</g>
</g>
</svg>
