<?xml version="1.0" encoding="UTF-8" standalone="no"?>
<!DOCTYPE svg PUBLIC "-//W3C//DTD SVG 1.1//EN"
 "http://www.w3.org/Graphics/SVG/1.1/DTD/svg11.dtd">
<!-- Generated by graphviz version 2.36.0 (20140111.2315)
 -->
<!-- Title: serial_dump_parameter Pages: 1 -->
<svg width="256pt" height="66pt"
 viewBox="0.00 0.00 256.00 66.00" xmlns="http://www.w3.org/2000/svg" xmlns:xlink="http://www.w3.org/1999/xlink">
<g id="graph0" class="graph" transform="scale(1 1) rotate(0) translate(4 62)">
<title>serial_dump_parameter</title>
<polygon fill="white" stroke="none" points="-4,4 -4,-62 252,-62 252,4 -4,4"/>
<!-- Node1 -->
<g id="node1" class="node"><title>Node1</title>
<polygon fill="#bfbfbf" stroke="black" points="0,-19.5 0,-38.5 118,-38.5 118,-19.5 0,-19.5"/>
<text text-anchor="middle" x="59" y="-26.5" font-family="Helvetica,sans-Serif" font-size="10.00">serial_dump_parameter</text>
</g>
<!-- Node2 -->
<g id="node2" class="node"><title>Node2</title>
<g id="a_node2"><a xlink:href="serialize_8c.html#a4cb970e9ca646206b7428ae05d6fc62a" target="_top" xlink:title="Pack an integer into a binary blob. ">
<polygon fill="white" stroke="red" points="158.5,-38.5 158.5,-57.5 243.5,-57.5 243.5,-38.5 158.5,-38.5"/>
<text text-anchor="middle" x="201" y="-45.5" font-family="Helvetica,sans-Serif" font-size="10.00">serial_dump_int</text>
</a>
</g>
</g>
<!-- Node1&#45;&gt;Node2 -->
<g id="edge1" class="edge"><title>Node1&#45;&gt;Node2</title>
<path fill="none" stroke="midnightblue" d="M118.156,-36.8926C128.193,-38.2547 138.564,-39.6622 148.411,-40.9987"/>
<polygon fill="midnightblue" stroke="midnightblue" points="148.068,-44.4842 158.448,-42.3608 149.01,-37.5477 148.068,-44.4842"/>
</g>
<!-- Node3 -->
<g id="node3" class="node"><title>Node3</title>
<g id="a_node3"><a xlink:href="serialize_8c.html#a7fa6bf18ed1915cdfb49d945b6c018d3" target="_top" xlink:title="Pack a variable&#45;length string into a binary blob. ">
<polygon fill="white" stroke="red" points="154.5,-0.5 154.5,-19.5 247.5,-19.5 247.5,-0.5 154.5,-0.5"/>
<text text-anchor="middle" x="201" y="-7.5" font-family="Helvetica,sans-Serif" font-size="10.00">serial_dump_char</text>
</a>
</g>
</g>
<!-- Node1&#45;&gt;Node3 -->
<g id="edge2" class="edge"><title>Node1&#45;&gt;Node3</title>
<path fill="none" stroke="midnightblue" d="M118.156,-21.1074C126.796,-19.9348 135.683,-18.7287 144.272,-17.5631"/>
<polygon fill="midnightblue" stroke="midnightblue" points="144.745,-21.0311 154.183,-16.218 143.803,-14.0947 144.745,-21.0311"/>
</g>
</g>
</svg>
