<?xml version="1.0" encoding="UTF-8" standalone="no"?>
<!DOCTYPE svg PUBLIC "-//W3C//DTD SVG 1.1//EN"
 "http://www.w3.org/Graphics/SVG/1.1/DTD/svg11.dtd">
<!-- Generated by graphviz version 2.36.0 (20140111.2315)
 -->
<!-- Title: serial_restore_stailq Pages: 1 -->
<svg width="378pt" height="79pt"
 viewBox="0.00 0.00 378.00 78.82" xmlns="http://www.w3.org/2000/svg" xmlns:xlink="http://www.w3.org/1999/xlink">
<g id="graph0" class="graph" transform="scale(1 1) rotate(0) translate(4 74.8215)">
<title>serial_restore_stailq</title>
<polygon fill="white" stroke="none" points="-4,4 -4,-74.8215 374,-74.8215 374,4 -4,4"/>
<!-- Node1 -->
<g id="node1" class="node"><title>Node1</title>
<polygon fill="#bfbfbf" stroke="black" points="0,-38.5 0,-57.5 104,-57.5 104,-38.5 0,-38.5"/>
<text text-anchor="middle" x="52" y="-45.5" font-family="Helvetica,sans-Serif" font-size="10.00">serial_restore_stailq</text>
</g>
<!-- Node2 -->
<g id="node2" class="node"><title>Node2</title>
<g id="a_node2"><a xlink:href="serialize_8c.html#ae337dfc66e217ae0253a77eef4271f02" target="_top" xlink:title="Unpack an integer from a binary blob. ">
<polygon fill="white" stroke="black" points="278.5,-38.5 278.5,-57.5 369.5,-57.5 369.5,-38.5 278.5,-38.5"/>
<text text-anchor="middle" x="324" y="-45.5" font-family="Helvetica,sans-Serif" font-size="10.00">serial_restore_int</text>
</a>
</g>
</g>
<!-- Node1&#45;&gt;Node2 -->
<g id="edge1" class="edge"><title>Node1&#45;&gt;Node2</title>
<path fill="none" stroke="midnightblue" d="M88.2726,-57.5084C103.98,-61.2731 122.785,-65.1421 140,-67 185.072,-71.8643 196.967,-72.2109 242,-67 254.555,-65.5472 267.99,-62.8679 280.237,-59.9702"/>
<polygon fill="midnightblue" stroke="midnightblue" points="281.332,-63.3049 290.2,-57.5069 279.652,-56.5095 281.332,-63.3049"/>
</g>
<!-- Node3 -->
<g id="node3" class="node"><title>Node3</title>
<g id="a_node3"><a xlink:href="list_8c.html#ace47a64c8bec9d1b24be6524f650293d" target="_top" xlink:title="Append a string to the end of a List. ">
<polygon fill="white" stroke="red" points="140.5,-38.5 140.5,-57.5 241.5,-57.5 241.5,-38.5 140.5,-38.5"/>
<text text-anchor="middle" x="191" y="-45.5" font-family="Helvetica,sans-Serif" font-size="10.00">mutt_list_insert_tail</text>
</a>
</g>
</g>
<!-- Node1&#45;&gt;Node3 -->
<g id="edge2" class="edge"><title>Node1&#45;&gt;Node3</title>
<path fill="none" stroke="midnightblue" d="M104.014,-48C112.544,-48 121.462,-48 130.188,-48"/>
<polygon fill="midnightblue" stroke="midnightblue" points="130.31,-51.5001 140.31,-48 130.31,-44.5001 130.31,-51.5001"/>
</g>
<!-- Node4 -->
<g id="node4" class="node"><title>Node4</title>
<g id="a_node4"><a xlink:href="serialize_8c.html#a43a280bdcd6ff4e026fbab74aa3f82c4" target="_top" xlink:title="Unpack a variable&#45;length string from a binary blob. ">
<polygon fill="white" stroke="red" points="141.5,-0.5 141.5,-19.5 240.5,-19.5 240.5,-0.5 141.5,-0.5"/>
<text text-anchor="middle" x="191" y="-7.5" font-family="Helvetica,sans-Serif" font-size="10.00">serial_restore_char</text>
</a>
</g>
</g>
<!-- Node1&#45;&gt;Node4 -->
<g id="edge3" class="edge"><title>Node1&#45;&gt;Node4</title>
<path fill="none" stroke="midnightblue" d="M87.5709,-38.411C105.175,-33.5281 126.779,-27.5357 145.601,-22.315"/>
<polygon fill="midnightblue" stroke="midnightblue" points="146.739,-25.6315 155.44,-19.5859 144.868,-18.8862 146.739,-25.6315"/>
</g>
<!-- Node4&#45;&gt;Node2 -->
<g id="edge4" class="edge"><title>Node4&#45;&gt;Node2</title>
<path fill="none" stroke="midnightblue" d="M225.057,-19.589C241.813,-24.4494 262.358,-30.4091 280.297,-35.6127"/>
<polygon fill="midnightblue" stroke="midnightblue" points="279.375,-38.9895 289.954,-38.4141 281.325,-32.2666 279.375,-38.9895"/>
</g>
</g>
</svg>
