<?xml version="1.0" encoding="UTF-8" standalone="no"?>
<!DOCTYPE svg PUBLIC "-//W3C//DTD SVG 1.1//EN"
 "http://www.w3.org/Graphics/SVG/1.1/DTD/svg11.dtd">
<!-- Generated by graphviz version 2.36.0 (20140111.2315)
 -->
<!-- Title: serial_dump_char Pages: 1 -->
<svg width="372pt" height="47pt"
 viewBox="0.00 0.00 372.00 47.00" xmlns="http://www.w3.org/2000/svg" xmlns:xlink="http://www.w3.org/1999/xlink">
<g id="graph0" class="graph" transform="scale(1 1) rotate(0) translate(4 43)">
<title>serial_dump_char</title>
<polygon fill="white" stroke="none" points="-4,4 -4,-43 368,-43 368,4 -4,4"/>
<!-- Node1 -->
<g id="node1" class="node"><title>Node1</title>
<polygon fill="#bfbfbf" stroke="black" points="0.5,-0.5 0.5,-19.5 93.5,-19.5 93.5,-0.5 0.5,-0.5"/>
<text text-anchor="middle" x="47" y="-7.5" font-family="Helvetica,sans-Serif" font-size="10.00">serial_dump_char</text>
</g>
<!-- Node2 -->
<g id="node2" class="node"><title>Node2</title>
<g id="a_node2"><a xlink:href="serialize_8c.html#a5de3417db2f58568d7da82b74571efd4" target="_top" xlink:title="Pack a fixed&#45;length string into a binary blob. ">
<polygon fill="white" stroke="red" points="130,-19.5 130,-38.5 246,-38.5 246,-19.5 130,-19.5"/>
<text text-anchor="middle" x="188" y="-26.5" font-family="Helvetica,sans-Serif" font-size="10.00">serial_dump_char_size</text>
</a>
</g>
</g>
<!-- Node1&#45;&gt;Node2 -->
<g id="edge1" class="edge"><title>Node1&#45;&gt;Node2</title>
<path fill="none" stroke="midnightblue" d="M93.5138,-16.2213C101.913,-17.3694 110.844,-18.5902 119.727,-19.8044"/>
<polygon fill="midnightblue" stroke="midnightblue" points="119.323,-23.2816 129.705,-21.1683 120.271,-16.3461 119.323,-23.2816"/>
</g>
<!-- Node3 -->
<g id="node3" class="node"><title>Node3</title>
<g id="a_node3"><a xlink:href="mutt_2string_8c.html#aca11f88d08a860c07419df3efb18f35a" target="_top" xlink:title="Calculate the length of a string, safely. ">
<polygon fill="white" stroke="black" points="282,-0.5 282,-19.5 364,-19.5 364,-0.5 282,-0.5"/>
<text text-anchor="middle" x="323" y="-7.5" font-family="Helvetica,sans-Serif" font-size="10.00">mutt_str_strlen</text>
</a>
</g>
</g>
<!-- Node1&#45;&gt;Node3 -->
<g id="edge3" class="edge"><title>Node1&#45;&gt;Node3</title>
<path fill="none" stroke="midnightblue" d="M93.5531,-10C142.669,-10 220.645,-10 271.576,-10"/>
<polygon fill="midnightblue" stroke="midnightblue" points="271.699,-13.5001 281.699,-10 271.699,-6.5001 271.699,-13.5001"/>
</g>
<!-- Node2&#45;&gt;Node3 -->
<g id="edge2" class="edge"><title>Node2&#45;&gt;Node3</title>
<path fill="none" stroke="midnightblue" d="M246.176,-20.832C254.685,-19.6164 263.402,-18.3712 271.754,-17.1779"/>
<polygon fill="midnightblue" stroke="midnightblue" points="272.319,-20.6329 281.723,-15.7538 271.329,-13.7033 272.319,-20.6329"/>
</g>
</g>
</svg>
