<?xml version="1.0" encoding="UTF-8" standalone="no"?>
<!DOCTYPE svg PUBLIC "-//W3C//DTD SVG 1.1//EN"
 "http://www.w3.org/Graphics/SVG/1.1/DTD/svg11.dtd">
<!-- Generated by graphviz version 2.36.0 (20140111.2315)
 -->
<!-- Title: serial_dump_char_size Pages: 1 -->
<svg width="384pt" height="218pt"
 viewBox="0.00 0.00 384.00 218.00" xmlns="http://www.w3.org/2000/svg" xmlns:xlink="http://www.w3.org/1999/xlink">
<g id="graph0" class="graph" transform="scale(1 1) rotate(0) translate(4 214)">
<title>serial_dump_char_size</title>
<polygon fill="white" stroke="none" points="-4,4 -4,-214 380,-214 380,4 -4,4"/>
<!-- Node1 -->
<g id="node1" class="node"><title>Node1</title>
<polygon fill="#bfbfbf" stroke="black" points="0,-95.5 0,-114.5 116,-114.5 116,-95.5 0,-95.5"/>
<text text-anchor="middle" x="58" y="-102.5" font-family="Helvetica,sans-Serif" font-size="10.00">serial_dump_char_size</text>
</g>
<!-- Node2 -->
<g id="node2" class="node"><title>Node2</title>
<g id="a_node2"><a xlink:href="serialize_8c.html#a4cb970e9ca646206b7428ae05d6fc62a" target="_top" xlink:title="Pack an integer into a binary blob. ">
<polygon fill="white" stroke="black" points="169.5,-190.5 169.5,-209.5 254.5,-209.5 254.5,-190.5 169.5,-190.5"/>
<text text-anchor="middle" x="212" y="-197.5" font-family="Helvetica,sans-Serif" font-size="10.00">serial_dump_int</text>
</a>
</g>
</g>
<!-- Node1&#45;&gt;Node2 -->
<g id="edge1" class="edge"><title>Node1&#45;&gt;Node2</title>
<path fill="none" stroke="midnightblue" d="M69.5007,-114.528C86.0703,-129.2 119.725,-157.555 152,-176 158.733,-179.848 166.204,-183.388 173.504,-186.501"/>
<polygon fill="midnightblue" stroke="midnightblue" points="172.685,-189.946 183.267,-190.47 175.321,-183.462 172.685,-189.946"/>
</g>
<!-- Node3 -->
<g id="node3" class="node"><title>Node3</title>
<g id="a_node3"><a xlink:href="serialize_8c.html#a6f80101989044517567f7ef0685ce44c" target="_top" xlink:title="Reallocate some memory. ">
<polygon fill="white" stroke="red" points="308,-171.5 308,-190.5 376,-190.5 376,-171.5 308,-171.5"/>
<text text-anchor="middle" x="342" y="-178.5" font-family="Helvetica,sans-Serif" font-size="10.00">lazy_realloc</text>
</a>
</g>
</g>
<!-- Node1&#45;&gt;Node3 -->
<g id="edge7" class="edge"><title>Node1&#45;&gt;Node3</title>
<path fill="none" stroke="midnightblue" d="M79.2803,-114.594C97.8544,-123.063 126.286,-135.238 152,-143 201.119,-157.827 259.186,-168.523 297.869,-174.719"/>
<polygon fill="midnightblue" stroke="midnightblue" points="297.333,-178.177 307.755,-176.271 298.419,-171.262 297.333,-178.177"/>
</g>
<!-- Node4 -->
<g id="node4" class="node"><title>Node4</title>
<g id="a_node4"><a xlink:href="mutt_2string_8c.html#acf59f6a09573e6d1efc47e4ef1dc23aa" target="_top" xlink:title="Is a string ASCII (7&#45;bit)? ">
<polygon fill="white" stroke="black" points="166.5,-114.5 166.5,-133.5 257.5,-133.5 257.5,-114.5 166.5,-114.5"/>
<text text-anchor="middle" x="212" y="-121.5" font-family="Helvetica,sans-Serif" font-size="10.00">mutt_str_is_ascii</text>
</a>
</g>
</g>
<!-- Node1&#45;&gt;Node4 -->
<g id="edge3" class="edge"><title>Node1&#45;&gt;Node4</title>
<path fill="none" stroke="midnightblue" d="M116.032,-112.129C129.193,-113.774 143.165,-115.521 156.227,-117.153"/>
<polygon fill="midnightblue" stroke="midnightblue" points="156.118,-120.667 166.475,-118.434 156.986,-113.721 156.118,-120.667"/>
</g>
<!-- Node5 -->
<g id="node5" class="node"><title>Node5</title>
<g id="a_node5"><a xlink:href="mutt_2string_8c.html#a97a08d325db953698595ab3097eb14ea" target="_top" xlink:title="Duplicate a sub&#45;string. ">
<polygon fill="white" stroke="red" points="159,-76.5 159,-95.5 265,-95.5 265,-76.5 159,-76.5"/>
<text text-anchor="middle" x="212" y="-83.5" font-family="Helvetica,sans-Serif" font-size="10.00">mutt_str_substr_dup</text>
</a>
</g>
</g>
<!-- Node1&#45;&gt;Node5 -->
<g id="edge4" class="edge"><title>Node1&#45;&gt;Node5</title>
<path fill="none" stroke="midnightblue" d="M116.032,-97.871C126.629,-96.5464 137.751,-95.1561 148.502,-93.8123"/>
<polygon fill="midnightblue" stroke="midnightblue" points="149.177,-97.2552 158.665,-92.5418 148.308,-90.3093 149.177,-97.2552"/>
</g>
<!-- Node6 -->
<g id="node6" class="node"><title>Node6</title>
<g id="a_node6"><a xlink:href="charset_8c.html#ab7e77d77daee2304cbdabeb54bdb3e97" target="_top" xlink:title="Convert a string between encodings. ">
<polygon fill="white" stroke="red" points="152.5,-38.5 152.5,-57.5 271.5,-57.5 271.5,-38.5 152.5,-38.5"/>
<text text-anchor="middle" x="212" y="-45.5" font-family="Helvetica,sans-Serif" font-size="10.00">mutt_ch_convert_string</text>
</a>
</g>
</g>
<!-- Node1&#45;&gt;Node6 -->
<g id="edge5" class="edge"><title>Node1&#45;&gt;Node6</title>
<path fill="none" stroke="midnightblue" d="M80.9878,-95.4609C99.7167,-87.4698 127.421,-75.9643 152,-67 157.905,-64.8465 164.186,-62.6866 170.365,-60.6354"/>
<polygon fill="midnightblue" stroke="midnightblue" points="171.5,-63.9467 179.922,-57.518 169.329,-57.2918 171.5,-63.9467"/>
</g>
<!-- Node7 -->
<g id="node7" class="node"><title>Node7</title>
<g id="a_node7"><a xlink:href="mutt_2string_8c.html#aca11f88d08a860c07419df3efb18f35a" target="_top" xlink:title="Calculate the length of a string, safely. ">
<polygon fill="white" stroke="black" points="171,-0.5 171,-19.5 253,-19.5 253,-0.5 171,-0.5"/>
<text text-anchor="middle" x="212" y="-7.5" font-family="Helvetica,sans-Serif" font-size="10.00">mutt_str_strlen</text>
</a>
</g>
</g>
<!-- Node1&#45;&gt;Node7 -->
<g id="edge6" class="edge"><title>Node1&#45;&gt;Node7</title>
<path fill="none" stroke="midnightblue" d="M68.1621,-95.4745C83.9139,-79.599 117.75,-47.6372 152,-29 155.935,-26.859 160.149,-24.9119 164.449,-23.1523"/>
<polygon fill="midnightblue" stroke="midnightblue" points="165.79,-26.3875 173.923,-19.5972 163.331,-19.8338 165.79,-26.3875"/>
</g>
<!-- Node2&#45;&gt;Node3 -->
<g id="edge2" class="edge"><title>Node2&#45;&gt;Node3</title>
<path fill="none" stroke="midnightblue" d="M254.558,-193.831C268.286,-191.793 283.592,-189.522 297.464,-187.462"/>
<polygon fill="midnightblue" stroke="midnightblue" points="298.365,-190.867 307.743,-185.937 297.337,-183.943 298.365,-190.867"/>
</g>
</g>
</svg>
