<?xml version="1.0" encoding="UTF-8" standalone="no"?>
<!DOCTYPE svg PUBLIC "-//W3C//DTD SVG 1.1//EN"
 "http://www.w3.org/Graphics/SVG/1.1/DTD/svg11.dtd">
<!-- Generated by graphviz version 2.36.0 (20140111.2315)
 -->
<!-- Title: serial_dump_int Pages: 1 -->
<svg width="682pt" height="245pt"
 viewBox="0.00 0.00 682.00 244.67" xmlns="http://www.w3.org/2000/svg" xmlns:xlink="http://www.w3.org/1999/xlink">
<g id="graph0" class="graph" transform="scale(1 1) rotate(0) translate(4 240.671)">
<title>serial_dump_int</title>
<polygon fill="white" stroke="none" points="-4,4 -4,-240.671 678,-240.671 678,4 -4,4"/>
<!-- Node1 -->
<g id="node1" class="node"><title>Node1</title>
<polygon fill="#bfbfbf" stroke="black" points="0.5,-114.5 0.5,-133.5 85.5,-133.5 85.5,-114.5 0.5,-114.5"/>
<text text-anchor="middle" x="43" y="-121.5" font-family="Helvetica,sans-Serif" font-size="10.00">serial_dump_int</text>
</g>
<!-- Node2 -->
<g id="node2" class="node"><title>Node2</title>
<g id="a_node2"><a xlink:href="serialize_8h.html#a5de3417db2f58568d7da82b74571efd4" target="_top" xlink:title="Pack a fixed&#45;length string into a binary blob. ">
<polygon fill="white" stroke="red" points="123,-190.5 123,-209.5 239,-209.5 239,-190.5 123,-190.5"/>
<text text-anchor="middle" x="181" y="-197.5" font-family="Helvetica,sans-Serif" font-size="10.00">serial_dump_char_size</text>
</a>
</g>
</g>
<!-- Node1&#45;&gt;Node2 -->
<g id="edge1" class="edge"><title>Node1&#45;&gt;Node2</title>
<path fill="none" stroke="midnightblue" d="M65.0061,-139.644C80.3207,-150.636 101.835,-165.24 122,-176 132.095,-181.387 143.666,-186.392 153.804,-190.423"/>
<polygon fill="midnightblue" stroke="midnightblue" points="66.9079,-136.7 56.7626,-133.646 62.7894,-142.36 66.9079,-136.7"/>
</g>
<!-- Node3 -->
<g id="node3" class="node"><title>Node3</title>
<g id="a_node3"><a xlink:href="serialize_8h.html#af15ef1293f730af186cd6a1797ae8bf4" target="_top" xlink:title="Pack a Buffer into a binary blob. ">
<polygon fill="white" stroke="black" points="281.5,-152.5 281.5,-171.5 380.5,-171.5 380.5,-152.5 281.5,-152.5"/>
<text text-anchor="middle" x="331" y="-159.5" font-family="Helvetica,sans-Serif" font-size="10.00">serial_dump_buffer</text>
</a>
</g>
</g>
<!-- Node1&#45;&gt;Node3 -->
<g id="edge9" class="edge"><title>Node1&#45;&gt;Node3</title>
<path fill="none" stroke="midnightblue" d="M95.7287,-133.754C104.482,-135.27 113.489,-136.746 122,-138 176.304,-145.998 238.912,-152.911 281.136,-157.236"/>
<polygon fill="midnightblue" stroke="midnightblue" points="96.0717,-130.261 85.6153,-131.968 94.8541,-137.154 96.0717,-130.261"/>
</g>
<!-- Node4 -->
<g id="node4" class="node"><title>Node4</title>
<g id="a_node4"><a xlink:href="serialize_8h.html#a3e2e3c391646ac618f7d55d21b6740f0" target="_top" xlink:title="Pack an Envelope into a binary blob. ">
<polygon fill="white" stroke="black" points="422.5,-114.5 422.5,-133.5 535.5,-133.5 535.5,-114.5 422.5,-114.5"/>
<text text-anchor="middle" x="479" y="-121.5" font-family="Helvetica,sans-Serif" font-size="10.00">serial_dump_envelope</text>
</a>
</g>
</g>
<!-- Node1&#45;&gt;Node4 -->
<g id="edge11" class="edge"><title>Node1&#45;&gt;Node4</title>
<path fill="none" stroke="midnightblue" d="M95.7225,-124C177.918,-124 337.692,-124 422.31,-124"/>
<polygon fill="midnightblue" stroke="midnightblue" points="95.6138,-120.5 85.6137,-124 95.6137,-127.5 95.6138,-120.5"/>
</g>
<!-- Node5 -->
<g id="node5" class="node"><title>Node5</title>
<g id="a_node5"><a xlink:href="serialize_8h.html#aa5cdf3203623e58ef16a18ca9282743c" target="_top" xlink:title="Serialise a Header object. ">
<polygon fill="white" stroke="red" points="572,-76.5 572,-95.5 674,-95.5 674,-76.5 572,-76.5"/>
<text text-anchor="middle" x="623" y="-83.5" font-family="Helvetica,sans-Serif" font-size="10.00">mutt_hcache_dump</text>
</a>
</g>
</g>
<!-- Node1&#45;&gt;Node5 -->
<g id="edge12" class="edge"><title>Node1&#45;&gt;Node5</title>
<path fill="none" stroke="midnightblue" d="M72.4883,-109.953C87.0014,-103.315 105.11,-95.8097 122,-91 281.05,-45.7084 480.261,-65.0547 571.79,-77.9195"/>
<polygon fill="midnightblue" stroke="midnightblue" points="70.6428,-106.952 63.0742,-114.366 73.6143,-113.291 70.6428,-106.952"/>
</g>
<!-- Node6 -->
<g id="node6" class="node"><title>Node6</title>
<g id="a_node6"><a xlink:href="serialize_8h.html#ad5055409a3bc0050687a1cb6cff1316d" target="_top" xlink:title="Pack an Address into a binary blob. ">
<polygon fill="white" stroke="black" points="276.5,-76.5 276.5,-95.5 385.5,-95.5 385.5,-76.5 276.5,-76.5"/>
<text text-anchor="middle" x="331" y="-83.5" font-family="Helvetica,sans-Serif" font-size="10.00">serial_dump_address</text>
</a>
</g>
</g>
<!-- Node1&#45;&gt;Node6 -->
<g id="edge5" class="edge"><title>Node1&#45;&gt;Node6</title>
<path fill="none" stroke="midnightblue" d="M95.7287,-114.246C104.482,-112.73 113.489,-111.254 122,-110 174.326,-102.293 234.363,-95.594 276.442,-91.2467"/>
<polygon fill="midnightblue" stroke="midnightblue" points="94.8541,-110.846 85.6153,-116.032 96.0717,-117.739 94.8541,-110.846"/>
</g>
<!-- Node7 -->
<g id="node7" class="node"><title>Node7</title>
<g id="a_node7"><a xlink:href="serialize_8h.html#aef94d95a80f0ecef941afc5b02913345" target="_top" xlink:title="Pack a STAILQ into a binary blob. ">
<polygon fill="white" stroke="black" points="282,-209.5 282,-228.5 380,-228.5 380,-209.5 282,-209.5"/>
<text text-anchor="middle" x="331" y="-216.5" font-family="Helvetica,sans-Serif" font-size="10.00">serial_dump_stailq</text>
</a>
</g>
</g>
<!-- Node1&#45;&gt;Node7 -->
<g id="edge7" class="edge"><title>Node1&#45;&gt;Node7</title>
<path fill="none" stroke="midnightblue" d="M52.8649,-142.715C64.8817,-165.611 88.7255,-203.267 122,-219 176.192,-244.624 247.562,-237.017 291.046,-228.501"/>
<polygon fill="midnightblue" stroke="midnightblue" points="55.9253,-141.009 48.3149,-133.638 49.6675,-144.146 55.9253,-141.009"/>
</g>
<!-- Node8 -->
<g id="node8" class="node"><title>Node8</title>
<g id="a_node8"><a xlink:href="serialize_8h.html#a2e94b9bab9c6e3d1e446b298fedd5886" target="_top" xlink:title="Pack a Parameter into a binary blob. ">
<polygon fill="white" stroke="red" points="122,-0.5 122,-19.5 240,-19.5 240,-0.5 122,-0.5"/>
<text text-anchor="middle" x="181" y="-7.5" font-family="Helvetica,sans-Serif" font-size="10.00">serial_dump_parameter</text>
</a>
</g>
</g>
<!-- Node1&#45;&gt;Node8 -->
<g id="edge10" class="edge"><title>Node1&#45;&gt;Node8</title>
<path fill="none" stroke="midnightblue" d="M55.8812,-105.802C69.6992,-85.8574 94.1977,-54.0388 122,-34 130.222,-28.0742 140.124,-23.2865 149.401,-19.592"/>
<polygon fill="midnightblue" stroke="midnightblue" points="52.8449,-104.044 50.149,-114.29 58.6461,-107.961 52.8449,-104.044"/>
</g>
<!-- Node2&#45;&gt;Node3 -->
<g id="edge2" class="edge"><title>Node2&#45;&gt;Node3</title>
<path fill="none" stroke="midnightblue" d="M229.173,-187.888C249.786,-182.596 273.609,-176.479 292.922,-171.52"/>
<polygon fill="midnightblue" stroke="midnightblue" points="228.162,-184.534 219.347,-190.411 229.903,-191.314 228.162,-184.534"/>
</g>
<!-- Node3&#45;&gt;Node4 -->
<g id="edge3" class="edge"><title>Node3&#45;&gt;Node4</title>
<path fill="none" stroke="midnightblue" d="M378.536,-149.888C398.87,-144.596 422.371,-138.479 441.423,-133.52"/>
<polygon fill="midnightblue" stroke="midnightblue" points="377.638,-146.505 368.842,-152.411 379.401,-153.279 377.638,-146.505"/>
</g>
<!-- Node4&#45;&gt;Node5 -->
<g id="edge4" class="edge"><title>Node4&#45;&gt;Node5</title>
<path fill="none" stroke="midnightblue" d="M525.493,-111.826C545.128,-106.571 567.766,-100.513 586.179,-95.5859"/>
<polygon fill="midnightblue" stroke="midnightblue" points="524.588,-108.445 515.833,-114.411 526.397,-115.207 524.588,-108.445"/>
</g>
<!-- Node6&#45;&gt;Node4 -->
<g id="edge6" class="edge"><title>Node6&#45;&gt;Node4</title>
<path fill="none" stroke="midnightblue" d="M378.536,-98.1121C398.87,-103.404 422.371,-109.521 441.423,-114.48"/>
<polygon fill="midnightblue" stroke="midnightblue" points="379.401,-94.7207 368.842,-95.589 377.638,-101.495 379.401,-94.7207"/>
</g>
<!-- Node7&#45;&gt;Node4 -->
<g id="edge8" class="edge"><title>Node7&#45;&gt;Node4</title>
<path fill="none" stroke="midnightblue" d="M355.473,-203.726C385.819,-183.981 437.771,-150.176 463.158,-133.657"/>
<polygon fill="midnightblue" stroke="midnightblue" points="353.276,-200.98 346.803,-209.368 357.093,-206.848 353.276,-200.98"/>
</g>
</g>
</svg>
