<?xml version="1.0" encoding="UTF-8" standalone="no"?>
<!DOCTYPE svg PUBLIC "-//W3C//DTD SVG 1.1//EN"
 "http://www.w3.org/Graphics/SVG/1.1/DTD/svg11.dtd">
<!-- Generated by graphviz version 2.36.0 (20140111.2315)
 -->
<!-- Title: serial_restore_char Pages: 1 -->
<svg width="398pt" height="180pt"
 viewBox="0.00 0.00 398.00 180.00" xmlns="http://www.w3.org/2000/svg" xmlns:xlink="http://www.w3.org/1999/xlink">
<g id="graph0" class="graph" transform="scale(1 1) rotate(0) translate(4 176)">
<title>serial_restore_char</title>
<polygon fill="white" stroke="none" points="-4,4 -4,-176 394,-176 394,4 -4,4"/>
<!-- Node1 -->
<g id="node1" class="node"><title>Node1</title>
<polygon fill="#bfbfbf" stroke="black" points="0.5,-76.5 0.5,-95.5 99.5,-95.5 99.5,-76.5 0.5,-76.5"/>
<text text-anchor="middle" x="50" y="-83.5" font-family="Helvetica,sans-Serif" font-size="10.00">serial_restore_char</text>
</g>
<!-- Node2 -->
<g id="node2" class="node"><title>Node2</title>
<g id="a_node2"><a xlink:href="serialize_8c.html#ae337dfc66e217ae0253a77eef4271f02" target="_top" xlink:title="Unpack an integer from a binary blob. ">
<polygon fill="white" stroke="black" points="150.5,-152.5 150.5,-171.5 241.5,-171.5 241.5,-152.5 150.5,-152.5"/>
<text text-anchor="middle" x="196" y="-159.5" font-family="Helvetica,sans-Serif" font-size="10.00">serial_restore_int</text>
</a>
</g>
</g>
<!-- Node1&#45;&gt;Node2 -->
<g id="edge1" class="edge"><title>Node1&#45;&gt;Node2</title>
<path fill="none" stroke="midnightblue" d="M65.0304,-95.5646C81.5584,-106.598 110.058,-124.898 136,-138 143.509,-141.792 151.764,-145.45 159.66,-148.718"/>
<polygon fill="midnightblue" stroke="midnightblue" points="158.455,-152.006 169.039,-152.494 161.07,-145.513 158.455,-152.006"/>
</g>
<!-- Node3 -->
<g id="node3" class="node"><title>Node3</title>
<g id="a_node3"><a xlink:href="memory_8c.html#a264da4dc58e6dc8983285bd1f538f24d" target="_top" xlink:title="Allocate memory on the heap. ">
<polygon fill="white" stroke="red" points="292.5,-38.5 292.5,-57.5 389.5,-57.5 389.5,-38.5 292.5,-38.5"/>
<text text-anchor="middle" x="341" y="-45.5" font-family="Helvetica,sans-Serif" font-size="10.00">mutt_mem_malloc</text>
</a>
</g>
</g>
<!-- Node1&#45;&gt;Node3 -->
<g id="edge2" class="edge"><title>Node1&#45;&gt;Node3</title>
<path fill="none" stroke="midnightblue" d="M79.8988,-95.5202C120.254,-107.293 195.355,-123.634 256,-105 281.823,-97.0658 306.837,-78.198 322.753,-64.3341"/>
<polygon fill="midnightblue" stroke="midnightblue" points="325.115,-66.9176 330.204,-57.6247 320.43,-61.716 325.115,-66.9176"/>
</g>
<!-- Node4 -->
<g id="node4" class="node"><title>Node4</title>
<g id="a_node4"><a xlink:href="mutt_2string_8c.html#acf59f6a09573e6d1efc47e4ef1dc23aa" target="_top" xlink:title="Is a string ASCII (7&#45;bit)? ">
<polygon fill="white" stroke="black" points="150.5,-76.5 150.5,-95.5 241.5,-95.5 241.5,-76.5 150.5,-76.5"/>
<text text-anchor="middle" x="196" y="-83.5" font-family="Helvetica,sans-Serif" font-size="10.00">mutt_str_is_ascii</text>
</a>
</g>
</g>
<!-- Node1&#45;&gt;Node4 -->
<g id="edge3" class="edge"><title>Node1&#45;&gt;Node4</title>
<path fill="none" stroke="midnightblue" d="M99.7518,-86C112.628,-86 126.616,-86 139.806,-86"/>
<polygon fill="midnightblue" stroke="midnightblue" points="140.178,-89.5001 150.178,-86 140.178,-82.5001 140.178,-89.5001"/>
</g>
<!-- Node5 -->
<g id="node5" class="node"><title>Node5</title>
<g id="a_node5"><a xlink:href="mutt_2string_8c.html#ae48085384a6545e0fac589a88243ea31" target="_top" xlink:title="Copy a string, safely. ">
<polygon fill="white" stroke="black" points="153.5,-38.5 153.5,-57.5 238.5,-57.5 238.5,-38.5 153.5,-38.5"/>
<text text-anchor="middle" x="196" y="-45.5" font-family="Helvetica,sans-Serif" font-size="10.00">mutt_str_strdup</text>
</a>
</g>
</g>
<!-- Node1&#45;&gt;Node5 -->
<g id="edge4" class="edge"><title>Node1&#45;&gt;Node5</title>
<path fill="none" stroke="midnightblue" d="M87.3373,-76.411C106.083,-71.4642 129.143,-65.3789 149.107,-60.1108"/>
<polygon fill="midnightblue" stroke="midnightblue" points="150.148,-63.4558 158.924,-57.5201 148.362,-56.6875 150.148,-63.4558"/>
</g>
<!-- Node6 -->
<g id="node6" class="node"><title>Node6</title>
<g id="a_node6"><a xlink:href="charset_8c.html#ab7e77d77daee2304cbdabeb54bdb3e97" target="_top" xlink:title="Convert a string between encodings. ">
<polygon fill="white" stroke="red" points="136.5,-0.5 136.5,-19.5 255.5,-19.5 255.5,-0.5 136.5,-0.5"/>
<text text-anchor="middle" x="196" y="-7.5" font-family="Helvetica,sans-Serif" font-size="10.00">mutt_ch_convert_string</text>
</a>
</g>
</g>
<!-- Node1&#45;&gt;Node6 -->
<g id="edge6" class="edge"><title>Node1&#45;&gt;Node6</title>
<path fill="none" stroke="midnightblue" d="M63.0122,-76.3507C78.908,-63.9675 108.177,-42.4788 136,-29 140.428,-26.855 145.156,-24.8702 149.935,-23.0568"/>
<polygon fill="midnightblue" stroke="midnightblue" points="151.485,-26.2207 159.74,-19.5787 149.145,-19.6235 151.485,-26.2207"/>
</g>
<!-- Node5&#45;&gt;Node3 -->
<g id="edge5" class="edge"><title>Node5&#45;&gt;Node3</title>
<path fill="none" stroke="midnightblue" d="M238.746,-48C252.279,-48 267.542,-48 282.036,-48"/>
<polygon fill="midnightblue" stroke="midnightblue" points="282.417,-51.5001 292.417,-48 282.417,-44.5001 282.417,-51.5001"/>
</g>
<!-- Node6&#45;&gt;Node3 -->
<g id="edge7" class="edge"><title>Node6&#45;&gt;Node3</title>
<path fill="none" stroke="midnightblue" d="M233.085,-19.589C251.63,-24.5169 274.426,-30.5749 294.199,-35.8291"/>
<polygon fill="midnightblue" stroke="midnightblue" points="293.363,-39.2284 303.927,-38.4141 295.161,-32.4632 293.363,-39.2284"/>
</g>
</g>
</svg>
