<?xml version="1.0" encoding="UTF-8" standalone="no"?>
<!DOCTYPE svg PUBLIC "-//W3C//DTD SVG 1.1//EN"
 "http://www.w3.org/Graphics/SVG/1.1/DTD/svg11.dtd">
<!-- Generated by graphviz version 2.36.0 (20140111.2315)
 -->
<!-- Title: serial_restore_body Pages: 1 -->
<svg width="406pt" height="47pt"
 viewBox="0.00 0.00 406.00 47.00" xmlns="http://www.w3.org/2000/svg" xmlns:xlink="http://www.w3.org/1999/xlink">
<g id="graph0" class="graph" transform="scale(1 1) rotate(0) translate(4 43)">
<title>serial_restore_body</title>
<polygon fill="white" stroke="none" points="-4,4 -4,-43 402,-43 402,4 -4,4"/>
<!-- Node1 -->
<g id="node1" class="node"><title>Node1</title>
<polygon fill="#bfbfbf" stroke="black" points="0.5,-19.5 0.5,-38.5 101.5,-38.5 101.5,-19.5 0.5,-19.5"/>
<text text-anchor="middle" x="51" y="-26.5" font-family="Helvetica,sans-Serif" font-size="10.00">serial_restore_body</text>
</g>
<!-- Node2 -->
<g id="node2" class="node"><title>Node2</title>
<g id="a_node2"><a xlink:href="serialize_8c.html#a43a280bdcd6ff4e026fbab74aa3f82c4" target="_top" xlink:title="Unpack a variable&#45;length string from a binary blob. ">
<polygon fill="white" stroke="red" points="298.5,-19.5 298.5,-38.5 397.5,-38.5 397.5,-19.5 298.5,-19.5"/>
<text text-anchor="middle" x="348" y="-26.5" font-family="Helvetica,sans-Serif" font-size="10.00">serial_restore_char</text>
</a>
</g>
</g>
<!-- Node1&#45;&gt;Node2 -->
<g id="edge1" class="edge"><title>Node1&#45;&gt;Node2</title>
<path fill="none" stroke="midnightblue" d="M101.709,-29C153.079,-29 233.249,-29 287.847,-29"/>
<polygon fill="midnightblue" stroke="midnightblue" points="288.07,-32.5001 298.07,-29 288.07,-25.5001 288.07,-32.5001"/>
</g>
<!-- Node3 -->
<g id="node3" class="node"><title>Node3</title>
<g id="a_node3"><a xlink:href="serialize_8c.html#ae4444da9a7c0b6bf39522d28842bca3b" target="_top" xlink:title="Unpack a Parameter from a binary blob. ">
<polygon fill="white" stroke="red" points="138,-0.5 138,-19.5 262,-19.5 262,-0.5 138,-0.5"/>
<text text-anchor="middle" x="200" y="-7.5" font-family="Helvetica,sans-Serif" font-size="10.00">serial_restore_parameter</text>
</a>
</g>
</g>
<!-- Node1&#45;&gt;Node3 -->
<g id="edge2" class="edge"><title>Node1&#45;&gt;Node3</title>
<path fill="none" stroke="midnightblue" d="M101.767,-22.5675C110.179,-21.4802 119.056,-20.3329 127.886,-19.1916"/>
<polygon fill="midnightblue" stroke="midnightblue" points="128.341,-22.662 137.81,-17.909 127.443,-15.7198 128.341,-22.662"/>
</g>
<!-- Node3&#45;&gt;Node2 -->
<g id="edge3" class="edge"><title>Node3&#45;&gt;Node2</title>
<path fill="none" stroke="midnightblue" d="M262.071,-17.9476C270.72,-19.0732 279.599,-20.2287 288.204,-21.3485"/>
<polygon fill="midnightblue" stroke="midnightblue" points="287.781,-24.8229 298.149,-22.6427 288.685,-17.8814 287.781,-24.8229"/>
</g>
</g>
</svg>
