<?xml version="1.0" encoding="UTF-8" standalone="no"?>
<!DOCTYPE svg PUBLIC "-//W3C//DTD SVG 1.1//EN"
 "http://www.w3.org/Graphics/SVG/1.1/DTD/svg11.dtd">
<!-- Generated by graphviz version 2.36.0 (20140111.2315)
 -->
<!-- Title: serial_restore_char Pages: 1 -->
<svg width="568pt" height="241pt"
 viewBox="0.00 0.00 568.00 241.00" xmlns="http://www.w3.org/2000/svg" xmlns:xlink="http://www.w3.org/1999/xlink">
<g id="graph0" class="graph" transform="scale(1 1) rotate(0) translate(4 237.004)">
<title>serial_restore_char</title>
<polygon fill="white" stroke="none" points="-4,4 -4,-237.004 564,-237.004 564,4 -4,4"/>
<!-- Node1 -->
<g id="node1" class="node"><title>Node1</title>
<polygon fill="#bfbfbf" stroke="black" points="0.5,-99.5043 0.5,-118.504 99.5,-118.504 99.5,-99.5043 0.5,-99.5043"/>
<text text-anchor="middle" x="50" y="-106.504" font-family="Helvetica,sans-Serif" font-size="10.00">serial_restore_char</text>
</g>
<!-- Node2 -->
<g id="node2" class="node"><title>Node2</title>
<g id="a_node2"><a xlink:href="serialize_8h.html#a3573897798dc0c5f8423073fb7f1d412" target="_top" xlink:title="Unpack an Address from a binary blob. ">
<polygon fill="white" stroke="black" points="140.5,-213.504 140.5,-232.504 255.5,-232.504 255.5,-213.504 140.5,-213.504"/>
<text text-anchor="middle" x="198" y="-220.504" font-family="Helvetica,sans-Serif" font-size="10.00">serial_restore_address</text>
</a>
</g>
</g>
<!-- Node1&#45;&gt;Node2 -->
<g id="edge1" class="edge"><title>Node1&#45;&gt;Node2</title>
<path fill="none" stroke="midnightblue" d="M64.0326,-126.966C79.3148,-146.921 106.353,-178.965 136,-199.004 144.769,-204.931 155.217,-209.719 164.967,-213.414"/>
<polygon fill="midnightblue" stroke="midnightblue" points="66.6655,-124.642 57.8712,-118.734 61.0614,-128.837 66.6655,-124.642"/>
</g>
<!-- Node3 -->
<g id="node3" class="node"><title>Node3</title>
<g id="a_node3"><a xlink:href="serialize_8h.html#adf9a9b6ad3e890387bb7d793eef8d347" target="_top" xlink:title="Unpack an Envelope from a binary blob. ">
<polygon fill="white" stroke="black" points="296.5,-137.504 296.5,-156.504 415.5,-156.504 415.5,-137.504 296.5,-137.504"/>
<text text-anchor="middle" x="356" y="-144.504" font-family="Helvetica,sans-Serif" font-size="10.00">serial_restore_envelope</text>
</a>
</g>
</g>
<!-- Node1&#45;&gt;Node3 -->
<g id="edge12" class="edge"><title>Node1&#45;&gt;Node3</title>
<path fill="none" stroke="midnightblue" d="M68.4879,-125.342C84.6177,-139.208 109.945,-158.077 136,-166.004 201.355,-185.889 282.386,-168.677 325.218,-156.524"/>
<polygon fill="midnightblue" stroke="midnightblue" points="70.7363,-122.657 60.9363,-118.631 66.0865,-127.89 70.7363,-122.657"/>
</g>
<!-- Node4 -->
<g id="node4" class="node"><title>Node4</title>
<g id="a_node4"><a xlink:href="serialize_8h.html#a556940057108b6e02ff298c2aabe4e6a" target="_top" xlink:title="Deserialise a Header object. ">
<polygon fill="white" stroke="black" points="452,-61.5043 452,-80.5043 560,-80.5043 560,-61.5043 452,-61.5043"/>
<text text-anchor="middle" x="506" y="-68.5043" font-family="Helvetica,sans-Serif" font-size="10.00">mutt_hcache_restore</text>
</a>
</g>
</g>
<!-- Node1&#45;&gt;Node4 -->
<g id="edge13" class="edge"><title>Node1&#45;&gt;Node4</title>
<path fill="none" stroke="midnightblue" d="M97.6881,-97.0854C110.068,-94.3332 123.476,-91.7141 136,-90.0043 247.703,-74.7548 379.947,-71.4886 451.882,-70.9394"/>
<polygon fill="midnightblue" stroke="midnightblue" points="96.5344,-93.7593 87.5732,-99.4115 98.1033,-100.581 96.5344,-93.7593"/>
</g>
<!-- Node5 -->
<g id="node5" class="node"><title>Node5</title>
<g id="a_node5"><a xlink:href="serialize_8h.html#a7c71f04834a31c8f5d203016ef0e24ee" target="_top" xlink:title="Unpack a STAILQ from a binary blob. ">
<polygon fill="white" stroke="black" points="146,-137.504 146,-156.504 250,-156.504 250,-137.504 146,-137.504"/>
<text text-anchor="middle" x="198" y="-144.504" font-family="Helvetica,sans-Serif" font-size="10.00">serial_restore_stailq</text>
</a>
</g>
</g>
<!-- Node1&#45;&gt;Node5 -->
<g id="edge4" class="edge"><title>Node1&#45;&gt;Node5</title>
<path fill="none" stroke="midnightblue" d="M97.536,-121.116C117.87,-126.409 141.371,-132.526 160.423,-137.484"/>
<polygon fill="midnightblue" stroke="midnightblue" points="98.4012,-117.725 87.842,-118.593 96.6379,-124.499 98.4012,-117.725"/>
</g>
<!-- Node6 -->
<g id="node6" class="node"><title>Node6</title>
<g id="a_node6"><a xlink:href="serialize_8h.html#a3ea7efb3dc11e1b1d07f528c9e759bbf" target="_top" xlink:title="Unpack a Buffer from a binary blob. ">
<polygon fill="white" stroke="black" points="145.5,-99.5043 145.5,-118.504 250.5,-118.504 250.5,-99.5043 145.5,-99.5043"/>
<text text-anchor="middle" x="198" y="-106.504" font-family="Helvetica,sans-Serif" font-size="10.00">serial_restore_buffer</text>
</a>
</g>
</g>
<!-- Node1&#45;&gt;Node6 -->
<g id="edge6" class="edge"><title>Node1&#45;&gt;Node6</title>
<path fill="none" stroke="midnightblue" d="M109.792,-109.004C121.559,-109.004 133.838,-109.004 145.341,-109.004"/>
<polygon fill="midnightblue" stroke="midnightblue" points="109.616,-105.504 99.6159,-109.004 109.616,-112.504 109.616,-105.504"/>
</g>
<!-- Node7 -->
<g id="node7" class="node"><title>Node7</title>
<g id="a_node7"><a xlink:href="serialize_8h.html#ae4444da9a7c0b6bf39522d28842bca3b" target="_top" xlink:title="Unpack a Parameter from a binary blob. ">
<polygon fill="white" stroke="black" points="136,-23.5043 136,-42.5043 260,-42.5043 260,-23.5043 136,-23.5043"/>
<text text-anchor="middle" x="198" y="-30.5043" font-family="Helvetica,sans-Serif" font-size="10.00">serial_restore_parameter</text>
</a>
</g>
</g>
<!-- Node1&#45;&gt;Node7 -->
<g id="edge8" class="edge"><title>Node1&#45;&gt;Node7</title>
<path fill="none" stroke="midnightblue" d="M73.5615,-93.7079C90.3457,-82.7022 114.048,-67.9332 136,-57.0043 146.799,-51.6279 159.113,-46.5891 169.837,-42.5301"/>
<polygon fill="midnightblue" stroke="midnightblue" points="71.4009,-90.9411 65.0038,-99.3867 75.2714,-96.7737 71.4009,-90.9411"/>
</g>
<!-- Node8 -->
<g id="node8" class="node"><title>Node8</title>
<g id="a_node8"><a xlink:href="serialize_8h.html#ad81529a7d4a01ecf7a6a289c625ffc36" target="_top" xlink:title="Unpack a Body from a binary blob. ">
<polygon fill="white" stroke="black" points="305.5,-23.5043 305.5,-42.5043 406.5,-42.5043 406.5,-23.5043 305.5,-23.5043"/>
<text text-anchor="middle" x="356" y="-30.5043" font-family="Helvetica,sans-Serif" font-size="10.00">serial_restore_body</text>
</a>
</g>
</g>
<!-- Node1&#45;&gt;Node8 -->
<g id="edge11" class="edge"><title>Node1&#45;&gt;Node8</title>
<path fill="none" stroke="midnightblue" d="M60.9303,-90.5487C74.4411,-67.632 100.997,-29.6544 136,-14.0043 201.499,15.2809 288.904,-8.69335 330.717,-23.496"/>
<polygon fill="midnightblue" stroke="midnightblue" points="57.8345,-88.9127 55.9521,-99.339 63.9256,-92.3623 57.8345,-88.9127"/>
</g>
<!-- Node2&#45;&gt;Node3 -->
<g id="edge2" class="edge"><title>Node2&#45;&gt;Node3</title>
<path fill="none" stroke="midnightblue" d="M234.922,-209.741C243.242,-206.43 251.999,-202.75 260,-199.004 288.438,-185.692 320.201,-167.619 338.849,-156.662"/>
<polygon fill="midnightblue" stroke="midnightblue" points="233.476,-206.548 225.429,-213.44 236.017,-213.071 233.476,-206.548"/>
</g>
<!-- Node3&#45;&gt;Node4 -->
<g id="edge3" class="edge"><title>Node3&#45;&gt;Node4</title>
<path fill="none" stroke="midnightblue" d="M384.763,-132.748C414.481,-117.487 460.801,-93.7009 486.408,-80.5516"/>
<polygon fill="midnightblue" stroke="midnightblue" points="383.041,-129.697 375.744,-137.379 386.239,-135.924 383.041,-129.697"/>
</g>
<!-- Node5&#45;&gt;Node3 -->
<g id="edge5" class="edge"><title>Node5&#45;&gt;Node3</title>
<path fill="none" stroke="midnightblue" d="M260.365,-147.004C272.261,-147.004 284.698,-147.004 296.499,-147.004"/>
<polygon fill="midnightblue" stroke="midnightblue" points="260.08,-143.504 250.08,-147.004 260.08,-150.504 260.08,-143.504"/>
</g>
<!-- Node6&#45;&gt;Node3 -->
<g id="edge7" class="edge"><title>Node6&#45;&gt;Node3</title>
<path fill="none" stroke="midnightblue" d="M248.132,-120.972C269.993,-126.297 295.376,-132.481 315.918,-137.484"/>
<polygon fill="midnightblue" stroke="midnightblue" points="248.91,-117.56 238.365,-118.593 247.253,-124.361 248.91,-117.56"/>
</g>
<!-- Node7&#45;&gt;Node8 -->
<g id="edge9" class="edge"><title>Node7&#45;&gt;Node8</title>
<path fill="none" stroke="midnightblue" d="M270.407,-33.0043C282.103,-33.0043 293.997,-33.0043 305.029,-33.0043"/>
<polygon fill="midnightblue" stroke="midnightblue" points="270.208,-29.5044 260.208,-33.0043 270.208,-36.5044 270.208,-29.5044"/>
</g>
<!-- Node8&#45;&gt;Node4 -->
<g id="edge10" class="edge"><title>Node8&#45;&gt;Node4</title>
<path fill="none" stroke="midnightblue" d="M404.173,-45.1164C424.786,-50.4087 448.609,-56.5256 467.922,-61.4843"/>
<polygon fill="midnightblue" stroke="midnightblue" points="404.903,-41.6902 394.347,-42.5933 403.162,-48.4703 404.903,-41.6902"/>
</g>
</g>
</svg>
