<?xml version="1.0" encoding="UTF-8" standalone="no"?>
<!DOCTYPE svg PUBLIC "-//W3C//DTD SVG 1.1//EN"
 "http://www.w3.org/Graphics/SVG/1.1/DTD/svg11.dtd">
<!-- Generated by graphviz version 2.36.0 (20140111.2315)
 -->
<!-- Title: mutt_sb_notify_mailbox Pages: 1 -->
<svg width="290pt" height="142pt"
 viewBox="0.00 0.00 290.00 142.00" xmlns="http://www.w3.org/2000/svg" xmlns:xlink="http://www.w3.org/1999/xlink">
<g id="graph0" class="graph" transform="scale(1 1) rotate(0) translate(4 138)">
<title>mutt_sb_notify_mailbox</title>
<polygon fill="white" stroke="none" points="-4,4 -4,-138 286,-138 286,4 -4,4"/>
<!-- Node1 -->
<g id="node1" class="node"><title>Node1</title>
<polygon fill="#bfbfbf" stroke="black" points="0,-57.5 0,-76.5 120,-76.5 120,-57.5 0,-57.5"/>
<text text-anchor="middle" x="60" y="-64.5" font-family="Helvetica,sans-Serif" font-size="10.00">mutt_sb_notify_mailbox</text>
</g>
<!-- Node2 -->
<g id="node2" class="node"><title>Node2</title>
<g id="a_node2"><a xlink:href="mailbox_8h.html#ac7910b4a4a4de3441e83a9c43fcc916c" target="_top" xlink:title="Parse the &#39;mailboxes&#39; command. ">
<polygon fill="white" stroke="black" points="161.5,-114.5 161.5,-133.5 276.5,-133.5 276.5,-114.5 161.5,-114.5"/>
<text text-anchor="middle" x="219" y="-121.5" font-family="Helvetica,sans-Serif" font-size="10.00">mutt_parse_mailboxes</text>
</a>
</g>
</g>
<!-- Node1&#45;&gt;Node2 -->
<g id="edge1" class="edge"><title>Node1&#45;&gt;Node2</title>
<path fill="none" stroke="midnightblue" d="M92.7849,-80.4823C111.122,-88.0665 134.699,-97.4905 156,-105 165.343,-108.294 175.589,-111.568 185.013,-114.448"/>
<polygon fill="midnightblue" stroke="midnightblue" points="94.0263,-77.2079 83.4493,-76.5932 91.3344,-83.6697 94.0263,-77.2079"/>
</g>
<!-- Node3 -->
<g id="node3" class="node"><title>Node3</title>
<g id="a_node3"><a xlink:href="mailbox_8h.html#a5d6d546451773f4c3be07a16d313e824" target="_top" xlink:title="Parse the &#39;unmailboxes&#39; command. ">
<polygon fill="white" stroke="black" points="156.5,-76.5 156.5,-95.5 281.5,-95.5 281.5,-76.5 156.5,-76.5"/>
<text text-anchor="middle" x="219" y="-83.5" font-family="Helvetica,sans-Serif" font-size="10.00">mutt_parse_unmailboxes</text>
</a>
</g>
</g>
<!-- Node1&#45;&gt;Node3 -->
<g id="edge2" class="edge"><title>Node1&#45;&gt;Node3</title>
<path fill="none" stroke="midnightblue" d="M130.44,-75.4035C139.111,-76.4529 147.931,-77.5203 156.47,-78.5537"/>
<polygon fill="midnightblue" stroke="midnightblue" points="130.703,-71.9099 120.355,-74.1831 129.862,-78.8592 130.703,-71.9099"/>
</g>
<!-- Node4 -->
<g id="node4" class="node"><title>Node4</title>
<g id="a_node4"><a xlink:href="sidebar_8h.html#a7154f9e9258668fc2a578df7cac5f33a" target="_top" xlink:title="Completely redraw the sidebar. ">
<polygon fill="white" stroke="red" points="180,-38.5 180,-57.5 258,-57.5 258,-38.5 180,-38.5"/>
<text text-anchor="middle" x="219" y="-45.5" font-family="Helvetica,sans-Serif" font-size="10.00">mutt_sb_draw</text>
</a>
</g>
</g>
<!-- Node1&#45;&gt;Node4 -->
<g id="edge3" class="edge"><title>Node1&#45;&gt;Node4</title>
<path fill="none" stroke="midnightblue" d="M130.302,-58.6131C147.355,-56.5495 164.994,-54.4148 179.941,-52.6058"/>
<polygon fill="midnightblue" stroke="midnightblue" points="129.862,-55.1408 120.355,-59.8169 130.703,-62.0901 129.862,-55.1408"/>
</g>
<!-- Node5 -->
<g id="node5" class="node"><title>Node5</title>
<g id="a_node5"><a xlink:href="sidebar_8h.html#aec376b713f59fd13f4d3787cd50492b6" target="_top" xlink:title="Switch between regular and virtual folders. ">
<polygon fill="white" stroke="red" points="161.5,-0.5 161.5,-19.5 276.5,-19.5 276.5,-0.5 161.5,-0.5"/>
<text text-anchor="middle" x="219" y="-7.5" font-family="Helvetica,sans-Serif" font-size="10.00">mutt_sb_toggle_virtual</text>
</a>
</g>
</g>
<!-- Node1&#45;&gt;Node5 -->
<g id="edge4" class="edge"><title>Node1&#45;&gt;Node5</title>
<path fill="none" stroke="midnightblue" d="M92.7849,-53.5177C111.122,-45.9335 134.699,-36.5095 156,-29 165.343,-25.7061 175.589,-22.4316 185.013,-19.5524"/>
<polygon fill="midnightblue" stroke="midnightblue" points="91.3344,-50.3303 83.4493,-57.4068 94.0263,-56.7921 91.3344,-50.3303"/>
</g>
</g>
</svg>
