<?xml version="1.0" encoding="UTF-8" standalone="no"?>
<!DOCTYPE svg PUBLIC "-//W3C//DTD SVG 1.1//EN"
 "http://www.w3.org/Graphics/SVG/1.1/DTD/svg11.dtd">
<!-- Generated by graphviz version 2.36.0 (20140111.2315)
 -->
<!-- Title: mutt_sb_set_mailbox_stats Pages: 1 -->
<svg width="258pt" height="84pt"
 viewBox="0.00 0.00 258.00 84.00" xmlns="http://www.w3.org/2000/svg" xmlns:xlink="http://www.w3.org/1999/xlink">
<g id="graph0" class="graph" transform="scale(1 1) rotate(0) translate(4 80)">
<title>mutt_sb_set_mailbox_stats</title>
<polygon fill="white" stroke="none" points="-4,4 -4,-80 254,-80 254,4 -4,4"/>
<!-- Node1 -->
<g id="node1" class="node"><title>Node1</title>
<polygon fill="#bfbfbf" stroke="black" points="0,-23 0,-53 110,-53 110,-23 0,-23"/>
<text text-anchor="start" x="8" y="-41" font-family="Helvetica,sans-Serif" font-size="10.00">mutt_sb_set_mailbox</text>
<text text-anchor="middle" x="55" y="-30" font-family="Helvetica,sans-Serif" font-size="10.00">_stats</text>
</g>
<!-- Node2 -->
<g id="node2" class="node"><title>Node2</title>
<g id="a_node2"><a xlink:href="curs__main_8c.html#afc0ce7b52050dd68f91ca41be7d8bb05" target="_top" xlink:title="Redraw the index. ">
<polygon fill="white" stroke="red" points="146,-56.5 146,-75.5 250,-75.5 250,-56.5 146,-56.5"/>
<text text-anchor="middle" x="198" y="-63.5" font-family="Helvetica,sans-Serif" font-size="10.00">index_menu_redraw</text>
</a>
</g>
</g>
<!-- Node1&#45;&gt;Node2 -->
<g id="edge1" class="edge"><title>Node1&#45;&gt;Node2</title>
<path fill="none" stroke="midnightblue" d="M120.082,-50.7255C129.736,-52.6425 139.551,-54.5917 148.796,-56.4276"/>
<polygon fill="midnightblue" stroke="midnightblue" points="120.601,-47.2603 110.111,-48.7455 119.238,-54.1263 120.601,-47.2603"/>
</g>
<!-- Node3 -->
<g id="node3" class="node"><title>Node3</title>
<g id="a_node3"><a xlink:href="mx_8h.html#ad0127b193da0a2a0f4469565d4a11c56" target="_top" xlink:title="save changes and close mailbox ">
<polygon fill="white" stroke="red" points="154,-0.5 154,-19.5 242,-19.5 242,-0.5 154,-0.5"/>
<text text-anchor="middle" x="198" y="-7.5" font-family="Helvetica,sans-Serif" font-size="10.00">mx_mbox_close</text>
</a>
</g>
</g>
<!-- Node1&#45;&gt;Node3 -->
<g id="edge2" class="edge"><title>Node1&#45;&gt;Node3</title>
<path fill="none" stroke="midnightblue" d="M120.048,-25.2812C131.458,-23.0155 143.094,-20.7047 153.749,-18.5888"/>
<polygon fill="midnightblue" stroke="midnightblue" points="119.238,-21.8737 110.111,-27.2545 120.601,-28.7397 119.238,-21.8737"/>
</g>
<!-- Node3&#45;&gt;Node3 -->
<g id="edge3" class="edge"><title>Node3&#45;&gt;Node3</title>
<path fill="none" stroke="midnightblue" d="M171.494,-28.6539C172.602,-33.9368 181.437,-38 198,-38 223.238,-38 230.534,-28.5653 219.886,-19.7571"/>
<polygon fill="midnightblue" stroke="midnightblue" points="174.612,-30.2449 176.114,-19.7571 168.399,-27.0192 174.612,-30.2449"/>
</g>
</g>
</svg>
