<?xml version="1.0" encoding="UTF-8" standalone="no"?>
<!DOCTYPE svg PUBLIC "-//W3C//DTD SVG 1.1//EN"
 "http://www.w3.org/Graphics/SVG/1.1/DTD/svg11.dtd">
<!-- Generated by graphviz version 2.36.0 (20140111.2315)
 -->
<!-- Title: sidebar.h Pages: 1 -->
<svg width="657pt" height="140pt"
 viewBox="0.00 0.00 657.00 140.00" xmlns="http://www.w3.org/2000/svg" xmlns:xlink="http://www.w3.org/1999/xlink">
<g id="graph0" class="graph" transform="scale(1 1) rotate(0) translate(4 136)">
<title>sidebar.h</title>
<polygon fill="white" stroke="none" points="-4,4 -4,-136 653,-136 653,4 -4,4"/>
<!-- Node1 -->
<g id="node1" class="node"><title>Node1</title>
<polygon fill="#bfbfbf" stroke="black" points="296,-112.5 296,-131.5 352,-131.5 352,-112.5 296,-112.5"/>
<text text-anchor="middle" x="324" y="-119.5" font-family="Helvetica,sans-Serif" font-size="10.00">sidebar.h</text>
</g>
<!-- Node2 -->
<g id="node2" class="node"><title>Node2</title>
<g id="a_node2"><a xlink:href="curs__lib_8c.html" target="_top" xlink:title="GUI miscellaneous curses (window drawing) routines. ">
<polygon fill="white" stroke="black" points="-0.5,-56.5 -0.5,-75.5 58.5,-75.5 58.5,-56.5 -0.5,-56.5"/>
<text text-anchor="middle" x="29" y="-63.5" font-family="Helvetica,sans-Serif" font-size="10.00">curs_lib.c</text>
</a>
</g>
</g>
<!-- Node1&#45;&gt;Node2 -->
<g id="edge1" class="edge"><title>Node1&#45;&gt;Node2</title>
<path fill="none" stroke="midnightblue" d="M285.814,-114.934C235.68,-106.822 144.999,-91.6405 68,-76 65.0037,-75.3914 61.8853,-74.7261 58.7753,-74.0416"/>
<polygon fill="midnightblue" stroke="midnightblue" points="285.447,-118.42 295.877,-116.555 286.561,-111.509 285.447,-118.42"/>
</g>
<!-- Node3 -->
<g id="node3" class="node"><title>Node3</title>
<g id="a_node3"><a xlink:href="curs__main_8c.html" target="_top" xlink:title="GUI manage the main index (list of emails) ">
<polygon fill="white" stroke="black" points="77,-56.5 77,-75.5 147,-75.5 147,-56.5 77,-56.5"/>
<text text-anchor="middle" x="112" y="-63.5" font-family="Helvetica,sans-Serif" font-size="10.00">curs_main.c</text>
</a>
</g>
</g>
<!-- Node1&#45;&gt;Node3 -->
<g id="edge2" class="edge"><title>Node1&#45;&gt;Node3</title>
<path fill="none" stroke="midnightblue" d="M285.945,-111.307C245.967,-101.124 183.7,-85.2632 145.516,-75.5371"/>
<polygon fill="midnightblue" stroke="midnightblue" points="285.294,-114.752 295.848,-113.829 287.021,-107.969 285.294,-114.752"/>
</g>
<!-- Node4 -->
<g id="node4" class="node"><title>Node4</title>
<g id="a_node4"><a xlink:href="init_8h.html" target="_top" xlink:title="Definitions of user variables, sort methods and commands. ">
<polygon fill="white" stroke="black" points="165,-56.5 165,-75.5 203,-75.5 203,-56.5 165,-56.5"/>
<text text-anchor="middle" x="184" y="-63.5" font-family="Helvetica,sans-Serif" font-size="10.00">init.h</text>
</a>
</g>
</g>
<!-- Node1&#45;&gt;Node4 -->
<g id="edge3" class="edge"><title>Node1&#45;&gt;Node4</title>
<path fill="none" stroke="midnightblue" d="M292.302,-108.774C264.957,-98.2264 226.346,-83.3336 203.374,-74.473"/>
<polygon fill="midnightblue" stroke="midnightblue" points="291.227,-112.11 301.817,-112.444 293.746,-105.579 291.227,-112.11"/>
</g>
<!-- Node5 -->
<g id="node5" class="node"><title>Node5</title>
<g id="a_node5"><a xlink:href="init_8c.html" target="_top" xlink:title="Config/command parsing. ">
<polygon fill="white" stroke="black" points="188,-0.5 188,-19.5 226,-19.5 226,-0.5 188,-0.5"/>
<text text-anchor="middle" x="207" y="-7.5" font-family="Helvetica,sans-Serif" font-size="10.00">init.c</text>
</a>
</g>
</g>
<!-- Node1&#45;&gt;Node5 -->
<g id="edge5" class="edge"><title>Node1&#45;&gt;Node5</title>
<path fill="none" stroke="midnightblue" d="M296.375,-107.608C281.836,-99.7063 264.315,-88.7591 251,-76 233.093,-58.8408 218.408,-33.2267 211.415,-19.8524"/>
<polygon fill="midnightblue" stroke="midnightblue" points="294.942,-110.808 305.424,-112.349 298.19,-104.608 294.942,-110.808"/>
</g>
<!-- Node6 -->
<g id="node6" class="node"><title>Node6</title>
<g id="a_node6"><a xlink:href="mailbox_8c.html" target="_top" xlink:title="Representation of a mailbox. ">
<polygon fill="white" stroke="black" points="259.5,-56.5 259.5,-75.5 318.5,-75.5 318.5,-56.5 259.5,-56.5"/>
<text text-anchor="middle" x="289" y="-63.5" font-family="Helvetica,sans-Serif" font-size="10.00">mailbox.c</text>
</a>
</g>
</g>
<!-- Node1&#45;&gt;Node6 -->
<g id="edge6" class="edge"><title>Node1&#45;&gt;Node6</title>
<path fill="none" stroke="midnightblue" d="M312.7,-103.566C306.678,-94.2747 299.531,-83.2484 294.672,-75.7511"/>
<polygon fill="midnightblue" stroke="midnightblue" points="309.844,-105.595 318.22,-112.083 315.719,-101.788 309.844,-105.595"/>
</g>
<!-- Node7 -->
<g id="node7" class="node"><title>Node7</title>
<g id="a_node7"><a xlink:href="main_8c.html" target="_top" xlink:title="Command line processing. ">
<polygon fill="white" stroke="black" points="337,-56.5 337,-75.5 383,-75.5 383,-56.5 337,-56.5"/>
<text text-anchor="middle" x="360" y="-63.5" font-family="Helvetica,sans-Serif" font-size="10.00">main.c</text>
</a>
</g>
</g>
<!-- Node1&#45;&gt;Node7 -->
<g id="edge7" class="edge"><title>Node1&#45;&gt;Node7</title>
<path fill="none" stroke="midnightblue" d="M335.623,-103.566C341.817,-94.2747 349.168,-83.2484 354.166,-75.7511"/>
<polygon fill="midnightblue" stroke="midnightblue" points="332.58,-101.821 329.945,-112.083 338.404,-105.704 332.58,-101.821"/>
</g>
<!-- Node8 -->
<g id="node8" class="node"><title>Node8</title>
<g id="a_node8"><a xlink:href="menu_8c.html" target="_top" xlink:title="GUI present the user with a selectable list. ">
<polygon fill="white" stroke="black" points="401.5,-56.5 401.5,-75.5 450.5,-75.5 450.5,-56.5 401.5,-56.5"/>
<text text-anchor="middle" x="426" y="-63.5" font-family="Helvetica,sans-Serif" font-size="10.00">menu.c</text>
</a>
</g>
</g>
<!-- Node1&#45;&gt;Node8 -->
<g id="edge8" class="edge"><title>Node1&#45;&gt;Node8</title>
<path fill="none" stroke="midnightblue" d="M349.331,-107.59C368.19,-97.6052 393.384,-84.2672 409.653,-75.6545"/>
<polygon fill="midnightblue" stroke="midnightblue" points="347.588,-104.552 340.388,-112.324 350.864,-110.738 347.588,-104.552"/>
</g>
<!-- Node9 -->
<g id="node9" class="node"><title>Node9</title>
<g id="a_node9"><a xlink:href="mx_8c.html" target="_top" xlink:title="Mailbox multiplexor. ">
<polygon fill="white" stroke="black" points="469,-56.5 469,-75.5 507,-75.5 507,-56.5 469,-56.5"/>
<text text-anchor="middle" x="488" y="-63.5" font-family="Helvetica,sans-Serif" font-size="10.00">mx.c</text>
</a>
</g>
</g>
<!-- Node1&#45;&gt;Node9 -->
<g id="edge9" class="edge"><title>Node1&#45;&gt;Node9</title>
<path fill="none" stroke="midnightblue" d="M359.856,-109.194C393.367,-98.1596 442.124,-82.1056 468.797,-73.323"/>
<polygon fill="midnightblue" stroke="midnightblue" points="358.39,-105.992 349.986,-112.444 360.579,-112.64 358.39,-105.992"/>
</g>
<!-- Node10 -->
<g id="node10" class="node"><title>Node10</title>
<g id="a_node10"><a xlink:href="pager_8c.html" target="_top" xlink:title="GUI display a file/email/help in a viewport with paging. ">
<polygon fill="white" stroke="black" points="525.5,-56.5 525.5,-75.5 574.5,-75.5 574.5,-56.5 525.5,-56.5"/>
<text text-anchor="middle" x="550" y="-63.5" font-family="Helvetica,sans-Serif" font-size="10.00">pager.c</text>
</a>
</g>
</g>
<!-- Node1&#45;&gt;Node10 -->
<g id="edge10" class="edge"><title>Node1&#45;&gt;Node10</title>
<path fill="none" stroke="midnightblue" d="M361.86,-112.462C400.641,-103.638 462.636,-89.3135 516,-76 518.962,-75.261 522.064,-74.4673 525.139,-73.6685"/>
<polygon fill="midnightblue" stroke="midnightblue" points="361.019,-109.064 352.042,-114.692 362.569,-115.89 361.019,-109.064"/>
</g>
<!-- Node11 -->
<g id="node11" class="node"><title>Node11</title>
<g id="a_node11"><a xlink:href="sidebar_8c.html" target="_top" xlink:title="GUI display the mailboxes in a side panel. ">
<polygon fill="white" stroke="black" points="593,-56.5 593,-75.5 649,-75.5 649,-56.5 593,-56.5"/>
<text text-anchor="middle" x="621" y="-63.5" font-family="Helvetica,sans-Serif" font-size="10.00">sidebar.c</text>
</a>
</g>
</g>
<!-- Node1&#45;&gt;Node11 -->
<g id="edge11" class="edge"><title>Node1&#45;&gt;Node11</title>
<path fill="none" stroke="midnightblue" d="M362.244,-115.098C412.899,-107.111 504.947,-92.0084 583,-76 586.188,-75.3462 589.516,-74.6211 592.82,-73.8745"/>
<polygon fill="midnightblue" stroke="midnightblue" points="361.42,-111.684 352.083,-116.692 362.505,-118.6 361.42,-111.684"/>
</g>
<!-- Node4&#45;&gt;Node5 -->
<g id="edge4" class="edge"><title>Node4&#45;&gt;Node5</title>
<path fill="none" stroke="midnightblue" d="M191.799,-46.6897C195.675,-37.589 200.179,-27.0141 203.273,-19.7511"/>
<polygon fill="midnightblue" stroke="midnightblue" points="188.497,-45.5112 187.798,-56.083 194.937,-48.2543 188.497,-45.5112"/>
</g>
</g>
</svg>
