<?xml version="1.0" encoding="UTF-8" standalone="no"?>
<!DOCTYPE svg PUBLIC "-//W3C//DTD SVG 1.1//EN"
 "http://www.w3.org/Graphics/SVG/1.1/DTD/svg11.dtd">
<!-- Generated by graphviz version 2.36.0 (20140111.2315)
 -->
<!-- Title: sort_entries Pages: 1 -->
<svg width="198pt" height="28pt"
 viewBox="0.00 0.00 198.00 28.00" xmlns="http://www.w3.org/2000/svg" xmlns:xlink="http://www.w3.org/1999/xlink">
<g id="graph0" class="graph" transform="scale(1 1) rotate(0) translate(4 24)">
<title>sort_entries</title>
<polygon fill="white" stroke="none" points="-4,4 -4,-24 194,-24 194,4 -4,4"/>
<!-- Node1 -->
<g id="node1" class="node"><title>Node1</title>
<polygon fill="#bfbfbf" stroke="black" points="0,-0.5 0,-19.5 68,-19.5 68,-0.5 0,-0.5"/>
<text text-anchor="middle" x="34" y="-7.5" font-family="Helvetica,sans-Serif" font-size="10.00">sort_entries</text>
</g>
<!-- Node2 -->
<g id="node2" class="node"><title>Node2</title>
<g id="a_node2"><a xlink:href="sidebar_8c.html#a93a498e6a70231ba96fbdd66c6cff18d" target="_top" xlink:title="Prepare the list of SbEntry&#39;s for the sidebar display. ">
<polygon fill="white" stroke="red" points="104,-0.5 104,-19.5 190,-19.5 190,-0.5 104,-0.5"/>
<text text-anchor="middle" x="147" y="-7.5" font-family="Helvetica,sans-Serif" font-size="10.00">prepare_sidebar</text>
</a>
</g>
</g>
<!-- Node1&#45;&gt;Node2 -->
<g id="edge1" class="edge"><title>Node1&#45;&gt;Node2</title>
<path fill="none" stroke="midnightblue" d="M78.072,-10C86.5385,-10 95.4118,-10 103.848,-10"/>
<polygon fill="midnightblue" stroke="midnightblue" points="78.0032,-6.5001 68.0031,-10 78.0031,-13.5001 78.0032,-6.5001"/>
</g>
</g>
</svg>
