<?xml version="1.0" encoding="UTF-8" standalone="no"?>
<!DOCTYPE svg PUBLIC "-//W3C//DTD SVG 1.1//EN"
 "http://www.w3.org/Graphics/SVG/1.1/DTD/svg11.dtd">
<!-- Generated by graphviz version 2.36.0 (20140111.2315)
 -->
<!-- Title: draw_sidebar Pages: 1 -->
<svg width="372pt" height="332pt"
 viewBox="0.00 0.00 372.00 332.00" xmlns="http://www.w3.org/2000/svg" xmlns:xlink="http://www.w3.org/1999/xlink">
<g id="graph0" class="graph" transform="scale(1 1) rotate(0) translate(4 328)">
<title>draw_sidebar</title>
<polygon fill="white" stroke="none" points="-4,4 -4,-328 368,-328 368,4 -4,4"/>
<!-- Node1 -->
<g id="node1" class="node"><title>Node1</title>
<polygon fill="#bfbfbf" stroke="black" points="0,-152.5 0,-171.5 74,-171.5 74,-152.5 0,-152.5"/>
<text text-anchor="middle" x="37" y="-159.5" font-family="Helvetica,sans-Serif" font-size="10.00">draw_sidebar</text>
</g>
<!-- Node2 -->
<g id="node2" class="node"><title>Node2</title>
<g id="a_node2"><a xlink:href="mutt_2string_8c.html#ab4aaf8bd2ce3982651f0f949d6c665e2" target="_top" xlink:title="Compare two strings, safely. ">
<polygon fill="white" stroke="black" points="123,-304.5 123,-323.5 211,-323.5 211,-304.5 123,-304.5"/>
<text text-anchor="middle" x="167" y="-311.5" font-family="Helvetica,sans-Serif" font-size="10.00">mutt_str_strcmp</text>
</a>
</g>
</g>
<!-- Node1&#45;&gt;Node2 -->
<g id="edge1" class="edge"><title>Node1&#45;&gt;Node2</title>
<path fill="none" stroke="midnightblue" d="M40.5359,-171.6C47.4387,-195.884 68.8613,-260.289 110,-295 111.991,-296.68 114.138,-298.214 116.389,-299.613"/>
<polygon fill="midnightblue" stroke="midnightblue" points="115.005,-302.839 125.488,-304.375 118.251,-296.637 115.005,-302.839"/>
</g>
<!-- Node3 -->
<g id="node3" class="node"><title>Node3</title>
<g id="a_node3"><a xlink:href="mutt__window_8c.html#a9d73d6b2ea4ab73d2e91b731d21089d7" target="_top" xlink:title="Move the cursor in a Window. ">
<polygon fill="white" stroke="black" points="260,-228.5 260,-247.5 364,-247.5 364,-228.5 260,-228.5"/>
<text text-anchor="middle" x="312" y="-235.5" font-family="Helvetica,sans-Serif" font-size="10.00">mutt_window_move</text>
</a>
</g>
</g>
<!-- Node1&#45;&gt;Node3 -->
<g id="edge2" class="edge"><title>Node1&#45;&gt;Node3</title>
<path fill="none" stroke="midnightblue" d="M72.2992,-171.548C121.642,-185.285 212.675,-210.627 266.94,-225.734"/>
<polygon fill="midnightblue" stroke="midnightblue" points="266.054,-229.121 276.626,-228.431 267.931,-222.377 266.054,-229.121"/>
</g>
<!-- Node4 -->
<g id="node4" class="node"><title>Node4</title>
<g id="a_node4"><a xlink:href="mutt__notmuch_8c.html#a48bd6f05c808710d89e223077d5dc7af" target="_top" xlink:title="Perform some queries without an open database. ">
<polygon fill="white" stroke="red" points="110.5,-228.5 110.5,-247.5 223.5,-247.5 223.5,-228.5 110.5,-228.5"/>
<text text-anchor="middle" x="167" y="-235.5" font-family="Helvetica,sans-Serif" font-size="10.00">nm_nonctx_get_count</text>
</a>
</g>
</g>
<!-- Node1&#45;&gt;Node4 -->
<g id="edge3" class="edge"><title>Node1&#45;&gt;Node4</title>
<path fill="none" stroke="midnightblue" d="M49.6834,-171.685C63.4947,-182.831 87.4582,-201.237 110,-214 116.581,-217.726 123.855,-221.243 130.92,-224.377"/>
<polygon fill="midnightblue" stroke="midnightblue" points="129.77,-227.692 140.342,-228.397 132.517,-221.253 129.77,-227.692"/>
</g>
<!-- Node5 -->
<g id="node5" class="node"><title>Node5</title>
<g id="a_node5"><a xlink:href="mutt_2string_8c.html#aca11f88d08a860c07419df3efb18f35a" target="_top" xlink:title="Calculate the length of a string, safely. ">
<polygon fill="white" stroke="black" points="271,-19.5 271,-38.5 353,-38.5 353,-19.5 271,-19.5"/>
<text text-anchor="middle" x="312" y="-26.5" font-family="Helvetica,sans-Serif" font-size="10.00">mutt_str_strlen</text>
</a>
</g>
</g>
<!-- Node1&#45;&gt;Node5 -->
<g id="edge4" class="edge"><title>Node1&#45;&gt;Node5</title>
<path fill="none" stroke="midnightblue" d="M42.3287,-152.31C51.6311,-132.699 75.5172,-88.3584 110,-67 155.743,-38.6674 217.744,-30.5609 260.738,-28.6636"/>
<polygon fill="midnightblue" stroke="midnightblue" points="261.091,-32.1537 270.965,-28.3131 260.851,-25.1578 261.091,-32.1537"/>
</g>
<!-- Node6 -->
<g id="node6" class="node"><title>Node6</title>
<g id="a_node6"><a xlink:href="mutt_2string_8c.html#a0f37dc8085c127cb48df9b47a21236a6" target="_top" xlink:title="Compare two strings (to a maximum), safely. ">
<polygon fill="white" stroke="black" points="120.5,-152.5 120.5,-171.5 213.5,-171.5 213.5,-152.5 120.5,-152.5"/>
<text text-anchor="middle" x="167" y="-159.5" font-family="Helvetica,sans-Serif" font-size="10.00">mutt_str_strncmp</text>
</a>
</g>
</g>
<!-- Node1&#45;&gt;Node6 -->
<g id="edge5" class="edge"><title>Node1&#45;&gt;Node6</title>
<path fill="none" stroke="midnightblue" d="M74.3373,-162C85.5394,-162 98.1417,-162 110.333,-162"/>
<polygon fill="midnightblue" stroke="midnightblue" points="110.438,-165.5 120.438,-162 110.438,-158.5 110.438,-165.5"/>
</g>
<!-- Node7 -->
<g id="node7" class="node"><title>Node7</title>
<g id="a_node7"><a xlink:href="memory_8c.html#a264da4dc58e6dc8983285bd1f538f24d" target="_top" xlink:title="Allocate memory on the heap. ">
<polygon fill="white" stroke="red" points="118.5,-114.5 118.5,-133.5 215.5,-133.5 215.5,-114.5 118.5,-114.5"/>
<text text-anchor="middle" x="167" y="-121.5" font-family="Helvetica,sans-Serif" font-size="10.00">mutt_mem_malloc</text>
</a>
</g>
</g>
<!-- Node1&#45;&gt;Node7 -->
<g id="edge6" class="edge"><title>Node1&#45;&gt;Node7</title>
<path fill="none" stroke="midnightblue" d="M70.2998,-152.411C86.5202,-147.596 106.375,-141.701 123.787,-136.532"/>
<polygon fill="midnightblue" stroke="midnightblue" points="125.12,-139.787 133.711,-133.586 123.128,-133.077 125.12,-139.787"/>
</g>
<!-- Node8 -->
<g id="node8" class="node"><title>Node8</title>
<g id="a_node8"><a xlink:href="mutt_2string_8c.html#a9ea8568afcd2f6b67f4be5254ffb6f8e" target="_top" xlink:title="Concatenate two strings. ">
<polygon fill="white" stroke="black" points="125.5,-76.5 125.5,-95.5 208.5,-95.5 208.5,-76.5 125.5,-76.5"/>
<text text-anchor="middle" x="167" y="-83.5" font-family="Helvetica,sans-Serif" font-size="10.00">mutt_str_strcat</text>
</a>
</g>
</g>
<!-- Node1&#45;&gt;Node8 -->
<g id="edge7" class="edge"><title>Node1&#45;&gt;Node8</title>
<path fill="none" stroke="midnightblue" d="M47.9292,-152.283C61.128,-139.827 85.6336,-118.26 110,-105 113.91,-102.872 118.102,-100.92 122.368,-99.1453"/>
<polygon fill="midnightblue" stroke="midnightblue" points="123.666,-102.396 131.746,-95.5436 121.156,-95.8617 123.666,-102.396"/>
</g>
<!-- Node9 -->
<g id="node9" class="node"><title>Node9</title>
<g id="a_node9"><a xlink:href="sidebar_8c.html#a3830c13aded95a5b10971729a09f198e" target="_top" xlink:title="Turn mailbox data into a sidebar string. ">
<polygon fill="white" stroke="red" points="115,-0.5 115,-19.5 219,-19.5 219,-0.5 115,-0.5"/>
<text text-anchor="middle" x="167" y="-7.5" font-family="Helvetica,sans-Serif" font-size="10.00">make_sidebar_entry</text>
</a>
</g>
</g>
<!-- Node1&#45;&gt;Node9 -->
<g id="edge8" class="edge"><title>Node1&#45;&gt;Node9</title>
<path fill="none" stroke="midnightblue" d="M41.0283,-152.259C48.7801,-128.804 71.4882,-68.5795 110,-34 114.387,-30.0614 119.517,-26.7002 124.861,-23.8516"/>
<polygon fill="midnightblue" stroke="midnightblue" points="126.428,-26.982 133.959,-19.5303 123.425,-20.6589 126.428,-26.982"/>
</g>
<!-- Node10 -->
<g id="node10" class="node"><title>Node10</title>
<g id="a_node10"><a xlink:href="sidebar_8c.html#a93fbae4885d71be155cd40947769ef69" target="_top" xlink:title="Wipe the remaining Sidebar space. ">
<polygon fill="white" stroke="black" points="122,-266.5 122,-285.5 212,-285.5 212,-266.5 122,-266.5"/>
<text text-anchor="middle" x="167" y="-273.5" font-family="Helvetica,sans-Serif" font-size="10.00">fill_empty_space</text>
</a>
</g>
</g>
<!-- Node1&#45;&gt;Node10 -->
<g id="edge10" class="edge"><title>Node1&#45;&gt;Node10</title>
<path fill="none" stroke="midnightblue" d="M42.7402,-171.591C52.6248,-190.632 77.2663,-233.399 110,-257 112.665,-258.921 115.539,-260.659 118.527,-262.23"/>
<polygon fill="midnightblue" stroke="midnightblue" points="117.195,-265.469 127.744,-266.453 120.111,-259.105 117.195,-265.469"/>
</g>
<!-- Node9&#45;&gt;Node5 -->
<g id="edge9" class="edge"><title>Node9&#45;&gt;Node5</title>
<path fill="none" stroke="midnightblue" d="M219.222,-16.8058C232.761,-18.6046 247.358,-20.544 260.84,-22.3353"/>
<polygon fill="midnightblue" stroke="midnightblue" points="260.522,-25.8238 270.896,-23.6715 261.444,-18.8848 260.522,-25.8238"/>
</g>
<!-- Node10&#45;&gt;Node3 -->
<g id="edge11" class="edge"><title>Node10&#45;&gt;Node3</title>
<path fill="none" stroke="midnightblue" d="M204.085,-266.411C222.63,-261.483 245.426,-255.425 265.199,-250.171"/>
<polygon fill="midnightblue" stroke="midnightblue" points="266.161,-253.537 274.927,-247.586 264.363,-246.772 266.161,-253.537"/>
</g>
</g>
</svg>
