<?xml version="1.0" encoding="UTF-8" standalone="no"?>
<!DOCTYPE svg PUBLIC "-//W3C//DTD SVG 1.1//EN"
 "http://www.w3.org/Graphics/SVG/1.1/DTD/svg11.dtd">
<!-- Generated by graphviz version 2.36.0 (20140111.2315)
 -->
<!-- Title: mutt_sb_notify_mailbox Pages: 1 -->
<svg width="284pt" height="153pt"
 viewBox="0.00 0.00 284.00 153.00" xmlns="http://www.w3.org/2000/svg" xmlns:xlink="http://www.w3.org/1999/xlink">
<g id="graph0" class="graph" transform="scale(1 1) rotate(0) translate(4 149)">
<title>mutt_sb_notify_mailbox</title>
<polygon fill="white" stroke="none" points="-4,4 -4,-149 280,-149 280,4 -4,4"/>
<!-- Node1 -->
<g id="node1" class="node"><title>Node1</title>
<polygon fill="#bfbfbf" stroke="black" points="0,-68.5 0,-87.5 120,-87.5 120,-68.5 0,-68.5"/>
<text text-anchor="middle" x="60" y="-75.5" font-family="Helvetica,sans-Serif" font-size="10.00">mutt_sb_notify_mailbox</text>
</g>
<!-- Node2 -->
<g id="node2" class="node"><title>Node2</title>
<g id="a_node2"><a xlink:href="memory_8c.html#af778eb8166966fc0666c64849f6c7c5b" target="_top" xlink:title="Resize a block of memory on the heap. ">
<polygon fill="white" stroke="red" points="167.5,-125.5 167.5,-144.5 264.5,-144.5 264.5,-125.5 167.5,-125.5"/>
<text text-anchor="middle" x="216" y="-132.5" font-family="Helvetica,sans-Serif" font-size="10.00">mutt_mem_realloc</text>
</a>
</g>
</g>
<!-- Node1&#45;&gt;Node2 -->
<g id="edge1" class="edge"><title>Node1&#45;&gt;Node2</title>
<path fill="none" stroke="midnightblue" d="M83.482,-87.5016C102.627,-95.4699 130.934,-106.963 156,-116 161.913,-118.132 168.198,-120.28 174.379,-122.326"/>
<polygon fill="midnightblue" stroke="midnightblue" points="173.345,-125.67 183.937,-125.44 175.513,-119.014 173.345,-125.67"/>
</g>
<!-- Node3 -->
<g id="node3" class="node"><title>Node3</title>
<g id="a_node3"><a xlink:href="memory_8c.html#a4c1612d209c7825d55e6a014df352f03" target="_top" xlink:title="Allocate zeroed memory on the heap. ">
<polygon fill="white" stroke="red" points="169,-87.5 169,-106.5 263,-106.5 263,-87.5 169,-87.5"/>
<text text-anchor="middle" x="216" y="-94.5" font-family="Helvetica,sans-Serif" font-size="10.00">mutt_mem_calloc</text>
</a>
</g>
</g>
<!-- Node1&#45;&gt;Node3 -->
<g id="edge2" class="edge"><title>Node1&#45;&gt;Node3</title>
<path fill="none" stroke="midnightblue" d="M120.1,-85.2916C132.691,-86.845 145.957,-88.4818 158.45,-90.023"/>
<polygon fill="midnightblue" stroke="midnightblue" points="158.376,-93.5404 168.73,-91.2913 159.234,-86.5931 158.376,-93.5404"/>
</g>
<!-- Node4 -->
<g id="node4" class="node"><title>Node4</title>
<g id="a_node4"><a xlink:href="mutt_2string_8c.html#ab4aaf8bd2ce3982651f0f949d6c665e2" target="_top" xlink:title="Compare two strings, safely. ">
<polygon fill="white" stroke="black" points="172,-49.5 172,-68.5 260,-68.5 260,-49.5 172,-49.5"/>
<text text-anchor="middle" x="216" y="-56.5" font-family="Helvetica,sans-Serif" font-size="10.00">mutt_str_strcmp</text>
</a>
</g>
</g>
<!-- Node1&#45;&gt;Node4 -->
<g id="edge3" class="edge"><title>Node1&#45;&gt;Node4</title>
<path fill="none" stroke="midnightblue" d="M120.1,-70.7084C133.754,-69.0239 148.202,-67.2413 161.596,-65.5888"/>
<polygon fill="midnightblue" stroke="midnightblue" points="162.107,-69.0524 171.603,-64.3542 161.249,-62.1051 162.107,-69.0524"/>
</g>
<!-- Node5 -->
<g id="node5" class="node"><title>Node5</title>
<g id="a_node5"><a xlink:href="menu_8c.html#ac7c599cfeb401ad9750c8827c2d6daa4" target="_top" xlink:title="Set redraw flags on the current menu. ">
<polygon fill="white" stroke="red" points="156.5,-0 156.5,-30 275.5,-30 275.5,-0 156.5,-0"/>
<text text-anchor="start" x="164.5" y="-18" font-family="Helvetica,sans-Serif" font-size="10.00">mutt_menu_set_current</text>
<text text-anchor="middle" x="216" y="-7" font-family="Helvetica,sans-Serif" font-size="10.00">_redraw</text>
</a>
</g>
</g>
<!-- Node1&#45;&gt;Node5 -->
<g id="edge4" class="edge"><title>Node1&#45;&gt;Node5</title>
<path fill="none" stroke="midnightblue" d="M84.3893,-68.4317C106.669,-59.3174 140.836,-45.34 168.636,-33.967"/>
<polygon fill="midnightblue" stroke="midnightblue" points="170.244,-37.0908 178.174,-30.065 167.594,-30.612 170.244,-37.0908"/>
</g>
</g>
</svg>
