<?xml version="1.0" encoding="UTF-8" standalone="no"?>
<!DOCTYPE svg PUBLIC "-//W3C//DTD SVG 1.1//EN"
 "http://www.w3.org/Graphics/SVG/1.1/DTD/svg11.dtd">
<!-- Generated by graphviz version 2.36.0 (20140111.2315)
 -->
<!-- Title: mutt_sig_allow_interrupt Pages: 1 -->
<svg width="284pt" height="236pt"
 viewBox="0.00 0.00 284.00 236.00" xmlns="http://www.w3.org/2000/svg" xmlns:xlink="http://www.w3.org/1999/xlink">
<g id="graph0" class="graph" transform="scale(1 1) rotate(0) translate(4 232)">
<title>mutt_sig_allow_interrupt</title>
<polygon fill="white" stroke="none" points="-4,4 -4,-232 280,-232 280,4 -4,4"/>
<!-- Node1 -->
<g id="node1" class="node"><title>Node1</title>
<polygon fill="#bfbfbf" stroke="black" points="0,-113.5 0,-132.5 122,-132.5 122,-113.5 0,-113.5"/>
<text text-anchor="middle" x="61" y="-120.5" font-family="Helvetica,sans-Serif" font-size="10.00">mutt_sig_allow_interrupt</text>
</g>
<!-- Node2 -->
<g id="node2" class="node"><title>Node2</title>
<g id="a_node2"><a xlink:href="imap__private_8h.html#a97ce60ff4a8b54b3e2bc178e2969d3fc" target="_top" xlink:title="Execute a command and wait for the response from the server. ">
<polygon fill="white" stroke="red" points="185,-208.5 185,-227.5 249,-227.5 249,-208.5 185,-208.5"/>
<text text-anchor="middle" x="217" y="-215.5" font-family="Helvetica,sans-Serif" font-size="10.00">imap_exec</text>
</a>
</g>
</g>
<!-- Node1&#45;&gt;Node2 -->
<g id="edge1" class="edge"><title>Node1&#45;&gt;Node2</title>
<path fill="none" stroke="midnightblue" d="M79.2932,-139.844C97.5437,-156.821 127.797,-182.77 158,-199 166.307,-203.464 175.848,-207.121 184.761,-209.992"/>
<polygon fill="midnightblue" stroke="midnightblue" points="81.4627,-137.078 71.7958,-132.741 76.6487,-142.16 81.4627,-137.078"/>
</g>
<!-- Node3 -->
<g id="node3" class="node"><title>Node3</title>
<g id="a_node3"><a xlink:href="conn__raw_8c.html#a2ccc15b62b68a8fe2ce29e3c0e77911b" target="_top" xlink:title="set up to connect to a socket fd ">
<polygon fill="white" stroke="red" points="174,-170.5 174,-189.5 260,-189.5 260,-170.5 174,-170.5"/>
<text text-anchor="middle" x="217" y="-177.5" font-family="Helvetica,sans-Serif" font-size="10.00">socket_connect</text>
</a>
</g>
</g>
<!-- Node1&#45;&gt;Node3 -->
<g id="edge2" class="edge"><title>Node1&#45;&gt;Node3</title>
<path fill="none" stroke="midnightblue" d="M94.56,-136.454C113.058,-143.955 136.708,-153.306 158,-161 166.969,-164.241 176.8,-167.551 185.779,-170.482"/>
<polygon fill="midnightblue" stroke="midnightblue" points="95.7104,-133.143 85.129,-132.609 93.0679,-139.625 95.7104,-133.143"/>
</g>
<!-- Node4 -->
<g id="node4" class="node"><title>Node4</title>
<g id="a_node4"><a xlink:href="socket_8h.html#a72f2053cb73122f3ac5d0ae55e26a6c7" target="_top" xlink:title="Read data from a socket. ">
<polygon fill="white" stroke="red" points="171.5,-132.5 171.5,-151.5 262.5,-151.5 262.5,-132.5 171.5,-132.5"/>
<text text-anchor="middle" x="217" y="-139.5" font-family="Helvetica,sans-Serif" font-size="10.00">raw_socket_read</text>
</a>
</g>
</g>
<!-- Node1&#45;&gt;Node4 -->
<g id="edge3" class="edge"><title>Node1&#45;&gt;Node4</title>
<path fill="none" stroke="midnightblue" d="M132.488,-131.697C145.75,-133.333 159.272,-135.001 171.465,-136.505"/>
<polygon fill="midnightblue" stroke="midnightblue" points="132.776,-128.206 122.423,-130.455 131.919,-135.153 132.776,-128.206"/>
</g>
<!-- Node5 -->
<g id="node5" class="node"><title>Node5</title>
<g id="a_node5"><a xlink:href="socket_8h.html#a79bb2278f55b18858b3580d8bdf53142" target="_top" xlink:title="Write data to a socket. ">
<polygon fill="white" stroke="red" points="170.5,-94.5 170.5,-113.5 263.5,-113.5 263.5,-94.5 170.5,-94.5"/>
<text text-anchor="middle" x="217" y="-101.5" font-family="Helvetica,sans-Serif" font-size="10.00">raw_socket_write</text>
</a>
</g>
</g>
<!-- Node1&#45;&gt;Node5 -->
<g id="edge4" class="edge"><title>Node1&#45;&gt;Node5</title>
<path fill="none" stroke="midnightblue" d="M132.552,-114.296C145.279,-112.725 158.243,-111.126 170.039,-109.67"/>
<polygon fill="midnightblue" stroke="midnightblue" points="131.919,-110.847 122.423,-115.545 132.776,-117.794 131.919,-110.847"/>
</g>
<!-- Node6 -->
<g id="node6" class="node"><title>Node6</title>
<g id="a_node6"><a xlink:href="curs__lib_8h.html#aa922a0db5f9f56cdc3bedc5671bc35a7" target="_top" xlink:title="Read a character from the input buffer. ">
<polygon fill="white" stroke="red" points="184.5,-56.5 184.5,-75.5 249.5,-75.5 249.5,-56.5 184.5,-56.5"/>
<text text-anchor="middle" x="217" y="-63.5" font-family="Helvetica,sans-Serif" font-size="10.00">mutt_getch</text>
</a>
</g>
</g>
<!-- Node1&#45;&gt;Node6 -->
<g id="edge5" class="edge"><title>Node1&#45;&gt;Node6</title>
<path fill="none" stroke="midnightblue" d="M94.56,-109.546C113.058,-102.045 136.708,-92.6936 158,-85 166.969,-81.7592 176.8,-78.4488 185.779,-75.5182"/>
<polygon fill="midnightblue" stroke="midnightblue" points="93.0679,-106.375 85.129,-113.391 95.7104,-112.857 93.0679,-106.375"/>
</g>
<!-- Node7 -->
<g id="node7" class="node"><title>Node7</title>
<g id="a_node7"><a xlink:href="sendlib_8h.html#a96e81f3dcb5a6c959a95ad70024cc2ec" target="_top" xlink:title="Write a MIME part. ">
<polygon fill="white" stroke="red" points="158,-0.5 158,-19.5 276,-19.5 276,-0.5 158,-0.5"/>
<text text-anchor="middle" x="217" y="-7.5" font-family="Helvetica,sans-Serif" font-size="10.00">mutt_write_mime_body</text>
</a>
</g>
</g>
<!-- Node1&#45;&gt;Node7 -->
<g id="edge6" class="edge"><title>Node1&#45;&gt;Node7</title>
<path fill="none" stroke="midnightblue" d="M81.1544,-106.887C100.219,-91.0794 130.52,-66.5662 158,-47 171.816,-37.1628 188.15,-26.8547 199.958,-19.6247"/>
<polygon fill="midnightblue" stroke="midnightblue" points="78.6757,-104.397 73.2362,-113.489 83.1583,-109.774 78.6757,-104.397"/>
</g>
<!-- Node7&#45;&gt;Node7 -->
<g id="edge7" class="edge"><title>Node7&#45;&gt;Node7</title>
<path fill="none" stroke="midnightblue" d="M187.881,-28.6539C189.098,-33.9368 198.804,-38 217,-38 244.727,-38 252.741,-28.5653 241.044,-19.7571"/>
<polygon fill="midnightblue" stroke="midnightblue" points="191.041,-30.1775 192.956,-19.7571 184.961,-26.7091 191.041,-30.1775"/>
</g>
</g>
</svg>
