<?xml version="1.0" encoding="UTF-8" standalone="no"?>
<!DOCTYPE svg PUBLIC "-//W3C//DTD SVG 1.1//EN"
 "http://www.w3.org/Graphics/SVG/1.1/DTD/svg11.dtd">
<!-- Generated by graphviz version 2.36.0 (20140111.2315)
 -->
<!-- Title: mutt_sig_unblock Pages: 1 -->
<svg width="372pt" height="162pt"
 viewBox="0.00 0.00 372.00 162.46" xmlns="http://www.w3.org/2000/svg" xmlns:xlink="http://www.w3.org/1999/xlink">
<g id="graph0" class="graph" transform="scale(1 1) rotate(0) translate(4 158.456)">
<title>mutt_sig_unblock</title>
<polygon fill="white" stroke="none" points="-4,4 -4,-158.456 368,-158.456 368,4 -4,4"/>
<!-- Node1 -->
<g id="node1" class="node"><title>Node1</title>
<polygon fill="#bfbfbf" stroke="black" points="0.5,-58.9559 0.5,-77.9559 93.5,-77.9559 93.5,-58.9559 0.5,-58.9559"/>
<text text-anchor="middle" x="47" y="-65.9559" font-family="Helvetica,sans-Serif" font-size="10.00">mutt_sig_unblock</text>
</g>
<!-- Node2 -->
<g id="node2" class="node"><title>Node2</title>
<g id="a_node2"><a xlink:href="compress_8c.html#a90da29e324df82c73080cabf7eee479b" target="_top" xlink:title="Run a system command. ">
<polygon fill="white" stroke="red" points="131.5,-134.956 131.5,-153.956 230.5,-153.956 230.5,-134.956 131.5,-134.956"/>
<text text-anchor="middle" x="181" y="-141.956" font-family="Helvetica,sans-Serif" font-size="10.00">execute_command</text>
</a>
</g>
</g>
<!-- Node1&#45;&gt;Node2 -->
<g id="edge1" class="edge"><title>Node1&#45;&gt;Node2</title>
<path fill="none" stroke="midnightblue" d="M68.0171,-84.4514C84.0974,-96.7762 107.615,-113.651 130,-125.456 136.653,-128.965 144.102,-132.155 151.177,-134.877"/>
<polygon fill="midnightblue" stroke="midnightblue" points="69.9436,-81.5156 59.903,-78.1335 65.643,-87.0388 69.9436,-81.5156"/>
</g>
<!-- Node3 -->
<g id="node3" class="node"><title>Node3</title>
<g id="a_node3"><a xlink:href="mbox_8c.html#abb852d85f42cd12ec22682a3e18529c5" target="_top" xlink:title="Implements MxOps::mbox_open() ">
<polygon fill="white" stroke="black" points="133,-96.9559 133,-115.956 229,-115.956 229,-96.9559 133,-96.9559"/>
<text text-anchor="middle" x="181" y="-103.956" font-family="Helvetica,sans-Serif" font-size="10.00">mbox_mbox_open</text>
</a>
</g>
</g>
<!-- Node1&#45;&gt;Node3 -->
<g id="edge2" class="edge"><title>Node1&#45;&gt;Node3</title>
<path fill="none" stroke="midnightblue" d="M91.0409,-80.8464C109.118,-86.0503 129.819,-92.0099 146.701,-96.8699"/>
<polygon fill="midnightblue" stroke="midnightblue" points="91.8872,-77.448 81.3092,-78.0449 89.9506,-84.1748 91.8872,-77.448"/>
</g>
<!-- Node4 -->
<g id="node4" class="node"><title>Node4</title>
<g id="a_node4"><a xlink:href="mbox_8c.html#a65e4a96f0322341067e8ae40d812b2cf" target="_top" xlink:title="Implements MxOps::mbox_close() ">
<polygon fill="white" stroke="black" points="132,-58.9559 132,-77.9559 230,-77.9559 230,-58.9559 132,-58.9559"/>
<text text-anchor="middle" x="181" y="-65.9559" font-family="Helvetica,sans-Serif" font-size="10.00">mbox_mbox_close</text>
</a>
</g>
</g>
<!-- Node1&#45;&gt;Node4 -->
<g id="edge3" class="edge"><title>Node1&#45;&gt;Node4</title>
<path fill="none" stroke="midnightblue" d="M104.004,-68.4559C113.179,-68.4559 122.618,-68.4559 131.589,-68.4559"/>
<polygon fill="midnightblue" stroke="midnightblue" points="103.797,-64.956 93.7967,-68.4559 103.797,-71.956 103.797,-64.956"/>
</g>
<!-- Node5 -->
<g id="node5" class="node"><title>Node5</title>
<g id="a_node5"><a xlink:href="mbox_8c.html#a1774543272b536cb9c62e9135fefdffa" target="_top" xlink:title="Implements MxOps::mbox_check() ">
<polygon fill="white" stroke="black" points="130.5,-20.9559 130.5,-39.9559 231.5,-39.9559 231.5,-20.9559 130.5,-20.9559"/>
<text text-anchor="middle" x="181" y="-27.9559" font-family="Helvetica,sans-Serif" font-size="10.00">mbox_mbox_check</text>
</a>
</g>
</g>
<!-- Node1&#45;&gt;Node5 -->
<g id="edge4" class="edge"><title>Node1&#45;&gt;Node5</title>
<path fill="none" stroke="midnightblue" d="M91.0409,-56.0653C109.118,-50.8614 129.819,-44.9018 146.701,-40.0418"/>
<polygon fill="midnightblue" stroke="midnightblue" points="89.9506,-52.7369 81.3092,-58.8669 91.8872,-59.4637 89.9506,-52.7369"/>
</g>
<!-- Node6 -->
<g id="node6" class="node"><title>Node6</title>
<g id="a_node6"><a xlink:href="mbox_8c.html#ac3bd73b0ad1b3a39f62c9fd00544e4ce" target="_top" xlink:title="Implements MxOps::mbox_sync() ">
<polygon fill="white" stroke="black" points="268,-1.95586 268,-20.9559 364,-20.9559 364,-1.95586 268,-1.95586"/>
<text text-anchor="middle" x="316" y="-8.95586" font-family="Helvetica,sans-Serif" font-size="10.00">mbox_mbox_sync</text>
</a>
</g>
</g>
<!-- Node1&#45;&gt;Node6 -->
<g id="edge6" class="edge"><title>Node1&#45;&gt;Node6</title>
<path fill="none" stroke="midnightblue" d="M65.1914,-51.7457C80.6996,-37.9237 104.874,-19.3309 130,-11.4559 175.206,2.71252 229.734,0.55406 267.835,-3.82065"/>
<polygon fill="midnightblue" stroke="midnightblue" points="62.4871,-49.479 57.5163,-58.8354 67.2369,-54.621 62.4871,-49.479"/>
</g>
<!-- Node5&#45;&gt;Node6 -->
<g id="edge5" class="edge"><title>Node5&#45;&gt;Node6</title>
<path fill="none" stroke="midnightblue" d="M241.64,-21.9358C250.351,-20.6915 259.22,-19.4245 267.641,-18.2214"/>
<polygon fill="midnightblue" stroke="midnightblue" points="240.929,-18.5018 231.524,-23.381 241.919,-25.4315 240.929,-18.5018"/>
</g>
</g>
</svg>
