<?xml version="1.0" encoding="UTF-8" standalone="no"?>
<!DOCTYPE svg PUBLIC "-//W3C//DTD SVG 1.1//EN"
 "http://www.w3.org/Graphics/SVG/1.1/DTD/svg11.dtd">
<!-- Generated by graphviz version 2.36.0 (20140111.2315)
 -->
<!-- Title: smime_class_void_passphrase Pages: 1 -->
<svg width="500pt" height="104pt"
 viewBox="0.00 0.00 500.00 104.00" xmlns="http://www.w3.org/2000/svg" xmlns:xlink="http://www.w3.org/1999/xlink">
<g id="graph0" class="graph" transform="scale(1 1) rotate(0) translate(4 100)">
<title>smime_class_void_passphrase</title>
<polygon fill="white" stroke="none" points="-4,4 -4,-100 496,-100 496,4 -4,4"/>
<!-- Node1 -->
<g id="node1" class="node"><title>Node1</title>
<polygon fill="#bfbfbf" stroke="black" points="0.5,-38.5 0.5,-57.5 153.5,-57.5 153.5,-38.5 0.5,-38.5"/>
<text text-anchor="middle" x="77" y="-45.5" font-family="Helvetica,sans-Serif" font-size="10.00">smime_class_void_passphrase</text>
</g>
<!-- Node2 -->
<g id="node2" class="node"><title>Node2</title>
<g id="a_node2"><a xlink:href="smime_8h.html#a4c7f4aa458a0c1066649c9d68ae8552b" target="_top" xlink:title="Implements CryptModuleSpecs::valid_passphrase() ">
<polygon fill="white" stroke="black" points="190.5,-76.5 190.5,-95.5 345.5,-95.5 345.5,-76.5 190.5,-76.5"/>
<text text-anchor="middle" x="268" y="-83.5" font-family="Helvetica,sans-Serif" font-size="10.00">smime_class_valid_passphrase</text>
</a>
</g>
</g>
<!-- Node1&#45;&gt;Node2 -->
<g id="edge1" class="edge"><title>Node1&#45;&gt;Node2</title>
<path fill="none" stroke="midnightblue" d="M135.742,-59.6095C162.622,-65.014 194.203,-71.3635 219.65,-76.4799"/>
<polygon fill="midnightblue" stroke="midnightblue" points="136.186,-56.1289 125.693,-57.589 134.807,-62.9916 136.186,-56.1289"/>
</g>
<!-- Node3 -->
<g id="node3" class="node"><title>Node3</title>
<g id="a_node3"><a xlink:href="smime_8c.html#a9a688bb9dd47be9db4698008c5e0be50" target="_top" xlink:title="Handle type application/pkcs7&#45;mime. ">
<polygon fill="white" stroke="red" points="382.5,-57.5 382.5,-76.5 491.5,-76.5 491.5,-57.5 382.5,-57.5"/>
<text text-anchor="middle" x="437" y="-64.5" font-family="Helvetica,sans-Serif" font-size="10.00">smime_handle_entity</text>
</a>
</g>
</g>
<!-- Node1&#45;&gt;Node3 -->
<g id="edge4" class="edge"><title>Node1&#45;&gt;Node3</title>
<path fill="none" stroke="midnightblue" d="M164.175,-52.5736C232.067,-56.1767 324.589,-61.0871 382.283,-64.1491"/>
<polygon fill="midnightblue" stroke="midnightblue" points="164.094,-49.0644 153.923,-52.0294 163.723,-56.0546 164.094,-49.0644"/>
</g>
<!-- Node4 -->
<g id="node4" class="node"><title>Node4</title>
<g id="a_node4"><a xlink:href="smime_8c.html#ae9d2a75207babbb632f844e322ad359b" target="_top" xlink:title="Get the keys for a mailbox. ">
<polygon fill="white" stroke="red" points="242.5,-0.5 242.5,-19.5 293.5,-19.5 293.5,-0.5 242.5,-0.5"/>
<text text-anchor="middle" x="268" y="-7.5" font-family="Helvetica,sans-Serif" font-size="10.00">getkeys</text>
</a>
</g>
</g>
<!-- Node1&#45;&gt;Node4 -->
<g id="edge3" class="edge"><title>Node1&#45;&gt;Node4</title>
<path fill="none" stroke="midnightblue" d="M135.544,-36.4304C171.334,-29.2344 215.52,-20.3505 242.461,-14.9337"/>
<polygon fill="midnightblue" stroke="midnightblue" points="134.807,-33.0084 125.693,-38.411 136.186,-39.8711 134.807,-33.0084"/>
</g>
<!-- Node2&#45;&gt;Node3 -->
<g id="edge2" class="edge"><title>Node2&#45;&gt;Node3</title>
<path fill="none" stroke="midnightblue" d="M355.809,-76.1236C364.8,-75.1006 373.741,-74.0834 382.212,-73.1196"/>
<polygon fill="midnightblue" stroke="midnightblue" points="355.197,-72.6704 345.657,-77.2785 355.989,-79.6256 355.197,-72.6704"/>
</g>
</g>
</svg>
