<?xml version="1.0" encoding="UTF-8" standalone="no"?>
<!DOCTYPE svg PUBLIC "-//W3C//DTD SVG 1.1//EN"
 "http://www.w3.org/Graphics/SVG/1.1/DTD/svg11.dtd">
<!-- Generated by graphviz version 2.36.0 (20140111.2315)
 -->
<!-- Title: smime_class_valid_passphrase Pages: 1 -->
<svg width="354pt" height="66pt"
 viewBox="0.00 0.00 354.00 66.00" xmlns="http://www.w3.org/2000/svg" xmlns:xlink="http://www.w3.org/1999/xlink">
<g id="graph0" class="graph" transform="scale(1 1) rotate(0) translate(4 62)">
<title>smime_class_valid_passphrase</title>
<polygon fill="white" stroke="none" points="-4,4 -4,-62 350,-62 350,4 -4,4"/>
<!-- Node1 -->
<g id="node1" class="node"><title>Node1</title>
<polygon fill="#bfbfbf" stroke="black" points="0.5,-19.5 0.5,-38.5 155.5,-38.5 155.5,-19.5 0.5,-19.5"/>
<text text-anchor="middle" x="78" y="-26.5" font-family="Helvetica,sans-Serif" font-size="10.00">smime_class_valid_passphrase</text>
</g>
<!-- Node2 -->
<g id="node2" class="node"><title>Node2</title>
<g id="a_node2"><a xlink:href="smime_8c.html#adb364b3c8158f09603b981b70bbee2eb" target="_top" xlink:title="Implements CryptModuleSpecs::void_passphrase() ">
<polygon fill="white" stroke="black" points="192.5,-38.5 192.5,-57.5 345.5,-57.5 345.5,-38.5 192.5,-38.5"/>
<text text-anchor="middle" x="269" y="-45.5" font-family="Helvetica,sans-Serif" font-size="10.00">smime_class_void_passphrase</text>
</a>
</g>
</g>
<!-- Node1&#45;&gt;Node2 -->
<g id="edge1" class="edge"><title>Node1&#45;&gt;Node2</title>
<path fill="none" stroke="midnightblue" d="M155.601,-36.7006C164.374,-37.5826 173.36,-38.4859 182.243,-39.3789"/>
<polygon fill="midnightblue" stroke="midnightblue" points="181.91,-42.863 192.21,-40.3809 182.61,-35.8981 181.91,-42.863"/>
</g>
<!-- Node3 -->
<g id="node3" class="node"><title>Node3</title>
<g id="a_node3"><a xlink:href="date_8c.html#ac2afca44227dcdc262f2e37bc6c639a4" target="_top" xlink:title="Safely add a timeout to a given time_t value. ">
<polygon fill="white" stroke="black" points="209.5,-0.5 209.5,-19.5 328.5,-19.5 328.5,-0.5 209.5,-0.5"/>
<text text-anchor="middle" x="269" y="-7.5" font-family="Helvetica,sans-Serif" font-size="10.00">mutt_date_add_timeout</text>
</a>
</g>
</g>
<!-- Node1&#45;&gt;Node3 -->
<g id="edge2" class="edge"><title>Node1&#45;&gt;Node3</title>
<path fill="none" stroke="midnightblue" d="M155.601,-21.2994C170.01,-19.8508 184.996,-18.3443 199.151,-16.9213"/>
<polygon fill="midnightblue" stroke="midnightblue" points="199.692,-20.3847 209.291,-15.9019 198.991,-13.4198 199.692,-20.3847"/>
</g>
</g>
</svg>
