<?xml version="1.0" encoding="UTF-8" standalone="no"?>
<!DOCTYPE svg PUBLIC "-//W3C//DTD SVG 1.1//EN"
 "http://www.w3.org/Graphics/SVG/1.1/DTD/svg11.dtd">
<!-- Generated by graphviz version 2.36.0 (20140111.2315)
 -->
<!-- Title: smime_handle_entity Pages: 1 -->
<svg width="296pt" height="77pt"
 viewBox="0.00 0.00 296.00 77.00" xmlns="http://www.w3.org/2000/svg" xmlns:xlink="http://www.w3.org/1999/xlink">
<g id="graph0" class="graph" transform="scale(1 1) rotate(0) translate(4 73)">
<title>smime_handle_entity</title>
<polygon fill="white" stroke="none" points="-4,4 -4,-73 292,-73 292,4 -4,4"/>
<!-- Node1 -->
<g id="node1" class="node"><title>Node1</title>
<polygon fill="#bfbfbf" stroke="black" points="0.5,-27.5 0.5,-46.5 109.5,-46.5 109.5,-27.5 0.5,-27.5"/>
<text text-anchor="middle" x="55" y="-34.5" font-family="Helvetica,sans-Serif" font-size="10.00">smime_handle_entity</text>
</g>
<!-- Node2 -->
<g id="node2" class="node"><title>Node2</title>
<g id="a_node2"><a xlink:href="smime_8h.html#af87ed15089c9c7afba9eca64f6cbada1" target="_top" xlink:title="Implements CryptModuleSpecs::decrypt_mime() ">
<polygon fill="white" stroke="black" points="146.5,-49.5 146.5,-68.5 287.5,-68.5 287.5,-49.5 146.5,-49.5"/>
<text text-anchor="middle" x="217" y="-56.5" font-family="Helvetica,sans-Serif" font-size="10.00">smime_class_decrypt_mime</text>
</a>
</g>
</g>
<!-- Node1&#45;&gt;Node2 -->
<g id="edge1" class="edge"><title>Node1&#45;&gt;Node2</title>
<path fill="none" stroke="midnightblue" d="M119.649,-45.7517C128.57,-46.9783 137.774,-48.2439 146.791,-49.4838"/>
<polygon fill="midnightblue" stroke="midnightblue" points="120.106,-42.2818 109.723,-44.3869 119.153,-49.2165 120.106,-42.2818"/>
</g>
<!-- Node3 -->
<g id="node3" class="node"><title>Node3</title>
<g id="a_node3"><a xlink:href="smime_8h.html#af04b670cb74ccfaac9d020cd6d475867" target="_top" xlink:title="Implements CryptModuleSpecs::application_handler() ">
<polygon fill="white" stroke="black" points="154,-0 154,-30 280,-30 280,-0 154,-0"/>
<text text-anchor="start" x="162" y="-18" font-family="Helvetica,sans-Serif" font-size="10.00">smime_class_application</text>
<text text-anchor="middle" x="217" y="-7" font-family="Helvetica,sans-Serif" font-size="10.00">_handler</text>
</a>
</g>
</g>
<!-- Node1&#45;&gt;Node3 -->
<g id="edge2" class="edge"><title>Node1&#45;&gt;Node3</title>
<path fill="none" stroke="midnightblue" d="M119.858,-28.2196C131.057,-26.6796 142.698,-25.0791 153.85,-23.5456"/>
<polygon fill="midnightblue" stroke="midnightblue" points="119.153,-24.7835 109.723,-29.6131 120.106,-31.7182 119.153,-24.7835"/>
</g>
</g>
</svg>
