<?xml version="1.0" encoding="UTF-8" standalone="no"?>
<!DOCTYPE svg PUBLIC "-//W3C//DTD SVG 1.1//EN"
 "http://www.w3.org/Graphics/SVG/1.1/DTD/svg11.dtd">
<!-- Generated by graphviz version 2.36.0 (20140111.2315)
 -->
<!-- Title: smime_ask_for_key Pages: 1 -->
<svg width="278pt" height="104pt"
 viewBox="0.00 0.00 278.00 104.00" xmlns="http://www.w3.org/2000/svg" xmlns:xlink="http://www.w3.org/1999/xlink">
<g id="graph0" class="graph" transform="scale(1 1) rotate(0) translate(4 100)">
<title>smime_ask_for_key</title>
<polygon fill="white" stroke="none" points="-4,4 -4,-100 274,-100 274,4 -4,4"/>
<!-- Node1 -->
<g id="node1" class="node"><title>Node1</title>
<polygon fill="#bfbfbf" stroke="black" points="0,-38.5 0,-57.5 104,-57.5 104,-38.5 0,-38.5"/>
<text text-anchor="middle" x="52" y="-45.5" font-family="Helvetica,sans-Serif" font-size="10.00">smime_ask_for_key</text>
</g>
<!-- Node2 -->
<g id="node2" class="node"><title>Node2</title>
<g id="a_node2"><a xlink:href="smime_8c.html#ae9d2a75207babbb632f844e322ad359b" target="_top" xlink:title="Get the keys for a mailbox. ">
<polygon fill="white" stroke="red" points="179.5,-76.5 179.5,-95.5 230.5,-95.5 230.5,-76.5 179.5,-76.5"/>
<text text-anchor="middle" x="205" y="-83.5" font-family="Helvetica,sans-Serif" font-size="10.00">getkeys</text>
</a>
</g>
</g>
<!-- Node1&#45;&gt;Node2 -->
<g id="edge1" class="edge"><title>Node1&#45;&gt;Node2</title>
<path fill="none" stroke="midnightblue" d="M101.143,-60.1154C127.101,-66.6481 158.05,-74.4363 179.171,-79.7517"/>
<polygon fill="midnightblue" stroke="midnightblue" points="101.656,-56.6354 91.1037,-57.589 99.9471,-63.4237 101.656,-56.6354"/>
</g>
<!-- Node3 -->
<g id="node3" class="node"><title>Node3</title>
<g id="a_node3"><a xlink:href="smime_8h.html#a19a194ee36bd3d99ff0effb3b56c558d" target="_top" xlink:title="Implements CryptModuleSpecs::find_keys() ">
<polygon fill="white" stroke="black" points="144,-38.5 144,-57.5 266,-57.5 266,-38.5 144,-38.5"/>
<text text-anchor="middle" x="205" y="-45.5" font-family="Helvetica,sans-Serif" font-size="10.00">smime_class_find_keys</text>
</a>
</g>
</g>
<!-- Node1&#45;&gt;Node3 -->
<g id="edge2" class="edge"><title>Node1&#45;&gt;Node3</title>
<path fill="none" stroke="midnightblue" d="M114.16,-48C123.936,-48 134.045,-48 143.799,-48"/>
<polygon fill="midnightblue" stroke="midnightblue" points="114.122,-44.5001 104.122,-48 114.122,-51.5001 114.122,-44.5001"/>
</g>
<!-- Node4 -->
<g id="node4" class="node"><title>Node4</title>
<g id="a_node4"><a xlink:href="smime_8h.html#a5d8150aea2012e3072717d80cc4a965b" target="_top" xlink:title="Implements CryptModuleSpecs::send_menu() ">
<polygon fill="white" stroke="black" points="140,-0.5 140,-19.5 270,-19.5 270,-0.5 140,-0.5"/>
<text text-anchor="middle" x="205" y="-7.5" font-family="Helvetica,sans-Serif" font-size="10.00">smime_class_send_menu</text>
</a>
</g>
</g>
<!-- Node1&#45;&gt;Node4 -->
<g id="edge3" class="edge"><title>Node1&#45;&gt;Node4</title>
<path fill="none" stroke="midnightblue" d="M100.843,-35.96C121.939,-30.6512 146.377,-24.5012 166.17,-19.5201"/>
<polygon fill="midnightblue" stroke="midnightblue" points="99.9471,-32.5763 91.1037,-38.411 101.656,-39.3646 99.9471,-32.5763"/>
</g>
</g>
</svg>
