<?xml version="1.0" encoding="UTF-8" standalone="no"?>
<!DOCTYPE svg PUBLIC "-//W3C//DTD SVG 1.1//EN"
 "http://www.w3.org/Graphics/SVG/1.1/DTD/svg11.dtd">
<!-- Generated by graphviz version 2.36.0 (20140111.2315)
 -->
<!-- Title: smime_get_candidates Pages: 1 -->
<svg width="290pt" height="104pt"
 viewBox="0.00 0.00 290.00 104.00" xmlns="http://www.w3.org/2000/svg" xmlns:xlink="http://www.w3.org/1999/xlink">
<g id="graph0" class="graph" transform="scale(1 1) rotate(0) translate(4 100)">
<title>smime_get_candidates</title>
<polygon fill="white" stroke="none" points="-4,4 -4,-100 286,-100 286,4 -4,4"/>
<!-- Node1 -->
<g id="node1" class="node"><title>Node1</title>
<polygon fill="#bfbfbf" stroke="black" points="0.5,-38.5 0.5,-57.5 117.5,-57.5 117.5,-38.5 0.5,-38.5"/>
<text text-anchor="middle" x="59" y="-45.5" font-family="Helvetica,sans-Serif" font-size="10.00">smime_get_candidates</text>
</g>
<!-- Node2 -->
<g id="node2" class="node"><title>Node2</title>
<g id="a_node2"><a xlink:href="smime_8c.html#af1be5b17000a7cfffdb9958a74f14137" target="_top" xlink:title="Find a key by its hash. ">
<polygon fill="white" stroke="red" points="154,-76.5 154,-95.5 282,-95.5 282,-76.5 154,-76.5"/>
<text text-anchor="middle" x="218" y="-83.5" font-family="Helvetica,sans-Serif" font-size="10.00">smime_get_key_by_hash</text>
</a>
</g>
</g>
<!-- Node1&#45;&gt;Node2 -->
<g id="edge1" class="edge"><title>Node1&#45;&gt;Node2</title>
<path fill="none" stroke="midnightblue" d="M109.447,-59.968C131.448,-65.2931 156.994,-71.4762 177.667,-76.4799"/>
<polygon fill="midnightblue" stroke="midnightblue" points="110.16,-56.5398 99.6177,-57.589 108.514,-63.3433 110.16,-56.5398"/>
</g>
<!-- Node3 -->
<g id="node3" class="node"><title>Node3</title>
<g id="a_node3"><a xlink:href="smime_8c.html#a01b90dc6b5c6672cbdce8e57abda5a15" target="_top" xlink:title="Find an SIME key by address. ">
<polygon fill="white" stroke="red" points="155.5,-38.5 155.5,-57.5 280.5,-57.5 280.5,-38.5 155.5,-38.5"/>
<text text-anchor="middle" x="218" y="-45.5" font-family="Helvetica,sans-Serif" font-size="10.00">smime_get_key_by_addr</text>
</a>
</g>
</g>
<!-- Node1&#45;&gt;Node3 -->
<g id="edge2" class="edge"><title>Node1&#45;&gt;Node3</title>
<path fill="none" stroke="midnightblue" d="M127.831,-48C137.019,-48 146.406,-48 155.476,-48"/>
<polygon fill="midnightblue" stroke="midnightblue" points="127.57,-44.5001 117.57,-48 127.569,-51.5001 127.57,-44.5001"/>
</g>
<!-- Node4 -->
<g id="node4" class="node"><title>Node4</title>
<g id="a_node4"><a xlink:href="smime_8c.html#a889d687dcc99f2b8ae1bacc990a95124" target="_top" xlink:title="Find an SMIME key by string. ">
<polygon fill="white" stroke="red" points="159,-0.5 159,-19.5 277,-19.5 277,-0.5 159,-0.5"/>
<text text-anchor="middle" x="218" y="-7.5" font-family="Helvetica,sans-Serif" font-size="10.00">smime_get_key_by_str</text>
</a>
</g>
</g>
<!-- Node1&#45;&gt;Node4 -->
<g id="edge3" class="edge"><title>Node1&#45;&gt;Node4</title>
<path fill="none" stroke="midnightblue" d="M109.447,-36.032C131.448,-30.7069 156.994,-24.5238 177.667,-19.5201"/>
<polygon fill="midnightblue" stroke="midnightblue" points="108.514,-32.6567 99.6177,-38.411 110.16,-39.4602 108.514,-32.6567"/>
</g>
</g>
</svg>
