<?xml version="1.0" encoding="UTF-8" standalone="no"?>
<!DOCTYPE svg PUBLIC "-//W3C//DTD SVG 1.1//EN"
 "http://www.w3.org/Graphics/SVG/1.1/DTD/svg11.dtd">
<!-- Generated by graphviz version 2.36.0 (20140111.2315)
 -->
<!-- Title: ncrypt/smime.c Pages: 1 -->
<svg width="2215pt" height="140pt"
 viewBox="0.00 0.00 2215.00 140.00" xmlns="http://www.w3.org/2000/svg" xmlns:xlink="http://www.w3.org/1999/xlink">
<g id="graph0" class="graph" transform="scale(1 1) rotate(0) translate(4 136)">
<title>ncrypt/smime.c</title>
<polygon fill="white" stroke="none" points="-4,4 -4,-136 2211,-136 2211,4 -4,4"/>
<!-- Node1 -->
<g id="node1" class="node"><title>Node1</title>
<polygon fill="#bfbfbf" stroke="black" points="1083,-112.5 1083,-131.5 1167,-131.5 1167,-112.5 1083,-112.5"/>
<text text-anchor="middle" x="1125" y="-119.5" font-family="Helvetica,sans-Serif" font-size="10.00">ncrypt/smime.c</text>
</g>
<!-- Node2 -->
<g id="node2" class="node"><title>Node2</title>
<polygon fill="white" stroke="#bfbfbf" points="-0.5,-56.5 -0.5,-75.5 50.5,-75.5 50.5,-56.5 -0.5,-56.5"/>
<text text-anchor="middle" x="25" y="-63.5" font-family="Helvetica,sans-Serif" font-size="10.00">config.h</text>
</g>
<!-- Node1&#45;&gt;Node2 -->
<g id="edge1" class="edge"><title>Node1&#45;&gt;Node2</title>
<path fill="none" stroke="midnightblue" d="M1082.94,-120.399C913.805,-117.804 282.157,-106.349 60.7832,-75.7219"/>
<polygon fill="midnightblue" stroke="midnightblue" points="61.2665,-72.2554 50.87,-74.2961 60.2699,-79.1841 61.2665,-72.2554"/>
</g>
<!-- Node3 -->
<g id="node3" class="node"><title>Node3</title>
<polygon fill="white" stroke="#bfbfbf" points="69,-56.5 69,-75.5 117,-75.5 117,-56.5 69,-56.5"/>
<text text-anchor="middle" x="93" y="-63.5" font-family="Helvetica,sans-Serif" font-size="10.00">limits.h</text>
</g>
<!-- Node1&#45;&gt;Node3 -->
<g id="edge2" class="edge"><title>Node1&#45;&gt;Node3</title>
<path fill="none" stroke="midnightblue" d="M1082.72,-120.141C918.023,-116.633 319.191,-102.309 131,-76 129.892,-75.8451 128.769,-75.6728 127.638,-75.486"/>
<polygon fill="midnightblue" stroke="midnightblue" points="127.887,-71.9687 117.402,-73.4901 126.547,-78.8393 127.887,-71.9687"/>
</g>
<!-- Node4 -->
<g id="node4" class="node"><title>Node4</title>
<polygon fill="white" stroke="#bfbfbf" points="1097,-0.5 1097,-19.5 1153,-19.5 1153,-0.5 1097,-0.5"/>
<text text-anchor="middle" x="1125" y="-7.5" font-family="Helvetica,sans-Serif" font-size="10.00">stdbool.h</text>
</g>
<!-- Node1&#45;&gt;Node4 -->
<g id="edge3" class="edge"><title>Node1&#45;&gt;Node4</title>
<path fill="none" stroke="midnightblue" d="M1082.78,-112.992C1061.92,-106.675 1038.57,-95.5245 1026,-76 1008.07,-48.1508 1051.91,-29.6117 1086.88,-19.6936"/>
<polygon fill="midnightblue" stroke="midnightblue" points="1088.15,-22.9758 1096.91,-17.0079 1086.34,-16.2141 1088.15,-22.9758"/>
</g>
<!-- Node5 -->
<g id="node5" class="node"><title>Node5</title>
<polygon fill="white" stroke="#bfbfbf" points="1558,-0.5 1558,-19.5 1604,-19.5 1604,-0.5 1558,-0.5"/>
<text text-anchor="middle" x="1581" y="-7.5" font-family="Helvetica,sans-Serif" font-size="10.00">stdio.h</text>
</g>
<!-- Node1&#45;&gt;Node5 -->
<g id="edge4" class="edge"><title>Node1&#45;&gt;Node5</title>
<path fill="none" stroke="midnightblue" d="M1167.23,-119.982C1319.45,-116.109 1832.28,-101.227 1856,-76 1862.09,-69.5244 1861.76,-62.7739 1856,-56 1825.36,-19.9419 1680.99,-12.7146 1614.57,-11.3113"/>
<polygon fill="midnightblue" stroke="midnightblue" points="1614.3,-7.80603 1604.24,-11.1272 1614.18,-14.8049 1614.3,-7.80603"/>
</g>
<!-- Node6 -->
<g id="node6" class="node"><title>Node6</title>
<polygon fill="white" stroke="#bfbfbf" points="211.5,-56.5 211.5,-75.5 260.5,-75.5 260.5,-56.5 211.5,-56.5"/>
<text text-anchor="middle" x="236" y="-63.5" font-family="Helvetica,sans-Serif" font-size="10.00">string.h</text>
</g>
<!-- Node1&#45;&gt;Node6 -->
<g id="edge5" class="edge"><title>Node1&#45;&gt;Node6</title>
<path fill="none" stroke="midnightblue" d="M1082.87,-119.933C936.306,-116.045 448.487,-101.586 270.752,-75.7048"/>
<polygon fill="midnightblue" stroke="midnightblue" points="271.169,-72.228 260.757,-74.1846 270.117,-79.1484 271.169,-72.228"/>
</g>
<!-- Node7 -->
<g id="node7" class="node"><title>Node7</title>
<polygon fill="white" stroke="#bfbfbf" points="279,-56.5 279,-75.5 339,-75.5 339,-56.5 279,-56.5"/>
<text text-anchor="middle" x="309" y="-63.5" font-family="Helvetica,sans-Serif" font-size="10.00">sys/stat.h</text>
</g>
<!-- Node1&#45;&gt;Node7 -->
<g id="edge6" class="edge"><title>Node1&#45;&gt;Node7</title>
<path fill="none" stroke="midnightblue" d="M1082.64,-121.052C966.646,-120.661 634.128,-115.978 349.252,-75.9247"/>
<polygon fill="midnightblue" stroke="midnightblue" points="349.532,-72.4293 339.139,-74.4849 348.546,-79.3595 349.532,-72.4293"/>
</g>
<!-- Node8 -->
<g id="node8" class="node"><title>Node8</title>
<polygon fill="white" stroke="#bfbfbf" points="375,-0.5 375,-19.5 419,-19.5 419,-0.5 375,-0.5"/>
<text text-anchor="middle" x="397" y="-7.5" font-family="Helvetica,sans-Serif" font-size="10.00">time.h</text>
</g>
<!-- Node1&#45;&gt;Node8 -->
<g id="edge7" class="edge"><title>Node1&#45;&gt;Node8</title>
<path fill="none" stroke="midnightblue" d="M1082.94,-120.564C905.408,-118.521 225.047,-108.583 194,-76 142.993,-22.4685 295.276,-12.903 364.582,-11.2829"/>
<polygon fill="midnightblue" stroke="midnightblue" points="365.018,-14.7753 374.949,-11.0856 364.884,-7.77658 365.018,-14.7753"/>
</g>
<!-- Node9 -->
<g id="node9" class="node"><title>Node9</title>
<polygon fill="white" stroke="#bfbfbf" points="455.5,-56.5 455.5,-75.5 522.5,-75.5 522.5,-56.5 455.5,-56.5"/>
<text text-anchor="middle" x="489" y="-63.5" font-family="Helvetica,sans-Serif" font-size="10.00">mutt/mutt.h</text>
</g>
<!-- Node1&#45;&gt;Node9 -->
<g id="edge8" class="edge"><title>Node1&#45;&gt;Node9</title>
<path fill="none" stroke="midnightblue" d="M1082.73,-119.688C986.759,-116.302 744.925,-105.48 532.805,-75.9156"/>
<polygon fill="midnightblue" stroke="midnightblue" points="533.119,-72.4252 522.728,-74.4936 532.14,-79.3566 533.119,-72.4252"/>
</g>
<!-- Node10 -->
<g id="node10" class="node"><title>Node10</title>
<g id="a_node10"><a xlink:href="lib_8h.html" target="_top" xlink:title="Convenience wrapper for the config headers. ">
<polygon fill="white" stroke="red" points="535,-0.5 535,-19.5 599,-19.5 599,-0.5 535,-0.5"/>
<text text-anchor="middle" x="567" y="-7.5" font-family="Helvetica,sans-Serif" font-size="10.00">config/lib.h</text>
</a>
</g>
</g>
<!-- Node1&#45;&gt;Node10 -->
<g id="edge9" class="edge"><title>Node1&#45;&gt;Node10</title>
<path fill="none" stroke="midnightblue" d="M1082.71,-120.543C905.778,-118.427 232.739,-108.274 202,-76 195.87,-69.5634 196.112,-62.6588 202,-56 212.612,-43.9992 430.98,-23.1523 524.784,-14.7093"/>
<polygon fill="midnightblue" stroke="midnightblue" points="525.142,-18.1913 534.79,-13.8132 524.518,-11.2192 525.142,-18.1913"/>
</g>
<!-- Node11 -->
<g id="node11" class="node"><title>Node11</title>
<g id="a_node11"><a xlink:href="email_8h.html" target="_top" xlink:title="Structs that make up an email. ">
<polygon fill="white" stroke="red" points="611,-56.5 611,-75.5 685,-75.5 685,-56.5 611,-56.5"/>
<text text-anchor="middle" x="648" y="-63.5" font-family="Helvetica,sans-Serif" font-size="10.00">email/email.h</text>
</a>
</g>
</g>
<!-- Node1&#45;&gt;Node11 -->
<g id="edge10" class="edge"><title>Node1&#45;&gt;Node11</title>
<path fill="none" stroke="midnightblue" d="M1082.93,-117.861C1007.38,-111.952 843.502,-97.8999 695.298,-76.072"/>
<polygon fill="midnightblue" stroke="midnightblue" points="695.514,-72.5657 685.108,-74.555 694.483,-79.4894 695.514,-72.5657"/>
</g>
<!-- Node12 -->
<g id="node12" class="node"><title>Node12</title>
<polygon fill="white" stroke="#bfbfbf" points="703,-56.5 703,-75.5 747,-75.5 747,-56.5 703,-56.5"/>
<text text-anchor="middle" x="725" y="-63.5" font-family="Helvetica,sans-Serif" font-size="10.00">mutt.h</text>
</g>
<!-- Node1&#45;&gt;Node12 -->
<g id="edge11" class="edge"><title>Node1&#45;&gt;Node12</title>
<path fill="none" stroke="midnightblue" d="M1082.86,-118.083C1015.78,-112.958 880.502,-100.653 757.231,-75.957"/>
<polygon fill="midnightblue" stroke="midnightblue" points="757.741,-72.4892 747.244,-73.9233 756.344,-79.3484 757.741,-72.4892"/>
</g>
<!-- Node13 -->
<g id="node13" class="node"><title>Node13</title>
<g id="a_node13"><a xlink:href="smime_8h.html" target="_top" xlink:title="SMIME helper routines. ">
<polygon fill="white" stroke="black" points="1308,-56.5 1308,-75.5 1362,-75.5 1362,-56.5 1308,-56.5"/>
<text text-anchor="middle" x="1335" y="-63.5" font-family="Helvetica,sans-Serif" font-size="10.00">smime.h</text>
</a>
</g>
</g>
<!-- Node1&#45;&gt;Node13 -->
<g id="edge12" class="edge"><title>Node1&#45;&gt;Node13</title>
<path fill="none" stroke="midnightblue" d="M1158.28,-112.444C1196.36,-102.649 1258.57,-86.6531 1298.11,-76.4857"/>
<polygon fill="midnightblue" stroke="midnightblue" points="1299.08,-79.8512 1307.89,-73.971 1297.33,-73.0717 1299.08,-79.8512"/>
</g>
<!-- Node14 -->
<g id="node14" class="node"><title>Node14</title>
<g id="a_node14"><a xlink:href="alias_8h.html" target="_top" xlink:title="Representation of a single alias to an email address. ">
<polygon fill="white" stroke="red" points="1102.5,-56.5 1102.5,-75.5 1147.5,-75.5 1147.5,-56.5 1102.5,-56.5"/>
<text text-anchor="middle" x="1125" y="-63.5" font-family="Helvetica,sans-Serif" font-size="10.00">alias.h</text>
</a>
</g>
</g>
<!-- Node1&#45;&gt;Node14 -->
<g id="edge15" class="edge"><title>Node1&#45;&gt;Node14</title>
<path fill="none" stroke="midnightblue" d="M1125,-112.083C1125,-105.006 1125,-94.8611 1125,-85.9865"/>
<polygon fill="midnightblue" stroke="midnightblue" points="1128.5,-85.751 1125,-75.7511 1121.5,-85.7511 1128.5,-85.751"/>
</g>
<!-- Node15 -->
<g id="node15" class="node"><title>Node15</title>
<g id="a_node15"><a xlink:href="copy_8h.html" target="_top" xlink:title="Duplicate the structure of an entire email. ">
<polygon fill="white" stroke="black" points="1984,-56.5 1984,-75.5 2030,-75.5 2030,-56.5 1984,-56.5"/>
<text text-anchor="middle" x="2007" y="-63.5" font-family="Helvetica,sans-Serif" font-size="10.00">copy.h</text>
</a>
</g>
</g>
<!-- Node1&#45;&gt;Node15 -->
<g id="edge17" class="edge"><title>Node1&#45;&gt;Node15</title>
<path fill="none" stroke="midnightblue" d="M1167.1,-119.957C1312.97,-116.162 1796.97,-102.005 1973.76,-75.5691"/>
<polygon fill="midnightblue" stroke="midnightblue" points="1974.36,-79.0174 1983.7,-74.0157 1973.28,-72.1012 1974.36,-79.0174"/>
</g>
<!-- Node16 -->
<g id="node16" class="node"><title>Node16</title>
<g id="a_node16"><a xlink:href="crypt_8h.html" target="_top" xlink:title="Signing/encryption multiplexor. ">
<polygon fill="white" stroke="black" points="1165.5,-56.5 1165.5,-75.5 1212.5,-75.5 1212.5,-56.5 1165.5,-56.5"/>
<text text-anchor="middle" x="1189" y="-63.5" font-family="Helvetica,sans-Serif" font-size="10.00">crypt.h</text>
</a>
</g>
</g>
<!-- Node1&#45;&gt;Node16 -->
<g id="edge19" class="edge"><title>Node1&#45;&gt;Node16</title>
<path fill="none" stroke="midnightblue" d="M1135.28,-112.324C1144.84,-104.263 1159.28,-92.0765 1170.78,-82.3695"/>
<polygon fill="midnightblue" stroke="midnightblue" points="1173.14,-84.9577 1178.53,-75.8339 1168.63,-79.6076 1173.14,-84.9577"/>
</g>
<!-- Node17 -->
<g id="node17" class="node"><title>Node17</title>
<g id="a_node17"><a xlink:href="cryptglue_8h.html" target="_top" xlink:title="Wrapper around crypto functions. ">
<polygon fill="white" stroke="black" points="839.5,-56.5 839.5,-75.5 904.5,-75.5 904.5,-56.5 839.5,-56.5"/>
<text text-anchor="middle" x="872" y="-63.5" font-family="Helvetica,sans-Serif" font-size="10.00">cryptglue.h</text>
</a>
</g>
</g>
<!-- Node1&#45;&gt;Node17 -->
<g id="edge21" class="edge"><title>Node1&#45;&gt;Node17</title>
<path fill="none" stroke="midnightblue" d="M1084.94,-112.468C1044.57,-103.868 980.193,-90.1465 914.658,-76.1389"/>
<polygon fill="midnightblue" stroke="midnightblue" points="915.069,-72.648 904.559,-73.9801 913.606,-79.4933 915.069,-72.648"/>
</g>
<!-- Node18 -->
<g id="node18" class="node"><title>Node18</title>
<g id="a_node18"><a xlink:href="curs__lib_8h.html" target="_top" xlink:title="GUI miscellaneous curses (window drawing) routines. ">
<polygon fill="white" stroke="red" points="1230.5,-56.5 1230.5,-75.5 1289.5,-75.5 1289.5,-56.5 1230.5,-56.5"/>
<text text-anchor="middle" x="1260" y="-63.5" font-family="Helvetica,sans-Serif" font-size="10.00">curs_lib.h</text>
</a>
</g>
</g>
<!-- Node1&#45;&gt;Node18 -->
<g id="edge23" class="edge"><title>Node1&#45;&gt;Node18</title>
<path fill="none" stroke="midnightblue" d="M1146.39,-112.444C1168.71,-103.517 1203.9,-89.4387 1229.21,-79.3168"/>
<polygon fill="midnightblue" stroke="midnightblue" points="1230.72,-82.4801 1238.71,-75.5164 1228.12,-75.9807 1230.72,-82.4801"/>
</g>
<!-- Node19 -->
<g id="node19" class="node"><title>Node19</title>
<g id="a_node19"><a xlink:href="filter_8h.html" target="_top" xlink:title="Pass files through external commands (filters) ">
<polygon fill="white" stroke="red" points="1804,-56.5 1804,-75.5 1848,-75.5 1848,-56.5 1804,-56.5"/>
<text text-anchor="middle" x="1826" y="-63.5" font-family="Helvetica,sans-Serif" font-size="10.00">filter.h</text>
</a>
</g>
</g>
<!-- Node1&#45;&gt;Node19 -->
<g id="edge26" class="edge"><title>Node1&#45;&gt;Node19</title>
<path fill="none" stroke="midnightblue" d="M1167.24,-121.177C1271.95,-120.974 1551.9,-116.506 1793.72,-75.613"/>
<polygon fill="midnightblue" stroke="midnightblue" points="1794.49,-79.0322 1803.76,-73.8914 1793.31,-72.133 1794.49,-79.0322"/>
</g>
<!-- Node20 -->
<g id="node20" class="node"><title>Node20</title>
<g id="a_node20"><a xlink:href="format__flags_8h.html" target="_top" xlink:title="Flags to control mutt_expando_format() ">
<polygon fill="white" stroke="red" points="1806.5,-0.5 1806.5,-19.5 1885.5,-19.5 1885.5,-0.5 1806.5,-0.5"/>
<text text-anchor="middle" x="1846" y="-7.5" font-family="Helvetica,sans-Serif" font-size="10.00">format_flags.h</text>
</a>
</g>
</g>
<!-- Node1&#45;&gt;Node20 -->
<g id="edge28" class="edge"><title>Node1&#45;&gt;Node20</title>
<path fill="none" stroke="midnightblue" d="M1167.18,-120.523C1342.84,-118.334 2008.58,-107.95 2039,-76 2083.44,-29.3206 1966.74,-16.1613 1895.85,-12.4534"/>
<polygon fill="midnightblue" stroke="midnightblue" points="1895.9,-8.95199 1885.74,-11.972 1895.56,-15.9441 1895.9,-8.95199"/>
</g>
<!-- Node21 -->
<g id="node21" class="node"><title>Node21</title>
<g id="a_node21"><a xlink:href="globals_8h.html" target="_top" xlink:title="Hundreds of global variables to back the user variables. ">
<polygon fill="white" stroke="red" points="765,-56.5 765,-75.5 821,-75.5 821,-56.5 765,-56.5"/>
<text text-anchor="middle" x="793" y="-63.5" font-family="Helvetica,sans-Serif" font-size="10.00">globals.h</text>
</a>
</g>
</g>
<!-- Node1&#45;&gt;Node21 -->
<g id="edge29" class="edge"><title>Node1&#45;&gt;Node21</title>
<path fill="none" stroke="midnightblue" d="M1082.79,-115.739C1027.31,-108.565 926.635,-94.6599 831.322,-76.1199"/>
<polygon fill="midnightblue" stroke="midnightblue" points="831.713,-72.6298 821.226,-74.1342 830.362,-79.4982 831.713,-72.6298"/>
</g>
<!-- Node22 -->
<g id="node22" class="node"><title>Node22</title>
<g id="a_node22"><a xlink:href="handler_8h.html" target="_top" xlink:title="Decide how to display email content. ">
<polygon fill="white" stroke="red" points="923,-56.5 923,-75.5 979,-75.5 979,-56.5 923,-56.5"/>
<text text-anchor="middle" x="951" y="-63.5" font-family="Helvetica,sans-Serif" font-size="10.00">handler.h</text>
</a>
</g>
</g>
<!-- Node1&#45;&gt;Node22 -->
<g id="edge32" class="edge"><title>Node1&#45;&gt;Node22</title>
<path fill="none" stroke="midnightblue" d="M1097.43,-112.444C1067.9,-103.28 1020.88,-88.6876 988.117,-78.5192"/>
<polygon fill="midnightblue" stroke="midnightblue" points="989.03,-75.1378 978.442,-75.5164 986.955,-81.8232 989.03,-75.1378"/>
</g>
<!-- Node23 -->
<g id="node23" class="node"><title>Node23</title>
<g id="a_node23"><a xlink:href="keymap_8h.html" target="_top" xlink:title="Manage keymappings. ">
<polygon fill="white" stroke="red" points="1444.5,-56.5 1444.5,-75.5 1503.5,-75.5 1503.5,-56.5 1444.5,-56.5"/>
<text text-anchor="middle" x="1474" y="-63.5" font-family="Helvetica,sans-Serif" font-size="10.00">keymap.h</text>
</a>
</g>
</g>
<!-- Node1&#45;&gt;Node23 -->
<g id="edge34" class="edge"><title>Node1&#45;&gt;Node23</title>
<path fill="none" stroke="midnightblue" d="M1167.05,-116.016C1224.91,-108.912 1332.5,-94.823 1434.11,-76.027"/>
<polygon fill="midnightblue" stroke="midnightblue" points="1435.06,-79.4116 1444.24,-74.1338 1433.77,-72.5308 1435.06,-79.4116"/>
</g>
<!-- Node24 -->
<g id="node24" class="node"><title>Node24</title>
<g id="a_node24"><a xlink:href="menu_8h.html" target="_top" xlink:title="GUI present the user with a selectable list. ">
<polygon fill="white" stroke="red" points="1035.5,-56.5 1035.5,-75.5 1084.5,-75.5 1084.5,-56.5 1035.5,-56.5"/>
<text text-anchor="middle" x="1060" y="-63.5" font-family="Helvetica,sans-Serif" font-size="10.00">menu.h</text>
</a>
</g>
</g>
<!-- Node1&#45;&gt;Node24 -->
<g id="edge35" class="edge"><title>Node1&#45;&gt;Node24</title>
<path fill="none" stroke="midnightblue" d="M1114.56,-112.324C1104.85,-104.263 1090.18,-92.0765 1078.5,-82.3695"/>
<polygon fill="midnightblue" stroke="midnightblue" points="1080.56,-79.532 1070.63,-75.8339 1076.09,-84.9163 1080.56,-79.532"/>
</g>
<!-- Node25 -->
<g id="node25" class="node"><title>Node25</title>
<g id="a_node25"><a xlink:href="mutt__curses_8h.html" target="_top" xlink:title="Define wrapper functions around Curses/Slang. ">
<polygon fill="white" stroke="red" points="2091.5,-0.5 2091.5,-19.5 2170.5,-19.5 2170.5,-0.5 2091.5,-0.5"/>
<text text-anchor="middle" x="2131" y="-7.5" font-family="Helvetica,sans-Serif" font-size="10.00">mutt_curses.h</text>
</a>
</g>
</g>
<!-- Node1&#45;&gt;Node25 -->
<g id="edge39" class="edge"><title>Node1&#45;&gt;Node25</title>
<path fill="none" stroke="midnightblue" d="M1167.27,-120.595C1338.3,-118.737 1973.94,-109.609 2057,-76 2082.14,-65.826 2104.54,-43.3041 2117.94,-27.6428"/>
<polygon fill="midnightblue" stroke="midnightblue" points="2120.77,-29.7154 2124.42,-19.7698 2115.36,-25.2673 2120.77,-29.7154"/>
</g>
<!-- Node26 -->
<g id="node26" class="node"><title>Node26</title>
<g id="a_node26"><a xlink:href="mutt__logging_8h.html" target="_top" xlink:title="Mutt Logging. ">
<polygon fill="white" stroke="black" points="357,-56.5 357,-75.5 437,-75.5 437,-56.5 357,-56.5"/>
<text text-anchor="middle" x="397" y="-63.5" font-family="Helvetica,sans-Serif" font-size="10.00">mutt_logging.h</text>
</a>
</g>
</g>
<!-- Node1&#45;&gt;Node26 -->
<g id="edge40" class="edge"><title>Node1&#45;&gt;Node26</title>
<path fill="none" stroke="midnightblue" d="M1082.73,-119.895C977.21,-116.773 693.641,-106.156 447.276,-76.0108"/>
<polygon fill="midnightblue" stroke="midnightblue" points="447.407,-72.5004 437.053,-74.7459 446.548,-79.4474 447.407,-72.5004"/>
</g>
<!-- Node27 -->
<g id="node27" class="node"><title>Node27</title>
<g id="a_node27"><a xlink:href="mutt__window_8h.html" target="_top" xlink:title="Window management. ">
<polygon fill="white" stroke="black" points="2124.5,-56.5 2124.5,-75.5 2207.5,-75.5 2207.5,-56.5 2124.5,-56.5"/>
<text text-anchor="middle" x="2166" y="-63.5" font-family="Helvetica,sans-Serif" font-size="10.00">mutt_window.h</text>
</a>
</g>
</g>
<!-- Node1&#45;&gt;Node27 -->
<g id="edge44" class="edge"><title>Node1&#45;&gt;Node27</title>
<path fill="none" stroke="midnightblue" d="M1167.37,-120.783C1304.19,-119.716 1746.44,-113.397 2110,-76 2111.47,-75.8489 2112.96,-75.6845 2114.46,-75.5091"/>
<polygon fill="midnightblue" stroke="midnightblue" points="2115.01,-78.967 2124.48,-74.2116 2114.11,-72.025 2115.01,-78.967"/>
</g>
<!-- Node28 -->
<g id="node28" class="node"><title>Node28</title>
<g id="a_node28"><a xlink:href="muttlib_8h.html" target="_top" xlink:title="Some miscellaneous functions. ">
<polygon fill="white" stroke="red" points="1666,-56.5 1666,-75.5 1720,-75.5 1720,-56.5 1666,-56.5"/>
<text text-anchor="middle" x="1693" y="-63.5" font-family="Helvetica,sans-Serif" font-size="10.00">muttlib.h</text>
</a>
</g>
</g>
<!-- Node1&#45;&gt;Node28 -->
<g id="edge46" class="edge"><title>Node1&#45;&gt;Node28</title>
<path fill="none" stroke="midnightblue" d="M1167.01,-119.738C1255.69,-116.583 1468.53,-106.415 1655.94,-75.909"/>
<polygon fill="midnightblue" stroke="midnightblue" points="1656.67,-79.3346 1665.97,-74.2519 1655.53,-72.4281 1656.67,-79.3346"/>
</g>
<!-- Node29 -->
<g id="node29" class="node"><title>Node29</title>
<g id="a_node29"><a xlink:href="ncrypt_8h.html" target="_top" xlink:title="API for encryption/signing of emails. ">
<polygon fill="white" stroke="black" points="1596,-56.5 1596,-75.5 1648,-75.5 1648,-56.5 1596,-56.5"/>
<text text-anchor="middle" x="1622" y="-63.5" font-family="Helvetica,sans-Serif" font-size="10.00">ncrypt.h</text>
</a>
</g>
</g>
<!-- Node1&#45;&gt;Node29 -->
<g id="edge50" class="edge"><title>Node1&#45;&gt;Node29</title>
<path fill="none" stroke="midnightblue" d="M1167.23,-118.968C1247.04,-114.676 1425.55,-102.927 1585.71,-75.7649"/>
<polygon fill="midnightblue" stroke="midnightblue" points="1586.49,-79.1834 1595.75,-74.0385 1585.3,-72.2847 1586.49,-79.1834"/>
</g>
<!-- Node30 -->
<g id="node30" class="node"><title>Node30</title>
<g id="a_node30"><a xlink:href="opcodes_8h.html" target="_top" xlink:title="All user&#45;callable functions. ">
<polygon fill="white" stroke="black" points="1904,-56.5 1904,-75.5 1966,-75.5 1966,-56.5 1904,-56.5"/>
<text text-anchor="middle" x="1935" y="-63.5" font-family="Helvetica,sans-Serif" font-size="10.00">opcodes.h</text>
</a>
</g>
</g>
<!-- Node1&#45;&gt;Node30 -->
<g id="edge53" class="edge"><title>Node1&#45;&gt;Node30</title>
<path fill="none" stroke="midnightblue" d="M1167.07,-120.569C1282.86,-118.943 1615.87,-111.303 1890,-76 1891.11,-75.8575 1892.23,-75.7037 1893.35,-75.5403"/>
<polygon fill="midnightblue" stroke="midnightblue" points="1894.32,-78.9286 1903.62,-73.853 1893.19,-72.0212 1894.32,-78.9286"/>
</g>
<!-- Node31 -->
<g id="node31" class="node"><title>Node31</title>
<g id="a_node31"><a xlink:href="protos_8h.html" target="_top" xlink:title="Prototypes for many functions. ">
<polygon fill="white" stroke="red" points="541,-56.5 541,-75.5 593,-75.5 593,-56.5 541,-56.5"/>
<text text-anchor="middle" x="567" y="-63.5" font-family="Helvetica,sans-Serif" font-size="10.00">protos.h</text>
</a>
</g>
</g>
<!-- Node1&#45;&gt;Node31 -->
<g id="edge54" class="edge"><title>Node1&#45;&gt;Node31</title>
<path fill="none" stroke="midnightblue" d="M1082.67,-119.736C994.902,-116.605 786.686,-106.528 603.365,-75.9621"/>
<polygon fill="midnightblue" stroke="midnightblue" points="603.716,-72.4719 593.272,-74.2541 602.548,-79.3737 603.716,-72.4719"/>
</g>
<!-- Node32 -->
<g id="node32" class="node"><title>Node32</title>
<g id="a_node32"><a xlink:href="send_8h.html" target="_top" xlink:title="Prepare and send an email. ">
<polygon fill="white" stroke="black" points="1380,-56.5 1380,-75.5 1426,-75.5 1426,-56.5 1380,-56.5"/>
<text text-anchor="middle" x="1403" y="-63.5" font-family="Helvetica,sans-Serif" font-size="10.00">send.h</text>
</a>
</g>
</g>
<!-- Node1&#45;&gt;Node32 -->
<g id="edge59" class="edge"><title>Node1&#45;&gt;Node32</title>
<path fill="none" stroke="midnightblue" d="M1167.03,-114.537C1214.19,-107.014 1293.13,-93.6117 1370.13,-76.0264"/>
<polygon fill="midnightblue" stroke="midnightblue" points="1371.04,-79.4082 1379.99,-73.7472 1369.46,-72.5878 1371.04,-79.4082"/>
</g>
<!-- Node33 -->
<g id="node33" class="node"><title>Node33</title>
<g id="a_node33"><a xlink:href="sendlib_8h.html" target="_top" xlink:title="Miscellaneous functions for sending an email. ">
<polygon fill="white" stroke="black" points="1522,-56.5 1522,-75.5 1578,-75.5 1578,-56.5 1522,-56.5"/>
<text text-anchor="middle" x="1550" y="-63.5" font-family="Helvetica,sans-Serif" font-size="10.00">sendlib.h</text>
</a>
</g>
</g>
<!-- Node1&#45;&gt;Node33 -->
<g id="edge62" class="edge"><title>Node1&#45;&gt;Node33</title>
<path fill="none" stroke="midnightblue" d="M1167.04,-117.732C1238.35,-111.826 1387.43,-97.9176 1512,-76 1512.1,-75.9824 1512.2,-75.9647 1512.3,-75.9468"/>
<polygon fill="midnightblue" stroke="midnightblue" points="1512.73,-79.4308 1521.85,-74.0527 1511.36,-72.5644 1512.73,-79.4308"/>
</g>
<!-- Node34 -->
<g id="node34" class="node"><title>Node34</title>
<g id="a_node34"><a xlink:href="state_8h.html" target="_top" xlink:title="Keep track when processing files. ">
<polygon fill="white" stroke="black" points="1738.5,-56.5 1738.5,-75.5 1785.5,-75.5 1785.5,-56.5 1738.5,-56.5"/>
<text text-anchor="middle" x="1762" y="-63.5" font-family="Helvetica,sans-Serif" font-size="10.00">state.h</text>
</a>
</g>
</g>
<!-- Node1&#45;&gt;Node34 -->
<g id="edge65" class="edge"><title>Node1&#45;&gt;Node34</title>
<path fill="none" stroke="midnightblue" d="M1167.08,-120.633C1264.39,-119.192 1512.52,-112.129 1728.4,-75.7386"/>
<polygon fill="midnightblue" stroke="midnightblue" points="1729.06,-79.176 1738.33,-74.0398 1727.88,-72.2762 1729.06,-79.176"/>
</g>
<!-- Node13&#45;&gt;Node4 -->
<g id="edge13" class="edge"><title>Node13&#45;&gt;Node4</title>
<path fill="none" stroke="midnightblue" d="M1307.98,-58.051C1271.13,-48.5774 1204.95,-31.5587 1163.09,-20.7943"/>
<polygon fill="midnightblue" stroke="midnightblue" points="1163.82,-17.3677 1153.26,-18.2669 1162.07,-24.1471 1163.82,-17.3677"/>
</g>
<!-- Node13&#45;&gt;Node5 -->
<g id="edge14" class="edge"><title>Node13&#45;&gt;Node5</title>
<path fill="none" stroke="midnightblue" d="M1362.1,-58.1198C1365.1,-57.3897 1368.11,-56.6699 1371,-56 1433.45,-41.508 1506.73,-26.1845 1548.14,-17.683"/>
<polygon fill="midnightblue" stroke="midnightblue" points="1548.85,-21.1086 1557.95,-15.6733 1547.45,-14.251 1548.85,-21.1086"/>
</g>
<!-- Node14&#45;&gt;Node4 -->
<g id="edge16" class="edge"><title>Node14&#45;&gt;Node4</title>
<path fill="none" stroke="midnightblue" d="M1125,-56.083C1125,-49.0059 1125,-38.8611 1125,-29.9865"/>
<polygon fill="midnightblue" stroke="midnightblue" points="1128.5,-29.751 1125,-19.7511 1121.5,-29.7511 1128.5,-29.751"/>
</g>
<!-- Node15&#45;&gt;Node5 -->
<g id="edge18" class="edge"><title>Node15&#45;&gt;Node5</title>
<path fill="none" stroke="midnightblue" d="M1983.67,-58.1644C1980.44,-57.3568 1977.15,-56.606 1974,-56 1842.13,-30.6217 1682.43,-17.7583 1614.34,-13.0978"/>
<polygon fill="midnightblue" stroke="midnightblue" points="1614.43,-9.59606 1604.22,-12.4196 1613.96,-16.5804 1614.43,-9.59606"/>
</g>
<!-- Node16&#45;&gt;Node4 -->
<g id="edge20" class="edge"><title>Node16&#45;&gt;Node4</title>
<path fill="none" stroke="midnightblue" d="M1178.72,-56.324C1169.16,-48.2631 1154.72,-36.0765 1143.22,-26.3695"/>
<polygon fill="midnightblue" stroke="midnightblue" points="1145.37,-23.6076 1135.47,-19.8339 1140.86,-28.9577 1145.37,-23.6076"/>
</g>
<!-- Node17&#45;&gt;Node4 -->
<g id="edge22" class="edge"><title>Node17&#45;&gt;Node4</title>
<path fill="none" stroke="midnightblue" d="M904.559,-58.0199C907.749,-57.3369 910.937,-56.6548 914,-56 974.401,-43.0876 1044.54,-28.1383 1086.81,-19.1341"/>
<polygon fill="midnightblue" stroke="midnightblue" points="1087.62,-22.5392 1096.67,-17.0325 1086.16,-15.6928 1087.62,-22.5392"/>
</g>
<!-- Node18&#45;&gt;Node4 -->
<g id="edge24" class="edge"><title>Node18&#45;&gt;Node4</title>
<path fill="none" stroke="midnightblue" d="M1238.61,-56.4435C1216.29,-47.5171 1181.1,-33.4387 1155.79,-23.3168"/>
<polygon fill="midnightblue" stroke="midnightblue" points="1156.88,-19.9807 1146.29,-19.5164 1154.28,-26.4801 1156.88,-19.9807"/>
</g>
<!-- Node18&#45;&gt;Node5 -->
<g id="edge25" class="edge"><title>Node18&#45;&gt;Node5</title>
<path fill="none" stroke="midnightblue" d="M1289.77,-57.9098C1292.88,-57.2348 1296,-56.585 1299,-56 1388.46,-38.5617 1494.86,-22.9631 1547.73,-15.5545"/>
<polygon fill="midnightblue" stroke="midnightblue" points="1548.45,-18.9878 1557.88,-14.142 1547.49,-12.0547 1548.45,-18.9878"/>
</g>
<!-- Node19&#45;&gt;Node5 -->
<g id="edge27" class="edge"><title>Node19&#45;&gt;Node5</title>
<path fill="none" stroke="midnightblue" d="M1803.67,-58.517C1800.43,-57.6368 1797.14,-56.7719 1794,-56 1730.73,-40.4372 1656.08,-25.4283 1614.07,-17.2846"/>
<polygon fill="midnightblue" stroke="midnightblue" points="1614.6,-13.8226 1604.12,-15.3659 1613.28,-20.696 1614.6,-13.8226"/>
</g>
<!-- Node21&#45;&gt;Node4 -->
<g id="edge30" class="edge"><title>Node21&#45;&gt;Node4</title>
<path fill="none" stroke="midnightblue" d="M821.226,-57.8658C824.181,-57.1993 827.146,-56.5636 830,-56 921.439,-37.9407 1030.05,-23.04 1086.54,-15.7773"/>
<polygon fill="midnightblue" stroke="midnightblue" points="1087.32,-19.2067 1096.79,-14.4695 1086.43,-12.2629 1087.32,-19.2067"/>
</g>
<!-- Node21&#45;&gt;Node10 -->
<g id="edge31" class="edge"><title>Node21&#45;&gt;Node10</title>
<path fill="none" stroke="midnightblue" d="M764.834,-58.27C725.671,-48.9126 654.473,-31.9005 609.02,-21.0402"/>
<polygon fill="midnightblue" stroke="midnightblue" points="609.714,-17.6075 599.174,-18.6876 608.087,-24.4158 609.714,-17.6075"/>
</g>
<!-- Node22&#45;&gt;Node4 -->
<g id="edge33" class="edge"><title>Node22&#45;&gt;Node4</title>
<path fill="none" stroke="midnightblue" d="M978.571,-56.4435C1008.1,-47.2801 1055.12,-32.6876 1087.88,-22.5192"/>
<polygon fill="midnightblue" stroke="midnightblue" points="1089.04,-25.8232 1097.56,-19.5164 1086.97,-19.1378 1089.04,-25.8232"/>
</g>
<!-- Node24&#45;&gt;Node4 -->
<g id="edge36" class="edge"><title>Node24&#45;&gt;Node4</title>
<path fill="none" stroke="midnightblue" d="M1070.44,-56.324C1080.15,-48.2631 1094.82,-36.0765 1106.5,-26.3695"/>
<polygon fill="midnightblue" stroke="midnightblue" points="1108.91,-28.9163 1114.37,-19.8339 1104.44,-23.532 1108.91,-28.9163"/>
</g>
<!-- Node24&#45;&gt;Node5 -->
<g id="edge37" class="edge"><title>Node24&#45;&gt;Node5</title>
<path fill="none" stroke="midnightblue" d="M1084.76,-57.7497C1087.52,-57.089 1090.31,-56.4866 1093,-56 1262.11,-25.383 1468.18,-15.0656 1547.59,-12.0752"/>
<polygon fill="midnightblue" stroke="midnightblue" points="1548.07,-15.5602 1557.94,-11.7005 1547.82,-8.56478 1548.07,-15.5602"/>
</g>
<!-- Node24&#45;&gt;Node10 -->
<g id="edge38" class="edge"><title>Node24&#45;&gt;Node10</title>
<path fill="none" stroke="midnightblue" d="M1035.34,-61.8612C1021.2,-60.0856 1003.11,-57.8561 987,-56 848.885,-40.088 684.995,-23.0643 609.252,-15.3021"/>
<polygon fill="midnightblue" stroke="midnightblue" points="609.466,-11.8057 599.161,-14.2693 608.753,-18.7694 609.466,-11.8057"/>
</g>
<!-- Node26&#45;&gt;Node4 -->
<g id="edge41" class="edge"><title>Node26&#45;&gt;Node4</title>
<path fill="none" stroke="midnightblue" d="M437.053,-57.2541C440.074,-56.7891 443.082,-56.3635 446,-56 688.59,-25.7851 982.638,-15.0148 1086.46,-11.9959"/>
<polygon fill="midnightblue" stroke="midnightblue" points="1086.86,-15.4861 1096.75,-11.704 1086.66,-8.48889 1086.86,-15.4861"/>
</g>
<!-- Node26&#45;&gt;Node8 -->
<g id="edge42" class="edge"><title>Node26&#45;&gt;Node8</title>
<path fill="none" stroke="midnightblue" d="M397,-56.083C397,-49.0059 397,-38.8611 397,-29.9865"/>
<polygon fill="midnightblue" stroke="midnightblue" points="400.5,-29.751 397,-19.7511 393.5,-29.7511 400.5,-29.751"/>
</g>
<!-- Node26&#45;&gt;Node10 -->
<g id="edge43" class="edge"><title>Node26&#45;&gt;Node10</title>
<path fill="none" stroke="midnightblue" d="M423.937,-56.4435C452.66,-47.3196 498.329,-32.8133 530.321,-22.6509"/>
<polygon fill="midnightblue" stroke="midnightblue" points="531.718,-25.8797 540.189,-19.5164 529.599,-19.2081 531.718,-25.8797"/>
</g>
<!-- Node27&#45;&gt;Node25 -->
<g id="edge45" class="edge"><title>Node27&#45;&gt;Node25</title>
<path fill="none" stroke="midnightblue" d="M2160.22,-56.083C2155.33,-48.5341 2148.17,-37.4948 2142.17,-28.2298"/>
<polygon fill="midnightblue" stroke="midnightblue" points="2145.05,-26.239 2136.67,-19.7511 2139.17,-30.0463 2145.05,-26.239"/>
</g>
<!-- Node28&#45;&gt;Node4 -->
<g id="edge47" class="edge"><title>Node28&#45;&gt;Node4</title>
<path fill="none" stroke="midnightblue" d="M1665.97,-57.7481C1662.96,-57.0877 1659.92,-56.4858 1657,-56 1473.58,-25.5182 1250.96,-15.1764 1163.2,-12.1277"/>
<polygon fill="midnightblue" stroke="midnightblue" points="1163.28,-8.62882 1153.17,-11.7912 1163.05,-15.6249 1163.28,-8.62882"/>
</g>
<!-- Node28&#45;&gt;Node5 -->
<g id="edge48" class="edge"><title>Node28&#45;&gt;Node5</title>
<path fill="none" stroke="midnightblue" d="M1675.01,-56.324C1656.96,-47.6247 1628.95,-34.1202 1608.2,-24.113"/>
<polygon fill="midnightblue" stroke="midnightblue" points="1609.48,-20.8449 1598.95,-19.6545 1606.44,-27.1502 1609.48,-20.8449"/>
</g>
<!-- Node28&#45;&gt;Node20 -->
<g id="edge49" class="edge"><title>Node28&#45;&gt;Node20</title>
<path fill="none" stroke="midnightblue" d="M1717.24,-56.4435C1742.87,-47.3986 1783.49,-33.064 1812.24,-22.9158"/>
<polygon fill="midnightblue" stroke="midnightblue" points="1813.61,-26.1452 1821.87,-19.5164 1811.28,-19.5442 1813.61,-26.1452"/>
</g>
<!-- Node29&#45;&gt;Node4 -->
<g id="edge51" class="edge"><title>Node29&#45;&gt;Node4</title>
<path fill="none" stroke="midnightblue" d="M1595.75,-57.9615C1592.48,-57.2262 1589.17,-56.5486 1586,-56 1430.54,-29.1309 1242.6,-17.0156 1163.27,-12.8212"/>
<polygon fill="midnightblue" stroke="midnightblue" points="1163.42,-9.32446 1153.26,-12.3035 1163.06,-16.3151 1163.42,-9.32446"/>
</g>
<!-- Node29&#45;&gt;Node5 -->
<g id="edge52" class="edge"><title>Node29&#45;&gt;Node5</title>
<path fill="none" stroke="midnightblue" d="M1615.23,-56.083C1609.44,-48.4554 1600.94,-37.2645 1593.86,-27.9408"/>
<polygon fill="midnightblue" stroke="midnightblue" points="1596.48,-25.5991 1587.64,-19.7511 1590.9,-29.8321 1596.48,-25.5991"/>
</g>
<!-- Node31&#45;&gt;Node4 -->
<g id="edge55" class="edge"><title>Node31&#45;&gt;Node4</title>
<path fill="none" stroke="midnightblue" d="M593.272,-57.7459C596.202,-57.0859 599.155,-56.4847 602,-56 781.6,-25.3997 999.631,-15.1497 1086.55,-12.1271"/>
<polygon fill="midnightblue" stroke="midnightblue" points="1086.85,-15.619 1096.73,-11.7857 1086.62,-8.62298 1086.85,-15.619"/>
</g>
<!-- Node31&#45;&gt;Node5 -->
<g id="edge56" class="edge"><title>Node31&#45;&gt;Node5</title>
<path fill="none" stroke="midnightblue" d="M593.254,-57.6311C596.187,-56.9926 599.146,-56.4279 602,-56 790.369,-27.7597 1398.1,-14.4958 1547.56,-11.6132"/>
<polygon fill="midnightblue" stroke="midnightblue" points="1547.98,-15.106 1557.91,-11.4162 1547.84,-8.1073 1547.98,-15.106"/>
</g>
<!-- Node31&#45;&gt;Node8 -->
<g id="edge57" class="edge"><title>Node31&#45;&gt;Node8</title>
<path fill="none" stroke="midnightblue" d="M540.81,-56.6808C510.723,-47.1238 461.354,-31.4419 429.012,-21.1684"/>
<polygon fill="midnightblue" stroke="midnightblue" points="429.745,-17.7292 419.155,-18.0375 427.626,-24.4007 429.745,-17.7292"/>
</g>
<!-- Node31&#45;&gt;Node10 -->
<g id="edge58" class="edge"><title>Node31&#45;&gt;Node10</title>
<path fill="none" stroke="midnightblue" d="M567,-56.083C567,-49.0059 567,-38.8611 567,-29.9865"/>
<polygon fill="midnightblue" stroke="midnightblue" points="570.5,-29.751 567,-19.7511 563.5,-29.7511 570.5,-29.751"/>
</g>
<!-- Node32&#45;&gt;Node4 -->
<g id="edge60" class="edge"><title>Node32&#45;&gt;Node4</title>
<path fill="none" stroke="midnightblue" d="M1379.99,-58.2528C1376.98,-57.4503 1373.92,-56.677 1371,-56 1298.1,-39.1191 1211.85,-24.5712 1163.28,-16.8666"/>
<polygon fill="midnightblue" stroke="midnightblue" points="1163.64,-13.3799 1153.21,-15.2829 1162.55,-20.2949 1163.64,-13.3799"/>
</g>
<!-- Node32&#45;&gt;Node5 -->
<g id="edge61" class="edge"><title>Node32&#45;&gt;Node5</title>
<path fill="none" stroke="midnightblue" d="M1426.27,-57.9404C1457.32,-48.5212 1512.48,-31.7865 1547.87,-21.052"/>
<polygon fill="midnightblue" stroke="midnightblue" points="1549.17,-24.3137 1557.72,-18.0613 1547.14,-17.6151 1549.17,-24.3137"/>
</g>
<!-- Node33&#45;&gt;Node4 -->
<g id="edge63" class="edge"><title>Node33&#45;&gt;Node4</title>
<path fill="none" stroke="midnightblue" d="M1521.85,-57.9473C1518.54,-57.2327 1515.21,-56.5639 1512,-56 1385.27,-33.7033 1233.19,-19.695 1163.41,-13.9691"/>
<polygon fill="midnightblue" stroke="midnightblue" points="1163.58,-10.4714 1153.33,-13.1528 1163.01,-17.4486 1163.58,-10.4714"/>
</g>
<!-- Node33&#45;&gt;Node5 -->
<g id="edge64" class="edge"><title>Node33&#45;&gt;Node5</title>
<path fill="none" stroke="midnightblue" d="M1555.12,-56.083C1559.41,-48.6127 1565.66,-37.7244 1570.94,-28.5199"/>
<polygon fill="midnightblue" stroke="midnightblue" points="1574.03,-30.1662 1575.98,-19.7511 1567.96,-26.6811 1574.03,-30.1662"/>
</g>
<!-- Node34&#45;&gt;Node5 -->
<g id="edge66" class="edge"><title>Node34&#45;&gt;Node5</title>
<path fill="none" stroke="midnightblue" d="M1738.34,-57.9404C1706.59,-48.4691 1650.05,-31.6013 1614.1,-20.8746"/>
<polygon fill="midnightblue" stroke="midnightblue" points="1614.68,-17.3956 1604.1,-17.8906 1612.68,-24.1034 1614.68,-17.3956"/>
</g>
</g>
</svg>
