<?xml version="1.0" encoding="UTF-8" standalone="no"?>
<!DOCTYPE svg PUBLIC "-//W3C//DTD SVG 1.1//EN"
 "http://www.w3.org/Graphics/SVG/1.1/DTD/svg11.dtd">
<!-- Generated by graphviz version 2.36.0 (20140111.2315)
 -->
<!-- Title: smime_class_invoke_import Pages: 1 -->
<svg width="556pt" height="238pt"
 viewBox="0.00 0.00 556.00 238.23" xmlns="http://www.w3.org/2000/svg" xmlns:xlink="http://www.w3.org/1999/xlink">
<g id="graph0" class="graph" transform="scale(1 1) rotate(0) translate(4 234.227)">
<title>smime_class_invoke_import</title>
<polygon fill="white" stroke="none" points="-4,4 -4,-234.227 552,-234.227 552,4 -4,4"/>
<!-- Node1 -->
<g id="node1" class="node"><title>Node1</title>
<polygon fill="#bfbfbf" stroke="black" points="0,-109 0,-139 108,-139 108,-109 0,-109"/>
<text text-anchor="start" x="8" y="-127" font-family="Helvetica,sans-Serif" font-size="10.00">smime_class_invoke</text>
<text text-anchor="middle" x="54" y="-116" font-family="Helvetica,sans-Serif" font-size="10.00">_import</text>
</g>
<!-- Node2 -->
<g id="node2" class="node"><title>Node2</title>
<g id="a_node2"><a xlink:href="file_8c.html#a4982d9040dfaf38e847729be2af83ed6" target="_top" xlink:title="Close a FILE handle (and NULL the pointer) ">
<polygon fill="white" stroke="black" points="462,-190.5 462,-209.5 548,-209.5 548,-190.5 462,-190.5"/>
<text text-anchor="middle" x="505" y="-197.5" font-family="Helvetica,sans-Serif" font-size="10.00">mutt_file_fclose</text>
</a>
</g>
</g>
<!-- Node1&#45;&gt;Node2 -->
<g id="edge1" class="edge"><title>Node1&#45;&gt;Node2</title>
<path fill="none" stroke="midnightblue" d="M70.604,-139.188C87.3306,-154.542 115.364,-177.706 144,-190 259.776,-239.704 300.904,-234.017 426,-219 437.987,-217.561 450.793,-214.92 462.491,-212.056"/>
<polygon fill="midnightblue" stroke="midnightblue" points="463.62,-215.38 472.437,-209.506 461.881,-208.599 463.62,-215.38"/>
</g>
<!-- Node3 -->
<g id="node3" class="node"><title>Node3</title>
<g id="a_node3"><a xlink:href="curs__lib_8c.html#acd14d074d8b9e6cb21e851dd573cdec2" target="_top" xlink:title="Shutdown curses/slang. ">
<polygon fill="white" stroke="red" points="173,-0.5 173,-19.5 245,-19.5 245,-0.5 173,-0.5"/>
<text text-anchor="middle" x="209" y="-7.5" font-family="Helvetica,sans-Serif" font-size="10.00">mutt_endwin</text>
</a>
</g>
</g>
<!-- Node1&#45;&gt;Node3 -->
<g id="edge2" class="edge"><title>Node1&#45;&gt;Node3</title>
<path fill="none" stroke="midnightblue" d="M66.3985,-108.951C81.9867,-89.2889 111.726,-54.9096 144,-34 150.368,-29.8746 157.547,-26.3128 164.735,-23.2904"/>
<polygon fill="midnightblue" stroke="midnightblue" points="166.418,-26.3909 174.467,-19.501 163.878,-19.8679 166.418,-26.3909"/>
</g>
<!-- Node4 -->
<g id="node4" class="node"><title>Node4</title>
<g id="a_node4"><a xlink:href="smime_8c.html#a8738da2eaf20c95b3332988188f9169a" target="_top" xlink:title="Extract an SMIME certificate from a file. ">
<polygon fill="white" stroke="red" points="144.5,-114.5 144.5,-133.5 273.5,-133.5 273.5,-114.5 144.5,-114.5"/>
<text text-anchor="middle" x="209" y="-121.5" font-family="Helvetica,sans-Serif" font-size="10.00">smime_extract_certificate</text>
</a>
</g>
</g>
<!-- Node1&#45;&gt;Node4 -->
<g id="edge3" class="edge"><title>Node1&#45;&gt;Node4</title>
<path fill="none" stroke="midnightblue" d="M108.083,-124C116.611,-124 125.569,-124 134.473,-124"/>
<polygon fill="midnightblue" stroke="midnightblue" points="134.478,-127.5 144.478,-124 134.478,-120.5 134.478,-127.5"/>
</g>
<!-- Node5 -->
<g id="node5" class="node"><title>Node5</title>
<g id="a_node5"><a xlink:href="smime_8c.html#a9060f2433758929e6501050d343c46bb" target="_top" xlink:title="Run an SMIME command. ">
<polygon fill="white" stroke="red" points="328,-152.5 328,-171.5 408,-171.5 408,-152.5 328,-152.5"/>
<text text-anchor="middle" x="368" y="-159.5" font-family="Helvetica,sans-Serif" font-size="10.00">smime_invoke</text>
</a>
</g>
</g>
<!-- Node1&#45;&gt;Node5 -->
<g id="edge10" class="edge"><title>Node1&#45;&gt;Node5</title>
<path fill="none" stroke="midnightblue" d="M108.454,-136.547C120.12,-138.967 132.436,-141.28 144,-143 203.366,-151.83 272.28,-156.922 317.606,-159.572"/>
<polygon fill="midnightblue" stroke="midnightblue" points="317.571,-163.075 327.753,-160.147 317.967,-156.086 317.571,-163.075"/>
</g>
<!-- Node6 -->
<g id="node6" class="node"><title>Node6</title>
<g id="a_node6"><a xlink:href="file_8c.html#ae57463c2854c006a3c67b78736e9056e" target="_top" xlink:title="Delete a file, carefully. ">
<polygon fill="white" stroke="black" points="325.5,-190.5 325.5,-209.5 410.5,-209.5 410.5,-190.5 325.5,-190.5"/>
<text text-anchor="middle" x="368" y="-197.5" font-family="Helvetica,sans-Serif" font-size="10.00">mutt_file_unlink</text>
</a>
</g>
</g>
<!-- Node1&#45;&gt;Node6 -->
<g id="edge12" class="edge"><title>Node1&#45;&gt;Node6</title>
<path fill="none" stroke="midnightblue" d="M84.3764,-139.082C101.398,-147.254 123.462,-156.9 144,-163 201.359,-180.036 269.496,-189.904 315.227,-195.099"/>
<polygon fill="midnightblue" stroke="midnightblue" points="314.88,-198.582 325.203,-196.199 315.647,-191.624 314.88,-198.582"/>
</g>
<!-- Node7 -->
<g id="node7" class="node"><title>Node7</title>
<g id="a_node7"><a xlink:href="filter_8c.html#a2d652b11c7d2ea31208315aaf61537d2" target="_top" xlink:title="Wait for the exit of a process and return its status. ">
<polygon fill="white" stroke="red" points="326.5,-76.5 326.5,-95.5 409.5,-95.5 409.5,-76.5 326.5,-76.5"/>
<text text-anchor="middle" x="368" y="-83.5" font-family="Helvetica,sans-Serif" font-size="10.00">mutt_wait_filter</text>
</a>
</g>
</g>
<!-- Node1&#45;&gt;Node7 -->
<g id="edge11" class="edge"><title>Node1&#45;&gt;Node7</title>
<path fill="none" stroke="midnightblue" d="M108.454,-111.453C120.12,-109.033 132.436,-106.72 144,-105 202.653,-96.2757 270.626,-91.2009 315.962,-88.5249"/>
<polygon fill="midnightblue" stroke="midnightblue" points="316.346,-92.0088 326.13,-87.9426 315.946,-85.0202 316.346,-92.0088"/>
</g>
<!-- Node8 -->
<g id="node8" class="node"><title>Node8</title>
<g id="a_node8"><a xlink:href="file_8c.html#acde526723322b2df0564e5eeae5fbc76" target="_top" xlink:title="Copy the contents of one file into another. ">
<polygon fill="white" stroke="black" points="310,-38.5 310,-57.5 426,-57.5 426,-38.5 310,-38.5"/>
<text text-anchor="middle" x="368" y="-45.5" font-family="Helvetica,sans-Serif" font-size="10.00">mutt_file_copy_stream</text>
</a>
</g>
</g>
<!-- Node1&#45;&gt;Node8 -->
<g id="edge13" class="edge"><title>Node1&#45;&gt;Node8</title>
<path fill="none" stroke="midnightblue" d="M87.8124,-108.829C104.372,-101.665 124.943,-93.4991 144,-88 195.363,-73.1786 255.044,-62.8202 299.733,-56.3636"/>
<polygon fill="midnightblue" stroke="midnightblue" points="300.482,-59.7926 309.892,-54.9255 299.5,-52.8617 300.482,-59.7926"/>
</g>
<!-- Node4&#45;&gt;Node2 -->
<g id="edge4" class="edge"><title>Node4&#45;&gt;Node2</title>
<path fill="none" stroke="midnightblue" d="M273.895,-120.744C317.974,-120.605 377.193,-124.662 426,-143 449.58,-151.86 472.339,-169.942 487.124,-183.377"/>
<polygon fill="midnightblue" stroke="midnightblue" points="484.786,-185.982 494.473,-190.274 489.577,-180.878 484.786,-185.982"/>
</g>
<!-- Node4&#45;&gt;Node5 -->
<g id="edge5" class="edge"><title>Node4&#45;&gt;Node5</title>
<path fill="none" stroke="midnightblue" d="M249.618,-133.589C270.414,-138.623 296.082,-144.835 318.106,-150.166"/>
<polygon fill="midnightblue" stroke="midnightblue" points="317.396,-153.595 327.939,-152.546 319.043,-146.791 317.396,-153.595"/>
</g>
<!-- Node4&#45;&gt;Node6 -->
<g id="edge6" class="edge"><title>Node4&#45;&gt;Node6</title>
<path fill="none" stroke="midnightblue" d="M224.764,-133.645C243.862,-145.83 278.432,-166.906 310,-181 314.759,-183.125 319.833,-185.144 324.916,-187.018"/>
<polygon fill="midnightblue" stroke="midnightblue" points="324.028,-190.416 334.623,-190.432 326.35,-183.813 324.028,-190.416"/>
</g>
<!-- Node4&#45;&gt;Node7 -->
<g id="edge8" class="edge"><title>Node4&#45;&gt;Node7</title>
<path fill="none" stroke="midnightblue" d="M249.618,-114.411C270.336,-109.396 295.888,-103.212 317.856,-97.8947"/>
<polygon fill="midnightblue" stroke="midnightblue" points="318.771,-101.274 327.667,-95.5201 317.124,-94.4708 318.771,-101.274"/>
</g>
<!-- Node4&#45;&gt;Node8 -->
<g id="edge9" class="edge"><title>Node4&#45;&gt;Node8</title>
<path fill="none" stroke="midnightblue" d="M224.764,-114.355C243.862,-102.17 278.432,-81.0939 310,-67 314.759,-64.8751 319.833,-62.8558 324.916,-60.9818"/>
<polygon fill="midnightblue" stroke="midnightblue" points="326.35,-64.1874 334.623,-57.5678 324.028,-57.5839 326.35,-64.1874"/>
</g>
<!-- Node6&#45;&gt;Node2 -->
<g id="edge7" class="edge"><title>Node6&#45;&gt;Node2</title>
<path fill="none" stroke="midnightblue" d="M410.606,-200C423.571,-200 438.037,-200 451.639,-200"/>
<polygon fill="midnightblue" stroke="midnightblue" points="451.833,-203.5 461.833,-200 451.833,-196.5 451.833,-203.5"/>
</g>
</g>
</svg>
