<?xml version="1.0" encoding="UTF-8" standalone="no"?>
<!DOCTYPE svg PUBLIC "-//W3C//DTD SVG 1.1//EN"
 "http://www.w3.org/Graphics/SVG/1.1/DTD/svg11.dtd">
<!-- Generated by graphviz version 2.36.0 (20140111.2315)
 -->
<!-- Title: smime_class_build_smime_entity Pages: 1 -->
<svg width="596pt" height="464pt"
 viewBox="0.00 0.00 596.00 464.00" xmlns="http://www.w3.org/2000/svg" xmlns:xlink="http://www.w3.org/1999/xlink">
<g id="graph0" class="graph" transform="scale(1 1) rotate(0) translate(4 460)">
<title>smime_class_build_smime_entity</title>
<polygon fill="white" stroke="none" points="-4,4 -4,-460 592,-460 592,4 -4,4"/>
<!-- Node1 -->
<g id="node1" class="node"><title>Node1</title>
<polygon fill="#bfbfbf" stroke="black" points="0,-204 0,-234 134,-234 134,-204 0,-204"/>
<text text-anchor="start" x="8" y="-222" font-family="Helvetica,sans-Serif" font-size="10.00">smime_class_build_smime</text>
<text text-anchor="middle" x="67" y="-211" font-family="Helvetica,sans-Serif" font-size="10.00">_entity</text>
</g>
<!-- Node2 -->
<g id="node2" class="node"><title>Node2</title>
<g id="a_node2"><a xlink:href="file_8c.html#ae1c0c19fec03274220b3ca065ad1e2e5" target="_top" xlink:title="Call fopen() safely. ">
<polygon fill="white" stroke="red" points="195.5,-436.5 195.5,-455.5 278.5,-455.5 278.5,-436.5 195.5,-436.5"/>
<text text-anchor="middle" x="237" y="-443.5" font-family="Helvetica,sans-Serif" font-size="10.00">mutt_file_fopen</text>
</a>
</g>
</g>
<!-- Node1&#45;&gt;Node2 -->
<g id="edge1" class="edge"><title>Node1&#45;&gt;Node2</title>
<path fill="none" stroke="midnightblue" d="M71.4742,-234.105C80.8054,-271.369 109.88,-368.524 170,-422 174.723,-426.201 180.24,-429.685 186.035,-432.57"/>
<polygon fill="midnightblue" stroke="midnightblue" points="184.734,-435.82 195.298,-436.627 187.542,-429.408 184.734,-435.82"/>
</g>
<!-- Node3 -->
<g id="node3" class="node"><title>Node3</title>
<g id="a_node3"><a xlink:href="file_8c.html#ae57463c2854c006a3c67b78736e9056e" target="_top" xlink:title="Delete a file, carefully. ">
<polygon fill="white" stroke="black" points="194.5,-360.5 194.5,-379.5 279.5,-379.5 279.5,-360.5 194.5,-360.5"/>
<text text-anchor="middle" x="237" y="-367.5" font-family="Helvetica,sans-Serif" font-size="10.00">mutt_file_unlink</text>
</a>
</g>
</g>
<!-- Node1&#45;&gt;Node3 -->
<g id="edge2" class="edge"><title>Node1&#45;&gt;Node3</title>
<path fill="none" stroke="midnightblue" d="M75.5378,-234.197C89.9835,-261.739 124.24,-319.921 170,-351 174.562,-354.098 179.63,-356.697 184.872,-358.876"/>
<polygon fill="midnightblue" stroke="midnightblue" points="183.83,-362.222 194.424,-362.362 186.23,-355.646 183.83,-362.222"/>
</g>
<!-- Node4 -->
<g id="node4" class="node"><title>Node4</title>
<g id="a_node4"><a xlink:href="file_8c.html#a4982d9040dfaf38e847729be2af83ed6" target="_top" xlink:title="Close a FILE handle (and NULL the pointer) ">
<polygon fill="white" stroke="black" points="360,-360.5 360,-379.5 446,-379.5 446,-360.5 360,-360.5"/>
<text text-anchor="middle" x="403" y="-367.5" font-family="Helvetica,sans-Serif" font-size="10.00">mutt_file_fclose</text>
</a>
</g>
</g>
<!-- Node1&#45;&gt;Node4 -->
<g id="edge4" class="edge"><title>Node1&#45;&gt;Node4</title>
<path fill="none" stroke="midnightblue" d="M71.6945,-234.188C81.1102,-269.129 109.648,-354.829 170,-389 233.694,-425.063 323.388,-400.587 370.411,-383.183"/>
<polygon fill="midnightblue" stroke="midnightblue" points="371.684,-386.443 379.773,-379.601 369.182,-379.906 371.684,-386.443"/>
</g>
<!-- Node5 -->
<g id="node5" class="node"><title>Node5</title>
<g id="a_node5"><a xlink:href="mutt_2string_8c.html#aca11f88d08a860c07419df3efb18f35a" target="_top" xlink:title="Calculate the length of a string, safely. ">
<polygon fill="white" stroke="black" points="504,-247.5 504,-266.5 586,-266.5 586,-247.5 504,-247.5"/>
<text text-anchor="middle" x="545" y="-254.5" font-family="Helvetica,sans-Serif" font-size="10.00">mutt_str_strlen</text>
</a>
</g>
</g>
<!-- Node1&#45;&gt;Node5 -->
<g id="edge5" class="edge"><title>Node1&#45;&gt;Node5</title>
<path fill="none" stroke="midnightblue" d="M128.422,-234.025C142.033,-237.018 156.459,-239.886 170,-242 284.741,-259.916 421.544,-260.128 493.69,-258.623"/>
<polygon fill="midnightblue" stroke="midnightblue" points="493.938,-262.118 503.855,-258.39 493.778,-255.12 493.938,-262.118"/>
</g>
<!-- Node6 -->
<g id="node6" class="node"><title>Node6</title>
<g id="a_node6"><a xlink:href="sendlib_8c.html#aedba34745a31061e882b1333e918137c" target="_top" xlink:title="Create a MIME header. ">
<polygon fill="white" stroke="red" points="340,-228.5 340,-247.5 466,-247.5 466,-228.5 340,-228.5"/>
<text text-anchor="middle" x="403" y="-235.5" font-family="Helvetica,sans-Serif" font-size="10.00">mutt_write_mime_header</text>
</a>
</g>
</g>
<!-- Node1&#45;&gt;Node6 -->
<g id="edge6" class="edge"><title>Node1&#45;&gt;Node6</title>
<path fill="none" stroke="midnightblue" d="M134.387,-222.777C190.83,-225.987 271.718,-230.589 329.769,-233.891"/>
<polygon fill="midnightblue" stroke="midnightblue" points="329.786,-237.398 339.969,-234.471 330.184,-230.409 329.786,-237.398"/>
</g>
<!-- Node7 -->
<g id="node7" class="node"><title>Node7</title>
<g id="a_node7"><a xlink:href="mutt_2string_8c.html#ae48085384a6545e0fac589a88243ea31" target="_top" xlink:title="Copy a string, safely. ">
<polygon fill="white" stroke="red" points="502.5,-190.5 502.5,-209.5 587.5,-209.5 587.5,-190.5 502.5,-190.5"/>
<text text-anchor="middle" x="545" y="-197.5" font-family="Helvetica,sans-Serif" font-size="10.00">mutt_str_strdup</text>
</a>
</g>
</g>
<!-- Node1&#45;&gt;Node7 -->
<g id="edge17" class="edge"><title>Node1&#45;&gt;Node7</title>
<path fill="none" stroke="midnightblue" d="M134.026,-206.776C145.98,-204.727 158.347,-202.712 170,-201 300.455,-181.832 335.084,-165.285 466,-181 477.987,-182.439 490.793,-185.08 502.491,-187.944"/>
<polygon fill="midnightblue" stroke="midnightblue" points="501.881,-191.401 512.437,-190.494 503.62,-184.62 501.881,-191.401"/>
</g>
<!-- Node8 -->
<g id="node8" class="node"><title>Node8</title>
<g id="a_node8"><a xlink:href="sendlib_8c.html#a96e81f3dcb5a6c959a95ad70024cc2ec" target="_top" xlink:title="Write a MIME part. ">
<polygon fill="white" stroke="red" points="178,-304.5 178,-323.5 296,-323.5 296,-304.5 178,-304.5"/>
<text text-anchor="middle" x="237" y="-311.5" font-family="Helvetica,sans-Serif" font-size="10.00">mutt_write_mime_body</text>
</a>
</g>
</g>
<!-- Node1&#45;&gt;Node8 -->
<g id="edge9" class="edge"><title>Node1&#45;&gt;Node8</title>
<path fill="none" stroke="midnightblue" d="M86.6072,-234.179C106.367,-249.75 138.971,-273.908 170,-290 177.943,-294.119 186.755,-297.849 195.285,-301.074"/>
<polygon fill="midnightblue" stroke="midnightblue" points="194.142,-304.382 204.736,-304.494 196.524,-297.8 194.142,-304.382"/>
</g>
<!-- Node9 -->
<g id="node9" class="node"><title>Node9</title>
<g id="a_node9"><a xlink:href="smime_8c.html#a06880dc060f2611ee36b3bd791e4d636" target="_top" xlink:title="Use SMIME to encrypt a file. ">
<polygon fill="white" stroke="red" points="178.5,-114.5 178.5,-133.5 295.5,-133.5 295.5,-114.5 178.5,-114.5"/>
<text text-anchor="middle" x="237" y="-121.5" font-family="Helvetica,sans-Serif" font-size="10.00">smime_invoke_encrypt</text>
</a>
</g>
</g>
<!-- Node1&#45;&gt;Node9 -->
<g id="edge13" class="edge"><title>Node1&#45;&gt;Node9</title>
<path fill="none" stroke="midnightblue" d="M86.6072,-203.821C106.367,-188.25 138.971,-164.092 170,-148 177.943,-143.881 186.755,-140.151 195.285,-136.926"/>
<polygon fill="midnightblue" stroke="midnightblue" points="196.524,-140.2 204.736,-133.506 194.142,-133.618 196.524,-140.2"/>
</g>
<!-- Node10 -->
<g id="node10" class="node"><title>Node10</title>
<g id="a_node10"><a xlink:href="filter_8c.html#a2d652b11c7d2ea31208315aaf61537d2" target="_top" xlink:title="Wait for the exit of a process and return its status. ">
<polygon fill="white" stroke="red" points="195.5,-76.5 195.5,-95.5 278.5,-95.5 278.5,-76.5 195.5,-76.5"/>
<text text-anchor="middle" x="237" y="-83.5" font-family="Helvetica,sans-Serif" font-size="10.00">mutt_wait_filter</text>
</a>
</g>
</g>
<!-- Node1&#45;&gt;Node10 -->
<g id="edge14" class="edge"><title>Node1&#45;&gt;Node10</title>
<path fill="none" stroke="midnightblue" d="M77.3244,-203.982C93.2759,-179.543 128.164,-131.264 170,-105 174.917,-101.913 180.351,-99.3135 185.927,-97.127"/>
<polygon fill="midnightblue" stroke="midnightblue" points="187.094,-100.427 195.38,-93.8245 184.785,-93.8185 187.094,-100.427"/>
</g>
<!-- Node11 -->
<g id="node11" class="node"><title>Node11</title>
<g id="a_node11"><a xlink:href="curs__lib_8c.html#ab6a61cdfcf8c2c73ee59381c79c79774" target="_top" xlink:title="Prompt the user to &#39;press any key&#39; and wait. ">
<polygon fill="white" stroke="red" points="170,-38.5 170,-57.5 304,-57.5 304,-38.5 170,-38.5"/>
<text text-anchor="middle" x="237" y="-45.5" font-family="Helvetica,sans-Serif" font-size="10.00">mutt_any_key_to_continue</text>
</a>
</g>
</g>
<!-- Node1&#45;&gt;Node11 -->
<g id="edge15" class="edge"><title>Node1&#45;&gt;Node11</title>
<path fill="none" stroke="midnightblue" d="M73.8886,-203.913C86.6174,-173.302 119.67,-103.699 170,-67 172.649,-65.0681 175.491,-63.332 178.454,-61.772"/>
<polygon fill="midnightblue" stroke="midnightblue" points="179.975,-64.925 187.63,-57.6001 177.078,-58.5526 179.975,-64.925"/>
</g>
<!-- Node12 -->
<g id="node12" class="node"><title>Node12</title>
<g id="a_node12"><a xlink:href="body_8c.html#aee001296b775e82e3988b5a81e53e30c" target="_top" xlink:title="Create a new Body. ">
<polygon fill="white" stroke="red" points="194,-0.5 194,-19.5 280,-19.5 280,-0.5 194,-0.5"/>
<text text-anchor="middle" x="237" y="-7.5" font-family="Helvetica,sans-Serif" font-size="10.00">mutt_body_new</text>
</a>
</g>
</g>
<!-- Node1&#45;&gt;Node12 -->
<g id="edge16" class="edge"><title>Node1&#45;&gt;Node12</title>
<path fill="none" stroke="midnightblue" d="M71.7735,-203.814C81.5227,-167.79 111.011,-76.6243 170,-29 174.291,-25.5358 179.185,-22.7032 184.326,-20.387"/>
<polygon fill="midnightblue" stroke="midnightblue" points="185.692,-23.6113 193.766,-16.7507 183.176,-17.0791 185.692,-23.6113"/>
</g>
<!-- Node13 -->
<g id="node13" class="node"><title>Node13</title>
<g id="a_node13"><a xlink:href="parameter_8c.html#a0ae25acb8447c3823aa66e23fb6bc3c4" target="_top" xlink:title="Set a Parameter. ">
<polygon fill="white" stroke="red" points="359.5,-190.5 359.5,-209.5 446.5,-209.5 446.5,-190.5 359.5,-190.5"/>
<text text-anchor="middle" x="403" y="-197.5" font-family="Helvetica,sans-Serif" font-size="10.00">mutt_param_set</text>
</a>
</g>
</g>
<!-- Node1&#45;&gt;Node13 -->
<g id="edge18" class="edge"><title>Node1&#45;&gt;Node13</title>
<path fill="none" stroke="midnightblue" d="M134.387,-215.223C197.38,-211.64 290.823,-206.324 348.985,-203.016"/>
<polygon fill="midnightblue" stroke="midnightblue" points="349.28,-206.505 359.065,-202.442 348.882,-199.516 349.28,-206.505"/>
</g>
<!-- Node3&#45;&gt;Node4 -->
<g id="edge3" class="edge"><title>Node3&#45;&gt;Node4</title>
<path fill="none" stroke="midnightblue" d="M279.808,-370C301.123,-370 327.252,-370 349.868,-370"/>
<polygon fill="midnightblue" stroke="midnightblue" points="349.983,-373.5 359.983,-370 349.983,-366.5 349.983,-373.5"/>
</g>
<!-- Node6&#45;&gt;Node5 -->
<g id="edge7" class="edge"><title>Node6&#45;&gt;Node5</title>
<path fill="none" stroke="midnightblue" d="M466.221,-246.444C475.354,-247.684 484.666,-248.948 493.525,-250.15"/>
<polygon fill="midnightblue" stroke="midnightblue" points="493.298,-253.651 503.678,-251.528 494.239,-246.715 493.298,-253.651"/>
</g>
<!-- Node6&#45;&gt;Node7 -->
<g id="edge8" class="edge"><title>Node6&#45;&gt;Node7</title>
<path fill="none" stroke="midnightblue" d="M439.328,-228.411C457.401,-223.506 479.598,-217.48 498.895,-212.243"/>
<polygon fill="midnightblue" stroke="midnightblue" points="499.949,-215.583 508.683,-209.586 498.116,-208.828 499.949,-215.583"/>
</g>
<!-- Node8&#45;&gt;Node4 -->
<g id="edge12" class="edge"><title>Node8&#45;&gt;Node4</title>
<path fill="none" stroke="midnightblue" d="M266.193,-323.627C293.345,-332.898 334.591,-346.982 364.502,-357.196"/>
<polygon fill="midnightblue" stroke="midnightblue" points="363.581,-360.58 374.175,-360.499 365.843,-353.955 363.581,-360.58"/>
</g>
<!-- Node8&#45;&gt;Node6 -->
<g id="edge10" class="edge"><title>Node8&#45;&gt;Node6</title>
<path fill="none" stroke="midnightblue" d="M258.771,-304.375C287.483,-291.069 339.463,-266.98 372.281,-251.772"/>
<polygon fill="midnightblue" stroke="midnightblue" points="373.796,-254.928 381.398,-247.547 370.853,-248.576 373.796,-254.928"/>
</g>
<!-- Node8&#45;&gt;Node8 -->
<g id="edge11" class="edge"><title>Node8&#45;&gt;Node8</title>
<path fill="none" stroke="midnightblue" d="M211.415,-323.757C198.968,-332.565 207.496,-342 237,-342 256.823,-342 267.177,-337.741 268.063,-332.275"/>
<polygon fill="midnightblue" stroke="midnightblue" points="270.938,-330.275 262.585,-323.757 265.051,-334.061 270.938,-330.275"/>
</g>
<!-- Node13&#45;&gt;Node7 -->
<g id="edge19" class="edge"><title>Node13&#45;&gt;Node7</title>
<path fill="none" stroke="midnightblue" d="M446.765,-200C461.139,-200 477.328,-200 492.313,-200"/>
<polygon fill="midnightblue" stroke="midnightblue" points="492.457,-203.5 502.457,-200 492.457,-196.5 492.457,-203.5"/>
</g>
</g>
</svg>
