<?xml version="1.0" encoding="UTF-8" standalone="no"?>
<!DOCTYPE svg PUBLIC "-//W3C//DTD SVG 1.1//EN"
 "http://www.w3.org/Graphics/SVG/1.1/DTD/svg11.dtd">
<!-- Generated by graphviz version 2.36.0 (20140111.2315)
 -->
<!-- Title: smime_invoke Pages: 1 -->
<svg width="398pt" height="306pt"
 viewBox="0.00 0.00 398.00 306.00" xmlns="http://www.w3.org/2000/svg" xmlns:xlink="http://www.w3.org/1999/xlink">
<g id="graph0" class="graph" transform="scale(1 1) rotate(0) translate(4 302)">
<title>smime_invoke</title>
<polygon fill="white" stroke="none" points="-4,4 -4,-302 394,-302 394,4 -4,4"/>
<!-- Node1 -->
<g id="node1" class="node"><title>Node1</title>
<polygon fill="#bfbfbf" stroke="black" points="0,-136.5 0,-155.5 80,-155.5 80,-136.5 0,-136.5"/>
<text text-anchor="middle" x="40" y="-143.5" font-family="Helvetica,sans-Serif" font-size="10.00">smime_invoke</text>
</g>
<!-- Node2 -->
<g id="node2" class="node"><title>Node2</title>
<g id="a_node2"><a xlink:href="smime_8c.html#a80d0e4b33ccca578f545a037ca3f23e2" target="_top" xlink:title="Process an email containing certificates. ">
<polygon fill="white" stroke="red" points="116,-278.5 116,-297.5 246,-297.5 246,-278.5 116,-278.5"/>
<text text-anchor="middle" x="181" y="-285.5" font-family="Helvetica,sans-Serif" font-size="10.00">smime_handle_cert_email</text>
</a>
</g>
</g>
<!-- Node1&#45;&gt;Node2 -->
<g id="edge1" class="edge"><title>Node1&#45;&gt;Node2</title>
<path fill="none" stroke="midnightblue" d="M47.608,-165.183C57.9358,-192.323 80.4787,-241.664 116,-269 121.052,-272.888 126.887,-275.982 132.936,-278.444"/>
<polygon fill="midnightblue" stroke="midnightblue" points="50.8481,-163.851 44.139,-155.651 44.2702,-166.245 50.8481,-163.851"/>
</g>
<!-- Node3 -->
<g id="node3" class="node"><title>Node3</title>
<g id="a_node3"><a xlink:href="smime_8c.html#a8738da2eaf20c95b3332988188f9169a" target="_top" xlink:title="Extract an SMIME certificate from a file. ">
<polygon fill="white" stroke="black" points="116.5,-240.5 116.5,-259.5 245.5,-259.5 245.5,-240.5 116.5,-240.5"/>
<text text-anchor="middle" x="181" y="-247.5" font-family="Helvetica,sans-Serif" font-size="10.00">smime_extract_certificate</text>
</a>
</g>
</g>
<!-- Node1&#45;&gt;Node3 -->
<g id="edge2" class="edge"><title>Node1&#45;&gt;Node3</title>
<path fill="none" stroke="midnightblue" d="M54.0156,-164.151C67.6702,-182.042 90.6438,-209.088 116,-226 124.984,-231.992 135.668,-236.756 145.708,-240.409"/>
<polygon fill="midnightblue" stroke="midnightblue" points="56.5341,-161.672 47.7613,-155.731 50.9149,-165.846 56.5341,-161.672"/>
</g>
<!-- Node4 -->
<g id="node4" class="node"><title>Node4</title>
<g id="a_node4"><a xlink:href="smime_8h.html#a0dbc47e0f98c77728d99a6765dc4a334" target="_top" xlink:title="Implements CryptModuleSpecs::smime_invoke_import() ">
<polygon fill="white" stroke="black" points="282,-216 282,-246 390,-246 390,-216 282,-216"/>
<text text-anchor="start" x="290" y="-234" font-family="Helvetica,sans-Serif" font-size="10.00">smime_class_invoke</text>
<text text-anchor="middle" x="336" y="-223" font-family="Helvetica,sans-Serif" font-size="10.00">_import</text>
</a>
</g>
</g>
<!-- Node1&#45;&gt;Node4 -->
<g id="edge5" class="edge"><title>Node1&#45;&gt;Node4</title>
<path fill="none" stroke="midnightblue" d="M61.4618,-161.471C75.954,-171.674 96.2535,-184.495 116,-192 170.33,-212.649 236.47,-222.498 281.756,-227.109"/>
<polygon fill="midnightblue" stroke="midnightblue" points="63.3994,-158.553 53.2457,-155.528 59.2965,-164.225 63.3994,-158.553"/>
</g>
<!-- Node5 -->
<g id="node5" class="node"><title>Node5</title>
<g id="a_node5"><a xlink:href="smime_8c.html#a84a9be403309b171d6e7b96998c536a9" target="_top" xlink:title="Extract the signer&#39;s certificate. ">
<polygon fill="white" stroke="red" points="124.5,-153 124.5,-183 237.5,-183 237.5,-153 124.5,-153"/>
<text text-anchor="start" x="132.5" y="-171" font-family="Helvetica,sans-Serif" font-size="10.00">smime_extract_signer</text>
<text text-anchor="middle" x="181" y="-160" font-family="Helvetica,sans-Serif" font-size="10.00">_certificate</text>
</a>
</g>
</g>
<!-- Node1&#45;&gt;Node5 -->
<g id="edge4" class="edge"><title>Node1&#45;&gt;Node5</title>
<path fill="none" stroke="midnightblue" d="M90.0322,-153.76C101.133,-155.517 112.999,-157.396 124.351,-159.192"/>
<polygon fill="midnightblue" stroke="midnightblue" points="90.5134,-150.293 80.0892,-152.187 89.419,-157.207 90.5134,-150.293"/>
</g>
<!-- Node6 -->
<g id="node6" class="node"><title>Node6</title>
<g id="a_node6"><a xlink:href="smime_8c.html#a06880dc060f2611ee36b3bd791e4d636" target="_top" xlink:title="Use SMIME to encrypt a file. ">
<polygon fill="white" stroke="red" points="122.5,-114.5 122.5,-133.5 239.5,-133.5 239.5,-114.5 122.5,-114.5"/>
<text text-anchor="middle" x="181" y="-121.5" font-family="Helvetica,sans-Serif" font-size="10.00">smime_invoke_encrypt</text>
</a>
</g>
</g>
<!-- Node1&#45;&gt;Node6 -->
<g id="edge6" class="edge"><title>Node1&#45;&gt;Node6</title>
<path fill="none" stroke="midnightblue" d="M90.2031,-138.212C100.576,-136.571 111.61,-134.824 122.265,-133.138"/>
<polygon fill="midnightblue" stroke="midnightblue" points="89.419,-134.793 80.0892,-139.813 90.5134,-141.707 89.419,-134.793"/>
</g>
<!-- Node7 -->
<g id="node7" class="node"><title>Node7</title>
<g id="a_node7"><a xlink:href="smime_8c.html#ab14f47d822f6c83532c5342c778a60fd" target="_top" xlink:title="Use SMIME to sign a file. ">
<polygon fill="white" stroke="red" points="129.5,-76.5 129.5,-95.5 232.5,-95.5 232.5,-76.5 129.5,-76.5"/>
<text text-anchor="middle" x="181" y="-83.5" font-family="Helvetica,sans-Serif" font-size="10.00">smime_invoke_sign</text>
</a>
</g>
</g>
<!-- Node1&#45;&gt;Node7 -->
<g id="edge7" class="edge"><title>Node1&#45;&gt;Node7</title>
<path fill="none" stroke="midnightblue" d="M65.0828,-131.13C79.4828,-122.676 98.3559,-112.344 116,-105 124.56,-101.437 134.02,-98.2451 142.982,-95.5407"/>
<polygon fill="midnightblue" stroke="midnightblue" points="63.1124,-128.23 56.3238,-136.364 66.7033,-134.239 63.1124,-128.23"/>
</g>
<!-- Node8 -->
<g id="node8" class="node"><title>Node8</title>
<g id="a_node8"><a xlink:href="smime_8c.html#a1dd2dfc8c8ab58ea9a7c10c0c75d4431" target="_top" xlink:title="Use SMIME to verify a file. ">
<polygon fill="white" stroke="red" points="126.5,-38.5 126.5,-57.5 235.5,-57.5 235.5,-38.5 126.5,-38.5"/>
<text text-anchor="middle" x="181" y="-45.5" font-family="Helvetica,sans-Serif" font-size="10.00">smime_invoke_verify</text>
</a>
</g>
</g>
<!-- Node1&#45;&gt;Node8 -->
<g id="edge8" class="edge"><title>Node1&#45;&gt;Node8</title>
<path fill="none" stroke="midnightblue" d="M53.6091,-127.993C67.0858,-110.039 90.051,-82.9087 116,-67 122.225,-63.1835 129.262,-60.0948 136.335,-57.6067"/>
<polygon fill="midnightblue" stroke="midnightblue" points="50.5174,-126.293 47.461,-136.438 56.1765,-130.413 50.5174,-126.293"/>
</g>
<!-- Node9 -->
<g id="node9" class="node"><title>Node9</title>
<g id="a_node9"><a xlink:href="smime_8c.html#a5025816205115c6cb1789f7ba0364aa2" target="_top" xlink:title="Use SMIME to decrypt a file. ">
<polygon fill="white" stroke="red" points="122.5,-0.5 122.5,-19.5 239.5,-19.5 239.5,-0.5 122.5,-0.5"/>
<text text-anchor="middle" x="181" y="-7.5" font-family="Helvetica,sans-Serif" font-size="10.00">smime_invoke_decrypt</text>
</a>
</g>
</g>
<!-- Node1&#45;&gt;Node9 -->
<g id="edge9" class="edge"><title>Node1&#45;&gt;Node9</title>
<path fill="none" stroke="midnightblue" d="M48.1683,-127.02C58.9407,-101.051 81.7614,-54.7416 116,-29 121.188,-25.0995 127.169,-21.9964 133.347,-19.5283"/>
<polygon fill="midnightblue" stroke="midnightblue" points="44.846,-125.903 44.4035,-136.488 51.3507,-128.489 44.846,-125.903"/>
</g>
<!-- Node3&#45;&gt;Node4 -->
<g id="edge3" class="edge"><title>Node3&#45;&gt;Node4</title>
<path fill="none" stroke="midnightblue" d="M255.747,-240.842C264.47,-239.759 273.24,-238.67 281.604,-237.631"/>
<polygon fill="midnightblue" stroke="midnightblue" points="255.049,-237.402 245.557,-242.107 255.912,-244.348 255.049,-237.402"/>
</g>
</g>
</svg>
