<?xml version="1.0" encoding="UTF-8" standalone="no"?>
<!DOCTYPE svg PUBLIC "-//W3C//DTD SVG 1.1//EN"
 "http://www.w3.org/Graphics/SVG/1.1/DTD/svg11.dtd">
<!-- Generated by graphviz version 2.36.0 (20140111.2315)
 -->
<!-- Title: smtp.c Pages: 1 -->
<svg width="1496pt" height="140pt"
 viewBox="0.00 0.00 1496.00 140.00" xmlns="http://www.w3.org/2000/svg" xmlns:xlink="http://www.w3.org/1999/xlink">
<g id="graph0" class="graph" transform="scale(1 1) rotate(0) translate(4 136)">
<title>smtp.c</title>
<polygon fill="white" stroke="none" points="-4,4 -4,-136 1492,-136 1492,4 -4,4"/>
<!-- Node1 -->
<g id="node1" class="node"><title>Node1</title>
<polygon fill="#bfbfbf" stroke="black" points="660.5,-112.5 660.5,-131.5 707.5,-131.5 707.5,-112.5 660.5,-112.5"/>
<text text-anchor="middle" x="684" y="-119.5" font-family="Helvetica,sans-Serif" font-size="10.00">smtp.c</text>
</g>
<!-- Node2 -->
<g id="node2" class="node"><title>Node2</title>
<polygon fill="white" stroke="#bfbfbf" points="-0.5,-56.5 -0.5,-75.5 50.5,-75.5 50.5,-56.5 -0.5,-56.5"/>
<text text-anchor="middle" x="25" y="-63.5" font-family="Helvetica,sans-Serif" font-size="10.00">config.h</text>
</g>
<!-- Node1&#45;&gt;Node2 -->
<g id="edge1" class="edge"><title>Node1&#45;&gt;Node2</title>
<path fill="none" stroke="midnightblue" d="M660.257,-120.882C578.176,-120.144 298.828,-114.863 60.3989,-75.9377"/>
<polygon fill="midnightblue" stroke="midnightblue" points="60.9458,-72.4806 50.5083,-74.2995 59.8019,-79.3866 60.9458,-72.4806"/>
</g>
<!-- Node3 -->
<g id="node3" class="node"><title>Node3</title>
<polygon fill="white" stroke="#bfbfbf" points="68.5,-56.5 68.5,-75.5 117.5,-75.5 117.5,-56.5 68.5,-56.5"/>
<text text-anchor="middle" x="93" y="-63.5" font-family="Helvetica,sans-Serif" font-size="10.00">netdb.h</text>
</g>
<!-- Node1&#45;&gt;Node3 -->
<g id="edge2" class="edge"><title>Node1&#45;&gt;Node3</title>
<path fill="none" stroke="midnightblue" d="M660.413,-120.661C584.355,-119.24 338.709,-112.104 127.772,-76.0216"/>
<polygon fill="midnightblue" stroke="midnightblue" points="128.206,-72.5447 117.755,-74.2814 127.008,-79.4414 128.206,-72.5447"/>
</g>
<!-- Node4 -->
<g id="node4" class="node"><title>Node4</title>
<polygon fill="white" stroke="#bfbfbf" points="135.5,-56.5 135.5,-75.5 200.5,-75.5 200.5,-56.5 135.5,-56.5"/>
<text text-anchor="middle" x="168" y="-63.5" font-family="Helvetica,sans-Serif" font-size="10.00">netinet/in.h</text>
</g>
<!-- Node1&#45;&gt;Node4 -->
<g id="edge3" class="edge"><title>Node1&#45;&gt;Node4</title>
<path fill="none" stroke="midnightblue" d="M660.483,-119.525C591.703,-115.044 385.036,-100.383 215,-76 213.535,-75.7899 212.047,-75.5655 210.545,-75.3298"/>
<polygon fill="midnightblue" stroke="midnightblue" points="210.993,-71.856 200.55,-73.6416 209.827,-78.7583 210.993,-71.856"/>
</g>
<!-- Node5 -->
<g id="node5" class="node"><title>Node5</title>
<polygon fill="white" stroke="#bfbfbf" points="591,-0.5 591,-19.5 647,-19.5 647,-0.5 591,-0.5"/>
<text text-anchor="middle" x="619" y="-7.5" font-family="Helvetica,sans-Serif" font-size="10.00">stdbool.h</text>
</g>
<!-- Node1&#45;&gt;Node5 -->
<g id="edge4" class="edge"><title>Node1&#45;&gt;Node5</title>
<path fill="none" stroke="midnightblue" d="M672.127,-112.288C661.7,-104.041 646.851,-90.7533 638,-76 629.4,-61.6651 624.492,-43.202 621.827,-29.6187"/>
<polygon fill="midnightblue" stroke="midnightblue" points="625.24,-28.8108 620.085,-19.5542 618.342,-30.0047 625.24,-28.8108"/>
</g>
<!-- Node6 -->
<g id="node6" class="node"><title>Node6</title>
<polygon fill="white" stroke="#bfbfbf" points="1173,-0.5 1173,-19.5 1219,-19.5 1219,-0.5 1173,-0.5"/>
<text text-anchor="middle" x="1196" y="-7.5" font-family="Helvetica,sans-Serif" font-size="10.00">stdio.h</text>
</g>
<!-- Node1&#45;&gt;Node6 -->
<g id="edge5" class="edge"><title>Node1&#45;&gt;Node6</title>
<path fill="none" stroke="midnightblue" d="M707.837,-121.07C814.244,-121.139 1242.35,-118.745 1282,-76 1302.99,-53.3684 1261.24,-32.9174 1228.87,-21.2317"/>
<polygon fill="midnightblue" stroke="midnightblue" points="1229.8,-17.8509 1219.21,-17.8937 1227.52,-24.4672 1229.8,-17.8509"/>
</g>
<!-- Node7 -->
<g id="node7" class="node"><title>Node7</title>
<polygon fill="white" stroke="#bfbfbf" points="319.5,-56.5 319.5,-75.5 368.5,-75.5 368.5,-56.5 319.5,-56.5"/>
<text text-anchor="middle" x="344" y="-63.5" font-family="Helvetica,sans-Serif" font-size="10.00">string.h</text>
</g>
<!-- Node1&#45;&gt;Node7 -->
<g id="edge6" class="edge"><title>Node1&#45;&gt;Node7</title>
<path fill="none" stroke="midnightblue" d="M660.425,-118.452C610.39,-112.849 489.758,-98.3111 378.822,-75.9573"/>
<polygon fill="midnightblue" stroke="midnightblue" points="379.304,-72.4836 368.806,-73.912 377.903,-79.3421 379.304,-72.4836"/>
</g>
<!-- Node8 -->
<g id="node8" class="node"><title>Node8</title>
<polygon fill="white" stroke="#bfbfbf" points="387,-56.5 387,-75.5 447,-75.5 447,-56.5 387,-56.5"/>
<text text-anchor="middle" x="417" y="-63.5" font-family="Helvetica,sans-Serif" font-size="10.00">sys/stat.h</text>
</g>
<!-- Node1&#45;&gt;Node8 -->
<g id="edge7" class="edge"><title>Node1&#45;&gt;Node8</title>
<path fill="none" stroke="midnightblue" d="M660.431,-116.534C619.147,-108.665 531.093,-91.6767 457,-76 456.9,-75.9788 456.8,-75.9576 456.699,-75.9363"/>
<polygon fill="midnightblue" stroke="midnightblue" points="457.637,-72.5583 447.123,-73.8644 456.157,-79.4 457.637,-72.5583"/>
</g>
<!-- Node9 -->
<g id="node9" class="node"><title>Node9</title>
<polygon fill="white" stroke="#bfbfbf" points="465.5,-56.5 465.5,-75.5 516.5,-75.5 516.5,-56.5 465.5,-56.5"/>
<text text-anchor="middle" x="491" y="-63.5" font-family="Helvetica,sans-Serif" font-size="10.00">unistd.h</text>
</g>
<!-- Node1&#45;&gt;Node9 -->
<g id="edge8" class="edge"><title>Node1&#45;&gt;Node9</title>
<path fill="none" stroke="midnightblue" d="M660.334,-114.379C626.886,-105.02 565.524,-87.8514 526.573,-76.9531"/>
<polygon fill="midnightblue" stroke="midnightblue" points="527.277,-73.5157 516.704,-74.1917 525.391,-80.2568 527.277,-73.5157"/>
</g>
<!-- Node10 -->
<g id="node10" class="node"><title>Node10</title>
<g id="a_node10"><a xlink:href="mutt_2mutt_8h.html" target="_top" xlink:title="Convenience wrapper for the library headers. ">
<polygon fill="white" stroke="red" points="863.5,-0.5 863.5,-19.5 930.5,-19.5 930.5,-0.5 863.5,-0.5"/>
<text text-anchor="middle" x="897" y="-7.5" font-family="Helvetica,sans-Serif" font-size="10.00">mutt/mutt.h</text>
</a>
</g>
</g>
<!-- Node1&#45;&gt;Node10 -->
<g id="edge9" class="edge"><title>Node1&#45;&gt;Node10</title>
<path fill="none" stroke="midnightblue" d="M707.828,-118.408C753.837,-112.942 852.534,-98.824 877,-76 889.671,-64.1797 894.387,-44.5486 896.104,-29.9477"/>
<polygon fill="midnightblue" stroke="midnightblue" points="899.626,-29.8088 896.934,-19.5619 892.649,-29.2515 899.626,-29.8088"/>
</g>
<!-- Node11 -->
<g id="node11" class="node"><title>Node11</title>
<g id="a_node11"><a xlink:href="lib_8h.html" target="_top" xlink:title="Convenience wrapper for the config headers. ">
<polygon fill="white" stroke="red" points="353,-0.5 353,-19.5 417,-19.5 417,-0.5 353,-0.5"/>
<text text-anchor="middle" x="385" y="-7.5" font-family="Helvetica,sans-Serif" font-size="10.00">config/lib.h</text>
</a>
</g>
</g>
<!-- Node1&#45;&gt;Node11 -->
<g id="edge10" class="edge"><title>Node1&#45;&gt;Node11</title>
<path fill="none" stroke="midnightblue" d="M660.467,-120.373C573.778,-117.824 275.843,-106.865 248,-76 217.233,-41.8936 292.045,-24.0842 342.811,-16.2003"/>
<polygon fill="midnightblue" stroke="midnightblue" points="343.536,-19.6314 352.919,-14.7101 342.515,-12.7062 343.536,-19.6314"/>
</g>
<!-- Node12 -->
<g id="node12" class="node"><title>Node12</title>
<g id="a_node12"><a xlink:href="email_8h.html" target="_top" xlink:title="Structs that make up an email. ">
<polygon fill="white" stroke="red" points="647,-56.5 647,-75.5 721,-75.5 721,-56.5 647,-56.5"/>
<text text-anchor="middle" x="684" y="-63.5" font-family="Helvetica,sans-Serif" font-size="10.00">email/email.h</text>
</a>
</g>
</g>
<!-- Node1&#45;&gt;Node12 -->
<g id="edge11" class="edge"><title>Node1&#45;&gt;Node12</title>
<path fill="none" stroke="midnightblue" d="M684,-112.083C684,-105.006 684,-94.8611 684,-85.9865"/>
<polygon fill="midnightblue" stroke="midnightblue" points="687.5,-85.751 684,-75.7511 680.5,-85.7511 687.5,-85.751"/>
</g>
<!-- Node13 -->
<g id="node13" class="node"><title>Node13</title>
<g id="a_node13"><a xlink:href="conn_8h.html" target="_top" xlink:title="Connection Library. ">
<polygon fill="white" stroke="red" points="1203,-56.5 1203,-75.5 1273,-75.5 1273,-56.5 1203,-56.5"/>
<text text-anchor="middle" x="1238" y="-63.5" font-family="Helvetica,sans-Serif" font-size="10.00">conn/conn.h</text>
</a>
</g>
</g>
<!-- Node1&#45;&gt;Node13 -->
<g id="edge12" class="edge"><title>Node1&#45;&gt;Node13</title>
<path fill="none" stroke="midnightblue" d="M707.7,-119.827C779.232,-116.094 999.363,-103.183 1192.63,-75.8783"/>
<polygon fill="midnightblue" stroke="midnightblue" points="1193.29,-79.3208 1202.69,-74.4409 1192.3,-72.3912 1193.29,-79.3208"/>
</g>
<!-- Node14 -->
<g id="node14" class="node"><title>Node14</title>
<g id="a_node14"><a xlink:href="mutt_8h.html" target="_top" xlink:title="Many unsorted constants and some structs. ">
<polygon fill="white" stroke="red" points="257,-56.5 257,-75.5 301,-75.5 301,-56.5 257,-56.5"/>
<text text-anchor="middle" x="279" y="-63.5" font-family="Helvetica,sans-Serif" font-size="10.00">mutt.h</text>
</a>
</g>
</g>
<!-- Node1&#45;&gt;Node14 -->
<g id="edge14" class="edge"><title>Node1&#45;&gt;Node14</title>
<path fill="none" stroke="midnightblue" d="M660.156,-119.484C601.996,-115.5 448.163,-103.248 311.082,-75.9213"/>
<polygon fill="midnightblue" stroke="midnightblue" points="311.739,-72.4833 301.243,-73.9277 310.349,-79.3439 311.739,-72.4833"/>
</g>
<!-- Node15 -->
<g id="node15" class="node"><title>Node15</title>
<g id="a_node15"><a xlink:href="globals_8h.html" target="_top" xlink:title="Hundreds of global variables to back the user variables. ">
<polygon fill="white" stroke="red" points="535,-56.5 535,-75.5 591,-75.5 591,-56.5 535,-56.5"/>
<text text-anchor="middle" x="563" y="-63.5" font-family="Helvetica,sans-Serif" font-size="10.00">globals.h</text>
</a>
</g>
</g>
<!-- Node1&#45;&gt;Node15 -->
<g id="edge16" class="edge"><title>Node1&#45;&gt;Node15</title>
<path fill="none" stroke="midnightblue" d="M664.827,-112.444C645.091,-103.636 614.115,-89.8116 591.507,-79.722"/>
<polygon fill="midnightblue" stroke="midnightblue" points="592.641,-76.3957 582.083,-75.5164 589.789,-82.788 592.641,-76.3957"/>
</g>
<!-- Node16 -->
<g id="node16" class="node"><title>Node16</title>
<g id="a_node16"><a xlink:href="mutt__account_8h.html" target="_top" xlink:title="Account object used by POP and IMAP. ">
<polygon fill="white" stroke="black" points="925,-56.5 925,-75.5 1009,-75.5 1009,-56.5 925,-56.5"/>
<text text-anchor="middle" x="967" y="-63.5" font-family="Helvetica,sans-Serif" font-size="10.00">mutt_account.h</text>
</a>
</g>
</g>
<!-- Node1&#45;&gt;Node16 -->
<g id="edge20" class="edge"><title>Node1&#45;&gt;Node16</title>
<path fill="none" stroke="midnightblue" d="M707.642,-116.489C752.944,-107.845 852.955,-88.7612 914.701,-76.9793"/>
<polygon fill="midnightblue" stroke="midnightblue" points="915.475,-80.3949 924.642,-75.0825 914.163,-73.5189 915.475,-80.3949"/>
</g>
<!-- Node17 -->
<g id="node17" class="node"><title>Node17</title>
<g id="a_node17"><a xlink:href="mutt__socket_8h.html" target="_top" xlink:title="NeoMutt connections. ">
<polygon fill="white" stroke="black" points="1026.5,-56.5 1026.5,-75.5 1105.5,-75.5 1105.5,-56.5 1026.5,-56.5"/>
<text text-anchor="middle" x="1066" y="-63.5" font-family="Helvetica,sans-Serif" font-size="10.00">mutt_socket.h</text>
</a>
</g>
</g>
<!-- Node1&#45;&gt;Node17 -->
<g id="edge21" class="edge"><title>Node1&#45;&gt;Node17</title>
<path fill="none" stroke="midnightblue" d="M707.88,-118.167C761.206,-111.756 894.226,-95.301 1016.54,-76.0046"/>
<polygon fill="midnightblue" stroke="midnightblue" points="1017.12,-79.4558 1026.45,-74.4308 1016.02,-72.5424 1017.12,-79.4558"/>
</g>
<!-- Node18 -->
<g id="node18" class="node"><title>Node18</title>
<g id="a_node18"><a xlink:href="options_8h.html" target="_top" xlink:title="Handling of global boolean variables. ">
<polygon fill="white" stroke="red" points="739,-56.5 739,-75.5 795,-75.5 795,-56.5 739,-56.5"/>
<text text-anchor="middle" x="767" y="-63.5" font-family="Helvetica,sans-Serif" font-size="10.00">options.h</text>
</a>
</g>
</g>
<!-- Node1&#45;&gt;Node18 -->
<g id="edge22" class="edge"><title>Node1&#45;&gt;Node18</title>
<path fill="none" stroke="midnightblue" d="M697.335,-112.324C710.162,-103.979 729.785,-91.2122 744.94,-81.3524"/>
<polygon fill="midnightblue" stroke="midnightblue" points="747.224,-84.0417 753.698,-75.6545 743.407,-78.1742 747.224,-84.0417"/>
</g>
<!-- Node19 -->
<g id="node19" class="node"><title>Node19</title>
<g id="a_node19"><a xlink:href="progress_8h.html" target="_top" xlink:title="Progress bar. ">
<polygon fill="white" stroke="black" points="1123,-56.5 1123,-75.5 1185,-75.5 1185,-56.5 1123,-56.5"/>
<text text-anchor="middle" x="1154" y="-63.5" font-family="Helvetica,sans-Serif" font-size="10.00">progress.h</text>
</a>
</g>
</g>
<!-- Node1&#45;&gt;Node19 -->
<g id="edge24" class="edge"><title>Node1&#45;&gt;Node19</title>
<path fill="none" stroke="midnightblue" d="M707.904,-119.485C771.921,-115.219 952.688,-101.809 1112.61,-76.0576"/>
<polygon fill="midnightblue" stroke="midnightblue" points="1113.32,-79.4882 1122.63,-74.4239 1112.19,-72.5795 1113.32,-79.4882"/>
</g>
<!-- Node20 -->
<g id="node20" class="node"><title>Node20</title>
<g id="a_node20"><a xlink:href="sendlib_8h.html" target="_top" xlink:title="Miscellaneous functions for sending an email. ">
<polygon fill="white" stroke="black" points="813,-56.5 813,-75.5 869,-75.5 869,-56.5 813,-56.5"/>
<text text-anchor="middle" x="841" y="-63.5" font-family="Helvetica,sans-Serif" font-size="10.00">sendlib.h</text>
</a>
</g>
</g>
<!-- Node1&#45;&gt;Node20 -->
<g id="edge27" class="edge"><title>Node1&#45;&gt;Node20</title>
<path fill="none" stroke="midnightblue" d="M707.504,-112.916C733.712,-103.902 776.354,-89.235 806.379,-78.9079"/>
<polygon fill="midnightblue" stroke="midnightblue" points="807.718,-82.1488 816.035,-75.5865 805.441,-75.5294 807.718,-82.1488"/>
</g>
<!-- Node21 -->
<g id="node21" class="node"><title>Node21</title>
<polygon fill="white" stroke="#bfbfbf" points="1329,-56.5 1329,-75.5 1393,-75.5 1393,-56.5 1329,-56.5"/>
<text text-anchor="middle" x="1361" y="-63.5" font-family="Helvetica,sans-Serif" font-size="10.00">sasl/sasl.h</text>
</g>
<!-- Node1&#45;&gt;Node21 -->
<g id="edge30" class="edge"><title>Node1&#45;&gt;Node21</title>
<path fill="none" stroke="midnightblue" d="M707.597,-120.355C790.964,-117.857 1079.3,-107.343 1315,-76 1316.27,-75.8311 1317.56,-75.6488 1318.86,-75.4556"/>
<polygon fill="midnightblue" stroke="midnightblue" points="1319.62,-78.878 1328.91,-73.7965 1318.48,-71.9714 1319.62,-78.878"/>
</g>
<!-- Node22 -->
<g id="node22" class="node"><title>Node22</title>
<polygon fill="white" stroke="#bfbfbf" points="1411.5,-56.5 1411.5,-75.5 1488.5,-75.5 1488.5,-56.5 1411.5,-56.5"/>
<text text-anchor="middle" x="1450" y="-63.5" font-family="Helvetica,sans-Serif" font-size="10.00">sasl/saslutil.h</text>
</g>
<!-- Node1&#45;&gt;Node22 -->
<g id="edge31" class="edge"><title>Node1&#45;&gt;Node22</title>
<path fill="none" stroke="midnightblue" d="M707.65,-120.571C796.985,-118.732 1122.49,-110.038 1400.99,-75.9552"/>
<polygon fill="midnightblue" stroke="midnightblue" points="1401.8,-79.3819 1411.29,-74.6799 1400.94,-72.4349 1401.8,-79.3819"/>
</g>
<!-- Node13&#45;&gt;Node6 -->
<g id="edge13" class="edge"><title>Node13&#45;&gt;Node6</title>
<path fill="none" stroke="midnightblue" d="M1231.06,-56.083C1225.07,-48.3768 1216.25,-37.0333 1208.95,-27.6531"/>
<polygon fill="midnightblue" stroke="midnightblue" points="1211.71,-25.4958 1202.81,-19.7511 1206.18,-29.7934 1211.71,-25.4958"/>
</g>
<!-- Node14&#45;&gt;Node5 -->
<g id="edge15" class="edge"><title>Node14&#45;&gt;Node5</title>
<path fill="none" stroke="midnightblue" d="M301.257,-58.1399C304.182,-57.3558 307.152,-56.6177 310,-56 406.26,-35.1219 521.532,-21.2121 580.341,-14.8961"/>
<polygon fill="midnightblue" stroke="midnightblue" points="581.071,-18.3384 590.647,-13.8052 580.334,-11.3773 581.071,-18.3384"/>
</g>
<!-- Node15&#45;&gt;Node5 -->
<g id="edge17" class="edge"><title>Node15&#45;&gt;Node5</title>
<path fill="none" stroke="midnightblue" d="M571.997,-56.324C580.194,-48.4196 592.506,-36.5482 602.472,-26.9377"/>
<polygon fill="midnightblue" stroke="midnightblue" points="605.07,-29.2947 609.839,-19.8339 600.211,-24.2558 605.07,-29.2947"/>
</g>
<!-- Node15&#45;&gt;Node10 -->
<g id="edge18" class="edge"><title>Node15&#45;&gt;Node10</title>
<path fill="none" stroke="midnightblue" d="M591.189,-60.4425C649.455,-51.0223 783.519,-29.3472 853.179,-18.0848"/>
<polygon fill="midnightblue" stroke="midnightblue" points="854.066,-21.487 863.379,-16.4357 852.948,-14.5767 854.066,-21.487"/>
</g>
<!-- Node15&#45;&gt;Node11 -->
<g id="edge19" class="edge"><title>Node15&#45;&gt;Node11</title>
<path fill="none" stroke="midnightblue" d="M534.795,-56.4435C504.59,-47.2801 456.489,-32.6876 422.971,-22.5192"/>
<polygon fill="midnightblue" stroke="midnightblue" points="423.658,-19.0703 413.073,-19.5164 421.626,-25.7688 423.658,-19.0703"/>
</g>
<!-- Node18&#45;&gt;Node5 -->
<g id="edge23" class="edge"><title>Node18&#45;&gt;Node5</title>
<path fill="none" stroke="midnightblue" d="M743.549,-56.4435C718.867,-47.4381 679.815,-33.1891 652.023,-23.049"/>
<polygon fill="midnightblue" stroke="midnightblue" points="652.935,-19.6561 642.341,-19.5164 650.536,-26.2321 652.935,-19.6561"/>
</g>
<!-- Node19&#45;&gt;Node6 -->
<g id="edge25" class="edge"><title>Node19&#45;&gt;Node6</title>
<path fill="none" stroke="midnightblue" d="M1160.94,-56.083C1166.93,-48.3768 1175.75,-37.0333 1183.05,-27.6531"/>
<polygon fill="midnightblue" stroke="midnightblue" points="1185.82,-29.7934 1189.19,-19.7511 1180.29,-25.4958 1185.82,-29.7934"/>
</g>
<!-- Node19&#45;&gt;Node10 -->
<g id="edge26" class="edge"><title>Node19&#45;&gt;Node10</title>
<path fill="none" stroke="midnightblue" d="M1122.57,-57.8754C1119.67,-57.2349 1116.78,-56.6016 1114,-56 1054.12,-43.0552 984.774,-28.8036 940.907,-19.8793"/>
<polygon fill="midnightblue" stroke="midnightblue" points="941.362,-16.4004 930.866,-17.839 939.969,-23.2602 941.362,-16.4004"/>
</g>
<!-- Node20&#45;&gt;Node5 -->
<g id="edge28" class="edge"><title>Node20&#45;&gt;Node5</title>
<path fill="none" stroke="midnightblue" d="M812.884,-58.1609C773.375,-48.5507 701.319,-31.0235 657.049,-20.2551"/>
<polygon fill="midnightblue" stroke="midnightblue" points="657.782,-16.8314 647.238,-17.8687 656.127,-23.6331 657.782,-16.8314"/>
</g>
<!-- Node20&#45;&gt;Node6 -->
<g id="edge29" class="edge"><title>Node20&#45;&gt;Node6</title>
<path fill="none" stroke="midnightblue" d="M869.153,-60.7176C933.887,-50.8706 1093.08,-26.6553 1162.61,-16.0797"/>
<polygon fill="midnightblue" stroke="midnightblue" points="1163.22,-19.5267 1172.58,-14.5626 1162.17,-12.6063 1163.22,-19.5267"/>
</g>
</g>
</svg>
