<?xml version="1.0" encoding="UTF-8" standalone="no"?>
<!DOCTYPE svg PUBLIC "-//W3C//DTD SVG 1.1//EN"
 "http://www.w3.org/Graphics/SVG/1.1/DTD/svg11.dtd">
<!-- Generated by graphviz version 2.36.0 (20140111.2315)
 -->
<!-- Title: smtp_open Pages: 1 -->
<svg width="200pt" height="28pt"
 viewBox="0.00 0.00 200.00 28.00" xmlns="http://www.w3.org/2000/svg" xmlns:xlink="http://www.w3.org/1999/xlink">
<g id="graph0" class="graph" transform="scale(1 1) rotate(0) translate(4 24)">
<title>smtp_open</title>
<polygon fill="white" stroke="none" points="-4,4 -4,-24 196,-24 196,4 -4,4"/>
<!-- Node1 -->
<g id="node1" class="node"><title>Node1</title>
<polygon fill="#bfbfbf" stroke="black" points="0.5,-0.5 0.5,-19.5 65.5,-19.5 65.5,-0.5 0.5,-0.5"/>
<text text-anchor="middle" x="33" y="-7.5" font-family="Helvetica,sans-Serif" font-size="10.00">smtp_open</text>
</g>
<!-- Node2 -->
<g id="node2" class="node"><title>Node2</title>
<g id="a_node2"><a xlink:href="smtp_8h.html#a935dac37947ee542858ad8cf03c7654a" target="_top" xlink:title="Send a message using SMTP. ">
<polygon fill="white" stroke="red" points="102.5,-0.5 102.5,-19.5 191.5,-19.5 191.5,-0.5 102.5,-0.5"/>
<text text-anchor="middle" x="147" y="-7.5" font-family="Helvetica,sans-Serif" font-size="10.00">mutt_smtp_send</text>
</a>
</g>
</g>
<!-- Node1&#45;&gt;Node2 -->
<g id="edge1" class="edge"><title>Node1&#45;&gt;Node2</title>
<path fill="none" stroke="midnightblue" d="M76.0199,-10C84.6436,-10 93.7399,-10 102.417,-10"/>
<polygon fill="midnightblue" stroke="midnightblue" points="75.7952,-6.5001 65.7951,-10 75.7951,-13.5001 75.7952,-6.5001"/>
</g>
</g>
</svg>
