<?xml version="1.0" encoding="UTF-8" standalone="no"?>
<!DOCTYPE svg PUBLIC "-//W3C//DTD SVG 1.1//EN"
 "http://www.w3.org/Graphics/SVG/1.1/DTD/svg11.dtd">
<!-- Generated by graphviz version 2.36.0 (20140111.2315)
 -->
<!-- Title: smtp_rcpt_to Pages: 1 -->
<svg width="200pt" height="28pt"
 viewBox="0.00 0.00 200.00 28.00" xmlns="http://www.w3.org/2000/svg" xmlns:xlink="http://www.w3.org/1999/xlink">
<g id="graph0" class="graph" transform="scale(1 1) rotate(0) translate(4 24)">
<title>smtp_rcpt_to</title>
<polygon fill="white" stroke="none" points="-4,4 -4,-24 196,-24 196,4 -4,4"/>
<!-- Node1 -->
<g id="node1" class="node"><title>Node1</title>
<polygon fill="#bfbfbf" stroke="black" points="0,-0.5 0,-19.5 74,-19.5 74,-0.5 0,-0.5"/>
<text text-anchor="middle" x="37" y="-7.5" font-family="Helvetica,sans-Serif" font-size="10.00">smtp_rcpt_to</text>
</g>
<!-- Node2 -->
<g id="node2" class="node"><title>Node2</title>
<g id="a_node2"><a xlink:href="smtp_8c.html#a48d495fa4471e78214e6dfc029a12b30" target="_top" xlink:title="Read a command response from the SMTP server. ">
<polygon fill="white" stroke="red" points="110.5,-0.5 110.5,-19.5 191.5,-19.5 191.5,-0.5 110.5,-0.5"/>
<text text-anchor="middle" x="151" y="-7.5" font-family="Helvetica,sans-Serif" font-size="10.00">smtp_get_resp</text>
</a>
</g>
</g>
<!-- Node1&#45;&gt;Node2 -->
<g id="edge1" class="edge"><title>Node1&#45;&gt;Node2</title>
<path fill="none" stroke="midnightblue" d="M74.054,-10C82.3272,-10 91.2685,-10 100.012,-10"/>
<polygon fill="midnightblue" stroke="midnightblue" points="100.134,-13.5001 110.134,-10 100.133,-6.5001 100.134,-13.5001"/>
</g>
</g>
</svg>
