<?xml version="1.0" encoding="UTF-8" standalone="no"?>
<!DOCTYPE svg PUBLIC "-//W3C//DTD SVG 1.1//EN"
 "http://www.w3.org/Graphics/SVG/1.1/DTD/svg11.dtd">
<!-- Generated by graphviz version 2.36.0 (20140111.2315)
 -->
<!-- Title: address_uses_unicode Pages: 1 -->
<svg width="408pt" height="47pt"
 viewBox="0.00 0.00 408.00 47.00" xmlns="http://www.w3.org/2000/svg" xmlns:xlink="http://www.w3.org/1999/xlink">
<g id="graph0" class="graph" transform="scale(1 1) rotate(0) translate(4 43)">
<title>address_uses_unicode</title>
<polygon fill="white" stroke="none" points="-4,4 -4,-43 404,-43 404,4 -4,4"/>
<!-- Node1 -->
<g id="node1" class="node"><title>Node1</title>
<polygon fill="#bfbfbf" stroke="black" points="0,-0.5 0,-19.5 116,-19.5 116,-0.5 0,-0.5"/>
<text text-anchor="middle" x="58" y="-7.5" font-family="Helvetica,sans-Serif" font-size="10.00">address_uses_unicode</text>
</g>
<!-- Node2 -->
<g id="node2" class="node"><title>Node2</title>
<g id="a_node2"><a xlink:href="smtp_8c.html#a6f0b393d189f05eba133aa1e6257397a" target="_top" xlink:title="Do any of a list of addresses use Unicode. ">
<polygon fill="white" stroke="black" points="152,-19.5 152,-38.5 274,-38.5 274,-19.5 152,-19.5"/>
<text text-anchor="middle" x="213" y="-26.5" font-family="Helvetica,sans-Serif" font-size="10.00">addresses_use_unicode</text>
</a>
</g>
</g>
<!-- Node1&#45;&gt;Node2 -->
<g id="edge1" class="edge"><title>Node1&#45;&gt;Node2</title>
<path fill="none" stroke="midnightblue" d="M126.331,-18.3614C134.868,-19.4215 143.56,-20.5009 151.972,-21.5455"/>
<polygon fill="midnightblue" stroke="midnightblue" points="126.762,-14.8881 116.407,-17.129 125.899,-21.8347 126.762,-14.8881"/>
</g>
<!-- Node3 -->
<g id="node3" class="node"><title>Node3</title>
<g id="a_node3"><a xlink:href="smtp_8h.html#a935dac37947ee542858ad8cf03c7654a" target="_top" xlink:title="Send a message using SMTP. ">
<polygon fill="white" stroke="red" points="310.5,-0.5 310.5,-19.5 399.5,-19.5 399.5,-0.5 310.5,-0.5"/>
<text text-anchor="middle" x="355" y="-7.5" font-family="Helvetica,sans-Serif" font-size="10.00">mutt_smtp_send</text>
</a>
</g>
</g>
<!-- Node1&#45;&gt;Node3 -->
<g id="edge3" class="edge"><title>Node1&#45;&gt;Node3</title>
<path fill="none" stroke="midnightblue" d="M126.499,-10C182.969,-10 261.868,-10 310.361,-10"/>
<polygon fill="midnightblue" stroke="midnightblue" points="126.229,-6.5001 116.229,-10 126.229,-13.5001 126.229,-6.5001"/>
</g>
<!-- Node2&#45;&gt;Node3 -->
<g id="edge2" class="edge"><title>Node2&#45;&gt;Node3</title>
<path fill="none" stroke="midnightblue" d="M284.215,-19.4708C293.124,-18.2618 302.028,-17.0533 310.351,-15.9238"/>
<polygon fill="midnightblue" stroke="midnightblue" points="283.624,-16.0189 274.185,-20.832 284.565,-22.9553 283.624,-16.0189"/>
</g>
</g>
</svg>
