<?xml version="1.0" encoding="UTF-8" standalone="no"?>
<!DOCTYPE svg PUBLIC "-//W3C//DTD SVG 1.1//EN"
 "http://www.w3.org/Graphics/SVG/1.1/DTD/svg11.dtd">
<!-- Generated by graphviz version 2.36.0 (20140111.2315)
 -->
<!-- Title: mutt_smtp_send Pages: 1 -->
<svg width="408pt" height="370pt"
 viewBox="0.00 0.00 408.00 370.00" xmlns="http://www.w3.org/2000/svg" xmlns:xlink="http://www.w3.org/1999/xlink">
<g id="graph0" class="graph" transform="scale(1 1) rotate(0) translate(4 366)">
<title>mutt_smtp_send</title>
<polygon fill="white" stroke="none" points="-4,4 -4,-366 404,-366 404,4 -4,4"/>
<!-- Node1 -->
<g id="node1" class="node"><title>Node1</title>
<polygon fill="#bfbfbf" stroke="black" points="0.5,-171.5 0.5,-190.5 89.5,-190.5 89.5,-171.5 0.5,-171.5"/>
<text text-anchor="middle" x="45" y="-178.5" font-family="Helvetica,sans-Serif" font-size="10.00">mutt_smtp_send</text>
</g>
<!-- Node2 -->
<g id="node2" class="node"><title>Node2</title>
<g id="a_node2"><a xlink:href="smtp_8c.html#a1bae1d72999bd75b04f96ef556b5f132" target="_top" xlink:title="Create Account object from SMTP Url. ">
<polygon fill="white" stroke="red" points="140.5,-342.5 140.5,-361.5 233.5,-361.5 233.5,-342.5 140.5,-342.5"/>
<text text-anchor="middle" x="187" y="-349.5" font-family="Helvetica,sans-Serif" font-size="10.00">smtp_fill_account</text>
</a>
</g>
</g>
<!-- Node1&#45;&gt;Node2 -->
<g id="edge1" class="edge"><title>Node1&#45;&gt;Node2</title>
<path fill="none" stroke="midnightblue" d="M48.3645,-190.83C55.3448,-217.734 78.4194,-293.207 126,-333 128.017,-334.687 130.185,-336.224 132.457,-337.626"/>
<polygon fill="midnightblue" stroke="midnightblue" points="131.155,-340.893 141.644,-342.384 134.374,-334.677 131.155,-340.893"/>
</g>
<!-- Node3 -->
<g id="node3" class="node"><title>Node3</title>
<g id="a_node3"><a xlink:href="mutt__socket_8c.html#a1562d6bd9d3bfb8dfbae3e2efc81344e" target="_top" xlink:title="Find a connection from a list. ">
<polygon fill="white" stroke="red" points="145.5,-304.5 145.5,-323.5 228.5,-323.5 228.5,-304.5 145.5,-304.5"/>
<text text-anchor="middle" x="187" y="-311.5" font-family="Helvetica,sans-Serif" font-size="10.00">mutt_conn_find</text>
</a>
</g>
</g>
<!-- Node1&#45;&gt;Node3 -->
<g id="edge2" class="edge"><title>Node1&#45;&gt;Node3</title>
<path fill="none" stroke="midnightblue" d="M50.0645,-190.545C59.8431,-212.373 86.8104,-266.259 126,-295 129.043,-297.231 132.356,-299.206 135.812,-300.954"/>
<polygon fill="midnightblue" stroke="midnightblue" points="134.64,-304.261 145.204,-305.067 137.448,-297.849 134.64,-304.261"/>
</g>
<!-- Node4 -->
<g id="node4" class="node"><title>Node4</title>
<g id="a_node4"><a xlink:href="smtp_8c.html#a219902e5bbdd76be27f74fc559ebb09c" target="_top" xlink:title="Open an SMTP Connection. ">
<polygon fill="white" stroke="red" points="154.5,-266.5 154.5,-285.5 219.5,-285.5 219.5,-266.5 154.5,-266.5"/>
<text text-anchor="middle" x="187" y="-273.5" font-family="Helvetica,sans-Serif" font-size="10.00">smtp_open</text>
</a>
</g>
</g>
<!-- Node1&#45;&gt;Node4 -->
<g id="edge3" class="edge"><title>Node1&#45;&gt;Node4</title>
<path fill="none" stroke="midnightblue" d="M54.9808,-190.917C68.9406,-205.849 97.2435,-234.243 126,-252 132.431,-255.971 139.634,-259.515 146.755,-262.58"/>
<polygon fill="midnightblue" stroke="midnightblue" points="145.754,-265.951 156.337,-266.46 148.381,-259.463 145.754,-265.951"/>
</g>
<!-- Node5 -->
<g id="node5" class="node"><title>Node5</title>
<g id="a_node5"><a xlink:href="smtp_8c.html#a48d495fa4471e78214e6dfc029a12b30" target="_top" xlink:title="Read a command response from the SMTP server. ">
<polygon fill="white" stroke="red" points="301.5,-190.5 301.5,-209.5 382.5,-209.5 382.5,-190.5 301.5,-190.5"/>
<text text-anchor="middle" x="342" y="-197.5" font-family="Helvetica,sans-Serif" font-size="10.00">smtp_get_resp</text>
</a>
</g>
</g>
<!-- Node1&#45;&gt;Node5 -->
<g id="edge9" class="edge"><title>Node1&#45;&gt;Node5</title>
<path fill="none" stroke="midnightblue" d="M60.897,-190.566C76.4347,-199.93 101.85,-213.556 126,-219 183.991,-232.073 252.674,-221.647 296.527,-211.826"/>
<polygon fill="midnightblue" stroke="midnightblue" points="297.358,-215.226 306.306,-209.553 295.773,-208.408 297.358,-215.226"/>
</g>
<!-- Node6 -->
<g id="node6" class="node"><title>Node6</title>
<g id="a_node6"><a xlink:href="mutt_2string_8c.html#ad60cdc9187ee1ca0fa8a8040d586efd3" target="_top" xlink:title="Concatenate two strings. ">
<polygon fill="white" stroke="black" points="143,-190.5 143,-209.5 231,-209.5 231,-190.5 143,-190.5"/>
<text text-anchor="middle" x="187" y="-197.5" font-family="Helvetica,sans-Serif" font-size="10.00">mutt_str_strncat</text>
</a>
</g>
</g>
<!-- Node1&#45;&gt;Node6 -->
<g id="edge5" class="edge"><title>Node1&#45;&gt;Node6</title>
<path fill="none" stroke="midnightblue" d="M89.5295,-186.908C103.223,-188.766 118.501,-190.839 132.787,-192.778"/>
<polygon fill="midnightblue" stroke="midnightblue" points="132.598,-196.285 142.978,-194.161 133.54,-189.348 132.598,-196.285"/>
</g>
<!-- Node7 -->
<g id="node7" class="node"><title>Node7</title>
<g id="a_node7"><a xlink:href="smtp_8c.html#aab92e8e8b5c03b33b4250fd8af7599aa" target="_top" xlink:title="Do any addresses use Unicode. ">
<polygon fill="white" stroke="black" points="284,-57.5 284,-76.5 400,-76.5 400,-57.5 284,-57.5"/>
<text text-anchor="middle" x="342" y="-64.5" font-family="Helvetica,sans-Serif" font-size="10.00">address_uses_unicode</text>
</a>
</g>
</g>
<!-- Node1&#45;&gt;Node7 -->
<g id="edge6" class="edge"><title>Node1&#45;&gt;Node7</title>
<path fill="none" stroke="midnightblue" d="M52.9286,-171.46C65.4755,-154.963 93.6757,-121.312 126,-105 171.993,-81.7901 229.751,-72.5141 273.818,-68.9187"/>
<polygon fill="midnightblue" stroke="midnightblue" points="274.139,-72.4046 283.854,-68.178 273.624,-65.4236 274.139,-72.4046"/>
</g>
<!-- Node8 -->
<g id="node8" class="node"><title>Node8</title>
<g id="a_node8"><a xlink:href="smtp_8c.html#a6f0b393d189f05eba133aa1e6257397a" target="_top" xlink:title="Do any of a list of addresses use Unicode. ">
<polygon fill="white" stroke="black" points="126,-38.5 126,-57.5 248,-57.5 248,-38.5 126,-38.5"/>
<text text-anchor="middle" x="187" y="-45.5" font-family="Helvetica,sans-Serif" font-size="10.00">addresses_use_unicode</text>
</a>
</g>
</g>
<!-- Node1&#45;&gt;Node8 -->
<g id="edge7" class="edge"><title>Node1&#45;&gt;Node8</title>
<path fill="none" stroke="midnightblue" d="M50.6397,-171.45C61.2141,-150.603 89.0713,-100.606 126,-72 131.18,-67.9872 137.12,-64.5562 143.203,-61.6504"/>
<polygon fill="midnightblue" stroke="midnightblue" points="144.999,-64.6872 152.791,-57.5083 142.223,-58.2612 144.999,-64.6872"/>
</g>
<!-- Node9 -->
<g id="node9" class="node"><title>Node9</title>
<g id="a_node9"><a xlink:href="smtp_8c.html#a7187b7e356650176ee469577ac3a287c" target="_top" xlink:title="Set the recipient to an Address. ">
<polygon fill="white" stroke="black" points="150,-152.5 150,-171.5 224,-171.5 224,-152.5 150,-152.5"/>
<text text-anchor="middle" x="187" y="-159.5" font-family="Helvetica,sans-Serif" font-size="10.00">smtp_rcpt_to</text>
</a>
</g>
</g>
<!-- Node1&#45;&gt;Node9 -->
<g id="edge10" class="edge"><title>Node1&#45;&gt;Node9</title>
<path fill="none" stroke="midnightblue" d="M89.5295,-175.092C105.332,-172.948 123.246,-170.517 139.31,-168.336"/>
<polygon fill="midnightblue" stroke="midnightblue" points="140.121,-171.759 149.559,-166.946 139.179,-164.822 140.121,-171.759"/>
</g>
<!-- Node10 -->
<g id="node10" class="node"><title>Node10</title>
<g id="a_node10"><a xlink:href="smtp_8c.html#a4787e69b95165544ddbc914c5d1bdafe" target="_top" xlink:title="Send data to an SMTP server. ">
<polygon fill="white" stroke="red" points="156,-114.5 156,-133.5 218,-133.5 218,-114.5 156,-114.5"/>
<text text-anchor="middle" x="187" y="-121.5" font-family="Helvetica,sans-Serif" font-size="10.00">smtp_data</text>
</a>
</g>
</g>
<!-- Node1&#45;&gt;Node10 -->
<g id="edge12" class="edge"><title>Node1&#45;&gt;Node10</title>
<path fill="none" stroke="midnightblue" d="M64.4316,-171.359C80.4448,-163.198 104.396,-151.505 126,-143 132.421,-140.472 139.326,-138.035 146.084,-135.798"/>
<polygon fill="midnightblue" stroke="midnightblue" points="147.358,-139.065 155.809,-132.676 145.218,-132.4 147.358,-139.065"/>
</g>
<!-- Node11 -->
<g id="node11" class="node"><title>Node11</title>
<g id="a_node11"><a xlink:href="socket_8c.html#a432eed609a221c68f457302d6e40c383" target="_top" xlink:title="Close a socket. ">
<polygon fill="white" stroke="black" points="137.5,-0.5 137.5,-19.5 236.5,-19.5 236.5,-0.5 137.5,-0.5"/>
<text text-anchor="middle" x="187" y="-7.5" font-family="Helvetica,sans-Serif" font-size="10.00">mutt_socket_close</text>
</a>
</g>
</g>
<!-- Node1&#45;&gt;Node11 -->
<g id="edge14" class="edge"><title>Node1&#45;&gt;Node11</title>
<path fill="none" stroke="midnightblue" d="M48.3645,-171.17C55.3448,-144.266 78.4194,-68.7925 126,-29 128.017,-27.3133 130.185,-25.7758 132.457,-24.3744"/>
<polygon fill="midnightblue" stroke="midnightblue" points="134.374,-27.323 141.644,-19.6157 131.155,-21.1074 134.374,-27.323"/>
</g>
<!-- Node4&#45;&gt;Node5 -->
<g id="edge4" class="edge"><title>Node4&#45;&gt;Node5</title>
<path fill="none" stroke="midnightblue" d="M214.009,-266.442C224.677,-262.304 237.064,-257.218 248,-252 271.852,-240.62 298.045,-225.747 316.538,-214.824"/>
<polygon fill="midnightblue" stroke="midnightblue" points="318.404,-217.786 325.204,-209.661 314.822,-211.773 318.404,-217.786"/>
</g>
<!-- Node8&#45;&gt;Node7 -->
<g id="edge8" class="edge"><title>Node8&#45;&gt;Node7</title>
<path fill="none" stroke="midnightblue" d="M248.031,-55.4548C256.455,-56.5009 265.159,-57.5818 273.707,-58.6433"/>
<polygon fill="midnightblue" stroke="midnightblue" points="273.289,-62.1183 283.644,-59.8774 274.152,-55.1716 273.289,-62.1183"/>
</g>
<!-- Node9&#45;&gt;Node5 -->
<g id="edge11" class="edge"><title>Node9&#45;&gt;Node5</title>
<path fill="none" stroke="midnightblue" d="M224.259,-171.005C244.719,-176.087 270.549,-182.502 292.707,-188.006"/>
<polygon fill="midnightblue" stroke="midnightblue" points="292.048,-191.448 302.597,-190.462 293.735,-184.655 292.048,-191.448"/>
</g>
<!-- Node10&#45;&gt;Node5 -->
<g id="edge13" class="edge"><title>Node10&#45;&gt;Node5</title>
<path fill="none" stroke="midnightblue" d="M218.14,-131.977C227.86,-134.961 238.557,-138.689 248,-143 273.76,-154.76 301.156,-172.229 319.489,-184.725"/>
<polygon fill="midnightblue" stroke="midnightblue" points="317.498,-187.604 327.714,-190.414 321.48,-181.847 317.498,-187.604"/>
</g>
</g>
</svg>
