<?xml version="1.0" encoding="UTF-8" standalone="no"?>
<!DOCTYPE svg PUBLIC "-//W3C//DTD SVG 1.1//EN"
 "http://www.w3.org/Graphics/SVG/1.1/DTD/svg11.dtd">
<!-- Generated by graphviz version 2.36.0 (20140111.2315)
 -->
<!-- Title: smtp_auth Pages: 1 -->
<svg width="232pt" height="104pt"
 viewBox="0.00 0.00 232.00 104.00" xmlns="http://www.w3.org/2000/svg" xmlns:xlink="http://www.w3.org/1999/xlink">
<g id="graph0" class="graph" transform="scale(1 1) rotate(0) translate(4 100)">
<title>smtp_auth</title>
<polygon fill="white" stroke="none" points="-4,4 -4,-100 228,-100 228,4 -4,4"/>
<!-- Node1 -->
<g id="node1" class="node"><title>Node1</title>
<polygon fill="#bfbfbf" stroke="black" points="0,-38.5 0,-57.5 62,-57.5 62,-38.5 0,-38.5"/>
<text text-anchor="middle" x="31" y="-45.5" font-family="Helvetica,sans-Serif" font-size="10.00">smtp_auth</text>
</g>
<!-- Node2 -->
<g id="node2" class="node"><title>Node2</title>
<g id="a_node2"><a xlink:href="mutt_2string_8c.html#ae48085384a6545e0fac589a88243ea31" target="_top" xlink:title="Copy a string, safely. ">
<polygon fill="white" stroke="red" points="118.5,-76.5 118.5,-95.5 203.5,-95.5 203.5,-76.5 118.5,-76.5"/>
<text text-anchor="middle" x="161" y="-83.5" font-family="Helvetica,sans-Serif" font-size="10.00">mutt_str_strdup</text>
</a>
</g>
</g>
<!-- Node1&#45;&gt;Node2 -->
<g id="edge1" class="edge"><title>Node1&#45;&gt;Node2</title>
<path fill="none" stroke="midnightblue" d="M62.0103,-56.9093C78.7966,-61.8927 99.9777,-68.1809 118.349,-73.6349"/>
<polygon fill="midnightblue" stroke="midnightblue" points="117.358,-76.9915 127.94,-76.4822 119.35,-70.2809 117.358,-76.9915"/>
</g>
<!-- Node3 -->
<g id="node3" class="node"><title>Node3</title>
<g id="a_node3"><a xlink:href="smtp_8c.html#a4aa2b2050276890e734bc568f67d482a" target="_top" xlink:title="Authenticate using SASL. ">
<polygon fill="white" stroke="red" points="118,-38.5 118,-57.5 204,-57.5 204,-38.5 118,-38.5"/>
<text text-anchor="middle" x="161" y="-45.5" font-family="Helvetica,sans-Serif" font-size="10.00">smtp_auth_sasl</text>
</a>
</g>
</g>
<!-- Node1&#45;&gt;Node3 -->
<g id="edge2" class="edge"><title>Node1&#45;&gt;Node3</title>
<path fill="none" stroke="midnightblue" d="M62.0103,-48C75.5881,-48 92.0411,-48 107.557,-48"/>
<polygon fill="midnightblue" stroke="midnightblue" points="107.578,-51.5001 117.578,-48 107.578,-44.5001 107.578,-51.5001"/>
</g>
<!-- Node4 -->
<g id="node4" class="node"><title>Node4</title>
<g id="a_node4"><a xlink:href="mutt__account_8c.html#a7ae7055aa5e6d34e487261483f0b369a" target="_top" xlink:title="Unset Account&#39;s password. ">
<polygon fill="white" stroke="black" points="98,-0.5 98,-19.5 224,-19.5 224,-0.5 98,-0.5"/>
<text text-anchor="middle" x="161" y="-7.5" font-family="Helvetica,sans-Serif" font-size="10.00">mutt_account_unsetpass</text>
</a>
</g>
</g>
<!-- Node1&#45;&gt;Node4 -->
<g id="edge3" class="edge"><title>Node1&#45;&gt;Node4</title>
<path fill="none" stroke="midnightblue" d="M62.0103,-39.0907C78.7966,-34.1073 99.9777,-27.8191 118.349,-22.3651"/>
<polygon fill="midnightblue" stroke="midnightblue" points="119.35,-25.7191 127.94,-19.5178 117.358,-19.0085 119.35,-25.7191"/>
</g>
</g>
</svg>
