<?xml version="1.0" encoding="UTF-8" standalone="no"?>
<!DOCTYPE svg PUBLIC "-//W3C//DTD SVG 1.1//EN"
 "http://www.w3.org/Graphics/SVG/1.1/DTD/svg11.dtd">
<!-- Generated by graphviz version 2.36.0 (20140111.2315)
 -->
<!-- Title: raw_socket_poll Pages: 1 -->
<svg width="380pt" height="85pt"
 viewBox="0.00 0.00 380.00 85.00" xmlns="http://www.w3.org/2000/svg" xmlns:xlink="http://www.w3.org/1999/xlink">
<g id="graph0" class="graph" transform="scale(1 1) rotate(0) translate(4 81)">
<title>raw_socket_poll</title>
<polygon fill="white" stroke="none" points="-4,4 -4,-81 376,-81 376,4 -4,4"/>
<!-- Node1 -->
<g id="node1" class="node"><title>Node1</title>
<polygon fill="#bfbfbf" stroke="black" points="0.5,-38.5 0.5,-57.5 87.5,-57.5 87.5,-38.5 0.5,-38.5"/>
<text text-anchor="middle" x="44" y="-45.5" font-family="Helvetica,sans-Serif" font-size="10.00">raw_socket_poll</text>
</g>
<!-- Node2 -->
<g id="node2" class="node"><title>Node2</title>
<g id="a_node2"><a xlink:href="socket_8h.html#a1e3195d6b1472777b64d1d9633e3b2cc" target="_top" xlink:title="allocate and initialise a new connection ">
<polygon fill="white" stroke="red" points="278,-57.5 278,-76.5 372,-76.5 372,-57.5 278,-57.5"/>
<text text-anchor="middle" x="325" y="-64.5" font-family="Helvetica,sans-Serif" font-size="10.00">mutt_socket_new</text>
</a>
</g>
</g>
<!-- Node1&#45;&gt;Node2 -->
<g id="edge1" class="edge"><title>Node1&#45;&gt;Node2</title>
<path fill="none" stroke="midnightblue" d="M86.6908,-59.9695C98.6353,-62.8673 111.743,-65.5467 124,-67 176.411,-73.214 237.091,-72.0488 277.745,-70.0766"/>
<polygon fill="midnightblue" stroke="midnightblue" points="87.5286,-56.5713 76.9751,-57.5063 85.8083,-63.3566 87.5286,-56.5713"/>
</g>
<!-- Node3 -->
<g id="node3" class="node"><title>Node3</title>
<g id="a_node3"><a xlink:href="ssl_8h.html#ae6341b74ebed0751e68285e6bf379fab" target="_top" xlink:title="Set up the socket multiplexor. ">
<polygon fill="white" stroke="black" points="124,-38.5 124,-57.5 242,-57.5 242,-38.5 124,-38.5"/>
<text text-anchor="middle" x="183" y="-45.5" font-family="Helvetica,sans-Serif" font-size="10.00">mutt_ssl_socket_setup</text>
</a>
</g>
</g>
<!-- Node1&#45;&gt;Node3 -->
<g id="edge2" class="edge"><title>Node1&#45;&gt;Node3</title>
<path fill="none" stroke="midnightblue" d="M97.7882,-48C106.314,-48 115.184,-48 123.828,-48"/>
<polygon fill="midnightblue" stroke="midnightblue" points="97.5967,-44.5001 87.5967,-48 97.5966,-51.5001 97.5967,-44.5001"/>
</g>
<!-- Node4 -->
<g id="node4" class="node"><title>Node4</title>
<g id="a_node4"><a xlink:href="tunnel_8c.html#aef546927ab07168c0f1d85ecbd202bf6" target="_top" xlink:title="Checks whether tunnel reads would block. ">
<polygon fill="white" stroke="red" points="134,-0.5 134,-19.5 232,-19.5 232,-0.5 134,-0.5"/>
<text text-anchor="middle" x="183" y="-7.5" font-family="Helvetica,sans-Serif" font-size="10.00">tunnel_socket_poll</text>
</a>
</g>
</g>
<!-- Node1&#45;&gt;Node4 -->
<g id="edge4" class="edge"><title>Node1&#45;&gt;Node4</title>
<path fill="none" stroke="midnightblue" d="M89.4108,-35.6817C108.234,-30.4607 129.838,-24.4684 147.44,-19.5859"/>
<polygon fill="midnightblue" stroke="midnightblue" points="88.2716,-32.3654 79.5709,-38.411 90.1426,-39.1108 88.2716,-32.3654"/>
</g>
<!-- Node3&#45;&gt;Node2 -->
<g id="edge3" class="edge"><title>Node3&#45;&gt;Node2</title>
<path fill="none" stroke="midnightblue" d="M252.251,-57.2627C260.891,-58.4352 269.567,-59.6126 277.751,-60.7234"/>
<polygon fill="midnightblue" stroke="midnightblue" points="252.536,-53.7693 242.156,-55.8926 251.595,-60.7058 252.536,-53.7693"/>
</g>
</g>
</svg>
