<?xml version="1.0" encoding="UTF-8" standalone="no"?>
<!DOCTYPE svg PUBLIC "-//W3C//DTD SVG 1.1//EN"
 "http://www.w3.org/Graphics/SVG/1.1/DTD/svg11.dtd">
<!-- Generated by graphviz version 2.36.0 (20140111.2315)
 -->
<!-- Title: mutt_socket_readchar Pages: 1 -->
<svg width="272pt" height="66pt"
 viewBox="0.00 0.00 272.00 66.00" xmlns="http://www.w3.org/2000/svg" xmlns:xlink="http://www.w3.org/1999/xlink">
<g id="graph0" class="graph" transform="scale(1 1) rotate(0) translate(4 62)">
<title>mutt_socket_readchar</title>
<polygon fill="white" stroke="none" points="-4,4 -4,-62 268,-62 268,4 -4,4"/>
<!-- Node1 -->
<g id="node1" class="node"><title>Node1</title>
<polygon fill="#bfbfbf" stroke="black" points="0.5,-19.5 0.5,-38.5 113.5,-38.5 113.5,-19.5 0.5,-19.5"/>
<text text-anchor="middle" x="57" y="-26.5" font-family="Helvetica,sans-Serif" font-size="10.00">mutt_socket_readchar</text>
</g>
<!-- Node2 -->
<g id="node2" class="node"><title>Node2</title>
<g id="a_node2"><a xlink:href="socket_8h.html#af3cf9e32b156de3acf7902b59db117f9" target="_top" xlink:title="Read a line from a socket. ">
<polygon fill="white" stroke="red" points="150.5,-38.5 150.5,-57.5 263.5,-57.5 263.5,-38.5 150.5,-38.5"/>
<text text-anchor="middle" x="207" y="-45.5" font-family="Helvetica,sans-Serif" font-size="10.00">mutt_socket_readln_d</text>
</a>
</g>
</g>
<!-- Node1&#45;&gt;Node2 -->
<g id="edge1" class="edge"><title>Node1&#45;&gt;Node2</title>
<path fill="none" stroke="midnightblue" d="M123.481,-37.4063C132.381,-38.549 141.449,-39.713 150.158,-40.8311"/>
<polygon fill="midnightblue" stroke="midnightblue" points="123.895,-33.9309 113.531,-36.129 123.004,-40.8739 123.895,-33.9309"/>
</g>
<!-- Node3 -->
<g id="node3" class="node"><title>Node3</title>
<g id="a_node3"><a xlink:href="imap__private_8h.html#ade65c451a15dc3b4281f9289953c3812" target="_top" xlink:title="Read bytes bytes from server into file. ">
<polygon fill="white" stroke="red" points="162,-0.5 162,-19.5 252,-19.5 252,-0.5 162,-0.5"/>
<text text-anchor="middle" x="207" y="-7.5" font-family="Helvetica,sans-Serif" font-size="10.00">imap_read_literal</text>
</a>
</g>
</g>
<!-- Node1&#45;&gt;Node3 -->
<g id="edge2" class="edge"><title>Node1&#45;&gt;Node3</title>
<path fill="none" stroke="midnightblue" d="M123.733,-20.5613C136.581,-18.9119 149.766,-17.2192 161.713,-15.6855"/>
<polygon fill="midnightblue" stroke="midnightblue" points="123.004,-17.1261 113.531,-21.871 123.895,-24.0691 123.004,-17.1261"/>
</g>
</g>
</svg>
