<?xml version="1.0" encoding="UTF-8" standalone="no"?>
<!DOCTYPE svg PUBLIC "-//W3C//DTD SVG 1.1//EN"
 "http://www.w3.org/Graphics/SVG/1.1/DTD/svg11.dtd">
<!-- Generated by graphviz version 2.36.0 (20140111.2315)
 -->
<!-- Title: raw_socket_open Pages: 1 -->
<svg width="250pt" height="66pt"
 viewBox="0.00 0.00 250.00 66.00" xmlns="http://www.w3.org/2000/svg" xmlns:xlink="http://www.w3.org/1999/xlink">
<g id="graph0" class="graph" transform="scale(1 1) rotate(0) translate(4 62)">
<title>raw_socket_open</title>
<polygon fill="white" stroke="none" points="-4,4 -4,-62 246,-62 246,4 -4,4"/>
<!-- Node1 -->
<g id="node1" class="node"><title>Node1</title>
<polygon fill="#bfbfbf" stroke="black" points="0.5,-19.5 0.5,-38.5 93.5,-38.5 93.5,-19.5 0.5,-19.5"/>
<text text-anchor="middle" x="47" y="-26.5" font-family="Helvetica,sans-Serif" font-size="10.00">raw_socket_open</text>
</g>
<!-- Node2 -->
<g id="node2" class="node"><title>Node2</title>
<g id="a_node2"><a xlink:href="idna2_8h.html#ac9bf116b1719a977104fb894c52e1f49" target="_top" xlink:title="mutt_idna_to_ascii_lz">
<polygon fill="white" stroke="black" points="130.5,-38.5 130.5,-57.5 241.5,-57.5 241.5,-38.5 130.5,-38.5"/>
<text text-anchor="middle" x="186" y="-45.5" font-family="Helvetica,sans-Serif" font-size="10.00">mutt_idna_to_ascii_lz</text>
</a>
</g>
</g>
<!-- Node1&#45;&gt;Node2 -->
<g id="edge1" class="edge"><title>Node1&#45;&gt;Node2</title>
<path fill="none" stroke="midnightblue" d="M93.619,-35.3267C102.102,-36.5032 111.114,-37.7531 120.046,-38.9918"/>
<polygon fill="midnightblue" stroke="midnightblue" points="119.677,-42.474 130.063,-40.381 120.639,-35.5404 119.677,-42.474"/>
</g>
<!-- Node3 -->
<g id="node3" class="node"><title>Node3</title>
<g id="a_node3"><a xlink:href="conn__raw_8c.html#a2ccc15b62b68a8fe2ce29e3c0e77911b" target="_top" xlink:title="set up to connect to a socket fd ">
<polygon fill="white" stroke="red" points="143,-0.5 143,-19.5 229,-19.5 229,-0.5 143,-0.5"/>
<text text-anchor="middle" x="186" y="-7.5" font-family="Helvetica,sans-Serif" font-size="10.00">socket_connect</text>
</a>
</g>
</g>
<!-- Node1&#45;&gt;Node3 -->
<g id="edge2" class="edge"><title>Node1&#45;&gt;Node3</title>
<path fill="none" stroke="midnightblue" d="M93.619,-22.6733C106.149,-20.9356 119.832,-19.0379 132.705,-17.2525"/>
<polygon fill="midnightblue" stroke="midnightblue" points="133.394,-20.6906 142.818,-15.85 132.432,-13.757 133.394,-20.6906"/>
</g>
</g>
</svg>
