<?xml version="1.0" encoding="UTF-8" standalone="no"?>
<!DOCTYPE svg PUBLIC "-//W3C//DTD SVG 1.1//EN"
 "http://www.w3.org/Graphics/SVG/1.1/DTD/svg11.dtd">
<!-- Generated by graphviz version 2.36.0 (20140111.2315)
 -->
<!-- Title: mutt_socket_readln_d Pages: 1 -->
<svg width="246pt" height="104pt"
 viewBox="0.00 0.00 246.00 104.00" xmlns="http://www.w3.org/2000/svg" xmlns:xlink="http://www.w3.org/1999/xlink">
<g id="graph0" class="graph" transform="scale(1 1) rotate(0) translate(4 100)">
<title>mutt_socket_readln_d</title>
<polygon fill="white" stroke="none" points="-4,4 -4,-100 242,-100 242,4 -4,4"/>
<!-- Node1 -->
<g id="node1" class="node"><title>Node1</title>
<polygon fill="#bfbfbf" stroke="black" points="0.5,-38.5 0.5,-57.5 113.5,-57.5 113.5,-38.5 0.5,-38.5"/>
<text text-anchor="middle" x="57" y="-45.5" font-family="Helvetica,sans-Serif" font-size="10.00">mutt_socket_readln_d</text>
</g>
<!-- Node2 -->
<g id="node2" class="node"><title>Node2</title>
<g id="a_node2"><a xlink:href="nntp_8c.html#aedcf4307ed69f367cbfad56e292a1f63" target="_top" xlink:title="Get login, password and authenticate. ">
<polygon fill="white" stroke="red" points="164.5,-76.5 164.5,-95.5 223.5,-95.5 223.5,-76.5 164.5,-76.5"/>
<text text-anchor="middle" x="194" y="-83.5" font-family="Helvetica,sans-Serif" font-size="10.00">nntp_auth</text>
</a>
</g>
</g>
<!-- Node1&#45;&gt;Node2 -->
<g id="edge1" class="edge"><title>Node1&#45;&gt;Node2</title>
<path fill="none" stroke="midnightblue" d="M101.839,-60.3398C122.374,-66.1202 146.255,-72.8421 164.422,-77.9557"/>
<polygon fill="midnightblue" stroke="midnightblue" points="102.64,-56.9295 92.0662,-57.589 100.744,-63.6677 102.64,-56.9295"/>
</g>
<!-- Node3 -->
<g id="node3" class="node"><title>Node3</title>
<g id="a_node3"><a xlink:href="nntp_8c.html#ab63eaf4bb85b02c391743d69f052d5eb" target="_top" xlink:title="Read lines, calling a callback function for each. ">
<polygon fill="white" stroke="red" points="150,-38.5 150,-57.5 238,-57.5 238,-38.5 150,-38.5"/>
<text text-anchor="middle" x="194" y="-45.5" font-family="Helvetica,sans-Serif" font-size="10.00">nntp_fetch_lines</text>
</a>
</g>
</g>
<!-- Node1&#45;&gt;Node3 -->
<g id="edge2" class="edge"><title>Node1&#45;&gt;Node3</title>
<path fill="none" stroke="midnightblue" d="M123.949,-48C132.734,-48 141.553,-48 149.812,-48"/>
<polygon fill="midnightblue" stroke="midnightblue" points="123.689,-44.5001 113.689,-48 123.689,-51.5001 123.689,-44.5001"/>
</g>
<!-- Node4 -->
<g id="node4" class="node"><title>Node4</title>
<g id="a_node4"><a xlink:href="pop__private_8h.html#ac904f3343289681bd5500b928cc243e9" target="_top" xlink:title="Read Headers with callback function. ">
<polygon fill="white" stroke="red" points="152.5,-0.5 152.5,-19.5 235.5,-19.5 235.5,-0.5 152.5,-0.5"/>
<text text-anchor="middle" x="194" y="-7.5" font-family="Helvetica,sans-Serif" font-size="10.00">pop_fetch_data</text>
</a>
</g>
</g>
<!-- Node1&#45;&gt;Node4 -->
<g id="edge3" class="edge"><title>Node1&#45;&gt;Node4</title>
<path fill="none" stroke="midnightblue" d="M101.762,-35.6817C120.311,-30.4607 141.599,-24.4684 158.945,-19.5859"/>
<polygon fill="midnightblue" stroke="midnightblue" points="100.744,-32.3323 92.0662,-38.411 102.64,-39.0705 100.744,-32.3323"/>
</g>
</g>
</svg>
