<?xml version="1.0" encoding="UTF-8" standalone="no"?>
<!DOCTYPE svg PUBLIC "-//W3C//DTD SVG 1.1//EN"
 "http://www.w3.org/Graphics/SVG/1.1/DTD/svg11.dtd">
<!-- Generated by graphviz version 2.36.0 (20140111.2315)
 -->
<!-- Title: mutt_socket_open Pages: 1 -->
<svg width="258pt" height="142pt"
 viewBox="0.00 0.00 258.00 142.00" xmlns="http://www.w3.org/2000/svg" xmlns:xlink="http://www.w3.org/1999/xlink">
<g id="graph0" class="graph" transform="scale(1 1) rotate(0) translate(4 138)">
<title>mutt_socket_open</title>
<polygon fill="white" stroke="none" points="-4,4 -4,-138 254,-138 254,4 -4,4"/>
<!-- Node1 -->
<g id="node1" class="node"><title>Node1</title>
<polygon fill="#bfbfbf" stroke="black" points="0.5,-57.5 0.5,-76.5 97.5,-76.5 97.5,-57.5 0.5,-57.5"/>
<text text-anchor="middle" x="49" y="-64.5" font-family="Helvetica,sans-Serif" font-size="10.00">mutt_socket_open</text>
</g>
<!-- Node2 -->
<g id="node2" class="node"><title>Node2</title>
<g id="a_node2"><a xlink:href="imap__private_8h.html#ab37d302c150ffd48994b7f88c735e020" target="_top" xlink:title="Open an IMAP connection. ">
<polygon fill="white" stroke="red" points="134,-114.5 134,-133.5 250,-133.5 250,-114.5 134,-114.5"/>
<text text-anchor="middle" x="192" y="-121.5" font-family="Helvetica,sans-Serif" font-size="10.00">imap_open_connection</text>
</a>
</g>
</g>
<!-- Node1&#45;&gt;Node2 -->
<g id="edge1" class="edge"><title>Node1&#45;&gt;Node2</title>
<path fill="none" stroke="midnightblue" d="M79.143,-81.0775C95.1621,-88.5879 115.487,-97.7492 134,-105 142.45,-108.31 151.74,-111.564 160.323,-114.419"/>
<polygon fill="midnightblue" stroke="midnightblue" points="80.3161,-77.7605 69.78,-76.6463 77.3216,-84.0877 80.3161,-77.7605"/>
</g>
<!-- Node3 -->
<g id="node3" class="node"><title>Node3</title>
<g id="a_node3"><a xlink:href="nntp__private_8h.html#a864c34fdab5ddf5d793c021bbfc57d0e" target="_top" xlink:title="Connect to server, authenticate and get capabilities. ">
<polygon fill="white" stroke="red" points="135,-76.5 135,-95.5 249,-95.5 249,-76.5 135,-76.5"/>
<text text-anchor="middle" x="192" y="-83.5" font-family="Helvetica,sans-Serif" font-size="10.00">nntp_open_connection</text>
</a>
</g>
</g>
<!-- Node1&#45;&gt;Node3 -->
<g id="edge2" class="edge"><title>Node1&#45;&gt;Node3</title>
<path fill="none" stroke="midnightblue" d="M107.906,-74.8029C116.704,-75.9884 125.772,-77.2104 134.538,-78.3917"/>
<polygon fill="midnightblue" stroke="midnightblue" points="108.114,-71.2994 97.7362,-73.4325 107.179,-78.2367 108.114,-71.2994"/>
</g>
<!-- Node4 -->
<g id="node4" class="node"><title>Node4</title>
<g id="a_node4"><a xlink:href="pop__private_8h.html#a0f40c74560784c4b32de155263463631" target="_top" xlink:title="Open connection. ">
<polygon fill="white" stroke="red" points="156,-38.5 156,-57.5 228,-57.5 228,-38.5 156,-38.5"/>
<text text-anchor="middle" x="192" y="-45.5" font-family="Helvetica,sans-Serif" font-size="10.00">pop_connect</text>
</a>
</g>
</g>
<!-- Node1&#45;&gt;Node4 -->
<g id="edge3" class="edge"><title>Node1&#45;&gt;Node4</title>
<path fill="none" stroke="midnightblue" d="M107.727,-59.2211C124.021,-57.0255 141.257,-54.7029 155.795,-52.744"/>
<polygon fill="midnightblue" stroke="midnightblue" points="107.179,-55.7633 97.7362,-60.5675 108.114,-62.7006 107.179,-55.7633"/>
</g>
<!-- Node5 -->
<g id="node5" class="node"><title>Node5</title>
<g id="a_node5"><a xlink:href="smtp_8c.html#a219902e5bbdd76be27f74fc559ebb09c" target="_top" xlink:title="Open an SMTP Connection. ">
<polygon fill="white" stroke="red" points="159.5,-0.5 159.5,-19.5 224.5,-19.5 224.5,-0.5 159.5,-0.5"/>
<text text-anchor="middle" x="192" y="-7.5" font-family="Helvetica,sans-Serif" font-size="10.00">smtp_open</text>
</a>
</g>
</g>
<!-- Node1&#45;&gt;Node5 -->
<g id="edge4" class="edge"><title>Node1&#45;&gt;Node5</title>
<path fill="none" stroke="midnightblue" d="M79.143,-52.9225C95.1621,-45.4121 115.487,-36.2508 134,-29 142.45,-25.6905 151.74,-22.436 160.323,-19.5814"/>
<polygon fill="midnightblue" stroke="midnightblue" points="77.3216,-49.9123 69.78,-57.3537 80.3161,-56.2395 77.3216,-49.9123"/>
</g>
</g>
</svg>
