<?xml version="1.0" encoding="UTF-8" standalone="no"?>
<!DOCTYPE svg PUBLIC "-//W3C//DTD SVG 1.1//EN"
 "http://www.w3.org/Graphics/SVG/1.1/DTD/svg11.dtd">
<!-- Generated by graphviz version 2.36.0 (20140111.2315)
 -->
<!-- Title: mutt_socket_head Pages: 1 -->
<svg width="228pt" height="142pt"
 viewBox="0.00 0.00 228.00 142.00" xmlns="http://www.w3.org/2000/svg" xmlns:xlink="http://www.w3.org/1999/xlink">
<g id="graph0" class="graph" transform="scale(1 1) rotate(0) translate(4 138)">
<title>mutt_socket_head</title>
<polygon fill="white" stroke="none" points="-4,4 -4,-138 224,-138 224,4 -4,4"/>
<!-- Node1 -->
<g id="node1" class="node"><title>Node1</title>
<polygon fill="#bfbfbf" stroke="black" points="0.5,-57.5 0.5,-76.5 97.5,-76.5 97.5,-57.5 0.5,-57.5"/>
<text text-anchor="middle" x="49" y="-64.5" font-family="Helvetica,sans-Serif" font-size="10.00">mutt_socket_head</text>
</g>
<!-- Node2 -->
<g id="node2" class="node"><title>Node2</title>
<g id="a_node2"><a xlink:href="imap_8c.html#ac58d293937015b8560ee115503d199ff" target="_top" xlink:title="Look for completion matches for mailboxes. ">
<polygon fill="white" stroke="red" points="134,-114.5 134,-133.5 220,-133.5 220,-114.5 134,-114.5"/>
<text text-anchor="middle" x="177" y="-121.5" font-family="Helvetica,sans-Serif" font-size="10.00">complete_hosts</text>
</a>
</g>
</g>
<!-- Node1&#45;&gt;Node2 -->
<g id="edge1" class="edge"><title>Node1&#45;&gt;Node2</title>
<path fill="none" stroke="midnightblue" d="M80.411,-80.7574C103.433,-91.1719 134.466,-105.211 154.842,-114.428"/>
<polygon fill="midnightblue" stroke="midnightblue" points="81.6433,-77.4734 71.0896,-76.5405 78.758,-83.8511 81.6433,-77.4734"/>
</g>
<!-- Node3 -->
<g id="node3" class="node"><title>Node3</title>
<g id="a_node3"><a xlink:href="imap_8h.html#ace40ffc72b9f8ed5f315ea2825472773" target="_top" xlink:title="close all open connections ">
<polygon fill="white" stroke="red" points="135,-76.5 135,-95.5 219,-95.5 219,-76.5 135,-76.5"/>
<text text-anchor="middle" x="177" y="-83.5" font-family="Helvetica,sans-Serif" font-size="10.00">imap_logout_all</text>
</a>
</g>
</g>
<!-- Node1&#45;&gt;Node3 -->
<g id="edge2" class="edge"><title>Node1&#45;&gt;Node3</title>
<path fill="none" stroke="midnightblue" d="M107.546,-75.6776C116.772,-77.0688 126.155,-78.4837 134.895,-79.8017"/>
<polygon fill="midnightblue" stroke="midnightblue" points="108.045,-72.2134 97.6352,-74.1831 107.002,-79.1351 108.045,-72.2134"/>
</g>
<!-- Node4 -->
<g id="node4" class="node"><title>Node4</title>
<g id="a_node4"><a xlink:href="util_8c.html#aa06d1239e1beef3cb38a979aad9a651e" target="_top" xlink:title="poll the current folder to keep the connection alive ">
<polygon fill="white" stroke="red" points="135,-38.5 135,-57.5 219,-57.5 219,-38.5 135,-38.5"/>
<text text-anchor="middle" x="177" y="-45.5" font-family="Helvetica,sans-Serif" font-size="10.00">imap_keepalive</text>
</a>
</g>
</g>
<!-- Node1&#45;&gt;Node4 -->
<g id="edge3" class="edge"><title>Node1&#45;&gt;Node4</title>
<path fill="none" stroke="midnightblue" d="M107.546,-58.3224C116.772,-56.9312 126.155,-55.5163 134.895,-54.1983"/>
<polygon fill="midnightblue" stroke="midnightblue" points="107.002,-54.8649 97.6352,-59.8169 108.045,-61.7866 107.002,-54.8649"/>
</g>
<!-- Node5 -->
<g id="node5" class="node"><title>Node5</title>
<g id="a_node5"><a xlink:href="mutt__socket_8h.html#a1562d6bd9d3bfb8dfbae3e2efc81344e" target="_top" xlink:title="Find a connection from a list. ">
<polygon fill="white" stroke="red" points="135.5,-0.5 135.5,-19.5 218.5,-19.5 218.5,-0.5 135.5,-0.5"/>
<text text-anchor="middle" x="177" y="-7.5" font-family="Helvetica,sans-Serif" font-size="10.00">mutt_conn_find</text>
</a>
</g>
</g>
<!-- Node1&#45;&gt;Node5 -->
<g id="edge4" class="edge"><title>Node1&#45;&gt;Node5</title>
<path fill="none" stroke="midnightblue" d="M80.411,-53.2426C103.433,-42.8281 134.466,-28.7892 154.842,-19.5716"/>
<polygon fill="midnightblue" stroke="midnightblue" points="78.758,-50.1489 71.0896,-57.4595 81.6433,-56.5266 78.758,-50.1489"/>
</g>
</g>
</svg>
