<?xml version="1.0" encoding="UTF-8" standalone="no"?>
<!DOCTYPE svg PUBLIC "-//W3C//DTD SVG 1.1//EN"
 "http://www.w3.org/Graphics/SVG/1.1/DTD/svg11.dtd">
<!-- Generated by graphviz version 2.36.0 (20140111.2315)
 -->
<!-- Title: mutt_get_sort_func Pages: 1 -->
<svg width="388pt" height="142pt"
 viewBox="0.00 0.00 388.00 142.00" xmlns="http://www.w3.org/2000/svg" xmlns:xlink="http://www.w3.org/1999/xlink">
<g id="graph0" class="graph" transform="scale(1 1) rotate(0) translate(4 138)">
<title>mutt_get_sort_func</title>
<polygon fill="white" stroke="none" points="-4,4 -4,-138 384,-138 384,4 -4,4"/>
<!-- Node1 -->
<g id="node1" class="node"><title>Node1</title>
<polygon fill="#bfbfbf" stroke="black" points="0.5,-57.5 0.5,-76.5 101.5,-76.5 101.5,-57.5 0.5,-57.5"/>
<text text-anchor="middle" x="51" y="-64.5" font-family="Helvetica,sans-Serif" font-size="10.00">mutt_get_sort_func</text>
</g>
<!-- Node2 -->
<g id="node2" class="node"><title>Node2</title>
<g id="a_node2"><a xlink:href="sort_8h.html#aa99d4b590a29f24c0950934c15be6a83" target="_top" xlink:title="Sort emails by their headers. ">
<polygon fill="white" stroke="red" points="140,-114.5 140,-133.5 238,-133.5 238,-114.5 140,-114.5"/>
<text text-anchor="middle" x="189" y="-121.5" font-family="Helvetica,sans-Serif" font-size="10.00">mutt_sort_headers</text>
</a>
</g>
</g>
<!-- Node1&#45;&gt;Node2 -->
<g id="edge1" class="edge"><title>Node1&#45;&gt;Node2</title>
<path fill="none" stroke="midnightblue" d="M81.8604,-80.6592C98.328,-88.0744 119.192,-97.2777 138,-105 145.817,-108.21 154.395,-111.538 162.204,-114.496"/>
<polygon fill="midnightblue" stroke="midnightblue" points="83.2751,-77.4578 72.7214,-76.5247 80.3897,-83.8355 83.2751,-77.4578"/>
</g>
<!-- Node3 -->
<g id="node3" class="node"><title>Node3</title>
<g id="a_node3"><a xlink:href="imap__private_8h.html#a2bae6acd3890e57adee0c83207910f03" target="_top" xlink:title="Prepare commands for all messages matching conditions. ">
<polygon fill="white" stroke="red" points="138.5,-76.5 138.5,-95.5 239.5,-95.5 239.5,-76.5 138.5,-76.5"/>
<text text-anchor="middle" x="189" y="-83.5" font-family="Helvetica,sans-Serif" font-size="10.00">imap_exec_msgset</text>
</a>
</g>
</g>
<!-- Node1&#45;&gt;Node3 -->
<g id="edge2" class="edge"><title>Node1&#45;&gt;Node3</title>
<path fill="none" stroke="midnightblue" d="M112,-75.3823C120.729,-76.6019 129.637,-77.8463 138.137,-79.0338"/>
<polygon fill="midnightblue" stroke="midnightblue" points="112.257,-71.8844 101.869,-73.967 111.289,-78.8171 112.257,-71.8844"/>
</g>
<!-- Node4 -->
<g id="node4" class="node"><title>Node4</title>
<g id="a_node4"><a xlink:href="imap_8h.html#a392ece8a94e3559d3040273a3bc514d0" target="_top" xlink:title="Sync all the changes to the server. ">
<polygon fill="white" stroke="red" points="276.5,-57.5 276.5,-76.5 379.5,-76.5 379.5,-57.5 276.5,-57.5"/>
<text text-anchor="middle" x="328" y="-64.5" font-family="Helvetica,sans-Serif" font-size="10.00">imap_sync_mailbox</text>
</a>
</g>
</g>
<!-- Node1&#45;&gt;Node4 -->
<g id="edge4" class="edge"><title>Node1&#45;&gt;Node4</title>
<path fill="none" stroke="midnightblue" d="M111.964,-67C161.059,-67 229.746,-67 276.174,-67"/>
<polygon fill="midnightblue" stroke="midnightblue" points="111.8,-63.5001 101.8,-67 111.8,-70.5001 111.8,-63.5001"/>
</g>
<!-- Node5 -->
<g id="node5" class="node"><title>Node5</title>
<g id="a_node5"><a xlink:href="mutt__thread_8c.html#a5c5653db19101730e47f56bbdffc7d21" target="_top" xlink:title="Sorting function for email threads. ">
<polygon fill="white" stroke="red" points="143,-0.5 143,-19.5 235,-19.5 235,-0.5 143,-0.5"/>
<text text-anchor="middle" x="189" y="-7.5" font-family="Helvetica,sans-Serif" font-size="10.00">compare_threads</text>
</a>
</g>
</g>
<!-- Node1&#45;&gt;Node5 -->
<g id="edge5" class="edge"><title>Node1&#45;&gt;Node5</title>
<path fill="none" stroke="midnightblue" d="M84.1611,-53.5207C109.074,-43.0792 142.973,-28.8715 165.162,-19.5716"/>
<polygon fill="midnightblue" stroke="midnightblue" points="82.6332,-50.3661 74.7633,-57.4595 85.339,-56.822 82.6332,-50.3661"/>
</g>
<!-- Node3&#45;&gt;Node4 -->
<g id="edge3" class="edge"><title>Node3&#45;&gt;Node4</title>
<path fill="none" stroke="midnightblue" d="M249.944,-77.6867C258.646,-76.4797 267.536,-75.2468 276.04,-74.0675"/>
<polygon fill="midnightblue" stroke="midnightblue" points="249.272,-74.2462 239.848,-79.0868 250.234,-81.1798 249.272,-74.2462"/>
</g>
</g>
</svg>
