<?xml version="1.0" encoding="UTF-8" standalone="no"?>
<!DOCTYPE svg PUBLIC "-//W3C//DTD SVG 1.1//EN"
 "http://www.w3.org/Graphics/SVG/1.1/DTD/svg11.dtd">
<!-- Generated by graphviz version 2.36.0 (20140111.2315)
 -->
<!-- Title: mutt_get_sort_func Pages: 1 -->
<svg width="404pt" height="400pt"
 viewBox="0.00 0.00 404.00 399.64" xmlns="http://www.w3.org/2000/svg" xmlns:xlink="http://www.w3.org/1999/xlink">
<g id="graph0" class="graph" transform="scale(1 1) rotate(0) translate(4 395.64)">
<title>mutt_get_sort_func</title>
<polygon fill="white" stroke="none" points="-4,4 -4,-395.64 400,-395.64 400,4 -4,4"/>
<!-- Node1 -->
<g id="node1" class="node"><title>Node1</title>
<polygon fill="#bfbfbf" stroke="black" points="0.5,-190.5 0.5,-209.5 101.5,-209.5 101.5,-190.5 0.5,-190.5"/>
<text text-anchor="middle" x="51" y="-197.5" font-family="Helvetica,sans-Serif" font-size="10.00">mutt_get_sort_func</text>
</g>
<!-- Node2 -->
<g id="node2" class="node"><title>Node2</title>
<g id="a_node2"><a xlink:href="sort_8c.html#a09ee03bee88cb5262f229decf9deb7d2" target="_top" xlink:title="Compare the sent date of two emails &#45; Implements sort_t. ">
<polygon fill="white" stroke="red" points="294,-209.5 294,-228.5 396,-228.5 396,-209.5 294,-209.5"/>
<text text-anchor="middle" x="345" y="-216.5" font-family="Helvetica,sans-Serif" font-size="10.00">compare_date_sent</text>
</a>
</g>
</g>
<!-- Node1&#45;&gt;Node2 -->
<g id="edge1" class="edge"><title>Node1&#45;&gt;Node2</title>
<path fill="none" stroke="midnightblue" d="M53.3641,-209.709C58.2229,-240.144 77.7466,-333.859 138,-371 183.401,-398.986 211.929,-397.868 258,-371 307.631,-342.057 330.907,-272.68 339.652,-238.586"/>
<polygon fill="midnightblue" stroke="midnightblue" points="343.057,-239.394 341.995,-228.852 336.252,-237.755 343.057,-239.394"/>
</g>
<!-- Node3 -->
<g id="node3" class="node"><title>Node3</title>
<g id="a_node3"><a xlink:href="sort_8c.html#af82e3c226b7107de5ac93fcdb2e44c95" target="_top" xlink:title="Compare the &#39;from&#39; fields of two emails &#45; Implements sort_t. ">
<polygon fill="white" stroke="red" points="158.5,-342.5 158.5,-361.5 237.5,-361.5 237.5,-342.5 158.5,-342.5"/>
<text text-anchor="middle" x="198" y="-349.5" font-family="Helvetica,sans-Serif" font-size="10.00">compare_from</text>
</a>
</g>
</g>
<!-- Node1&#45;&gt;Node3 -->
<g id="edge2" class="edge"><title>Node1&#45;&gt;Node3</title>
<path fill="none" stroke="midnightblue" d="M55.5537,-209.648C65.0298,-234.047 93.2686,-298.699 138,-333 141.362,-335.578 145.086,-337.813 148.981,-339.749"/>
<polygon fill="midnightblue" stroke="midnightblue" points="147.718,-343.016 158.288,-343.744 150.48,-336.583 147.718,-343.016"/>
</g>
<!-- Node4 -->
<g id="node4" class="node"><title>Node4</title>
<g id="a_node4"><a xlink:href="sort_8c.html#aa1905fcf29c9728a25c85565b1b714a6" target="_top" xlink:title="Compare the labels of two emails &#45; Implements sort_t. ">
<polygon fill="white" stroke="red" points="158,-304.5 158,-323.5 238,-323.5 238,-304.5 158,-304.5"/>
<text text-anchor="middle" x="198" y="-311.5" font-family="Helvetica,sans-Serif" font-size="10.00">compare_label</text>
</a>
</g>
</g>
<!-- Node1&#45;&gt;Node4 -->
<g id="edge3" class="edge"><title>Node1&#45;&gt;Node4</title>
<path fill="none" stroke="midnightblue" d="M58.1138,-209.603C70.7328,-228.665 101.554,-271.469 138,-295 141.312,-297.139 144.885,-299.054 148.576,-300.767"/>
<polygon fill="midnightblue" stroke="midnightblue" points="147.334,-304.041 157.913,-304.618 150.003,-297.569 147.334,-304.041"/>
</g>
<!-- Node5 -->
<g id="node5" class="node"><title>Node5</title>
<g id="a_node5"><a xlink:href="nntp_8c.html#acf6d685f655accb6d65f8b5c702df262" target="_top" xlink:title="Sort to mailbox order &#45; Implements sort_t. ">
<polygon fill="white" stroke="red" points="145.5,-266.5 145.5,-285.5 250.5,-285.5 250.5,-266.5 145.5,-266.5"/>
<text text-anchor="middle" x="198" y="-273.5" font-family="Helvetica,sans-Serif" font-size="10.00">nntp_compare_order</text>
</a>
</g>
</g>
<!-- Node1&#45;&gt;Node5 -->
<g id="edge4" class="edge"><title>Node1&#45;&gt;Node5</title>
<path fill="none" stroke="midnightblue" d="M64.1734,-209.639C80.2777,-222.011 109.914,-243.487 138,-257 142.609,-259.218 147.541,-261.267 152.516,-263.133"/>
<polygon fill="midnightblue" stroke="midnightblue" points="151.47,-266.475 162.064,-266.495 153.794,-259.873 151.47,-266.475"/>
</g>
<!-- Node6 -->
<g id="node6" class="node"><title>Node6</title>
<g id="a_node6"><a xlink:href="sort_8c.html#a1c7b9b119be11c53e5c008ebf82862d4" target="_top" xlink:title="Restore the &#39;unsorted&#39; order of emails &#45; Implements sort_t. ">
<polygon fill="white" stroke="black" points="157.5,-228.5 157.5,-247.5 238.5,-247.5 238.5,-228.5 157.5,-228.5"/>
<text text-anchor="middle" x="198" y="-235.5" font-family="Helvetica,sans-Serif" font-size="10.00">compare_order</text>
</a>
</g>
</g>
<!-- Node1&#45;&gt;Node6 -->
<g id="edge5" class="edge"><title>Node1&#45;&gt;Node6</title>
<path fill="none" stroke="midnightblue" d="M88.5896,-209.589C107.465,-214.536 130.686,-220.621 150.788,-225.889"/>
<polygon fill="midnightblue" stroke="midnightblue" points="150.113,-229.33 160.673,-228.48 151.887,-222.559 150.113,-229.33"/>
</g>
<!-- Node7 -->
<g id="node7" class="node"><title>Node7</title>
<g id="a_node7"><a xlink:href="sort_8c.html#a8e36fd286ad8fec6518eea48af25e94d" target="_top" xlink:title="Compare the date received of two emails &#45; Implements sort_t. ">
<polygon fill="white" stroke="red" points="138,-190.5 138,-209.5 258,-209.5 258,-190.5 138,-190.5"/>
<text text-anchor="middle" x="198" y="-197.5" font-family="Helvetica,sans-Serif" font-size="10.00">compare_date_received</text>
</a>
</g>
</g>
<!-- Node1&#45;&gt;Node7 -->
<g id="edge6" class="edge"><title>Node1&#45;&gt;Node7</title>
<path fill="none" stroke="midnightblue" d="M101.901,-200C110.203,-200 118.944,-200 127.626,-200"/>
<polygon fill="midnightblue" stroke="midnightblue" points="127.76,-203.5 137.76,-200 127.76,-196.5 127.76,-203.5"/>
</g>
<!-- Node8 -->
<g id="node8" class="node"><title>Node8</title>
<g id="a_node8"><a xlink:href="sort_8c.html#a390f5c31335e6dc72685e8dd1e299028" target="_top" xlink:title="Compare two emails using their scores &#45; Implements sort_t. ">
<polygon fill="white" stroke="red" points="156.5,-152.5 156.5,-171.5 239.5,-171.5 239.5,-152.5 156.5,-152.5"/>
<text text-anchor="middle" x="198" y="-159.5" font-family="Helvetica,sans-Serif" font-size="10.00">compare_score</text>
</a>
</g>
</g>
<!-- Node1&#45;&gt;Node8 -->
<g id="edge7" class="edge"><title>Node1&#45;&gt;Node8</title>
<path fill="none" stroke="midnightblue" d="M88.5896,-190.411C107.465,-185.464 130.686,-179.379 150.788,-174.111"/>
<polygon fill="midnightblue" stroke="midnightblue" points="151.887,-177.441 160.673,-171.52 150.113,-170.67 151.887,-177.441"/>
</g>
<!-- Node9 -->
<g id="node9" class="node"><title>Node9</title>
<g id="a_node9"><a xlink:href="sort_8c.html#a7cf80b8a951b8178ec682c25c30c2e70" target="_top" xlink:title="Compare the size of two emails &#45; Implements sort_t. ">
<polygon fill="white" stroke="red" points="159.5,-114.5 159.5,-133.5 236.5,-133.5 236.5,-114.5 159.5,-114.5"/>
<text text-anchor="middle" x="198" y="-121.5" font-family="Helvetica,sans-Serif" font-size="10.00">compare_size</text>
</a>
</g>
</g>
<!-- Node1&#45;&gt;Node9 -->
<g id="edge8" class="edge"><title>Node1&#45;&gt;Node9</title>
<path fill="none" stroke="midnightblue" d="M64.1734,-190.361C80.2777,-177.989 109.914,-156.513 138,-143 142.609,-140.782 147.541,-138.733 152.516,-136.867"/>
<polygon fill="midnightblue" stroke="midnightblue" points="153.794,-140.127 162.064,-133.505 151.47,-133.525 153.794,-140.127"/>
</g>
<!-- Node10 -->
<g id="node10" class="node"><title>Node10</title>
<g id="a_node10"><a xlink:href="sort_8c.html#a99aa24b4aed29278d9933ac08668adae" target="_top" xlink:title="Compare the spam values of two emails &#45; Implements sort_t. ">
<polygon fill="white" stroke="red" points="156.5,-76.5 156.5,-95.5 239.5,-95.5 239.5,-76.5 156.5,-76.5"/>
<text text-anchor="middle" x="198" y="-83.5" font-family="Helvetica,sans-Serif" font-size="10.00">compare_spam</text>
</a>
</g>
</g>
<!-- Node1&#45;&gt;Node10 -->
<g id="edge9" class="edge"><title>Node1&#45;&gt;Node10</title>
<path fill="none" stroke="midnightblue" d="M58.1138,-190.397C70.7328,-171.335 101.554,-128.531 138,-105 141.122,-102.984 144.475,-101.167 147.94,-99.5306"/>
<polygon fill="midnightblue" stroke="midnightblue" points="149.422,-102.704 157.293,-95.6114 146.717,-96.2484 149.422,-102.704"/>
</g>
<!-- Node11 -->
<g id="node11" class="node"><title>Node11</title>
<g id="a_node11"><a xlink:href="sort_8c.html#a12c1665fc8262c4d55b44771dec15e16" target="_top" xlink:title="Compare the subject of two emails &#45; Implements sort_t. ">
<polygon fill="white" stroke="red" points="152.5,-38.5 152.5,-57.5 243.5,-57.5 243.5,-38.5 152.5,-38.5"/>
<text text-anchor="middle" x="198" y="-45.5" font-family="Helvetica,sans-Serif" font-size="10.00">compare_subject</text>
</a>
</g>
</g>
<!-- Node1&#45;&gt;Node11 -->
<g id="edge10" class="edge"><title>Node1&#45;&gt;Node11</title>
<path fill="none" stroke="midnightblue" d="M55.5537,-190.352C65.0298,-165.953 93.2686,-101.301 138,-67 140.44,-65.1287 143.071,-63.4383 145.82,-61.912"/>
<polygon fill="midnightblue" stroke="midnightblue" points="147.391,-65.0403 154.908,-57.5741 144.375,-58.7231 147.391,-65.0403"/>
</g>
<!-- Node12 -->
<g id="node12" class="node"><title>Node12</title>
<g id="a_node12"><a xlink:href="sort_8c.html#acc5dc55cc415752c98d5ba8c00e55d9e" target="_top" xlink:title="Compare the &#39;to&#39; fields of two emails &#45; Implements sort_t. ">
<polygon fill="white" stroke="red" points="164,-0.5 164,-19.5 232,-19.5 232,-0.5 164,-0.5"/>
<text text-anchor="middle" x="198" y="-7.5" font-family="Helvetica,sans-Serif" font-size="10.00">compare_to</text>
</a>
</g>
</g>
<!-- Node1&#45;&gt;Node12 -->
<g id="edge12" class="edge"><title>Node1&#45;&gt;Node12</title>
<path fill="none" stroke="midnightblue" d="M54.101,-190.234C60.854,-161.2 84.7432,-74.6074 138,-29 142.66,-25.0091 148.171,-21.8535 153.923,-19.359"/>
<polygon fill="midnightblue" stroke="midnightblue" points="155.545,-22.4916 163.722,-15.7544 153.128,-15.922 155.545,-22.4916"/>
</g>
<!-- Node11&#45;&gt;Node2 -->
<g id="edge11" class="edge"><title>Node11&#45;&gt;Node2</title>
<path fill="none" stroke="midnightblue" d="M241.908,-57.5697C247.682,-60.0342 253.245,-63.1253 258,-67 301.924,-102.792 327.548,-167.325 338.183,-199.566"/>
<polygon fill="midnightblue" stroke="midnightblue" points="334.869,-200.694 341.22,-209.174 341.543,-198.584 334.869,-200.694"/>
</g>
</g>
</svg>
