<?xml version="1.0" encoding="UTF-8" standalone="no"?>
<!DOCTYPE svg PUBLIC "-//W3C//DTD SVG 1.1//EN"
 "http://www.w3.org/Graphics/SVG/1.1/DTD/svg11.dtd">
<!-- Generated by graphviz version 2.36.0 (20140111.2315)
 -->
<!-- Title: compare_subject Pages: 1 -->
<svg width="370pt" height="104pt"
 viewBox="0.00 0.00 370.00 104.00" xmlns="http://www.w3.org/2000/svg" xmlns:xlink="http://www.w3.org/1999/xlink">
<g id="graph0" class="graph" transform="scale(1 1) rotate(0) translate(4 100)">
<title>compare_subject</title>
<polygon fill="white" stroke="none" points="-4,4 -4,-100 366,-100 366,4 -4,4"/>
<!-- Node1 -->
<g id="node1" class="node"><title>Node1</title>
<polygon fill="#bfbfbf" stroke="black" points="0.5,-38.5 0.5,-57.5 91.5,-57.5 91.5,-38.5 0.5,-38.5"/>
<text text-anchor="middle" x="46" y="-45.5" font-family="Helvetica,sans-Serif" font-size="10.00">compare_subject</text>
</g>
<!-- Node2 -->
<g id="node2" class="node"><title>Node2</title>
<g id="a_node2"><a xlink:href="sort_8c.html#a09ee03bee88cb5262f229decf9deb7d2" target="_top" xlink:title="Compare the sent date of two emails &#45; Implements sort_t. ">
<polygon fill="white" stroke="black" points="132,-76.5 132,-95.5 234,-95.5 234,-76.5 132,-76.5"/>
<text text-anchor="middle" x="183" y="-83.5" font-family="Helvetica,sans-Serif" font-size="10.00">compare_date_sent</text>
</a>
</g>
</g>
<!-- Node1&#45;&gt;Node2 -->
<g id="edge1" class="edge"><title>Node1&#45;&gt;Node2</title>
<path fill="none" stroke="midnightblue" d="M81.0662,-57.589C98.4135,-62.4719 119.702,-68.4643 138.249,-73.685"/>
<polygon fill="midnightblue" stroke="midnightblue" points="137.37,-77.0735 147.945,-76.4141 139.267,-70.3354 137.37,-77.0735"/>
</g>
<!-- Node3 -->
<g id="node3" class="node"><title>Node3</title>
<g id="a_node3"><a xlink:href="sort_8c.html#a1d69cc6b2dfd825821b49d541edf5ca1" target="_top" xlink:title="Compare two emails using the auxilliary sort method. ">
<polygon fill="white" stroke="black" points="274.5,-57.5 274.5,-76.5 361.5,-76.5 361.5,-57.5 274.5,-57.5"/>
<text text-anchor="middle" x="318" y="-64.5" font-family="Helvetica,sans-Serif" font-size="10.00">perform_auxsort</text>
</a>
</g>
</g>
<!-- Node1&#45;&gt;Node3 -->
<g id="edge4" class="edge"><title>Node1&#45;&gt;Node3</title>
<path fill="none" stroke="midnightblue" d="M91.585,-51.1375C138.948,-54.4704 213.789,-59.737 264.102,-63.2775"/>
<polygon fill="midnightblue" stroke="midnightblue" points="263.913,-66.7728 274.134,-63.9835 264.404,-59.7901 263.913,-66.7728"/>
</g>
<!-- Node4 -->
<g id="node4" class="node"><title>Node4</title>
<g id="a_node4"><a xlink:href="mutt_2string_8c.html#a011e5b6fad43bc608584d585987cf9c1" target="_top" xlink:title="Compare two strings ignoring case, safely. ">
<polygon fill="white" stroke="black" points="128.5,-0.5 128.5,-19.5 237.5,-19.5 237.5,-0.5 128.5,-0.5"/>
<text text-anchor="middle" x="183" y="-7.5" font-family="Helvetica,sans-Serif" font-size="10.00">mutt_str_strcasecmp</text>
</a>
</g>
</g>
<!-- Node1&#45;&gt;Node4 -->
<g id="edge3" class="edge"><title>Node1&#45;&gt;Node4</title>
<path fill="none" stroke="midnightblue" d="M81.0662,-38.411C98.4135,-33.5281 119.702,-27.5357 138.249,-22.315"/>
<polygon fill="midnightblue" stroke="midnightblue" points="139.267,-25.6646 147.945,-19.5859 137.37,-18.9265 139.267,-25.6646"/>
</g>
<!-- Node2&#45;&gt;Node3 -->
<g id="edge2" class="edge"><title>Node2&#45;&gt;Node3</title>
<path fill="none" stroke="midnightblue" d="M234.282,-78.8169C244.109,-77.413 254.439,-75.9372 264.342,-74.5226"/>
<polygon fill="midnightblue" stroke="midnightblue" points="265.062,-77.9553 274.466,-73.0762 264.072,-71.0257 265.062,-77.9553"/>
</g>
</g>
</svg>
