<?xml version="1.0" encoding="UTF-8" standalone="no"?>
<!DOCTYPE svg PUBLIC "-//W3C//DTD SVG 1.1//EN"
 "http://www.w3.org/Graphics/SVG/1.1/DTD/svg11.dtd">
<!-- Generated by graphviz version 2.36.0 (20140111.2315)
 -->
<!-- Title: check_host Pages: 1 -->
<svg width="358pt" height="256pt"
 viewBox="0.00 0.00 358.00 256.00" xmlns="http://www.w3.org/2000/svg" xmlns:xlink="http://www.w3.org/1999/xlink">
<g id="graph0" class="graph" transform="scale(1 1) rotate(0) translate(4 252)">
<title>check_host</title>
<polygon fill="white" stroke="none" points="-4,4 -4,-252 354,-252 354,4 -4,4"/>
<!-- Node1 -->
<g id="node1" class="node"><title>Node1</title>
<polygon fill="#bfbfbf" stroke="black" points="0.5,-114.5 0.5,-133.5 67.5,-133.5 67.5,-114.5 0.5,-114.5"/>
<text text-anchor="middle" x="34" y="-121.5" font-family="Helvetica,sans-Serif" font-size="10.00">check_host</text>
</g>
<!-- Node2 -->
<g id="node2" class="node"><title>Node2</title>
<g id="a_node2"><a xlink:href="ssl_8c.html#a42856d46ab73f3511a5353d4e30af6d4" target="_top" xlink:title="SSL socket data. ">
<polygon fill="white" stroke="black" points="125.5,-228.5 125.5,-247.5 194.5,-247.5 194.5,-228.5 125.5,-228.5"/>
<text text-anchor="middle" x="160" y="-235.5" font-family="Helvetica,sans-Serif" font-size="10.00">STACK_OF</text>
</a>
</g>
</g>
<!-- Node1&#45;&gt;Node2 -->
<g id="edge1" class="edge"><title>Node1&#45;&gt;Node2</title>
<path fill="none" stroke="midnightblue" d="M39.4457,-133.581C48.7441,-152.603 72.0608,-195.338 104,-219 107.66,-221.712 111.738,-224.058 115.972,-226.083"/>
<polygon fill="midnightblue" stroke="midnightblue" points="114.813,-229.392 125.389,-230.02 117.513,-222.934 114.813,-229.392"/>
</g>
<!-- Node3 -->
<g id="node3" class="node"><title>Node3</title>
<g id="a_node3"><a xlink:href="idna2_8h.html#ac9bf116b1719a977104fb894c52e1f49" target="_top" xlink:title="mutt_idna_to_ascii_lz">
<polygon fill="white" stroke="black" points="104.5,-190.5 104.5,-209.5 215.5,-209.5 215.5,-190.5 104.5,-190.5"/>
<text text-anchor="middle" x="160" y="-197.5" font-family="Helvetica,sans-Serif" font-size="10.00">mutt_idna_to_ascii_lz</text>
</a>
</g>
</g>
<!-- Node1&#45;&gt;Node3 -->
<g id="edge2" class="edge"><title>Node1&#45;&gt;Node3</title>
<path fill="none" stroke="midnightblue" d="M44.4465,-133.725C57.0208,-146.189 80.4247,-167.765 104,-181 107.716,-183.086 111.702,-185.001 115.766,-186.744"/>
<polygon fill="midnightblue" stroke="midnightblue" points="114.717,-190.092 125.304,-190.499 117.282,-183.579 114.717,-190.092"/>
</g>
<!-- Node4 -->
<g id="node4" class="node"><title>Node4</title>
<g id="a_node4"><a xlink:href="mutt_2string_8c.html#ae48085384a6545e0fac589a88243ea31" target="_top" xlink:title="Copy a string, safely. ">
<polygon fill="white" stroke="black" points="117.5,-152.5 117.5,-171.5 202.5,-171.5 202.5,-152.5 117.5,-152.5"/>
<text text-anchor="middle" x="160" y="-159.5" font-family="Helvetica,sans-Serif" font-size="10.00">mutt_str_strdup</text>
</a>
</g>
</g>
<!-- Node1&#45;&gt;Node4 -->
<g id="edge3" class="edge"><title>Node1&#45;&gt;Node4</title>
<path fill="none" stroke="midnightblue" d="M66.2904,-133.589C82.0039,-138.404 101.238,-144.299 118.106,-149.468"/>
<polygon fill="midnightblue" stroke="midnightblue" points="117.133,-152.83 127.72,-152.414 119.184,-146.138 117.133,-152.83"/>
</g>
<!-- Node5 -->
<g id="node5" class="node"><title>Node5</title>
<g id="a_node5"><a xlink:href="memory_8c.html#a264da4dc58e6dc8983285bd1f538f24d" target="_top" xlink:title="Allocate memory on the heap. ">
<polygon fill="white" stroke="red" points="252.5,-133.5 252.5,-152.5 349.5,-152.5 349.5,-133.5 252.5,-133.5"/>
<text text-anchor="middle" x="301" y="-140.5" font-family="Helvetica,sans-Serif" font-size="10.00">mutt_mem_malloc</text>
</a>
</g>
</g>
<!-- Node1&#45;&gt;Node5 -->
<g id="edge8" class="edge"><title>Node1&#45;&gt;Node5</title>
<path fill="none" stroke="midnightblue" d="M67.76,-126.349C111.211,-129.464 188.63,-135.015 242.062,-138.846"/>
<polygon fill="midnightblue" stroke="midnightblue" points="241.854,-142.34 252.079,-139.564 242.355,-135.358 241.854,-142.34"/>
</g>
<!-- Node6 -->
<g id="node6" class="node"><title>Node6</title>
<g id="a_node6"><a xlink:href="mutt_2string_8c.html#aca11f88d08a860c07419df3efb18f35a" target="_top" xlink:title="Calculate the length of a string, safely. ">
<polygon fill="white" stroke="black" points="119,-76.5 119,-95.5 201,-95.5 201,-76.5 119,-76.5"/>
<text text-anchor="middle" x="160" y="-83.5" font-family="Helvetica,sans-Serif" font-size="10.00">mutt_str_strlen</text>
</a>
</g>
</g>
<!-- Node1&#45;&gt;Node6 -->
<g id="edge5" class="edge"><title>Node1&#45;&gt;Node6</title>
<path fill="none" stroke="midnightblue" d="M66.2904,-114.411C82.0039,-109.596 101.238,-103.701 118.106,-98.532"/>
<polygon fill="midnightblue" stroke="midnightblue" points="119.184,-101.862 127.72,-95.5859 117.133,-95.1696 119.184,-101.862"/>
</g>
<!-- Node7 -->
<g id="node7" class="node"><title>Node7</title>
<g id="a_node7"><a xlink:href="ssl_8c.html#ae39adc817bff49725d338570174c4a0b" target="_top" xlink:title="Does the hostname match the certificate. ">
<polygon fill="white" stroke="black" points="114,-38.5 114,-57.5 206,-57.5 206,-38.5 114,-38.5"/>
<text text-anchor="middle" x="160" y="-45.5" font-family="Helvetica,sans-Serif" font-size="10.00">hostname_match</text>
</a>
</g>
</g>
<!-- Node1&#45;&gt;Node7 -->
<g id="edge6" class="edge"><title>Node1&#45;&gt;Node7</title>
<path fill="none" stroke="midnightblue" d="M44.4465,-114.275C57.0208,-101.811 80.4247,-80.2345 104,-67 107.716,-64.9137 111.702,-62.9991 115.766,-61.2562"/>
<polygon fill="midnightblue" stroke="midnightblue" points="117.282,-64.421 125.304,-57.501 114.717,-57.9076 117.282,-64.421"/>
</g>
<!-- Node8 -->
<g id="node8" class="node"><title>Node8</title>
<g id="a_node8"><a xlink:href="mutt_2string_8c.html#a3b8965b21d6e21536750f8883cd4333a" target="_top" xlink:title="Copy a string into a buffer (guaranteeing NUL&#45;termination) ">
<polygon fill="white" stroke="black" points="116,-0.5 116,-19.5 204,-19.5 204,-0.5 116,-0.5"/>
<text text-anchor="middle" x="160" y="-7.5" font-family="Helvetica,sans-Serif" font-size="10.00">mutt_str_strfcpy</text>
</a>
</g>
</g>
<!-- Node1&#45;&gt;Node8 -->
<g id="edge7" class="edge"><title>Node1&#45;&gt;Node8</title>
<path fill="none" stroke="midnightblue" d="M39.4457,-114.419C48.7441,-95.3971 72.0608,-52.6623 104,-29 106.516,-27.1357 109.23,-25.4443 112.056,-23.9113"/>
<polygon fill="midnightblue" stroke="midnightblue" points="113.8,-26.9588 121.36,-19.5364 110.822,-20.624 113.8,-26.9588"/>
</g>
<!-- Node4&#45;&gt;Node5 -->
<g id="edge4" class="edge"><title>Node4&#45;&gt;Node5</title>
<path fill="none" stroke="midnightblue" d="M202.705,-156.299C215.194,-154.592 229.118,-152.689 242.439,-150.868"/>
<polygon fill="midnightblue" stroke="midnightblue" points="243.04,-154.319 252.474,-149.496 242.092,-147.383 243.04,-154.319"/>
</g>
</g>
</svg>
