<?xml version="1.0" encoding="UTF-8" standalone="no"?>
<!DOCTYPE svg PUBLIC "-//W3C//DTD SVG 1.1//EN"
 "http://www.w3.org/Graphics/SVG/1.1/DTD/svg11.dtd">
<!-- Generated by graphviz version 2.36.0 (20140111.2315)
 -->
<!-- Title: conn/ssl_gnutls.c Pages: 1 -->
<svg width="1531pt" height="140pt"
 viewBox="0.00 0.00 1531.00 140.00" xmlns="http://www.w3.org/2000/svg" xmlns:xlink="http://www.w3.org/1999/xlink">
<g id="graph0" class="graph" transform="scale(1 1) rotate(0) translate(4 136)">
<title>conn/ssl_gnutls.c</title>
<polygon fill="white" stroke="none" points="-4,4 -4,-136 1527,-136 1527,4 -4,4"/>
<!-- Node1 -->
<g id="node1" class="node"><title>Node1</title>
<polygon fill="#bfbfbf" stroke="black" points="722.5,-112.5 722.5,-131.5 815.5,-131.5 815.5,-112.5 722.5,-112.5"/>
<text text-anchor="middle" x="769" y="-119.5" font-family="Helvetica,sans-Serif" font-size="10.00">conn/ssl_gnutls.c</text>
</g>
<!-- Node2 -->
<g id="node2" class="node"><title>Node2</title>
<polygon fill="white" stroke="#bfbfbf" points="-0.5,-56.5 -0.5,-75.5 50.5,-75.5 50.5,-56.5 -0.5,-56.5"/>
<text text-anchor="middle" x="25" y="-63.5" font-family="Helvetica,sans-Serif" font-size="10.00">config.h</text>
</g>
<!-- Node1&#45;&gt;Node2 -->
<g id="edge1" class="edge"><title>Node1&#45;&gt;Node2</title>
<path fill="none" stroke="midnightblue" d="M722.212,-121.063C609.709,-120.567 315.178,-115.419 61.0429,-75.8386"/>
<polygon fill="midnightblue" stroke="midnightblue" points="61.3031,-72.3364 50.8796,-74.2337 60.2113,-79.2507 61.3031,-72.3364"/>
</g>
<!-- Node3 -->
<g id="node3" class="node"><title>Node3</title>
<polygon fill="white" stroke="#bfbfbf" points="69,-56.5 69,-75.5 149,-75.5 149,-56.5 69,-56.5"/>
<text text-anchor="middle" x="109" y="-63.5" font-family="Helvetica,sans-Serif" font-size="10.00">gnutls/gnutls.h</text>
</g>
<!-- Node1&#45;&gt;Node3 -->
<g id="edge2" class="edge"><title>Node1&#45;&gt;Node3</title>
<path fill="none" stroke="midnightblue" d="M722.152,-119.214C619.692,-114.942 368.121,-102.461 159,-76 158.899,-75.9872 158.798,-75.9743 158.696,-75.9614"/>
<polygon fill="midnightblue" stroke="midnightblue" points="159.454,-72.534 149.06,-74.5909 158.468,-79.4642 159.454,-72.534"/>
</g>
<!-- Node4 -->
<g id="node4" class="node"><title>Node4</title>
<polygon fill="white" stroke="#bfbfbf" points="167.5,-56.5 167.5,-75.5 242.5,-75.5 242.5,-56.5 167.5,-56.5"/>
<text text-anchor="middle" x="205" y="-63.5" font-family="Helvetica,sans-Serif" font-size="10.00">gnutls/x509.h</text>
</g>
<!-- Node1&#45;&gt;Node4 -->
<g id="edge3" class="edge"><title>Node1&#45;&gt;Node4</title>
<path fill="none" stroke="midnightblue" d="M722.266,-118.207C632.061,-112.525 427.774,-98.2436 257,-76 255.697,-75.8303 254.376,-75.6513 253.045,-75.4646"/>
<polygon fill="midnightblue" stroke="midnightblue" points="253.127,-71.9376 242.717,-73.9097 252.085,-78.8596 253.127,-71.9376"/>
</g>
<!-- Node5 -->
<g id="node5" class="node"><title>Node5</title>
<polygon fill="white" stroke="#bfbfbf" points="326.5,-0.5 326.5,-19.5 375.5,-19.5 375.5,-0.5 326.5,-0.5"/>
<text text-anchor="middle" x="351" y="-7.5" font-family="Helvetica,sans-Serif" font-size="10.00">regex.h</text>
</g>
<!-- Node1&#45;&gt;Node5 -->
<g id="edge4" class="edge"><title>Node1&#45;&gt;Node5</title>
<path fill="none" stroke="midnightblue" d="M722.149,-119.843C611.649,-116.632 341.985,-105.792 315,-76 301.628,-61.2374 317.483,-40.6366 332.173,-26.6107"/>
<polygon fill="midnightblue" stroke="midnightblue" points="334.913,-28.8555 340.022,-19.5738 330.24,-23.6436 334.913,-28.8555"/>
</g>
<!-- Node6 -->
<g id="node6" class="node"><title>Node6</title>
<polygon fill="white" stroke="#bfbfbf" points="474,-0.5 474,-19.5 530,-19.5 530,-0.5 474,-0.5"/>
<text text-anchor="middle" x="502" y="-7.5" font-family="Helvetica,sans-Serif" font-size="10.00">stdbool.h</text>
</g>
<!-- Node1&#45;&gt;Node6 -->
<g id="edge5" class="edge"><title>Node1&#45;&gt;Node6</title>
<path fill="none" stroke="midnightblue" d="M722.29,-119.701C614.208,-116.214 354.082,-104.878 328,-76 287.34,-30.9804 400.393,-17.0259 463.208,-12.7908"/>
<polygon fill="midnightblue" stroke="midnightblue" points="463.801,-16.2609 473.566,-12.1493 463.368,-9.27428 463.801,-16.2609"/>
</g>
<!-- Node7 -->
<g id="node7" class="node"><title>Node7</title>
<polygon fill="white" stroke="#bfbfbf" points="628,-0.5 628,-19.5 674,-19.5 674,-0.5 628,-0.5"/>
<text text-anchor="middle" x="651" y="-7.5" font-family="Helvetica,sans-Serif" font-size="10.00">stdio.h</text>
</g>
<!-- Node1&#45;&gt;Node7 -->
<g id="edge6" class="edge"><title>Node1&#45;&gt;Node7</title>
<path fill="none" stroke="midnightblue" d="M741.038,-112.465C721.77,-105.363 696.72,-93.5506 680,-76 667.503,-62.8816 659.808,-43.4674 655.514,-29.2727"/>
<polygon fill="midnightblue" stroke="midnightblue" points="658.889,-28.3452 652.87,-19.6261 652.138,-30.1956 658.889,-28.3452"/>
</g>
<!-- Node8 -->
<g id="node8" class="node"><title>Node8</title>
<polygon fill="white" stroke="#bfbfbf" points="1073.5,-56.5 1073.5,-75.5 1122.5,-75.5 1122.5,-56.5 1073.5,-56.5"/>
<text text-anchor="middle" x="1098" y="-63.5" font-family="Helvetica,sans-Serif" font-size="10.00">string.h</text>
</g>
<!-- Node1&#45;&gt;Node8 -->
<g id="edge7" class="edge"><title>Node1&#45;&gt;Node8</title>
<path fill="none" stroke="midnightblue" d="M815.64,-114.829C873.091,-106.983 973.575,-92.4619 1059,-76 1060.45,-75.7206 1061.93,-75.4256 1063.42,-75.1194"/>
<polygon fill="midnightblue" stroke="midnightblue" points="1064.26,-78.5177 1073.3,-72.9857 1062.79,-71.6754 1064.26,-78.5177"/>
</g>
<!-- Node9 -->
<g id="node9" class="node"><title>Node9</title>
<polygon fill="white" stroke="#bfbfbf" points="1141,-56.5 1141,-75.5 1201,-75.5 1201,-56.5 1141,-56.5"/>
<text text-anchor="middle" x="1171" y="-63.5" font-family="Helvetica,sans-Serif" font-size="10.00">sys/stat.h</text>
</g>
<!-- Node1&#45;&gt;Node9 -->
<g id="edge8" class="edge"><title>Node1&#45;&gt;Node9</title>
<path fill="none" stroke="midnightblue" d="M815.501,-116.686C884.611,-109.944 1018.38,-95.6206 1131,-76 1131.1,-75.9824 1131.2,-75.9648 1131.3,-75.9471"/>
<polygon fill="midnightblue" stroke="midnightblue" points="1131.76,-79.4228 1140.92,-74.0981 1130.44,-72.5486 1131.76,-79.4228"/>
</g>
<!-- Node10 -->
<g id="node10" class="node"><title>Node10</title>
<polygon fill="white" stroke="#bfbfbf" points="817,-0.5 817,-19.5 861,-19.5 861,-0.5 817,-0.5"/>
<text text-anchor="middle" x="839" y="-7.5" font-family="Helvetica,sans-Serif" font-size="10.00">time.h</text>
</g>
<!-- Node1&#45;&gt;Node10 -->
<g id="edge9" class="edge"><title>Node1&#45;&gt;Node10</title>
<path fill="none" stroke="midnightblue" d="M774.493,-112.368C785.994,-94.2957 812.797,-52.1764 827.986,-28.3074"/>
<polygon fill="midnightblue" stroke="midnightblue" points="831.117,-29.9071 833.533,-19.5914 825.211,-26.149 831.117,-29.9071"/>
</g>
<!-- Node11 -->
<g id="node11" class="node"><title>Node11</title>
<polygon fill="white" stroke="#bfbfbf" points="918.5,-0.5 918.5,-19.5 985.5,-19.5 985.5,-0.5 918.5,-0.5"/>
<text text-anchor="middle" x="952" y="-7.5" font-family="Helvetica,sans-Serif" font-size="10.00">mutt/mutt.h</text>
</g>
<!-- Node1&#45;&gt;Node11 -->
<g id="edge10" class="edge"><title>Node1&#45;&gt;Node11</title>
<path fill="none" stroke="midnightblue" d="M815.694,-118.142C873.425,-113.522 966.69,-102.134 988,-76 1000.52,-60.6476 985.065,-40.325 970.693,-26.5191"/>
<polygon fill="midnightblue" stroke="midnightblue" points="972.777,-23.6855 963.004,-19.5926 968.091,-28.8863 972.777,-23.6855"/>
</g>
<!-- Node12 -->
<g id="node12" class="node"><title>Node12</title>
<g id="a_node12"><a xlink:href="lib_8h.html" target="_top" xlink:title="Convenience wrapper for the config headers. ">
<polygon fill="white" stroke="red" points="692,-0.5 692,-19.5 756,-19.5 756,-0.5 692,-0.5"/>
<text text-anchor="middle" x="724" y="-7.5" font-family="Helvetica,sans-Serif" font-size="10.00">config/lib.h</text>
</a>
</g>
</g>
<!-- Node1&#45;&gt;Node12 -->
<g id="edge11" class="edge"><title>Node1&#45;&gt;Node12</title>
<path fill="none" stroke="midnightblue" d="M767.171,-112.36C764.334,-99.6879 758.322,-75.4576 750,-56 745.92,-46.4598 740.259,-36.4099 735.26,-28.2336"/>
<polygon fill="midnightblue" stroke="midnightblue" points="738.131,-26.2243 729.832,-19.6386 732.213,-29.9624 738.131,-26.2243"/>
</g>
<!-- Node13 -->
<g id="node13" class="node"><title>Node13</title>
<polygon fill="white" stroke="#bfbfbf" points="1219,-56.5 1219,-75.5 1263,-75.5 1263,-56.5 1219,-56.5"/>
<text text-anchor="middle" x="1241" y="-63.5" font-family="Helvetica,sans-Serif" font-size="10.00">mutt.h</text>
</g>
<!-- Node1&#45;&gt;Node13 -->
<g id="edge12" class="edge"><title>Node1&#45;&gt;Node13</title>
<path fill="none" stroke="midnightblue" d="M815.624,-118.874C894.552,-114.701 1059.56,-103.504 1208.5,-75.731"/>
<polygon fill="midnightblue" stroke="midnightblue" points="1209.56,-79.0912 1218.74,-73.7902 1208.26,-72.2137 1209.56,-79.0912"/>
</g>
<!-- Node14 -->
<g id="node14" class="node"><title>Node14</title>
<g id="a_node14"><a xlink:href="conn_2account_8h.html" target="_top" xlink:title="Account object. ">
<polygon fill="white" stroke="black" points="1009.5,-0.5 1009.5,-19.5 1068.5,-19.5 1068.5,-0.5 1009.5,-0.5"/>
<text text-anchor="middle" x="1039" y="-7.5" font-family="Helvetica,sans-Serif" font-size="10.00">account.h</text>
</a>
</g>
</g>
<!-- Node1&#45;&gt;Node14 -->
<g id="edge13" class="edge"><title>Node1&#45;&gt;Node14</title>
<path fill="none" stroke="midnightblue" d="M815.635,-116.82C875.357,-110.673 974.653,-97.5334 1004,-76 1019.47,-64.6516 1028.81,-44.3545 1033.91,-29.4518"/>
<polygon fill="midnightblue" stroke="midnightblue" points="1037.29,-30.3459 1036.89,-19.7587 1030.6,-28.2854 1037.29,-30.3459"/>
</g>
<!-- Node15 -->
<g id="node15" class="node"><title>Node15</title>
<g id="a_node15"><a xlink:href="conn__globals_8h.html" target="_top" xlink:title="Connection Global Variables. ">
<polygon fill="white" stroke="black" points="337,-56.5 337,-75.5 419,-75.5 419,-56.5 337,-56.5"/>
<text text-anchor="middle" x="378" y="-63.5" font-family="Helvetica,sans-Serif" font-size="10.00">conn_globals.h</text>
</a>
</g>
</g>
<!-- Node1&#45;&gt;Node15 -->
<g id="edge14" class="edge"><title>Node1&#45;&gt;Node15</title>
<path fill="none" stroke="midnightblue" d="M722.293,-115.54C658.438,-107.92 540.071,-93.242 429.192,-76.1256"/>
<polygon fill="midnightblue" stroke="midnightblue" points="429.594,-72.6461 419.175,-74.5693 428.519,-79.5631 429.594,-72.6461"/>
</g>
<!-- Node16 -->
<g id="node16" class="node"><title>Node16</title>
<g id="a_node16"><a xlink:href="connection_8h.html" target="_top" xlink:title="An open network connection (socket) ">
<polygon fill="white" stroke="black" points="835,-56.5 835,-75.5 907,-75.5 907,-56.5 835,-56.5"/>
<text text-anchor="middle" x="871" y="-63.5" font-family="Helvetica,sans-Serif" font-size="10.00">connection.h</text>
</a>
</g>
</g>
<!-- Node1&#45;&gt;Node16 -->
<g id="edge16" class="edge"><title>Node1&#45;&gt;Node16</title>
<path fill="none" stroke="midnightblue" d="M785.388,-112.324C801.671,-103.703 826.867,-90.3643 845.716,-80.3855"/>
<polygon fill="midnightblue" stroke="midnightblue" points="847.452,-83.4267 854.653,-75.6545 844.177,-77.2402 847.452,-83.4267"/>
</g>
<!-- Node17 -->
<g id="node17" class="node"><title>Node17</title>
<g id="a_node17"><a xlink:href="keymap_8h.html" target="_top" xlink:title="Manage keymappings. ">
<polygon fill="white" stroke="red" points="1281.5,-56.5 1281.5,-75.5 1340.5,-75.5 1340.5,-56.5 1281.5,-56.5"/>
<text text-anchor="middle" x="1311" y="-63.5" font-family="Helvetica,sans-Serif" font-size="10.00">keymap.h</text>
</a>
</g>
</g>
<!-- Node1&#45;&gt;Node17 -->
<g id="edge21" class="edge"><title>Node1&#45;&gt;Node17</title>
<path fill="none" stroke="midnightblue" d="M815.621,-118.878C904.596,-114.375 1104.59,-102.064 1271,-76 1271.11,-75.9835 1271.21,-75.9668 1271.32,-75.9501"/>
<polygon fill="midnightblue" stroke="midnightblue" points="1272.16,-79.3537 1281.38,-74.1224 1270.91,-72.4664 1272.16,-79.3537"/>
</g>
<!-- Node18 -->
<g id="node18" class="node"><title>Node18</title>
<g id="a_node18"><a xlink:href="menu_8h.html" target="_top" xlink:title="GUI present the user with a selectable list. ">
<polygon fill="white" stroke="black" points="583.5,-56.5 583.5,-75.5 632.5,-75.5 632.5,-56.5 583.5,-56.5"/>
<text text-anchor="middle" x="608" y="-63.5" font-family="Helvetica,sans-Serif" font-size="10.00">menu.h</text>
</a>
</g>
</g>
<!-- Node1&#45;&gt;Node18 -->
<g id="edge22" class="edge"><title>Node1&#45;&gt;Node18</title>
<path fill="none" stroke="midnightblue" d="M743.489,-112.444C716.165,-103.279 672.65,-88.6839 642.333,-78.5153"/>
<polygon fill="midnightblue" stroke="midnightblue" points="643.194,-75.1125 632.6,-75.2508 640.968,-81.7491 643.194,-75.1125"/>
</g>
<!-- Node19 -->
<g id="node19" class="node"><title>Node19</title>
<g id="a_node19"><a xlink:href="mutt__account_8h.html" target="_top" xlink:title="Account object used by POP and IMAP. ">
<polygon fill="white" stroke="black" points="1359,-56.5 1359,-75.5 1443,-75.5 1443,-56.5 1359,-56.5"/>
<text text-anchor="middle" x="1401" y="-63.5" font-family="Helvetica,sans-Serif" font-size="10.00">mutt_account.h</text>
</a>
</g>
</g>
<!-- Node1&#45;&gt;Node19 -->
<g id="edge27" class="edge"><title>Node1&#45;&gt;Node19</title>
<path fill="none" stroke="midnightblue" d="M815.762,-118.865C912.944,-114.106 1143.97,-101.116 1348.73,-75.9004"/>
<polygon fill="midnightblue" stroke="midnightblue" points="1349.27,-79.3595 1358.76,-74.6517 1348.41,-72.413 1349.27,-79.3595"/>
</g>
<!-- Node20 -->
<g id="node20" class="node"><title>Node20</title>
<g id="a_node20"><a xlink:href="muttlib_8h.html" target="_top" xlink:title="Some miscellaneous functions. ">
<polygon fill="white" stroke="red" points="511,-56.5 511,-75.5 565,-75.5 565,-56.5 511,-56.5"/>
<text text-anchor="middle" x="538" y="-63.5" font-family="Helvetica,sans-Serif" font-size="10.00">muttlib.h</text>
</a>
</g>
</g>
<!-- Node1&#45;&gt;Node20 -->
<g id="edge28" class="edge"><title>Node1&#45;&gt;Node20</title>
<path fill="none" stroke="midnightblue" d="M731.781,-112.491C692.707,-103.529 629.494,-88.9475 575,-76 574.9,-75.9761 574.799,-75.9522 574.698,-75.9282"/>
<polygon fill="midnightblue" stroke="midnightblue" points="575.61,-72.5478 565.07,-73.6199 573.978,-79.3549 575.61,-72.5478"/>
</g>
<!-- Node21 -->
<g id="node21" class="node"><title>Node21</title>
<g id="a_node21"><a xlink:href="opcodes_8h.html" target="_top" xlink:title="All user&#45;callable functions. ">
<polygon fill="white" stroke="black" points="1461,-56.5 1461,-75.5 1523,-75.5 1523,-56.5 1461,-56.5"/>
<text text-anchor="middle" x="1492" y="-63.5" font-family="Helvetica,sans-Serif" font-size="10.00">opcodes.h</text>
</a>
</g>
</g>
<!-- Node1&#45;&gt;Node21 -->
<g id="edge31" class="edge"><title>Node1&#45;&gt;Node21</title>
<path fill="none" stroke="midnightblue" d="M815.556,-120.334C924.742,-118.256 1205.86,-109.914 1450.59,-75.8003"/>
<polygon fill="midnightblue" stroke="midnightblue" points="1451.34,-79.2302 1460.75,-74.3668 1450.36,-72.2989 1451.34,-79.2302"/>
</g>
<!-- Node22 -->
<g id="node22" class="node"><title>Node22</title>
<g id="a_node22"><a xlink:href="options_8h.html" target="_top" xlink:title="Handling of global boolean variables. ">
<polygon fill="white" stroke="red" points="437,-56.5 437,-75.5 493,-75.5 493,-56.5 437,-56.5"/>
<text text-anchor="middle" x="465" y="-63.5" font-family="Helvetica,sans-Serif" font-size="10.00">options.h</text>
</a>
</g>
</g>
<!-- Node1&#45;&gt;Node22 -->
<g id="edge32" class="edge"><title>Node1&#45;&gt;Node22</title>
<path fill="none" stroke="midnightblue" d="M722.026,-114.125C670.637,-106.373 585.631,-92.8706 503.264,-76.1441"/>
<polygon fill="midnightblue" stroke="midnightblue" points="503.734,-72.6678 493.235,-74.0885 502.328,-79.5252 503.734,-72.6678"/>
</g>
<!-- Node23 -->
<g id="node23" class="node"><title>Node23</title>
<g id="a_node23"><a xlink:href="protos_8h.html" target="_top" xlink:title="Prototypes for many functions. ">
<polygon fill="white" stroke="red" points="689,-56.5 689,-75.5 741,-75.5 741,-56.5 689,-56.5"/>
<text text-anchor="middle" x="715" y="-63.5" font-family="Helvetica,sans-Serif" font-size="10.00">protos.h</text>
</a>
</g>
</g>
<!-- Node1&#45;&gt;Node23 -->
<g id="edge34" class="edge"><title>Node1&#45;&gt;Node23</title>
<path fill="none" stroke="midnightblue" d="M760.083,-112.083C752.22,-104.22 740.569,-92.5688 731.081,-83.0813"/>
<polygon fill="midnightblue" stroke="midnightblue" points="733.297,-80.3473 723.751,-75.7511 728.347,-85.2971 733.297,-80.3473"/>
</g>
<!-- Node24 -->
<g id="node24" class="node"><title>Node24</title>
<g id="a_node24"><a xlink:href="socket_8h.html" target="_top" xlink:title="Low&#45;level socket handling. ">
<polygon fill="white" stroke="red" points="925,-56.5 925,-75.5 979,-75.5 979,-56.5 925,-56.5"/>
<text text-anchor="middle" x="952" y="-63.5" font-family="Helvetica,sans-Serif" font-size="10.00">socket.h</text>
</a>
</g>
</g>
<!-- Node1&#45;&gt;Node24 -->
<g id="edge39" class="edge"><title>Node1&#45;&gt;Node24</title>
<path fill="none" stroke="midnightblue" d="M797.997,-112.444C829.735,-103.078 880.691,-88.0419 915.218,-77.8536"/>
<polygon fill="midnightblue" stroke="midnightblue" points="916.328,-81.1755 924.929,-74.9883 914.347,-74.4617 916.328,-81.1755"/>
</g>
<!-- Node15&#45;&gt;Node6 -->
<g id="edge15" class="edge"><title>Node15&#45;&gt;Node6</title>
<path fill="none" stroke="midnightblue" d="M397.648,-56.4435C417.965,-47.5961 449.903,-33.6875 473.098,-23.5865"/>
<polygon fill="midnightblue" stroke="midnightblue" points="474.673,-26.7181 482.444,-19.5164 471.878,-20.3002 474.673,-26.7181"/>
</g>
<!-- Node16&#45;&gt;Node7 -->
<g id="edge17" class="edge"><title>Node16&#45;&gt;Node7</title>
<path fill="none" stroke="midnightblue" d="M834.855,-56.7917C798.925,-48.5342 742.018,-35.1921 683.778,-20.1284"/>
<polygon fill="midnightblue" stroke="midnightblue" points="684.602,-16.7262 674.043,-17.5972 682.84,-23.501 684.602,-16.7262"/>
</g>
<!-- Node16&#45;&gt;Node10 -->
<g id="edge18" class="edge"><title>Node16&#45;&gt;Node10</title>
<path fill="none" stroke="midnightblue" d="M865.716,-56.083C861.289,-48.6127 854.837,-37.7244 849.382,-28.5199"/>
<polygon fill="midnightblue" stroke="midnightblue" points="852.295,-26.5697 844.186,-19.7511 846.273,-30.1383 852.295,-26.5697"/>
</g>
<!-- Node16&#45;&gt;Node11 -->
<g id="edge19" class="edge"><title>Node16&#45;&gt;Node11</title>
<path fill="none" stroke="midnightblue" d="M884.014,-56.324C896.532,-47.979 915.682,-35.2122 930.471,-25.3524"/>
<polygon fill="midnightblue" stroke="midnightblue" points="932.639,-28.1137 939.018,-19.6545 928.756,-22.2894 932.639,-28.1137"/>
</g>
<!-- Node16&#45;&gt;Node14 -->
<g id="edge20" class="edge"><title>Node16&#45;&gt;Node14</title>
<path fill="none" stroke="midnightblue" d="M897.62,-56.4435C926.006,-47.3196 971.137,-32.8133 1002.75,-22.6509"/>
<polygon fill="midnightblue" stroke="midnightblue" points="1004.06,-25.9087 1012.5,-19.5164 1001.91,-19.2445 1004.06,-25.9087"/>
</g>
<!-- Node18&#45;&gt;Node5 -->
<g id="edge23" class="edge"><title>Node18&#45;&gt;Node5</title>
<path fill="none" stroke="midnightblue" d="M583.16,-58.2418C580.082,-57.4584 576.973,-56.6929 574,-56 507.587,-40.5237 429.32,-25.4538 385.399,-17.2819"/>
<polygon fill="midnightblue" stroke="midnightblue" points="385.992,-13.8322 375.522,-15.4528 384.717,-20.7152 385.992,-13.8322"/>
</g>
<!-- Node18&#45;&gt;Node6 -->
<g id="edge24" class="edge"><title>Node18&#45;&gt;Node6</title>
<path fill="none" stroke="midnightblue" d="M590.969,-56.324C573.97,-47.6641 547.624,-34.2424 528.007,-24.249"/>
<polygon fill="midnightblue" stroke="midnightblue" points="529.488,-21.0752 518.988,-19.6545 526.31,-27.3125 529.488,-21.0752"/>
</g>
<!-- Node18&#45;&gt;Node7 -->
<g id="edge25" class="edge"><title>Node18&#45;&gt;Node7</title>
<path fill="none" stroke="midnightblue" d="M615.101,-56.083C621.237,-48.3768 630.27,-37.0333 637.739,-27.6531"/>
<polygon fill="midnightblue" stroke="midnightblue" points="640.54,-29.7542 644.032,-19.7511 635.064,-25.3936 640.54,-29.7542"/>
</g>
<!-- Node18&#45;&gt;Node12 -->
<g id="edge26" class="edge"><title>Node18&#45;&gt;Node12</title>
<path fill="none" stroke="midnightblue" d="M626.381,-56.4435C645.216,-47.6751 674.731,-33.9355 696.379,-23.8579"/>
<polygon fill="midnightblue" stroke="midnightblue" points="698.117,-26.9098 705.705,-19.5164 695.162,-20.5637 698.117,-26.9098"/>
</g>
<!-- Node20&#45;&gt;Node6 -->
<g id="edge29" class="edge"><title>Node20&#45;&gt;Node6</title>
<path fill="none" stroke="midnightblue" d="M532.055,-56.083C527.023,-48.5341 519.663,-37.4948 513.487,-28.2298"/>
<polygon fill="midnightblue" stroke="midnightblue" points="516.293,-26.1301 507.834,-19.7511 510.469,-30.0131 516.293,-26.1301"/>
</g>
<!-- Node20&#45;&gt;Node7 -->
<g id="edge30" class="edge"><title>Node20&#45;&gt;Node7</title>
<path fill="none" stroke="midnightblue" d="M555.905,-56.4435C574.254,-47.6751 603.005,-33.9355 624.094,-23.8579"/>
<polygon fill="midnightblue" stroke="midnightblue" points="625.665,-26.9862 633.179,-19.5164 622.647,-20.6703 625.665,-26.9862"/>
</g>
<!-- Node22&#45;&gt;Node6 -->
<g id="edge33" class="edge"><title>Node22&#45;&gt;Node6</title>
<path fill="none" stroke="midnightblue" d="M471.11,-56.083C476.282,-48.5341 483.846,-37.4948 490.194,-28.2298"/>
<polygon fill="midnightblue" stroke="midnightblue" points="493.239,-29.9787 496.004,-19.7511 487.464,-26.0221 493.239,-29.9787"/>
</g>
<!-- Node23&#45;&gt;Node6 -->
<g id="edge35" class="edge"><title>Node23&#45;&gt;Node6</title>
<path fill="none" stroke="midnightblue" d="M688.882,-58.3785C651.55,-48.9141 582.713,-31.4625 539.812,-20.5862"/>
<polygon fill="midnightblue" stroke="midnightblue" points="540.577,-17.1695 530.024,-18.1047 538.857,-23.9549 540.577,-17.1695"/>
</g>
<!-- Node23&#45;&gt;Node7 -->
<g id="edge36" class="edge"><title>Node23&#45;&gt;Node7</title>
<path fill="none" stroke="midnightblue" d="M704.717,-56.324C695.164,-48.2631 680.72,-36.0765 669.216,-26.3695"/>
<polygon fill="midnightblue" stroke="midnightblue" points="671.37,-23.6076 661.47,-19.8339 666.856,-28.9577 671.37,-23.6076"/>
</g>
<!-- Node23&#45;&gt;Node10 -->
<g id="edge37" class="edge"><title>Node23&#45;&gt;Node10</title>
<path fill="none" stroke="midnightblue" d="M734.648,-56.4435C754.965,-47.5961 786.903,-33.6875 810.098,-23.5865"/>
<polygon fill="midnightblue" stroke="midnightblue" points="811.673,-26.7181 819.444,-19.5164 808.878,-20.3002 811.673,-26.7181"/>
</g>
<!-- Node23&#45;&gt;Node12 -->
<g id="edge38" class="edge"><title>Node23&#45;&gt;Node12</title>
<path fill="none" stroke="midnightblue" d="M716.486,-56.083C717.679,-48.9272 719.394,-38.6353 720.885,-29.6911"/>
<polygon fill="midnightblue" stroke="midnightblue" points="724.35,-30.1904 722.541,-19.7511 717.445,-29.0396 724.35,-30.1904"/>
</g>
<!-- Node24&#45;&gt;Node10 -->
<g id="edge40" class="edge"><title>Node24&#45;&gt;Node10</title>
<path fill="none" stroke="midnightblue" d="M934.095,-56.4435C915.746,-47.6751 886.995,-33.9355 865.906,-23.8579"/>
<polygon fill="midnightblue" stroke="midnightblue" points="867.353,-20.6703 856.821,-19.5164 864.335,-26.9862 867.353,-20.6703"/>
</g>
<!-- Node24&#45;&gt;Node11 -->
<g id="edge41" class="edge"><title>Node24&#45;&gt;Node11</title>
<path fill="none" stroke="midnightblue" d="M952,-56.083C952,-49.0059 952,-38.8611 952,-29.9865"/>
<polygon fill="midnightblue" stroke="midnightblue" points="955.5,-29.751 952,-19.7511 948.5,-29.7511 955.5,-29.751"/>
</g>
</g>
</svg>
