<?xml version="1.0" encoding="UTF-8" standalone="no"?>
<!DOCTYPE svg PUBLIC "-//W3C//DTD SVG 1.1//EN"
 "http://www.w3.org/Graphics/SVG/1.1/DTD/svg11.dtd">
<!-- Generated by graphviz version 2.36.0 (20140111.2315)
 -->
<!-- Title: ssl_setup Pages: 1 -->
<svg width="194pt" height="66pt"
 viewBox="0.00 0.00 194.00 66.00" xmlns="http://www.w3.org/2000/svg" xmlns:xlink="http://www.w3.org/1999/xlink">
<g id="graph0" class="graph" transform="scale(1 1) rotate(0) translate(4 62)">
<title>ssl_setup</title>
<polygon fill="white" stroke="none" points="-4,4 -4,-62 190,-62 190,4 -4,4"/>
<!-- Node1 -->
<g id="node1" class="node"><title>Node1</title>
<polygon fill="#bfbfbf" stroke="black" points="0.5,-19.5 0.5,-38.5 59.5,-38.5 59.5,-19.5 0.5,-19.5"/>
<text text-anchor="middle" x="30" y="-26.5" font-family="Helvetica,sans-Serif" font-size="10.00">ssl_setup</text>
</g>
<!-- Node2 -->
<g id="node2" class="node"><title>Node2</title>
<g id="a_node2"><a xlink:href="ssl_8c.html#aee6856c134462c191da6659c8b469145" target="_top" xlink:title="Open an SSL socket. ">
<polygon fill="white" stroke="red" points="96,-38.5 96,-57.5 186,-57.5 186,-38.5 96,-38.5"/>
<text text-anchor="middle" x="141" y="-45.5" font-family="Helvetica,sans-Serif" font-size="10.00">ssl_socket_open</text>
</a>
</g>
</g>
<!-- Node1&#45;&gt;Node2 -->
<g id="edge1" class="edge"><title>Node1&#45;&gt;Node2</title>
<path fill="none" stroke="midnightblue" d="M69.67,-35.7406C78.1743,-37.223 87.2417,-38.8036 95.9405,-40.3199"/>
<polygon fill="midnightblue" stroke="midnightblue" points="70.091,-32.2613 59.6385,-33.992 68.8889,-39.1573 70.091,-32.2613"/>
</g>
<!-- Node3 -->
<g id="node3" class="node"><title>Node3</title>
<g id="a_node3"><a xlink:href="ssl_8h.html#a23591e82bf992ceb5e62c459fd787b8a" target="_top" xlink:title="Negotiate TLS over an already opened connection. ">
<polygon fill="white" stroke="red" points="96.5,-0.5 96.5,-19.5 185.5,-19.5 185.5,-0.5 96.5,-0.5"/>
<text text-anchor="middle" x="141" y="-7.5" font-family="Helvetica,sans-Serif" font-size="10.00">mutt_ssl_starttls</text>
</a>
</g>
</g>
<!-- Node1&#45;&gt;Node3 -->
<g id="edge2" class="edge"><title>Node1&#45;&gt;Node3</title>
<path fill="none" stroke="midnightblue" d="M69.5044,-22.2882C78.1923,-20.7738 87.4753,-19.1557 96.3573,-17.6074"/>
<polygon fill="midnightblue" stroke="midnightblue" points="68.8889,-18.8427 59.6385,-24.008 70.091,-25.7387 68.8889,-18.8427"/>
</g>
</g>
</svg>
