<?xml version="1.0" encoding="UTF-8" standalone="no"?>
<!DOCTYPE svg PUBLIC "-//W3C//DTD SVG 1.1//EN"
 "http://www.w3.org/Graphics/SVG/1.1/DTD/svg11.dtd">
<!-- Generated by graphviz version 2.36.0 (20140111.2315)
 -->
<!-- Title: tls_socket_close Pages: 1 -->
<svg width="380pt" height="85pt"
 viewBox="0.00 0.00 380.00 85.00" xmlns="http://www.w3.org/2000/svg" xmlns:xlink="http://www.w3.org/1999/xlink">
<g id="graph0" class="graph" transform="scale(1 1) rotate(0) translate(4 81)">
<title>tls_socket_close</title>
<polygon fill="white" stroke="none" points="-4,4 -4,-81 376,-81 376,4 -4,4"/>
<!-- Node1 -->
<g id="node1" class="node"><title>Node1</title>
<polygon fill="#bfbfbf" stroke="black" points="0,-19.5 0,-38.5 90,-38.5 90,-19.5 0,-19.5"/>
<text text-anchor="middle" x="45" y="-26.5" font-family="Helvetica,sans-Serif" font-size="10.00">tls_socket_close</text>
</g>
<!-- Node2 -->
<g id="node2" class="node"><title>Node2</title>
<g id="a_node2"><a xlink:href="ssl__gnutls_8c.html#a0c11cb8253f1e3cd4df8ba1a92ef3252" target="_top" xlink:title="Close a TLS connection. ">
<polygon fill="white" stroke="red" points="126.5,-57.5 126.5,-76.5 217.5,-76.5 217.5,-57.5 126.5,-57.5"/>
<text text-anchor="middle" x="172" y="-64.5" font-family="Helvetica,sans-Serif" font-size="10.00">tls_starttls_close</text>
</a>
</g>
</g>
<!-- Node1&#45;&gt;Node2 -->
<g id="edge1" class="edge"><title>Node1&#45;&gt;Node2</title>
<path fill="none" stroke="midnightblue" d="M87.2345,-41.5353C104.239,-46.7048 123.629,-52.5991 139.467,-57.4141"/>
<polygon fill="midnightblue" stroke="midnightblue" points="88.1285,-38.149 77.5428,-38.589 86.0924,-44.8463 88.1285,-38.149"/>
</g>
<!-- Node3 -->
<g id="node3" class="node"><title>Node3</title>
<g id="a_node3"><a xlink:href="ssl__gnutls_8c.html#a5e452ed3f45c2f6d728e8674cbc14171" target="_top" xlink:title="Open a TLS socket. ">
<polygon fill="white" stroke="black" points="128,-19.5 128,-38.5 216,-38.5 216,-19.5 128,-19.5"/>
<text text-anchor="middle" x="172" y="-26.5" font-family="Helvetica,sans-Serif" font-size="10.00">tls_socket_open</text>
</a>
</g>
</g>
<!-- Node1&#45;&gt;Node3 -->
<g id="edge2" class="edge"><title>Node1&#45;&gt;Node3</title>
<path fill="none" stroke="midnightblue" d="M100.292,-29C109.474,-29 118.896,-29 127.748,-29"/>
<polygon fill="midnightblue" stroke="midnightblue" points="100.07,-25.5001 90.0703,-29 100.07,-32.5001 100.07,-25.5001"/>
</g>
<!-- Node4 -->
<g id="node4" class="node"><title>Node4</title>
<g id="a_node4"><a xlink:href="ssl__gnutls_8c.html#ae6341b74ebed0751e68285e6bf379fab" target="_top" xlink:title="Set up SSL socket mulitplexor. ">
<polygon fill="white" stroke="black" points="254,-0.5 254,-19.5 372,-19.5 372,-0.5 254,-0.5"/>
<text text-anchor="middle" x="313" y="-7.5" font-family="Helvetica,sans-Serif" font-size="10.00">mutt_ssl_socket_setup</text>
</a>
</g>
</g>
<!-- Node1&#45;&gt;Node4 -->
<g id="edge4" class="edge"><title>Node1&#45;&gt;Node4</title>
<path fill="none" stroke="midnightblue" d="M88.2268,-17.0301C100.323,-14.1324 113.594,-11.453 126,-10 168.656,-5.00404 217.194,-5.1992 253.988,-6.54005"/>
<polygon fill="midnightblue" stroke="midnightblue" points="87.2382,-13.6695 78.3876,-19.4934 88.9383,-20.46 87.2382,-13.6695"/>
</g>
<!-- Node3&#45;&gt;Node4 -->
<g id="edge3" class="edge"><title>Node3&#45;&gt;Node4</title>
<path fill="none" stroke="midnightblue" d="M226.262,-21.7196C235.336,-20.4792 244.802,-19.1853 253.992,-17.9291"/>
<polygon fill="midnightblue" stroke="midnightblue" points="225.652,-18.2703 216.219,-23.0924 226.6,-25.2058 225.652,-18.2703"/>
</g>
</g>
</svg>
