<?xml version="1.0" encoding="UTF-8" standalone="no"?>
<!DOCTYPE svg PUBLIC "-//W3C//DTD SVG 1.1//EN"
 "http://www.w3.org/Graphics/SVG/1.1/DTD/svg11.dtd">
<!-- Generated by graphviz version 2.36.0 (20140111.2315)
 -->
<!-- Title: ssl_get_client_cert Pages: 1 -->
<svg width="202pt" height="28pt"
 viewBox="0.00 0.00 202.00 28.00" xmlns="http://www.w3.org/2000/svg" xmlns:xlink="http://www.w3.org/1999/xlink">
<g id="graph0" class="graph" transform="scale(1 1) rotate(0) translate(4 24)">
<title>ssl_get_client_cert</title>
<polygon fill="white" stroke="none" points="-4,4 -4,-24 198,-24 198,4 -4,4"/>
<!-- Node1 -->
<g id="node1" class="node"><title>Node1</title>
<polygon fill="#bfbfbf" stroke="black" points="0,-0.5 0,-19.5 98,-19.5 98,-0.5 0,-0.5"/>
<text text-anchor="middle" x="49" y="-7.5" font-family="Helvetica,sans-Serif" font-size="10.00">ssl_get_client_cert</text>
</g>
<!-- Node2 -->
<g id="node2" class="node"><title>Node2</title>
<g id="a_node2"><a xlink:href="ssl_8c.html#a5dd67086d5ccb49018781662b104954e" target="_top" xlink:title="Set up SSL on the Connection. ">
<polygon fill="white" stroke="red" points="134.5,-0.5 134.5,-19.5 193.5,-19.5 193.5,-0.5 134.5,-0.5"/>
<text text-anchor="middle" x="164" y="-7.5" font-family="Helvetica,sans-Serif" font-size="10.00">ssl_setup</text>
</a>
</g>
</g>
<!-- Node1&#45;&gt;Node2 -->
<g id="edge1" class="edge"><title>Node1&#45;&gt;Node2</title>
<path fill="none" stroke="midnightblue" d="M108.358,-10C117.331,-10 126.241,-10 134.182,-10"/>
<polygon fill="midnightblue" stroke="midnightblue" points="108.25,-6.5001 98.2499,-10 108.25,-13.5001 108.25,-6.5001"/>
</g>
</g>
</svg>
