<?xml version="1.0" encoding="UTF-8" standalone="no"?>
<!DOCTYPE svg PUBLIC "-//W3C//DTD SVG 1.1//EN"
 "http://www.w3.org/Graphics/SVG/1.1/DTD/svg11.dtd">
<!-- Generated by graphviz version 2.36.0 (20140111.2315)
 -->
<!-- Title: tls_check_preauth Pages: 1 -->
<svg width="412pt" height="47pt"
 viewBox="0.00 0.00 412.00 47.00" xmlns="http://www.w3.org/2000/svg" xmlns:xlink="http://www.w3.org/1999/xlink">
<g id="graph0" class="graph" transform="scale(1 1) rotate(0) translate(4 43)">
<title>tls_check_preauth</title>
<polygon fill="white" stroke="none" points="-4,4 -4,-43 408,-43 408,4 -4,4"/>
<!-- Node1 -->
<g id="node1" class="node"><title>Node1</title>
<polygon fill="#bfbfbf" stroke="black" points="0,-0.5 0,-19.5 96,-19.5 96,-0.5 0,-0.5"/>
<text text-anchor="middle" x="48" y="-7.5" font-family="Helvetica,sans-Serif" font-size="10.00">tls_check_preauth</text>
</g>
<!-- Node2 -->
<g id="node2" class="node"><title>Node2</title>
<g id="a_node2"><a xlink:href="ssl__gnutls_8c.html#ad2898199aadc914b669fbc3bab018ee2" target="_top" xlink:title="Check a GnuTLS certificate. ">
<polygon fill="white" stroke="black" points="132,-19.5 132,-38.5 260,-38.5 260,-19.5 132,-19.5"/>
<text text-anchor="middle" x="196" y="-26.5" font-family="Helvetica,sans-Serif" font-size="10.00">tls_check_one_certificate</text>
</a>
</g>
</g>
<!-- Node1&#45;&gt;Node2 -->
<g id="edge1" class="edge"><title>Node1&#45;&gt;Node2</title>
<path fill="none" stroke="midnightblue" d="M106.426,-17.4733C114.787,-18.5613 123.433,-19.6864 131.898,-20.788"/>
<polygon fill="midnightblue" stroke="midnightblue" points="106.77,-13.9886 96.402,-16.1688 105.867,-20.9301 106.77,-13.9886"/>
</g>
<!-- Node3 -->
<g id="node3" class="node"><title>Node3</title>
<g id="a_node3"><a xlink:href="ssl__gnutls_8c.html#a0b8141f6dc5a59f2080067f026b20860" target="_top" xlink:title="Check a connection&#39;s certificate. ">
<polygon fill="white" stroke="red" points="296.5,-0.5 296.5,-19.5 403.5,-19.5 403.5,-0.5 296.5,-0.5"/>
<text text-anchor="middle" x="350" y="-7.5" font-family="Helvetica,sans-Serif" font-size="10.00">tls_check_certificate</text>
</a>
</g>
</g>
<!-- Node1&#45;&gt;Node3 -->
<g id="edge3" class="edge"><title>Node1&#45;&gt;Node3</title>
<path fill="none" stroke="midnightblue" d="M106.448,-10C161.244,-10 243.09,-10 296.265,-10"/>
<polygon fill="midnightblue" stroke="midnightblue" points="106.205,-6.5001 96.205,-10 106.205,-13.5001 106.205,-6.5001"/>
</g>
<!-- Node2&#45;&gt;Node3 -->
<g id="edge2" class="edge"><title>Node2&#45;&gt;Node3</title>
<path fill="none" stroke="midnightblue" d="M270.118,-19.8603C278.997,-18.7504 287.929,-17.6339 296.427,-16.5716"/>
<polygon fill="midnightblue" stroke="midnightblue" points="269.63,-16.3939 260.141,-21.1074 270.498,-23.3399 269.63,-16.3939"/>
</g>
</g>
</svg>
