<?xml version="1.0" encoding="UTF-8" standalone="no"?>
<!DOCTYPE svg PUBLIC "-//W3C//DTD SVG 1.1//EN"
 "http://www.w3.org/Graphics/SVG/1.1/DTD/svg11.dtd">
<!-- Generated by graphviz version 2.36.0 (20140111.2315)
 -->
<!-- Title: mutt_ssl_starttls Pages: 1 -->
<svg width="250pt" height="142pt"
 viewBox="0.00 0.00 250.00 142.00" xmlns="http://www.w3.org/2000/svg" xmlns:xlink="http://www.w3.org/1999/xlink">
<g id="graph0" class="graph" transform="scale(1 1) rotate(0) translate(4 138)">
<title>mutt_ssl_starttls</title>
<polygon fill="white" stroke="none" points="-4,4 -4,-138 246,-138 246,4 -4,4"/>
<!-- Node1 -->
<g id="node1" class="node"><title>Node1</title>
<polygon fill="#bfbfbf" stroke="black" points="0.5,-57.5 0.5,-76.5 89.5,-76.5 89.5,-57.5 0.5,-57.5"/>
<text text-anchor="middle" x="45" y="-64.5" font-family="Helvetica,sans-Serif" font-size="10.00">mutt_ssl_starttls</text>
</g>
<!-- Node2 -->
<g id="node2" class="node"><title>Node2</title>
<g id="a_node2"><a xlink:href="imap__private_8h.html#ab37d302c150ffd48994b7f88c735e020" target="_top" xlink:title="Open an IMAP connection. ">
<polygon fill="white" stroke="red" points="126,-114.5 126,-133.5 242,-133.5 242,-114.5 126,-114.5"/>
<text text-anchor="middle" x="184" y="-121.5" font-family="Helvetica,sans-Serif" font-size="10.00">imap_open_connection</text>
</a>
</g>
</g>
<!-- Node1&#45;&gt;Node2 -->
<g id="edge1" class="edge"><title>Node1&#45;&gt;Node2</title>
<path fill="none" stroke="midnightblue" d="M73.8154,-81.2371C89.0313,-88.7635 108.331,-97.8895 126,-105 134.322,-108.349 143.486,-111.592 151.986,-114.423"/>
<polygon fill="midnightblue" stroke="midnightblue" points="74.9736,-77.903 64.4643,-76.5594 71.8419,-84.1634 74.9736,-77.903"/>
</g>
<!-- Node3 -->
<g id="node3" class="node"><title>Node3</title>
<g id="a_node3"><a xlink:href="nntp__private_8h.html#a864c34fdab5ddf5d793c021bbfc57d0e" target="_top" xlink:title="Connect to server, authenticate and get capabilities. ">
<polygon fill="white" stroke="red" points="127,-76.5 127,-95.5 241,-95.5 241,-76.5 127,-76.5"/>
<text text-anchor="middle" x="184" y="-83.5" font-family="Helvetica,sans-Serif" font-size="10.00">nntp_open_connection</text>
</a>
</g>
</g>
<!-- Node1&#45;&gt;Node3 -->
<g id="edge2" class="edge"><title>Node1&#45;&gt;Node3</title>
<path fill="none" stroke="midnightblue" d="M99.8648,-74.4703C108.667,-75.691 117.807,-76.9586 126.667,-78.1874"/>
<polygon fill="midnightblue" stroke="midnightblue" points="100.11,-70.9709 89.7243,-73.064 99.1487,-77.9046 100.11,-70.9709"/>
</g>
<!-- Node4 -->
<g id="node4" class="node"><title>Node4</title>
<g id="a_node4"><a xlink:href="pop__private_8h.html#a9c34e1890bd21e4def6b67b744fe8cc3" target="_top" xlink:title="Open connection and authenticate. ">
<polygon fill="white" stroke="red" points="128.5,-38.5 128.5,-57.5 239.5,-57.5 239.5,-38.5 128.5,-38.5"/>
<text text-anchor="middle" x="184" y="-45.5" font-family="Helvetica,sans-Serif" font-size="10.00">pop_open_connection</text>
</a>
</g>
</g>
<!-- Node1&#45;&gt;Node4 -->
<g id="edge3" class="edge"><title>Node1&#45;&gt;Node4</title>
<path fill="none" stroke="midnightblue" d="M99.6811,-59.5552C109.029,-58.2587 118.764,-56.9086 128.143,-55.6079"/>
<polygon fill="midnightblue" stroke="midnightblue" points="99.1487,-56.0954 89.7243,-60.936 100.11,-63.0291 99.1487,-56.0954"/>
</g>
<!-- Node5 -->
<g id="node5" class="node"><title>Node5</title>
<g id="a_node5"><a xlink:href="smtp_8c.html#a219902e5bbdd76be27f74fc559ebb09c" target="_top" xlink:title="Open an SMTP Connection. ">
<polygon fill="white" stroke="red" points="151.5,-0.5 151.5,-19.5 216.5,-19.5 216.5,-0.5 151.5,-0.5"/>
<text text-anchor="middle" x="184" y="-7.5" font-family="Helvetica,sans-Serif" font-size="10.00">smtp_open</text>
</a>
</g>
</g>
<!-- Node1&#45;&gt;Node5 -->
<g id="edge4" class="edge"><title>Node1&#45;&gt;Node5</title>
<path fill="none" stroke="midnightblue" d="M73.8154,-52.7629C89.0313,-45.2365 108.331,-36.1105 126,-29 134.322,-25.6509 143.486,-22.4078 151.986,-19.5773"/>
<polygon fill="midnightblue" stroke="midnightblue" points="71.8419,-49.8366 64.4643,-57.4406 74.9736,-56.097 71.8419,-49.8366"/>
</g>
</g>
</svg>
