<?xml version="1.0" encoding="UTF-8" standalone="no"?>
<!DOCTYPE svg PUBLIC "-//W3C//DTD SVG 1.1//EN"
 "http://www.w3.org/Graphics/SVG/1.1/DTD/svg11.dtd">
<!-- Generated by graphviz version 2.36.0 (20140111.2315)
 -->
<!-- Title: ssl_init Pages: 1 -->
<svg width="180pt" height="104pt"
 viewBox="0.00 0.00 180.00 104.00" xmlns="http://www.w3.org/2000/svg" xmlns:xlink="http://www.w3.org/1999/xlink">
<g id="graph0" class="graph" transform="scale(1 1) rotate(0) translate(4 100)">
<title>ssl_init</title>
<polygon fill="white" stroke="none" points="-4,4 -4,-100 176,-100 176,4 -4,4"/>
<!-- Node1 -->
<g id="node1" class="node"><title>Node1</title>
<polygon fill="#bfbfbf" stroke="black" points="0.5,-38.5 0.5,-57.5 47.5,-57.5 47.5,-38.5 0.5,-38.5"/>
<text text-anchor="middle" x="24" y="-45.5" font-family="Helvetica,sans-Serif" font-size="10.00">ssl_init</text>
</g>
<!-- Node2 -->
<g id="node2" class="node"><title>Node2</title>
<g id="a_node2"><a xlink:href="ssl_8c.html#a13c099b66aaf5ef1eba6df644a9cd82d" target="_top" xlink:title="Add a source of random numbers. ">
<polygon fill="white" stroke="black" points="93,-76.5 93,-95.5 163,-95.5 163,-76.5 93,-76.5"/>
<text text-anchor="middle" x="128" y="-83.5" font-family="Helvetica,sans-Serif" font-size="10.00">add_entropy</text>
</a>
</g>
</g>
<!-- Node1&#45;&gt;Node2 -->
<g id="edge1" class="edge"><title>Node1&#45;&gt;Node2</title>
<path fill="none" stroke="midnightblue" d="M47.6371,-56.4334C60.5125,-61.2302 76.9243,-67.3444 91.4783,-72.7664"/>
<polygon fill="midnightblue" stroke="midnightblue" points="90.5983,-76.1735 101.191,-76.3849 93.0421,-69.614 90.5983,-76.1735"/>
</g>
<!-- Node3 -->
<g id="node3" class="node"><title>Node3</title>
<g id="a_node3"><a xlink:href="mutt_2string_8c.html#ad000586e39822e85693adda33c02e485" target="_top" xlink:title="Get an environment variable. ">
<polygon fill="white" stroke="black" points="84.5,-38.5 84.5,-57.5 171.5,-57.5 171.5,-38.5 84.5,-38.5"/>
<text text-anchor="middle" x="128" y="-45.5" font-family="Helvetica,sans-Serif" font-size="10.00">mutt_str_getenv</text>
</a>
</g>
</g>
<!-- Node1&#45;&gt;Node3 -->
<g id="edge2" class="edge"><title>Node1&#45;&gt;Node3</title>
<path fill="none" stroke="midnightblue" d="M47.6371,-48C55.5678,-48 64.8402,-48 74.1937,-48"/>
<polygon fill="midnightblue" stroke="midnightblue" points="74.3154,-51.5001 84.3154,-48 74.3153,-44.5001 74.3154,-51.5001"/>
</g>
<!-- Node4 -->
<g id="node4" class="node"><title>Node4</title>
<g id="a_node4"><a xlink:href="mutt__logging_8c.html#af068b3f524a31fad293b2fb61dfc4534" target="_top" xlink:title="Clear the message line (bottom line of screen) ">
<polygon fill="white" stroke="red" points="84.5,-0.5 84.5,-19.5 171.5,-19.5 171.5,-0.5 84.5,-0.5"/>
<text text-anchor="middle" x="128" y="-7.5" font-family="Helvetica,sans-Serif" font-size="10.00">mutt_clear_error</text>
</a>
</g>
</g>
<!-- Node1&#45;&gt;Node4 -->
<g id="edge3" class="edge"><title>Node1&#45;&gt;Node4</title>
<path fill="none" stroke="midnightblue" d="M47.6371,-39.5666C60.5125,-34.7698 76.9243,-28.6556 91.4783,-23.2336"/>
<polygon fill="midnightblue" stroke="midnightblue" points="93.0421,-26.386 101.191,-19.6151 90.5983,-19.8265 93.0421,-26.386"/>
</g>
</g>
</svg>
