<?xml version="1.0" encoding="UTF-8" standalone="no"?>
<!DOCTYPE svg PUBLIC "-//W3C//DTD SVG 1.1//EN"
 "http://www.w3.org/Graphics/SVG/1.1/DTD/svg11.dtd">
<!-- Generated by graphviz version 2.36.0 (20140111.2315)
 -->
<!-- Title: ssl_init Pages: 1 -->
<svg width="210pt" height="66pt"
 viewBox="0.00 0.00 210.00 66.00" xmlns="http://www.w3.org/2000/svg" xmlns:xlink="http://www.w3.org/1999/xlink">
<g id="graph0" class="graph" transform="scale(1 1) rotate(0) translate(4 62)">
<title>ssl_init</title>
<polygon fill="white" stroke="none" points="-4,4 -4,-62 206,-62 206,4 -4,4"/>
<!-- Node1 -->
<g id="node1" class="node"><title>Node1</title>
<polygon fill="#bfbfbf" stroke="black" points="0.5,-19.5 0.5,-38.5 47.5,-38.5 47.5,-19.5 0.5,-19.5"/>
<text text-anchor="middle" x="24" y="-26.5" font-family="Helvetica,sans-Serif" font-size="10.00">ssl_init</text>
</g>
<!-- Node2 -->
<g id="node2" class="node"><title>Node2</title>
<g id="a_node2"><a xlink:href="ssl_8h.html#a23591e82bf992ceb5e62c459fd787b8a" target="_top" xlink:title="Negotiate TLS over an already opened connection. ">
<polygon fill="white" stroke="red" points="98.5,-38.5 98.5,-57.5 187.5,-57.5 187.5,-38.5 98.5,-38.5"/>
<text text-anchor="middle" x="143" y="-45.5" font-family="Helvetica,sans-Serif" font-size="10.00">mutt_ssl_starttls</text>
</a>
</g>
</g>
<!-- Node1&#45;&gt;Node2 -->
<g id="edge1" class="edge"><title>Node1&#45;&gt;Node2</title>
<path fill="none" stroke="midnightblue" d="M57.5789,-34.2906C70.1493,-36.3319 84.7212,-38.6983 98.1839,-40.8846"/>
<polygon fill="midnightblue" stroke="midnightblue" points="57.9905,-30.8117 47.5588,-32.6634 56.8684,-37.7212 57.9905,-30.8117"/>
</g>
<!-- Node3 -->
<g id="node3" class="node"><title>Node3</title>
<g id="a_node3"><a xlink:href="ssl_8h.html#ae6341b74ebed0751e68285e6bf379fab" target="_top" xlink:title="Set up the socket multiplexor. ">
<polygon fill="white" stroke="red" points="84,-0.5 84,-19.5 202,-19.5 202,-0.5 84,-0.5"/>
<text text-anchor="middle" x="143" y="-7.5" font-family="Helvetica,sans-Serif" font-size="10.00">mutt_ssl_socket_setup</text>
</a>
</g>
</g>
<!-- Node1&#45;&gt;Node3 -->
<g id="edge2" class="edge"><title>Node1&#45;&gt;Node3</title>
<path fill="none" stroke="midnightblue" d="M57.6417,-23.6992C65.726,-22.3864 74.6351,-20.9396 83.5428,-19.493"/>
<polygon fill="midnightblue" stroke="midnightblue" points="56.8684,-20.2788 47.5588,-25.3366 57.9905,-27.1883 56.8684,-20.2788"/>
</g>
</g>
</svg>
