<?xml version="1.0" encoding="UTF-8" standalone="no"?>
<!DOCTYPE svg PUBLIC "-//W3C//DTD SVG 1.1//EN"
 "http://www.w3.org/Graphics/SVG/1.1/DTD/svg11.dtd">
<!-- Generated by graphviz version 2.36.0 (20140111.2315)
 -->
<!-- Title: ssl_socket_close Pages: 1 -->
<svg width="254pt" height="77pt"
 viewBox="0.00 0.00 254.00 77.00" xmlns="http://www.w3.org/2000/svg" xmlns:xlink="http://www.w3.org/1999/xlink">
<g id="graph0" class="graph" transform="scale(1 1) rotate(0) translate(4 73)">
<title>ssl_socket_close</title>
<polygon fill="white" stroke="none" points="-4,4 -4,-73 250,-73 250,4 -4,4"/>
<!-- Node1 -->
<g id="node1" class="node"><title>Node1</title>
<polygon fill="#bfbfbf" stroke="black" points="0,-22.5 0,-41.5 92,-41.5 92,-22.5 0,-22.5"/>
<text text-anchor="middle" x="46" y="-29.5" font-family="Helvetica,sans-Serif" font-size="10.00">ssl_socket_close</text>
</g>
<!-- Node2 -->
<g id="node2" class="node"><title>Node2</title>
<g id="a_node2"><a xlink:href="ssl_8c.html#a580181fa12ad95a66805761f701e7cd2" target="_top" xlink:title="Close an SSL Connection and restore Connnection callbacks. ">
<polygon fill="white" stroke="red" points="130.5,-39 130.5,-69 243.5,-69 243.5,-39 130.5,-39"/>
<text text-anchor="start" x="138.5" y="-57" font-family="Helvetica,sans-Serif" font-size="10.00">ssl_socket_close_and</text>
<text text-anchor="middle" x="187" y="-46" font-family="Helvetica,sans-Serif" font-size="10.00">_restore</text>
</a>
</g>
</g>
<!-- Node1&#45;&gt;Node2 -->
<g id="edge1" class="edge"><title>Node1&#45;&gt;Node2</title>
<path fill="none" stroke="midnightblue" d="M102.067,-40.7156C111.387,-42.1908 121.07,-43.7233 130.403,-45.2005"/>
<polygon fill="midnightblue" stroke="midnightblue" points="102.554,-37.2492 92.1293,-39.1428 101.459,-44.1631 102.554,-37.2492"/>
</g>
<!-- Node3 -->
<g id="node3" class="node"><title>Node3</title>
<g id="a_node3"><a xlink:href="ssl_8h.html#ae6341b74ebed0751e68285e6bf379fab" target="_top" xlink:title="Set up the socket multiplexor. ">
<polygon fill="white" stroke="red" points="128,-0.5 128,-19.5 246,-19.5 246,-0.5 128,-0.5"/>
<text text-anchor="middle" x="187" y="-7.5" font-family="Helvetica,sans-Serif" font-size="10.00">mutt_ssl_socket_setup</text>
</a>
</g>
</g>
<!-- Node1&#45;&gt;Node3 -->
<g id="edge2" class="edge"><title>Node1&#45;&gt;Node3</title>
<path fill="none" stroke="midnightblue" d="M102.245,-23.2562C110.686,-21.9203 119.42,-20.5379 127.92,-19.1926"/>
<polygon fill="midnightblue" stroke="midnightblue" points="101.459,-19.8369 92.1293,-24.8572 102.554,-26.7508 101.459,-19.8369"/>
</g>
</g>
</svg>
