<?xml version="1.0" encoding="UTF-8" standalone="no"?>
<!DOCTYPE svg PUBLIC "-//W3C//DTD SVG 1.1//EN"
 "http://www.w3.org/Graphics/SVG/1.1/DTD/svg11.dtd">
<!-- Generated by graphviz version 2.36.0 (20140111.2315)
 -->
<!-- Title: menu_status_line Pages: 1 -->
<svg width="380pt" height="65pt"
 viewBox="0.00 0.00 380.00 65.00" xmlns="http://www.w3.org/2000/svg" xmlns:xlink="http://www.w3.org/1999/xlink">
<g id="graph0" class="graph" transform="scale(1 1) rotate(0) translate(4 61)">
<title>menu_status_line</title>
<polygon fill="white" stroke="none" points="-4,4 -4,-61 376,-61 376,4 -4,4"/>
<!-- Node1 -->
<g id="node1" class="node"><title>Node1</title>
<polygon fill="#bfbfbf" stroke="black" points="0.5,-19.5 0.5,-38.5 93.5,-38.5 93.5,-19.5 0.5,-19.5"/>
<text text-anchor="middle" x="47" y="-26.5" font-family="Helvetica,sans-Serif" font-size="10.00">menu_status_line</text>
</g>
<!-- Node2 -->
<g id="node2" class="node"><title>Node2</title>
<g id="a_node2"><a xlink:href="muttlib_8c.html#a5efffe8bf1716c24b902f42e1d2166a0" target="_top" xlink:title="Expand expandos (x) in a string. ">
<polygon fill="white" stroke="red" points="260.5,-19.5 260.5,-38.5 371.5,-38.5 371.5,-19.5 260.5,-19.5"/>
<text text-anchor="middle" x="316" y="-26.5" font-family="Helvetica,sans-Serif" font-size="10.00">mutt_expando_format</text>
</a>
</g>
</g>
<!-- Node1&#45;&gt;Node2 -->
<g id="edge1" class="edge"><title>Node1&#45;&gt;Node2</title>
<path fill="none" stroke="midnightblue" d="M93.5956,-29C136.702,-29 201.819,-29 250.289,-29"/>
<polygon fill="midnightblue" stroke="midnightblue" points="250.366,-32.5001 260.366,-29 250.366,-25.5001 250.366,-32.5001"/>
</g>
<!-- Node3 -->
<g id="node3" class="node"><title>Node3</title>
<g id="a_node3"><a xlink:href="status_8c.html#a92f5e92c0ed851b635ca764b9102059e" target="_top" xlink:title="Create the status bar string &#45; Implements format_t. ">
<polygon fill="white" stroke="red" points="130.5,-0.5 130.5,-19.5 223.5,-19.5 223.5,-0.5 130.5,-0.5"/>
<text text-anchor="middle" x="177" y="-7.5" font-family="Helvetica,sans-Serif" font-size="10.00">status_format_str</text>
</a>
</g>
</g>
<!-- Node1&#45;&gt;Node3 -->
<g id="edge3" class="edge"><title>Node1&#45;&gt;Node3</title>
<path fill="none" stroke="midnightblue" d="M93.8494,-22.1942C102.501,-20.91 111.636,-19.5541 120.545,-18.2316"/>
<polygon fill="midnightblue" stroke="midnightblue" points="121.093,-21.6887 130.471,-16.7583 120.065,-14.7646 121.093,-21.6887"/>
</g>
<!-- Node2&#45;&gt;Node2 -->
<g id="edge2" class="edge"><title>Node2&#45;&gt;Node2</title>
<path fill="none" stroke="midnightblue" d="M294.73,-38.7571C284.383,-47.5653 291.473,-57 316,-57 331.713,-57 340.269,-53.128 341.67,-48.0292"/>
<polygon fill="midnightblue" stroke="midnightblue" points="344.719,-46.2911 337.27,-38.7571 338.395,-49.292 344.719,-46.2911"/>
</g>
<!-- Node3&#45;&gt;Node2 -->
<g id="edge4" class="edge"><title>Node3&#45;&gt;Node2</title>
<path fill="none" stroke="midnightblue" d="M223.619,-16.3267C232.102,-17.5032 241.114,-18.7531 250.046,-19.9918"/>
<polygon fill="midnightblue" stroke="midnightblue" points="249.677,-23.474 260.063,-21.381 250.639,-16.5404 249.677,-23.474"/>
</g>
</g>
</svg>
