<?xml version="1.0" encoding="UTF-8" standalone="no"?>
<!DOCTYPE svg PUBLIC "-//W3C//DTD SVG 1.1//EN"
 "http://www.w3.org/Graphics/SVG/1.1/DTD/svg11.dtd">
<!-- Generated by graphviz version 2.36.0 (20140111.2315)
 -->
<!-- Title: state_putwc Pages: 1 -->
<svg width="184pt" height="28pt"
 viewBox="0.00 0.00 184.00 28.00" xmlns="http://www.w3.org/2000/svg" xmlns:xlink="http://www.w3.org/1999/xlink">
<g id="graph0" class="graph" transform="scale(1 1) rotate(0) translate(4 24)">
<title>state_putwc</title>
<polygon fill="white" stroke="none" points="-4,4 -4,-24 180,-24 180,4 -4,4"/>
<!-- Node1 -->
<g id="node1" class="node"><title>Node1</title>
<polygon fill="#bfbfbf" stroke="black" points="0,-0.5 0,-19.5 70,-19.5 70,-0.5 0,-0.5"/>
<text text-anchor="middle" x="35" y="-7.5" font-family="Helvetica,sans-Serif" font-size="10.00">state_putwc</text>
</g>
<!-- Node2 -->
<g id="node2" class="node"><title>Node2</title>
<g id="a_node2"><a xlink:href="state_8h.html#ada6e4e4511b0abdbe750e93dba1846a8" target="_top" xlink:title="Write a wide string to the state. ">
<polygon fill="white" stroke="red" points="106,-0.5 106,-19.5 176,-19.5 176,-0.5 106,-0.5"/>
<text text-anchor="middle" x="141" y="-7.5" font-family="Helvetica,sans-Serif" font-size="10.00">state_putws</text>
</a>
</g>
</g>
<!-- Node1&#45;&gt;Node2 -->
<g id="edge1" class="edge"><title>Node1&#45;&gt;Node2</title>
<path fill="none" stroke="midnightblue" d="M80.2896,-10C88.8499,-10 97.6953,-10 105.87,-10"/>
<polygon fill="midnightblue" stroke="midnightblue" points="80.0535,-6.5001 70.0535,-10 80.0535,-13.5001 80.0535,-6.5001"/>
</g>
</g>
</svg>
