<?xml version="1.0" encoding="UTF-8" standalone="no"?>
<!DOCTYPE svg PUBLIC "-//W3C//DTD SVG 1.1//EN"
 "http://www.w3.org/Graphics/SVG/1.1/DTD/svg11.dtd">
<!-- Generated by graphviz version 2.36.0 (20140111.2315)
 -->
<!-- Title: mutt_str_strlower Pages: 1 -->
<svg width="248pt" height="160pt"
 viewBox="0.00 0.00 248.00 160.00" xmlns="http://www.w3.org/2000/svg" xmlns:xlink="http://www.w3.org/1999/xlink">
<g id="graph0" class="graph" transform="scale(1 1) rotate(0) translate(4 156)">
<title>mutt_str_strlower</title>
<polygon fill="white" stroke="none" points="-4,4 -4,-156 244,-156 244,4 -4,4"/>
<!-- Node1 -->
<g id="node1" class="node"><title>Node1</title>
<polygon fill="#bfbfbf" stroke="black" points="0,-57.5 0,-76.5 92,-76.5 92,-57.5 0,-57.5"/>
<text text-anchor="middle" x="46" y="-64.5" font-family="Helvetica,sans-Serif" font-size="10.00">mutt_str_strlower</text>
</g>
<!-- Node2 -->
<g id="node2" class="node"><title>Node2</title>
<g id="a_node2"><a xlink:href="muttlib_8h.html#aca3c782910dc4c6db5545b25e0d5c01c" target="_top" xlink:title="Turn an email address into a filename (for saving) ">
<polygon fill="white" stroke="red" points="141,-132.5 141,-151.5 227,-151.5 227,-132.5 141,-132.5"/>
<text text-anchor="middle" x="184" y="-139.5" font-family="Helvetica,sans-Serif" font-size="10.00">mutt_save_path</text>
</a>
</g>
</g>
<!-- Node1&#45;&gt;Node2 -->
<g id="edge1" class="edge"><title>Node1&#45;&gt;Node2</title>
<path fill="none" stroke="midnightblue" d="M66.6895,-82.8945C82.5278,-95.102 105.737,-111.726 128,-123 135.12,-126.606 143.083,-129.795 150.691,-132.482"/>
<polygon fill="midnightblue" stroke="midnightblue" points="68.7301,-80.0468 58.7016,-76.629 64.4098,-85.5546 68.7301,-80.0468"/>
</g>
<!-- Node3 -->
<g id="node3" class="node"><title>Node3</title>
<g id="a_node3"><a xlink:href="muttlib_8h.html#a5efffe8bf1716c24b902f42e1d2166a0" target="_top" xlink:title="Expand expandos (x) in a string. ">
<polygon fill="white" stroke="red" points="128.5,-76.5 128.5,-95.5 239.5,-95.5 239.5,-76.5 128.5,-76.5"/>
<text text-anchor="middle" x="184" y="-83.5" font-family="Helvetica,sans-Serif" font-size="10.00">mutt_expando_format</text>
</a>
</g>
</g>
<!-- Node1&#45;&gt;Node3 -->
<g id="edge2" class="edge"><title>Node1&#45;&gt;Node3</title>
<path fill="none" stroke="midnightblue" d="M102.267,-74.7211C110.91,-75.9286 119.838,-77.1758 128.464,-78.381"/>
<polygon fill="midnightblue" stroke="midnightblue" points="102.674,-71.2441 92.286,-73.3267 101.706,-78.1768 102.674,-71.2441"/>
</g>
<!-- Node4 -->
<g id="node4" class="node"><title>Node4</title>
<g id="a_node4"><a xlink:href="crypt__gpgme_8c.html#a8394b79a9ee75bfdee31a249225de4c9" target="_top" xlink:title="Find the &quot;micalg&quot; parameter from the last GPGME operation. ">
<polygon fill="white" stroke="red" points="152,-38.5 152,-57.5 216,-57.5 216,-38.5 152,-38.5"/>
<text text-anchor="middle" x="184" y="-45.5" font-family="Helvetica,sans-Serif" font-size="10.00">get_micalg</text>
</a>
</g>
</g>
<!-- Node1&#45;&gt;Node4 -->
<g id="edge4" class="edge"><title>Node1&#45;&gt;Node4</title>
<path fill="none" stroke="midnightblue" d="M102.537,-59.2411C119.279,-56.9022 137.064,-54.4175 151.644,-52.3806"/>
<polygon fill="midnightblue" stroke="midnightblue" points="101.706,-55.8232 92.286,-60.6733 102.674,-62.7559 101.706,-55.8232"/>
</g>
<!-- Node5 -->
<g id="node5" class="node"><title>Node5</title>
<g id="a_node5"><a xlink:href="nntp_8h.html#aacc897caa899d06ff3babd20feeb6e42" target="_top" xlink:title="Expand the newsrc filename &#45; Implements format_t. ">
<polygon fill="white" stroke="red" points="141.5,-0.5 141.5,-19.5 226.5,-19.5 226.5,-0.5 141.5,-0.5"/>
<text text-anchor="middle" x="184" y="-7.5" font-family="Helvetica,sans-Serif" font-size="10.00">nntp_format_str</text>
</a>
</g>
</g>
<!-- Node1&#45;&gt;Node5 -->
<g id="edge5" class="edge"><title>Node1&#45;&gt;Node5</title>
<path fill="none" stroke="midnightblue" d="M75.0817,-52.928C90.5226,-45.4192 110.122,-36.2578 128,-29 136.144,-25.694 145.104,-22.4407 153.386,-19.5861"/>
<polygon fill="midnightblue" stroke="midnightblue" points="73.4919,-49.8094 66.0575,-57.358 76.5766,-56.0931 73.4919,-49.8094"/>
</g>
<!-- Node3&#45;&gt;Node3 -->
<g id="edge3" class="edge"><title>Node3&#45;&gt;Node3</title>
<path fill="none" stroke="midnightblue" d="M158.33,-105.029C159.731,-110.128 168.287,-114 184,-114 208.527,-114 215.617,-104.565 205.27,-95.7571"/>
<polygon fill="midnightblue" stroke="midnightblue" points="161.605,-106.292 162.73,-95.7571 155.281,-103.291 161.605,-106.292"/>
</g>
</g>
</svg>
