<?xml version="1.0" encoding="UTF-8" standalone="no"?>
<!DOCTYPE svg PUBLIC "-//W3C//DTD SVG 1.1//EN"
 "http://www.w3.org/Graphics/SVG/1.1/DTD/svg11.dtd">
<!-- Generated by graphviz version 2.36.0 (20140111.2315)
 -->
<!-- Title: mutt_str_strnfcpy Pages: 1 -->
<svg width="266pt" height="66pt"
 viewBox="0.00 0.00 266.00 66.00" xmlns="http://www.w3.org/2000/svg" xmlns:xlink="http://www.w3.org/1999/xlink">
<g id="graph0" class="graph" transform="scale(1 1) rotate(0) translate(4 62)">
<title>mutt_str_strnfcpy</title>
<polygon fill="white" stroke="none" points="-4,4 -4,-62 262,-62 262,4 -4,4"/>
<!-- Node1 -->
<g id="node1" class="node"><title>Node1</title>
<polygon fill="#bfbfbf" stroke="black" points="0.5,-19.5 0.5,-38.5 93.5,-38.5 93.5,-19.5 0.5,-19.5"/>
<text text-anchor="middle" x="47" y="-26.5" font-family="Helvetica,sans-Serif" font-size="10.00">mutt_str_strnfcpy</text>
</g>
<!-- Node2 -->
<g id="node2" class="node"><title>Node2</title>
<g id="a_node2"><a xlink:href="test_2string_8c.html#ac15d5077c8cb01d7092f562b0362c81e" target="_top" xlink:title="test_string_strnfcpy">
<polygon fill="white" stroke="black" points="142.5,-38.5 142.5,-57.5 245.5,-57.5 245.5,-38.5 142.5,-38.5"/>
<text text-anchor="middle" x="194" y="-45.5" font-family="Helvetica,sans-Serif" font-size="10.00">test_string_strnfcpy</text>
</a>
</g>
</g>
<!-- Node1&#45;&gt;Node2 -->
<g id="edge1" class="edge"><title>Node1&#45;&gt;Node2</title>
<path fill="none" stroke="midnightblue" d="M103.862,-36.3199C116.542,-37.9814 129.94,-39.737 142.388,-41.3681"/>
<polygon fill="midnightblue" stroke="midnightblue" points="104.249,-32.8407 93.8789,-35.0117 103.339,-39.7814 104.249,-32.8407"/>
</g>
<!-- Node3 -->
<g id="node3" class="node"><title>Node3</title>
<g id="a_node3"><a xlink:href="rfc1524_8h.html#ab4ec83386c57ef71ba37f35e1685dae3" target="_top" xlink:title="Expand a new filename from a template or existing filename. ">
<polygon fill="white" stroke="red" points="130,-0.5 130,-19.5 258,-19.5 258,-0.5 130,-0.5"/>
<text text-anchor="middle" x="194" y="-7.5" font-family="Helvetica,sans-Serif" font-size="10.00">rfc1524_expand_filename</text>
</a>
</g>
</g>
<!-- Node1&#45;&gt;Node3 -->
<g id="edge2" class="edge"><title>Node1&#45;&gt;Node3</title>
<path fill="none" stroke="midnightblue" d="M104.032,-21.6578C112.513,-20.5466 121.311,-19.3937 129.928,-18.2646"/>
<polygon fill="midnightblue" stroke="midnightblue" points="103.339,-18.2186 93.8789,-22.9883 104.249,-25.1593 103.339,-18.2186"/>
</g>
</g>
</svg>
