<?xml version="1.0" encoding="UTF-8" standalone="no"?>
<!DOCTYPE svg PUBLIC "-//W3C//DTD SVG 1.1//EN"
 "http://www.w3.org/Graphics/SVG/1.1/DTD/svg11.dtd">
<!-- Generated by graphviz version 2.36.0 (20140111.2315)
 -->
<!-- Title: Pattern Pages: 1 -->
<svg width="96pt" height="98pt"
 viewBox="0.00 0.00 96.00 98.00" xmlns="http://www.w3.org/2000/svg" xmlns:xlink="http://www.w3.org/1999/xlink">
<g id="graph0" class="graph" transform="scale(1 1) rotate(0) translate(4 94)">
<title>Pattern</title>
<polygon fill="white" stroke="none" points="-4,4 -4,-94 92,-94 92,4 -4,4"/>
<!-- Node1 -->
<g id="node1" class="node"><title>Node1</title>
<polygon fill="#bfbfbf" stroke="black" points="0,-1.5 0,-20.5 48,-20.5 48,-1.5 0,-1.5"/>
<text text-anchor="middle" x="24" y="-8.5" font-family="Helvetica,sans-Serif" font-size="10.00">Pattern</text>
</g>
<!-- Node1&#45;&gt;Node1 -->
<g id="edge2" class="edge"><title>Node1&#45;&gt;Node1</title>
<path fill="none" stroke="#9a32cd" stroke-dasharray="5,2" d="M58.4246,-16.6249C62.9786,-15.6671 66,-13.7922 66,-11 66,-6.41797 57.8635,-4.30594 48.1697,-4.66391"/>
<polygon fill="#9a32cd" stroke="#9a32cd" points="57.9035,-13.1525 48.1697,-17.3361 58.3879,-20.1358 57.9035,-13.1525"/>
<text text-anchor="middle" x="77" y="-14" font-family="Helvetica,sans-Serif" font-size="10.00"> next</text>
<text text-anchor="middle" x="77" y="-3" font-family="Helvetica,sans-Serif" font-size="10.00">child</text>
</g>
<!-- Node2 -->
<g id="node2" class="node"><title>Node2</title>
<g id="a_node2"><a xlink:href="structGroup.html" target="_top" xlink:title="A set of email addresses. ">
<polygon fill="white" stroke="red" points="2.5,-70.5 2.5,-89.5 45.5,-89.5 45.5,-70.5 2.5,-70.5"/>
<text text-anchor="middle" x="24" y="-77.5" font-family="Helvetica,sans-Serif" font-size="10.00">Group</text>
</a>
</g>
</g>
<!-- Node2&#45;&gt;Node1 -->
<g id="edge1" class="edge"><title>Node2&#45;&gt;Node1</title>
<path fill="none" stroke="#9a32cd" stroke-dasharray="5,2" d="M24,-60.0183C24,-47.034 24,-30.4419 24,-20.5494"/>
<polygon fill="#9a32cd" stroke="#9a32cd" points="20.5001,-60.2409 24,-70.2409 27.5001,-60.241 20.5001,-60.2409"/>
<text text-anchor="middle" x="28.5" y="-43.5" font-family="Helvetica,sans-Serif" font-size="10.00"> g</text>
</g>
</g>
</svg>
