<?xml version="1.0" encoding="UTF-8" standalone="no"?>
<!DOCTYPE svg PUBLIC "-//W3C//DTD SVG 1.1//EN"
 "http://www.w3.org/Graphics/SVG/1.1/DTD/svg11.dtd">
<!-- Generated by graphviz version 2.36.0 (20140111.2315)
 -->
<!-- Title: SbEntry Pages: 1 -->
<svg width="71pt" height="96pt"
 viewBox="0.00 0.00 71.00 96.00" xmlns="http://www.w3.org/2000/svg" xmlns:xlink="http://www.w3.org/1999/xlink">
<g id="graph0" class="graph" transform="scale(1 1) rotate(0) translate(4 92)">
<title>SbEntry</title>
<polygon fill="white" stroke="none" points="-4,4 -4,-92 67,-92 67,4 -4,4"/>
<!-- Node1 -->
<g id="node1" class="node"><title>Node1</title>
<polygon fill="#bfbfbf" stroke="black" points="0,-0.5 0,-19.5 52,-19.5 52,-0.5 0,-0.5"/>
<text text-anchor="middle" x="26" y="-7.5" font-family="Helvetica,sans-Serif" font-size="10.00">SbEntry</text>
</g>
<!-- Node2 -->
<g id="node2" class="node"><title>Node2</title>
<g id="a_node2"><a xlink:href="structMailbox.html" target="_top" xlink:title="A mailbox. ">
<polygon fill="white" stroke="black" points="1,-68.5 1,-87.5 51,-87.5 51,-68.5 1,-68.5"/>
<text text-anchor="middle" x="26" y="-75.5" font-family="Helvetica,sans-Serif" font-size="10.00">Mailbox</text>
</a>
</g>
</g>
<!-- Node2&#45;&gt;Node1 -->
<g id="edge1" class="edge"><title>Node2&#45;&gt;Node1</title>
<path fill="none" stroke="#9a32cd" stroke-dasharray="5,2" d="M26,-58.0413C26,-45.4724 26,-29.5631 26,-19.8411"/>
<polygon fill="#9a32cd" stroke="#9a32cd" points="22.5001,-58.3716 26,-68.3717 29.5001,-58.3717 22.5001,-58.3716"/>
<text text-anchor="middle" x="44.5" y="-41.5" font-family="Helvetica,sans-Serif" font-size="10.00"> mailbox</text>
</g>
</g>
</svg>
