<?xml version="1.0" encoding="UTF-8" standalone="no"?>
<!DOCTYPE svg PUBLIC "-//W3C//DTD SVG 1.1//EN"
 "http://www.w3.org/Graphics/SVG/1.1/DTD/svg11.dtd">
<!-- Generated by graphviz version 2.36.0 (20140111.2315)
 -->
<!-- Title: ColorLine Pages: 1 -->
<svg width="100pt" height="98pt"
 viewBox="0.00 0.00 100.00 98.00" xmlns="http://www.w3.org/2000/svg" xmlns:xlink="http://www.w3.org/1999/xlink">
<g id="graph0" class="graph" transform="scale(1 1) rotate(0) translate(4 94)">
<title>ColorLine</title>
<polygon fill="white" stroke="none" points="-4,4 -4,-94 96,-94 96,4 -4,4"/>
<!-- Node1 -->
<g id="node1" class="node"><title>Node1</title>
<polygon fill="#bfbfbf" stroke="black" points="-1,-0.5 -1,-19.5 57,-19.5 57,-0.5 -1,-0.5"/>
<text text-anchor="middle" x="28" y="-7.5" font-family="Helvetica,sans-Serif" font-size="10.00">ColorLine</text>
</g>
<!-- Node2 -->
<g id="node2" class="node"><title>Node2</title>
<g id="a_node2"><a xlink:href="structPattern.html" target="_top" xlink:title="A simple (non&#45;regex) pattern. ">
<polygon fill="white" stroke="red" points="4,-69.5 4,-88.5 52,-88.5 52,-69.5 4,-69.5"/>
<text text-anchor="middle" x="28" y="-76.5" font-family="Helvetica,sans-Serif" font-size="10.00">Pattern</text>
</a>
</g>
</g>
<!-- Node2&#45;&gt;Node1 -->
<g id="edge1" class="edge"><title>Node2&#45;&gt;Node1</title>
<path fill="none" stroke="#9a32cd" stroke-dasharray="5,2" d="M28,-59.0183C28,-46.034 28,-29.4419 28,-19.5494"/>
<polygon fill="#9a32cd" stroke="#9a32cd" points="24.5001,-59.2409 28,-69.2409 31.5001,-59.241 24.5001,-59.2409"/>
<text text-anchor="middle" x="58" y="-41.5" font-family="Helvetica,sans-Serif" font-size="10.00"> color_pattern</text>
</g>
<!-- Node2&#45;&gt;Node2 -->
<g id="edge2" class="edge"><title>Node2&#45;&gt;Node2</title>
<path fill="none" stroke="#9a32cd" stroke-dasharray="5,2" d="M62.4246,-84.6249C66.9786,-83.6671 70,-81.7922 70,-79 70,-74.418 61.8635,-72.3059 52.1697,-72.6639"/>
<polygon fill="#9a32cd" stroke="#9a32cd" points="61.9035,-81.1525 52.1697,-85.3361 62.3879,-88.1358 61.9035,-81.1525"/>
<text text-anchor="middle" x="81" y="-82" font-family="Helvetica,sans-Serif" font-size="10.00"> next</text>
<text text-anchor="middle" x="81" y="-71" font-family="Helvetica,sans-Serif" font-size="10.00">child</text>
</g>
</g>
</svg>
