<?xml version="1.0" encoding="UTF-8" standalone="no"?>
<!DOCTYPE svg PUBLIC "-//W3C//DTD SVG 1.1//EN"
 "http://www.w3.org/Graphics/SVG/1.1/DTD/svg11.dtd">
<!-- Generated by graphviz version 2.36.0 (20140111.2315)
 -->
<!-- Title: Body Pages: 1 -->
<svg width="158pt" height="166pt"
 viewBox="0.00 0.00 158.00 166.00" xmlns="http://www.w3.org/2000/svg" xmlns:xlink="http://www.w3.org/1999/xlink">
<g id="graph0" class="graph" transform="scale(1 1) rotate(0) translate(4 162)">
<title>Body</title>
<polygon fill="white" stroke="none" points="-4,4 -4,-162 154,-162 154,4 -4,4"/>
<!-- Node1 -->
<g id="node1" class="node"><title>Node1</title>
<polygon fill="#bfbfbf" stroke="black" points="52.5,-69.5 52.5,-88.5 91.5,-88.5 91.5,-69.5 52.5,-69.5"/>
<text text-anchor="middle" x="72" y="-76.5" font-family="Helvetica,sans-Serif" font-size="10.00">Body</text>
</g>
<!-- Node1&#45;&gt;Node1 -->
<g id="edge6" class="edge"><title>Node1&#45;&gt;Node1</title>
<path fill="none" stroke="#9a32cd" stroke-dasharray="5,2" d="M101.951,-84.7109C106.172,-83.7819 109,-81.8783 109,-79 109,-74.1523 100.977,-72.0694 91.7944,-72.7511"/>
<polygon fill="#9a32cd" stroke="#9a32cd" points="101.595,-81.2248 91.7944,-85.2489 101.966,-88.215 101.595,-81.2248"/>
<text text-anchor="middle" x="120" y="-82" font-family="Helvetica,sans-Serif" font-size="10.00"> next</text>
<text text-anchor="middle" x="120" y="-71" font-family="Helvetica,sans-Serif" font-size="10.00">parts</text>
</g>
<!-- Node2 -->
<g id="node2" class="node"><title>Node2</title>
<g id="a_node2"><a xlink:href="structAttachPtr.html" target="_top" xlink:title="An email to which things will be attached. ">
<polygon fill="white" stroke="black" points="0,-0.5 0,-19.5 58,-19.5 58,-0.5 0,-0.5"/>
<text text-anchor="middle" x="29" y="-7.5" font-family="Helvetica,sans-Serif" font-size="10.00">AttachPtr</text>
</a>
</g>
</g>
<!-- Node1&#45;&gt;Node2 -->
<g id="edge2" class="edge"><title>Node1&#45;&gt;Node2</title>
<path fill="none" stroke="#9a32cd" stroke-dasharray="5,2" d="M42.3007,-73.3056C28.5117,-69.4769 13.3522,-62.5427 5,-50 -1.78595,-39.8094 8.27751,-27.7661 17.3741,-19.787"/>
<polygon fill="#9a32cd" stroke="#9a32cd" points="41.9091,-76.8081 52.4426,-75.6695 43.4982,-69.9908 41.9091,-76.8081"/>
<text text-anchor="middle" x="23" y="-41.5" font-family="Helvetica,sans-Serif" font-size="10.00"> content</text>
</g>
<!-- Node3 -->
<g id="node3" class="node"><title>Node3</title>
<g id="a_node3"><a xlink:href="structHeader.html" target="_top" xlink:title="The header/envelope of an email. ">
<polygon fill="white" stroke="red" points="91,-0.5 91,-19.5 139,-19.5 139,-0.5 91,-0.5"/>
<text text-anchor="middle" x="115" y="-7.5" font-family="Helvetica,sans-Serif" font-size="10.00">Header</text>
</a>
</g>
</g>
<!-- Node1&#45;&gt;Node3 -->
<g id="edge4" class="edge"><title>Node1&#45;&gt;Node3</title>
<path fill="none" stroke="#9a32cd" stroke-dasharray="5,2" d="M79.2758,-59.9234C82.4567,-52.8433 86.493,-44.804 91,-38 95.2947,-31.5165 101.06,-24.9792 105.863,-19.9613"/>
<polygon fill="#9a32cd" stroke="#9a32cd" points="75.9581,-58.782 75.2722,-69.3547 82.4015,-61.5174 75.9581,-58.782"/>
<text text-anchor="middle" x="109" y="-41.5" font-family="Helvetica,sans-Serif" font-size="10.00"> content</text>
</g>
<!-- Node2&#45;&gt;Node1 -->
<g id="edge1" class="edge"><title>Node2&#45;&gt;Node1</title>
<path fill="none" stroke="#9a32cd" stroke-dasharray="5,2" d="M39.0435,-28.7753C42.9594,-35.5038 47.5663,-43.1815 52,-50 56.2986,-56.6108 61.4817,-63.8485 65.4942,-69.3091"/>
<polygon fill="#9a32cd" stroke="#9a32cd" points="41.9119,-26.7413 33.9015,-19.807 35.8392,-30.2232 41.9119,-26.7413"/>
<text text-anchor="middle" x="62" y="-41.5" font-family="Helvetica,sans-Serif" font-size="10.00"> aptr</text>
</g>
<!-- Node3&#45;&gt;Node1 -->
<g id="edge3" class="edge"><title>Node3&#45;&gt;Node1</title>
<path fill="none" stroke="#9a32cd" stroke-dasharray="5,2" d="M128.909,-28.0073C132.967,-35.0847 135.29,-43.2151 131,-50 122.396,-63.6078 105.184,-70.7344 91.5606,-74.3831"/>
<polygon fill="#9a32cd" stroke="#9a32cd" points="131.784,-26.0105 123.21,-19.7864 126.031,-29.9988 131.784,-26.0105"/>
<text text-anchor="middle" x="141.5" y="-41.5" font-family="Helvetica,sans-Serif" font-size="10.00"> hdr</text>
</g>
<!-- Node4 -->
<g id="node4" class="node"><title>Node4</title>
<g id="a_node4"><a xlink:href="structContent.html" target="_top" xlink:title="Info about an attachment. ">
<polygon fill="white" stroke="black" points="46.5,-138.5 46.5,-157.5 97.5,-157.5 97.5,-138.5 46.5,-138.5"/>
<text text-anchor="middle" x="72" y="-145.5" font-family="Helvetica,sans-Serif" font-size="10.00">Content</text>
</a>
</g>
</g>
<!-- Node4&#45;&gt;Node1 -->
<g id="edge5" class="edge"><title>Node4&#45;&gt;Node1</title>
<path fill="none" stroke="#9a32cd" stroke-dasharray="5,2" d="M72,-128.018C72,-115.034 72,-98.4419 72,-88.5494"/>
<polygon fill="#9a32cd" stroke="#9a32cd" points="68.5001,-128.241 72,-138.241 75.5001,-128.241 68.5001,-128.241"/>
<text text-anchor="middle" x="90" y="-111.5" font-family="Helvetica,sans-Serif" font-size="10.00"> content</text>
</g>
</g>
</svg>
