<?xml version="1.0" encoding="UTF-8" standalone="no"?>
<!DOCTYPE svg PUBLIC "-//W3C//DTD SVG 1.1//EN"
 "http://www.w3.org/Graphics/SVG/1.1/DTD/svg11.dtd">
<!-- Generated by graphviz version 2.36.0 (20140111.2315)
 -->
<!-- Title: Menu Pages: 1 -->
<svg width="98pt" height="128pt"
 viewBox="0.00 0.00 98.00 128.00" xmlns="http://www.w3.org/2000/svg" xmlns:xlink="http://www.w3.org/1999/xlink">
<g id="graph0" class="graph" transform="scale(1 1) rotate(0) translate(4 124)">
<title>Menu</title>
<polygon fill="white" stroke="none" points="-4,4 -4,-124 94,-124 94,4 -4,4"/>
<!-- Node1 -->
<g id="node1" class="node"><title>Node1</title>
<polygon fill="#bfbfbf" stroke="black" points="14.5,-0.5 14.5,-19.5 55.5,-19.5 55.5,-0.5 14.5,-0.5"/>
<text text-anchor="middle" x="35" y="-7.5" font-family="Helvetica,sans-Serif" font-size="10.00">Menu</text>
</g>
<!-- Node2 -->
<g id="node2" class="node"><title>Node2</title>
<g id="a_node2"><a xlink:href="structMuttWindow.html" target="_top" xlink:title="A division of the screen. ">
<polygon fill="white" stroke="black" points="-0.5,-100.5 -0.5,-119.5 70.5,-119.5 70.5,-100.5 -0.5,-100.5"/>
<text text-anchor="middle" x="35" y="-107.5" font-family="Helvetica,sans-Serif" font-size="10.00">MuttWindow</text>
</a>
</g>
</g>
<!-- Node2&#45;&gt;Node1 -->
<g id="edge1" class="edge"><title>Node2&#45;&gt;Node1</title>
<path fill="none" stroke="#9a32cd" stroke-dasharray="5,2" d="M35,-90.2203C35,-68.9514 35,-35.2197 35,-19.5374"/>
<polygon fill="#9a32cd" stroke="#9a32cd" points="31.5001,-90.3031 35,-100.303 38.5001,-90.3032 31.5001,-90.3031"/>
<text text-anchor="middle" x="62.5" y="-74" font-family="Helvetica,sans-Serif" font-size="10.00"> indexwin</text>
<text text-anchor="middle" x="62.5" y="-63" font-family="Helvetica,sans-Serif" font-size="10.00">messagewin</text>
<text text-anchor="middle" x="62.5" y="-52" font-family="Helvetica,sans-Serif" font-size="10.00">statuswin</text>
<text text-anchor="middle" x="62.5" y="-41" font-family="Helvetica,sans-Serif" font-size="10.00">helpwin</text>
</g>
</g>
</svg>
