<?xml version="1.0" encoding="UTF-8" standalone="no"?>
<!DOCTYPE svg PUBLIC "-//W3C//DTD SVG 1.1//EN"
 "http://www.w3.org/Graphics/SVG/1.1/DTD/svg11.dtd">
<!-- Generated by graphviz version 2.36.0 (20140111.2315)
 -->
<!-- Title: CryptModuleSpecs Pages: 1 -->
<svg width="180pt" height="142pt"
 viewBox="0.00 0.00 180.00 142.00" xmlns="http://www.w3.org/2000/svg" xmlns:xlink="http://www.w3.org/1999/xlink">
<g id="graph0" class="graph" transform="scale(1 1) rotate(0) translate(4 138)">
<title>CryptModuleSpecs</title>
<polygon fill="white" stroke="none" points="-4,4 -4,-138 176,-138 176,4 -4,4"/>
<!-- Node1 -->
<g id="node1" class="node"><title>Node1</title>
<polygon fill="#bfbfbf" stroke="black" points="0,-0.5 0,-19.5 100,-19.5 100,-0.5 0,-0.5"/>
<text text-anchor="middle" x="50" y="-7.5" font-family="Helvetica,sans-Serif" font-size="10.00">CryptModuleSpecs</text>
</g>
<!-- Node2 -->
<g id="node2" class="node"><title>Node2</title>
<g id="a_node2"><a xlink:href="structBody.html" target="_top" xlink:title="The body of an email. ">
<polygon fill="white" stroke="red" points="30.5,-113.5 30.5,-132.5 69.5,-132.5 69.5,-113.5 30.5,-113.5"/>
<text text-anchor="middle" x="50" y="-120.5" font-family="Helvetica,sans-Serif" font-size="10.00">Body</text>
</a>
</g>
</g>
<!-- Node2&#45;&gt;Node1 -->
<g id="edge1" class="edge"><title>Node2&#45;&gt;Node1</title>
<path fill="none" stroke="#9a32cd" stroke-dasharray="5,2" d="M50,-103.179C50,-78.8652 50,-37.5471 50,-19.6695"/>
<polygon fill="#9a32cd" stroke="#9a32cd" points="46.5001,-103.29 50,-113.29 53.5001,-103.29 46.5001,-103.29"/>
<text text-anchor="middle" x="111" y="-85.5" font-family="Helvetica,sans-Serif" font-size="10.00"> pgp_traditional_encryptsign</text>
<text text-anchor="middle" x="111" y="-74.5" font-family="Helvetica,sans-Serif" font-size="10.00">pgp_encrypt_message</text>
<text text-anchor="middle" x="111" y="-63.5" font-family="Helvetica,sans-Serif" font-size="10.00">sign_message</text>
<text text-anchor="middle" x="111" y="-52.5" font-family="Helvetica,sans-Serif" font-size="10.00">smime_build_smime_entity</text>
<text text-anchor="middle" x="111" y="-41.5" font-family="Helvetica,sans-Serif" font-size="10.00">pgp_make_key_attachment</text>
</g>
<!-- Node2&#45;&gt;Node2 -->
<g id="edge2" class="edge"><title>Node2&#45;&gt;Node2</title>
<path fill="none" stroke="#9a32cd" stroke-dasharray="5,2" d="M76.0139,-133.326C82.3181,-132.541 87,-129.099 87,-123 87,-113.922 76.6284,-110.73 65.9732,-113.425"/>
<polygon fill="#9a32cd" stroke="#9a32cd" points="76.2066,-129.831 65.9732,-132.575 75.684,-136.811 76.2066,-129.831"/>
<text text-anchor="middle" x="98" y="-126" font-family="Helvetica,sans-Serif" font-size="10.00"> next</text>
<text text-anchor="middle" x="98" y="-115" font-family="Helvetica,sans-Serif" font-size="10.00">parts</text>
</g>
</g>
</svg>
