<?xml version="1.0" encoding="UTF-8" standalone="no"?>
<!DOCTYPE svg PUBLIC "-//W3C//DTD SVG 1.1//EN"
 "http://www.w3.org/Graphics/SVG/1.1/DTD/svg11.dtd">
<!-- Generated by graphviz version 2.36.0 (20140111.2315)
 -->
<!-- Title: PgpKeyInfo Pages: 1 -->
<svg width="122pt" height="98pt"
 viewBox="0.00 0.00 122.00 98.00" xmlns="http://www.w3.org/2000/svg" xmlns:xlink="http://www.w3.org/1999/xlink">
<g id="graph0" class="graph" transform="scale(1 1) rotate(0) translate(4 94)">
<title>PgpKeyInfo</title>
<polygon fill="white" stroke="none" points="-4,4 -4,-94 118,-94 118,4 -4,4"/>
<!-- Node1 -->
<g id="node1" class="node"><title>Node1</title>
<polygon fill="#bfbfbf" stroke="black" points="0,-69.5 0,-88.5 68,-88.5 68,-69.5 0,-69.5"/>
<text text-anchor="middle" x="34" y="-76.5" font-family="Helvetica,sans-Serif" font-size="10.00">PgpKeyInfo</text>
</g>
<!-- Node1&#45;&gt;Node1 -->
<g id="edge1" class="edge"><title>Node1&#45;&gt;Node1</title>
<path fill="none" stroke="#9a32cd" stroke-dasharray="5,2" d="M78.1476,-84.333C82.9245,-83.3094 86,-81.5317 86,-79 86,-74.9492 78.1268,-72.8289 68.0085,-72.639"/>
<polygon fill="#9a32cd" stroke="#9a32cd" points="77.6044,-80.87 68.0085,-85.361 78.3106,-87.8343 77.6044,-80.87"/>
<text text-anchor="middle" x="100" y="-82" font-family="Helvetica,sans-Serif" font-size="10.00"> next</text>
<text text-anchor="middle" x="100" y="-71" font-family="Helvetica,sans-Serif" font-size="10.00">parent</text>
</g>
<!-- Node2 -->
<g id="node2" class="node"><title>Node2</title>
<g id="a_node2"><a xlink:href="structPgpUid.html" target="_top" xlink:title="PGP User ID. ">
<polygon fill="white" stroke="black" points="9.5,-0.5 9.5,-19.5 58.5,-19.5 58.5,-0.5 9.5,-0.5"/>
<text text-anchor="middle" x="34" y="-7.5" font-family="Helvetica,sans-Serif" font-size="10.00">PgpUid</text>
</a>
</g>
</g>
<!-- Node1&#45;&gt;Node2 -->
<g id="edge3" class="edge"><title>Node1&#45;&gt;Node2</title>
<path fill="none" stroke="#9a32cd" stroke-dasharray="5,2" d="M12.839,-62.5737C9.24391,-58.8886 6.02309,-54.6556 4,-50 -1.03869,-38.4049 9.77546,-27.1817 19.7967,-19.7758"/>
<polygon fill="#9a32cd" stroke="#9a32cd" points="10.6699,-65.3276 20.4805,-69.328 15.3058,-60.0828 10.6699,-65.3276"/>
<text text-anchor="middle" x="19.5" y="-41.5" font-family="Helvetica,sans-Serif" font-size="10.00"> parent</text>
</g>
<!-- Node2&#45;&gt;Node1 -->
<g id="edge2" class="edge"><title>Node2&#45;&gt;Node1</title>
<path fill="none" stroke="#9a32cd" stroke-dasharray="5,2" d="M37.94,-29.8215C38.3794,-32.5542 38.7559,-35.3416 39,-38 39.9982,-48.8719 37.9231,-61.3472 36.1497,-69.4346"/>
<polygon fill="#9a32cd" stroke="#9a32cd" points="41.3701,-29.1232 36.0816,-19.9427 34.4908,-30.4174 41.3701,-29.1232"/>
<text text-anchor="middle" x="58" y="-41.5" font-family="Helvetica,sans-Serif" font-size="10.00"> address</text>
</g>
<!-- Node2&#45;&gt;Node2 -->
<g id="edge4" class="edge"><title>Node2&#45;&gt;Node2</title>
<path fill="none" stroke="#9a32cd" stroke-dasharray="5,2" d="M68.6216,-15.5827C73.0656,-14.6126 76,-12.7517 76,-10 76,-5.48438 68.0977,-3.36768 58.5901,-3.6499"/>
<polygon fill="#9a32cd" stroke="#9a32cd" points="68.294,-12.0974 58.5901,-16.3501 68.828,-19.077 68.294,-12.0974"/>
<text text-anchor="middle" x="87" y="-7.5" font-family="Helvetica,sans-Serif" font-size="10.00"> next</text>
</g>
</g>
</svg>
