<?xml version="1.0" encoding="UTF-8" standalone="no"?>
<!DOCTYPE svg PUBLIC "-//W3C//DTD SVG 1.1//EN"
 "http://www.w3.org/Graphics/SVG/1.1/DTD/svg11.dtd">
<!-- Generated by graphviz version 2.36.0 (20140111.2315)
 -->
<!-- Title: AttachCtx Pages: 1 -->
<svg width="158pt" height="234pt"
 viewBox="0.00 0.00 158.00 234.00" xmlns="http://www.w3.org/2000/svg" xmlns:xlink="http://www.w3.org/1999/xlink">
<g id="graph0" class="graph" transform="scale(1 1) rotate(0) translate(4 230)">
<title>AttachCtx</title>
<polygon fill="white" stroke="none" points="-4,4 -4,-230 154,-230 154,4 -4,4"/>
<!-- Node1 -->
<g id="node1" class="node"><title>Node1</title>
<polygon fill="#bfbfbf" stroke="black" points="10.5,-0.5 10.5,-19.5 71.5,-19.5 71.5,-0.5 10.5,-0.5"/>
<text text-anchor="middle" x="41" y="-7.5" font-family="Helvetica,sans-Serif" font-size="10.00">AttachCtx</text>
</g>
<!-- Node2 -->
<g id="node2" class="node"><title>Node2</title>
<g id="a_node2"><a xlink:href="structAttachPtr.html" target="_top" xlink:title="An email to which things will be attached. ">
<polygon fill="white" stroke="black" points="0,-206.5 0,-225.5 58,-225.5 58,-206.5 0,-206.5"/>
<text text-anchor="middle" x="29" y="-213.5" font-family="Helvetica,sans-Serif" font-size="10.00">AttachPtr</text>
</a>
</g>
</g>
<!-- Node2&#45;&gt;Node1 -->
<g id="edge1" class="edge"><title>Node2&#45;&gt;Node1</title>
<path fill="none" stroke="#9a32cd" stroke-dasharray="5,2" d="M21.2253,-196.651C20.3045,-193.8 19.5115,-190.854 19,-188 18.0591,-182.75 18.6468,-181.322 19,-176 23.0001,-115.733 35.1322,-43.895 39.4521,-19.5484"/>
<polygon fill="#9a32cd" stroke="#9a32cd" points="18.0346,-198.109 24.8466,-206.223 24.5817,-195.632 18.0346,-198.109"/>
<text text-anchor="middle" x="35" y="-109.5" font-family="Helvetica,sans-Serif" font-size="10.00"> idx</text>
</g>
<!-- Node3 -->
<g id="node3" class="node"><title>Node3</title>
<g id="a_node3"><a xlink:href="structBody.html" target="_top" xlink:title="The body of an email. ">
<polygon fill="white" stroke="red" points="52.5,-137.5 52.5,-156.5 91.5,-156.5 91.5,-137.5 52.5,-137.5"/>
<text text-anchor="middle" x="72" y="-144.5" font-family="Helvetica,sans-Serif" font-size="10.00">Body</text>
</a>
</g>
</g>
<!-- Node2&#45;&gt;Node3 -->
<g id="edge3" class="edge"><title>Node2&#45;&gt;Node3</title>
<path fill="none" stroke="#9a32cd" stroke-dasharray="5,2" d="M23.4143,-196.53C22.3872,-189.702 22.5503,-182.138 26,-176 31.6797,-165.894 42.6497,-159.008 52.4524,-154.595"/>
<polygon fill="#9a32cd" stroke="#9a32cd" points="20.0234,-197.401 25.7067,-206.342 26.8399,-195.808 20.0234,-197.401"/>
<text text-anchor="middle" x="36" y="-179.5" font-family="Helvetica,sans-Serif" font-size="10.00"> aptr</text>
</g>
<!-- Node3&#45;&gt;Node1 -->
<g id="edge8" class="edge"><title>Node3&#45;&gt;Node1</title>
<path fill="none" stroke="#9a32cd" stroke-dasharray="5,2" d="M63.8546,-127.999C59.0881,-116.728 53.3635,-101.777 50,-88 44.0628,-63.6804 42.002,-34.0525 41.319,-19.668"/>
<polygon fill="#9a32cd" stroke="#9a32cd" points="60.6543,-129.416 67.8675,-137.177 67.0679,-126.612 60.6543,-129.416"/>
<text text-anchor="middle" x="71.5" y="-75.5" font-family="Helvetica,sans-Serif" font-size="10.00"> body_idx</text>
</g>
<!-- Node3&#45;&gt;Node2 -->
<g id="edge2" class="edge"><title>Node3&#45;&gt;Node2</title>
<path fill="none" stroke="#9a32cd" stroke-dasharray="5,2" d="M62.8211,-166.114C59.0808,-173.098 54.5659,-181.06 50,-188 45.822,-194.35 40.572,-201.1 36.3665,-206.262"/>
<polygon fill="#9a32cd" stroke="#9a32cd" points="66.1494,-167.3 67.6626,-156.814 59.9404,-164.068 66.1494,-167.3"/>
<text text-anchor="middle" x="76" y="-179.5" font-family="Helvetica,sans-Serif" font-size="10.00"> content</text>
</g>
<!-- Node3&#45;&gt;Node3 -->
<g id="edge6" class="edge"><title>Node3&#45;&gt;Node3</title>
<path fill="none" stroke="#9a32cd" stroke-dasharray="5,2" d="M101.951,-152.711C106.172,-151.782 109,-149.878 109,-147 109,-142.152 100.977,-140.069 91.7944,-140.751"/>
<polygon fill="#9a32cd" stroke="#9a32cd" points="101.595,-149.225 91.7944,-153.249 101.966,-156.215 101.595,-149.225"/>
<text text-anchor="middle" x="120" y="-150" font-family="Helvetica,sans-Serif" font-size="10.00"> next</text>
<text text-anchor="middle" x="120" y="-139" font-family="Helvetica,sans-Serif" font-size="10.00">parts</text>
</g>
<!-- Node4 -->
<g id="node4" class="node"><title>Node4</title>
<g id="a_node4"><a xlink:href="structHeader.html" target="_top" xlink:title="The header/envelope of an email. ">
<polygon fill="white" stroke="red" points="102,-68.5 102,-87.5 150,-87.5 150,-68.5 102,-68.5"/>
<text text-anchor="middle" x="126" y="-75.5" font-family="Helvetica,sans-Serif" font-size="10.00">Header</text>
</a>
</g>
</g>
<!-- Node3&#45;&gt;Node4 -->
<g id="edge5" class="edge"><title>Node3&#45;&gt;Node4</title>
<path fill="none" stroke="#9a32cd" stroke-dasharray="5,2" d="M67.367,-127.382C66.6058,-120.219 67.0968,-112.264 71,-106 77.8066,-95.0761 90.466,-88.4468 101.925,-84.4928"/>
<polygon fill="#9a32cd" stroke="#9a32cd" points="63.9451,-128.126 69.2039,-137.323 70.8286,-126.854 63.9451,-128.126"/>
<text text-anchor="middle" x="89" y="-109.5" font-family="Helvetica,sans-Serif" font-size="10.00"> content</text>
</g>
<!-- Node4&#45;&gt;Node1 -->
<g id="edge7" class="edge"><title>Node4&#45;&gt;Node1</title>
<path fill="none" stroke="#9a32cd" stroke-dasharray="5,2" d="M106.806,-62.0961C89.9409,-49.0012 65.9884,-30.4028 52.115,-19.6305"/>
<polygon fill="#9a32cd" stroke="#9a32cd" points="104.843,-65.0031 114.888,-68.3717 109.136,-59.4742 104.843,-65.0031"/>
<text text-anchor="middle" x="100.5" y="-41.5" font-family="Helvetica,sans-Serif" font-size="10.00"> hdr</text>
</g>
<!-- Node4&#45;&gt;Node3 -->
<g id="edge4" class="edge"><title>Node4&#45;&gt;Node3</title>
<path fill="none" stroke="#9a32cd" stroke-dasharray="5,2" d="M121.272,-97.667C118.932,-104.518 115.598,-112.047 111,-118 104.886,-125.916 95.9346,-132.563 88.1492,-137.392"/>
<polygon fill="#9a32cd" stroke="#9a32cd" points="124.715,-98.3627 124.169,-87.782 117.997,-96.394 124.715,-98.3627"/>
<text text-anchor="middle" x="126.5" y="-109.5" font-family="Helvetica,sans-Serif" font-size="10.00"> hdr</text>
</g>
</g>
</svg>
