<?xml version="1.0" encoding="UTF-8" standalone="no"?>
<!DOCTYPE svg PUBLIC "-//W3C//DTD SVG 1.1//EN"
 "http://www.w3.org/Graphics/SVG/1.1/DTD/svg11.dtd">
<!-- Generated by graphviz version 2.36.0 (20140111.2315)
 -->
<!-- Title: Group Pages: 1 -->
<svg width="219pt" height="96pt"
 viewBox="0.00 0.00 219.00 96.00" xmlns="http://www.w3.org/2000/svg" xmlns:xlink="http://www.w3.org/1999/xlink">
<g id="graph0" class="graph" transform="scale(1 1) rotate(0) translate(4 92)">
<title>Group</title>
<polygon fill="white" stroke="none" points="-4,4 -4,-92 215,-92 215,4 -4,4"/>
<!-- Node1 -->
<g id="node1" class="node"><title>Node1</title>
<polygon fill="#bfbfbf" stroke="black" points="65.5,-0.5 65.5,-19.5 108.5,-19.5 108.5,-0.5 65.5,-0.5"/>
<text text-anchor="middle" x="87" y="-7.5" font-family="Helvetica,sans-Serif" font-size="10.00">Group</text>
</g>
<!-- Node2 -->
<g id="node2" class="node"><title>Node2</title>
<g id="a_node2"><a xlink:href="structRegexList.html" target="_top" xlink:title="List of regular expressions. ">
<polygon fill="white" stroke="red" points="-0.5,-68.5 -0.5,-87.5 60.5,-87.5 60.5,-68.5 -0.5,-68.5"/>
<text text-anchor="middle" x="30" y="-75.5" font-family="Helvetica,sans-Serif" font-size="10.00">RegexList</text>
</a>
</g>
</g>
<!-- Node2&#45;&gt;Node1 -->
<g id="edge1" class="edge"><title>Node2&#45;&gt;Node1</title>
<path fill="none" stroke="#9a32cd" stroke-dasharray="5,2" d="M44.0945,-60.68C55.2382,-47.7768 70.3685,-30.2575 79.3645,-19.8411"/>
<polygon fill="#9a32cd" stroke="#9a32cd" points="41.3391,-58.5157 37.4518,-68.3717 46.6369,-63.0911 41.3391,-58.5157"/>
<text text-anchor="middle" x="70" y="-41.5" font-family="Helvetica,sans-Serif" font-size="10.00"> rs</text>
</g>
<!-- Node2&#45;&gt;Node2 -->
<g id="edge2" class="edge"><title>Node2&#45;&gt;Node2</title>
<path fill="none" stroke="#9a32cd" stroke-dasharray="5,2" d="M71.2014,-83.2246C75.3532,-82.1861 78,-80.4446 78,-78 78,-73.8828 70.4922,-71.7599 60.9315,-71.6312"/>
<polygon fill="#9a32cd" stroke="#9a32cd" points="70.4824,-79.7829 60.9315,-84.3688 71.2575,-86.7399 70.4824,-79.7829"/>
<text text-anchor="middle" x="89" y="-75.5" font-family="Helvetica,sans-Serif" font-size="10.00"> next</text>
</g>
<!-- Node3 -->
<g id="node3" class="node"><title>Node3</title>
<g id="a_node3"><a xlink:href="structAddress.html" target="_top" xlink:title="An email address. ">
<polygon fill="white" stroke="black" points="118.5,-68.5 118.5,-87.5 171.5,-87.5 171.5,-68.5 118.5,-68.5"/>
<text text-anchor="middle" x="145" y="-75.5" font-family="Helvetica,sans-Serif" font-size="10.00">Address</text>
</a>
</g>
</g>
<!-- Node3&#45;&gt;Node1 -->
<g id="edge3" class="edge"><title>Node3&#45;&gt;Node1</title>
<path fill="none" stroke="#9a32cd" stroke-dasharray="5,2" d="M130.658,-60.68C119.319,-47.7768 103.923,-30.2575 94.7695,-19.8411"/>
<polygon fill="#9a32cd" stroke="#9a32cd" points="128.187,-63.1704 137.418,-68.3717 133.445,-58.5496 128.187,-63.1704"/>
<text text-anchor="middle" x="128" y="-41.5" font-family="Helvetica,sans-Serif" font-size="10.00"> as</text>
</g>
<!-- Node3&#45;&gt;Node3 -->
<g id="edge4" class="edge"><title>Node3&#45;&gt;Node3</title>
<path fill="none" stroke="#9a32cd" stroke-dasharray="5,2" d="M181.677,-83.4948C186.104,-82.5024 189,-80.6708 189,-78 189,-73.6172 181.201,-71.4943 171.635,-71.6312"/>
<polygon fill="#9a32cd" stroke="#9a32cd" points="181.294,-80.0148 171.635,-84.3688 181.901,-86.9884 181.294,-80.0148"/>
<text text-anchor="middle" x="200" y="-75.5" font-family="Helvetica,sans-Serif" font-size="10.00"> next</text>
</g>
</g>
</svg>
