<?xml version="1.0" encoding="UTF-8" standalone="no"?>
<!DOCTYPE svg PUBLIC "-//W3C//DTD SVG 1.1//EN"
 "http://www.w3.org/Graphics/SVG/1.1/DTD/svg11.dtd">
<!-- Generated by graphviz version 2.36.0 (20140111.2315)
 -->
<!-- Title: Score Pages: 1 -->
<svg width="96pt" height="98pt"
 viewBox="0.00 0.00 96.00 98.00" xmlns="http://www.w3.org/2000/svg" xmlns:xlink="http://www.w3.org/1999/xlink">
<g id="graph0" class="graph" transform="scale(1 1) rotate(0) translate(4 94)">
<title>Score</title>
<polygon fill="white" stroke="none" points="-4,4 -4,-94 92,-94 92,4 -4,4"/>
<!-- Node1 -->
<g id="node1" class="node"><title>Node1</title>
<polygon fill="#bfbfbf" stroke="black" points="3,-0.5 3,-19.5 45,-19.5 45,-0.5 3,-0.5"/>
<text text-anchor="middle" x="24" y="-7.5" font-family="Helvetica,sans-Serif" font-size="10.00">Score</text>
</g>
<!-- Node1&#45;&gt;Node1 -->
<g id="edge3" class="edge"><title>Node1&#45;&gt;Node1</title>
<path fill="none" stroke="#9a32cd" stroke-dasharray="5,2" d="M55.1139,-15.6324C59.2521,-14.6769 62,-12.7994 62,-10 62,-5.28516 54.2055,-3.18558 45.1017,-3.70126"/>
<polygon fill="#9a32cd" stroke="#9a32cd" points="54.8472,-12.1423 45.1017,-16.2987 55.3121,-19.1268 54.8472,-12.1423"/>
<text text-anchor="middle" x="73" y="-7.5" font-family="Helvetica,sans-Serif" font-size="10.00"> next</text>
</g>
<!-- Node2 -->
<g id="node2" class="node"><title>Node2</title>
<g id="a_node2"><a xlink:href="structPattern.html" target="_top" xlink:title="A simple (non&#45;regex) pattern. ">
<polygon fill="white" stroke="red" points="0,-69.5 0,-88.5 48,-88.5 48,-69.5 0,-69.5"/>
<text text-anchor="middle" x="24" y="-76.5" font-family="Helvetica,sans-Serif" font-size="10.00">Pattern</text>
</a>
</g>
</g>
<!-- Node2&#45;&gt;Node1 -->
<g id="edge1" class="edge"><title>Node2&#45;&gt;Node1</title>
<path fill="none" stroke="#9a32cd" stroke-dasharray="5,2" d="M24,-59.0183C24,-46.034 24,-29.4419 24,-19.5494"/>
<polygon fill="#9a32cd" stroke="#9a32cd" points="20.5001,-59.2409 24,-69.2409 27.5001,-59.241 20.5001,-59.2409"/>
<text text-anchor="middle" x="32.5" y="-41.5" font-family="Helvetica,sans-Serif" font-size="10.00"> pat</text>
</g>
<!-- Node2&#45;&gt;Node2 -->
<g id="edge2" class="edge"><title>Node2&#45;&gt;Node2</title>
<path fill="none" stroke="#9a32cd" stroke-dasharray="5,2" d="M58.4246,-84.6249C62.9786,-83.6671 66,-81.7922 66,-79 66,-74.418 57.8635,-72.3059 48.1697,-72.6639"/>
<polygon fill="#9a32cd" stroke="#9a32cd" points="57.9035,-81.1525 48.1697,-85.3361 58.3879,-88.1358 57.9035,-81.1525"/>
<text text-anchor="middle" x="77" y="-82" font-family="Helvetica,sans-Serif" font-size="10.00"> next</text>
<text text-anchor="middle" x="77" y="-71" font-family="Helvetica,sans-Serif" font-size="10.00">child</text>
</g>
</g>
</svg>
