<?xml version="1.0" encoding="UTF-8" standalone="no"?>
<!DOCTYPE svg PUBLIC "-//W3C//DTD SVG 1.1//EN"
 "http://www.w3.org/Graphics/SVG/1.1/DTD/svg11.dtd">
<!-- Generated by graphviz version 2.36.0 (20140111.2315)
 -->
<!-- Title: Rfc2231Parameter Pages: 1 -->
<svg width="145pt" height="28pt"
 viewBox="0.00 0.00 145.00 28.00" xmlns="http://www.w3.org/2000/svg" xmlns:xlink="http://www.w3.org/1999/xlink">
<g id="graph0" class="graph" transform="scale(1 1) rotate(0) translate(4 24)">
<title>Rfc2231Parameter</title>
<polygon fill="white" stroke="none" points="-4,4 -4,-24 141,-24 141,4 -4,4"/>
<!-- Node1 -->
<g id="node1" class="node"><title>Node1</title>
<polygon fill="#bfbfbf" stroke="black" points="-1,-0.5 -1,-19.5 97,-19.5 97,-0.5 -1,-0.5"/>
<text text-anchor="middle" x="48" y="-7.5" font-family="Helvetica,sans-Serif" font-size="10.00">Rfc2231Parameter</text>
</g>
<!-- Node1&#45;&gt;Node1 -->
<g id="edge1" class="edge"><title>Node1&#45;&gt;Node1</title>
<path fill="none" stroke="#9a32cd" stroke-dasharray="5,2" d="M107.486,-12.7091C111.537,-12.0859 114,-11.1829 114,-10 114,-8.00781 107.015,-6.80939 97.2194,-6.40472"/>
<polygon fill="#9a32cd" stroke="#9a32cd" points="106.881,-9.2482 97.2194,-13.5953 107.483,-16.2223 106.881,-9.2482"/>
<text text-anchor="middle" x="125" y="-7.5" font-family="Helvetica,sans-Serif" font-size="10.00"> next</text>
</g>
</g>
</svg>
