<?xml version="1.0" encoding="UTF-8" standalone="no"?>
<!DOCTYPE svg PUBLIC "-//W3C//DTD SVG 1.1//EN"
 "http://www.w3.org/Graphics/SVG/1.1/DTD/svg11.dtd">
<!-- Generated by graphviz version 2.36.0 (20140111.2315)
 -->
<!-- Title: test_reset Pages: 1 -->
<svg width="192pt" height="28pt"
 viewBox="0.00 0.00 192.00 28.00" xmlns="http://www.w3.org/2000/svg" xmlns:xlink="http://www.w3.org/1999/xlink">
<g id="graph0" class="graph" transform="scale(1 1) rotate(0) translate(4 24)">
<title>test_reset</title>
<polygon fill="white" stroke="none" points="-4,4 -4,-24 188,-24 188,4 -4,4"/>
<!-- Node1 -->
<g id="node1" class="node"><title>Node1</title>
<polygon fill="#bfbfbf" stroke="black" points="0,-0.5 0,-19.5 60,-19.5 60,-0.5 0,-0.5"/>
<text text-anchor="middle" x="30" y="-7.5" font-family="Helvetica,sans-Serif" font-size="10.00">test_reset</text>
</g>
<!-- Node2 -->
<g id="node2" class="node"><title>Node2</title>
<g id="a_node2"><a xlink:href="synonym_8h.html#acf81082ee377e802e06c0e4533c5d90f" target="_top" xlink:title="config_synonym">
<polygon fill="white" stroke="black" points="96,-0.5 96,-19.5 184,-19.5 184,-0.5 96,-0.5"/>
<text text-anchor="middle" x="140" y="-7.5" font-family="Helvetica,sans-Serif" font-size="10.00">config_synonym</text>
</a>
</g>
</g>
<!-- Node1&#45;&gt;Node2 -->
<g id="edge1" class="edge"><title>Node1&#45;&gt;Node2</title>
<path fill="none" stroke="midnightblue" d="M70.4156,-10C78.7215,-10 87.5251,-10 95.9567,-10"/>
<polygon fill="midnightblue" stroke="midnightblue" points="70.2264,-6.5001 60.2264,-10 70.2263,-13.5001 70.2264,-6.5001"/>
</g>
</g>
</svg>
