<?xml version="1.0" encoding="UTF-8" standalone="no"?>
<!DOCTYPE svg PUBLIC "-//W3C//DTD SVG 1.1//EN"
 "http://www.w3.org/Graphics/SVG/1.1/DTD/svg11.dtd">
<!-- Generated by graphviz version 2.36.0 (20140111.2315)
 -->
<!-- Title: system.c Pages: 1 -->
<svg width="578pt" height="84pt"
 viewBox="0.00 0.00 578.00 84.00" xmlns="http://www.w3.org/2000/svg" xmlns:xlink="http://www.w3.org/1999/xlink">
<g id="graph0" class="graph" transform="scale(1 1) rotate(0) translate(4 80)">
<title>system.c</title>
<polygon fill="white" stroke="none" points="-4,4 -4,-80 574,-80 574,4 -4,4"/>
<!-- Node1 -->
<g id="node1" class="node"><title>Node1</title>
<polygon fill="#bfbfbf" stroke="black" points="242.5,-56.5 242.5,-75.5 299.5,-75.5 299.5,-56.5 242.5,-56.5"/>
<text text-anchor="middle" x="271" y="-63.5" font-family="Helvetica,sans-Serif" font-size="10.00">system.c</text>
</g>
<!-- Node2 -->
<g id="node2" class="node"><title>Node2</title>
<polygon fill="white" stroke="#bfbfbf" points="-0.5,-0.5 -0.5,-19.5 50.5,-19.5 50.5,-0.5 -0.5,-0.5"/>
<text text-anchor="middle" x="25" y="-7.5" font-family="Helvetica,sans-Serif" font-size="10.00">config.h</text>
</g>
<!-- Node1&#45;&gt;Node2 -->
<g id="edge1" class="edge"><title>Node1&#45;&gt;Node2</title>
<path fill="none" stroke="midnightblue" d="M242.248,-59.2625C203.387,-51.4225 131.716,-36.6622 60.6101,-20.0633"/>
<polygon fill="midnightblue" stroke="midnightblue" points="61.1192,-16.5878 50.584,-17.7095 59.5193,-23.4025 61.1192,-16.5878"/>
</g>
<!-- Node3 -->
<g id="node3" class="node"><title>Node3</title>
<polygon fill="white" stroke="#bfbfbf" points="69,-0.5 69,-19.5 119,-19.5 119,-0.5 69,-0.5"/>
<text text-anchor="middle" x="94" y="-7.5" font-family="Helvetica,sans-Serif" font-size="10.00">signal.h</text>
</g>
<!-- Node1&#45;&gt;Node3 -->
<g id="edge2" class="edge"><title>Node1&#45;&gt;Node3</title>
<path fill="none" stroke="midnightblue" d="M242.954,-56.4435C212.035,-47.0106 162.258,-31.8245 128.855,-21.6337"/>
<polygon fill="midnightblue" stroke="midnightblue" points="129.639,-18.2138 119.053,-18.6433 127.597,-24.9091 129.639,-18.2138"/>
</g>
<!-- Node4 -->
<g id="node4" class="node"><title>Node4</title>
<polygon fill="white" stroke="#bfbfbf" points="137,-0.5 137,-19.5 185,-19.5 185,-0.5 137,-0.5"/>
<text text-anchor="middle" x="161" y="-7.5" font-family="Helvetica,sans-Serif" font-size="10.00">stdlib.h</text>
</g>
<!-- Node1&#45;&gt;Node4 -->
<g id="edge3" class="edge"><title>Node1&#45;&gt;Node4</title>
<path fill="none" stroke="midnightblue" d="M253.327,-56.324C235.606,-47.6247 208.097,-34.1202 187.712,-24.113"/>
<polygon fill="midnightblue" stroke="midnightblue" points="189.149,-20.9195 178.63,-19.6545 186.064,-27.2031 189.149,-20.9195"/>
</g>
<!-- Node5 -->
<g id="node5" class="node"><title>Node5</title>
<polygon fill="white" stroke="#bfbfbf" points="203,-0.5 203,-19.5 265,-19.5 265,-0.5 203,-0.5"/>
<text text-anchor="middle" x="234" y="-7.5" font-family="Helvetica,sans-Serif" font-size="10.00">sys/wait.h</text>
</g>
<!-- Node1&#45;&gt;Node5 -->
<g id="edge4" class="edge"><title>Node1&#45;&gt;Node5</title>
<path fill="none" stroke="midnightblue" d="M264.89,-56.083C259.718,-48.5341 252.154,-37.4948 245.806,-28.2298"/>
<polygon fill="midnightblue" stroke="midnightblue" points="248.536,-26.0221 239.996,-19.7511 242.761,-29.9787 248.536,-26.0221"/>
</g>
<!-- Node6 -->
<g id="node6" class="node"><title>Node6</title>
<polygon fill="white" stroke="#bfbfbf" points="283.5,-0.5 283.5,-19.5 334.5,-19.5 334.5,-0.5 283.5,-0.5"/>
<text text-anchor="middle" x="309" y="-7.5" font-family="Helvetica,sans-Serif" font-size="10.00">unistd.h</text>
</g>
<!-- Node1&#45;&gt;Node6 -->
<g id="edge5" class="edge"><title>Node1&#45;&gt;Node6</title>
<path fill="none" stroke="midnightblue" d="M277.275,-56.083C282.642,-48.4554 290.518,-37.2645 297.079,-27.9408"/>
<polygon fill="midnightblue" stroke="midnightblue" points="299.949,-29.9434 302.842,-19.7511 294.225,-25.9149 299.949,-29.9434"/>
</g>
<!-- Node7 -->
<g id="node7" class="node"><title>Node7</title>
<g id="a_node7"><a xlink:href="mutt_2mutt_8h.html" target="_top" xlink:title="Convenience wrapper for the library headers. ">
<polygon fill="white" stroke="red" points="352.5,-0.5 352.5,-19.5 419.5,-19.5 419.5,-0.5 352.5,-0.5"/>
<text text-anchor="middle" x="386" y="-7.5" font-family="Helvetica,sans-Serif" font-size="10.00">mutt/mutt.h</text>
</a>
</g>
</g>
<!-- Node1&#45;&gt;Node7 -->
<g id="edge6" class="edge"><title>Node1&#45;&gt;Node7</title>
<path fill="none" stroke="midnightblue" d="M289.222,-56.4435C307.896,-47.6751 337.156,-33.9355 358.617,-23.8579"/>
<polygon fill="midnightblue" stroke="midnightblue" points="360.299,-26.935 367.863,-19.5164 357.324,-20.5988 360.299,-26.935"/>
</g>
<!-- Node8 -->
<g id="node8" class="node"><title>Node8</title>
<g id="a_node8"><a xlink:href="mutt_8h.html" target="_top" xlink:title="Many unsorted constants and some structs. ">
<polygon fill="white" stroke="red" points="438,-0.5 438,-19.5 482,-19.5 482,-0.5 438,-0.5"/>
<text text-anchor="middle" x="460" y="-7.5" font-family="Helvetica,sans-Serif" font-size="10.00">mutt.h</text>
</a>
</g>
</g>
<!-- Node1&#45;&gt;Node8 -->
<g id="edge7" class="edge"><title>Node1&#45;&gt;Node8</title>
<path fill="none" stroke="midnightblue" d="M299.705,-56.7986C334.199,-46.9432 391.91,-30.4542 427.864,-20.1817"/>
<polygon fill="midnightblue" stroke="midnightblue" points="429.178,-23.4464 437.832,-17.3338 427.255,-16.7157 429.178,-23.4464"/>
</g>
<!-- Node9 -->
<g id="node9" class="node"><title>Node9</title>
<g id="a_node9"><a xlink:href="imap_8h.html" target="_top" xlink:title="IMAP network mailbox. ">
<polygon fill="white" stroke="red" points="500,-0.5 500,-19.5 570,-19.5 570,-0.5 500,-0.5"/>
<text text-anchor="middle" x="535" y="-7.5" font-family="Helvetica,sans-Serif" font-size="10.00">imap/imap.h</text>
</a>
</g>
</g>
<!-- Node1&#45;&gt;Node9 -->
<g id="edge8" class="edge"><title>Node1&#45;&gt;Node9</title>
<path fill="none" stroke="midnightblue" d="M299.503,-59.1697C345.222,-49.8182 435.331,-31.3868 489.865,-20.2321"/>
<polygon fill="midnightblue" stroke="midnightblue" points="490.849,-23.6035 499.944,-18.1705 489.446,-16.7455 490.849,-23.6035"/>
</g>
</g>
</svg>
