<?xml version="1.0" encoding="UTF-8" standalone="no"?>
<!DOCTYPE svg PUBLIC "-//W3C//DTD SVG 1.1//EN"
 "http://www.w3.org/Graphics/SVG/1.1/DTD/svg11.dtd">
<!-- Generated by graphviz version 2.36.0 (20140111.2315)
 -->
<!-- Title: driver_tags_get_with_hidden Pages: 1 -->
<svg width="248pt" height="38pt"
 viewBox="0.00 0.00 248.00 38.00" xmlns="http://www.w3.org/2000/svg" xmlns:xlink="http://www.w3.org/1999/xlink">
<g id="graph0" class="graph" transform="scale(1 1) rotate(0) translate(4 34)">
<title>driver_tags_get_with_hidden</title>
<polygon fill="white" stroke="none" points="-4,4 -4,-34 244,-34 244,4 -4,4"/>
<!-- Node1 -->
<g id="node1" class="node"><title>Node1</title>
<polygon fill="#bfbfbf" stroke="black" points="0.5,-0 0.5,-30 107.5,-30 107.5,-0 0.5,-0"/>
<text text-anchor="start" x="8.5" y="-18" font-family="Helvetica,sans-Serif" font-size="10.00">driver_tags_get_with</text>
<text text-anchor="middle" x="54" y="-7" font-family="Helvetica,sans-Serif" font-size="10.00">_hidden</text>
</g>
<!-- Node2 -->
<g id="node2" class="node"><title>Node2</title>
<g id="a_node2"><a xlink:href="tags_8c.html#a64e445048fcbb1b0058e80f24de6056f" target="_top" xlink:title="Get transformed tags. ">
<polygon fill="white" stroke="red" points="144.5,-5.5 144.5,-24.5 239.5,-24.5 239.5,-5.5 144.5,-5.5"/>
<text text-anchor="middle" x="192" y="-12.5" font-family="Helvetica,sans-Serif" font-size="10.00">driver_tags_getter</text>
</a>
</g>
</g>
<!-- Node1&#45;&gt;Node2 -->
<g id="edge1" class="edge"><title>Node1&#45;&gt;Node2</title>
<path fill="none" stroke="midnightblue" d="M107.581,-15C116.284,-15 125.344,-15 134.146,-15"/>
<polygon fill="midnightblue" stroke="midnightblue" points="134.326,-18.5001 144.326,-15 134.326,-11.5001 134.326,-18.5001"/>
</g>
</g>
</svg>
