<?xml version="1.0" encoding="UTF-8" standalone="no"?>
<!DOCTYPE svg PUBLIC "-//W3C//DTD SVG 1.1//EN"
 "http://www.w3.org/Graphics/SVG/1.1/DTD/svg11.dtd">
<!-- Generated by graphviz version 2.36.0 (20140111.2315)
 -->
<!-- Title: driver_tags_replace Pages: 1 -->
<svg width="250pt" height="142pt"
 viewBox="0.00 0.00 250.00 142.00" xmlns="http://www.w3.org/2000/svg" xmlns:xlink="http://www.w3.org/1999/xlink">
<g id="graph0" class="graph" transform="scale(1 1) rotate(0) translate(4 138)">
<title>driver_tags_replace</title>
<polygon fill="white" stroke="none" points="-4,4 -4,-138 246,-138 246,4 -4,4"/>
<!-- Node1 -->
<g id="node1" class="node"><title>Node1</title>
<polygon fill="#bfbfbf" stroke="black" points="0.5,-57.5 0.5,-76.5 101.5,-76.5 101.5,-57.5 0.5,-57.5"/>
<text text-anchor="middle" x="51" y="-64.5" font-family="Helvetica,sans-Serif" font-size="10.00">driver_tags_replace</text>
</g>
<!-- Node2 -->
<g id="node2" class="node"><title>Node2</title>
<g id="a_node2"><a xlink:href="imap_8c.html#ab8ac9c2913b5eb8c1a29f99007cf1c1f" target="_top" xlink:title="Implements MxOps::tags_commit() ">
<polygon fill="white" stroke="black" points="140.5,-114.5 140.5,-133.5 239.5,-133.5 239.5,-114.5 140.5,-114.5"/>
<text text-anchor="middle" x="190" y="-121.5" font-family="Helvetica,sans-Serif" font-size="10.00">imap_tags_commit</text>
</a>
</g>
</g>
<!-- Node1&#45;&gt;Node2 -->
<g id="edge1" class="edge"><title>Node1&#45;&gt;Node2</title>
<path fill="none" stroke="midnightblue" d="M81.8406,-80.7078C98.3022,-88.1375 119.167,-97.3391 138,-105 145.877,-108.204 154.519,-111.504 162.414,-114.436"/>
<polygon fill="midnightblue" stroke="midnightblue" points="83.2584,-77.5077 72.7057,-76.5632 80.3661,-83.8823 83.2584,-77.5077"/>
</g>
<!-- Node3 -->
<g id="node3" class="node"><title>Node3</title>
<g id="a_node3"><a xlink:href="message_8c.html#a5dae54814b2746142369bbdef40b1b0f" target="_top" xlink:title="Read headers from the server. ">
<polygon fill="white" stroke="red" points="139.5,-76.5 139.5,-95.5 240.5,-95.5 240.5,-76.5 139.5,-76.5"/>
<text text-anchor="middle" x="190" y="-83.5" font-family="Helvetica,sans-Serif" font-size="10.00">imap_read_headers</text>
</a>
</g>
</g>
<!-- Node1&#45;&gt;Node3 -->
<g id="edge2" class="edge"><title>Node1&#45;&gt;Node3</title>
<path fill="none" stroke="midnightblue" d="M112.047,-75.3277C121.188,-76.5955 130.534,-77.8916 139.419,-79.1238"/>
<polygon fill="midnightblue" stroke="midnightblue" points="112.234,-71.8202 101.848,-73.9132 111.272,-78.7538 112.234,-71.8202"/>
</g>
<!-- Node4 -->
<g id="node4" class="node"><title>Node4</title>
<g id="a_node4"><a xlink:href="message_8c.html#a275fe2b009dba5ce02641eca502b9242" target="_top" xlink:title="fill the message header according to the server flags ">
<polygon fill="white" stroke="red" points="148.5,-38.5 148.5,-57.5 231.5,-57.5 231.5,-38.5 148.5,-38.5"/>
<text text-anchor="middle" x="190" y="-45.5" font-family="Helvetica,sans-Serif" font-size="10.00">imap_set_flags</text>
</a>
</g>
</g>
<!-- Node1&#45;&gt;Node4 -->
<g id="edge3" class="edge"><title>Node1&#45;&gt;Node4</title>
<path fill="none" stroke="midnightblue" d="M112.047,-58.6723C124.334,-56.9683 136.99,-55.2131 148.399,-53.6307"/>
<polygon fill="midnightblue" stroke="midnightblue" points="111.272,-55.2462 101.848,-60.0868 112.234,-62.1798 111.272,-55.2462"/>
</g>
<!-- Node5 -->
<g id="node5" class="node"><title>Node5</title>
<g id="a_node5"><a xlink:href="mutt__notmuch_8c.html#a739b1ab09985b62235f7c587e2d17a95" target="_top" xlink:title="Update the Header&#39;s tags from Notmuch. ">
<polygon fill="white" stroke="red" points="138,-0.5 138,-19.5 242,-19.5 242,-0.5 138,-0.5"/>
<text text-anchor="middle" x="190" y="-7.5" font-family="Helvetica,sans-Serif" font-size="10.00">update_header_tags</text>
</a>
</g>
</g>
<!-- Node1&#45;&gt;Node5 -->
<g id="edge4" class="edge"><title>Node1&#45;&gt;Node5</title>
<path fill="none" stroke="midnightblue" d="M81.8406,-53.2922C98.3022,-45.8625 119.167,-36.6609 138,-29 145.877,-25.7957 154.519,-22.4962 162.414,-19.5643"/>
<polygon fill="midnightblue" stroke="midnightblue" points="80.3661,-50.1177 72.7057,-57.4368 83.2584,-56.4923 80.3661,-50.1177"/>
</g>
</g>
</svg>
