<?xml version="1.0" encoding="UTF-8" standalone="no"?>
<!DOCTYPE svg PUBLIC "-//W3C//DTD SVG 1.1//EN"
 "http://www.w3.org/Graphics/SVG/1.1/DTD/svg11.dtd">
<!-- Generated by graphviz version 2.36.0 (20140111.2315)
 -->
<!-- Title: driver_tags_get Pages: 1 -->
<svg width="364pt" height="180pt"
 viewBox="0.00 0.00 364.00 180.00" xmlns="http://www.w3.org/2000/svg" xmlns:xlink="http://www.w3.org/1999/xlink">
<g id="graph0" class="graph" transform="scale(1 1) rotate(0) translate(4 176)">
<title>driver_tags_get</title>
<polygon fill="white" stroke="none" points="-4,4 -4,-176 360,-176 360,4 -4,4"/>
<!-- Node1 -->
<g id="node1" class="node"><title>Node1</title>
<polygon fill="#bfbfbf" stroke="black" points="0.5,-76.5 0.5,-95.5 83.5,-95.5 83.5,-76.5 0.5,-76.5"/>
<text text-anchor="middle" x="42" y="-83.5" font-family="Helvetica,sans-Serif" font-size="10.00">driver_tags_get</text>
</g>
<!-- Node2 -->
<g id="node2" class="node"><title>Node2</title>
<g id="a_node2"><a xlink:href="copy_8h.html#abab1732612a46d6e72e452b7ffef1b82" target="_top" xlink:title="Copy email header. ">
<polygon fill="white" stroke="red" points="125.5,-152.5 125.5,-171.5 222.5,-171.5 222.5,-152.5 125.5,-152.5"/>
<text text-anchor="middle" x="174" y="-159.5" font-family="Helvetica,sans-Serif" font-size="10.00">mutt_copy_header</text>
</a>
</g>
</g>
<!-- Node1&#45;&gt;Node2 -->
<g id="edge1" class="edge"><title>Node1&#45;&gt;Node2</title>
<path fill="none" stroke="midnightblue" d="M61.7381,-102.329C76.7147,-114.753 98.6628,-131.599 120,-143 126.725,-146.593 134.272,-149.761 141.516,-152.428"/>
<polygon fill="midnightblue" stroke="midnightblue" points="63.6783,-99.3861 53.783,-95.6002 59.1575,-104.731 63.6783,-99.3861"/>
</g>
<!-- Node3 -->
<g id="node3" class="node"><title>Node3</title>
<g id="a_node3"><a xlink:href="mutt__notmuch_8c.html#a739b1ab09985b62235f7c587e2d17a95" target="_top" xlink:title="Update the Header&#39;s tags from Notmuch. ">
<polygon fill="white" stroke="red" points="122,-114.5 122,-133.5 226,-133.5 226,-114.5 122,-114.5"/>
<text text-anchor="middle" x="174" y="-121.5" font-family="Helvetica,sans-Serif" font-size="10.00">update_header_tags</text>
</a>
</g>
</g>
<!-- Node1&#45;&gt;Node3 -->
<g id="edge2" class="edge"><title>Node1&#45;&gt;Node3</title>
<path fill="none" stroke="midnightblue" d="M85.8839,-98.5353C103.569,-103.705 123.734,-109.599 140.206,-114.414"/>
<polygon fill="midnightblue" stroke="midnightblue" points="86.3848,-95.0353 75.8045,-95.589 84.4208,-101.754 86.3848,-95.0353"/>
</g>
<!-- Node4 -->
<g id="node4" class="node"><title>Node4</title>
<g id="a_node4"><a xlink:href="mutt__notmuch_8c.html#a66fcd7c50a9c9ba06c4be024e2668808" target="_top" xlink:title="Rename the file. ">
<polygon fill="white" stroke="red" points="264.5,-95.5 264.5,-114.5 355.5,-114.5 355.5,-95.5 264.5,-95.5"/>
<text text-anchor="middle" x="310" y="-102.5" font-family="Helvetica,sans-Serif" font-size="10.00">rename_filename</text>
</a>
</g>
</g>
<!-- Node1&#45;&gt;Node4 -->
<g id="edge4" class="edge"><title>Node1&#45;&gt;Node4</title>
<path fill="none" stroke="midnightblue" d="M93.8155,-89.6297C143.12,-93.1514 217.206,-98.4433 264.317,-101.808"/>
<polygon fill="midnightblue" stroke="midnightblue" points="93.9132,-86.1278 83.6892,-88.9064 93.4144,-93.11 93.9132,-86.1278"/>
</g>
<!-- Node5 -->
<g id="node5" class="node"><title>Node5</title>
<g id="a_node5"><a xlink:href="mutt__notmuch_8h.html#a742dee85163bce8a9164e264313aece6" target="_top" xlink:title="Add a message to the Notmuch database. ">
<polygon fill="white" stroke="red" points="120.5,-38.5 120.5,-57.5 227.5,-57.5 227.5,-38.5 120.5,-38.5"/>
<text text-anchor="middle" x="174" y="-45.5" font-family="Helvetica,sans-Serif" font-size="10.00">nm_record_message</text>
</a>
</g>
</g>
<!-- Node1&#45;&gt;Node5 -->
<g id="edge5" class="edge"><title>Node1&#45;&gt;Node5</title>
<path fill="none" stroke="midnightblue" d="M85.8839,-73.4647C103.569,-68.2952 123.734,-62.4009 140.206,-57.5859"/>
<polygon fill="midnightblue" stroke="midnightblue" points="84.4208,-70.2458 75.8045,-76.411 86.3848,-76.9647 84.4208,-70.2458"/>
</g>
<!-- Node6 -->
<g id="node6" class="node"><title>Node6</title>
<g id="a_node6"><a xlink:href="pattern_8h.html#acaf69ac14a310b3f1dd1c3fb2e7036a7" target="_top" xlink:title="Match a pattern against an email header. ">
<polygon fill="white" stroke="red" points="125,-0.5 125,-19.5 223,-19.5 223,-0.5 125,-0.5"/>
<text text-anchor="middle" x="174" y="-7.5" font-family="Helvetica,sans-Serif" font-size="10.00">mutt_pattern_exec</text>
</a>
</g>
</g>
<!-- Node1&#45;&gt;Node6 -->
<g id="edge6" class="edge"><title>Node1&#45;&gt;Node6</title>
<path fill="none" stroke="midnightblue" d="M61.7381,-69.6708C76.7147,-57.2474 98.6628,-40.401 120,-29 126.725,-25.4069 134.272,-22.2395 141.516,-19.5719"/>
<polygon fill="midnightblue" stroke="midnightblue" points="59.1575,-67.2694 53.783,-76.3998 63.6783,-72.6139 59.1575,-67.2694"/>
</g>
<!-- Node3&#45;&gt;Node4 -->
<g id="edge3" class="edge"><title>Node3&#45;&gt;Node4</title>
<path fill="none" stroke="midnightblue" d="M236.194,-115.323C245.639,-113.984 255.239,-112.623 264.236,-111.347"/>
<polygon fill="midnightblue" stroke="midnightblue" points="235.452,-111.893 226.042,-116.763 236.434,-118.824 235.452,-111.893"/>
</g>
</g>
</svg>
