<?xml version="1.0" encoding="UTF-8" standalone="no"?>
<!DOCTYPE svg PUBLIC "-//W3C//DTD SVG 1.1//EN"
 "http://www.w3.org/Graphics/SVG/1.1/DTD/svg11.dtd">
<!-- Generated by graphviz version 2.36.0 (20140111.2315)
 -->
<!-- Title: driver_tags_get_with_hidden Pages: 1 -->
<svg width="304pt" height="104pt"
 viewBox="0.00 0.00 304.00 104.00" xmlns="http://www.w3.org/2000/svg" xmlns:xlink="http://www.w3.org/1999/xlink">
<g id="graph0" class="graph" transform="scale(1 1) rotate(0) translate(4 100)">
<title>driver_tags_get_with_hidden</title>
<polygon fill="white" stroke="none" points="-4,4 -4,-100 300,-100 300,4 -4,4"/>
<!-- Node1 -->
<g id="node1" class="node"><title>Node1</title>
<polygon fill="#bfbfbf" stroke="black" points="0.5,-33 0.5,-63 107.5,-63 107.5,-33 0.5,-33"/>
<text text-anchor="start" x="8.5" y="-51" font-family="Helvetica,sans-Serif" font-size="10.00">driver_tags_get_with</text>
<text text-anchor="middle" x="54" y="-40" font-family="Helvetica,sans-Serif" font-size="10.00">_hidden</text>
</g>
<!-- Node2 -->
<g id="node2" class="node"><title>Node2</title>
<g id="a_node2"><a xlink:href="curs__main_8h.html#af7d9d8649ad205788c9af1bbf871207f" target="_top" xlink:title="Display a list of emails. ">
<polygon fill="white" stroke="red" points="173,-76.5 173,-95.5 267,-95.5 267,-76.5 173,-76.5"/>
<text text-anchor="middle" x="220" y="-83.5" font-family="Helvetica,sans-Serif" font-size="10.00">mutt_index_menu</text>
</a>
</g>
</g>
<!-- Node1&#45;&gt;Node2 -->
<g id="edge1" class="edge"><title>Node1&#45;&gt;Node2</title>
<path fill="none" stroke="midnightblue" d="M117.808,-62.5531C137.891,-67.2066 159.602,-72.2371 177.745,-76.4409"/>
<polygon fill="midnightblue" stroke="midnightblue" points="118.325,-59.0803 107.793,-60.2326 116.745,-65.8996 118.325,-59.0803"/>
</g>
<!-- Node3 -->
<g id="node3" class="node"><title>Node3</title>
<g id="a_node3"><a xlink:href="imap__private_8h.html#a6b77ed679dbcce9a94ca912e0c4939a5" target="_top" xlink:title="Update server to reflect the flags of a single message. ">
<polygon fill="white" stroke="red" points="144,-38.5 144,-57.5 296,-57.5 296,-38.5 144,-38.5"/>
<text text-anchor="middle" x="220" y="-45.5" font-family="Helvetica,sans-Serif" font-size="10.00">imap_sync_message_for_copy</text>
</a>
</g>
</g>
<!-- Node1&#45;&gt;Node3 -->
<g id="edge2" class="edge"><title>Node1&#45;&gt;Node3</title>
<path fill="none" stroke="midnightblue" d="M117.976,-48C126.463,-48 135.238,-48 143.909,-48"/>
<polygon fill="midnightblue" stroke="midnightblue" points="117.793,-44.5001 107.793,-48 117.793,-51.5001 117.793,-44.5001"/>
</g>
<!-- Node4 -->
<g id="node4" class="node"><title>Node4</title>
<g id="a_node4"><a xlink:href="imap_8c.html#ab8ac9c2913b5eb8c1a29f99007cf1c1f" target="_top" xlink:title="Implements MxOps::tags_commit() ">
<polygon fill="white" stroke="black" points="170.5,-0.5 170.5,-19.5 269.5,-19.5 269.5,-0.5 170.5,-0.5"/>
<text text-anchor="middle" x="220" y="-7.5" font-family="Helvetica,sans-Serif" font-size="10.00">imap_tags_commit</text>
</a>
</g>
</g>
<!-- Node1&#45;&gt;Node4 -->
<g id="edge3" class="edge"><title>Node1&#45;&gt;Node4</title>
<path fill="none" stroke="midnightblue" d="M117.808,-33.4469C137.891,-28.7934 159.602,-23.7629 177.745,-19.5591"/>
<polygon fill="midnightblue" stroke="midnightblue" points="116.745,-30.1004 107.793,-35.7674 118.325,-36.9197 116.745,-30.1004"/>
</g>
</g>
</svg>
