<?xml version="1.0" encoding="UTF-8" standalone="no"?>
<!DOCTYPE svg PUBLIC "-//W3C//DTD SVG 1.1//EN"
 "http://www.w3.org/Graphics/SVG/1.1/DTD/svg11.dtd">
<!-- Generated by graphviz version 2.36.0 (20140111.2315)
 -->
<!-- Title: driver_tags_free Pages: 1 -->
<svg width="232pt" height="66pt"
 viewBox="0.00 0.00 232.00 66.00" xmlns="http://www.w3.org/2000/svg" xmlns:xlink="http://www.w3.org/1999/xlink">
<g id="graph0" class="graph" transform="scale(1 1) rotate(0) translate(4 62)">
<title>driver_tags_free</title>
<polygon fill="white" stroke="none" points="-4,4 -4,-62 228,-62 228,4 -4,4"/>
<!-- Node1 -->
<g id="node1" class="node"><title>Node1</title>
<polygon fill="#bfbfbf" stroke="black" points="0,-19.5 0,-38.5 86,-38.5 86,-19.5 0,-19.5"/>
<text text-anchor="middle" x="43" y="-26.5" font-family="Helvetica,sans-Serif" font-size="10.00">driver_tags_free</text>
</g>
<!-- Node2 -->
<g id="node2" class="node"><title>Node2</title>
<g id="a_node2"><a xlink:href="header_8h.html#a417d090ecf2e78b1cd86daeea31c9822" target="_top" xlink:title="Free an email Header. ">
<polygon fill="white" stroke="red" points="127,-38.5 127,-57.5 219,-57.5 219,-38.5 127,-38.5"/>
<text text-anchor="middle" x="173" y="-45.5" font-family="Helvetica,sans-Serif" font-size="10.00">mutt_header_free</text>
</a>
</g>
</g>
<!-- Node1&#45;&gt;Node2 -->
<g id="edge1" class="edge"><title>Node1&#45;&gt;Node2</title>
<path fill="none" stroke="midnightblue" d="M96.202,-36.7487C106.312,-38.2495 116.829,-39.8106 126.696,-41.2752"/>
<polygon fill="midnightblue" stroke="midnightblue" points="96.6723,-33.2803 86.2667,-35.274 95.6444,-40.2044 96.6723,-33.2803"/>
</g>
<!-- Node3 -->
<g id="node3" class="node"><title>Node3</title>
<g id="a_node3"><a xlink:href="tags_8h.html#ae366e8246a8491af8abed2544643e54b" target="_top" xlink:title="Replace all tags. ">
<polygon fill="white" stroke="red" points="122.5,-0.5 122.5,-19.5 223.5,-19.5 223.5,-0.5 122.5,-0.5"/>
<text text-anchor="middle" x="173" y="-7.5" font-family="Helvetica,sans-Serif" font-size="10.00">driver_tags_replace</text>
</a>
</g>
</g>
<!-- Node1&#45;&gt;Node3 -->
<g id="edge2" class="edge"><title>Node1&#45;&gt;Node3</title>
<path fill="none" stroke="midnightblue" d="M96.1878,-21.2534C104.788,-19.9768 113.682,-18.6565 122.221,-17.389"/>
<polygon fill="midnightblue" stroke="midnightblue" points="95.6444,-17.7956 86.2667,-22.726 96.6723,-24.7197 95.6444,-17.7956"/>
</g>
</g>
</svg>
