<?xml version="1.0" encoding="UTF-8" standalone="no"?>
<!DOCTYPE svg PUBLIC "-//W3C//DTD SVG 1.1//EN"
 "http://www.w3.org/Graphics/SVG/1.1/DTD/svg11.dtd">
<!-- Generated by graphviz version 2.36.0 (20140111.2315)
 -->
<!-- Title: terminal.h Pages: 1 -->
<svg width="209pt" height="84pt"
 viewBox="0.00 0.00 209.00 84.00" xmlns="http://www.w3.org/2000/svg" xmlns:xlink="http://www.w3.org/1999/xlink">
<g id="graph0" class="graph" transform="scale(1 1) rotate(0) translate(4 80)">
<title>terminal.h</title>
<polygon fill="white" stroke="none" points="-4,4 -4,-80 205,-80 205,4 -4,4"/>
<!-- Node1 -->
<g id="node1" class="node"><title>Node1</title>
<polygon fill="#bfbfbf" stroke="black" points="81.5,-56.5 81.5,-75.5 140.5,-75.5 140.5,-56.5 81.5,-56.5"/>
<text text-anchor="middle" x="111" y="-63.5" font-family="Helvetica,sans-Serif" font-size="10.00">terminal.h</text>
</g>
<!-- Node2 -->
<g id="node2" class="node"><title>Node2</title>
<g id="a_node2"><a xlink:href="curs__main_8c.html" target="_top" xlink:title="GUI manage the main index (list of emails) ">
<polygon fill="white" stroke="black" points="0,-0.5 0,-19.5 70,-19.5 70,-0.5 0,-0.5"/>
<text text-anchor="middle" x="35" y="-7.5" font-family="Helvetica,sans-Serif" font-size="10.00">curs_main.c</text>
</a>
</g>
</g>
<!-- Node1&#45;&gt;Node2 -->
<g id="edge1" class="edge"><title>Node1&#45;&gt;Node2</title>
<path fill="none" stroke="midnightblue" d="M90.4242,-50.3804C76.688,-40.6204 59.0747,-28.1057 47.4329,-19.8339"/>
<polygon fill="midnightblue" stroke="midnightblue" points="88.6102,-53.385 98.7893,-56.324 92.6647,-47.6787 88.6102,-53.385"/>
</g>
<!-- Node3 -->
<g id="node3" class="node"><title>Node3</title>
<g id="a_node3"><a xlink:href="main_8c.html" target="_top" xlink:title="Command line processing. ">
<polygon fill="white" stroke="black" points="88,-0.5 88,-19.5 134,-19.5 134,-0.5 88,-0.5"/>
<text text-anchor="middle" x="111" y="-7.5" font-family="Helvetica,sans-Serif" font-size="10.00">main.c</text>
</a>
</g>
</g>
<!-- Node1&#45;&gt;Node3 -->
<g id="edge2" class="edge"><title>Node1&#45;&gt;Node3</title>
<path fill="none" stroke="midnightblue" d="M111,-45.8045C111,-36.9102 111,-26.7798 111,-19.7511"/>
<polygon fill="midnightblue" stroke="midnightblue" points="107.5,-46.083 111,-56.083 114.5,-46.083 107.5,-46.083"/>
</g>
<!-- Node4 -->
<g id="node4" class="node"><title>Node4</title>
<g id="a_node4"><a xlink:href="pager_8c.html" target="_top" xlink:title="GUI display a file/email/help in a viewport with paging. ">
<polygon fill="white" stroke="black" points="152.5,-0.5 152.5,-19.5 201.5,-19.5 201.5,-0.5 152.5,-0.5"/>
<text text-anchor="middle" x="177" y="-7.5" font-family="Helvetica,sans-Serif" font-size="10.00">pager.c</text>
</a>
</g>
</g>
<!-- Node1&#45;&gt;Node4 -->
<g id="edge3" class="edge"><title>Node1&#45;&gt;Node4</title>
<path fill="none" stroke="midnightblue" d="M129.554,-49.8197C141.378,-40.1452 156.286,-27.9481 166.203,-19.8339"/>
<polygon fill="midnightblue" stroke="midnightblue" points="127.127,-47.2827 121.604,-56.324 131.56,-52.7004 127.127,-47.2827"/>
</g>
</g>
</svg>
