<?xml version="1.0" encoding="UTF-8" standalone="no"?>
<!DOCTYPE svg PUBLIC "-//W3C//DTD SVG 1.1//EN"
 "http://www.w3.org/Graphics/SVG/1.1/DTD/svg11.dtd">
<!-- Generated by graphviz version 2.36.0 (20140111.2315)
 -->
<!-- Title: mutt_break_thread Pages: 1 -->
<svg width="234pt" height="84pt"
 viewBox="0.00 0.00 234.00 84.00" xmlns="http://www.w3.org/2000/svg" xmlns:xlink="http://www.w3.org/1999/xlink">
<g id="graph0" class="graph" transform="scale(1 1) rotate(0) translate(4 80)">
<title>mutt_break_thread</title>
<polygon fill="white" stroke="none" points="-4,4 -4,-80 230,-80 230,4 -4,4"/>
<!-- Node1 -->
<g id="node1" class="node"><title>Node1</title>
<polygon fill="#bfbfbf" stroke="black" points="0,-28.5 0,-47.5 98,-47.5 98,-28.5 0,-28.5"/>
<text text-anchor="middle" x="49" y="-35.5" font-family="Helvetica,sans-Serif" font-size="10.00">mutt_break_thread</text>
</g>
<!-- Node2 -->
<g id="node2" class="node"><title>Node2</title>
<g id="a_node2"><a xlink:href="list_8c.html#ab5c53ce94cc2aafa4299dbc81a37f4a4" target="_top" xlink:title="Free a List AND its strings. ">
<polygon fill="white" stroke="black" points="142,-56.5 142,-75.5 218,-75.5 218,-56.5 142,-56.5"/>
<text text-anchor="middle" x="180" y="-63.5" font-family="Helvetica,sans-Serif" font-size="10.00">mutt_list_free</text>
</a>
</g>
</g>
<!-- Node1&#45;&gt;Node2 -->
<g id="edge1" class="edge"><title>Node1&#45;&gt;Node2</title>
<path fill="none" stroke="midnightblue" d="M94.0337,-47.5577C106.122,-50.1816 119.281,-53.0378 131.553,-55.7014"/>
<polygon fill="midnightblue" stroke="midnightblue" points="131.094,-59.1833 141.609,-57.8842 132.579,-52.3426 131.094,-59.1833"/>
</g>
<!-- Node3 -->
<g id="node3" class="node"><title>Node3</title>
<g id="a_node3"><a xlink:href="thread_8c.html#af02dc29a28917627295ccfa102d6103a" target="_top" xlink:title="Update email references for a broken Thread. ">
<polygon fill="white" stroke="red" points="134.5,-0.5 134.5,-19.5 225.5,-19.5 225.5,-0.5 134.5,-0.5"/>
<text text-anchor="middle" x="180" y="-7.5" font-family="Helvetica,sans-Serif" font-size="10.00">clean_references</text>
</a>
</g>
</g>
<!-- Node1&#45;&gt;Node3 -->
<g id="edge2" class="edge"><title>Node1&#45;&gt;Node3</title>
<path fill="none" stroke="midnightblue" d="M94.0337,-28.4423C104.1,-26.2573 114.909,-23.9112 125.33,-21.6493"/>
<polygon fill="midnightblue" stroke="midnightblue" points="126.135,-25.0562 135.165,-19.5146 124.65,-18.2155 126.135,-25.0562"/>
</g>
<!-- Node3&#45;&gt;Node3 -->
<g id="edge3" class="edge"><title>Node3&#45;&gt;Node3</title>
<path fill="none" stroke="midnightblue" d="M159.963,-19.7571C150.216,-28.5653 156.895,-38 180,-38 194.802,-38 202.862,-34.128 204.181,-29.0292"/>
<polygon fill="midnightblue" stroke="midnightblue" points="207.313,-27.4582 200.037,-19.7571 200.922,-30.3148 207.313,-27.4582"/>
</g>
</g>
</svg>
