<?xml version="1.0" encoding="UTF-8" standalone="no"?>
<!DOCTYPE svg PUBLIC "-//W3C//DTD SVG 1.1//EN"
 "http://www.w3.org/Graphics/SVG/1.1/DTD/svg11.dtd">
<!-- Generated by graphviz version 2.36.0 (20140111.2315)
 -->
<!-- Title: insert_message Pages: 1 -->
<svg width="348pt" height="47pt"
 viewBox="0.00 0.00 348.00 47.00" xmlns="http://www.w3.org/2000/svg" xmlns:xlink="http://www.w3.org/1999/xlink">
<g id="graph0" class="graph" transform="scale(1 1) rotate(0) translate(4 43)">
<title>insert_message</title>
<polygon fill="white" stroke="none" points="-4,4 -4,-43 344,-43 344,4 -4,4"/>
<!-- Node1 -->
<g id="node1" class="node"><title>Node1</title>
<polygon fill="#bfbfbf" stroke="black" points="0,-0.5 0,-19.5 86,-19.5 86,-0.5 0,-0.5"/>
<text text-anchor="middle" x="43" y="-7.5" font-family="Helvetica,sans-Serif" font-size="10.00">insert_message</text>
</g>
<!-- Node2 -->
<g id="node2" class="node"><title>Node2</title>
<g id="a_node2"><a xlink:href="mutt__thread_8c.html#a6042c1e1c658a9c2b9dfe5ec9e8cd008" target="_top" xlink:title="Thread messages by subject. ">
<polygon fill="white" stroke="black" points="122,-19.5 122,-38.5 208,-38.5 208,-19.5 122,-19.5"/>
<text text-anchor="middle" x="165" y="-26.5" font-family="Helvetica,sans-Serif" font-size="10.00">pseudo_threads</text>
</a>
</g>
</g>
<!-- Node1&#45;&gt;Node2 -->
<g id="edge1" class="edge"><title>Node1&#45;&gt;Node2</title>
<path fill="none" stroke="midnightblue" d="M96.447,-18.3041C104.879,-19.6392 113.514,-21.0064 121.67,-22.2978"/>
<polygon fill="midnightblue" stroke="midnightblue" points="96.7319,-14.8057 86.3075,-16.6987 95.6371,-21.7196 96.7319,-14.8057"/>
</g>
<!-- Node3 -->
<g id="node3" class="node"><title>Node3</title>
<g id="a_node3"><a xlink:href="mutt__thread_8h.html#a681afbded061e5682646918ac6360e70" target="_top" xlink:title="Sort email threads. ">
<polygon fill="white" stroke="red" points="244.5,-0.5 244.5,-19.5 339.5,-19.5 339.5,-0.5 244.5,-0.5"/>
<text text-anchor="middle" x="292" y="-7.5" font-family="Helvetica,sans-Serif" font-size="10.00">mutt_sort_threads</text>
</a>
</g>
</g>
<!-- Node1&#45;&gt;Node3 -->
<g id="edge3" class="edge"><title>Node1&#45;&gt;Node3</title>
<path fill="none" stroke="midnightblue" d="M96.3559,-10C140.203,-10 202.206,-10 244.367,-10"/>
<polygon fill="midnightblue" stroke="midnightblue" points="96.1802,-6.5001 86.1802,-10 96.1801,-13.5001 96.1802,-6.5001"/>
</g>
<!-- Node2&#45;&gt;Node3 -->
<g id="edge2" class="edge"><title>Node2&#45;&gt;Node3</title>
<path fill="none" stroke="midnightblue" d="M218.326,-21.0465C226.99,-19.7295 235.922,-18.3718 244.432,-17.0783"/>
<polygon fill="midnightblue" stroke="midnightblue" points="217.68,-17.6044 208.319,-22.5675 218.732,-24.5249 217.68,-17.6044"/>
</g>
</g>
</svg>
