<?xml version="1.0" encoding="UTF-8" standalone="no"?>
<!DOCTYPE svg PUBLIC "-//W3C//DTD SVG 1.1//EN"
 "http://www.w3.org/Graphics/SVG/1.1/DTD/svg11.dtd">
<!-- Generated by graphviz version 2.36.0 (20140111.2315)
 -->
<!-- Title: url_parse Pages: 1 -->
<svg width="320pt" height="218pt"
 viewBox="0.00 0.00 320.00 218.00" xmlns="http://www.w3.org/2000/svg" xmlns:xlink="http://www.w3.org/1999/xlink">
<g id="graph0" class="graph" transform="scale(1 1) rotate(0) translate(4 214)">
<title>url_parse</title>
<polygon fill="white" stroke="none" points="-4,4 -4,-214 316,-214 316,4 -4,4"/>
<!-- Node1 -->
<g id="node1" class="node"><title>Node1</title>
<polygon fill="#bfbfbf" stroke="black" points="0,-95.5 0,-114.5 56,-114.5 56,-95.5 0,-95.5"/>
<text text-anchor="middle" x="28" y="-102.5" font-family="Helvetica,sans-Serif" font-size="10.00">url_parse</text>
</g>
<!-- Node2 -->
<g id="node2" class="node"><title>Node2</title>
<g id="a_node2"><a xlink:href="url_8c.html#a62966c55e1aee3e55a464bdb125691c1" target="_top" xlink:title="Check the protocol of a URL. ">
<polygon fill="white" stroke="red" points="93,-190.5 93,-209.5 191,-209.5 191,-190.5 93,-190.5"/>
<text text-anchor="middle" x="142" y="-197.5" font-family="Helvetica,sans-Serif" font-size="10.00">url_check_scheme</text>
</a>
</g>
</g>
<!-- Node1&#45;&gt;Node2 -->
<g id="edge1" class="edge"><title>Node1&#45;&gt;Node2</title>
<path fill="none" stroke="midnightblue" d="M35.7649,-114.817C46.3567,-129.617 68.1279,-157.843 92,-176 96.7817,-179.637 102.202,-182.945 107.65,-185.864"/>
<polygon fill="midnightblue" stroke="midnightblue" points="106.228,-189.065 116.738,-190.397 109.352,-182.801 106.228,-189.065"/>
</g>
<!-- Node3 -->
<g id="node3" class="node"><title>Node3</title>
<g id="a_node3"><a xlink:href="url_8c.html#a04f548a80bf78fcc748e6dd70a0059b2" target="_top" xlink:title="Decode a percent&#45;encoded string. ">
<polygon fill="white" stroke="black" points="228.5,-133.5 228.5,-152.5 311.5,-152.5 311.5,-133.5 228.5,-133.5"/>
<text text-anchor="middle" x="270" y="-140.5" font-family="Helvetica,sans-Serif" font-size="10.00">url_pct_decode</text>
</a>
</g>
</g>
<!-- Node1&#45;&gt;Node3 -->
<g id="edge2" class="edge"><title>Node1&#45;&gt;Node3</title>
<path fill="none" stroke="midnightblue" d="M40.6273,-114.712C52.6238,-124.048 72.311,-137.522 92,-143 133.36,-154.508 182.293,-153.455 218.214,-150.124"/>
<polygon fill="midnightblue" stroke="midnightblue" points="218.858,-153.577 228.452,-149.081 218.148,-146.613 218.858,-153.577"/>
</g>
<!-- Node4 -->
<g id="node4" class="node"><title>Node4</title>
<g id="a_node4"><a xlink:href="url_8c.html#abd1499479aedbebeb0f348f9444c8197" target="_top" xlink:title="Parse a URL query string. ">
<polygon fill="white" stroke="red" points="92.5,-114.5 92.5,-133.5 191.5,-133.5 191.5,-114.5 92.5,-114.5"/>
<text text-anchor="middle" x="142" y="-121.5" font-family="Helvetica,sans-Serif" font-size="10.00">parse_query_string</text>
</a>
</g>
</g>
<!-- Node1&#45;&gt;Node4 -->
<g id="edge3" class="edge"><title>Node1&#45;&gt;Node4</title>
<path fill="none" stroke="midnightblue" d="M56.1121,-109.599C64.0993,-110.954 73.1663,-112.492 82.3288,-114.047"/>
<polygon fill="midnightblue" stroke="midnightblue" points="81.8175,-117.51 92.262,-115.732 82.9883,-110.609 81.8175,-117.51"/>
</g>
<!-- Node5 -->
<g id="node5" class="node"><title>Node5</title>
<g id="a_node5"><a xlink:href="mutt_2string_8c.html#a28ed71d2f686113e100516424be6ac42" target="_top" xlink:title="Convert ASCII string to an integer. ">
<polygon fill="white" stroke="red" points="105,-76.5 105,-95.5 179,-95.5 179,-76.5 105,-76.5"/>
<text text-anchor="middle" x="142" y="-83.5" font-family="Helvetica,sans-Serif" font-size="10.00">mutt_str_atoi</text>
</a>
</g>
</g>
<!-- Node1&#45;&gt;Node5 -->
<g id="edge5" class="edge"><title>Node1&#45;&gt;Node5</title>
<path fill="none" stroke="midnightblue" d="M56.1121,-100.401C67.7713,-98.4227 81.7311,-96.0545 94.9305,-93.8154"/>
<polygon fill="midnightblue" stroke="midnightblue" points="95.5516,-97.2601 104.825,-92.1368 94.3807,-90.3587 95.5516,-97.2601"/>
</g>
<!-- Node6 -->
<g id="node6" class="node"><title>Node6</title>
<g id="a_node6"><a xlink:href="mutt_2string_8c.html#aca11f88d08a860c07419df3efb18f35a" target="_top" xlink:title="Calculate the length of a string, safely. ">
<polygon fill="white" stroke="black" points="101,-38.5 101,-57.5 183,-57.5 183,-38.5 101,-38.5"/>
<text text-anchor="middle" x="142" y="-45.5" font-family="Helvetica,sans-Serif" font-size="10.00">mutt_str_strlen</text>
</a>
</g>
</g>
<!-- Node1&#45;&gt;Node6 -->
<g id="edge6" class="edge"><title>Node1&#45;&gt;Node6</title>
<path fill="none" stroke="midnightblue" d="M43.3631,-95.3553C55.8786,-87.1927 74.6862,-75.4991 92,-67 96.0249,-65.0243 100.31,-63.1069 104.607,-61.2984"/>
<polygon fill="midnightblue" stroke="midnightblue" points="105.974,-64.521 113.938,-57.5326 103.354,-58.0298 105.974,-64.521"/>
</g>
<!-- Node7 -->
<g id="node7" class="node"><title>Node7</title>
<g id="a_node7"><a xlink:href="url_8c.html#a2ed367f71739ce9809c32aa452855ec2" target="_top" xlink:title="Free the contents of a URL. ">
<polygon fill="white" stroke="black" points="117.5,-0.5 117.5,-19.5 166.5,-19.5 166.5,-0.5 117.5,-0.5"/>
<text text-anchor="middle" x="142" y="-7.5" font-family="Helvetica,sans-Serif" font-size="10.00">url_free</text>
</a>
</g>
</g>
<!-- Node1&#45;&gt;Node7 -->
<g id="edge7" class="edge"><title>Node1&#45;&gt;Node7</title>
<path fill="none" stroke="midnightblue" d="M34.5958,-95.4954C44.3665,-79.6506 65.9962,-47.7328 92,-29 96.8375,-25.5151 102.398,-22.5714 107.997,-20.1196"/>
<polygon fill="midnightblue" stroke="midnightblue" points="109.309,-23.3646 117.336,-16.4491 106.748,-16.8497 109.309,-23.3646"/>
</g>
<!-- Node4&#45;&gt;Node3 -->
<g id="edge4" class="edge"><title>Node4&#45;&gt;Node3</title>
<path fill="none" stroke="midnightblue" d="M191.715,-131.346C200.376,-132.652 209.416,-134.015 218.135,-135.33"/>
<polygon fill="midnightblue" stroke="midnightblue" points="217.77,-138.814 228.18,-136.845 218.813,-131.893 217.77,-138.814"/>
</g>
</g>
</svg>
