<?xml version="1.0" encoding="UTF-8" standalone="no"?>
<!DOCTYPE svg PUBLIC "-//W3C//DTD SVG 1.1//EN"
 "http://www.w3.org/Graphics/SVG/1.1/DTD/svg11.dtd">
<!-- Generated by graphviz version 2.36.0 (20140111.2315)
 -->
<!-- Title: url_pct_encode Pages: 1 -->
<svg width="228pt" height="66pt"
 viewBox="0.00 0.00 228.00 66.00" xmlns="http://www.w3.org/2000/svg" xmlns:xlink="http://www.w3.org/1999/xlink">
<g id="graph0" class="graph" transform="scale(1 1) rotate(0) translate(4 62)">
<title>url_pct_encode</title>
<polygon fill="white" stroke="none" points="-4,4 -4,-62 224,-62 224,4 -4,4"/>
<!-- Node1 -->
<g id="node1" class="node"><title>Node1</title>
<polygon fill="#bfbfbf" stroke="black" points="0.5,-19.5 0.5,-38.5 83.5,-38.5 83.5,-19.5 0.5,-19.5"/>
<text text-anchor="middle" x="42" y="-26.5" font-family="Helvetica,sans-Serif" font-size="10.00">url_pct_encode</text>
</g>
<!-- Node2 -->
<g id="node2" class="node"><title>Node2</title>
<g id="a_node2"><a xlink:href="url_8h.html#a9a25aab1cc9763713277d2282c31af79" target="_top" xlink:title="Output the URL string for a given Url object. ">
<polygon fill="white" stroke="red" points="137.5,-38.5 137.5,-57.5 202.5,-57.5 202.5,-38.5 137.5,-38.5"/>
<text text-anchor="middle" x="170" y="-45.5" font-family="Helvetica,sans-Serif" font-size="10.00">url_tostring</text>
</a>
</g>
</g>
<!-- Node1&#45;&gt;Node2 -->
<g id="edge1" class="edge"><title>Node1&#45;&gt;Node2</title>
<path fill="none" stroke="midnightblue" d="M93.5891,-36.6285C108.354,-38.8549 124.065,-41.2241 137.304,-43.2204"/>
<polygon fill="midnightblue" stroke="midnightblue" points="93.9709,-33.1466 83.5608,-35.1163 92.9271,-40.0683 93.9709,-33.1466"/>
</g>
<!-- Node3 -->
<g id="node3" class="node"><title>Node3</title>
<g id="a_node3"><a xlink:href="mutt__notmuch_8h.html#acd30ce9b92071791bcf43602850e64d2" target="_top" xlink:title="Turn a query into a URI. ">
<polygon fill="white" stroke="red" points="120,-0.5 120,-19.5 220,-19.5 220,-0.5 120,-0.5"/>
<text text-anchor="middle" x="170" y="-7.5" font-family="Helvetica,sans-Serif" font-size="10.00">nm_uri_from_query</text>
</a>
</g>
</g>
<!-- Node1&#45;&gt;Node3 -->
<g id="edge2" class="edge"><title>Node1&#45;&gt;Node3</title>
<path fill="none" stroke="midnightblue" d="M93.5046,-21.3842C102.138,-20.0824 111.097,-18.7314 119.699,-17.4343"/>
<polygon fill="midnightblue" stroke="midnightblue" points="92.9271,-17.9317 83.5608,-22.8837 93.9709,-24.8534 92.9271,-17.9317"/>
</g>
</g>
</svg>
