<?xml version="1.0" encoding="UTF-8" standalone="no"?>
<!DOCTYPE svg PUBLIC "-//W3C//DTD SVG 1.1//EN"
 "http://www.w3.org/Graphics/SVG/1.1/DTD/svg11.dtd">
<!-- Generated by graphviz version 2.36.0 (20140111.2315)
 -->
<!-- Title: url_tostring Pages: 1 -->
<svg width="218pt" height="104pt"
 viewBox="0.00 0.00 218.00 104.00" xmlns="http://www.w3.org/2000/svg" xmlns:xlink="http://www.w3.org/1999/xlink">
<g id="graph0" class="graph" transform="scale(1 1) rotate(0) translate(4 100)">
<title>url_tostring</title>
<polygon fill="white" stroke="none" points="-4,4 -4,-100 214,-100 214,4 -4,4"/>
<!-- Node1 -->
<g id="node1" class="node"><title>Node1</title>
<polygon fill="#bfbfbf" stroke="black" points="0.5,-38.5 0.5,-57.5 65.5,-57.5 65.5,-38.5 0.5,-38.5"/>
<text text-anchor="middle" x="33" y="-45.5" font-family="Helvetica,sans-Serif" font-size="10.00">url_tostring</text>
</g>
<!-- Node2 -->
<g id="node2" class="node"><title>Node2</title>
<g id="a_node2"><a xlink:href="mapping_8c.html#acd58cf0565e80b588773e4c4cb45407f" target="_top" xlink:title="Lookup a string for a constant. ">
<polygon fill="white" stroke="black" points="102,-76.5 102,-95.5 210,-95.5 210,-76.5 102,-76.5"/>
<text text-anchor="middle" x="156" y="-83.5" font-family="Helvetica,sans-Serif" font-size="10.00">mutt_map_get_name</text>
</a>
</g>
</g>
<!-- Node1&#45;&gt;Node2 -->
<g id="edge1" class="edge"><title>Node1&#45;&gt;Node2</title>
<path fill="none" stroke="midnightblue" d="M64.5334,-57.589C79.7234,-62.3594 98.2853,-68.1888 114.633,-73.3229"/>
<polygon fill="midnightblue" stroke="midnightblue" points="113.887,-76.757 124.476,-76.4141 115.984,-70.0786 113.887,-76.757"/>
</g>
<!-- Node3 -->
<g id="node3" class="node"><title>Node3</title>
<g id="a_node3"><a xlink:href="mutt_2string_8c.html#a9ea8568afcd2f6b67f4be5254ffb6f8e" target="_top" xlink:title="Concatenate two strings. ">
<polygon fill="white" stroke="black" points="114.5,-38.5 114.5,-57.5 197.5,-57.5 197.5,-38.5 114.5,-38.5"/>
<text text-anchor="middle" x="156" y="-45.5" font-family="Helvetica,sans-Serif" font-size="10.00">mutt_str_strcat</text>
</a>
</g>
</g>
<!-- Node1&#45;&gt;Node3 -->
<g id="edge2" class="edge"><title>Node1&#45;&gt;Node3</title>
<path fill="none" stroke="midnightblue" d="M65.7913,-48C77.5044,-48 91.0863,-48 104.066,-48"/>
<polygon fill="midnightblue" stroke="midnightblue" points="104.298,-51.5001 114.298,-48 104.298,-44.5001 104.298,-51.5001"/>
</g>
<!-- Node4 -->
<g id="node4" class="node"><title>Node4</title>
<g id="a_node4"><a xlink:href="url_8c.html#a794c1c1f09db34304ddc7ab07f2b95cc" target="_top" xlink:title="Percent&#45;encode a string. ">
<polygon fill="white" stroke="black" points="114.5,-0.5 114.5,-19.5 197.5,-19.5 197.5,-0.5 114.5,-0.5"/>
<text text-anchor="middle" x="156" y="-7.5" font-family="Helvetica,sans-Serif" font-size="10.00">url_pct_encode</text>
</a>
</g>
</g>
<!-- Node1&#45;&gt;Node4 -->
<g id="edge3" class="edge"><title>Node1&#45;&gt;Node4</title>
<path fill="none" stroke="midnightblue" d="M64.5334,-38.411C79.7234,-33.6406 98.2853,-27.8112 114.633,-22.6771"/>
<polygon fill="midnightblue" stroke="midnightblue" points="115.984,-25.9214 124.476,-19.5859 113.887,-19.243 115.984,-25.9214"/>
</g>
</g>
</svg>
