<?xml version="1.0" encoding="UTF-8" standalone="no"?>
<!DOCTYPE svg PUBLIC "-//W3C//DTD SVG 1.1//EN"
 "http://www.w3.org/Graphics/SVG/1.1/DTD/svg11.dtd">
<!-- Generated by graphviz version 2.36.0 (20140111.2315)
 -->
<!-- Title: email/url.c Pages: 1 -->
<svg width="416pt" height="140pt"
 viewBox="0.00 0.00 416.00 140.00" xmlns="http://www.w3.org/2000/svg" xmlns:xlink="http://www.w3.org/1999/xlink">
<g id="graph0" class="graph" transform="scale(1 1) rotate(0) translate(4 136)">
<title>email/url.c</title>
<polygon fill="white" stroke="none" points="-4,4 -4,-136 412,-136 412,4 -4,4"/>
<!-- Node1 -->
<g id="node1" class="node"><title>Node1</title>
<polygon fill="#bfbfbf" stroke="black" points="194,-112.5 194,-131.5 256,-131.5 256,-112.5 194,-112.5"/>
<text text-anchor="middle" x="225" y="-119.5" font-family="Helvetica,sans-Serif" font-size="10.00">email/url.c</text>
</g>
<!-- Node2 -->
<g id="node2" class="node"><title>Node2</title>
<polygon fill="white" stroke="#bfbfbf" points="-0.5,-56.5 -0.5,-75.5 50.5,-75.5 50.5,-56.5 -0.5,-56.5"/>
<text text-anchor="middle" x="25" y="-63.5" font-family="Helvetica,sans-Serif" font-size="10.00">config.h</text>
</g>
<!-- Node1&#45;&gt;Node2 -->
<g id="edge1" class="edge"><title>Node1&#45;&gt;Node2</title>
<path fill="none" stroke="midnightblue" d="M193.75,-112.562C157.699,-102.829 98.5412,-86.8561 60.7046,-76.6403"/>
<polygon fill="midnightblue" stroke="midnightblue" points="61.2017,-73.1492 50.6351,-73.9215 59.377,-79.9072 61.2017,-73.1492"/>
</g>
<!-- Node3 -->
<g id="node3" class="node"><title>Node3</title>
<polygon fill="white" stroke="#bfbfbf" points="68.5,-56.5 68.5,-75.5 117.5,-75.5 117.5,-56.5 68.5,-56.5"/>
<text text-anchor="middle" x="93" y="-63.5" font-family="Helvetica,sans-Serif" font-size="10.00">ctype.h</text>
</g>
<!-- Node1&#45;&gt;Node3 -->
<g id="edge2" class="edge"><title>Node1&#45;&gt;Node3</title>
<path fill="none" stroke="midnightblue" d="M204.084,-112.444C182.264,-103.517 147.85,-89.4387 123.108,-79.3168"/>
<polygon fill="midnightblue" stroke="midnightblue" points="124.399,-76.0634 113.818,-75.5164 121.748,-82.5422 124.399,-76.0634"/>
</g>
<!-- Node4 -->
<g id="node4" class="node"><title>Node4</title>
<polygon fill="white" stroke="#bfbfbf" points="136,-56.5 136,-75.5 182,-75.5 182,-56.5 136,-56.5"/>
<text text-anchor="middle" x="159" y="-63.5" font-family="Helvetica,sans-Serif" font-size="10.00">stdio.h</text>
</g>
<!-- Node1&#45;&gt;Node4 -->
<g id="edge3" class="edge"><title>Node1&#45;&gt;Node4</title>
<path fill="none" stroke="midnightblue" d="M214.396,-112.324C204.544,-104.263 189.649,-92.0765 177.785,-82.3695"/>
<polygon fill="midnightblue" stroke="midnightblue" points="179.753,-79.4575 169.797,-75.8339 175.32,-84.8752 179.753,-79.4575"/>
</g>
<!-- Node5 -->
<g id="node5" class="node"><title>Node5</title>
<polygon fill="white" stroke="#bfbfbf" points="200.5,-56.5 200.5,-75.5 249.5,-75.5 249.5,-56.5 200.5,-56.5"/>
<text text-anchor="middle" x="225" y="-63.5" font-family="Helvetica,sans-Serif" font-size="10.00">string.h</text>
</g>
<!-- Node1&#45;&gt;Node5 -->
<g id="edge4" class="edge"><title>Node1&#45;&gt;Node5</title>
<path fill="none" stroke="midnightblue" d="M225,-112.083C225,-105.006 225,-94.8611 225,-85.9865"/>
<polygon fill="midnightblue" stroke="midnightblue" points="228.5,-85.751 225,-75.7511 221.5,-85.7511 228.5,-85.751"/>
</g>
<!-- Node6 -->
<g id="node6" class="node"><title>Node6</title>
<polygon fill="white" stroke="#bfbfbf" points="267.5,-0.5 267.5,-19.5 334.5,-19.5 334.5,-0.5 267.5,-0.5"/>
<text text-anchor="middle" x="301" y="-7.5" font-family="Helvetica,sans-Serif" font-size="10.00">mutt/mutt.h</text>
</g>
<!-- Node1&#45;&gt;Node6 -->
<g id="edge5" class="edge"><title>Node1&#45;&gt;Node6</title>
<path fill="none" stroke="midnightblue" d="M231.451,-112.462C238.196,-103.477 249.027,-88.8767 258,-76 269.205,-59.9207 281.496,-41.2285 290.057,-28.0275"/>
<polygon fill="midnightblue" stroke="midnightblue" points="293.078,-29.8009 295.562,-19.5015 287.197,-26.0035 293.078,-29.8009"/>
</g>
<!-- Node7 -->
<g id="node7" class="node"><title>Node7</title>
<g id="a_node7"><a xlink:href="url_8h.html" target="_top" xlink:title="Parse and identify different URL schemes. ">
<polygon fill="white" stroke="red" points="306.5,-56.5 306.5,-75.5 341.5,-75.5 341.5,-56.5 306.5,-56.5"/>
<text text-anchor="middle" x="324" y="-63.5" font-family="Helvetica,sans-Serif" font-size="10.00">url.h</text>
</a>
</g>
</g>
<!-- Node1&#45;&gt;Node7 -->
<g id="edge6" class="edge"><title>Node1&#45;&gt;Node7</title>
<path fill="none" stroke="midnightblue" d="M240.906,-112.324C256.638,-103.743 280.942,-90.486 299.209,-80.5224"/>
<polygon fill="midnightblue" stroke="midnightblue" points="301.03,-83.5157 308.133,-75.6545 297.678,-77.3704 301.03,-83.5157"/>
</g>
<!-- Node8 -->
<g id="node8" class="node"><title>Node8</title>
<g id="a_node8"><a xlink:href="mime_8h.html" target="_top" xlink:title="Constants and macros for managing MIME encoding. ">
<polygon fill="white" stroke="black" points="359.5,-56.5 359.5,-75.5 408.5,-75.5 408.5,-56.5 359.5,-56.5"/>
<text text-anchor="middle" x="384" y="-63.5" font-family="Helvetica,sans-Serif" font-size="10.00">mime.h</text>
</a>
</g>
</g>
<!-- Node1&#45;&gt;Node8 -->
<g id="edge8" class="edge"><title>Node1&#45;&gt;Node8</title>
<path fill="none" stroke="midnightblue" d="M250.194,-112.444C277.1,-103.306 319.903,-88.7689 349.832,-78.6044"/>
<polygon fill="midnightblue" stroke="midnightblue" points="351.103,-81.869 359.446,-75.339 348.852,-75.2408 351.103,-81.869"/>
</g>
<!-- Node7&#45;&gt;Node6 -->
<g id="edge7" class="edge"><title>Node7&#45;&gt;Node6</title>
<path fill="none" stroke="midnightblue" d="M320.202,-56.083C317.087,-48.77 312.577,-38.1814 308.711,-29.1034"/>
<polygon fill="midnightblue" stroke="midnightblue" points="311.866,-27.5798 304.727,-19.7511 305.426,-30.3229 311.866,-27.5798"/>
</g>
</g>
</svg>
