<?xml version="1.0" encoding="UTF-8" standalone="no"?>
<!DOCTYPE svg PUBLIC "-//W3C//DTD SVG 1.1//EN"
 "http://www.w3.org/Graphics/SVG/1.1/DTD/svg11.dtd">
<!-- Generated by graphviz version 2.36.0 (20140111.2315)
 -->
<!-- Title: imap_mxcmp Pages: 1 -->
<svg width="366pt" height="173pt"
 viewBox="0.00 0.00 366.00 172.96" xmlns="http://www.w3.org/2000/svg" xmlns:xlink="http://www.w3.org/1999/xlink">
<g id="graph0" class="graph" transform="scale(1 1) rotate(0) translate(4 168.957)">
<title>imap_mxcmp</title>
<polygon fill="white" stroke="none" points="-4,4 -4,-168.957 362,-168.957 362,4 -4,4"/>
<!-- Node1 -->
<g id="node1" class="node"><title>Node1</title>
<polygon fill="#bfbfbf" stroke="black" points="0.5,-84.5 0.5,-103.5 75.5,-103.5 75.5,-84.5 0.5,-84.5"/>
<text text-anchor="middle" x="38" y="-91.5" font-family="Helvetica,sans-Serif" font-size="10.00">imap_mxcmp</text>
</g>
<!-- Node2 -->
<g id="node2" class="node"><title>Node2</title>
<g id="a_node2"><a xlink:href="imap_2command_8c.html#a3ae00b0adf13af742037267d0c950b1a" target="_top" xlink:title="Parse status from server. ">
<polygon fill="white" stroke="red" points="260.5,-47.5 260.5,-66.5 357.5,-66.5 357.5,-47.5 260.5,-47.5"/>
<text text-anchor="middle" x="309" y="-54.5" font-family="Helvetica,sans-Serif" font-size="10.00">cmd_parse_status</text>
</a>
</g>
</g>
<!-- Node1&#45;&gt;Node2 -->
<g id="edge1" class="edge"><title>Node1&#45;&gt;Node2</title>
<path fill="none" stroke="midnightblue" d="M54.325,-111.059C67.9189,-124.817 89.1225,-143.126 112,-151 159.068,-167.199 178.564,-171.332 224,-151 263.555,-133.3 292.172,-86.7483 303.11,-66.5632"/>
<polygon fill="midnightblue" stroke="midnightblue" points="56.6675,-108.443 47.2453,-103.598 51.5897,-113.261 56.6675,-108.443"/>
</g>
<!-- Node3 -->
<g id="node3" class="node"><title>Node3</title>
<g id="a_node3"><a xlink:href="imap_8h.html#a3bd0d7473a0b702dfff8db25461f0caf" target="_top" xlink:title="IMAP hook into the folder browser. ">
<polygon fill="white" stroke="red" points="131,-122.5 131,-141.5 205,-141.5 205,-122.5 131,-122.5"/>
<text text-anchor="middle" x="168" y="-129.5" font-family="Helvetica,sans-Serif" font-size="10.00">imap_browse</text>
</a>
</g>
</g>
<!-- Node1&#45;&gt;Node3 -->
<g id="edge2" class="edge"><title>Node1&#45;&gt;Node3</title>
<path fill="none" stroke="midnightblue" d="M81.2242,-106.535C98.6371,-111.705 118.492,-117.599 134.711,-122.414"/>
<polygon fill="midnightblue" stroke="midnightblue" points="81.8824,-103.08 71.2998,-103.589 79.8902,-109.79 81.8824,-103.08"/>
</g>
<!-- Node4 -->
<g id="node4" class="node"><title>Node4</title>
<g id="a_node4"><a xlink:href="imap_8h.html#a285b3e0efb50828eb5e894950ba9583a" target="_top" xlink:title="Check for new mail in subscribed folders. ">
<polygon fill="white" stroke="red" points="114,-84.5 114,-103.5 222,-103.5 222,-84.5 114,-84.5"/>
<text text-anchor="middle" x="168" y="-91.5" font-family="Helvetica,sans-Serif" font-size="10.00">imap_mailbox_check</text>
</a>
</g>
</g>
<!-- Node1&#45;&gt;Node4 -->
<g id="edge3" class="edge"><title>Node1&#45;&gt;Node4</title>
<path fill="none" stroke="midnightblue" d="M85.969,-94C94.9633,-94 104.442,-94 113.62,-94"/>
<polygon fill="midnightblue" stroke="midnightblue" points="85.6797,-90.5001 75.6797,-94 85.6796,-97.5001 85.6797,-90.5001"/>
</g>
<!-- Node5 -->
<g id="node5" class="node"><title>Node5</title>
<g id="a_node5"><a xlink:href="imap_8h.html#a7f3974819983cef00cbb041c82a21c1a" target="_top" xlink:title="Get the status of a mailbox. ">
<polygon fill="white" stroke="red" points="274,-0.5 274,-19.5 344,-19.5 344,-0.5 274,-0.5"/>
<text text-anchor="middle" x="309" y="-7.5" font-family="Helvetica,sans-Serif" font-size="10.00">imap_status</text>
</a>
</g>
</g>
<!-- Node1&#45;&gt;Node5 -->
<g id="edge4" class="edge"><title>Node1&#45;&gt;Node5</title>
<path fill="none" stroke="midnightblue" d="M50.4867,-75.9029C63.1054,-57.8285 85.1848,-31.0521 112,-19 164.508,4.59977 233.107,0.962727 273.669,-4.23495"/>
<polygon fill="midnightblue" stroke="midnightblue" points="47.4283,-74.1801 44.7754,-84.4374 53.2458,-78.0732 47.4283,-74.1801"/>
</g>
<!-- Node6 -->
<g id="node6" class="node"><title>Node6</title>
<g id="a_node6"><a xlink:href="imap__private_8h.html#a925749e5d4a304b8219da7ac44c31f75" target="_top" xlink:title="Open an hcache for a mailbox. ">
<polygon fill="white" stroke="red" points="112,-28.5 112,-47.5 224,-47.5 224,-28.5 112,-28.5"/>
<text text-anchor="middle" x="168" y="-35.5" font-family="Helvetica,sans-Serif" font-size="10.00">imap_mboxcache_get</text>
</a>
</g>
</g>
<!-- Node1&#45;&gt;Node6 -->
<g id="edge5" class="edge"><title>Node1&#45;&gt;Node6</title>
<path fill="none" stroke="midnightblue" d="M70.4348,-80.2473C93.6809,-70.0771 124.741,-56.4883 145.283,-47.5011"/>
<polygon fill="midnightblue" stroke="midnightblue" points="68.7627,-77.1585 61.004,-84.3733 71.5685,-83.5716 68.7627,-77.1585"/>
</g>
<!-- Node6&#45;&gt;Node2 -->
<g id="edge6" class="edge"><title>Node6&#45;&gt;Node2</title>
<path fill="none" stroke="midnightblue" d="M234.249,-46.9189C243.091,-48.1275 252.025,-49.3487 260.475,-50.5038"/>
<polygon fill="midnightblue" stroke="midnightblue" points="234.718,-43.4505 224.336,-45.5639 233.77,-50.386 234.718,-43.4505"/>
</g>
<!-- Node6&#45;&gt;Node5 -->
<g id="edge7" class="edge"><title>Node6&#45;&gt;Node5</title>
<path fill="none" stroke="midnightblue" d="M226.362,-26.4451C242.525,-23.1892 259.592,-19.7512 273.919,-16.8653"/>
<polygon fill="midnightblue" stroke="midnightblue" points="225.559,-23.0364 216.447,-28.4423 226.941,-29.8986 225.559,-23.0364"/>
</g>
<!-- Node6&#45;&gt;Node6 -->
<g id="edge8" class="edge"><title>Node6&#45;&gt;Node6</title>
<path fill="none" stroke="midnightblue" d="M143.819,-57.0292C145.138,-62.128 153.198,-66 168,-66 191.105,-66 197.784,-56.5653 188.037,-47.7571"/>
<polygon fill="midnightblue" stroke="midnightblue" points="147.078,-58.3148 147.963,-47.7571 140.687,-55.4582 147.078,-58.3148"/>
</g>
</g>
</svg>
