<?xml version="1.0" encoding="UTF-8" standalone="no"?>
<!DOCTYPE svg PUBLIC "-//W3C//DTD SVG 1.1//EN"
 "http://www.w3.org/Graphics/SVG/1.1/DTD/svg11.dtd">
<!-- Generated by graphviz version 2.36.0 (20140111.2315)
 -->
<!-- Title: imap_continue Pages: 1 -->
<svg width="200pt" height="66pt"
 viewBox="0.00 0.00 200.00 66.00" xmlns="http://www.w3.org/2000/svg" xmlns:xlink="http://www.w3.org/1999/xlink">
<g id="graph0" class="graph" transform="scale(1 1) rotate(0) translate(4 62)">
<title>imap_continue</title>
<polygon fill="white" stroke="none" points="-4,4 -4,-62 196,-62 196,4 -4,4"/>
<!-- Node1 -->
<g id="node1" class="node"><title>Node1</title>
<polygon fill="#bfbfbf" stroke="black" points="0,-19.5 0,-38.5 80,-38.5 80,-19.5 0,-19.5"/>
<text text-anchor="middle" x="40" y="-26.5" font-family="Helvetica,sans-Serif" font-size="10.00">imap_continue</text>
</g>
<!-- Node2 -->
<g id="node2" class="node"><title>Node2</title>
<g id="a_node2"><a xlink:href="util_8c.html#aab316d8524d30a8813bab633aa9505e6" target="_top" xlink:title="show an error and abort ">
<polygon fill="white" stroke="black" points="123,-38.5 123,-57.5 185,-57.5 185,-38.5 123,-38.5"/>
<text text-anchor="middle" x="154" y="-45.5" font-family="Helvetica,sans-Serif" font-size="10.00">imap_error</text>
</a>
</g>
</g>
<!-- Node1&#45;&gt;Node2 -->
<g id="edge1" class="edge"><title>Node1&#45;&gt;Node2</title>
<path fill="none" stroke="midnightblue" d="M80.1722,-35.6453C90.7846,-37.4456 102.286,-39.3967 112.946,-41.2051"/>
<polygon fill="midnightblue" stroke="midnightblue" points="112.408,-44.6638 122.853,-42.8857 113.579,-37.7624 112.408,-44.6638"/>
</g>
<!-- Node3 -->
<g id="node3" class="node"><title>Node3</title>
<g id="a_node3"><a xlink:href="curs__lib_8c.html#a2ac481c92c3c888c1f658696909a3430" target="_top" xlink:title="Ask the user a Yes/No question. ">
<polygon fill="white" stroke="red" points="116,-0.5 116,-19.5 192,-19.5 192,-0.5 116,-0.5"/>
<text text-anchor="middle" x="154" y="-7.5" font-family="Helvetica,sans-Serif" font-size="10.00">mutt_yesorno</text>
</a>
</g>
</g>
<!-- Node1&#45;&gt;Node3 -->
<g id="edge2" class="edge"><title>Node1&#45;&gt;Node3</title>
<path fill="none" stroke="midnightblue" d="M80.1722,-22.3547C88.5147,-20.9395 97.4064,-19.4311 106.007,-17.972"/>
<polygon fill="midnightblue" stroke="midnightblue" points="106.646,-21.4138 115.919,-16.2904 105.475,-14.5124 106.646,-21.4138"/>
</g>
</g>
</svg>
