<?xml version="1.0" encoding="UTF-8" standalone="no"?>
<!DOCTYPE svg PUBLIC "-//W3C//DTD SVG 1.1//EN"
 "http://www.w3.org/Graphics/SVG/1.1/DTD/svg11.dtd">
<!-- Generated by graphviz version 2.36.0 (20140111.2315)
 -->
<!-- Title: imap_next_word Pages: 1 -->
<svg width="690pt" height="668pt"
 viewBox="0.00 0.00 690.00 668.39" xmlns="http://www.w3.org/2000/svg" xmlns:xlink="http://www.w3.org/1999/xlink">
<g id="graph0" class="graph" transform="scale(1 1) rotate(0) translate(4 664.385)">
<title>imap_next_word</title>
<polygon fill="white" stroke="none" points="-4,4 -4,-664.385 686,-664.385 686,4 -4,4"/>
<!-- Node1 -->
<g id="node1" class="node"><title>Node1</title>
<polygon fill="#bfbfbf" stroke="black" points="0,-304.964 0,-323.964 88,-323.964 88,-304.964 0,-304.964"/>
<text text-anchor="middle" x="44" y="-311.964" font-family="Helvetica,sans-Serif" font-size="10.00">imap_next_word</text>
</g>
<!-- Node2 -->
<g id="node2" class="node"><title>Node2</title>
<g id="a_node2"><a xlink:href="imap_2command_8c.html#a953d1f634f86ee1bcda0733f13f362c7" target="_top" xlink:title="parse response line for tagged OK/NO/BAD ">
<polygon fill="white" stroke="red" points="142,-380.964 142,-399.964 210,-399.964 210,-380.964 142,-380.964"/>
<text text-anchor="middle" x="176" y="-387.964" font-family="Helvetica,sans-Serif" font-size="10.00">cmd_status</text>
</a>
</g>
</g>
<!-- Node1&#45;&gt;Node2 -->
<g id="edge1" class="edge"><title>Node1&#45;&gt;Node2</title>
<path fill="none" stroke="midnightblue" d="M66.7439,-329.987C82.3256,-340.807 104.006,-355.254 124,-366.464 133.218,-371.633 143.736,-376.712 152.815,-380.857"/>
<polygon fill="midnightblue" stroke="midnightblue" points="68.5299,-326.964 58.3333,-324.087 64.51,-332.695 68.5299,-326.964"/>
</g>
<!-- Node3 -->
<g id="node3" class="node"><title>Node3</title>
<g id="a_node3"><a xlink:href="imap__private_8h.html#a4acab39c86f77ee378015e5013af0a0f" target="_top" xlink:title="Reads server responses from an IMAP command. ">
<polygon fill="white" stroke="red" points="277,-380.964 277,-399.964 363,-399.964 363,-380.964 277,-380.964"/>
<text text-anchor="middle" x="320" y="-387.964" font-family="Helvetica,sans-Serif" font-size="10.00">imap_cmd_step</text>
</a>
</g>
</g>
<!-- Node1&#45;&gt;Node3 -->
<g id="edge25" class="edge"><title>Node1&#45;&gt;Node3</title>
<path fill="none" stroke="midnightblue" d="M54.044,-333.186C66.283,-356.091 90.5038,-393.754 124,-409.464 181.28,-436.329 258.264,-414.126 296.082,-399.975"/>
<polygon fill="midnightblue" stroke="midnightblue" points="57.0721,-331.42 49.4064,-324.107 50.8382,-334.604 57.0721,-331.42"/>
</g>
<!-- Node4 -->
<g id="node4" class="node"><title>Node4</title>
<g id="a_node4"><a xlink:href="imap_2command_8c.html#aebfe7d73d94036b6000eecc6ac61e0ce" target="_top" xlink:title="Parse a server LIST command (list mailboxes) ">
<polygon fill="white" stroke="red" points="430.5,-494.964 430.5,-513.964 513.5,-513.964 513.5,-494.964 430.5,-494.964"/>
<text text-anchor="middle" x="472" y="-501.964" font-family="Helvetica,sans-Serif" font-size="10.00">cmd_parse_list</text>
</a>
</g>
</g>
<!-- Node1&#45;&gt;Node4 -->
<g id="edge16" class="edge"><title>Node1&#45;&gt;Node4</title>
<path fill="none" stroke="midnightblue" d="M47.6626,-333.928C53.8097,-370.727 72.6239,-450.233 124,-488.464 171.353,-523.702 349.176,-514.406 430.254,-508.078"/>
<polygon fill="midnightblue" stroke="midnightblue" points="51.1115,-333.328 46.1395,-323.972 44.192,-334.386 51.1115,-333.328"/>
</g>
<!-- Node5 -->
<g id="node5" class="node"><title>Node5</title>
<g id="a_node5"><a xlink:href="imap_2command_8c.html#a06471266c69aa2011de3264703502d58" target="_top" xlink:title="fallback parser for otherwise unhandled messages ">
<polygon fill="white" stroke="black" points="568,-380.964 568,-399.964 682,-399.964 682,-380.964 568,-380.964"/>
<text text-anchor="middle" x="625" y="-387.964" font-family="Helvetica,sans-Serif" font-size="10.00">cmd_handle_untagged</text>
</a>
</g>
</g>
<!-- Node1&#45;&gt;Node5 -->
<g id="edge24" class="edge"><title>Node1&#45;&gt;Node5</title>
<path fill="none" stroke="midnightblue" d="M47.8757,-334.445C56.5255,-391.569 84.1849,-553.579 124,-586.464 264.094,-702.174 388.443,-671.849 532,-560.464 587.944,-517.058 614.167,-429.717 621.657,-400.352"/>
<polygon fill="midnightblue" stroke="midnightblue" points="51.2872,-333.589 46.3609,-324.209 44.3626,-334.613 51.2872,-333.589"/>
</g>
<!-- Node6 -->
<g id="node6" class="node"><title>Node6</title>
<g id="a_node6"><a xlink:href="imap_2command_8c.html#a3ae00b0adf13af742037267d0c950b1a" target="_top" xlink:title="Parse status from server. ">
<polygon fill="white" stroke="black" points="423.5,-456.964 423.5,-475.964 520.5,-475.964 520.5,-456.964 423.5,-456.964"/>
<text text-anchor="middle" x="472" y="-463.964" font-family="Helvetica,sans-Serif" font-size="10.00">cmd_parse_status</text>
</a>
</g>
</g>
<!-- Node1&#45;&gt;Node6 -->
<g id="edge21" class="edge"><title>Node1&#45;&gt;Node6</title>
<path fill="none" stroke="midnightblue" d="M49.5788,-334.182C58.139,-366.139 79.8382,-428.573 124,-457.464 222.591,-521.964 372.968,-493.199 438.538,-476.001"/>
<polygon fill="midnightblue" stroke="midnightblue" points="52.9157,-333.1 47.0837,-324.255 46.1269,-334.806 52.9157,-333.1"/>
</g>
<!-- Node7 -->
<g id="node7" class="node"><title>Node7</title>
<g id="a_node7"><a xlink:href="imap_8c.html#a6aa69e15f9108427a470d8f679ebe0f3" target="_top" xlink:title="Implements MxOps::mbox_open() ">
<polygon fill="white" stroke="black" points="425.5,-304.964 425.5,-323.964 518.5,-323.964 518.5,-304.964 425.5,-304.964"/>
<text text-anchor="middle" x="472" y="-311.964" font-family="Helvetica,sans-Serif" font-size="10.00">imap_mbox_open</text>
</a>
</g>
</g>
<!-- Node1&#45;&gt;Node7 -->
<g id="edge27" class="edge"><title>Node1&#45;&gt;Node7</title>
<path fill="none" stroke="midnightblue" d="M86.6908,-302.495C98.6353,-299.597 111.743,-296.917 124,-295.464 231.545,-282.713 358.875,-297.185 425.371,-306.972"/>
<polygon fill="midnightblue" stroke="midnightblue" points="85.8083,-299.108 76.9751,-304.958 87.5286,-305.893 85.8083,-299.108"/>
</g>
<!-- Node8 -->
<g id="node8" class="node"><title>Node8</title>
<g id="a_node8"><a xlink:href="message_8c.html#a93d33f4cd62d2b6cbc835c3a4fc90d30" target="_top" xlink:title="import IMAP FETCH response into an ImapHeader ">
<polygon fill="white" stroke="red" points="423.5,-190.964 423.5,-209.964 520.5,-209.964 520.5,-190.964 423.5,-190.964"/>
<text text-anchor="middle" x="472" y="-197.964" font-family="Helvetica,sans-Serif" font-size="10.00">msg_fetch_header</text>
</a>
</g>
</g>
<!-- Node1&#45;&gt;Node8 -->
<g id="edge30" class="edge"><title>Node1&#45;&gt;Node8</title>
<path fill="none" stroke="midnightblue" d="M49.9878,-294.8C58.9445,-264.148 80.9685,-205.954 124,-181.464 230.969,-120.586 387.805,-168.797 447.106,-190.895"/>
<polygon fill="midnightblue" stroke="midnightblue" points="46.5331,-294.164 47.2645,-304.734 53.284,-296.015 46.5331,-294.164"/>
</g>
<!-- Node9 -->
<g id="node9" class="node"><title>Node9</title>
<g id="a_node9"><a xlink:href="message_8c.html#ac66dd57350d26393d54331847edf4a19" target="_top" xlink:title="Implements MxOps::msg_open() ">
<polygon fill="white" stroke="black" points="428,-418.964 428,-437.964 516,-437.964 516,-418.964 428,-418.964"/>
<text text-anchor="middle" x="472" y="-425.964" font-family="Helvetica,sans-Serif" font-size="10.00">imap_msg_open</text>
</a>
</g>
</g>
<!-- Node1&#45;&gt;Node9 -->
<g id="edge31" class="edge"><title>Node1&#45;&gt;Node9</title>
<path fill="none" stroke="midnightblue" d="M51.6909,-333.841C62.24,-360.979 85.5857,-409.248 124,-429.464 227.691,-484.033 374.124,-455.106 438.496,-438.058"/>
<polygon fill="midnightblue" stroke="midnightblue" points="54.9039,-332.438 48.161,-324.266 48.336,-334.859 54.9039,-332.438"/>
</g>
<!-- Node10 -->
<g id="node10" class="node"><title>Node10</title>
<g id="a_node10"><a xlink:href="message_8c.html#a98f190c0228d94863c21dfd71e4022d1" target="_top" xlink:title="Write an email back to the server. ">
<polygon fill="white" stroke="red" points="412.5,-342.964 412.5,-361.964 531.5,-361.964 531.5,-342.964 412.5,-342.964"/>
<text text-anchor="middle" x="472" y="-349.964" font-family="Helvetica,sans-Serif" font-size="10.00">imap_append_message</text>
</a>
</g>
</g>
<!-- Node1&#45;&gt;Node10 -->
<g id="edge32" class="edge"><title>Node1&#45;&gt;Node10</title>
<path fill="none" stroke="midnightblue" d="M88.7004,-326.468C100.11,-329.19 112.449,-331.773 124,-333.464 224.589,-348.19 343.094,-351.762 412.351,-352.484"/>
<polygon fill="midnightblue" stroke="midnightblue" points="89.5034,-323.061 78.9557,-324.059 87.8236,-329.857 89.5034,-323.061"/>
</g>
<!-- Node11 -->
<g id="node11" class="node"><title>Node11</title>
<g id="a_node11"><a xlink:href="imap_2command_8c.html#a1502bda208eb216014e6174359cc016e" target="_top" xlink:title="Load fetch response into ImapData. ">
<polygon fill="white" stroke="black" points="274,-570.964 274,-589.964 366,-589.964 366,-570.964 274,-570.964"/>
<text text-anchor="middle" x="320" y="-577.964" font-family="Helvetica,sans-Serif" font-size="10.00">cmd_parse_fetch</text>
</a>
</g>
</g>
<!-- Node1&#45;&gt;Node11 -->
<g id="edge12" class="edge"><title>Node1&#45;&gt;Node11</title>
<path fill="none" stroke="midnightblue" d="M44.8531,-334.106C45.6668,-380.938 54.8155,-499.496 124,-556.464 165.736,-590.83 230.541,-591.841 273.851,-587.627"/>
<polygon fill="midnightblue" stroke="midnightblue" points="48.3528,-334.038 44.7928,-324.059 41.3529,-334.08 48.3528,-334.038"/>
</g>
<!-- Node12 -->
<g id="node12" class="node"><title>Node12</title>
<g id="a_node12"><a xlink:href="imap_2command_8c.html#a356bddbfdb56fad4c154fb8459c1c6cb" target="_top" xlink:title="set capability bits according to CAPABILITY response ">
<polygon fill="white" stroke="black" points="264.5,-228.964 264.5,-247.964 375.5,-247.964 375.5,-228.964 264.5,-228.964"/>
<text text-anchor="middle" x="320" y="-235.964" font-family="Helvetica,sans-Serif" font-size="10.00">cmd_parse_capability</text>
</a>
</g>
</g>
<!-- Node1&#45;&gt;Node12 -->
<g id="edge14" class="edge"><title>Node1&#45;&gt;Node12</title>
<path fill="none" stroke="midnightblue" d="M63.9312,-298.359C79.1371,-286.368 101.584,-270.705 124,-262.464 169.461,-245.751 224.486,-240.195 264.477,-238.561"/>
<polygon fill="midnightblue" stroke="midnightblue" points="61.4226,-295.888 55.8698,-304.911 65.8376,-301.32 61.4226,-295.888"/>
</g>
<!-- Node13 -->
<g id="node13" class="node"><title>Node13</title>
<g id="a_node13"><a xlink:href="imap_2command_8c.html#ac47fbd200bc149725a0da25df4cebc33" target="_top" xlink:title="Set rights bits according to MYRIGHTS response. ">
<polygon fill="white" stroke="black" points="266.5,-114.964 266.5,-133.964 373.5,-133.964 373.5,-114.964 266.5,-114.964"/>
<text text-anchor="middle" x="320" y="-121.964" font-family="Helvetica,sans-Serif" font-size="10.00">cmd_parse_myrights</text>
</a>
</g>
</g>
<!-- Node1&#45;&gt;Node13 -->
<g id="edge17" class="edge"><title>Node1&#45;&gt;Node13</title>
<path fill="none" stroke="midnightblue" d="M48.0966,-294.854C54.8502,-259.203 74.4697,-184.165 124,-148.464 165.091,-118.846 224.126,-115.514 266.46,-117.938"/>
<polygon fill="midnightblue" stroke="midnightblue" points="44.6069,-294.492 46.3344,-304.945 51.5026,-295.696 44.6069,-294.492"/>
</g>
<!-- Node14 -->
<g id="node14" class="node"><title>Node14</title>
<g id="a_node14"><a xlink:href="imap_2command_8c.html#a8f58f4424fce81a244f64125d44b61b1" target="_top" xlink:title="store SEARCH response for later use ">
<polygon fill="white" stroke="black" points="270.5,-57.9642 270.5,-76.9642 369.5,-76.9642 369.5,-57.9642 270.5,-57.9642"/>
<text text-anchor="middle" x="320" y="-64.9642" font-family="Helvetica,sans-Serif" font-size="10.00">cmd_parse_search</text>
</a>
</g>
</g>
<!-- Node1&#45;&gt;Node14 -->
<g id="edge19" class="edge"><title>Node1&#45;&gt;Node14</title>
<path fill="none" stroke="midnightblue" d="M44.2737,-294.83C43.6908,-246.477 49.7716,-121.656 124,-67.4642 173.217,-31.5327 249.628,-46.1299 290.659,-57.9638"/>
<polygon fill="midnightblue" stroke="midnightblue" points="40.7764,-294.994 44.5106,-304.909 47.7745,-294.83 40.7764,-294.994"/>
</g>
<!-- Node15 -->
<g id="node15" class="node"><title>Node15</title>
<g id="a_node15"><a xlink:href="imap_2command_8c.html#a6419d4f442605d235bffe855849984df" target="_top" xlink:title="Record what the server has enabled. ">
<polygon fill="white" stroke="black" points="124,-0.964219 124,-19.9642 228,-19.9642 228,-0.964219 124,-0.964219"/>
<text text-anchor="middle" x="176" y="-7.96422" font-family="Helvetica,sans-Serif" font-size="10.00">cmd_parse_enabled</text>
</a>
</g>
</g>
<!-- Node1&#45;&gt;Node15 -->
<g id="edge22" class="edge"><title>Node1&#45;&gt;Node15</title>
<path fill="none" stroke="midnightblue" d="M45.1963,-294.644C46.7142,-244.93 57.2023,-113.292 124,-34.4642 129.251,-28.2677 136.458,-23.5665 143.801,-20.0422"/>
<polygon fill="midnightblue" stroke="midnightblue" points="41.6958,-294.634 44.9824,-304.706 48.6942,-294.783 41.6958,-294.634"/>
</g>
<!-- Node16 -->
<g id="node16" class="node"><title>Node16</title>
<g id="a_node16"><a xlink:href="imap__private_8h.html#a9611e2aa77179929ee00bd1c0131d89b" target="_top" xlink:title="Extra information after tagged command response if any. ">
<polygon fill="white" stroke="red" points="130.5,-76.9642 130.5,-95.9642 221.5,-95.9642 221.5,-76.9642 130.5,-76.9642"/>
<text text-anchor="middle" x="176" y="-83.9642" font-family="Helvetica,sans-Serif" font-size="10.00">imap_cmd_trailer</text>
</a>
</g>
</g>
<!-- Node1&#45;&gt;Node16 -->
<g id="edge26" class="edge"><title>Node1&#45;&gt;Node16</title>
<path fill="none" stroke="midnightblue" d="M47.6992,-294.581C54.0615,-254.824 73.4566,-164.696 124,-110.464 129.738,-104.308 137.376,-99.5793 144.99,-96.014"/>
<polygon fill="midnightblue" stroke="midnightblue" points="44.2194,-294.187 46.2069,-304.594 51.1429,-295.219 44.2194,-294.187"/>
</g>
<!-- Node17 -->
<g id="node17" class="node"><title>Node17</title>
<g id="a_node17"><a xlink:href="message_8c.html#a544caf6f7e206bfbd88069d4693443b3" target="_top" xlink:title="handle headers returned from header fetch ">
<polygon fill="white" stroke="black" points="130,-190.964 130,-209.964 222,-209.964 222,-190.964 130,-190.964"/>
<text text-anchor="middle" x="176" y="-197.964" font-family="Helvetica,sans-Serif" font-size="10.00">msg_parse_fetch</text>
</a>
</g>
</g>
<!-- Node1&#45;&gt;Node17 -->
<g id="edge28" class="edge"><title>Node1&#45;&gt;Node17</title>
<path fill="none" stroke="midnightblue" d="M57.2661,-296.52C71.4685,-276.803 96.4651,-245.185 124,-224.464 131.663,-218.698 140.932,-213.829 149.456,-210.016"/>
<polygon fill="midnightblue" stroke="midnightblue" points="54.2594,-294.711 51.3633,-304.902 59.9827,-298.741 54.2594,-294.711"/>
</g>
<!-- Node18 -->
<g id="node18" class="node"><title>Node18</title>
<g id="a_node18"><a xlink:href="util_8c.html#ade12f477bcb371557bb305b920236e16" target="_top" xlink:title="Get the qualifier from a tagged response. ">
<polygon fill="white" stroke="red" points="128.5,-304.964 128.5,-323.964 223.5,-323.964 223.5,-304.964 128.5,-304.964"/>
<text text-anchor="middle" x="176" y="-311.964" font-family="Helvetica,sans-Serif" font-size="10.00">imap_get_qualifier</text>
</a>
</g>
</g>
<!-- Node1&#45;&gt;Node18 -->
<g id="edge33" class="edge"><title>Node1&#45;&gt;Node18</title>
<path fill="none" stroke="midnightblue" d="M98.443,-314.464C108.355,-314.464 118.638,-314.464 128.328,-314.464"/>
<polygon fill="midnightblue" stroke="midnightblue" points="98.2882,-310.964 88.2881,-314.464 98.2881,-317.964 98.2882,-310.964"/>
</g>
<!-- Node2&#45;&gt;Node3 -->
<g id="edge2" class="edge"><title>Node2&#45;&gt;Node3</title>
<path fill="none" stroke="midnightblue" d="M220.461,-390.464C238.344,-390.464 258.986,-390.464 276.742,-390.464"/>
<polygon fill="midnightblue" stroke="midnightblue" points="220.293,-386.964 210.293,-390.464 220.293,-393.964 220.293,-386.964"/>
</g>
<!-- Node3&#45;&gt;Node4 -->
<g id="edge3" class="edge"><title>Node3&#45;&gt;Node4</title>
<path fill="none" stroke="midnightblue" d="M333.591,-408.216C349.543,-429.473 378.967,-464.79 412,-485.464 418.112,-489.289 425.065,-492.414 432.002,-494.942"/>
<polygon fill="midnightblue" stroke="midnightblue" points="336.341,-406.049 327.608,-400.051 330.695,-410.186 336.341,-406.049"/>
</g>
<!-- Node3&#45;&gt;Node6 -->
<g id="edge6" class="edge"><title>Node3&#45;&gt;Node6</title>
<path fill="none" stroke="midnightblue" d="M342.504,-406.08C360.418,-418.551 386.957,-435.81 412,-447.464 419.708,-451.051 428.277,-454.234 436.442,-456.92"/>
<polygon fill="midnightblue" stroke="midnightblue" points="344.162,-402.966 333.977,-400.05 340.121,-408.681 344.162,-402.966"/>
</g>
<!-- Node3&#45;&gt;Node7 -->
<g id="edge8" class="edge"><title>Node3&#45;&gt;Node7</title>
<path fill="none" stroke="midnightblue" d="M342.504,-374.848C360.418,-362.377 386.957,-345.119 412,-333.464 419.708,-329.877 428.277,-326.695 436.442,-324.009"/>
<polygon fill="midnightblue" stroke="midnightblue" points="340.121,-372.247 333.977,-380.879 344.162,-377.963 340.121,-372.247"/>
</g>
<!-- Node3&#45;&gt;Node8 -->
<g id="edge9" class="edge"><title>Node3&#45;&gt;Node8</title>
<path fill="none" stroke="midnightblue" d="M334.87,-372.896C365.701,-333.844 439.098,-240.873 463.191,-210.356"/>
<polygon fill="midnightblue" stroke="midnightblue" points="332.094,-370.763 328.645,-380.781 337.588,-375.101 332.094,-370.763"/>
</g>
<!-- Node3&#45;&gt;Node9 -->
<g id="edge10" class="edge"><title>Node3&#45;&gt;Node9</title>
<path fill="none" stroke="midnightblue" d="M368.811,-402.576C389.702,-407.869 413.847,-413.986 433.421,-418.944"/>
<polygon fill="midnightblue" stroke="midnightblue" points="369.405,-399.116 358.851,-400.053 367.686,-405.902 369.405,-399.116"/>
</g>
<!-- Node3&#45;&gt;Node10 -->
<g id="edge11" class="edge"><title>Node3&#45;&gt;Node10</title>
<path fill="none" stroke="midnightblue" d="M368.811,-378.352C389.702,-373.06 413.847,-366.943 433.421,-361.984"/>
<polygon fill="midnightblue" stroke="midnightblue" points="367.686,-375.027 358.851,-380.875 369.405,-381.812 367.686,-375.027"/>
</g>
<!-- Node4&#45;&gt;Node5 -->
<g id="edge4" class="edge"><title>Node4&#45;&gt;Node5</title>
<path fill="none" stroke="midnightblue" d="M521.345,-491.108C525.054,-489.423 528.652,-487.547 532,-485.464 570.015,-461.816 603.497,-419.074 617.294,-400.047"/>
<polygon fill="midnightblue" stroke="midnightblue" points="519.927,-487.907 511.981,-494.915 522.563,-494.391 519.927,-487.907"/>
</g>
<!-- Node5&#45;&gt;Node3 -->
<g id="edge5" class="edge"><title>Node5&#45;&gt;Node3</title>
<path fill="none" stroke="midnightblue" d="M557.799,-390.464C498.574,-390.464 413.55,-390.464 363.131,-390.464"/>
<polygon fill="midnightblue" stroke="midnightblue" points="557.807,-393.964 567.807,-390.464 557.807,-386.964 557.807,-393.964"/>
</g>
<!-- Node6&#45;&gt;Node5 -->
<g id="edge7" class="edge"><title>Node6&#45;&gt;Node5</title>
<path fill="none" stroke="midnightblue" d="M517.226,-453.527C522.278,-451.667 527.298,-449.638 532,-447.464 561.675,-433.743 593.512,-412.341 610.863,-400.039"/>
<polygon fill="midnightblue" stroke="midnightblue" points="515.842,-450.303 507.546,-456.893 518.141,-456.915 515.842,-450.303"/>
</g>
<!-- Node11&#45;&gt;Node5 -->
<g id="edge13" class="edge"><title>Node11&#45;&gt;Node5</title>
<path fill="none" stroke="midnightblue" d="M376.368,-576.031C421.728,-570.072 485.746,-556.12 532,-523.464 579.019,-490.269 609.729,-424.952 620.099,-400.244"/>
<polygon fill="midnightblue" stroke="midnightblue" points="375.912,-572.56 366.412,-577.25 376.763,-579.508 375.912,-572.56"/>
</g>
<!-- Node12&#45;&gt;Node5 -->
<g id="edge15" class="edge"><title>Node12&#45;&gt;Node5</title>
<path fill="none" stroke="midnightblue" d="M385.629,-246.721C429.294,-254.436 486.966,-268.918 532,-295.464 570.569,-318.199 603.76,-361.419 617.388,-380.726"/>
<polygon fill="midnightblue" stroke="midnightblue" points="386.137,-243.257 375.693,-245.039 384.968,-250.159 386.137,-243.257"/>
</g>
<!-- Node13&#45;&gt;Node5 -->
<g id="edge18" class="edge"><title>Node13&#45;&gt;Node5</title>
<path fill="none" stroke="midnightblue" d="M383.822,-127.285C429.688,-132.422 490.8,-146.053 532,-181.464 596.941,-237.281 617.79,-347.697 622.72,-380.839"/>
<polygon fill="midnightblue" stroke="midnightblue" points="383.994,-123.785 373.692,-126.26 383.289,-130.749 383.994,-123.785"/>
</g>
<!-- Node14&#45;&gt;Node5 -->
<g id="edge20" class="edge"><title>Node14&#45;&gt;Node5</title>
<path fill="none" stroke="midnightblue" d="M379.947,-69.8386C426.751,-74.7719 490.941,-88.7766 532,-127.464 609.63,-200.61 621.784,-342.867 623.662,-380.914"/>
<polygon fill="midnightblue" stroke="midnightblue" points="380.226,-66.3495 369.941,-68.893 379.567,-73.3184 380.226,-66.3495"/>
</g>
<!-- Node15&#45;&gt;Node5 -->
<g id="edge23" class="edge"><title>Node15&#45;&gt;Node5</title>
<path fill="none" stroke="midnightblue" d="M238.373,-2.65287C316.502,3.66753 451.031,1.87061 532,-70.4642 580.928,-114.175 615.422,-331.974 622.609,-380.758"/>
<polygon fill="midnightblue" stroke="midnightblue" points="237.856,0.815209 228.201,-3.54763 238.469,-6.15787 237.856,0.815209"/>
</g>
<!-- Node17&#45;&gt;Node8 -->
<g id="edge29" class="edge"><title>Node17&#45;&gt;Node8</title>
<path fill="none" stroke="midnightblue" d="M232.568,-200.464C287.619,-200.464 371.047,-200.464 423.215,-200.464"/>
<polygon fill="midnightblue" stroke="midnightblue" points="232.293,-196.964 222.293,-200.464 232.293,-203.964 232.293,-196.964"/>
</g>
<!-- Node18&#45;&gt;Node7 -->
<g id="edge34" class="edge"><title>Node18&#45;&gt;Node7</title>
<path fill="none" stroke="midnightblue" d="M233.649,-314.464C289.385,-314.464 373.43,-314.464 425.117,-314.464"/>
<polygon fill="midnightblue" stroke="midnightblue" points="233.585,-310.964 223.585,-314.464 233.585,-317.964 233.585,-310.964"/>
</g>
</g>
</svg>
