<?xml version="1.0" encoding="UTF-8" standalone="no"?>
<!DOCTYPE svg PUBLIC "-//W3C//DTD SVG 1.1//EN"
 "http://www.w3.org/Graphics/SVG/1.1/DTD/svg11.dtd">
<!-- Generated by graphviz version 2.36.0 (20140111.2315)
 -->
<!-- Title: imap_fix_path Pages: 1 -->
<svg width="408pt" height="591pt"
 viewBox="0.00 0.00 408.00 591.03" xmlns="http://www.w3.org/2000/svg" xmlns:xlink="http://www.w3.org/1999/xlink">
<g id="graph0" class="graph" transform="scale(1 1) rotate(0) translate(4 587.025)">
<title>imap_fix_path</title>
<polygon fill="white" stroke="none" points="-4,4 -4,-587.025 404,-587.025 404,4 -4,4"/>
<!-- Node1 -->
<g id="node1" class="node"><title>Node1</title>
<polygon fill="#bfbfbf" stroke="black" points="0.5,-278.525 0.5,-297.525 77.5,-297.525 77.5,-278.525 0.5,-278.525"/>
<text text-anchor="middle" x="39" y="-285.525" font-family="Helvetica,sans-Serif" font-size="10.00">imap_fix_path</text>
</g>
<!-- Node2 -->
<g id="node2" class="node"><title>Node2</title>
<g id="a_node2"><a xlink:href="imap_2command_8c.html#a3ae00b0adf13af742037267d0c950b1a" target="_top" xlink:title="Parse status from server. ">
<polygon fill="white" stroke="red" points="286.5,-392.525 286.5,-411.525 383.5,-411.525 383.5,-392.525 286.5,-392.525"/>
<text text-anchor="middle" x="335" y="-399.525" font-family="Helvetica,sans-Serif" font-size="10.00">cmd_parse_status</text>
</a>
</g>
</g>
<!-- Node1&#45;&gt;Node2 -->
<g id="edge1" class="edge"><title>Node1&#45;&gt;Node2</title>
<path fill="none" stroke="midnightblue" d="M46.0764,-307.553C55.6325,-334.474 77.0046,-381.933 114,-402.025 172.737,-433.924 253.976,-422.211 299.504,-411.606"/>
<polygon fill="midnightblue" stroke="midnightblue" points="49.2796,-306.096 42.7895,-297.721 42.6407,-308.315 49.2796,-306.096"/>
</g>
<!-- Node3 -->
<g id="node3" class="node"><title>Node3</title>
<g id="a_node3"><a xlink:href="imap_8h.html#a3bd0d7473a0b702dfff8db25461f0caf" target="_top" xlink:title="IMAP hook into the folder browser. ">
<polygon fill="white" stroke="red" points="298,-164.525 298,-183.525 372,-183.525 372,-164.525 298,-164.525"/>
<text text-anchor="middle" x="335" y="-171.525" font-family="Helvetica,sans-Serif" font-size="10.00">imap_browse</text>
</a>
</g>
</g>
<!-- Node1&#45;&gt;Node3 -->
<g id="edge2" class="edge"><title>Node1&#45;&gt;Node3</title>
<path fill="none" stroke="midnightblue" d="M42.4241,-268.32C49.7952,-212.008 73.9183,-52.4783 114,-22.0251 156.466,10.2401 187.054,3.28392 234,-22.0251 292.667,-53.6534 322.559,-136.404 331.255,-164.518"/>
<polygon fill="midnightblue" stroke="midnightblue" points="38.9302,-268.051 41.1395,-278.413 45.8742,-268.935 38.9302,-268.051"/>
</g>
<!-- Node4 -->
<g id="node4" class="node"><title>Node4</title>
<g id="a_node4"><a xlink:href="imap_8h.html#a5cd0cbb32dc9137ac1c9b0eb9dfe967a" target="_top" xlink:title="Rename a mailbox. ">
<polygon fill="white" stroke="red" points="117,-487.525 117,-506.525 231,-506.525 231,-487.525 117,-487.525"/>
<text text-anchor="middle" x="174" y="-494.525" font-family="Helvetica,sans-Serif" font-size="10.00">imap_mailbox_rename</text>
</a>
</g>
</g>
<!-- Node1&#45;&gt;Node4 -->
<g id="edge3" class="edge"><title>Node1&#45;&gt;Node4</title>
<path fill="none" stroke="midnightblue" d="M42.2004,-308.352C47.4562,-346.951 64.2576,-431.174 114,-478.025 118.152,-481.935 123.113,-485.041 128.371,-487.508"/>
<polygon fill="midnightblue" stroke="midnightblue" points="45.6129,-307.427 40.9163,-297.93 38.6655,-308.283 45.6129,-307.427"/>
</g>
<!-- Node5 -->
<g id="node5" class="node"><title>Node5</title>
<g id="a_node5"><a xlink:href="imap_8c.html#a0bc66679e53d5a56b5d967a1f358b569" target="_top" xlink:title="Split mailbox URI. ">
<polygon fill="white" stroke="red" points="139.5,-449.525 139.5,-468.525 208.5,-468.525 208.5,-449.525 139.5,-449.525"/>
<text text-anchor="middle" x="174" y="-456.525" font-family="Helvetica,sans-Serif" font-size="10.00">get_mailbox</text>
</a>
</g>
</g>
<!-- Node1&#45;&gt;Node5 -->
<g id="edge4" class="edge"><title>Node1&#45;&gt;Node5</title>
<path fill="none" stroke="midnightblue" d="M45.0482,-307.724C53.9578,-338.791 75.2927,-399.298 114,-435.025 121.151,-441.625 130.357,-446.524 139.361,-450.111"/>
<polygon fill="midnightblue" stroke="midnightblue" points="48.3255,-306.439 42.3187,-297.711 41.5719,-308.28 48.3255,-306.439"/>
</g>
<!-- Node6 -->
<g id="node6" class="node"><title>Node6</title>
<g id="a_node6"><a xlink:href="imap_8h.html#ac9f5086daa8615bc5f01884b51053392" target="_top" xlink:title="Check permissions on an IMAP mailbox. ">
<polygon fill="white" stroke="red" points="137,-563.525 137,-582.525 211,-582.525 211,-563.525 137,-563.525"/>
<text text-anchor="middle" x="174" y="-570.525" font-family="Helvetica,sans-Serif" font-size="10.00">imap_access</text>
</a>
</g>
</g>
<!-- Node1&#45;&gt;Node6 -->
<g id="edge5" class="edge"><title>Node1&#45;&gt;Node6</title>
<path fill="none" stroke="midnightblue" d="M40.0036,-307.951C41.0775,-355.683 50.2835,-477.879 114,-549.025 120.123,-555.862 128.478,-560.789 136.973,-564.325"/>
<polygon fill="midnightblue" stroke="midnightblue" points="43.5007,-307.689 39.8778,-297.733 36.5012,-307.775 43.5007,-307.689"/>
</g>
<!-- Node7 -->
<g id="node7" class="node"><title>Node7</title>
<g id="a_node7"><a xlink:href="imap_8c.html#af4baf631aed2a0c50afde3c753aa4017" target="_top" xlink:title="Implements MxOps::mbox_open_append() ">
<polygon fill="white" stroke="black" points="270,-544.525 270,-563.525 400,-563.525 400,-544.525 270,-544.525"/>
<text text-anchor="middle" x="335" y="-551.525" font-family="Helvetica,sans-Serif" font-size="10.00">imap_mbox_open_append</text>
</a>
</g>
</g>
<!-- Node1&#45;&gt;Node7 -->
<g id="edge11" class="edge"><title>Node1&#45;&gt;Node7</title>
<path fill="none" stroke="midnightblue" d="M40.0338,-307.794C41.2614,-352.429 50.9268,-461.372 114,-516.025 136.848,-535.823 213.545,-545.603 269.977,-550.223"/>
<polygon fill="midnightblue" stroke="midnightblue" points="43.5316,-307.622 39.8753,-297.678 36.5324,-307.731 43.5316,-307.622"/>
</g>
<!-- Node8 -->
<g id="node8" class="node"><title>Node8</title>
<g id="a_node8"><a xlink:href="imap_8h.html#a36034876b5ce260ff6d70a435f8f36ca" target="_top" xlink:title="Subscribe to a mailbox. ">
<polygon fill="white" stroke="red" points="131.5,-335.525 131.5,-354.525 216.5,-354.525 216.5,-335.525 131.5,-335.525"/>
<text text-anchor="middle" x="174" y="-342.525" font-family="Helvetica,sans-Serif" font-size="10.00">imap_subscribe</text>
</a>
</g>
</g>
<!-- Node1&#45;&gt;Node8 -->
<g id="edge7" class="edge"><title>Node1&#45;&gt;Node8</title>
<path fill="none" stroke="midnightblue" d="M65.7089,-302.538C79.7222,-310.111 97.5236,-319.195 114,-326.025 122.35,-329.487 131.573,-332.722 140.197,-335.507"/>
<polygon fill="midnightblue" stroke="midnightblue" points="67.1262,-299.323 56.6754,-297.582 63.7594,-305.46 67.1262,-299.323"/>
</g>
<!-- Node9 -->
<g id="node9" class="node"><title>Node9</title>
<g id="a_node9"><a xlink:href="imap_8h.html#ae99223085d505fb8b323fa031b5ee0fa" target="_top" xlink:title="Try to complete an IMAP folder path. ">
<polygon fill="white" stroke="red" points="132.5,-297.525 132.5,-316.525 215.5,-316.525 215.5,-297.525 132.5,-297.525"/>
<text text-anchor="middle" x="174" y="-304.525" font-family="Helvetica,sans-Serif" font-size="10.00">imap_complete</text>
</a>
</g>
</g>
<!-- Node1&#45;&gt;Node9 -->
<g id="edge8" class="edge"><title>Node1&#45;&gt;Node9</title>
<path fill="none" stroke="midnightblue" d="M88.0596,-294.891C102.578,-296.965 118.371,-299.221 132.356,-301.219"/>
<polygon fill="midnightblue" stroke="midnightblue" points="88.1512,-291.368 77.7567,-293.419 87.1612,-298.298 88.1512,-291.368"/>
</g>
<!-- Node10 -->
<g id="node10" class="node"><title>Node10</title>
<g id="a_node10"><a xlink:href="imap_8h.html#ab8df632acf50bdb33e067b4cdbb2c99d" target="_top" xlink:title="Use server COPY command to copy deleted messages to trash. ">
<polygon fill="white" stroke="red" points="131,-259.525 131,-278.525 217,-278.525 217,-259.525 131,-259.525"/>
<text text-anchor="middle" x="174" y="-266.525" font-family="Helvetica,sans-Serif" font-size="10.00">imap_fast_trash</text>
</a>
</g>
</g>
<!-- Node1&#45;&gt;Node10 -->
<g id="edge9" class="edge"><title>Node1&#45;&gt;Node10</title>
<path fill="none" stroke="midnightblue" d="M87.774,-281.2C101.884,-279.184 117.219,-276.994 130.941,-275.034"/>
<polygon fill="midnightblue" stroke="midnightblue" points="87.1612,-277.752 77.7567,-282.631 88.1512,-284.682 87.1612,-277.752"/>
</g>
<!-- Node11 -->
<g id="node11" class="node"><title>Node11</title>
<g id="a_node11"><a xlink:href="imap_8c.html#a6aa69e15f9108427a470d8f679ebe0f3" target="_top" xlink:title="Implements MxOps::mbox_open() ">
<polygon fill="white" stroke="black" points="127.5,-221.525 127.5,-240.525 220.5,-240.525 220.5,-221.525 127.5,-221.525"/>
<text text-anchor="middle" x="174" y="-228.525" font-family="Helvetica,sans-Serif" font-size="10.00">imap_mbox_open</text>
</a>
</g>
</g>
<!-- Node1&#45;&gt;Node11 -->
<g id="edge10" class="edge"><title>Node1&#45;&gt;Node11</title>
<path fill="none" stroke="midnightblue" d="M65.7089,-273.513C79.7222,-265.939 97.5236,-256.855 114,-250.025 122.35,-246.564 131.573,-243.328 140.197,-240.543"/>
<polygon fill="midnightblue" stroke="midnightblue" points="63.7594,-270.59 56.6754,-278.468 67.1262,-276.727 63.7594,-270.59"/>
</g>
<!-- Node12 -->
<g id="node12" class="node"><title>Node12</title>
<g id="a_node12"><a xlink:href="message_8c.html#a98f190c0228d94863c21dfd71e4022d1" target="_top" xlink:title="Write an email back to the server. ">
<polygon fill="white" stroke="red" points="114.5,-183.525 114.5,-202.525 233.5,-202.525 233.5,-183.525 114.5,-183.525"/>
<text text-anchor="middle" x="174" y="-190.525" font-family="Helvetica,sans-Serif" font-size="10.00">imap_append_message</text>
</a>
</g>
</g>
<!-- Node1&#45;&gt;Node12 -->
<g id="edge12" class="edge"><title>Node1&#45;&gt;Node12</title>
<path fill="none" stroke="midnightblue" d="M53.042,-270.285C66.5279,-253.116 89.0781,-227.482 114,-212.025 120.127,-208.225 127.088,-205.113 134.028,-202.588"/>
<polygon fill="midnightblue" stroke="midnightblue" points="50.138,-268.321 46.8514,-278.394 55.7018,-272.569 50.138,-268.321"/>
</g>
<!-- Node13 -->
<g id="node13" class="node"><title>Node13</title>
<g id="a_node13"><a xlink:href="message_8c.html#ac8b081db1e42feedcb823b54157fcd79" target="_top" xlink:title="Server COPY messages to another folder. ">
<polygon fill="white" stroke="red" points="117,-145.525 117,-164.525 231,-164.525 231,-145.525 117,-145.525"/>
<text text-anchor="middle" x="174" y="-152.525" font-family="Helvetica,sans-Serif" font-size="10.00">imap_copy_messages</text>
</a>
</g>
</g>
<!-- Node1&#45;&gt;Node13 -->
<g id="edge13" class="edge"><title>Node1&#45;&gt;Node13</title>
<path fill="none" stroke="midnightblue" d="M47.525,-268.926C58.4447,-243.621 81.0461,-199.248 114,-174.025 119.042,-170.166 124.893,-167.077 130.914,-164.607"/>
<polygon fill="midnightblue" stroke="midnightblue" points="44.156,-267.914 43.5642,-278.492 50.6235,-270.591 44.156,-267.914"/>
</g>
<!-- Node14 -->
<g id="node14" class="node"><title>Node14</title>
<g id="a_node14"><a xlink:href="util_8c.html#ac73c9fa56f722a90950fe705a05a287d" target="_top" xlink:title="Canonicalise an IMAP path. ">
<polygon fill="white" stroke="red" points="125,-107.525 125,-126.525 223,-126.525 223,-107.525 125,-107.525"/>
<text text-anchor="middle" x="174" y="-114.525" font-family="Helvetica,sans-Serif" font-size="10.00">imap_expand_path</text>
</a>
</g>
</g>
<!-- Node1&#45;&gt;Node14 -->
<g id="edge14" class="edge"><title>Node1&#45;&gt;Node14</title>
<path fill="none" stroke="midnightblue" d="M44.3156,-268.203C52.3722,-235.873 72.7519,-171.813 114,-136.025 118.47,-132.146 123.743,-129.057 129.268,-126.598"/>
<polygon fill="midnightblue" stroke="midnightblue" points="40.8429,-267.682 41.9658,-278.217 47.6578,-269.281 40.8429,-267.682"/>
</g>
<!-- Node15 -->
<g id="node15" class="node"><title>Node15</title>
<g id="a_node15"><a xlink:href="util_8c.html#af196b294dbffbdc01b22c3a2c8a500ec" target="_top" xlink:title="Get the path of the parent folder. ">
<polygon fill="white" stroke="red" points="117.5,-69.5251 117.5,-88.5251 230.5,-88.5251 230.5,-69.5251 117.5,-69.5251"/>
<text text-anchor="middle" x="174" y="-76.5251" font-family="Helvetica,sans-Serif" font-size="10.00">imap_get_parent_path</text>
</a>
</g>
</g>
<!-- Node1&#45;&gt;Node15 -->
<g id="edge15" class="edge"><title>Node1&#45;&gt;Node15</title>
<path fill="none" stroke="midnightblue" d="M42.2004,-267.698C47.4562,-229.099 64.2576,-144.876 114,-98.0251 118.152,-94.1147 123.113,-91.009 128.371,-88.5425"/>
<polygon fill="midnightblue" stroke="midnightblue" points="38.6655,-267.767 40.9163,-278.12 45.6129,-268.623 38.6655,-267.767"/>
</g>
<!-- Node16 -->
<g id="node16" class="node"><title>Node16</title>
<g id="a_node16"><a xlink:href="util_8c.html#a7c4dbc9f84be00789935c291832b75b2" target="_top" xlink:title="Cleans an IMAP path using imap_fix_path. ">
<polygon fill="white" stroke="red" points="129,-31.5251 129,-50.5251 219,-50.5251 219,-31.5251 129,-31.5251"/>
<text text-anchor="middle" x="174" y="-38.5251" font-family="Helvetica,sans-Serif" font-size="10.00">imap_clean_path</text>
</a>
</g>
</g>
<!-- Node1&#45;&gt;Node16 -->
<g id="edge16" class="edge"><title>Node1&#45;&gt;Node16</title>
<path fill="none" stroke="midnightblue" d="M40.6452,-267.98C43.153,-224.056 55.3147,-118.576 114,-60.0251 118.19,-55.8448 123.303,-52.5837 128.749,-50.0398"/>
<polygon fill="midnightblue" stroke="midnightblue" points="37.1383,-268.054 40.1779,-278.204 44.131,-268.374 37.1383,-268.054"/>
</g>
<!-- Node17 -->
<g id="node17" class="node"><title>Node17</title>
<g id="a_node17"><a xlink:href="util_8c.html#a95b870498ac3b923dc276a18c8c5add8" target="_top" xlink:title="Compare mailbox names, giving priority to INBOX. ">
<polygon fill="white" stroke="red" points="136.5,-373.525 136.5,-392.525 211.5,-392.525 211.5,-373.525 136.5,-373.525"/>
<text text-anchor="middle" x="174" y="-380.525" font-family="Helvetica,sans-Serif" font-size="10.00">imap_mxcmp</text>
</a>
</g>
</g>
<!-- Node1&#45;&gt;Node17 -->
<g id="edge17" class="edge"><title>Node1&#45;&gt;Node17</title>
<path fill="none" stroke="midnightblue" d="M53.042,-305.765C66.5279,-322.934 89.0781,-348.569 114,-364.025 120.767,-368.222 128.552,-371.58 136.201,-374.234"/>
<polygon fill="midnightblue" stroke="midnightblue" points="55.7018,-303.481 46.8514,-297.657 50.138,-307.729 55.7018,-303.481"/>
</g>
<!-- Node6&#45;&gt;Node7 -->
<g id="edge6" class="edge"><title>Node6&#45;&gt;Node7</title>
<path fill="none" stroke="midnightblue" d="M221.259,-567.497C236.471,-565.679 253.663,-563.625 269.955,-561.678"/>
<polygon fill="midnightblue" stroke="midnightblue" points="220.594,-564.052 211.08,-568.714 221.424,-571.002 220.594,-564.052"/>
</g>
<!-- Node17&#45;&gt;Node2 -->
<g id="edge18" class="edge"><title>Node17&#45;&gt;Node2</title>
<path fill="none" stroke="midnightblue" d="M221.865,-388.625C242.219,-391.058 266.027,-393.902 286.456,-396.344"/>
<polygon fill="midnightblue" stroke="midnightblue" points="222.222,-385.143 211.877,-387.432 221.391,-392.094 222.222,-385.143"/>
</g>
<!-- Node17&#45;&gt;Node3 -->
<g id="edge19" class="edge"><title>Node17&#45;&gt;Node3</title>
<path fill="none" stroke="midnightblue" d="M220.864,-372.294C225.589,-370.04 230.084,-367.316 234,-364.025 295.067,-312.701 323.917,-214.414 331.739,-183.545"/>
<polygon fill="midnightblue" stroke="midnightblue" points="219.526,-369.059 211.586,-376.075 222.168,-375.542 219.526,-369.059"/>
</g>
</g>
</svg>
