<?xml version="1.0" encoding="UTF-8" standalone="no"?>
<!DOCTYPE svg PUBLIC "-//W3C//DTD SVG 1.1//EN"
 "http://www.w3.org/Graphics/SVG/1.1/DTD/svg11.dtd">
<!-- Generated by graphviz version 2.36.0 (20140111.2315)
 -->
<!-- Title: imap_mxcmp Pages: 1 -->
<svg width="230pt" height="142pt"
 viewBox="0.00 0.00 230.00 142.00" xmlns="http://www.w3.org/2000/svg" xmlns:xlink="http://www.w3.org/1999/xlink">
<g id="graph0" class="graph" transform="scale(1 1) rotate(0) translate(4 138)">
<title>imap_mxcmp</title>
<polygon fill="white" stroke="none" points="-4,4 -4,-138 226,-138 226,4 -4,4"/>
<!-- Node1 -->
<g id="node1" class="node"><title>Node1</title>
<polygon fill="#bfbfbf" stroke="black" points="0.5,-57.5 0.5,-76.5 75.5,-76.5 75.5,-57.5 0.5,-57.5"/>
<text text-anchor="middle" x="38" y="-64.5" font-family="Helvetica,sans-Serif" font-size="10.00">imap_mxcmp</text>
</g>
<!-- Node2 -->
<g id="node2" class="node"><title>Node2</title>
<g id="a_node2"><a xlink:href="mutt_2string_8c.html#a011e5b6fad43bc608584d585987cf9c1" target="_top" xlink:title="Compare two strings ignoring case, safely. ">
<polygon fill="white" stroke="black" points="112.5,-114.5 112.5,-133.5 221.5,-133.5 221.5,-114.5 112.5,-114.5"/>
<text text-anchor="middle" x="167" y="-121.5" font-family="Helvetica,sans-Serif" font-size="10.00">mutt_str_strcasecmp</text>
</a>
</g>
</g>
<!-- Node1&#45;&gt;Node2 -->
<g id="edge1" class="edge"><title>Node1&#45;&gt;Node2</title>
<path fill="none" stroke="midnightblue" d="M55.7783,-76.6024C70.3649,-84.7386 92.206,-96.4172 112,-105 116.778,-107.072 121.863,-109.092 126.929,-110.994"/>
<polygon fill="midnightblue" stroke="midnightblue" points="125.968,-114.368 136.562,-114.49 128.356,-107.788 125.968,-114.368"/>
</g>
<!-- Node3 -->
<g id="node3" class="node"><title>Node3</title>
<g id="a_node3"><a xlink:href="memory_8c.html#a264da4dc58e6dc8983285bd1f538f24d" target="_top" xlink:title="Allocate memory on the heap. ">
<polygon fill="white" stroke="red" points="118.5,-76.5 118.5,-95.5 215.5,-95.5 215.5,-76.5 118.5,-76.5"/>
<text text-anchor="middle" x="167" y="-83.5" font-family="Helvetica,sans-Serif" font-size="10.00">mutt_mem_malloc</text>
</a>
</g>
</g>
<!-- Node1&#45;&gt;Node3 -->
<g id="edge2" class="edge"><title>Node1&#45;&gt;Node3</title>
<path fill="none" stroke="midnightblue" d="M75.7337,-72.4956C85.9417,-74.0228 97.2792,-75.7189 108.375,-77.379"/>
<polygon fill="midnightblue" stroke="midnightblue" points="108.051,-80.8693 118.459,-78.8875 109.087,-73.9464 108.051,-80.8693"/>
</g>
<!-- Node4 -->
<g id="node4" class="node"><title>Node4</title>
<g id="a_node4"><a xlink:href="util_8c.html#a0ad581214978f22f29cf3f818c7428ac" target="_top" xlink:title="Fix up the imap path. ">
<polygon fill="white" stroke="black" points="128.5,-38.5 128.5,-57.5 205.5,-57.5 205.5,-38.5 128.5,-38.5"/>
<text text-anchor="middle" x="167" y="-45.5" font-family="Helvetica,sans-Serif" font-size="10.00">imap_fix_path</text>
</a>
</g>
</g>
<!-- Node1&#45;&gt;Node4 -->
<g id="edge3" class="edge"><title>Node1&#45;&gt;Node4</title>
<path fill="none" stroke="midnightblue" d="M75.7337,-61.5044C89.0563,-59.5113 104.303,-57.2303 118.426,-55.1174"/>
<polygon fill="midnightblue" stroke="midnightblue" points="119.096,-58.5562 128.468,-53.6151 118.06,-51.6333 119.096,-58.5562"/>
</g>
<!-- Node5 -->
<g id="node5" class="node"><title>Node5</title>
<g id="a_node5"><a xlink:href="mutt_2string_8c.html#ab4aaf8bd2ce3982651f0f949d6c665e2" target="_top" xlink:title="Compare two strings, safely. ">
<polygon fill="white" stroke="black" points="123,-0.5 123,-19.5 211,-19.5 211,-0.5 123,-0.5"/>
<text text-anchor="middle" x="167" y="-7.5" font-family="Helvetica,sans-Serif" font-size="10.00">mutt_str_strcmp</text>
</a>
</g>
</g>
<!-- Node1&#45;&gt;Node5 -->
<g id="edge4" class="edge"><title>Node1&#45;&gt;Node5</title>
<path fill="none" stroke="midnightblue" d="M55.7783,-57.3976C70.3649,-49.2614 92.206,-37.5828 112,-29 116.778,-26.928 121.863,-24.9081 126.929,-23.0058"/>
<polygon fill="midnightblue" stroke="midnightblue" points="128.356,-26.2115 136.562,-19.5098 125.968,-19.6315 128.356,-26.2115"/>
</g>
</g>
</svg>
