<?xml version="1.0" encoding="UTF-8" standalone="no"?>
<!DOCTYPE svg PUBLIC "-//W3C//DTD SVG 1.1//EN"
 "http://www.w3.org/Graphics/SVG/1.1/DTD/svg11.dtd">
<!-- Generated by graphviz version 2.36.0 (20140111.2315)
 -->
<!-- Title: imap_hcache_get Pages: 1 -->
<svg width="378pt" height="104pt"
 viewBox="0.00 0.00 378.00 104.00" xmlns="http://www.w3.org/2000/svg" xmlns:xlink="http://www.w3.org/1999/xlink">
<g id="graph0" class="graph" transform="scale(1 1) rotate(0) translate(4 100)">
<title>imap_hcache_get</title>
<polygon fill="white" stroke="none" points="-4,4 -4,-100 374,-100 374,4 -4,4"/>
<!-- Node1 -->
<g id="node1" class="node"><title>Node1</title>
<polygon fill="#bfbfbf" stroke="black" points="0.5,-38.5 0.5,-57.5 93.5,-57.5 93.5,-38.5 0.5,-38.5"/>
<text text-anchor="middle" x="47" y="-45.5" font-family="Helvetica,sans-Serif" font-size="10.00">imap_hcache_get</text>
</g>
<!-- Node2 -->
<g id="node2" class="node"><title>Node2</title>
<g id="a_node2"><a xlink:href="hcache_8c.html#a328c1cf43151360a9001b2423ffd6ab8" target="_top" xlink:title="Multiplexor for HcacheOps::fetch. ">
<polygon fill="white" stroke="red" points="134,-76.5 134,-95.5 234,-95.5 234,-76.5 134,-76.5"/>
<text text-anchor="middle" x="184" y="-83.5" font-family="Helvetica,sans-Serif" font-size="10.00">mutt_hcache_fetch</text>
</a>
</g>
</g>
<!-- Node1&#45;&gt;Node2 -->
<g id="edge1" class="edge"><title>Node1&#45;&gt;Node2</title>
<path fill="none" stroke="midnightblue" d="M82.0662,-57.589C99.4135,-62.4719 120.702,-68.4643 139.249,-73.685"/>
<polygon fill="midnightblue" stroke="midnightblue" points="138.37,-77.0735 148.945,-76.4141 140.267,-70.3354 138.37,-77.0735"/>
</g>
<!-- Node3 -->
<g id="node3" class="node"><title>Node3</title>
<g id="a_node3"><a xlink:href="hcache_8c.html#a51e16ac36abe59d7df4b6be113efe90c" target="_top" xlink:title="Multiplexor for HcacheOps::free. ">
<polygon fill="white" stroke="black" points="274.5,-57.5 274.5,-76.5 369.5,-76.5 369.5,-57.5 274.5,-57.5"/>
<text text-anchor="middle" x="322" y="-64.5" font-family="Helvetica,sans-Serif" font-size="10.00">mutt_hcache_free</text>
</a>
</g>
</g>
<!-- Node1&#45;&gt;Node3 -->
<g id="edge4" class="edge"><title>Node1&#45;&gt;Node3</title>
<path fill="none" stroke="midnightblue" d="M93.6941,-51.1802C140.556,-54.4416 213.551,-59.5219 264.124,-63.0416"/>
<polygon fill="midnightblue" stroke="midnightblue" points="264.023,-66.5429 274.242,-63.7458 264.509,-59.5598 264.023,-66.5429"/>
</g>
<!-- Node4 -->
<g id="node4" class="node"><title>Node4</title>
<g id="a_node4"><a xlink:href="hcache_8h.html#a556940057108b6e02ff298c2aabe4e6a" target="_top" xlink:title="restore a Header from data retrieved from the cache ">
<polygon fill="white" stroke="black" points="130,-0.5 130,-19.5 238,-19.5 238,-0.5 130,-0.5"/>
<text text-anchor="middle" x="184" y="-7.5" font-family="Helvetica,sans-Serif" font-size="10.00">mutt_hcache_restore</text>
</a>
</g>
</g>
<!-- Node1&#45;&gt;Node4 -->
<g id="edge3" class="edge"><title>Node1&#45;&gt;Node4</title>
<path fill="none" stroke="midnightblue" d="M82.0662,-38.411C99.4135,-33.5281 120.702,-27.5357 139.249,-22.315"/>
<polygon fill="midnightblue" stroke="midnightblue" points="140.267,-25.6646 148.945,-19.5859 138.37,-18.9265 140.267,-25.6646"/>
</g>
<!-- Node2&#45;&gt;Node3 -->
<g id="edge2" class="edge"><title>Node2&#45;&gt;Node3</title>
<path fill="none" stroke="midnightblue" d="M234.099,-79.1406C243.812,-77.7836 254.083,-76.3486 264.031,-74.9588"/>
<polygon fill="midnightblue" stroke="midnightblue" points="264.825,-78.3821 274.244,-73.5321 263.856,-71.4494 264.825,-78.3821"/>
</g>
</g>
</svg>
