<?xml version="1.0" encoding="UTF-8" standalone="no"?>
<!DOCTYPE svg PUBLIC "-//W3C//DTD SVG 1.1//EN"
 "http://www.w3.org/Graphics/SVG/1.1/DTD/svg11.dtd">
<!-- Generated by graphviz version 2.36.0 (20140111.2315)
 -->
<!-- Title: feature_enabled Pages: 1 -->
<svg width="196pt" height="28pt"
 viewBox="0.00 0.00 196.00 28.00" xmlns="http://www.w3.org/2000/svg" xmlns:xlink="http://www.w3.org/1999/xlink">
<g id="graph0" class="graph" transform="scale(1 1) rotate(0) translate(4 24)">
<title>feature_enabled</title>
<polygon fill="white" stroke="none" points="-4,4 -4,-24 192,-24 192,4 -4,4"/>
<!-- Node1 -->
<g id="node1" class="node"><title>Node1</title>
<polygon fill="#bfbfbf" stroke="black" points="0,-0.5 0,-19.5 86,-19.5 86,-0.5 0,-0.5"/>
<text text-anchor="middle" x="43" y="-7.5" font-family="Helvetica,sans-Serif" font-size="10.00">feature_enabled</text>
</g>
<!-- Node2 -->
<g id="node2" class="node"><title>Node2</title>
<g id="a_node2"><a xlink:href="init_8c.html#a966fdc51fbcdcf98660d4823b96146f5" target="_top" xlink:title="Parse the &#39;ifdef&#39; and &#39;ifndef&#39; commands &#45; Implements command_t. ">
<polygon fill="white" stroke="black" points="122.5,-0.5 122.5,-19.5 187.5,-19.5 187.5,-0.5 122.5,-0.5"/>
<text text-anchor="middle" x="155" y="-7.5" font-family="Helvetica,sans-Serif" font-size="10.00">parse_ifdef</text>
</a>
</g>
</g>
<!-- Node1&#45;&gt;Node2 -->
<g id="edge1" class="edge"><title>Node1&#45;&gt;Node2</title>
<path fill="none" stroke="midnightblue" d="M96.4853,-10C105.315,-10 114.232,-10 122.322,-10"/>
<polygon fill="midnightblue" stroke="midnightblue" points="96.2143,-6.5001 86.2143,-10 96.2142,-13.5001 96.2143,-6.5001"/>
</g>
</g>
</svg>
