<?xml version="1.0" encoding="UTF-8" standalone="no"?>
<!DOCTYPE svg PUBLIC "-//W3C//DTD SVG 1.1//EN"
 "http://www.w3.org/Graphics/SVG/1.1/DTD/svg11.dtd">
<!-- Generated by graphviz version 2.36.0 (20140111.2315)
 -->
<!-- Title: version.c Pages: 1 -->
<svg width="727pt" height="140pt"
 viewBox="0.00 0.00 727.00 140.00" xmlns="http://www.w3.org/2000/svg" xmlns:xlink="http://www.w3.org/1999/xlink">
<g id="graph0" class="graph" transform="scale(1 1) rotate(0) translate(4 136)">
<title>version.c</title>
<polygon fill="white" stroke="none" points="-4,4 -4,-136 723,-136 723,4 -4,4"/>
<!-- Node1 -->
<g id="node1" class="node"><title>Node1</title>
<polygon fill="#bfbfbf" stroke="black" points="358,-112.5 358,-131.5 414,-131.5 414,-112.5 358,-112.5"/>
<text text-anchor="middle" x="386" y="-119.5" font-family="Helvetica,sans-Serif" font-size="10.00">version.c</text>
</g>
<!-- Node2 -->
<g id="node2" class="node"><title>Node2</title>
<polygon fill="white" stroke="#bfbfbf" points="-0.5,-56.5 -0.5,-75.5 50.5,-75.5 50.5,-56.5 -0.5,-56.5"/>
<text text-anchor="middle" x="25" y="-63.5" font-family="Helvetica,sans-Serif" font-size="10.00">config.h</text>
</g>
<!-- Node1&#45;&gt;Node2 -->
<g id="edge1" class="edge"><title>Node1&#45;&gt;Node2</title>
<path fill="none" stroke="midnightblue" d="M357.967,-117.855C302.032,-111.406 172.679,-95.6273 65,-76 63.5557,-75.7367 62.0845,-75.4575 60.6001,-75.1665"/>
<polygon fill="midnightblue" stroke="midnightblue" points="61.2601,-71.729 50.7572,-73.1217 59.8362,-78.5826 61.2601,-71.729"/>
</g>
<!-- Node3 -->
<g id="node3" class="node"><title>Node3</title>
<polygon fill="white" stroke="#bfbfbf" points="58,-0.5 58,-19.5 114,-19.5 114,-0.5 58,-0.5"/>
<text text-anchor="middle" x="86" y="-7.5" font-family="Helvetica,sans-Serif" font-size="10.00">stdbool.h</text>
</g>
<!-- Node1&#45;&gt;Node3 -->
<g id="edge2" class="edge"><title>Node1&#45;&gt;Node3</title>
<path fill="none" stroke="midnightblue" d="M357.853,-120.595C292.771,-119.054 134.637,-111.641 98,-76 85.9279,-64.2562 83.7537,-44.6139 84.0961,-29.9895"/>
<polygon fill="midnightblue" stroke="midnightblue" points="87.6163,-29.7887 84.7693,-19.5836 80.6309,-29.3368 87.6163,-29.7887"/>
</g>
<!-- Node4 -->
<g id="node4" class="node"><title>Node4</title>
<polygon fill="white" stroke="#bfbfbf" points="299,-0.5 299,-19.5 345,-19.5 345,-0.5 299,-0.5"/>
<text text-anchor="middle" x="322" y="-7.5" font-family="Helvetica,sans-Serif" font-size="10.00">stdio.h</text>
</g>
<!-- Node1&#45;&gt;Node4 -->
<g id="edge3" class="edge"><title>Node1&#45;&gt;Node4</title>
<path fill="none" stroke="midnightblue" d="M410.86,-112.392C439.236,-101.178 479.591,-80.1316 462,-56 437.709,-22.6774 388.339,-13.4901 355.206,-11.2474"/>
<polygon fill="midnightblue" stroke="midnightblue" points="355.234,-7.74453 345.072,-10.7415 354.885,-14.7358 355.234,-7.74453"/>
</g>
<!-- Node5 -->
<g id="node5" class="node"><title>Node5</title>
<polygon fill="white" stroke="#bfbfbf" points="236.5,-56.5 236.5,-75.5 285.5,-75.5 285.5,-56.5 236.5,-56.5"/>
<text text-anchor="middle" x="261" y="-63.5" font-family="Helvetica,sans-Serif" font-size="10.00">string.h</text>
</g>
<!-- Node1&#45;&gt;Node5 -->
<g id="edge4" class="edge"><title>Node1&#45;&gt;Node5</title>
<path fill="none" stroke="midnightblue" d="M366.193,-112.444C345.713,-103.596 313.517,-89.6875 290.135,-79.5865"/>
<polygon fill="midnightblue" stroke="midnightblue" points="291.282,-76.2692 280.714,-75.5164 288.506,-82.6953 291.282,-76.2692"/>
</g>
<!-- Node6 -->
<g id="node6" class="node"><title>Node6</title>
<polygon fill="white" stroke="#bfbfbf" points="303.5,-56.5 303.5,-75.5 384.5,-75.5 384.5,-56.5 303.5,-56.5"/>
<text text-anchor="middle" x="344" y="-63.5" font-family="Helvetica,sans-Serif" font-size="10.00">sys/utsname.h</text>
</g>
<!-- Node1&#45;&gt;Node6 -->
<g id="edge5" class="edge"><title>Node1&#45;&gt;Node6</title>
<path fill="none" stroke="midnightblue" d="M379.065,-112.083C373.071,-104.377 364.248,-93.0333 356.952,-83.6531"/>
<polygon fill="midnightblue" stroke="midnightblue" points="359.709,-81.4958 350.806,-75.7511 354.183,-85.7934 359.709,-81.4958"/>
</g>
<!-- Node7 -->
<g id="node7" class="node"><title>Node7</title>
<polygon fill="white" stroke="#bfbfbf" points="402.5,-56.5 402.5,-75.5 453.5,-75.5 453.5,-56.5 402.5,-56.5"/>
<text text-anchor="middle" x="428" y="-63.5" font-family="Helvetica,sans-Serif" font-size="10.00">unistd.h</text>
</g>
<!-- Node1&#45;&gt;Node7 -->
<g id="edge6" class="edge"><title>Node1&#45;&gt;Node7</title>
<path fill="none" stroke="midnightblue" d="M392.935,-112.083C398.929,-104.377 407.752,-93.0333 415.048,-83.6531"/>
<polygon fill="midnightblue" stroke="midnightblue" points="417.817,-85.7934 421.194,-75.7511 412.291,-81.4958 417.817,-85.7934"/>
</g>
<!-- Node8 -->
<g id="node8" class="node"><title>Node8</title>
<g id="a_node8"><a xlink:href="mutt_2mutt_8h.html" target="_top" xlink:title="Convenience wrapper for the library headers. ">
<polygon fill="white" stroke="red" points="612.5,-0.5 612.5,-19.5 679.5,-19.5 679.5,-0.5 612.5,-0.5"/>
<text text-anchor="middle" x="646" y="-7.5" font-family="Helvetica,sans-Serif" font-size="10.00">mutt/mutt.h</text>
</a>
</g>
</g>
<!-- Node1&#45;&gt;Node8 -->
<g id="edge7" class="edge"><title>Node1&#45;&gt;Node8</title>
<path fill="none" stroke="midnightblue" d="M414.282,-120.641C456.279,-118.895 536.265,-110.816 593,-76 611.935,-64.3802 627.126,-43.5217 636.31,-28.5649"/>
<polygon fill="midnightblue" stroke="midnightblue" points="639.44,-30.1458 641.457,-19.7447 633.394,-26.618 639.44,-30.1458"/>
</g>
<!-- Node9 -->
<g id="node9" class="node"><title>Node9</title>
<g id="a_node9"><a xlink:href="email_8h.html" target="_top" xlink:title="Structs that make up an email. ">
<polygon fill="white" stroke="red" points="510,-56.5 510,-75.5 584,-75.5 584,-56.5 510,-56.5"/>
<text text-anchor="middle" x="547" y="-63.5" font-family="Helvetica,sans-Serif" font-size="10.00">email/email.h</text>
</a>
</g>
</g>
<!-- Node1&#45;&gt;Node9 -->
<g id="edge8" class="edge"><title>Node1&#45;&gt;Node9</title>
<path fill="none" stroke="midnightblue" d="M411.511,-112.444C438.596,-103.359 481.59,-88.9388 511.869,-78.7831"/>
<polygon fill="midnightblue" stroke="midnightblue" points="513.24,-82.0148 521.608,-75.5164 511.014,-75.3781 513.24,-82.0148"/>
</g>
<!-- Node10 -->
<g id="node10" class="node"><title>Node10</title>
<g id="a_node10"><a xlink:href="mutt__curses_8h.html" target="_top" xlink:title="Define wrapper functions around Curses/Slang. ">
<polygon fill="white" stroke="red" points="640.5,-56.5 640.5,-75.5 719.5,-75.5 719.5,-56.5 640.5,-56.5"/>
<text text-anchor="middle" x="680" y="-63.5" font-family="Helvetica,sans-Serif" font-size="10.00">mutt_curses.h</text>
</a>
</g>
</g>
<!-- Node1&#45;&gt;Node10 -->
<g id="edge9" class="edge"><title>Node1&#45;&gt;Node10</title>
<path fill="none" stroke="midnightblue" d="M414.19,-115.822C464.018,-106.67 568.246,-87.5263 630.352,-76.119"/>
<polygon fill="midnightblue" stroke="midnightblue" points="631.113,-79.5378 640.316,-74.2888 629.849,-72.653 631.113,-79.5378"/>
</g>
<!-- Node11 -->
<g id="node11" class="node"><title>Node11</title>
<g id="a_node11"><a xlink:href="crypt__gpgme_8h.html" target="_top" xlink:title="Wrapper for PGP/SMIME calls to GPGME. ">
<polygon fill="white" stroke="black" points="107.5,-56.5 107.5,-75.5 218.5,-75.5 218.5,-56.5 107.5,-56.5"/>
<text text-anchor="middle" x="163" y="-63.5" font-family="Helvetica,sans-Serif" font-size="10.00">ncrypt/crypt_gpgme.h</text>
</a>
</g>
</g>
<!-- Node1&#45;&gt;Node11 -->
<g id="edge11" class="edge"><title>Node1&#45;&gt;Node11</title>
<path fill="none" stroke="midnightblue" d="M357.757,-114.161C320.057,-105.032 252.854,-88.7584 208.101,-77.9213"/>
<polygon fill="midnightblue" stroke="midnightblue" points="208.897,-74.513 198.354,-75.5611 207.25,-81.3164 208.897,-74.513"/>
</g>
<!-- Node10&#45;&gt;Node8 -->
<g id="edge10" class="edge"><title>Node10&#45;&gt;Node8</title>
<path fill="none" stroke="midnightblue" d="M674.386,-56.083C669.633,-48.5341 662.682,-37.4948 656.848,-28.2298"/>
<polygon fill="midnightblue" stroke="midnightblue" points="659.8,-26.3486 651.51,-19.7511 653.876,-30.0783 659.8,-26.3486"/>
</g>
<!-- Node11&#45;&gt;Node3 -->
<g id="edge12" class="edge"><title>Node11&#45;&gt;Node3</title>
<path fill="none" stroke="midnightblue" d="M150.629,-56.324C138.842,-48.0577 120.868,-35.4527 106.864,-25.6322"/>
<polygon fill="midnightblue" stroke="midnightblue" points="108.538,-22.5307 98.3407,-19.6545 104.518,-28.2619 108.538,-22.5307"/>
</g>
<!-- Node11&#45;&gt;Node4 -->
<g id="edge13" class="edge"><title>Node11&#45;&gt;Node4</title>
<path fill="none" stroke="midnightblue" d="M188.194,-56.4435C215.572,-47.1454 259.409,-32.2572 289.395,-22.0735"/>
<polygon fill="midnightblue" stroke="midnightblue" points="290.646,-25.3451 298.989,-18.8151 288.394,-18.7169 290.646,-25.3451"/>
</g>
</g>
</svg>
